___________________________,0
_______________________________,1
_____________________________________________,2
aaaahhhhhh,3
abandon,4
abbas,5
abhorrent,6
ability,7
able,8
abode,9
abolutely,10
aboroginals,11
aborogine,12
abroad,13
abrogate,14
abrogated,15
abrupt,16
absense,17
absolute,18
absolutely,19
absurd,20
abu,21
abundant,22
abuse,23
abused,24
abusing,25
abysmally,26
academies,27
accept,28
acceptable,29
accepted,30
accepting,31
access,32
accessible,33
accident,34
accommodate,35
accommodation,36
according,37
account,38
accounted,39
accounts,40
accurate,41
accusations,42
accused,43
accusing,44
acer,45
acheive,46
achieve,47
acknowleged,48
acquire,49
act,50
acted,51
acting,52
action,53
actions,54
active,55
activist,56
activity,57
acts,58
actual,59
actualisation,60
actually,61
acuses,62
acutely,63
acxts,64
ad,65
add,66
added,67
address,68
addressed,69
addresses,70
addressing,71
adds,72
adduce,73
adequate,74
admin,75
administartion,76
administators,77
administration,78
administrative,79
administrators,80
admission,81
admit,82
admitted,83
adolescence,84
adopting,85
adulthood,86
adults,87
advance,88
advanced,89
advances,90
adventure,91
advert,92
advertise,93
advisers,94
aerial,95
afair,96
affair,97
affairs,98
affect,99
afford,100
afghan,101
afghanistan,102
afghans,103
aforementioned,104
afraid,105
africa,106
african,107
afrikaaner,108
afrikaaners,109
age,110
agency,111
agenda,112
agendas,113
ages,114
aggression,115
aggressive,116
ago,117
agree,118
agreed,119
agreeing,120
agreement,121
agreements,122
agrees,123
ah,124
ahead,125
ahh,126
ahmadinejihad,127
ahmed,128
aid,129
aim,130
aimed,131
aims,132
aina,133
air,134
aircraft,135
aired,136
airlines,137
airport,138
airports,139
airwaves,140
akin,141
al,142
alarming,143
alaska,144
albeit,145
albert,146
alcohol,147
ales,148
ali,149
alike,150
alive,151
aliya,152
aljazeera,153
allah,154
allegations,155
alleged,156
allende,157
alliance,158
allied,159
allience,160
allies,161
allocated,162
alloted,163
allow,164
allowed,165
allowing,166
allows,167
allude,168
alluding,169
ally,170
alongside,171
alot,172
alright,173
alternating,174
alternatively,175
altogether,176
amaze,177
amazed,178
amazing,179
ambitions,180
ambulance,181
amd,182
amendment,183
america,184
american,185
americans,186
americas,187
amerindian,188
amerindians,189
amnesty,190
amodel,191
amounted,192
amounts,193
amp,194
amsterdam,195
amusing,196
analagous,197
analogies,198
analogy,199
analysis,200
anarchy,201
ancestors,202
ancestral,203
ancient,204
andrea,205
andy,206
angel,207
angela,208
angeles,209
angels,210
anger,211
angle,212
angles,213
anglia,214
angola,215
angry,216
animal,217
animals,218
ann,219
anne,220
annexing,221
annhialate,222
annihilation,223
anniversary,224
annon,225
announce,226
announced,227
annoying,228
anothr,229
answer,230
answered,231
answering,232
answers,233
antagonistic,234
anthony,235
anthropological,236
anti,237
antibiotics,238
antineocon,239
anybody,240
anybodys,241
anymore,242
anytime,243
apart,244
apartheid,245
apartheit,246
apartment,247
apatheid,248
apolitical,249
apologies,250
apologise,251
apologists,252
appalled,253
appalling,254
apparent,255
apparently,256
appealed,257
appear,258
appeared,259
appears,260
appease,261
appeasers,262
appetite,263
apple,264
apples,265
applicable,266
apply,267
applying,268
appointments,269
appolo,270
appreciate,271
approach,272
approached,273
approaching,274
approval,275
approve,276
approved,277
approx,278
approximately,279
april,280
apropriate,281
arab,282
arabia,283
arabians,284
arabic,285
arabs,286
arafat,287
arbs,288
arch,289
architects,290
archives,291
area,292
areas,293
aren,294
arent,295
argentina,296
argue,297
argued,298
arguements,299
argues,300
arguing,301
argument,302
arguments,303
arm,304
armed,305
armenian,306
armies,307
arms,308
army,309
arnie,310
aropund,311
arranged,312
arrest,313
arrested,314
arrived,315
arriving,316
arrogance,317
arrogant,318
arrresting,319
arse,320
arsenals,321
art,322
article,323
articles,324
articulately,325
artificial,326
artillery,327
aryans,328
asa,329
ashanti,330
asians,331
aside,332
ask,333
asked,334
asking,335
aspirate,336
aspirational,337
aspirations,338
aspire,339
asprin,340
assasination,341
assault,342
assembly,343
assert,344
asserted,345
assesement,346
assess,347
assessing,348
assimilate,349
assimilated,350
associate,351
association,352
assume,353
assumed,354
assuming,355
assumption,356
assumptions,357
assure,358
astonished,359
astounding,360
astute,361
aswat,362
aswell,363
ataturk,364
atheist,365
atleast,366
atrocities,367
atrocity,368
atta,369
attack,370
attacked,371
attackers,372
attacking,373
attacks,374
attain,375
attempt,376
attempting,377
attempts,378
attention,379
attest,380
attire,381
attitude,382
attorney,383
attract,384
attracted,385
attraction,386
attracts,387
attributable,388
attribute,389
audiance,390
audited,391
august,392
australia,393
australian,394
austria,395
austrians,396
authorities,397
authority,398
authors,399
automobile,400
available,401
availed,402
avalible,403
avenge,404
average,405
avert,406
avigdor,407
aviv,408
avoid,409
avoided,410
avoiding,411
await,412
award,413
aware,414
away,415
awe,416
awful,417
axe,418
axegrinder,419
azania,420
azar,421
aziz,422
baader,423
baathists,424
babies,425
baby,426
babysitting,427
backed,428
backing,429
backwater,430
bad,431
badly,432
baffles,433
bagdad,434
baggage,435
baghdad,436
bajore,437
balance,438
balancing,439
bali,440
ball,441
balls,442
ban,443
band,444
bang,445
banging,446
bank,447
bankstown,448
banned,449
bar,450
barabism,451
barbarians,452
barbarity,453
bargain,454
barking,455
barmy,456
barrel,457
barrier,458
bartering,459
base,460
based,461
baseless,462
bases,463
basest,464
bashing,465
basic,466
basically,467
basics,468
basiji,469
basis,470
basra,471
battles,472
batttle,473
bay,474
bbc,475
beach,476
beaches,477
bear,478
beard,479
bearing,480
bears,481
beat,482
beating,483
beats,484
beause,485
bed,486
beeb,487
beef,488
beggars,489
begger,490
begging,491
begin,492
beginning,493
begs,494
beharry,495
behave,496
behaved,497
behaving,498
behaviour,499
beings,500
beirut,501
belfer,502
belgiium,503
belief,504
belies,505
believe,506
believed,507
believers,508
believes,509
believing,510
believs,511
belittle,512
belived,513
bellicose,514
belly,515
belong,516
belonging,517
belongs,518
belt,519
ben,520
bending,521
beneath,522
benefit,523
bennett,524
benny,525
berlusconi,526
bertie,527
best,528
bet,529
bethlehem,530
betrays,531
better,532
bho,533
bias,534
big,535
bigger,536
biggest,537
bigot,538
bigoted,539
bigotry,540
bigotted,541
billion,542
billions,543
bills,544
bin,545
bird,546
birds,547
birth,548
bit,549
bitch,550
bites,551
bits,552
bizarre,553
black,554
blackburn,555
blacks,556
blah,557
blair,558
blairparsedonedigit,559
blame,560
blamed,561
blames,562
blaming,563
blaster,564
blatantly,565
blatter,566
bleat,567
bleating,568
bleeding,569
blessed,570
blessing,571
blew,572
bliar,573
blind,574
blindly,575
blindness,576
blocade,577
blockaded,578
blocks,579
blood,580
bloodletting,581
bloodshed,582
bloody,583
blow,584
blowing,585
blue,586
blurt,587
bnp,588
board,589
boarded,590
boarders,591
boards,592
body,593
bogus,594
bold,595
bolshevik,596
bolster,597
bolton,598
bomb,599
bombarded,600
bombardment,601
bombardments,602
bombed,603
bomber,604
bombers,605
bombing,606
bombings,607
bombs,608
bon,609
bona,610
bones,611
bonhoeffer,612
boo,613
book,614
boom,615
booming,616
booms,617
boosting,618
boot,619
booth,620
boots,621
bordeauxparsedtwodigits,622
border,623
bordering,624
borders,625
boring,626
boris,627
born,628
bother,629
bothered,630
bothering,631
bottle,632
bought,633
bouncy,634
bound,635
boundaries,636
bowing,637
bownding,638
boy,639
boycott,640
boycotting,641
boydavey,642
boys,643
brainwashed,644
branded,645
brandon,646
brats,647
brave,648
bravery,649
brazil,650
breach,651
break,652
breakfast,653
breaking,654
breaks,655
breasts,656
breath,657
breslan,658
brewers,659
briatain,660
brick,661
brief,662
brigade,663
brilliant,664
brimstone,665
bring,666
bringing,667
brings,668
brit,669
britain,670
britains,671
britan,672
britian,673
british,674
britishness,675
britons,676
brits,677
broadly,678
broke,679
broken,680
bronx,681
brother,682
brothers,683
brought,684
brown,685
brush,686
brutal,687
brutality,688
brutally,689
brutish,690
btw,691
bud,692
buddhist,693
buddy,694
budget,695
buggars,696
build,697
building,698
buildings,699
builds,700
built,701
bull,702
bullet,703
bullets,704
bummed,705
bumpkins,706
bunch,707
bunfight,708
bunker,709
bunkers,710
burden,711
bureaucracy,712
burger,713
buried,714
burka,715
burn,716
bus,717
bush,718
business,719
busses,720
bust,721
busy,722
button,723
buy,724
buying,725
buys,726
bwahaha,727
bye,728
cabal,729
cabinet,730
cable,731
cafe,732
cafes,733
cafta,734
cake,735
calendar,736
calf,737
caliphite,738
called,739
calling,740
calls,741
cambodia,742
camcorder,743
came,744
camera,745
camouflage,746
camp,747
campagain,748
campaign,749
campare,750
camps,751
campus,752
canaanintes,753
canaanite,754
canada,755
canadafreepress,756
canadian,757
candidates,758
candle,759
cannanites,760
canons,761
capabilities,762
capability,763
capable,764
capital,765
capitalist,766
capitalists,767
caps,768
captcha,769
captured,770
car,771
carbine,772
care,773
careful,774
carefully,775
cares,776
carolina,777
carpet,778
carried,779
carry,780
carrying,781
cars,782
cartel,783
cartels,784
carter,785
carthy,786
carthyism,787
cartoons,788
case,789
cases,790
cash,791
casinos,792
castro,793
casualties,794
casualty,795
cat,796
catastrophic,797
catch,798
categories,799
category,800
cathch,801
catholic,802
catholics,803
cats,804
caught,805
cause,806
caused,807
causes,808
causing,809
ceacefire,810
cease,811
ceased,812
ceasefire,813
celebrate,814
celebration,815
celebrations,816
celebrity,817
cell,818
cells,819
celt,820
censorship,821
center,822
central,823
centred,824
centredaily,825
centres,826
centuries,827
century,828
certai,829
certain,830
certainly,831
chain,832
chair,833
chairs,834
chalabi,835
challenge,836
challenged,837
challenging,838
chance,839
chancellor,840
chances,841
change,842
changed,843
changes,844
changing,845
channel,846
chaos,847
chap,848
chapel,849
chapin,850
chapter,851
characterful,852
characterise,853
characterised,854
characteristic,855
characters,856
charge,857
charged,858
charges,859
charities,860
charity,861
charlesi,862
charters,863
chashews,864
chavez,865
cheap,866
cheat,867
check,868
checked,869
checks,870
cheddi,871
cheek,872
cheered,873
cheers,874
cheese,875
chemical,876
cheney,877
chest,878
chicken,879
chief,880
child,881
childhood,882
childish,883
childline,884
children,885
childs,886
china,887
chinese,888
chipmaker,889
chips,890
choeung,891
choice,892
choices,893
choke,894
chomsky,895
choose,896
choosen,897
choosy,898
chore,899
chose,900
chosen,901
christ,902
christian,903
christianity,904
christians,905
christinaity,906
christmas,907
christrainanti,908
chrsitian,909
chucked,910
chucking,911
chunck,912
chunk,913
chunks,914
church,915
churches,916
churchill,917
cia,918
cientific,919
cigar,920
circle,921
circles,922
circling,923
circumstance,924
circumstances,925
circus,926
citation,927
citations,928
cite,929
cited,930
cities,931
citizen,932
citizens,933
citizenship,934
city,935
civil,936
civilian,937
civilians,938
civilised,939
civilized,940
civillian,941
civlian,942
claim,943
claimed,944
claiming,945
claims,946
clamp,947
clap,948
clapped,949
clarify,950
class,951
classes,952
classified,953
classrooms,954
clause,955
clean,956
cleanse,957
cleansed,958
cleansing,959
clear,960
cleared,961
clearing,962
clearly,963
clergy,964
clever,965
cliches,966
clicking,967
client,968
cling,969
clinton,970
clip,971
clocks,972
close,973
closed,974
closely,975
closet,976
closure,977
clould,978
clout,979
clue,980
clumsily,981
cluster,982
clutching,983
cnn,984
coalition,985
cocaine,986
codes,987
coffee,988
coffin,989
cognitive,990
cohabitate,991
coherent,992
cohesion,993
coin,994
coincidence,995
coins,996
colaboration,997
cold,998
coleman,999
collaboration,1000
collaborators,1001
collapses,1002
collateral,1003
collatoral,1004
colleagues,1005
collectively,1006
college,1007
colleges,1008
collide,1009
colneljihadist,1010
colonalism,1011
colonel,1012
colonelartist,1013
colonial,1014
colonialism,1015
colonialists,1016
colonised,1017
colonists,1018
colonized,1019
colours,1020
colt,1021
columbia,1022
columnist,1023
com,1024
combat,1025
combatants,1026
combined,1027
combing,1028
come,1029
comes,1030
comfortable,1031
comfortably,1032
comical,1033
coming,1034
command,1035
commemorated,1036
commemorations,1037
comment,1038
comments,1039
commercial,1040
commie,1041
commies,1042
comming,1043
commission,1044
commit,1045
commits,1046
committed,1047
committee,1048
common,1049
communing,1050
communism,1051
communist,1052
communists,1053
community,1054
companies,1055
company,1056
comparatively,1057
compare,1058
compares,1059
comparing,1060
comparison,1061
compass,1062
compassionate,1063
compassionately,1064
compelled,1065
compensated,1066
compensation,1067
competed,1068
competition,1069
competitive,1070
competitor,1071
competitors,1072
complain,1073
complained,1074
complaining,1075
complaint,1076
complete,1077
completely,1078
compliant,1079
comply,1080
comprehension,1081
computer,1082
computers,1083
concatenate,1084
conceal,1085
conceived,1086
concentration,1087
concept,1088
concepts,1089
concern,1090
concerned,1091
concerns,1092
concieved,1093
conclude,1094
concluded,1095
conclusion,1096
condaleeza,1097
condemn,1098
condemnation,1099
condemned,1100
condemning,1101
condescending,1102
condiderate,1103
conditions,1104
condone,1105
condones,1106
conduct,1107
conference,1108
confession,1109
confident,1110
conflict,1111
conflicts,1112
confronted,1113
confused,1114
confuses,1115
confusing,1116
congrats,1117
congratulations,1118
congress,1119
congressmen,1120
conjecture,1121
connections,1122
connects,1123
conny,1124
conquer,1125
conquered,1126
cons,1127
consent,1128
consequence,1129
consequences,1130
consequent,1131
conservative,1132
conservbatives,1133
consider,1134
considerably,1135
consideration,1136
considered,1137
considering,1138
consistency,1139
consists,1140
consolidation,1141
conspiracy,1142
conspiratorial,1143
constant,1144
constitute,1145
constitution,1146
constitutional,1147
constitutionally,1148
constructively,1149
consulate,1150
consult,1151
consulted,1152
contact,1153
contain,1154
containing,1155
contains,1156
contaminated,1157
contemporary,1158
contempt,1159
conten,1160
context,1161
continent,1162
continously,1163
continually,1164
continue,1165
continued,1166
continues,1167
continuously,1168
continuum,1169
contract,1170
contradiction,1171
contradictions,1172
contrary,1173
contrast,1174
contribute,1175
contributed,1176
contributes,1177
contributions,1178
contributors,1179
contrived,1180
control,1181
controlled,1182
controlling,1183
controls,1184
controversial,1185
convenient,1186
convention,1187
conventional,1188
conversations,1189
conveys,1190
convicted,1191
conviction,1192
convinced,1193
cool,1194
cooperation,1195
cop,1196
cope,1197
copenhagen,1198
copied,1199
copies,1200
coppeliadee,1201
core,1202
corner,1203
corporate,1204
corporation,1205
corpses,1206
correct,1207
corrected,1208
correctly,1209
correlation,1210
correspondent,1211
corrupt,1212
corruption,1213
cos,1214
cost,1215
costed,1216
cough,1217
couldn,1218
council,1219
count,1220
counter,1221
counterargument,1222
counterparts,1223
counterpoints,1224
countries,1225
country,1226
coup,1227
couple,1228
courage,1229
courageous,1230
course,1231
court,1232
courtesy,1233
courting,1234
courts,1235
cousin,1236
cousins,1237
cover,1238
coverage,1239
covered,1240
covering,1241
cowardly,1242
cowards,1243
cows,1244
cp,1245
crackling,1246
crackpot,1247
cracks,1248
cradle,1249
crane,1250
crap,1251
crass,1252
crazy,1253
create,1254
created,1255
creating,1256
creation,1257
creatures,1258
credence,1259
credit,1260
creole,1261
crescent,1262
cretin,1263
cretins,1264
cricism,1265
cricket,1266
crime,1267
crimes,1268
criminal,1269
criminalised,1270
criminals,1271
cripple,1272
crisis,1273
crisps,1274
cristian,1275
criteria,1276
critical,1277
criticise,1278
criticised,1279
criticising,1280
criticism,1281
criticisms,1282
criticized,1283
criticizing,1284
critique,1285
critiques,1286
cronies,1287
crook,1288
crooked,1289
cross,1290
crossbones,1291
crucial,1292
crusade,1293
crush,1294
crushed,1295
crying,1296
ctoo,1297
cuba,1298
cuban,1299
cult,1300
cultural,1301
culture,1302
cultures,1303
cup,1304
cure,1305
curious,1306
current,1307
currently,1308
cushion,1309
cusp,1310
custom,1311
customs,1312
cut,1313
cute,1314
cuts,1315
cybersoldiers,1316
cyprus,1317
czech,1318
dad,1319
daddy,1320
daft,1321
dagnarius,1322
daily,1323
damage,1324
damned,1325
damnocrasy,1326
dan,1327
dancers,1328
dane,1329
danger,1330
dangerous,1331
dangers,1332
danish,1333
danmark,1334
dare,1335
darfur,1336
daring,1337
dark,1338
darthvedder,1339
darvishi,1340
data,1341
date,1342
dated,1343
daughters,1344
david,1345
davidson,1346
dawson,1347
day,1348
days,1349
dead,1350
deadlocked,1351
deadly,1352
deafening,1353
deal,1354
dealing,1355
dealings,1356
deals,1357
dealt,1358
dealtwith,1359
dear,1360
death,1361
deaths,1362
debate,1363
debated,1364
debates,1365
debating,1366
debts,1367
decade,1368
deceipt,1369
deceit,1370
deceive,1371
december,1372
decent,1373
deception,1374
decide,1375
decided,1376
decision,1377
decisions,1378
declaration,1379
declared,1380
declaring,1381
decline,1382
declined,1383
decontextualised,1384
decreasing,1385
deduce,1386
deep,1387
deeper,1388
defacing,1389
defaluting,1390
defences,1391
defend,1392
defenders,1393
defending,1394
defense,1395
defent,1396
deficiency,1397
deficit,1398
deficits,1399
defination,1400
definatly,1401
define,1402
defined,1403
defining,1404
definitely,1405
definition,1406
definitions,1407
deflect,1408
deflection,1409
defy,1410
degrade,1411
degree,1412
degrees,1413
dehumanization,1414
deliberate,1415
deliberately,1416
delighted,1417
delightful,1418
delightfully,1419
deliver,1420
delivering,1421
dell,1422
delude,1423
deluge,1424
delusional,1425
delve,1426
dem,1427
demand,1428
demanding,1429
demands,1430
demeaning,1431
demeans,1432
demise,1433
democracies,1434
democracy,1435
democrat,1436
democratic,1437
democratically,1438
democrats,1439
democtrats,1440
demographic,1441
demonizing,1442
demonstrate,1443
demonstrated,1444
demonstrations,1445
denial,1446
denied,1447
deniers,1448
denigrates,1449
denmark,1450
denoted,1451
denoting,1452
dense,1453
density,1454
denverpost,1455
deny,1456
denying,1457
department,1458
depend,1459
depending,1460
depends,1461
depicted,1462
depleted,1463
deployment,1464
depose,1465
depository,1466
depressed,1467
depression,1468
depth,1469
deputy,1470
deranged,1471
derived,1472
derogatorily,1473
derring,1474
desade,1475
descends,1476
described,1477
desert,1478
deserve,1479
deserved,1480
deserves,1481
designated,1482
designed,1483
desire,1484
desperate,1485
despise,1486
despite,1487
despose,1488
destabilising,1489
destinations,1490
destroy,1491
destroyed,1492
destroying,1493
destruction,1494
destrution,1495
detailing,1496
details,1497
detains,1498
detect,1499
detecting,1500
deter,1501
deterent,1502
determine,1503
determining,1504
deterrence,1505
deterrent,1506
deterrents,1507
detraction,1508
deutschmark,1509
devastate,1510
devastated,1511
devastatingly,1512
develop,1513
developed,1514
developemental,1515
developing,1516
development,1517
developments,1518
device,1519
devices,1520
devil,1521
devoid,1522
dez,1523
di,1524
dialects,1525
diana,1526
diaries,1527
dick,1528
dickie,1529
dictatorial,1530
dictatorships,1531
did,1532
didn,1533
didnt,1534
die,1535
died,1536
dies,1537
differant,1538
difference,1539
different,1540
differing,1541
difficult,1542
difficulty,1543
diffuse,1544
digestion,1545
digging,1546
dignified,1547
dignity,1548
digress,1549
dim,1550
dinner,1551
dinosaurs,1552
dioxin,1553
dipanna,1554
diplomacy,1555
diplomatic,1556
diplomats,1557
direct,1558
directed,1559
direction,1560
directly,1561
director,1562
dirty,1563
disagree,1564
disagreement,1565
disappoint,1566
disappointed,1567
disappointment,1568
disapprove,1569
disarming,1570
disaster,1571
disater,1572
disconnection,1573
discourse,1574
discover,1575
discovered,1576
discovery,1577
discredit,1578
discrete,1579
discrimination,1580
discuss,1581
discussing,1582
discussion,1583
discussions,1584
disease,1585
diseases,1586
disengagement,1587
disengenous,1588
disgusting,1589
dishonest,1590
dishonesty,1591
dishonour,1592
disinterest,1593
dislike,1594
disliked,1595
dismiss,1596
dismissed,1597
disobey,1598
disparaging,1599
disparity,1600
displace,1601
displaced,1602
display,1603
dispossession,1604
disproportionate,1605
disproportionately,1606
dispute,1607
disputed,1608
disputes,1609
distance,1610
distant,1611
distating,1612
distinguish,1613
distorter,1614
distortions,1615
distract,1616
distributed,1617
distributing,1618
districts,1619
divert,1620
divide,1621
dividends,1622
divisive,1623
djia,1624
dna,1625
doctors,1626
doctrine,1627
document,1628
documentated,1629
documented,1630
documenting,1631
documents,1632
dod,1633
dodgy,1634
does,1635
doesn,1636
doesnt,1637
dog,1638
dogs,1639
doing,1640
dollar,1641
dollars,1642
domestic,1643
dominant,1644
dominate,1645
domination,1646
don,1647
donald,1648
donator,1649
dont,1650
donøt,1651
doomed,1652
door,1653
doorsteps,1654
doplomatic,1655
dossier,1656
dostum,1657
double,1658
doubled,1659
doubt,1660
doubts,1661
dow,1662
downhill,1663
downs,1664
downside,1665
downward,1666
dr,1667
draconian,1668
draft,1669
dragged,1670
drained,1671
dramatically,1672
draw,1673
drawers,1674
drawings,1675
drawn,1676
dream,1677
dreaming,1678
dreidelspin,1679
dresden,1680
dress,1681
drink,1682
drinking,1683
drive,1684
drivel,1685
driven,1686
driver,1687
drives,1688
driving,1689
drone,1690
drop,1691
dropped,1692
drove,1693
drug,1694
drums,1695
drunk,1696
dry,1697
dubai,1698
dubya,1699
duck,1700
ducks,1701
dude,1702
duh,1703
dull,1704
dumber,1705
dump,1706
dumped,1707
dumps,1708
duped,1709
duplicity,1710
dura,1711
dutch,1712
duty,1713
dwarfs,1714
dying,1715
dynamic,1716
dysfunctional,1717
eager,1718
ear,1719
eard,1720
earlier,1721
early,1722
earn,1723
earning,1724
ears,1725
earth,1726
earthquake,1727
easier,1728
easily,1729
easing,1730
east,1731
eastern,1732
easterners,1733
easy,1734
eat,1735
eating,1736
ebt,1737
ebts,1738
ecnomies,1739
economic,1740
economical,1741
economies,1742
economy,1743
ecosystem,1744
ecstasy,1745
ed,1746
edcuated,1747
edited,1748
edition,1749
educate,1750
educated,1751
education,1752
educational,1753
eec,1754
effect,1755
effective,1756
effectively,1757
effects,1758
effort,1759
egg,1760
ego,1761
egypt,1762
egyptians,1763
eh,1764
eighteen,1765
eith,1766
ek,1767
elderly,1768
elect,1769
elected,1770
electing,1771
election,1772
elections,1773
electorate,1774
elects,1775
element,1776
elemets,1777
em,1778
emailed,1779
emanate,1780
embarrassing,1781
embarrassment,1782
embassy,1783
embraced,1784
embracing,1785
embroiled,1786
emerged,1787
emigrants,1788
emigrating,1789
emigration,1790
emission,1791
emmigrated,1792
emmotional,1793
empathize,1794
emphasising,1795
empires,1796
employed,1797
empowering,1798
empt,1799
empting,1800
emptively,1801
en,1802
enacting,1803
encountered,1804
encourage,1805
encouragement,1806
encourages,1807
encouraging,1808
encourged,1809
end,1810
ended,1811
endless,1812
enemies,1813
enemy,1814
enemys,1815
energy,1816
energybulletin,1817
enforcing,1818
engage,1819
engaged,1820
engagement,1821
engaging,1822
engineered,1823
engineering,1824
engineers,1825
england,1826
english,1827
englishman,1828
englishmen,1829
engulfed,1830
enitrely,1831
enjoy,1832
enjoys,1833
enlighten,1834
enlightened,1835
enlightenment,1836
enormous,1837
enrichment,1838
enrolled,1839
enshrined,1840
ensure,1841
entered,1842
entering,1843
enterprise,1844
entertainment,1845
entire,1846
entirely,1847
entrapment,1848
environment,1849
environmental,1850
envoy,1851
epic,1852
episode,1853
equal,1854
equality,1855
equally,1856
equated,1857
equivalence,1858
equivalent,1859
er,1860
era,1861
erected,1862
erm,1863
err,1864
erroneous,1865
error,1866
errors,1867
errr,1868
es,1869
escalating,1870
especially,1871
essentially,1872
establish,1873
establishing,1874
establishment,1875
estimate,1876
estimated,1877
et,1878
eta,1879
ethnic,1880
ethnically,1881
ethnicity,1882
ethnicly,1883
eu,1884
euarabia,1885
euphamistically,1886
euro,1887
euroleft,1888
eurolefties,1889
euroleftism,1890
eurolefty,1891
europe,1892
european,1893
europeans,1894
euros,1895
evastating,1896
evening,1897
event,1898
events,1899
eventually,1900
everybody,1901
everyday,1902
evicting,1903
evidence,1904
evidenced,1905
evil,1906
evils,1907
evolved,1908
ex,1909
exact,1910
exactly,1911
exaggerated,1912
examine,1913
example,1914
examples,1915
exceeds,1916
excellent,1917
exception,1918
exceptions,1919
excessive,1920
exchange,1921
exchanged,1922
exciting,1923
excludes,1924
exclusive,1925
exclusively,1926
excrement,1927
excuse,1928
excuses,1929
executed,1930
executive,1931
exempt,1932
exept,1933
exercise,1934
exerted,1935
exhausted,1936
exiled,1937
exist,1938
existence,1939
existential,1940
existing,1941
exists,1942
exiting,1943
expalined,1944
expanding,1945
expansion,1946
expansionist,1947
expect,1948
expects,1949
expel,1950
expense,1951
expensive,1952
experience,1953
experienced,1954
expert,1955
experts,1956
explain,1957
explained,1958
explaining,1959
explains,1960
explanation,1961
explicit,1962
exploded,1963
exploit,1964
explore,1965
explorer,1966
explosively,1967
exports,1968
expose,1969
exposed,1970
exposes,1971
exposing,1972
expounded,1973
expressed,1974
expressing,1975
expression,1976
extend,1977
extended,1978
extensively,1979
extent,1980
external,1981
extinction,1982
extra,1983
extraction,1984
extradition,1985
extreme,1986
extremely,1987
extremisim,1988
extremism,1989
extremist,1990
extremists,1991
exxon,1992
eye,1993
eyes,1994
eyewitnesses,1995
fabrication,1996
face,1997
faced,1998
faces,1999
facing,2000
fact,2001
factor,2002
factors,2003
factory,2004
facts,2005
factual,2006
fail,2007
failed,2008
failing,2009
failings,2010
fails,2011
failure,2012
fair,2013
faith,2014
falklands,2015
fall,2016
falling,2017
falls,2018
false,2019
familiar,2020
families,2021
family,2022
famous,2023
fan,2024
fanatic,2025
fanatical,2026
fanatically,2027
fanatics,2028
fancied,2029
fantasy,2030
far,2031
farc,2032
farm,2033
farmers,2034
fascinating,2035
fascism,2036
fascist,2037
fascistic,2038
fascists,2039
fashion,2040
fashioned,2041
fast,2042
fat,2043
father,2044
fault,2045
faults,2046
fauxtography,2047
favour,2048
favourable,2049
favoured,2050
favours,2051
fear,2052
fearing,2053
feasibility,2054
featured,2055
fec,2056
fed,2057
federal,2058
feeble,2059
feed,2060
feeding,2061
feel,2062
feeling,2063
feelings,2064
feels,2065
feisal,2066
fellas,2067
fellow,2068
felt,2069
female,2070
fence,2071
ferrari,2072
fervently,2073
fgm,2074
fide,2075
field,2076
fields,2077
fifa,2078
fifties,2079
fight,2080
fighters,2081
fighting,2082
figure,2083
figurers,2084
figures,2085
fil,2086
filled,2087
final,2088
finally,2089
financed,2090
financial,2091
financing,2092
finding,2093
findings,2094
finds,2095
fine,2096
fined,2097
finish,2098
finished,2099
finn,2100
fired,2101
fires,2102
firework,2103
firing,2104
firmly,2105
fish,2106
fishy,2107
fit,2108
fits,2109
fiver,2110
flag,2111
flagrant,2112
flags,2113
flames,2114
flatter,2115
fled,2116
fleeing,2117
flesh,2118
flies,2119
flights,2120
flimsiest,2121
floating,2122
flock,2123
flocked,2124
flooded,2125
flu,2126
fly,2127
flying,2128
fo,2129
focus,2130
focused,2131
fog,2132
follow,2133
followed,2134
followers,2135
following,2136
fond,2137
food,2138
fool,2139
foolish,2140
fools,2141
foot,2142
football,2143
footwear,2144
forbidden,2145
force,2146
forced,2147
forcefully,2148
forces,2149
forcible,2150
ford,2151
forecast,2152
foreign,2153
foreigners,2154
forest,2155
forestation,2156
forget,2157
forgiven,2158
form,2159
formation,2160
formerusername,2161
forming,2162
formulaparsedonedigit_fan,2163
forum,2164
forumdudeparsedonedigit,2165
forums,2166
forward,2167
fosters,2168
fought,2169
foul,2170
foundation,2171
fox,2172
foxnews,2173
fparsedtwodigits,2174
fr,2175
fragile,2176
frame,2177
franc,2178
france,2179
franjly,2180
frank,2181
frankly,2182
fraud,2183
free,2184
freed,2185
freedly,2186
freedom,2187
freedumb,2188
freee,2189
freely,2190
freespeech,2191
french,2192
frequently,2193
frequnetly,2194
fresh,2195
friday,2196
friend,2197
friends,2198
friendship,2199
fripono,2200
frist,2201
frolic,2202
fromt,2203
frought,2204
frozen,2205
fruitcakes,2206
frustrated,2207
frustration,2208
fueled,2209
fulfilling,2210
fully,2211
fun,2212
functioning,2213
fundamental,2214
fundamentalists,2215
funded,2216
fundementalist,2217
funding,2218
funds,2219
funny,2220
furniture,2221
furthermore,2222
fuss,2223
fussy,2224
futility,2225
future,2226
fuzzy,2227
fyi,2228
gain,2229
gained,2230
gaining,2231
gains,2232
galant,2233
galloway,2234
gamble,2235
gambled,2236
game,2237
games,2238
gang,2239
gannet,2240
gannets,2241
gap,2242
gar,2243
garden,2244
gardens,2245
gas,2246
gasgoine,2247
gathering,2248
gaul,2249
gaurds,2250
gave,2251
gavin,2252
gavinukparsedonedigit,2253
gawd,2254
gay,2255
gays,2256
gaza,2257
gbparsedfivedigits,2258
gbparsedsixdigits,2259
gdp,2260
gen,2261
general,2262
generalising,2263
generally,2264
generate,2265
generation,2266
generational,2267
generations,2268
genetic,2269
geneva,2270
genius,2271
genocide,2272
genocides,2273
gentiles,2274
gentle,2275
genuine,2276
geographic,2277
geology,2278
george,2279
georgia,2280
georgian,2281
german,2282
germans,2283
germany,2284
germanys,2285
gets,2286
getting,2287
ghana,2288
ghandi,2289
gharib,2290
ghe,2291
ghetto,2292
gibberish,2293
girl,2294
girls,2295
given,2296
gives,2297
giving,2298
glad,2299
gladio,2300
glaring,2301
glasgow,2302
glitches,2303
global,2304
globe,2305
glossed,2306
gloves,2307
glowingtrw,2308
gm,2309
gmt,2310
goals,2311
god,2312
goerge,2313
goes,2314
goggles,2315
going,2316
golden,2317
golf,2318
gone,2319
gonna,2320
good,2321
goodies,2322
goodness,2323
goodwill,2324
goofy,2325
google,2326
gore,2327
got,2328
gotten,2329
gov,2330
goverment,2331
govern,2332
governance,2333
governed,2334
government,2335
governments,2336
govt,2337
grabbing,2338
graffitti,2339
grand,2340
grandchildren,2341
granht,2342
grant,2343
granting,2344
granty,2345
grass,2346
grave,2347
graves,2348
great,2349
greater,2350
greatest,2351
greatness,2352
greece,2353
greedy,2354
greeks,2355
green,2356
grew,2357
greymatter,2358
greywolf,2359
grief,2360
grip,2361
groomed,2362
groping,2363
ground,2364
groundhog,2365
grounds,2366
group,2367
groups,2368
growing,2369
growl,2370
grumbles,2371
gt,2372
gtrandfather,2373
guarantee,2374
guard,2375
guards,2376
guerre,2377
guesing,2378
guess,2379
guessing,2380
guest,2381
guests,2382
guff,2383
guilty,2384
gulf,2385
gullible,2386
gun,2387
guns,2388
gunshot,2389
gurion,2390
gustav,2391
gutav,2392
guy,2393
guys,2394
gw,2395
gwb,2396
ha,2397
haaretz,2398
habit,2399
hacked,2400
hadn,2401
hadnt,2402
haesten,2403
hafta,2404
haifa,2405
hair,2406
half,2407
hall,2408
halt,2409
ham,2410
hama,2411
hamas,2412
hammer,2413
hamza,2414
hand,2415
handed,2416
handedness,2417
handful,2418
handicapped,2419
handing,2420
handpick,2421
handpicked,2422
hands,2423
handwringing,2424
handy,2425
handyman,2426
hang,2427
hanged,2428
hanging,2429
hangs,2430
haniyeh,2431
hankooki,2432
happen,2433
happened,2434
happens,2435
happiness,2436
happy,2437
haram,2438
hard,2439
hardly,2440
hardware,2441
harldy,2442
harm,2443
harming,2444
harmonious,2445
haroon,2446
harpercollins,2447
harrassment,2448
harrison,2449
harry,2450
harsh,2451
harshly,2452
hart,2453
harvest,2454
hase,2455
hasn,2456
hate,2457
hated,2458
haters,2459
hates,2460
hath,2461
hatred,2462
haunting,2463
haven,2464
havenøt,2465
having,2466
havn,2467
hawks,2468
head,2469
heading,2470
headline,2471
headlines,2472
headquarters,2473
heads,2474
healing,2475
health,2476
healthy,2477
hear,2478
heard,2479
hearing,2480
hearings,2481
hears,2482
heart,2483
heartedly,2484
heat,2485
heavy,2486
hebrew,2487
heck,2488
heh,2489
heirarchy,2490
held,2491
helicopters,2492
hell,2493
help,2494
helpers,2495
helpful,2496
helping,2497
hempel,2498
hereditary,2499
heres,2500
heritage,2501
hero,2502
heroin,2503
hey,2504
hezbollah,2505
hi,2506
hidden,2507
hide,2508
hiding,2509
high,2510
highest,2511
highlighted,2512
highlights,2513
highly,2514
hijacking,2515
hiking,2516
hilarious,2517
hill,2518
hillarious,2519
hillary,2520
hindus,2521
hint,2522
hiroshima,2523
historain,2524
historian,2525
historic,2526
historical,2527
historically,2528
history,2529
hit,2530
hitler,2531
hitlers,2532
hits,2533
hizbollah,2534
hmd,2535
hmm,2536
hmmm,2537
hmmmm,2538
ho,2539
hold,2540
holders,2541
holding,2542
hole,2543
holes,2544
holiday,2545
holland,2546
holler,2547
hollywoodisation,2548
holocaust,2549
holy,2550
hom,2551
home,2552
homeland,2553
homes,2554
homework,2555
homosexual,2556
homosexuals,2557
honest,2558
honestreporting,2559
hong,2560
honour,2561
honourable,2562
hoo,2563
hook,2564
hope,2565
hopelessly,2566
hoping,2567
horrendous,2568
horrific,2569
horror,2570
horrors,2571
horse,2572
hospital,2573
hospitals,2574
host,2575
hostage,2576
hosted,2577
hostile,2578
hostility,2579
hosting,2580
hot,2581
hothousemat,2582
hotmousemat,2583
hounded,2584
hounding,2585
hour,2586
hours,2587
house,2588
housing,2589
hp,2590
hparsedonedigitgparseddigits,2591
huge,2592
hugely,2593
hugo,2594
huh,2595
huindreds,2596
hull,2597
human,2598
humanists,2599
humanitarian,2600
humans,2601
humberside,2602
humiliating,2603
humour,2604
humvees,2605
hundreds,2606
hung,2607
hungarian,2608
hunger,2609
hurricane,2610
hurt,2611
hurting,2612
husband,2613
hussain,2614
hussein,2615
hybrids,2616
hyper,2617
hyperbolic,2618
hyphenated,2619
hypocrisy,2620
hypocritical,2621
hypocritically,2622
hys,2623
hysteria,2624
hysteric,2625
hülsmeyer,2626
ia,2627
ian,2628
ianpeter,2629
ias,2630
ice,2631
id,2632
idea,2633
ideals,2634
ideas,2635
identification,2636
identikit,2637
identity,2638
ideology,2639
idf,2640
idiology,2641
idiosyncracies,2642
idiot,2643
idiotic,2644
idiots,2645
idol,2646
ignorance,2647
ignorant,2648
ignores,2649
ignoring,2650
iht,2651
ii,2652
iii,2653
iirc,2654
il,2655
ilk,2656
ill,2657
illegal,2658
illegitimate,2659
illiberal,2660
ills,2661
illuminating,2662
illustrated,2663
illustrates,2664
im,2665
image,2666
images,2667
imaginable,2668
imagine,2669
imemc,2670
imf,2671
imho,2672
immature,2673
immediate,2674
immediately,2675
immemorial,2676
immerse,2677
immigrant,2678
immigrants,2679
immigration,2680
imminence,2681
imminent,2682
immunity,2683
imoeachment,2684
impact,2685
impeachment,2686
imperative,2687
imperfect,2688
imperialistic,2689
imperils,2690
implausible,2691
implement,2692
implementaion,2693
implemented,2694
implicate,2695
implies,2696
implying,2697
import,2698
importance,2699
important,2700
imports,2701
impose,2702
imposed,2703
imposing,2704
impossible,2705
impotence,2706
impression,2707
impressive,2708
imprisoned,2709
improper,2710
improved,2711
imran,2712
imrove,2713
imunity,2714
inadequacy,2715
inadvertently,2716
inappropriate,2717
inappropriately,2718
incapacitated,2719
inceindary,2720
incessant,2721
incharge,2722
inches,2723
incident,2724
incidents,2725
incited,2726
incitement,2727
include,2728
included,2729
includes,2730
including,2731
inclusive,2732
inclusivity,2733
income,2734
incomes,2735
incompetence,2736
incompetent,2737
incomprehendible,2738
inconsistency,2739
inconvenient,2740
incorporated,2741
increase,2742
increased,2743
increasing,2744
increasingly,2745
incumbent,2746
incurred,2747
incurring,2748
incursion,2749
indecent,2750
indefensible,2751
independence,2752
independent,2753
india,2754
indian,2755
indicated,2756
indicates,2757
indicating,2758
indigenous,2759
indio,2760
indios,2761
indirect,2762
indirectly,2763
individual,2764
individualism,2765
individually,2766
individuals,2767
indonesia,2768
indonesian,2769
induced,2770
inducing,2771
indulge,2772
industrial,2773
industries,2774
industry,2775
inevitable,2776
inexcusable,2777
inextricably,2778
infact,2779
infantilising,2780
inferior,2781
inferred,2782
inferring,2783
infidels,2784
infiltrators,2785
infinitum,2786
inflation,2787
inflict,2788
influence,2789
influenced,2790
info,2791
inform,2792
information,2793
informative,2794
infrastucture,2795
infringes,2796
ing,2797
inhabit,2798
inhabitant,2799
inhabitants,2800
inhuman,2801
inist,2802
initial,2803
initially,2804
injured,2805
injury,2806
innocent,2807
innocents,2808
ins,2809
insanity,2810
insecurity,2811
inside,2812
insight,2813
insist,2814
insisted,2815
insistence,2816
insisting,2817
inspect,2818
inspecters,2819
inspections,2820
inspire,2821
inspired,2822
inspires,2823
inspiring,2824
instability,2825
install,2826
installations,2827
installed,2828
instance,2829
instances,2830
instead,2831
instigate,2832
institute,2833
institution,2834
institutional,2835
institutions,2836
instruction,2837
instructor,2838
insultan,2839
insulting,2840
insults,2841
insurgency,2842
insurgent,2843
insurgents,2844
insurrection,2845
integrate,2846
integrating,2847
integration,2848
integrity,2849
intel,2850
intellectual,2851
intellectually,2852
intellegence,2853
intelligence,2854
intelligent,2855
intended,2856
intensity,2857
intent,2858
intention,2859
interacted,2860
interaction,2861
interested,2862
interesting,2863
interestingly,2864
interests,2865
intermixed,2866
internal,2867
international,2868
internet,2869
internment,2870
interpal,2871
interpretation,2872
interrupted,2873
intertwined,2874
intervention,2875
interview,2876
interviewer,2877
interviews,2878
intifada,2879
intifadah,2880
intimate,2881
intolerant,2882
inton,2883
intoxicating,2884
intracacies,2885
intresting,2886
intrigue,2887
intrinsic,2888
introduce,2889
introduced,2890
invade,2891
invaded,2892
invaders,2893
invading,2894
invasion,2895
invective,2896
invectives,2897
invented,2898
inventing,2899
inventors,2900
invertebrate,2901
investigate,2902
investigated,2903
investigation,2904
investment,2905
investors,2906
inveterate,2907
invitation,2908
invite,2909
involved,2910
involvement,2911
involving,2912
ioc,2913
ira,2914
iran,2915
iranian,2916
iranians,2917
irans,2918
iraq,2919
iraqi,2920
iraqis,2921
ireland,2922
iris,2923
irna,2924
iron,2925
ironic,2926
irony,2927
irrational,2928
irrelevant,2929
irritating,2930
irving,2931
isareli,2932
ish,2933
ishmail,2934
islaam,2935
islam,2936
islamaphobe,2937
islamic,2938
islamificationism,2939
islamiphobe,2940
islamist,2941
islamists,2942
islamofacists,2943
islamofascism,2944
island,2945
ismail,2946
isn,2947
isnt,2948
isr,2949
israel,2950
israeli,2951
israelians,2952
israelis,2953
israelnationalne,2954
israelnn,2955
isreal,2956
isreali,2957
isrealians,2958
issue,2959
issued,2960
issues,2961
italian,2962
italians,2963
italy,2964
itstoppedraining,2965
jack,2966
jacka,2967
jacked,2968
jail,2969
jalabad,2970
james,2971
jamo,2972
jane,2973
january,2974
japan,2975
japanese,2976
jasb,2977
jazeera,2978
jazira,2979
jd,2980
jeb,2981
jerk,2982
jerusalem,2983
jessica,2984
jesus,2985
jew,2986
jewish,2987
jews,2988
jewsih,2989
jfks,2990
jihad,2991
jihadi,2992
jingles,2993
jingly,2994
jj,2995
jla,2996
joan,2997
job,2998
jobless,2999
jobs,3000
jobsworth,3001
joe,3002
john,3003
johnny,3004
join,3005
joined,3006
joining,3007
joinining,3008
joint,3009
joke,3010
jokes,3011
joking,3012
jong,3013
jordan,3014
jordanian,3015
jorge,3016
journalist,3017
journalists,3018
joys,3019
jqack,3020
judafacist,3021
judaism,3022
judge,3023
judgement,3024
judicial,3025
juicy,3026
jump,3027
jungle,3028
junior,3029
junk,3030
junta,3031
jury,3032
just,3033
justice,3034
justifiably,3035
justifications,3036
justified,3037
justify,3038
justness,3039
karbala,3040
karbul,3041
karl,3042
kashmir,3043
kashmiri,3044
kashmiris,3045
kasparov,3046
kassam,3047
kassams,3048
kazahkstan,3049
kazakhstan,3050
keen,3051
keeping,3052
keeps,3053
kennedy,3054
kept,3055
key,3056
khalilzad,3057
khan,3058
kick,3059
kicked,3060
kicking,3061
kid,3062
kidding,3063
kidnapped,3064
kidnappings,3065
kids,3066
kill,3067
killed,3068
killing,3069
killings,3070
kills,3071
kim,3072
kind,3073
kinda,3074
kindergarten,3075
kindly,3076
kinds,3077
king,3078
kinky,3079
kitchen,3080
kj,3081
knee,3082
knew,3083
knickers,3084
knicknamed,3085
knife,3086
knoll,3087
know,3088
knowledge,3089
known,3090
knows,3091
kong,3092
koran,3093
korea,3094
korean,3095
koreans,3096
kosovo,3097
kowtow,3098
kreschev,3099
kristol,3100
kudos,3101
kurdish,3102
kurds,3103
kuwait,3104
kyoto,3105
label,3106
labelling,3107
labor,3108
laboratory,3109
labour,3110
lacewing,3111
lack,3112
lad,3113
ladder,3114
laden,3115
lads,3116
lady,3117
lame,3118
lancaster,3119
lancs,3120
land,3121
landowners,3122
lands,3123
landscape,3124
language,3125
lankans,3126
lantau,3127
lap,3128
larceny,3129
large,3130
largely,3131
larger,3132
largest,3133
lasers,3134
lashes,3135
lasted,3136
late,3137
later,3138
latest,3139
latimes,3140
latin,3141
latte,3142
laugh,3143
laughable,3144
laughed,3145
laughing,3146
launched,3147
launching,3148
lauren,3149
laurie,3150
lavat,3151
law,3152
laws,3153
lawyer,3154
lay,3155
lazily,3156
lbyia,3157
le,3158
lead,3159
leader,3160
leaders,3161
leadership,3162
leading,3163
leads,3164
leaning,3165
learn,3166
learned,3167
learning,3168
learnt,3169
leave,3170
lebanese,3171
lebanon,3172
lecture,3173
led,3174
leers,3175
left,3176
leftie,3177
lefties,3178
leftist,3179
legacy,3180
legal,3181
legalities,3182
legendary,3183
legislation,3184
legitimate,3185
legitimately,3186
legs,3187
leicester,3188
lennon,3189
lenovo,3190
lessen,3191
lesser,3192
lesson,3193
lessons,3194
lest,3195
let,3196
lets,3197
letter,3198
letters,3199
letting,3200
level,3201
levelled,3202
levels,3203
levied,3204
liar,3205
liars,3206
lib,3207
liberal,3208
liberals,3209
liberate,3210
liberating,3211
liberation,3212
liberman,3213
liberty,3214
library,3215
licenses,3216
licking,3217
lid,3218
lie,3219
lied,3220
liek,3221
lies,3222
life,3223
light,3224
lightening,3225
like,3226
liked,3227
likely,3228
likes,3229
likud,3230
lily,3231
limbo,3232
limit,3233
limits,3234
lincoln,3235
lincolnshire,3236
line,3237
lines,3238
linguist,3239
lining,3240
link,3241
linked,3242
links,3243
lion,3244
list,3245
listen,3246
listening,3247
literally,3248
literature,3249
little,3250
littlegreenfootballs,3251
live,3252
lived,3253
lives,3254
living,3255
ll,3256
lmao,3257
loach,3258
loaded,3259
loads,3260
loans,3261
loathed,3262
lobbyists,3263
local,3264
locals,3265
location,3266
lock,3267
locked,3268
locking,3269
logic,3270
logical,3271
lol,3272
london,3273
lone,3274
loner,3275
long,3276
longer,3277
look,3278
looked,3279
looking,3280
looks,3281
looney,3282
looooong,3283
loosened,3284
looted,3285
looting,3286
lord,3287
los,3288
lose,3289
loser,3290
losers,3291
losing,3292
loss,3293
losses,3294
lost,3295
lot,3296
lots,3297
loud,3298
lousy,3299
love,3300
lovely,3301
loves,3302
loving,3303
lower,3304
lowered,3305
lowering,3306
lowest,3307
loyalty,3308
lt,3309
lucilla,3310
luck,3311
lucrative,3312
lugage,3313
lump,3314
lunatics,3315
lush,3316
lust,3317
lusts,3318
lutheran,3319
lwa,3320
lying,3321
lynch,3322
macademia,3323
macbeth,3324
machine,3325
machines,3326
macmillan,3327
mad,3328
magazine,3329
magnitude,3330
mahler,3331
mail,3332
main,3333
mainland,3334
mainly,3335
mainstream,3336
maintain,3337
maintaining,3338
maj,3339
major,3340
majoritively,3341
majority,3342
make,3343
makes,3344
making,3345
malaysia,3346
malchrome,3347
male,3348
males,3349
malfunction,3350
malfunctioning,3351
malls,3352
malt,3353
man,3354
manafacture,3355
manage,3356
managed,3357
manchester,3358
mandate,3359
mandated,3360
mandatory,3361
mandela,3362
mango,3363
manicured,3364
manipulated,3365
mankind,3366
manner,3367
manufacturers,3368
mao,3369
map,3370
mapp,3371
marach,3372
march,3373
marine,3374
mark,3375
market,3376
markets,3377
marley,3378
marquis,3379
marraiges,3380
marrakesh,3381
marriage,3382
married,3383
mars,3384
marshals,3385
marshels,3386
martian,3387
martians,3388
martyr,3389
martyrdom,3390
marx,3391
mary,3392
mash,3393
mass,3394
massacre,3395
massacred,3396
massacres,3397
massive,3398
masterclass,3399
mastered,3400
match,3401
matches,3402
mate,3403
material,3404
matter,3405
matters,3406
mature,3407
maturity,3408
max,3409
maximum,3410
maybe,3411
mayhem,3412
mb,3413
mc,3414
mcb,3415
mcbean,3416
mcneil,3417
mean,3418
meaning,3419
meaningful,3420
meanings,3421
means,3422
meant,3423
measues,3424
measure,3425
meat,3426
mechanism,3427
media,3428
medias,3429
medical,3430
medicine,3431
medics,3432
meet,3433
meeting,3434
meetings,3435
meinhof,3436
melanie,3437
melon,3438
member,3439
membered,3440
members,3441
memo,3442
memorial,3443
memorials,3444
memory,3445
men,3446
mens,3447
mensa,3448
mental,3449
mentally,3450
mention,3451
mentioned,3452
mentors,3453
mercies,3454
merciful,3455
mercy,3456
merely,3457
merest,3458
merit,3459
merits,3460
merkel,3461
message,3462
messages,3463
mestizo,3464
met,3465
meta,3466
metallic,3467
mexican,3468
mexicans,3469
mexico,3470
meyer,3471
miami,3472
michael,3473
micheal,3474
mickey,3475
micro,3476
microsoft,3477
mid,3478
middle,3479
migrants,3480
migration,3481
miles,3482
militant,3483
militants,3484
militarily,3485
military,3486
militias,3487
millenia,3488
million,3489
millionaire,3490
millions,3491
mind,3492
minded,3493
minds,3494
minefield,3495
mines,3496
minister,3497
minor,3498
minority,3499
minute,3500
mis,3501
miscarriage,3502
misconception,3503
misfits,3504
misfortune,3505
mish,3506
misinterpreted,3507
misled,3508
misogyny,3509
misplaced,3510
misread,3511
misrepresent,3512
misrepresentation,3513
miss,3514
missed,3515
misses,3516
missile,3517
missiles,3518
missing,3519
missions,3520
missippi,3521
missippparsedonedigit,3522
missus,3523
mist,3524
mistake,3525
mistakes,3526
mistress,3527
mistressofmydomains,3528
mists,3529
misunderstanding,3530
mix,3531
mixed,3532
mm,3533
mmmmmm,3534
mn,3535
mne,3536
mob,3537
mobile,3538
mock,3539
mod,3540
modderated,3541
model,3542
moderated,3543
moderator,3544
modern,3545
modesty,3546
mods,3547
mohammad,3548
mohammadans,3549
mohammed,3550
moist,3551
mom,3552
moment,3553
moments,3554
momment,3555
mon,3556
monday,3557
mondial,3558
money,3559
mongering,3560
mongolia,3561
monopulse,3562
monotonous,3563
monster,3564
month,3565
monthly,3566
months,3567
moon,3568
moore,3569
moot,3570
moral,3571
morale,3572
morass,3573
morning,3574
morocco,3575
moronic,3576
morris,3577
moselms,3578
moses,3579
moshe,3580
moslems,3581
mosque,3582
mosques,3583
mossadeq,3584
mother,3585
mothers,3586
motivation,3587
motive,3588
motives,3589
motorcade,3590
mouse,3591
moussaoui,3592
mouth,3593
mouths,3594
moved,3595
movement,3596
movements,3597
moving,3598
mow,3599
mparsedfourdigits,3600
mparsedonedigitlparseddigitsjparsedonedigit,3601
mps,3602
mr,3603
mrs,3604
ms,3605
msn,3606
msnbc,3607
mubashar,3608
muddying,3609
mufti,3610
mugabe,3611
muhammad,3612
multiculrism,3613
mum,3614
muppet,3615
murder,3616
murdered,3617
murderer,3618
murderous,3619
murders,3620
murduch,3621
musab,3622
museum,3623
musharraf,3624
mushy,3625
muslim,3626
muslims,3627
mutual,3628
mutually,3629
mutuals,3630
muzlins,3631
mych,3632
mylroie,3633
mystery,3634
myth,3635
nafta,3636
nafthe,3637
nagasaki,3638
nahhh,3639
naighbor,3640
nail,3641
nails,3642
naive,3643
names,3644
napalm,3645
narrative,3646
narrow,3647
nasty,3648
nation,3649
national,3650
nationalist,3651
nationalities,3652
nationality,3653
nations,3654
nationstate,3655
native,3656
natives,3657
nato,3658
natural,3659
naturally,3660
nature,3661
nauseam,3662
navy,3663
naz,3664
nazi,3665
nazis,3666
nazism,3667
nbc,3668
nd,3669
ne,3670
near,3671
nearly,3672
neatly,3673
nec,3674
necessarily,3675
neck,3676
need,3677
needed,3678
needn,3679
needs,3680
neglected,3681
negotiating,3682
negotiations,3683
neighbours,3684
neil,3685
nelson,3686
neo,3687
neocons,3688
nerve,3689
neutral,3690
new,3691
newborn,3692
newest,3693
newly,3694
newnight,3695
news,3696
newsflash,3697
newspaper,3698
newsparsedonedigit,3699
newsparsedtwodigits,3700
newsworthy,3701
niaghbors,3702
nice,3703
nick,3704
nieve,3705
night,3706
nighthook,3707
nightmare,3708
nights,3709
nighttime,3710
nijmeijert,3711
nikki,3712
nip,3713
nixon,3714
nk,3715
nobel,3716
noble,3717
nobs,3718
nologo,3719
nom,3720
nomatter,3721
nominal,3722
non,3723
nonsense,3724
nonsensical,3725
nook,3726
nope,3727
norm,3728
normal,3729
normans,3730
norms,3731
north,3732
northern,3733
norwich,3734
nose,3735
noses,3736
note,3737
noted,3738
notes,3739
notice,3740
noticed,3741
noticing,3742
noting,3743
notion,3744
notions,3745
noughts,3746
novel,3747
november,3748
nowt,3749
nr,3750
nsw,3751
nuclear,3752
nuke,3753
nukes,3754
numbed,3755
number,3756
numbers,3757
numbing,3758
numerous,3759
numpty,3760
nut,3761
nutcase,3762
nutcases,3763
nutters,3764
nuttin,3765
nutty,3766
nypd,3767
nytimes,3768
oaths,3769
ob,3770
obesity,3771
object,3772
objecting,3773
objections,3774
objective,3775
objects,3776
obligation,3777
oblige,3778
obliged,3779
obliterated,3780
oblivion,3781
observant,3782
observations,3783
obvioulsy,3784
obvious,3785
obviously,3786
oc,3787
occamøs,3788
occasion,3789
occasional,3790
occasions,3791
occupation,3792
occupied,3793
occupiers,3794
occupy,3795
occupying,3796
occured,3797
occurs,3798
ocean,3799
october,3800
odd,3801
oddly,3802
odds,3803
offended,3804
offensive,3805
offer,3806
offered,3807
offering,3808
office,3809
officers,3810
official,3811
officials,3812
oh,3813
ohj,3814
oil,3815
ok,3816
okay,3817
oklahoma,3818
old,3819
older,3820
olds,3821
ole,3822
olive,3823
olmert,3824
olympic,3825
olympics,3826
ones,3827
ongoing,3828
onus,3829
oozes,3830
op,3831
opec,3832
open,3833
opened,3834
opening,3835
openly,3836
opens,3837
opera,3838
operation,3839
operations,3840
opinion,3841
opinions,3842
opponent,3843
opponents,3844
opportune,3845
opportunist,3846
opportunities,3847
opportunity,3848
opposed,3849
opposing,3850
opposite,3851
opposites,3852
opposition,3853
oppressed,3854
opressed,3855
option,3856
optional,3857
opwn,3858
oranges,3859
orbit,3860
orchards,3861
ordeals,3862
order,3863
orders,3864
ordinance,3865
ordinary,3866
org,3867
organisation,3868
organisations,3869
organise,3870
organised,3871
organising,3872
organism,3873
organistion,3874
organization,3875
organizations,3876
organized,3877
orginal,3878
orientation,3879
original,3880
originally,3881
orwell,3882
oswald,3883
othwerwise,3884
otter,3885
ottoman,3886
ouch,3887
ought,3888
ourself,3889
outdated,3890
outer,3891
outlasting,3892
outlawing,3893
outlet,3894
outnumbered,3895
outraged,3896
outrageous,3897
outright,3898
outs,3899
outside,3900
outsiders,3901
outspoken,3902
outstanding,3903
outstrip,3904
ovbious,3905
overall,3906
overriding,3907
oversight,3908
overthrow,3909
overwhelming,3910
ow,3911
owe,3912
owned,3913
owner,3914
owners,3915
ownership,3916
oz,3917
ozy,3918
pace,3919
pacifists,3920
pack,3921
package,3922
packet,3923
page,3924
pageant,3925
paid,3926
pain,3927
painful,3928
pains,3929
paint,3930
painting,3931
pakistan,3932
pakistani,3933
pakistanis,3934
pakistans,3935
pale,3936
pales,3937
palestian,3938
palestinans,3939
palestine,3940
palestinian,3941
palestinians,3942
palestnians,3943
palin,3944
palistinians,3945
pallywood,3946
pals,3947
pan,3948
panicked,3949
panna,3950
panorama,3951
paparazzi,3952
paper,3953
papers,3954
paradise,3955
paradises,3956
paragraphs,3957
parallel,3958
parallels,3959
paranoia,3960
parcel,3961
parent,3962
parenting,3963
parents,3964
paris,3965
park,3966
parker,3967
parliament,3968
parliment,3969
parseddigits,3970
parseddigitsbn,3971
parseddigitsth,3972
parsedfourdigits,3973
parsedfourdigitss,3974
parsedfourdigitsth,3975
parsedonedigit,3976
parsedonedigitbn,3977
parsedonedigitg,3978
parsedonedigitk,3979
parsedonedigitnd,3980
parsedonedigitrd,3981
parsedsixdigits,3982
parsedthreedigits,3983
parsedthreedigitsk,3984
parsedthreedigitsm,3985
parsedtime,3986
parsedtwodigits,3987
parsedtwodigitsbn,3988
parsedtwodigitsk,3989
parsedtwodigitsm,3990
parsedtwodigitss,3991
parsedtwodigitsth,3992
participants,3993
participate,3994
participated,3995
participle,3996
particular,3997
particularly,3998
partisan,3999
partition,4000
partly,4001
partnerships,4002
parts,4003
party,4004
pasha,4005
pass,4006
passed,4007
passengers,4008
passes,4009
passing,4010
passion,4011
passively,4012
past,4013
paste,4014
pat,4015
patent,4016
paternalism,4017
path,4018
pathetic,4019
patronising,4020
pattern,4021
paul,4022
pax,4023
pay,4024
paying,4025
payment,4026
pc,4027
pea,4028
peace,4029
peaceful,4030
peacefully,4031
peanuts,4032
pearls,4033
pears,4034
peasants,4035
pecans,4036
pedantic,4037
peer,4038
peking,4039
pen,4040
penal,4041
penalty,4042
penchant,4043
peninsula,4044
penny,4045
pension,4046
pensions,4047
pentagon,4048
people,4049
peoples,4050
percent,4051
percentages,4052
perception,4053
perceptions,4054
perchance,4055
peres,4056
perfect,4057
perfectly,4058
perform,4059
performed,4060
performing,4061
period,4062
perish,4063
perishing,4064
perle,4065
permanent,4066
permission,4067
permitted,4068
perpetrated,4069
persecuted,4070
persecution,4071
person,4072
personal,4073
personalities,4074
personally,4075
persons,4076
perspective,4077
persuaded,4078
perverse,4079
pet,4080
pete,4081
peters,4082
petra,4083
petty,4084
pfft,4085
phillips,4086
philosopher,4087
philosophy,4088
phone,4089
phoneacians,4090
phoned,4091
phophorous,4092
photographer,4093
photographs,4094
photos,4095
phrase,4096
phrases,4097
phrophet,4098
physical,4099
physically,4100
picayunities,4101
pick,4102
picking,4103
picture,4104
piece,4105
pieces,4106
pig,4107
pigeonhole,4108
pigs,4109
pillock,4110
pilots,4111
piltdown,4112
pinko,4113
pinochet,4114
pipe,4115
pirlo,4116
pistol,4117
placard,4118
place,4119
places,4120
placing,4121
plain,4122
plaintive,4123
plan,4124
plane,4125
planes,4126
planet,4127
planned,4128
planners,4129
planning,4130
plans,4131
plant,4132
planted,4133
plants,4134
plaster,4135
play,4136
played,4137
player,4138
players,4139
playing,4140
plays,4141
plear,4142
pleasant,4143
pleasure,4144
plenty,4145
ploughed,4146
ploy,4147
plus,4148
pm,4149
poem,4150
poindexter,4151
point,4152
pointed,4153
pointing,4154
pointless,4155
points,4156
poison,4157
poisons,4158
poking,4159
poland,4160
polar,4161
pole,4162
police,4163
policies,4164
policy,4165
polish,4166
politcal,4167
political,4168
politically,4169
politicians,4170
politicos,4171
politics,4172
poll,4173
polls,4174
polluters,4175
pollution,4176
pond,4177
poochies,4178
pool,4179
pools,4180
poor,4181
poorly,4182
pop,4183
popping,4184
popular,4185
population,4186
populations,4187
pork,4188
portrayed,4189
ports,4190
portugese,4191
portuguese,4192
posative,4193
posed,4194
posession,4195
position,4196
positions,4197
positive,4198
possession,4199
possibilities,4200
possibility,4201
possible,4202
possibly,4203
post,4204
posted,4205
poster,4206
posters,4207
posting,4208
postings,4209
posts,4210
posturing,4211
potemtial,4212
potential,4213
pound,4214
pounding,4215
poverty,4216
power,4217
powerbase,4218
powerfull,4219
powers,4220
ppa,4221
pr,4222
practical,4223
practice,4224
practiced,4225
practices,4226
praise,4227
praised,4228
prank,4229
prattle,4230
pray,4231
praying,4232
pre,4233
preach,4234
preaching,4235
precipitate,4236
precise,4237
precisely,4238
precision,4239
predatory,4240
prediction,4241
predominately,4242
prefer,4243
prefered,4244
preference,4245
prehaps,4246
prejudice,4247
prejudices,4248
prematurely,4249
premeditating,4250
premium,4251
prepare,4252
prepared,4253
prepartions,4254
preperation,4255
presence,4256
present,4257
presentation,4258
presented,4259
president,4260
presidents,4261
presnted,4262
press,4263
presso,4264
pressure,4265
pressurise,4266
presumably,4267
presume,4268
presure,4269
pretend,4270
pretending,4271
pretext,4272
pretty,4273
prevent,4274
prevented,4275
preventing,4276
previous,4277
previously,4278
prey,4279
price,4280
prices,4281
pride,4282
priest,4283
primary,4284
prime,4285
princess,4286
print,4287
printed,4288
printing,4289
prior,4290
prisions,4291
prison,4292
prisoners,4293
private,4294
prize,4295
prized,4296
pro,4297
probability,4298
probably,4299
problem,4300
problematic,4301
problems,4302
process,4303
proclaiming,4304
prodding,4305
prodi,4306
produce,4307
produced,4308
product,4309
productive,4310
products,4311
profess,4312
professional,4313
professors,4314
profitable,4315
profits,4316
profound,4317
program,4318
programme,4319
programs,4320
progress,4321
progressiove,4322
prohibit,4323
projecting,4324
projects,4325
prominent,4326
promised,4327
promote,4328
promoting,4329
promotion,4330
prompted,4331
promptly,4332
prone,4333
proof,4334
propaganda,4335
propagandist,4336
properly,4337
property,4338
propoganada,4339
propoganda,4340
proportion,4341
proposal,4342
proposed,4343
proscribed,4344
prosecuted,4345
prosecutions,4346
prosperity,4347
prosperous,4348
protect,4349
protecting,4350
protection,4351
protector,4352
protects,4353
protest,4354
protested,4355
protestors,4356
proud,4357
prove,4358
proverb,4359
proves,4360
provide,4361
providing,4362
provocation,4363
provoke,4364
pruduction,4365
prvent,4366
ps,4367
psychiatrists,4368
psychological,4369
psychologists,4370
psychology,4371
pu,4372
pub,4373
public,4374
publicity,4375
publicly,4376
published,4377
publisher,4378
publishing,4379
pubs,4380
puddin,4381
puffing,4382
pull,4383
pulled,4384
pumping,4385
punishable,4386
punished,4387
punishment,4388
pupil,4389
puppet,4390
purchase,4391
purchased,4392
purchasing,4393
pure,4394
purely,4395
purpose,4396
purposes,4397
pursue,4398
pursuing,4399
push,4400
pushed,4401
pushing,4402
putin,4403
puts,4404
putting,4405
puy,4406
puydedome,4407
pyongyang,4408
pyramid,4409
qaeda,4410
qassam,4411
quada,4412
quake,4413
qualification,4414
qualitavely,4415
quality,4416
quantify,4417
quarter,4418
quattro,4419
quayle,4420
qubal,4421
queda,4422
quell,4423
quelling,4424
quels,4425
question,4426
questioned,4427
questioning,4428
questions,4429
quick,4430
quickly,4431
quid,4432
quiet,4433
quips,4434
quite,4435
quitely,4436
quote,4437
quotes,4438
quoting,4439
rabble,4440
rabid,4441
rabin,4442
race,4443
racial,4444
racism,4445
racist,4446
radar,4447
radars,4448
radical,4449
radicalized,4450
radicals,4451
radio,4452
radioactive,4453
rag,4454
rage,4455
rahman,4456
raid,4457
rail,4458
raise,4459
raised,4460
raising,4461
rallied,4462
rally,4463
ran,4464
range,4465
ranging,4466
rankings,4467
ranks,4468
ransomes,4469
rant,4470
ranting,4471
rape,4472
raped,4473
rapid,4474
rapidly,4475
raping,4476
rashid,4477
rat,4478
rates,4479
rating,4480
ratings,4481
rational,4482
rattling,4483
ray,4484
razor,4485
reach,4486
reached,4487
reaching,4488
react,4489
reacted,4490
reaction,4491
reactions,4492
reactor,4493
read,4494
readers,4495
readiness,4496
reading,4497
readliy,4498
reads,4499
ready,4500
real,4501
realise,4502
realised,4503
reality,4504
really,4505
reaping,4506
reaserch,4507
reason,4508
reasonable,4509
reasoning,4510
reasons,4511
rebates,4512
rebounding,4513
rebuke,4514
recall,4515
recalls,4516
receive,4517
received,4518
receives,4519
recent,4520
recently,4521
recession,4522
recieved,4523
recieves,4524
recipient,4525
reciprocating,4526
reckless,4527
recluse,4528
recognise,4529
recognised,4530
recognition,4531
recognize,4532
recognizeable,4533
recollect,4534
recommendations,4535
record,4536
records,4537
recovering,4538
recrutment,4539
red,4540
redesignating,4541
redirected,4542
reduced,4543
reed,4544
refer,4545
referee,4546
reference,4547
referenced,4548
references,4549
refering,4550
referring,4551
refers,4552
refinanced,4553
refinement,4554
refuge,4555
refugees,4556
refuse,4557
refused,4558
refusing,4559
refute,4560
refuted,4561
regard,4562
regarded,4563
regarding,4564
regards,4565
regime,4566
regimes,4567
region,4568
regional,4569
regions,4570
regret,4571
regretting,4572
regular,4573
regulations,4574
reich,4575
reichspatent,4576
reinforcements,4577
reins,4578
rejected,4579
rejecting,4580
related,4581
relating,4582
relation,4583
relations,4584
relationship,4585
relationships,4586
relative,4587
relatives,4588
relativists,4589
relaunch,4590
release,4591
released,4592
relentless,4593
reliability,4594
relief,4595
religion,4596
religions,4597
religious,4598
religon,4599
reluctant,4600
rely,4601
remain,4602
remaining,4603
remains,4604
remark,4605
remarks,4606
remember,4607
remembered,4608
remembers,4609
reminded,4610
reminds,4611
remove,4612
removed,4613
removing,4614
renege,4615
renouncing,4616
rented,4617
repeat,4618
repeated,4619
repeatedly,4620
repeating,4621
rephrase,4622
replace,4623
replaced,4624
replacing,4625
replies,4626
reply,4627
replying,4628
report,4629
reported,4630
reportedly,4631
reports,4632
represent,4633
representation,4634
representative,4635
represents,4636
repression,4637
reps,4638
republic,4639
republicans,4640
reputable,4641
reputation,4642
request,4643
require,4644
required,4645
requires,4646
resarch,4647
research,4648
researching,4649
resent,4650
reserve,4651
reservoir,4652
resident,4653
residents,4654
resign,4655
resistance,4656
resolution,4657
resolutions,4658
resolved,4659
resort,4660
resourceful,4661
resources,4662
respect,4663
respectable,4664
respected,4665
respectfully,4666
respecting,4667
responce,4668
respond,4669
responded,4670
responding,4671
responsability,4672
response,4673
responses,4674
responsibility,4675
responsible,4676
responsiblity,4677
rest,4678
restance,4679
restarted,4680
restaurants,4681
restock,4682
restored,4683
restrained,4684
restrict,4685
restricted,4686
restrictions,4687
result,4688
resulted,4689
resulting,4690
results,4691
retailer,4692
retaliate,4693
retaliation,4694
retiring,4695
retold,4696
retracts,4697
retrieve,4698
retrospect,4699
retry,4700
return,4701
returning,4702
revealed,4703
reveals,4704
revelation,4705
revenge,4706
review,4707
reviewed,4708
revisionist,4709
revive,4710
revolution,4711
revolutionary,4712
rewrite,4713
reza,4714
rhetoric,4715
rhodesia,4716
rhymes,4717
rice,4718
rich,4719
richard,4720
richer,4721
richest,4722
rid,4723
riddance,4724
riddled,4725
ridiclus,4726
ridiculous,4727
ridiculously,4728
riding,4729
rifle,4730
rifles,4731
right,4732
righteous,4733
rightful,4734
rights,4735
ring,4736
rings,4737
rioting,4738
riots,4739
ripley,4740
ripped,4741
rise,4742
risen,4743
risible,4744
rising,4745
risk,4746
risking,4747
rita,4748
rittaq,4749
rjsc,4750
road,4751
roadmap,4752
roadside,4753
roam,4754
roar,4755
robbie,4756
robert,4757
rock,4758
rocket,4759
rockets,4760
rocks,4761
rogue,4762
role,4763
roles,4764
rolling,4765
romania,4766
romantic,4767
roof,4768
room,4769
rooming,4770
roosvelt,4771
root,4772
rooting,4773
ropert,4774
rose,4775
rough,4776
round,4777
rounded,4778
rounds,4779
rouser,4780
route,4781
routinely,4782
royal,4783
rpg,4784
rubber,4785
rubbish,4786
rubbu,4787
ruin,4788
ruined,4789
ruining,4790
rule,4791
ruled,4792
rulers,4793
rules,4794
ruling,4795
rumbles,4796
rumsfeld,4797
rumsfeldt,4798
run,4799
running,4800
runs,4801
rural,4802
ruskies,4803
russia,4804
russian,4805
russians,4806
ruth,4807
ruthlessly,4808
rwanda,4809
ry,4810
sa,4811
saa,4812
sabre,4813
sacking,4814
sacrifices,4815
sad,4816
saddam,4817
sadly,4818
safe,4819
safeguard,4820
safely,4821
said,4822
saids,4823
sake,4824
salafists,4825
salaries,4826
sales,4827
salome,4828
samadashvili,4829
sample,4830
sanctions,4831
sandwich,4832
sane,4833
sanitation,4834
sarah,4835
sarcastic,4836
sat,4837
satan,4838
satirist,4839
satisfactory,4840
satisfy,4841
saturday,4842
saudi,4843
sauds,4844
savagery,4845
save,4846
saved,4847
saving,4848
saw,4849
saxon,4850
say,4851
saying,4852
says,4853
scale,4854
scales,4855
scam,4856
scandal,4857
scandanavia,4858
scapegoat,4859
scapegoated,4860
scared,4861
sceintist,4862
scenario,4863
scenarios,4864
scenes,4865
scewed,4866
sch,4867
schemes,4868
scholars,4869
school,4870
schoolchildren,4871
schoolgirls,4872
schools,4873
schwartskopf,4874
science,4875
scienitst,4876
scientific,4877
scientist,4878
scientists,4879
score,4880
scot,4881
scotland,4882
scottishness,4883
scrap,4884
scream,4885
screaming,4886
screening,4887
screw,4888
screwed,4889
screwing,4890
script,4891
scrutiny,4892
scum,4893
scupper,4894
sea,4895
sealion,4896
sean,4897
search,4898
searched,4899
season,4900
seat,4901
second,4902
secondary,4903
seconds,4904
secret,4905
secs,4906
sect,4907
section,4908
sector,4909
secular,4910
security,4911
sedition,4912
seed,4913
seeing,4914
seek,4915
seeking,4916
seeme,4917
seen,4918
seeping,4919
seeps,4920
sees,4921
segregation,4922
seldom,4923
selective,4924
selectively,4925
selects,4926
self,4927
sell,4928
seller,4929
sells,4930
semantics,4931
semetic,4932
semetism,4933
semite,4934
semitic,4935
semitism,4936
senate,4937
senator,4938
senators,4939
send,4940
sending,4941
senior,4942
sense,4943
sensible,4944
sensitive,4945
sensitivity,4946
sent,4947
sentence,4948
sentenced,4949
sentenceing,4950
sentences,4951
sentiments,4952
sep,4953
separating,4954
separation,4955
sept,4956
september,4957
septmeber,4958
sequels,4959
sequence,4960
seriously,4961
servants,4962
serve,4963
served,4964
serves,4965
service,4966
servicemen,4967
services,4968
servies,4969
serving,4970
sessions,4971
set,4972
settle,4973
settlement,4974
settlements,4975
settlers,4976
settles,4977
seucrity,4978
seven,4979
seventh,4980
severely,4981
sex,4982
sexist,4983
sexual,4984
sfc,4985
sh,4986
shabby,4987
shades,4988
shah,4989
shahab,4990
shakes,4991
shall,4992
shalom,4993
shame,4994
shameful,4995
share,4996
shared,4997
shariah,4998
sharing,4999
sheer,5000
sheikh,5001
sheiks,5002
shelling,5003
shelter,5004
shia,5005
shias,5006
shields,5007
shifted,5008
shifting,5009
shining,5010
ship,5011
ships,5012
shock,5013
shoe,5014
shoot,5015
shooting,5016
shoots,5017
short,5018
shortages,5019
shortcomingof,5020
shorter,5021
shortlist,5022
shot,5023
shots,5024
shouldn,5025
shout,5026
showcase,5027
showed,5028
showing,5029
shown,5030
shows,5031
shrinking,5032
shut,5033
shy,5034
sick,5035
sickening,5036
sickeningly,5037
sided,5038
sidelines,5039
sides,5040
sidestepped,5041
sidique,5042
sight,5043
sighted,5044
sign,5045
signed,5046
significant,5047
significantly,5048
signing,5049
signs,5050
silence,5051
silliness,5052
silly,5053
silver,5054
simchaparsedonedigit,5055
similar,5056
similarly,5057
simon,5058
simonparsedtwodigits,5059
simple,5060
simplest,5061
simplicity,5062
simplify,5063
simply,5064
singing,5065
single,5066
singular,5067
siniora,5068
sinister,5069
sink,5070
sinking,5071
sinto,5072
sir,5073
sis,5074
sit,5075
site,5076
sites,5077
sitting,5078
situation,5079
situations,5080
size,5081
sk,5082
skilled,5083
skimped,5084
skirmish,5085
skull,5086
skulls,5087
slams,5088
slave,5089
sleng,5090
slide,5091
slight,5092
slightly,5093
slighty,5094
slip,5095
slipped,5096
slot,5097
slow,5098
slowly,5099
slur,5100
small,5101
smallwa,5102
smashed,5103
smelly,5104
smicha,5105
smidgeon,5106
smileys,5107
smililar,5108
smoke,5109
smoker,5110
smokescreen,5111
smuggling,5112
sneaked,5113
sneer,5114
sneering,5115
snideness,5116
snippet,5117
snow,5118
soap,5119
social,5120
socialism,5121
socialist,5122
socialists,5123
societies,5124
society,5125
sodomy,5126
soemhow,5127
soilders,5128
sold,5129
soldier,5130
soldiers,5131
sole,5132
solely,5133
solid,5134
solidarity,5135
solomoron,5136
solution,5137
solve,5138
solved,5139
somali,5140
somalia,5141
somebody,5142
somethihng,5143
son,5144
song,5145
sonic,5146
soon,5147
sooner,5148
sophistry,5149
soprano,5150
sorry,5151
sort,5152
sorts,5153
sound,5154
sounds,5155
source,5156
sources,5157
south,5158
southern,5159
sovereign,5160
soverignty,5161
soviet,5162
soviets,5163
sown,5164
space,5165
spaghetti,5166
spain,5167
spam,5168
spaniards,5169
spanish,5170
spartacus,5171
spawned,5172
speak,5173
speakin,5174
speaking,5175
special,5176
specialist,5177
specific,5178
specifically,5179
spectacular,5180
spectating,5181
spectators,5182
speculation,5183
speech,5184
speeches,5185
speed,5186
spell,5187
spelling,5188
spend,5189
spent,5190
spew,5191
spider,5192
spiked,5193
spin,5194
spinmeisters,5195
spiral,5196
spirits,5197
spoken,5198
spokeswoman,5199
sponsors,5200
sportsfield,5201
spot,5202
spots,5203
spout,5204
spouts,5205
spray,5206
sprayed,5207
sprays,5208
spread,5209
spreading,5210
spree,5211
springs,5212
squandered,5213
square,5214
squeamish,5215
sri,5216
stabbing,5217
stability,5218
stable,5219
staff,5220
staffed,5221
stage,5222
stagnant,5223
stake,5224
stalin,5225
stalinism,5226
stalinist,5227
stalking,5228
stalling,5229
stamina,5230
stamp,5231
stance,5232
stand,5233
standard,5234
standards,5235
standing,5236
stands,5237
star,5238
starbucks,5239
stare,5240
stares,5241
stark,5242
start,5243
started,5244
starting,5245
starts,5246
starvation,5247
starwars,5248
stashed,5249
state,5250
stated,5251
statehood,5252
statement,5253
statementr,5254
statements,5255
states,5256
stations,5257
statistics,5258
stats,5259
status,5260
stauts,5261
stay,5262
stayed,5263
steadily,5264
steal,5265
stealth,5266
stella,5267
step,5268
stepping,5269
sticking,5270
stir,5271
stlins,5272
stock,5273
stockpile,5274
stole,5275
stolen,5276
stomachs,5277
stone,5278
stones,5279
stonings,5280
stood,5281
stop,5282
stoping,5283
stopped,5284
stops,5285
stor,5286
stores,5287
stories,5288
storm,5289
stormin,5290
story,5291
straight,5292
straightforward,5293
strand,5294
strangely,5295
stranger,5296
strangulation,5297
strategic,5298
stratosphere,5299
straw,5300
strawman,5301
straws,5302
street,5303
streets,5304
strength,5305
stresses,5306
stretch,5307
stretcher,5308
stretchers,5309
strike,5310
strikes,5311
strip,5312
stripping,5313
strong,5314
strongest,5315
strongly,5316
struck,5317
structures,5318
stuart,5319
stub,5320
stuck,5321
stucked,5322
students,5323
studied,5324
studies,5325
study,5326
studying,5327
stuff,5328
stupa,5329
stupid,5330
stupidity,5331
style,5332
sub,5333
subject,5334
subjective,5335
subjects,5336
subjugated,5337
subliminally,5338
submitted,5339
subsequent,5340
subsidies,5341
substance,5342
substantiate,5343
substantive,5344
substitute,5345
subtly,5346
suburban,5347
subvert,5348
succeed,5349
succesful,5350
succesfull,5351
success,5352
sucks,5353
sudan,5354
sudaneese,5355
suddenly,5356
sue,5357
suffered,5358
suffering,5359
sufficient,5360
suggest,5361
suggested,5362
suggesting,5363
suggestion,5364
suggests,5365
suicide,5366
suit,5367
suits,5368
sumatra,5369
summarising,5370
sunni,5371
sunnis,5372
super,5373
supereamists,5374
superiority,5375
supplied,5376
supply,5377
supplying,5378
support,5379
supported,5380
supporter,5381
supporters,5382
supporting,5383
supports,5384
suppose,5385
supposed,5386
supressor,5387
suprised,5388
suprises,5389
surbiton,5390
sure,5391
surely,5392
surpirse,5393
surpress,5394
surprise,5395
surprised,5396
surprising,5397
surrounded,5398
surrounding,5399
surveys,5400
survival,5401
survived,5402
survivors,5403
suspect,5404
suspects,5405
suspense,5406
suspicious,5407
sustainable,5408
sustained,5409
sustaining,5410
suv,5411
svay,5412
swam,5413
swearing,5414
sweet,5415
sweets,5416
swim,5417
swimmer,5418
swimming,5419
swimsuit,5420
swimsuits,5421
swiss,5422
switched,5423
sy,5424
syllables,5425
symbol,5426
symbolic,5427
symbolism,5428
symbols,5429
sympathetic,5430
sympathiser,5431
sympathize,5432
sympathy,5433
synagogue,5434
syria,5435
syrian,5436
systematically,5437
systems,5438
ta,5439
table,5440
tablets,5441
tackle,5442
tactic,5443
tactics,5444
taheri,5445
taken,5446
takeover,5447
takes,5448
taking,5449
taleban,5450
talent,5451
taliban,5452
talibans,5453
talk,5454
talking,5455
talks,5456
talmud,5457
tame,5458
tanja,5459
tanks,5460
tao,5461
tapes,5462
taps,5463
tar,5464
target,5465
targets,5466
targetted,5467
targetting,5468
tarred,5469
task,5470
tasks,5471
taste,5472
tatty,5473
taught,5474
tautological,5475
taxation,5476
taxes,5477
tb,5478
teach,5479
teacher,5480
teachers,5481
teaching,5482
team,5483
teamed,5484
tear,5485
tearing,5486
tears,5487
technically,5488
techniques,5489
technology,5490
tedious,5491
teenage,5492
teens,5493
teh,5494
tel,5495
telegrams,5496
telegraph,5497
telemobiloscope,5498
telephone,5499
tell,5500
telling,5501
tells,5502
temper,5503
tempers,5504
tempted,5505
tenants,5506
tend,5507
tender,5508
tends,5509
tenet,5510
tenets,5511
tens,5512
tensions,5513
teresa,5514
term,5515
terms,5516
terrible,5517
terrifying,5518
territories,5519
territory,5520
territroies,5521
terroism,5522
terror,5523
terrorism,5524
terrorist,5525
terrorists,5526
tessa,5527
test,5528
tested,5529
testified,5530
teven,5531
textbook,5532
textbooks,5533
th,5534
thank,5535
thanked,5536
thanks,5537
thats,5538
theatrics,5539
theme,5540
themeselves,5541
theocracy,5542
theories,5543
theory,5544
thereof,5545
theres,5546
thier,5547
thing,5548
things,5549
think,5550
thinking,5551
thinks,5552
tho,5553
thompson,5554
thought,5555
thoughts,5556
thousands,5557
thread,5558
threads,5559
threadstarter,5560
threat,5561
threatened,5562
threatening,5563
threatens,5564
threats,5565
threive,5566
throwing,5567
thrown,5568
thrust,5569
thu,5570
thursday,5571
thwarted,5572
tibet,5573
tidal,5574
tie,5575
tied,5576
ties,5577
tight,5578
tighten,5579
time,5580
times,5581
timesdispatch,5582
timewatch,5583
timor,5584
tiny,5585
tips,5586
tired,5587
tis,5588
title,5589
today,5590
todays,5591
toddy,5592
toe,5593
toed,5594
toilet,5595
toilets,5596
tolarance,5597
told,5598
tolerance,5599
tolerated,5600
toll,5601
tollerance,5602
tom,5603
tome,5604
tongue,5605
tonka,5606
tonker,5607
tony,5608
tonys,5609
tonysilver,5610
took,5611
tools,5612
topic,5613
topless,5614
torpor,5615
torture,5616
toss,5617
total,5618
totally,5619
touches,5620
touching,5621
tough,5622
tour,5623
tourist,5624
tournament,5625
tower,5626
towering,5627
towns,5628
toyhon,5629
traceable,5630
track,5631
trade,5632
traded,5633
trader,5634
tradition,5635
traditional,5636
trafalgar,5637
traffic,5638
tragedies,5639
tragedy,5640
tragic,5641
trail,5642
trained,5643
training,5644
transact,5645
transistor,5646
translation,5647
transparent,5648
transplanted,5649
transport,5650
transporter,5651
trap,5652
trash,5653
trashed,5654
travel,5655
travelgalparsedthreedigits,5656
travelled,5657
travelling,5658
treachery,5659
treason,5660
treat,5661
treated,5662
treaties,5663
treatment,5664
treatments,5665
tree,5666
trembles,5667
tremendous,5668
trials,5669
tribes,5670
tribesmen,5671
tribunal,5672
trick,5673
tried,5674
trigger,5675
trip,5676
tripe,5677
triple,5678
trite,5679
trolls,5680
troop,5681
troops,5682
trotted,5683
trouble,5684
trousers,5685
truce,5686
truck,5687
true,5688
truly,5689
truman,5690
trun,5691
trust,5692
truth,5693
try,5694
trying,5695
tsunami,5696
tubes,5697
tuesday,5698
tunes,5699
tungsram,5700
tunisia,5701
tuol,5702
turbulent,5703
turf,5704
turk,5705
turkey,5706
turkish,5707
turmoil,5708
turn,5709
turned,5710
turning,5711
turns,5712
tv,5713
twice,5714
twin,5715
twins,5716
twist,5717
twisted,5718
twisting,5719
twofold,5720
type,5721
typed,5722
typical,5723
typically,5724
typo,5725
ubergunner,5726
uder,5727
uganda,5728
ugandan,5729
ugg,5730
ugly,5731
uk,5732
ukraine,5733
ukrainian,5734
ulpan,5735
ultimately,5736
ultras,5737
unabashed,5738
unable,5739
unacceptable,5740
unanimous,5741
unbalanced,5742
unbearable,5743
unbelievable,5744
uncaring,5745
uncivilised,5746
uncle,5747
unclear,5748
unconscionable,5749
uncontrollable,5750
underestanding,5751
underlying,5752
undermine,5753
undermines,5754
undermining,5755
understand,5756
understandable,5757
understanding,5758
understood,5759
undeterred,5760
unecessary,5761
unemployment,5762
uneven,5763
unfair,5764
unfairly,5765
unfettered,5766
unfold,5767
unfortunate,5768
unfortunately,5769
unfortunatley,5770
ungrateful,5771
unhappy,5772
unholy,5773
uni,5774
uninterupted,5775
union,5776
unionism,5777
united,5778
universal,5779
universe,5780
universities,5781
university,5782
unjustifiable,5783
unjustified,5784
unless,5785
unlike,5786
unlikeable,5787
unlikely,5788
unnamed,5789
unneccessary,5790
unnecessary,5791
unorthodox,5792
unpleasant,5793
unpopular,5794
unpopulated,5795
unproven,5796
unrealistic,5797
unreasonable,5798
unrelated,5799
unreliable,5800
unreported,5801
unspeakable,5802
unsubstantiated,5803
unsuccessful,5804
unto,5805
untrustworthy,5806
unwilling,5807
upcoming,5808
uprooting,5809
upset,5810
upstarts,5811
upu,5812
upward,5813
upyerpipe,5814
uranium,5815
urban,5816
urgent,5817
urges,5818
usa,5819
usage,5820
usapears,5821
use,5822
used,5823
useful,5824
useless,5825
uses,5826
using,5827
usual,5828
usually,5829
usuing,5830
utilitarian,5831
utopia,5832
utter,5833
utterly,5834
vacancies,5835
vacation,5836
vagant,5837
valid,5838
validated,5839
valise,5840
valuable,5841
value,5842
valued,5843
values,5844
vanunu,5845
variability,5846
variation,5847
variety,5848
various,5849
vast,5850
vat,5851
vatican,5852
vc,5853
ve,5854
vegetarian,5855
vehemently,5856
vehicles,5857
vein,5858
venezuela,5859
venezuelan,5860
venezuelans,5861
vent,5862
venture,5863
veracity,5864
verb,5865
verbal,5866
verdict,5867
verge,5868
verifying,5869
versa,5870
verse,5871
versed,5872
version,5873
vessel,5874
vestige,5875
vests,5876
veto,5877
vexing,5878
vice,5879
vicious,5880
victim,5881
victimhood,5882
victims,5883
victorian,5884
victories,5885
victory,5886
video,5887
videos,5888
vietnam,5889
view,5890
viewpoints,5891
views,5892
vigilant,5893
vile,5894
vina,5895
vindicationparsedthreedigits,5896
vindictiveness,5897
violate,5898
violation,5899
violence,5900
violent,5901
virtualisation,5902
virulently,5903
vis,5904
visible,5905
visit,5906
visitors,5907
vitriolic,5908
vocal,5909
voice,5910
void,5911
vomit,5912
voodoo,5913
vote,5914
voted,5915
voters,5916
votes,5917
voting,5918
vs,5919
vulgar,5920
vultures,5921
vw,5922
wacko,5923
wahhabist,5924
wail,5925
wait,5926
waited,5927
waiting,5928
wake,5929
wales,5930
walking,5931
wall,5932
walled,5933
walls,5934
walnuts,5935
wander,5936
wanna,5937
want,5938
wanted,5939
wants,5940
war,5941
warden,5942
warents,5943
warfare,5944
warmest,5945
warming,5946
warmonger,5947
warn,5948
warned,5949
warning,5950
warped,5951
warrant,5952
warrants,5953
warrnet,5954
wars,5955
wart,5956
wash,5957
wasn,5958
wasnt,5959
watch,5960
watches,5961
watching,5962
watchout,5963
water,5964
watered,5965
waters,5966
watersports,5967
watson,5968
watt,5969
wave,5970
waves,5971
way,5972
wayne,5973
ways,5974
wayward,5975
wb,5976
weak,5977
weakened,5978
weakest,5979
weaklings,5980
wealth,5981
wealthy,5982
weapon,5983
weapons,5984
wear,5985
wearing,5986
weather,5987
weave,5988
weaving,5989
web,5990
website,5991
websites,5992
wednesday,5993
weed,5994
week,5995
weekend,5996
weep,5997
weight,5998
weird,5999
welcome,6000
weltanschauung,6001
wendy,6002
wendyisms,6003
wendymann,6004
went,6005
wepaons,6006
weren,6007
west,6008
western,6009
westerner,6010
westward,6011
wether,6012
wets,6013
whats,6014
whatsoever,6015
wheedling,6016
wheezing,6017
whic,6018
whichester,6019
whichever,6020
whilst,6021
whinger,6022
whining,6023
whisky,6024
white,6025
whites,6026
whitey,6027
whoda,6028
wholy,6029
whoops,6030
whosoever,6031
wide,6032
wider,6033
widespread,6034
widow,6035
wiener,6036
wife,6037
wik,6038
wikipedia,6039
wild,6040
william,6041
williams,6042
willing,6043
willingly,6044
willingness,6045
win,6046
wing,6047
wingers,6048
winner,6049
winning,6050
wioth,6051
wipe,6052
wiped,6053
wiping,6054
wisdom,6055
wish,6056
wishes,6057
wishywashyness,6058
witha,6059
withdraw,6060
withdrawing,6061
withdrawn,6062
withdrawned,6063
withdrw,6064
withhold,6065
withref,6066
withstand,6067
witness,6068
witnessed,6069
witty,6070
wmd,6071
wmds,6072
woe,6073
woken,6074
wolfowitz,6075
woman,6076
women,6077
won,6078
wonder,6079
wondered,6080
wonderful,6081
wonderfully,6082
wondering,6083
wonders,6084
wont,6085
wooden,6086
woolsey,6087
woolwich,6088
word,6089
worded,6090
words,6091
wore,6092
work,6093
worked,6094
worker,6095
workers,6096
workforce,6097
working,6098
workshops,6099
world,6100
worlds,6101
worldwide,6102
worried,6103
worries,6104
worry,6105
worrying,6106
worse,6107
worship,6108
worst,6109
worth,6110
worthy,6111
wouldn,6112
wouldnt,6113
wounded,6114
wounding,6115
wragg,6116
wriggle,6117
write,6118
writes,6119
writing,6120
written,6121
wrong,6122
wrongdoing,6123
wrote,6124
wrt,6125
wsj,6126
wtc,6127
wto,6128
wums,6129
wwii,6130
wwparsedonedigit,6131
www,6132
xavier,6133
ya,6134
yanks,6135
yard,6136
yawn,6137
ye,6138
yea,6139
yeah,6140
year,6141
years,6142
yeeessssssss,6143
yeh,6144
yellow,6145
yep,6146
yes,6147
yesterday,6148
yield,6149
yields,6150
yo,6151
yoav,6152
yoke,6153
yor,6154
york,6155
yorker,6156
yorkshire,6157
yossarian,6158
young,6159
younger,6160
youngster,6161
yout,6162
yrs,6163
yummy,6164
yup,6165
yvonne,6166
zabacs,6167
zabak,6168
zalmay,6169
zarqawi,6170
zebra,6171
zebrasviewpoint,6172
zeldalicious,6173
zero,6174
zidane,6175
zimbabwe,6176
zionism,6177
zionist,6178
zionists,6179
zoltán,6180
zone,6181
