__,0
___,1
____,2
_psparsedonedigit_,3
aaand,4
aaron,5
ab,6
ability,7
able,8
about,9
absolute,10
absolutely,11
absurd,12
abusing,13
abyone,14
acceptable,15
acceptace,16
acceptance,17
account,18
achievement,19
achievements,20
act,21
acting,22
actingg,23
action,24
actors,25
acts,26
actually,27
addict,28
addicted,29
addidas,30
adding,31
adds,32
adele,33
adidas,34
adizero,35
admire,36
admit,37
adore,38
ads,39
adult,40
adventvega,41
advert,42
af,43
afk,44
afraid,45
after,46
afternoon,47
again,48
againnnn,49
against,50
age,51
agent,52
aggghhhhhhhhh,53
aggravated,54
ago,55
agree,56
agreed,57
ah,58
ahead,59
ahh,60
ahhh,61
ahhhhh,62
ahhhhhhhhhhhhhhhhhhhhh,63
aid,64
ain,65
aint,66
air,67
airmax,68
aisha,69
aka,70
al,71
alberta,72
album,73
albuquerque,74
alcohol,75
alexandre,76
alexxx,77
alicia,78
alihartzell,79
all,80
allnighter,81
allowed,82
allpowerful,83
almost,84
almunia,85
alone,86
along,87
alrdy,88
already,89
also,90
always,91
alwayswinning,92
am,93
amaze,94
amazing,95
amazinng,96
ambassador,97
america,98
americans,99
amigonnabeokay,100
amount,101
amp,102
an,103
anal,104
and,105
andrews,106
android,107
ankle,108
annette,109
anniv,110
announce,111
announcements,112
annoy,113
annoyed,114
annoying,115
another,116
answer,117
answered,118
answers,119
anticpation,120
antm,121
antonio,122
any,123
anymore,124
anyone,125
anything,126
anythingg,127
anyversary,128
anyway,129
anyways,130
anywayz,131
aparsedonedigit,132
apllo,133
app,134
apparently,135
apple,136
application,137
appreciate,138
appreciated,139
approximately,140
appt,141
april,142
apt,143
aqua,144
aquarius,145
arby,146
arcade,147
are,148
argh,149
arguing,150
armour,151
arms,152
around,153
arrested,154
arrived,155
arriving,156
arroooo,157
arrrghhh,158
arsehole,159
as,160
asap,161
asf,162
ashamed,163
ashby,164
ashcroft,165
ashishh,166
ashley,167
ashworth,168
ask,169
asked,170
asks,171
asleep,172
asparagus,173
ass,174
assignments,175
asx,176
asz,177
at,178
ate,179
athletes,180
atlanta,181
atlantic,182
atm,183
attached,184
attempting,185
attended,186
attitude,187
attraction,188
attractive,189
aubin,190
auction,191
audi,192
audio,193
august,194
aunt,195
auntee,196
austin,197
australia,198
aw,199
awake,200
award,201
awards,202
away,203
awesome,204
awesomeness,205
awesomest,206
awhhbabies,207
awkward,208
awsome,209
aww,210
awww,211
axed,212
ayy,213
az,214
azn,215
azure,216
azz,217
babe,218
babies,219
baby,220
back,221
backs,222
bad,223
bae,224
bag,225
bags,226
baha,227
bahama,228
baked,229
bakersfield,230
bakery,231
ball,232
ballet,233
baltimore,234
baltimoregp,235
bananas,236
band,237
bands,238
bangs,239
bankers,240
bar,241
barbie,242
barcelona,243
bare,244
barley,245
barry,246
barton,247
basic,248
basics,249
bass,250
bastards,251
bathed,252
batteries,253
battery,254
baylidonaldson,255
bc,256
bday,257
be,258
beach,259
beat,260
beautiful,261
bebeee,262
because,263
because_it,264
become,265
becoming,266
bed,267
been,268
beer,269
before,270
beg,271
begin,272
beginnersluck,273
behind,274
bein,275
being,276
bel,277
belated,278
belieber,279
beliefs,280
believe,281
bell,282
bella,283
belt,284
bench,285
benchmark,286
benoit,287
bernandez,288
best,289
bestfriends,290
bestnightever,291
bet,292
betchesluvthis,293
betta,294
better,295
better_,296
between,297
beyonce,298
beyoncé,299
beyond,300
bf,301
bid,302
bieber,303
big,304
bigbooty,305
biggest,306
bigggg,307
bigmove,308
bike,309
biker,310
bikini,311
bing,312
bint,313
birds,314
birthday,315
birthdayy,316
bit,317
bitch,318
bitches,319
bitchtryagain,320
bizspark,321
bk,322
black,323
blackberries,324
blah,325
blame,326
blatant,327
bless,328
blessed,329
blessen,330
blew,331
bliev,332
blinkers,333
bliss,334
block,335
blocks,336
blondes,337
bloody,338
blow,339
blown,340
blue,341
bluesfest,342
blurghhhhh,343
bmg,344
body,345
bohemian,346
boise,347
bomb,348
bonus,349
boo,350
book,351
booked,352
bookswithalettermissing,353
boomer,354
boonaa,355
boost,356
boot,357
boots,358
booty,359
bored,360
boredwholedaynow,361
boring,362
borrow,363
bosses,364
both,365
bother,366
bothered,367
bottle,368
bottles,369
bought,370
bout,371
bowl,372
bowling,373
bowral,374
box,375
boxing,376
boy,377
boys,378
boyz,379
bra,380
brace,381
brag,382
braided,383
brainstorm,384
bran,385
brand,386
brandon,387
brandy,388
brave,389
bravia,390
break,391
breakfast,392
breaking,393
breath,394
bree,395
breeze,396
breezy,397
brekkie,398
brekky,399
bricks,400
bride,401
bright,402
brighter,403
brilliance,404
brilliant,405
bring,406
bringing,407
brisket,408
britney,409
bro,410
broke,411
broken,412
bronx,413
broo,414
brooke,415
brother,416
brought,417
brown,418
brownies,419
bruce,420
brush,421
bs,422
bsnl,423
bt,424
btw,425
bucks,426
budget,427
building,428
built,429
bulls,430
bullshit,431
bump,432
bun,433
bunch,434
burn,435
burnt,436
burr,437
bus,438
busted,439
busy,440
but,441
butt,442
butts,443
buy,444
buyibg,445
buying,446
buzz,447
by,448
bye,449
byebyesummer,450
bytch,451
cadburys,452
caddykim,453
cake,454
calendars,455
call,456
called,457
calling,458
calls,459
cam,460
came,461
camera,462
cameraoxford,463
camp,464
campaign,465
campus,466
can,467
canada,468
canadafail,469
canadians,470
candy,471
cannes,472
cannot,473
cant,474
cape,475
captivate,476
car,477
carbon,478
card,479
cardiff,480
cardio,481
care,482
carolyn,483
carry,484
carter,485
carver,486
case,487
cash,488
cashback,489
casj,490
casper,491
cast,492
castle,493
cat,494
catch,495
catching,496
cats,497
catwomanbytchz,498
caught,499
cause,500
cbeebies,501
cd,502
cdnjoke,503
cdnpoli,504
celebrate,505
celebrating,506
celebrity,507
celtics,508
centennial,509
center,510
centre,511
cents,512
century,513
cereal,514
certificate,515
cfl,516
chains,517
challenge,518
chance,519
chandler,520
chanel,521
change,522
chapters,523
character,524
charge,525
chart,526
cheapo,527
check,528
checked,529
checking,530
cheese,531
cheryl,532
chesterunisummerball,533
chic,534
chicago,535
chick,536
chicken,537
children,538
chill,539
chips,540
chocolate,541
chocolatecravingfail,542
choice,543
chokes,544
chokeyes,545
chose,546
chosen,547
chris,548
christ,549
christmas,550
chuffed,551
church,552
ciggs,553
cilla,554
circumstances,555
ciric,556
cisco,557
city,558
civilization,559
clashes,560
class,561
classes,562
classic,563
classy,564
cle,565
clef,566
client,567
clients,568
close,569
closer,570
closet,571
cloud,572
clouds,573
club,574
coach,575
coaches,576
coast,577
coasters,578
coco,579
code,580
cody,581
coffee,582
coke,583
cold,584
cole,585
colinratushniak,586
collaboration,587
collar,588
collect,589
collecting,590
collection,591
colleg,592
college,593
cologne,594
color,595
colorado,596
colors,597
com,598
comb,599
combat,600
combine,601
combo,602
come,603
comedy,604
comes,605
comfy,606
comin,607
coming,608
commentator,609
comments,610
commercial,611
commit,612
communicate,613
community,614
comp,615
company,616
compare,617
compared,618
comparison,619
compete,620
competition,621
competitors,622
complete,623
completely,624
complex,625
compliments,626
comprehensive,627
computer,628
computing,629
conclusion,630
conditions,631
conference,632
confidence,633
confused,634
congrats,635
congratulates,636
congratulations,637
congress,638
connection,639
connell,640
consideration,641
consoles,642
cont,643
continue,644
contour,645
contracted,646
control,647
controller,648
convenient,649
convertible,650
convey,651
convincing,652
convo,653
cook,654
cool,655
cooler,656
cooling,657
coooool,658
cop,659
copy,660
corner,661
corolla,662
corporations,663
corvette,664
cos,665
costs,666
cotton,667
could,668
couldn,669
couldnt,670
count,671
counterfeit,672
counting,673
country,674
couple,675
course,676
courted,677
courtesy,678
cousin,679
covecrest,680
covered,681
coverseyes,682
cowell,683
coworker,684
coz,685
crackers,686
cramps,687
crap,688
crappy,689
crashed,690
crazy,691
cream,692
creamy,693
created,694
creative,695
credit,696
creep,697
creeped,698
creeps,699
crew,700
crewneck,701
cried,702
criminal,703
cringe,704
crosby,705
cross,706
crossing,707
crown,708
cru,709
crunchy,710
crush,711
cry,712
ctfxc,713
cultural,714
cunt,715
cup,716
cups,717
curly,718
current,719
currys,720
curve,721
cus,722
customer,723
customers,724
customized,725
cut,726
cute,727
cutest,728
cutie,729
cuz,730
cyber,731
cycling,732
cyprus,733
da,734
dachstar,735
dad,736
daddies,737
daddy,738
dads,739
dalaman,740
dallas,741
dam,742
damage,743
dame,744
damien,745
dammit,746
damn,747
damnit,748
damnn,749
damnnnn,750
dancemoms,751
dances,752
dancing,753
dang,754
dangerous,755
daniel,756
dare,757
dark,758
darling,759
dat,760
date,761
dats,762
daughter,763
david,764
davis,765
dawgs,766
dawn,767
day,768
days,769
dayz,770
db,771
dd,772
ddddd,773
de,774
dead,775
deal,776
dear,777
dearfuturehusband,778
death,779
deathh,780
debuts,781
decade,782
decades,783
decemeber,784
decided,785
decision,786
deck,787
dedicate,788
definately,789
definite,790
definitely,791
deizydoesit,792
delete,793
deleting,794
delighted,795
delivered,796
delivering,797
dell,798
dellstreak,799
dem,800
demo,801
demon,802
dentist,803
deny,804
depressed,805
depression,806
derrick,807
deserved,808
design,809
desktop,810
despise,811
dessert,812
destiny,813
destroyswaggerville,814
destruction,815
desvers,816
details,817
detective,818
determined,819
detroit,820
devastated,821
developing,822
devices,823
diamond,824
dictionary,825
did,826
didn,827
didnt,828
die,829
died,830
difference,831
difficult,832
dig,833
ding,834
dinner,835
dinosaurs,836
direction,837
directly,838
dirt,839
dirtbiking,840
dirty,841
dirtybitch,842
dis,843
disappointed,844
disconnected,845
discontent,846
discontinued,847
disgusted,848
disgusting,849
dislike,850
disliking,851
dissapointed,852
disturbed,853
ditching,854
divine,855
diz,856
dk,857
dkny,858
dm,859
dmb,860
dnt,861
do,862
does,863
doesn,864
doesnt,865
dog,866
doing,867
dollars,868
dolphin,869
don,870
done,871
dong,872
donkey,873
dont,874
dontknowhowilivedwithoutit,875
donuts,876
doo,877
doodlejump,878
door,879
dope,880
dora,881
double,882
doubletree,883
douche,884
doula,885
down,886
downloaded,887
downloadin,888
downstairs,889
downtown,890
draft,891
drag,892
dragu,893
drake,894
drama,895
drawing,896
dream,897
dreamcar,898
dreams,899
dress,900
drew,901
dri,902
drink,903
drinks,904
drive,905
driving,906
droid,907
drop,908
dropped,909
drove,910
drs,911
drunk,912
drunken,913
dry,914
ds,915
dublin,916
dude,917
due,918
dull,919
dum,920
dumb,921
dump,922
dun,923
dunks,924
during,925
dusted,926
duty,927
dwts,928
dying,929
each,930
eachother,931
eagles,932
ear,933
earbuds,934
early,935
earned,936
earth,937
easier,938
easily,939
easilyentertained,940
easter,941
eat,942
eaten,943
eatin,944
eating,945
eats,946
ebay,947
eclipse,948
economical,949
ect,950
edward,951
effective,952
effectively,953
efficient,954
ego,955
eightyville,956
either,957
el,958
eleavator,959
elected,960
elegant,961
elevator,962
else,963
em,964
email,965
embarrassed,966
embarrassing,967
emi,968
emotionally,969
emotions,970
employed,971
employee,972
end,973
ended,974
energy,975
engine,976
english,977
engrish,978
enjoy,979
enjoyed,980
enjoyin,981
enjoying,982
enormous,983
enough,984
enter,985
entered,986
entertaining,987
entertainment,988
entire,989
entitled,990
enuff,991
eparsedonedigit,992
eparsedonedigitongparsedonedigit,993
epic,994
episode,995
eric,996
ericson,997
ericsson,998
eshop,999
especially,1000
essay,1001
estate,1002
etsy,1003
etsykids,1004
eurgh,1005
euros,1006
even,1007
evening,1008
evenings,1009
event,1010
eventful,1011
events,1012
ever,1013
everrr,1014
every,1015
everybody,1016
everyday,1017
everygirl,1018
everyone,1019
everyparsedonedigit,1020
everythiiiing,1021
everything,1022
everytime,1023
evil,1024
evileye,1025
ex,1026
exactly,1027
exam,1028
excell,1029
excellent,1030
except,1031
excited,1032
exciting,1033
exclusive,1034
executive,1035
exhausted,1036
exhausting,1037
exhibit,1038
exicited,1039
exist,1040
expect,1041
expected,1042
expensive,1043
expertise,1044
experts,1045
explorer,1046
explorers,1047
extremely,1048
exxxxxxxxxxxxcited,1049
eye,1050
eyes,1051
ezurbanvibe,1052
fa,1053
fab,1054
fabulous,1055
facbook,1056
face,1057
facebook,1058
faces,1059
fack,1060
fact,1061
factor,1062
fading,1063
fagbag,1064
fage,1065
fail,1066
fairly,1067
fake,1068
fall,1069
fallen,1070
falling,1071
fam,1072
family,1073
famous,1074
fan,1075
fans,1076
fantastic,1077
fantasticfest,1078
far,1079
farty,1080
fashion,1081
fast,1082
fastandfurious,1083
fastest,1084
fat,1085
fatale,1086
father,1087
fault,1088
fav,1089
fave,1090
favorite,1091
fb,1092
fbr,1093
fcukin,1094
feather,1095
featured,1096
fed,1097
federal,1098
fedex,1099
feel,1100
feeling,1101
feels,1102
feet,1103
fell,1104
felt,1105
females,1106
femme,1107
fendi,1108
festival,1109
fev,1110
fever,1111
few,1112
ff,1113
ffc,1114
ffffff,1115
ffs,1116
fi,1117
fiat,1118
fiber,1119
fight,1120
figure,1121
figured,1122
filled,1123
film,1124
fin,1125
finale,1126
finally,1127
finals,1128
finances,1129
find,1130
finding,1131
fine,1132
finish,1133
finished,1134
finna,1135
fire,1136
first,1137
fish,1138
fishin,1139
fishing,1140
fist,1141
fit,1142
fitness,1143
fkn,1144
flags,1145
flash,1146
flauge,1147
flava,1148
flex,1149
flick,1150
flies,1151
flight,1152
flip,1153
flipping,1154
flocka,1155
floor,1156
flop,1157
flops,1158
florida,1159
flow,1160
flu,1161
fml,1162
foams,1163
focus,1164
folks,1165
follow,1166
followback,1167
followers,1168
followfriday,1169
following,1170
followme,1171
fone,1172
food,1173
foodstamps,1174
fools,1175
foosball,1176
foot,1177
football,1178
footlocker,1179
for,1180
ford,1181
foreigners,1182
forever,1183
forget,1184
forgiven,1185
forgot,1186
forgotten,1187
fort,1188
forward,1189
foul,1190
found,1191
founding,1192
foward,1193
fox,1194
franco,1195
frands,1196
frateran,1197
freaken,1198
freaking,1199
free,1200
freestyle,1201
freezer,1202
french,1203
fresh,1204
fresher,1205
friday,1206
frie,1207
fried,1208
friend,1209
friendly,1210
friends,1211
friggin,1212
frigid,1213
frm,1214
from,1215
front,1216
frowns,1217
froyo,1218
froze,1219
frustrated,1220
frustration,1221
fry,1222
ft,1223
fu,1224
fuck,1225
fucked,1226
fucken,1227
fuckin,1228
fucking,1229
fuckoff,1230
fuckthem,1231
fuckyousummit,1232
fuel,1233
fuk,1234
full,1235
fully,1236
fun,1237
fundraising,1238
funeral,1239
funn,1240
funnelicious,1241
funny,1242
funparsedthreedigits,1243
further,1244
future,1245
fuzzy,1246
fxcking,1247
gaga,1248
gala,1249
galaxy,1250
galileo,1251
game,1252
gameon,1253
gamerface,1254
games,1255
gamestop,1256
gangsta,1257
garage,1258
gaveuponhim,1259
gay,1260
gayy,1261
gayyyyy,1262
gbc,1263
gd,1264
geared,1265
gelato,1266
general,1267
genius,1268
genre,1269
gentleman,1270
genuine,1271
georgia,1272
get,1273
getalife,1274
geting,1275
gets,1276
getsonmynerves,1277
gettin,1278
getting,1279
gettn,1280
ghetto,1281
gift,1282
gifts,1283
gig,1284
gingrich,1285
giraffe,1286
girl,1287
girlies,1288
girls,1289
give,1290
gives,1291
giving,1292
glad,1293
glasses,1294
glee,1295
glen,1296
glorious,1297
glory,1298
gloves,1299
go,1300
goa,1301
goal,1302
goals,1303
goblue,1304
god,1305
godblessbullies,1306
goes,1307
goin,1308
going,1309
gojackets,1310
gojesus,1311
gold,1312
gon,1313
gonb,1314
gone,1315
gonna,1316
goo,1317
good,1318
goodbyes,1319
goodgame,1320
goodness,1321
goodnight,1322
goodwill,1323
goofd,1324
google,1325
gorgeous,1326
got,1327
gotta,1328
gotti,1329
gourmet,1330
gps,1331
grab,1332
grace,1333
gracieglam,1334
graduated,1335
grafiks,1336
graph,1337
grateful,1338
gravity,1339
gray,1340
grease,1341
great,1342
greatday,1343
greater,1344
greatest,1345
greatestgadgets,1346
greatfull,1347
greek,1348
green,1349
gritting,1350
grow,1351
grown,1352
grparsedonedigit,1353
grrr,1354
grrrr,1355
grrrrr,1356
grrrrrr,1357
grrrrrrrrrrrr,1358
gt,1359
gteparsedonedigit,1360
guaranteed,1361
guards,1362
gucci,1363
gud,1364
guess,1365
guessing,1366
guessssszz,1367
guests,1368
guilty,1369
gum,1370
gunners,1371
gutted,1372
guy,1373
guys,1374
gym,1375
ha,1376
haaay,1377
haaha,1378
hack,1379
hacks,1380
had,1381
hadn,1382
haha,1383
hahaha,1384
hahahahaha,1385
hahahahahahaha,1386
hair,1387
half,1388
halfrim,1389
halfway,1390
hall,1391
halo,1392
hamilton,1393
hancock,1394
hand,1395
handle,1396
hands,1397
handycam,1398
hang,1399
hangin,1400
hanging,1401
happen,1402
happened,1403
happening,1404
happens,1405
happier,1406
happiest,1407
happpy,1408
happy,1409
happytweet,1410
harary,1411
hard,1412
harder,1413
hardest,1414
hardtime,1415
harrisburg,1416
harry,1417
hart,1418
harvey,1419
has,1420
hasn,1421
hate,1422
haunted,1423
have,1424
haven,1425
havent,1426
having,1427
hawaiian,1428
hawk,1429
hcr,1430
hd,1431
he,1432
head,1433
headache,1434
heading,1435
headlamp,1436
heads,1437
healthy,1438
hear,1439
heard,1440
hearing,1441
heart,1442
heartfelt,1443
heat,1444
heated,1445
heater,1446
heathrowe,1447
heaven,1448
heels,1449
hees,1450
hehehe,1451
helicopter,1452
hell,1453
hella,1454
hellaclean,1455
helllooooooo,1456
hello,1457
help,1458
her,1459
here,1460
heritage,1461
hero,1462
heroine,1463
herooo,1464
herr,1465
herself,1466
hey,1467
hi,1468
hiding,1469
high,1470
highlanders,1471
highlights,1472
hilarious,1473
hill,1474
hills,1475
hilton,1476
him,1477
himself,1478
hint,1479
hipstamatic,1480
his,1481
history,1482
hit,1483
hitting,1484
hmmm,1485
hobby,1486
hockey,1487
hoe,1488
hoff,1489
hold,1490
holiday,1491
hollywood,1492
holy,1493
hom,1494
home,1495
homework,1496
homie,1497
homo,1498
honestly,1499
honey,1500
hoodnight,1501
hoop,1502
hoops,1503
hooray,1504
hope,1505
hopefully,1506
hopes,1507
hoping,1508
horny,1509
horribly,1510
host,1511
hostel,1512
hot,1513
hotel,1514
hotels,1515
hotmail,1516
hott,1517
hour,1518
hours,1519
house,1520
how,1521
hse,1522
htc,1523
http,1524
huge,1525
hugo,1526
huh,1527
hump,1528
hungry,1529
hunting,1530
huntsville,1531
hurricane,1532
hurrryyy,1533
hurry,1534
hurt,1535
hurts,1536
hut,1537
hutch,1538
hype,1539
hypertension,1540
hypocrite,1541
icahn,1542
icanhonestlysay,1543
ice,1544
id,1545
idc,1546
idea,1547
ideas,1548
identity,1549
idiot,1550
idk,1551
ieparsedonedigit,1552
if,1553
ife,1554
ignorant,1555
ii,1556
iits,1557
ikea,1558
ikr,1559
ill,1560
iloveyou,1561
im,1562
ima,1563
imac,1564
imitation,1565
imma,1566
immense,1567
impossible,1568
impressed,1569
in,1570
inappropriatefuneralsongs,1571
inc,1572
incarnation,1573
inclined,1574
incompetent,1575
inconsiderate,1576
inconvenient,1577
indies,1578
industry,1579
indycar,1580
infected,1581
infection,1582
inferior,1583
info,1584
information,1585
infuse,1586
injections,1587
injunction,1588
inkredible_k_,1589
inlove,1590
inn,1591
innovation,1592
insane,1593
insanicast,1594
inside,1595
insightful,1596
inspired,1597
inspiring,1598
instead,1599
instinct,1600
instructions,1601
intense,1602
interest,1603
interesting,1604
intern,1605
internap,1606
internet,1607
into,1608
invitation,1609
invitational,1610
invite,1611
invited,1612
involved,1613
iowa,1614
ipad,1615
iphone,1616
ipod,1617
ips,1618
iregret,1619
irritated,1620
is,1621
island,1622
isn,1623
isnt,1624
issue,1625
issues,1626
it,1627
itage,1628
itellyou,1629
ithinkweredonehere,1630
itouch,1631
its,1632
itself,1633
itunes,1634
iwannago,1635
iwannagodney,1636
iwantmybed,1637
iwin,1638
iwontgrowup,1639
iyiyi,1640
iz,1641
jack,1642
jacket,1643
jah,1644
jail,1645
james,1646
jamin,1647
jaminn,1648
janet,1649
jazz,1650
jazzmines,1651
jeans,1652
jedward,1653
jeggings,1654
jennette,1655
jerks,1656
jerseys,1657
jerzday,1658
jesus,1659
jetsuite,1660
jhb,1661
jit,1662
joan,1663
job,1664
joey,1665
johnny,1666
joke,1667
jokes,1668
jordan,1669
joyous,1670
jr,1671
july,1672
jump,1673
jus,1674
juss,1675
just,1676
justify,1677
justin,1678
kanye,1679
kardashian,1680
kardashians,1681
karmasabitch,1682
kat,1683
kate,1684
kathy,1685
katie,1686
kbshow,1687
keep,1688
keeping,1689
kelly,1690
ken,1691
kentucky,1692
kevin,1693
key,1694
keys,1695
khadse,1696
khaki,1697
kia,1698
kicc,1699
kick,1700
kicked,1701
kicking,1702
kicks,1703
kid,1704
kids,1705
kies,1706
kill,1707
killah,1708
killed,1709
killer,1710
killian,1711
killing,1712
kim,1713
kind,1714
kinda,1715
kinderbueno,1716
kinect,1717
king,1718
kingsley,1719
kink,1720
kiss,1721
kitchen,1722
kjeanbyrne,1723
knew,1724
know,1725
known,1726
knows,1727
knw,1728
kreayshawn,1729
kris,1730
krystal,1731
kumaran,1732
kute,1733
kyiv,1734
la,1735
lab,1736
labor,1737
labtops,1738
ladies,1739
lady,1740
ladycisca,1741
ladygaga,1742
lakers,1743
lakeshow,1744
lame,1745
landlord,1746
landlordhell,1747
langports,1748
laoada,1749
lap,1750
laptop,1751
laptops,1752
large,1753
larry,1754
las,1755
lashes,1756
lasr,1757
last,1758
lasted,1759
lastnight,1760
late,1761
lately,1762
later,1763
latin,1764
latonya,1765
laugh,1766
laughed,1767
launch,1768
launched,1769
laundry,1770
laura,1771
lauristons,1772
lawrence,1773
lay,1774
layin,1775
laying,1776
layla,1777
lazier,1778
lazy,1779
leaders,1780
leak,1781
leaks,1782
learn,1783
least,1784
leave,1785
leaving,1786
lebron,1787
lecture,1788
lecturing,1789
left,1790
legally,1791
legend,1792
legit,1793
leisure,1794
lemans,1795
lemars,1796
less,1797
let,1798
lets,1799
letter,1800
letting,1801
lewis,1802
lex,1803
libra,1804
library,1805
libs,1806
lie,1807
liee,1808
life,1809
lifesaver,1810
lift,1811
light,1812
lights,1813
lightyears,1814
liike,1815
like,1816
liked,1817
likeeee,1818
likes,1819
liking,1820
lil,1821
line,1822
lines,1823
ling,1824
linkedin,1825
liquor,1826
lismore,1827
listen,1828
listened,1829
listeners,1830
listening,1831
listings,1832
literally,1833
little,1834
liv,1835
live,1836
living,1837
ll,1838
lli,1839
lloyd,1840
lmao,1841
lmfao,1842
lmfaoo,1843
lmfaooo,1844
loafers,1845
local,1846
lock,1847
locked,1848
lofty,1849
log,1850
logic,1851
lol,1852
lolz,1853
london,1854
londonriots,1855
lonely,1856
long,1857
longdayahead,1858
longer,1859
look,1860
looked,1861
lookin,1862
looking,1863
looks,1864
loooool,1865
looove,1866
lose,1867
losin,1868
losing,1869
lost,1870
lot,1871
lots,1872
loui,1873
louie,1874
louis,1875
lounge,1876
love,1877
lovechicago,1878
loved,1879
lovee,1880
loveeee,1881
lovely,1882
lovemyjob,1883
loveoutletmalls,1884
lover,1885
loves,1886
lovin,1887
loving,1888
lovvvvve,1889
low,1890
lower,1891
loyal,1892
lt,1893
lts,1894
luca,1895
lucas,1896
luck,1897
luger,1898
lunch,1899
lunchtime,1900
luv,1901
luvs,1902
lyin,1903
ma,1904
mac,1905
macbook,1906
machine,1907
macklemore,1908
mad,1909
maddens,1910
made,1911
madmatts,1912
maestro,1913
mag,1914
mags,1915
mah,1916
maid,1917
mail,1918
main,1919
maintain,1920
make,1921
makes,1922
makeup,1923
makeupbymario,1924
makeyourself,1925
makin,1926
making,1927
mall,1928
mam,1929
mama,1930
man,1931
manage,1932
mane,1933
manga,1934
manhattan,1935
mansion,1936
manuel,1937
many,1938
marathon,1939
marathong,1940
marching,1941
marietta,1942
marilyn,1943
mariners,1944
mario,1945
mark,1946
market,1947
marketing,1948
marketingacademy,1949
marks,1950
maro,1951
marshmellows,1952
martin,1953
marty,1954
maryland,1955
masgana,1956
mason,1957
mass,1958
massage,1959
match,1960
material,1961
materializes,1962
mates,1963
math,1964
matter,1965
mature,1966
max,1967
maxes,1968
may,1969
maybe,1970
mayhem,1971
maynor,1972
mayor,1973
mazing,1974
mbfw,1975
mccartney,1976
mcdonalds,1977
mcflurry,1978
mcfly,1979
me,1980
meadows,1981
mean,1982
meaning,1983
means,1984
mechanical,1985
mediocrity,1986
meebo,1987
meet,1988
meeting,1989
melted,1990
member,1991
members,1992
memory,1993
memphisfact,1994
men,1995
menchies,1996
menlyn,1997
mental,1998
mentor,1999
mentoring,2000
messages,2001
messed,2002
messenger,2003
met,2004
metroid,2005
mfs,2006
mgmt,2007
mi,2008
miami,2009
michael,2010
michellebachmann,2011
microsoft,2012
middle,2013
middlefingerseverywhere,2014
midget,2015
midnight,2016
midwest,2017
might,2018
migraines,2019
migrainessuck,2020
mii,2021
mike,2022
mile,2023
miles,2024
milk,2025
milky,2026
million,2027
min,2028
mind,2029
mines,2030
mini,2031
mins,2032
minute,2033
minuteclinic,2034
minutes,2035
mis,2036
miss,2037
missed,2038
missin,2039
missing,2040
missthatshow,2041
mistake,2042
mistakes,2043
mmm,2044
mmmmm,2045
mmmmmm,2046
mobile,2047
mobileme,2048
model,2049
moderate,2050
mohammed,2051
mom,2052
moment,2053
momma,2054
mommasboy,2055
moms,2056
mon,2057
monday,2058
mondays,2059
money,2060
monin,2061
monster,2062
month,2063
months,2064
mood,2065
moods,2066
moon,2067
more,2068
morethanwordart,2069
moretweetsaboutfood,2070
morgan,2071
morgannnnnnnnn,2072
morning,2073
mornings,2074
most,2075
mostly,2076
mothafuckas,2077
mother,2078
mothers,2079
moths,2080
motivation,2081
mountain,2082
move,2083
movie,2084
moving,2085
mr,2086
mrmeatnuggets,2087
ms,2088
msc,2089
msp,2090
msuic,2091
mtg,2092
mtv,2093
much,2094
muchappreciatedinfo,2095
mucho,2096
mucus,2097
mum,2098
muppets,2099
murray,2100
murs,2101
museo,2102
music,2103
musical,2104
must,2105
mustache,2106
mustaches,2107
mutt,2108
mvp,2109
mwema,2110
my,2111
mylilkitchenlab,2112
mynichols,2113
myself,2114
na,2115
nails,2116
nakutamani,2117
name,2118
nancy,2119
nando,2120
nap,2121
nasally,2122
nashville,2123
nasty,2124
natalie,2125
nation,2126
nations,2127
naturally,2128
nature,2129
nauseous,2130
navi,2131
nawl,2132
nazi,2133
nbd,2134
nd,2135
neat,2136
necklace,2137
need,2138
needed,2139
needs,2140
neighbor,2141
neighborhood,2142
neighbors,2143
nemesis,2144
nerve,2145
nes,2146
netbook,2147
netflix,2148
network,2149
networks,2150
neva,2151
nevea,2152
never,2153
neverfails,2154
nevertrust,2155
new,2156
newalltimelow,2157
news,2158
newt,2159
next,2160
nexuss,2161
nf,2162
ngp,2163
nice,2164
nicer,2165
niche,2166
nick,2167
nickelodeon,2168
nicki,2169
nicks,2170
nigga,2171
niggas,2172
niggaz,2173
night,2174
nighters,2175
nights,2176
nightttttt,2177
nike,2178
nikes,2179
nikita,2180
nikki,2181
ninja,2182
nintendo,2183
niqqas,2184
nite,2185
njoy,2186
no,2187
nobody,2188
nodeadlinestoday,2189
nofatgirls,2190
noir,2191
nola,2192
nominate,2193
non,2194
nonebesideyou,2195
noooooo,2196
nordy,2197
normal,2198
northeast,2199
nose,2200
not,2201
notcool,2202
notgraceful,2203
nothin,2204
nothing,2205
notice,2206
noticing,2207
notify,2208
nova,2209
novels,2210
now,2211
np,2212
nparsedonedigitg,2213
nparsedthreedigits,2214
nuff,2215
number,2216
numbers,2217
nvidia,2218
ny,2219
nyan,2220
nyc,2221
nz,2222
o_o,2223
o_parsedonedigit,2224
obama,2225
obsessed,2226
obviously,2227
oct,2228
odd,2229
oddparents,2230
odvy,2231
of,2232
off,2233
offered,2234
offering,2235
offers,2236
office,2237
officeparsedthreedigits,2238
official,2239
officially,2240
oft,2241
oh,2242
ohcarolina,2243
ohh,2244
ohjoy,2245
ohkay,2246
ok,2247
okay,2248
okayy,2249
ol,2250
old,2251
oldbridge,2252
older,2253
olly,2254
olot,2255
omg,2256
omnia,2257
on,2258
onam,2259
once,2260
one,2261
oneofthealltimegreats,2262
ones,2263
online,2264
only,2265
onsomniactic,2266
oof,2267
ooo,2268
oooh,2269
open,2270
opening,2271
opera,2272
opinions,2273
opportunities,2274
optiek,2275
optimism,2276
or,2277
order,2278
ordered,2279
ordinace,2280
oregon,2281
oreo,2282
oreos,2283
orland,2284
orlando,2285
os,2286
oth,2287
other,2288
others,2289
ottawa,2290
ouo,2291
our,2292
out,2293
outdoors,2294
outfit,2295
outlet,2296
outside,2297
outstretched,2298
outta,2299
oval,2300
ovens,2301
over,2302
overall,2303
overc,2304
overcome,2305
overcomers,2306
overdosed,2307
overflows,2308
own,2309
owns,2310
oy,2311
packed,2312
packing,2313
pad,2314
page,2315
paid,2316
pain,2317
paint,2318
pair,2319
palm,2320
pants,2321
pantssss,2322
papa,2323
paparazzie,2324
paper,2325
papers,2326
parents,2327
paris,2328
park,2329
parking,2330
parseddigits,2331
parseddigitshrs,2332
parseddigitsth,2333
parsedfivedigitsth,2334
parsedfourdigits,2335
parsedonedigit,2336
parsedonedigitds,2337
parsedonedigiter,2338
parsedonedigitg,2339
parsedonedigitgot,2340
parsedonedigitgs,2341
parsedonedigitk,2342
parsedonedigitmi,2343
parsedonedigitmp,2344
parsedonedigitnd,2345
parsedonedigitnite,2346
parsedonedigitpay,2347
parsedonedigitrd,2348
parsedonedigitst,2349
parsedonedigitth,2350
parsedonedigittoparsedtwodigits,2351
parsedonedigitx,2352
parsedsixdigits,2353
parsedthreedigits,2354
parsedthreedigitsb,2355
parsedtime,2356
parsedtwodigits,2357
parsedtwodigitsk,2358
parsedtwodigitsmphunder,2359
parsedtwodigitspeopleidmarry,2360
parsedtwodigitsth,2361
parsedtwodigitsthjinnieday,2362
parsedtwodigitsyr,2363
part,2364
participants,2365
partner,2366
partners,2367
parts,2368
party,2369
passed,2370
passes,2371
passing,2372
passwords,2373
past,2374
pasta,2375
paste,2376
patent,2377
patience,2378
patient,2379
pattom,2380
pauly,2381
pay,2382
pbs,2383
pc,2384
pda,2385
peak,2386
pencils,2387
penn,2388
people,2389
perez,2390
perfect,2391
perform,2392
performing,2393
permission,2394
person,2395
personable,2396
personal,2397
personality,2398
persuing,2399
petsitting,2400
pfffft,2401
phase,2402
phat,2403
phd,2404
phone,2405
photo,2406
photographing,2407
physical,2408
physically,2409
pic,2410
picasso,2411
pick,2412
picked,2413
pics,2414
picture,2415
pictures,2416
pie,2417
piece,2418
pieces,2419
pierreopperman,2420
piers,2421
pifco,2422
pike,2423
pile,2424
pipeline,2425
piss,2426
pissed,2427
pisses,2428
pissin,2429
pizza,2430
place,2431
places,2432
plan,2433
planning,2434
plans,2435
platform,2436
play,2437
playa,2438
played,2439
player,2440
playing,2441
plays,2442
please,2443
pleased,2444
pledge,2445
pls,2446
plus,2447
pnc,2448
point,2449
pointless,2450
points,2451
political,2452
poll,2453
pool,2454
pooped,2455
poor,2456
popular,2457
ported,2458
positive,2459
possession,2460
possible,2461
possibly,2462
post,2463
posted,2464
posters,2465
posting,2466
potatoes,2467
potential,2468
potter,2469
pouch,2470
pow,2471
power,2472
powerpoint,2473
ppcclassroom,2474
ppl,2475
practice,2476
prada,2477
pradas,2478
pray,2479
prayer,2480
praying,2481
pre,2482
pregnant,2483
prepare,2484
pres,2485
preseason,2486
presented,2487
president,2488
press,2489
pressure,2490
presume,2491
pretty,2492
preview,2493
previous,2494
price,2495
priceless,2496
primark,2497
princess,2498
principles,2499
print,2500
printer,2501
pro,2502
prob,2503
probably,2504
problem,2505
problems,2506
probs,2507
process,2508
prod,2509
product,2510
products,2511
profesh,2512
professional,2513
professors,2514
program,2515
programs,2516
project,2517
prolly,2518
promise,2519
promotions,2520
properly,2521
properties,2522
proud,2523
proudly,2524
provided,2525
providing,2526
prudence,2527
ps,2528
psn,2529
psparsedonedigit,2530
psvita,2531
psyched,2532
ptparsedonedigit,2533
pts,2534
pudding,2535
pukes,2536
pull,2537
puma,2538
pumped,2539
punch,2540
punk,2541
purchase,2542
purchased,2543
purchases,2544
purdue,2545
pure,2546
purse,2547
push,2548
put,2549
putting,2550
qanda,2551
qpr,2552
qualified,2553
quality,2554
quarantine,2555
queen,2556
queenslanders,2557
questionoftheday,2558
questions,2559
quickly,2560
quinn,2561
quite,2562
quiz,2563
race,2564
racers,2565
rachel,2566
rack,2567
radio,2568
radioooooooo,2569
rain,2570
raindeers,2571
rainy,2572
raising,2573
ran,2574
rank,2575
ranked,2576
rant,2577
rap,2578
rapper,2579
rather,2580
raul,2581
rbc,2582
re,2583
read,2584
reader,2585
reading,2586
ready,2587
real,2588
realigning,2589
reality,2590
realize,2591
realized,2592
really,2593
realy,2594
reason,2595
reasons,2596
received,2597
receiving,2598
receptionist,2599
reciprocate,2600
recommend,2601
recommendation,2602
recommending,2603
red,2604
redvelvet,2605
reformatted,2606
refs,2607
refused,2608
registered,2609
registering,2610
regret,2611
regrets,2612
rehearsallyfe,2613
reinlove,2614
reinstall,2615
reinstalling,2616
relationship,2617
relax,2618
release,2619
released,2620
releasing,2621
reliable,2622
religious,2623
relying,2624
remains,2625
remember,2626
remembering,2627
remind,2628
reminds,2629
remix,2630
remote,2631
removed,2632
remy,2633
rendering,2634
renewal,2635
renewed,2636
renewing,2637
rentign,2638
reply,2639
report,2640
reported,2641
reportedly,2642
represent,2643
repulsive,2644
request,2645
rescheduled,2646
rescue,2647
reservations,2648
resort,2649
respect,2650
respond,2651
response,2652
rest,2653
retailers,2654
retire,2655
return,2656
returning,2657
retweet,2658
reversible,2659
revision,2660
revolves,2661
rhapsody,2662
rhythms,2663
rich,2664
richard,2665
rick,2666
rid,2667
ride,2668
riders,2669
ridiculousness,2670
rife,2671
right,2672
rights,2673
rihanna,2674
ring,2675
ripped,2676
risf,2677
road,2678
roads,2679
rock,2680
rockband,2681
rocked,2682
rockem,2683
rockin,2684
rocko,2685
rocks,2686
rod,2687
role,2688
rolex,2689
roll,2690
roller,2691
rollin,2692
romance,2693
rome,2694
roof,2695
rookie,2696
room,2697
roomie,2698
roomies,2699
roommate,2700
rooms,2701
root,2702
rope,2703
rose,2704
ross,2705
routine,2706
row,2707
rparsedonedigit,2708
rrb,2709
rt,2710
rub,2711
rude,2712
ruining,2713
rules,2714
run,2715
runied,2716
running,2717
sac,2718
sad,2719
saddens,2720
safe,2721
said,2722
saints,2723
salad,2724
sale,2725
sales,2726
salif,2727
salle,2728
samantha,2729
same,2730
samelson,2731
samsung,2732
samsungsmarttv,2733
samsungsupport,2734
samuel,2735
sandals,2736
santa,2737
satisfying,2738
saturday,2739
sauder,2740
save,2741
saved,2742
saw,2743
say,2744
sayin,2745
saying,2746
says,2747
sbsca,2748
scale,2749
scams,2750
scarf,2751
scedules,2752
schedule,2753
scholarship,2754
school,2755
science,2756
scooby,2757
scored,2758
scores,2759
scorpio,2760
scottish,2761
scratch,2762
screaming,2763
screen,2764
screw,2765
screwed,2766
scruf,2767
sean,2768
search,2769
seashells,2770
season,2771
seattle,2772
second,2773
seconds,2774
secure,2775
security,2776
see,2777
seedless,2778
seeing,2779
seem,2780
seems,2781
seen,2782
seeya,2783
selfish,2784
sell,2785
selling,2786
sellouts,2787
semester,2788
semi,2789
send,2790
sending,2791
sent,2792
sequence,2793
series,2794
serious,2795
seriously,2796
seriouslyy,2797
serve,2798
server,2799
service,2800
session,2801
set,2802
settings,2803
settling,2804
sexiest,2805
sexy,2806
sh,2807
shabby,2808
shades,2809
shall,2810
shame,2811
shape,2812
shaqs,2813
share,2814
sharp,2815
sharpies,2816
shave,2817
she,2818
sheesh,2819
shes,2820
shifter,2821
shiny,2822
shipping,2823
shirt,2824
shirts,2825
shit,2826
shitting,2827
sho,2828
shock,2829
shoddy,2830
shoe,2831
shoes,2832
shoetweets,2833
shoot,2834
shootin,2835
shop,2836
shopping,2837
shorts,2838
shorty,2839
shot,2840
shots,2841
should,2842
shouldn,2843
shout,2844
show,2845
showed,2846
shower,2847
showing,2848
showroom,2849
shows,2850
shox,2851
shred,2852
shut,2853
shutter,2854
shutting,2855
shytt,2856
sia,2857
sic,2858
sick,2859
sickkkkkkk,2860
side,2861
siding,2862
sign,2863
signed,2864
signs,2865
sike,2866
silent,2867
silly,2868
silver,2869
sim,2870
simon,2871
sims,2872
since,2873
sing,2874
singers,2875
singin,2876
singing,2877
single,2878
sir,2879
sister,2880
sisters,2881
sittin,2882
sitting,2883
six,2884
size,2885
skateboards,2886
skin,2887
skinnythoughts,2888
skip,2889
skips,2890
sky,2891
skype,2892
sleep,2893
sleeping,2894
sleepy,2895
sleeves,2896
slipping,2897
slow,2898
small,2899
smart,2900
smarty,2901
smdh,2902
smell,2903
smellslikecack,2904
smh,2905
smile,2906
smith,2907
smooth,2908
snapback,2909
sneak,2910
sneakers,2911
sneaks,2912
snell,2913
snoring,2914
snot,2915
snowball,2916
snowday,2917
so,2918
sobber,2919
social,2920
socks,2921
softball,2922
software,2923
sold,2924
solid,2925
some,2926
somebodytoldyouwrong,2927
somemore,2928
someone,2929
something,2930
sometimes,2931
sometimesyouhaveto,2932
son,2933
song,2934
songs,2935
sony,2936
soo,2937
soon,2938
sooo,2939
soooo,2940
sooooo,2941
soooooo,2942
sooooooooooo,2943
soooooooooooo,2944
sopumped,2945
sorry,2946
sort,2947
sorta,2948
sought,2949
soul,2950
sound,2951
sounds,2952
soup,2953
south,2954
space,2955
spain,2956
spam,2957
spammed,2958
spamming,2959
spanish,2960
sparsedonedigit,2961
sparsedtwodigits,2962
spaziale,2963
speak,2964
speakers,2965
spears,2966
special,2967
speech,2968
speed,2969
spell,2970
spelling,2971
spend,2972
spent,2973
spidey,2974
spike,2975
spirits,2976
spite,2977
splurged,2978
spoils,2979
sponsored,2980
sponsoring,2981
sports,2982
spotlite,2983
spots,2984
spray,2985
spreading,2986
springfever,2987
squeeze,2988
st,2989
stadium,2990
staff,2991
stairs,2992
stalking,2993
stamps,2994
stand,2995
standin,2996
standing,2997
starbucks,2998
staring,2999
starsky,3000
start,3001
started,3002
startin,3003
starting,3004
starts,3005
starving,3006
state,3007
statement,3008
states,3009
station,3010
stay,3011
stayed,3012
staying,3013
steal,3014
steeple,3015
stella,3016
step,3017
steps,3018
stereotype,3019
steve,3020
stick,3021
still,3022
stink,3023
stinkin,3024
stinks,3025
stockist,3026
stoked,3027
stole,3028
stolen,3029
stoned,3030
stop,3031
store,3032
stores,3033
storm,3034
story,3035
straighner,3036
strategicvoteparsedtwodigits,3037
strawberries,3038
street,3039
stressed,3040
stressful,3041
stressing,3042
strong,3043
struck,3044
strumpit,3045
strung,3046
stuck,3047
student,3048
students,3049
studio,3050
study,3051
studying,3052
studylink,3053
stuff,3054
stuffy,3055
stunning,3056
stunt,3057
stuntdoublecircus,3058
stupid,3059
stupidly,3060
style,3061
su,3062
subscription,3063
success,3064
such,3065
suck,3066
sucked,3067
sucker,3068
sucks,3069
sudden,3070
suites,3071
sultans,3072
sum,3073
sumbody,3074
summer,3075
summertime,3076
summit,3077
sun,3078
sunday,3079
sundayfunday,3080
sunny,3081
sunshine,3082
super,3083
superb,3084
supervisor,3085
support,3086
sure,3087
surprise,3088
surprised,3089
surprises,3090
surry,3091
suxx,3092
swag,3093
swear,3094
sweatpants,3095
sweats,3096
sweatshop,3097
sweep,3098
sweet,3099
sweetest,3100
sweetiez,3101
sweetparsedtwodigitsbday,3102
switch,3103
swype,3104
sydney,3105
sync,3106
syracuse,3107
system,3108
systems,3109
tab,3110
taco,3111
tad,3112
take,3113
taken,3114
takes,3115
taking,3116
tale,3117
talented,3118
talk,3119
talking,3120
talkshitgethit,3121
tammi,3122
tan,3123
tanya,3124
target,3125
taste,3126
tasting,3127
tattoo,3128
taurus,3129
tbqf,3130
tca,3131
tea,3132
teach,3133
teacher,3134
teaches,3135
team,3136
teamceltics,3137
teamgod,3138
teamilluminati,3139
teamladiphat,3140
tears,3141
tech,3142
techdays,3143
tee,3144
teeth,3145
tell,3146
tellin,3147
telling,3148
tells,3149
tempo,3150
terry,3151
test,3152
texas,3153
text,3154
texts,3155
tf,3156
tg,3157
th,3158
tha,3159
thailand,3160
than,3161
thank,3162
thankgod,3163
thanks,3164
thankz,3165
thanx,3166
that,3167
thatgrapejuice,3168
thats,3169
thayounghustlaz,3170
the,3171
theater,3172
theatre,3173
thefuck,3174
their,3175
thejoshdiogo,3176
thelasttimeichecked,3177
them,3178
themselves,3179
then,3180
therapy,3181
there,3182
theres,3183
these,3184
thesis,3185
thesteffiekayy,3186
thevoice,3187
they,3188
thierselfs,3189
thin,3190
thing,3191
things,3192
thingsthatshouldbebanned,3193
thingy,3194
think,3195
thinked,3196
thinking,3197
thinks,3198
thirst,3199
thirsty,3200
thirteenth,3201
this,3202
thiswasinmydrafts,3203
thiz,3204
thnx,3205
tho,3206
those,3207
thou,3208
though,3209
thought,3210
three,3211
thro,3212
through,3213
throughout,3214
throught,3215
tht,3216
thumbs,3217
thunder,3218
thxz,3219
ticket,3220
tickets,3221
tides,3222
tie,3223
tight,3224
till,3225
tim,3226
time,3227
timeline,3228
times,3229
tint,3230
tired,3231
tires,3232
tmrw,3233
tnt,3234
to,3235
today,3236
todays,3237
together,3238
told,3239
tolerance,3240
tommm,3241
tomorrow,3242
tomorrowwww,3243
tonight,3244
tons,3245
too,3246
tooeazy_parsedonedigit,3247
took,3248
tool,3249
tools,3250
toothache,3251
top,3252
topic,3253
topoftheworld,3254
tops,3255
toronto,3256
totally,3257
tote,3258
touchpad,3259
town,3260
toy,3261
tracks,3262
tracksuit,3263
traffic,3264
tragedy,3265
trail,3266
train,3267
trainers,3268
training,3269
trampoline,3270
translator,3271
trash,3272
travel,3273
treat,3274
treated,3275
trees,3276
trending,3277
trhumanist,3278
tried,3279
trip,3280
trips,3281
true,3282
trueblood,3283
trust,3284
truth,3285
try,3286
tryin,3287
tryina,3288
trying,3289
tryna,3290
trynna,3291
tshirt,3292
tsk,3293
tuition,3294
tune,3295
turfs,3296
turkey,3297
turn,3298
turned,3299
turns,3300
turtles,3301
tv,3302
tvguide,3303
tweeple,3304
tweeps,3305
tweet,3306
tweeted,3307
tweetiepies,3308
tweety,3309
twenty,3310
twice,3311
twitpic,3312
twitter,3313
twitters,3314
two,3315
twype,3316
tx,3317
tyler,3318
typing,3319
ubc,3320
ublewit,3321
ucla,3322
uga,3323
uggghhhh,3324
ugghh,3325
ugh,3326
ughh,3327
ughhh,3328
ugly,3329
uh,3330
uhgggg,3331
uhungry,3332
uk,3333
um,3334
under,3335
understand,3336
understanding,3337
unexpected,3338
unfort,3339
unfortunate,3340
unfortunately,3341
uni,3342
unidentical,3343
uniforms,3344
unique,3345
unite,3346
united,3347
universal,3348
universe,3349
until,3350
up,3351
upcoming,3352
update,3353
upgrading,3354
uploading,3355
upmost,3356
upp,3357
upparsedonedigit,3358
ups,3359
upset,3360
uqly,3361
ur,3362
urgh,3363
us,3364
usa,3365
use,3366
used,3367
useful,3368
useless,3369
user,3370
usiku,3371
using,3372
utterly,3373
vacation,3374
vaio,3375
valentine,3376
valerie,3377
vanilla,3378
vapor,3379
vd,3380
ve,3381
vegas,3382
verified,3383
verizon,3384
version,3385
very,3386
via,3387
vibrant,3388
vick,3389
vid,3390
video,3391
videos,3392
view,3393
viewed,3394
vile,3395
vino,3396
vintage,3397
vip,3398
virtualization,3399
vision,3400
visit,3401
visuallyastounding,3402
vita,3403
vma,3404
vodka,3405
voice,3406
voices,3407
volume,3408
vote,3409
voted,3410
voting,3411
vows,3412
vparsedonedigit,3413
vs,3414
vuitton,3415
vwbug,3416
waaaaaayyyy,3417
wachin,3418
wack,3419
wade,3420
wahoo,3421
wait,3422
waiting,3423
waka,3424
wakemeupwhen,3425
waking,3426
walk,3427
walkin,3428
walking,3429
wallet,3430
walls,3431
wanna,3432
want,3433
wanted,3434
wants,3435
warm,3436
warner,3437
warranty,3438
was,3439
wash,3440
washed,3441
wasn,3442
wasnt,3443
waste,3444
wasted,3445
wat,3446
watch,3447
watched,3448
watches,3449
watchin,3450
watching,3451
water,3452
watermelon,3453
wave,3454
way,3455
wayne,3456
ways,3457
we,3458
weak,3459
wear,3460
wearin,3461
wearing,3462
weather,3463
web,3464
webbie,3465
website,3466
webtv,3467
wed,3468
wedding,3469
wednesday,3470
wee,3471
week,3472
weekend,3473
weekends,3474
weeks,3475
weezy,3476
weight,3477
weird,3478
welcome,3479
welfare,3480
well,3481
welovemaster,3482
wen,3483
wendys,3484
went,3485
were,3486
weren,3487
west,3488
western,3489
wet,3490
what,3491
whatever,3492
whathappenedtorealmovies,3493
whats,3494
whelp,3495
when,3496
where,3497
wherever,3498
whether,3499
which,3500
while,3501
whip,3502
white,3503
whitegirl,3504
whittle,3505
who,3506
whole,3507
whoop,3508
whore,3509
why,3510
whyaretheyspeakingspanish,3511
whyy,3512
wi,3513
wife,3514
wifey,3515
wii,3516
wiiware,3517
wild,3518
will,3519
willo,3520
win,3521
window,3522
windows,3523
wine,3524
winner,3525
winning,3526
wins,3527
winslet,3528
winter,3529
wired,3530
wireless,3531
wisconsin,3532
wise,3533
wish,3534
wishing,3535
wit,3536
with,3537
within,3538
without,3539
witnessed,3540
woman,3541
women,3542
womens,3543
won,3544
wonder,3545
wonderful,3546
wonders,3547
wont,3548
woo,3549
woofwoofwoof,3550
wooh,3551
woohoo,3552
wool,3553
wooohhooo,3554
woooo,3555
woot,3556
word,3557
words,3558
work,3559
worked,3560
workers,3561
workin,3562
working,3563
workout,3564
works,3565
world,3566
worlds,3567
worried,3568
worse,3569
worst,3570
worstmovieever,3571
worstshoesever,3572
worth,3573
worthless,3574
would,3575
wouldn,3576
wouldnt,3577
wow,3578
wowww,3579
wpcla,3580
write,3581
writing,3582
wrong,3583
wrote,3584
wtchn,3585
wtf,3586
wth,3587
wuv,3588
x_x,3589
xbox,3590
xd,3591
xfactor,3592
xmas,3593
xo,3594
xoxo,3595
xp,3596
xparsedtwodigits,3597
xperia,3598
xx,3599
xxxx,3600
ya,3601
yaas,3602
yaay,3603
yahoo,3604
yall,3605
yay,3606
yayayayayayyay,3607
yayy,3608
yea,3609
yeaa,3610
yeah,3611
yeahhh,3612
yeahright,3613
year,3614
years,3615
yell,3616
yes,3617
yessir,3618
yesss,3619
yessss,3620
yesterday,3621
yet,3622
yeyeeee,3623
yikes,3624
yo,3625
yogurt,3626
yoh,3627
you,3628
youbetcha,3629
youcantdateme,3630
young,3631
younger,3632
your,3633
youre,3634
yours,3635
yourself,3636
youtube,3637
youuuuu,3638
yr,3639
yrs,3640
yu,3641
yum,3642
yummm,3643
yummy,3644
yup,3645
yuummy,3646
zaytoven,3647
zelda,3648
zilleville,3649
zone,3650
zoo,3651
zoom,3652
zouch,3653
zuckerberg,3654
zumba,3655
zwaard,3656
