administration,0
album,1
alison,2
alive,3
americanair,4
angry,5
annoying,6
antlers,7
appointment,8
aren,9
asking,10
atitsfinest,11
average,12
aw,13
badass,14
badmoon,15
bag,16
barbara,17
barileia,18
beauparsedonedigitu,19
beautiful,20
belive,21
bennytheejet,22
best,23
bestie,24
betch,25
better,26
bikini,27
birthday,28
bit,29
blargh,30
bobelieves,31
boner,32
boys,33
brits,34
broke,35
camera,36
campuses,37
career,38
careful,39
cause,40
cbalramulc,41
cbi,42
cc,43
changes,44
channel,45
charming,46
chill,47
chocolate,48
city,49
civic,50
coaches,51
coachseahorn_,52
code,53
colorado,54
come,55
condescending,56
connect,57
contestâ,58
conventees,59
cool,60
course,61
cousins,62
crap,63
creek,64
culture,65
currently,66
dawson,67
day,68
ddparsedonedigitaparseddigitsqgparsedtwodigitso,69
delays,70
dentist,71
devil,72
dishesðÿ,73
disney,74
doesn,75
doing,76
don,77
downton,78
drama,79
dress,80
drive,81
dumb,82
duty,83
e__strobel,84
eaten,85
eelwparsedtwodigitszparsedonedigityparseddigits,86
eh,87
encourage,88
end,89
especially,90
everybody,91
example,92
excited,93
experience,94
family,95
fangirl,96
fantastic,97
fantasy,98
fast,99
feel,100
fellow,101
fi,102
fight,103
final,104
financial,105
fireworks,106
fish,107
fishing,108
flight,109
flip,110
followed,111
fooled,112
football,113
forbid,114
forced,115
free,116
freedom,117
friday,118
friend,119
friends,120
fugly,121
game,122
gave,123
glad,124
god,125
going,126
good,127
gotigers,128
gotobedguys,129
gov,130
government,131
great,132
greatest,133
gregabbott_tx,134
gt,135
guess,136
guys,137
haha,138
half,139
hand,140
hands,141
having,142
heard,143
heartwarming,144
heaven,145
hey,146
home,147
hong,148
horrendous,149
horrible,150
hot,151
hotspot,152
http,153
huh,154
hurry,155
ib,156
idea,157
indianapolis,158
inkabinkabonk,159
insert,160
inside,161
ints,162
iphone,163
ishouldhaveflownsouthwest,164
islam,165
islamic,166
isn,167
isp,168
jakebugg,169
jdtips,170
jew,171
jimmyfallon,172
job,173
john,174
joke,175
juanybeats,176
just,177
kind,178
know,179
kong,180
kpnwebcare,181
lemme,182
leo,183
let,184
life,185
lifeee,186
like,187
little,188
live,189
ll,190
loaded,191
logging,192
lol,193
long,194
longer,195
looking,196
looks,197
lot,198
love,199
loveeeeeeeee,200
lovely,201
lparsedonedigitohparsedtwodigitspqhe,202
lunchboxheroparsedtwodigits,203
make,204
makes,205
mcganntstopmenow,206
melissa,207
merican,208
minorities,209
minorits,210
missed,211
mistake,212
mkbhd,213
modem,214
mom,215
moment,216
morning,217
mother,218
movies,219
nba,220
need,221
needs,222
nicerack,223
night,224
nights,225
non,226
notreally,227
nsa,228
obama,229
obamaspeech,230
occupyhongkong,231
ok,232
omg,233
original,234
oven,235
parseddigits,236
parsedonedigit,237
parsedonedigitam,238
parsedonedigitrd,239
parsedonedigitxgrparsedonedigitkqrlo,240
parsedthreedigits,241
partyanimals,242
pay,243
people,244
persons,245
pgeonsparsedonedigitafparsedonedigit,246
philbyparsedfourdigits,247
pirates,248
pissed,249
pixar,250
play,251
played,252
pll,253
politibunny,254
potus,255
pounded,256
pregnancy,257
protestors,258
putting,259
qb,260
questions_faith,261
ramp,262
randomly,263
rape,264
raw,265
realize,266
really,267
remind,268
renovation,269
respecter,270
retire,271
ridiculous,272
right,273
rights,274
robbed,275
roomie,276
roommategoals,277
router,278
ryleebolinsky,279
ryleeshay,280
salon,281
santa,282
sarcasm,283
sarcasme,284
sarcasmout,285
sarcasmsaturdays,286
sarcasmtothemax,287
sargentcass,288
savemefromthisboredom,289
saying,290
says,291
scattermemvar,292
scene,293
sea,294
seeing,295
selfie,296
sends,297
sense,298
seriously,299
shangrila,300
shelby_maue,301
shouting,302
showing,303
sink,304
sister,305
sit,306
sittinrightnexttoher,307
situations,308
sketchy,309
sleeping,310
sleepova,311
sleepðÿ,312
slut,313
smile,314
snap,315
sold,316
song,317
sons,318
sounds,319
speaker,320
start,321
started,322
steel,323
story,324
stream,325
stressed,326
subtlety,327
suck,328
sunburn,329
sure,330
swear,331
talk,332
talking,333
tater,334
teenage,335
teens,336
tell,337
term,338
texts,339
thank,340
thanks,341
thatsoriginal,342
theists,343
thing,344
think,345
thursday,346
time,347
times,348
timesnow,349
title,350
today,351
tomorrow,352
tomorrparsedthreedigits,353
tookthewordsoutmymouth,354
totally,355
tots,356
tray,357
trying,358
twitch,359
ucalgarycase,360
uffda,361
understand,362
using,363
violent,364
waiting,365
wants,366
wash,367
watch,368
watching,369
wear,370
whitneyltuttle,371
wi,372
witness,373
woke,374
women,375
wonderful,376
wooow,377
working,378
world,379
worry,380
xbox,381
xojparsedonedigitjkjcparsedtwodigits,382
xuxvamparsedonedigitsml,383
ya,384
yay,385
yeah,386
yes,387
yesterday,388
young,389
ðÿ,390
šðÿ,391
