administration,0
album,1
alison,2
alive,3
americanair,4
amopã,5
annoying,6
antlers,7
apple,8
appointment,9
aren,10
asking,11
athlete,12
average,13
badass,14
badgers,15
badmoon,16
bag,17
barbara,18
beauparsedonedigitu,19
beautiful,20
belive,21
bennytheejet,22
best,23
betch,24
better,25
bikini,26
birthday,27
bit,28
blargh,29
boner,30
bout,31
boys,32
brits,33
broke,34
called,35
camera,36
career,37
careful,38
cause,39
cbalramulc,40
cbi,41
changes,42
channel,43
charming,44
chocolate,45
city,46
civic,47
coaches,48
coachseahorn_,49
code,50
colorado,51
come,52
condescending,53
connect,54
contestâ,55
conventees,56
convention,57
cool,58
cools,59
course,60
cousins,61
crap,62
creek,63
currently,64
daniel,65
danwoshere,66
dawson,67
day,68
dc,69
ddparsedonedigitaparseddigitsqgparsedtwodigitso,70
dead,71
degrees,72
delays,73
dentist,74
devil,75
dishesðÿ,76
disney,77
doesn,78
doing,79
don,80
downton,81
drama,82
dress,83
drive,84
drove,85
dumb,86
duty,87
e__strobel,88
eaten,89
eelwparsedtwodigitszparsedonedigityparseddigits,90
eh,91
end,92
enjoying,93
especially,94
everybody,95
excited,96
experience,97
family,98
fangirl,99
fantastic,100
fantasy,101
fast,102
feel,103
fellow,104
fi,105
fight,106
final,107
financial,108
fish,109
fishing,110
flawless,111
flight,112
flinging,113
flip,114
followed,115
fooled,116
foot,117
football,118
forced,119
ford,120
free,121
freedom,122
freezers,123
friday,124
friends,125
fugly,126
fusion,127
game,128
gave,129
gets,130
glad,131
god,132
going,133
goodness,134
gotigers,135
gotobedguys,136
gov,137
government,138
great,139
greatest,140
gregabbott_tx,141
guess,142
guys,143
haha,144
half,145
hand,146
hands,147
having,148
heard,149
heartwarming,150
hell,151
hey,152
home,153
horrendous,154
horrible,155
hot,156
hotspot,157
hours,158
http,159
huh,160
humidity,161
hunt,162
ib,163
idea,164
indianapolis,165
indirectly,166
ineedanap,167
inkabinkabonk,168
insert,169
inside,170
inspirationâ,171
ints,172
iphone,173
ishouldhaveflownsouthwest,174
islam,175
islamic,176
islamophobic,177
isn,178
isp,179
iytahxqvyh,180
jakebugg,181
jdtips,182
jealous,183
jew,184
jimmyfallon,185
job,186
john,187
joke,188
juanybeats,189
julianburnside,190
just,191
kind,192
know,193
kpnwebcare,194
lemme,195
let,196
life,197
lifeee,198
like,199
little,200
live,201
ll,202
loaded,203
logging,204
lol,205
lone,206
long,207
longer,208
looking,209
looks,210
lot,211
love,212
loveeeeeeeee,213
lovely,214
lparsedonedigitohparsedtwodigitspqhe,215
lunchboxheroparsedtwodigits,216
make,217
makes,218
maps,219
mcganntstopmenow,220
media,221
melissa,222
merican,223
minorities,224
minorits,225
missed,226
mistake,227
mkbhd,228
modem,229
mom,230
moment,231
morning,232
mother,233
movies,234
nba,235
need,236
needs,237
nicerack,238
night,239
nights,240
nsa,241
obama,242
obamaspeech,243
omg,244
original,245
oven,246
parseddigits,247
parsedonedigit,248
parsedonedigitam,249
parsedonedigitrd,250
parsedonedigitxgrparsedonedigitkqrlo,251
parsedthreedigits,252
parsedtwodigits,253
partyanimals,254
past,255
pay,256
people,257
perfect,258
persons,259
philbyparsedfourdigits,260
pirates,261
pissed,262
pixar,263
play,264
played,265
pll,266
politibunny,267
porsche,268
potus,269
pounded,270
predictive,271
pregnancy,272
pretty,273
pumice,274
putting,275
qb,276
qotd,277
questions_faith,278
ramp,279
randomly,280
raw,281
realize,282
really,283
renovation,284
respecter,285
retire,286
right,287
rights,288
rihanna,289
robbed,290
router,291
run,292
ryleebolinsky,293
ryleeshay,294
salon,295
santa,296
sarahinthesenparsedonedigit,297
sarcasm,298
sarcasme,299
sarcasmo,300
sarcasmout,301
sarcasmsaturdays,302
sarcasmtothemax,303
sargentcass,304
savemefromthisboredom,305
saying,306
says,307
scattermemvar,308
scene,309
sea,310
seeing,311
selfie,312
sense,313
september,314
seriously,315
sexy,316
shangrila,317
shelby_maue,318
shouting,319
showing,320
sink,321
sister,322
sit,323
sittinrightnexttoher,324
situations,325
sketchy,326
skin,327
sleeping,328
sleepova,329
sleepðÿ,330
slut,331
smile,332
smoke,333
sold,334
song,335
sons,336
sounds,337
speaker,338
start,339
started,340
steel,341
store,342
story,343
straight,344
stream,345
stressed,346
subtlety,347
suck,348
sunburn,349
superstar,350
sure,351
swear,352
talk,353
talking,354
tater,355
tattoos,356
teach,357
teenage,358
teens,359
tell,360
term,361
texts,362
thank,363
thanks,364
thatsoriginal,365
theists,366
thing,367
think,368
thursday,369
time,370
times,371
timesnow,372
title,373
today,374
tomorrow,375
tomorrparsedthreedigits,376
tookthewordsoutmymouth,377
totally,378
tots,379
trashy,380
tray,381
trying,382
twitch,383
uffda,384
understand,385
upset,386
using,387
ve,388
views,389
waiting,390
wants,391
wash,392
watching,393
way,394
wear,395
whatta,396
whitneyltuttle,397
wi,398
witness,399
woke,400
wolf,401
women,402
wonderful,403
wooow,404
worked,405
working,406
works,407
world,408
wsj,409
xbox,410
xojparsedonedigitjkjcparsedtwodigits,411
xuxvamparsedonedigitsml,412
ya,413
yay,414
yeah,415
yes,416
yesterday,417
ðÿ,418
