aaaaaay,0
aaaages,1
aaron,2
aasss,3
aawwwww,4
abby,5
able,6
aboard,7
abortionists,8
about,9
absolute,10
absolutely,11
abused,12
accepting,13
accomplished,14
acdc,15
achieved,16
achiever,17
acl,18
across,19
act,20
acting,21
action,22
actually,23
add,24
added,25
adding,26
address,27
adorable,28
adrienne,29
advantage,30
adventure,31
ae,32
affair,33
aford,34
after,35
afternoon,36
again,37
against,38
ages,39
aggitated,40
ago,41
agree,42
ah,43
ahead,44
ahh,45
ahhh,46
ahold,47
aiden,48
aight,49
aiight,50
aim,51
aint,52
air,53
aka,54
alayout,55
alerts,56
alex,57
ali,58
alive,59
all,60
alleria,61
allowed,62
alls,63
allways,64
alone,65
along,66
alot,67
aloud,68
already,69
alright,70
alrite,71
also,72
although,73
always,74
alyssa,75
am,76
amanda,77
amazed,78
amazing,79
ambition,80
amen,81
amin,82
amy,83
an,84
ana,85
and,86
andddd,87
andrew,88
andy,89
angle,90
animal,91
anna,92
annne,93
annnnnnneeeeee,94
another,95
answer,96
anthony,97
antonio,98
anxious,99
any,100
anyhow,101
anymore,102
anyone,103
anything,104
anytime,105
anywasy,106
anyway,107
anyways,108
anywayz,109
anywhere,110
anywho,111
anyyywayyss,112
apart,113
apartment,114
app,115
applications,116
appreciated,117
appreciation,118
apt,119
are,120
area,121
arent,122
argos,123
arizona,124
arm,125
around,126
arparsedonedigit,127
as,128
ashley,129
ask,130
asking,131
asleep,132
asphyxiation,133
ass,134
asshole,135
associated,136
aswell,137
at,138
atavia,139
atcha,140
ater,141
atl,142
atleast,143
attend,144
audience,145
august,146
aunt,147
auntie,148
austin,149
auto,150
automaticly,151
av,152
ave,153
avinger,154
aw,155
away,156
awesome,157
awful,158
awhile,159
awsome,160
aww,161
awww,162
ax,163
ayah,164
aye,165
baba,166
babe,167
babies,168
baby,169
babyshower,170
back,171
backdrop,172
background,173
backround,174
backwards,175
bad,176
bag,177
baily,178
bake,179
ball,180
ballin,181
band,182
bands,183
bank,184
banquet,185
bar,186
bargain,187
base,188
basement,189
basic,190
basics,191
basketball,192
bastards,193
bat,194
battle,195
baz,196
bboy,197
bday,198
be,199
beans,200
beast,201
beat,202
beatch,203
beautifil,204
beautiful,205
beauty,206
became,207
because,208
becky,209
becomes,210
becuz,211
bed,212
bedford,213
bedside,214
been,215
beer,216
before,217
being,218
beirut,219
belated,220
believ,221
believe,222
belong,223
bend,224
bent,225
beside,226
best,227
bestest,228
bestfriend,229
bet,230
betta,231
better,232
betty,233
beyond,234
bf,235
bff,236
biak,237
biased,238
biatch,239
bible,240
big,241
bigears,242
bigger,243
biggest,244
biiiiaaatch,245
bike,246
bill,247
bin,248
bird,249
birmingham,250
birth,251
birthdaaay,252
birthday,253
bish,254
bit,255
bitch,256
bitchassness,257
bitches,258
bite,259
bj,260
bk,261
black,262
blackadder,263
blast,264
bled,265
bleeding,266
bless,267
blessed,268
blog,269
blood,270
bloody,271
blow,272
blud,273
blunt,274
blurb,275
bob,276
bobby,277
body,278
boi,279
boii,280
bomb,281
bonded,282
boo,283
boobie,284
book,285
boom,286
booooomer,287
bored,288
boredom,289
born,290
borrow,291
boss,292
both,293
bothered,294
bothhhh,295
bottom,296
bout,297
bow,298
box,299
boy,300
boyah,301
boyfriend,302
boys,303
bparsedonedigit,304
brad,305
brain,306
brandon,307
braunda,308
bread,309
break,310
brent,311
brii,312
bring,313
britt,314
brittoni,315
brixton,316
bro,317
broken,318
brotha,319
brother,320
brown,321
brudda,322
bruh,323
brynn,324
btw,325
buck,326
bud,327
buddies,328
buddy,329
buffet,330
bugger,331
buh,332
building,333
bull,334
bulletins,335
bullied,336
bum,337
bumhole,338
bunch,339
bunches,340
burn,341
burned,342
bus,343
busy,344
but,345
butt,346
buttah,347
buttercup,348
buttttttt,349
buy,350
by,351
bye,352
byexxx,353
cafe,354
cage,355
cakes,356
call,357
called,358
calvin,359
came,360
camera,361
camp,362
can,363
cannot,364
cant,365
cap,366
capital,367
capri,368
car,369
cards,370
care,371
carolina,372
carrying,373
case,374
cassie,375
castles,376
catch,377
catchin,378
catherine,379
catxxxxxx,380
caught,381
cause,382
celebrate,383
celebrating,384
cell,385
cellular,386
certain,387
cha,388
chad,389
chance,390
change,391
chaos,392
charge,393
charlie,394
chat,395
cheap,396
check,397
checked,398
cheeks,399
cheer,400
cheers,401
cherries,402
cherry,403
cherrybomb,404
chic,405
chica,406
chichi,407
chick,408
chicks,409
child,410
children,411
chill,412
chillin,413
chocolate,414
choice,415
choir,416
chord,417
chou,418
chris,419
christina,420
christmas,421
chu,422
cilgrug,423
circumstances,424
city,425
cj,426
claps,427
clark,428
clarkyparsedfourdigits,429
class,430
classes,431
clean,432
cleanin,433
clissified,434
clown,435
club,436
cmb,437
cnt,438
co,439
coaches,440
cobbled,441
code,442
colege,443
colin,444
college,445
com,446
come,447
coment,448
coments,449
comin,450
coming,451
commandments,452
comment,453
comments,454
commetns,455
commets,456
commin,457
comming,458
communique,459
comng,460
company,461
competition,462
complete,463
completely,464
compliment,465
computer,466
con,467
conclusion,468
condoms,469
conference,470
confess,471
congrat,472
congrats,473
congratulations,474
conner,475
conrad,476
consumed,477
controls,478
conveint,479
cooking,480
cool,481
cope,482
corner,483
cory,484
cos,485
couch,486
cough,487
could,488
couldn,489
couldnt,490
count,491
counting,492
couple,493
course,494
cousin,495
cover,496
coveted,497
crab,498
craig,499
crazey,500
crazy,501
crew,502
crib,503
crowd,504
cruising,505
cryed,506
crystal,507
cubs,508
cudnt,509
cum,510
cumin,511
cummin,512
curl,513
cus,514
cuss,515
cut,516
cute,517
cutie,518
cutieface,519
cuttiiee,520
cuz,521
cuzins,522
cycling,523
da,524
dad,525
daddy,526
dads,527
daffodils,528
dale,529
dam,530
damn,531
dan,532
dance,533
dancing,534
dandy,535
dangg,536
danny,537
dark,538
darlin,539
darling,540
dat,541
date,542
dates,543
dats,544
daughter,545
dave,546
dawg,547
day,548
days,549
de,550
dead,551
dear,552
dec,553
decide,554
decided,555
dee,556
deep,557
def,558
default,559
deffinatley,560
definitely,561
definitly,562
defo,563
defult,564
dem,565
deserve,566
details,567
developed,568
devin,569
dew,570
dewd,571
dey,572
did,573
didn,574
didnt,575
die,576
different,577
dinnein,578
dinner,579
dis,580
discipline,581
disco,582
discuss,583
disney,584
dispatch,585
display,586
diy,587
dnt,588
do,589
dobbie,590
doe,591
doen,592
doent,593
does,594
doesn,595
doesnt,596
dogg,597
doi,598
doidesh,599
doin,600
doing,601
dollarsss,602
don,603
doncaster,604
done,605
donna,606
donnie,607
dont,608
doo,609
dooooo,610
dope,611
dorian,612
doritos,613
dork,614
dorkazoid,615
double,616
doubt,617
down,618
dread,619
dreams,620
dress,621
drink,622
drinks,623
drop,624
droping,625
dropping,626
drparsedonedigitamparsedonedigiter,627
drppin,628
drums,629
drunk,630
du,631
dude,632
due,633
dui,634
dun,635
during,636
duuuuude,637
each,638
eachother,639
ear,640
earl,641
earlier,642
early,643
easter,644
easy,645
eat,646
ed,647
eddie,648
edinburgh,649
ehhhhhhhhh,650
either,651
elect,652
else,653
email,654
emily,655
emma,656
emmy,657
end,658
engaged,659
england,660
enjoy,661
enjoyin,662
enjoying,663
enlightenment,664
enough,665
ensamble,666
enter,667
enterr,668
entertaining,669
entry,670
epidural,671
eric,672
err,673
ese,674
especially,675
esteem,676
etc,677
eternity,678
eva,679
even,680
evening,681
event,682
ever,683
every,684
everybody,685
everyday,686
everyone,687
everyones,688
everything,689
everytime,690
ex,691
exams,692
excellent,693
excited,694
exciting,695
excuses,696
expected,697
exploited,698
expression,699
ey,700
eye,701
fa,702
face,703
facebook,704
faith,705
faithful,706
fake,707
fall,708
falling,709
fam,710
family,711
fammo,712
fan,713
fancy,714
far,715
farnborough,716
farnham,717
fart,718
fat,719
father,720
favor,721
favorite,722
faybe,723
feb,724
federal,725
feel,726
feelin,727
feeling,728
feelings,729
feels,730
felisha,731
ferr,732
fes,733
festival,734
few,735
fighting,736
figured,737
filled,738
filling,739
film,740
films,741
final,742
finally,743
find,744
finding,745
finds,746
fine,747
fingas,748
finger,749
finished,750
finna,751
finnally,752
fire,753
first,754
fish,755
fit,756
fitness,757
fix,758
fixture,759
flash,760
flovarful,761
fo,762
foo,763
food,764
fool,765
foolish,766
foosho,767
football,768
for,769
forefathers,770
forever,771
forget,772
forgive,773
forgot,774
form,775
forms,776
forth,777
fortunate,778
forward,779
found,780
four,781
fran,782
frantically,783
freak,784
freakin,785
freaks,786
fred,787
freddie,788
free,789
freedom,790
freezes,791
freshman,792
friday,793
fried,794
friend,795
friendly,796
friends,797
friendz,798
fries,799
friggin,800
frm,801
fro,802
frodo,803
from,804
fs,805
fuck,806
fucked,807
fucker,808
fuckin,809
fucking,810
fucknuts,811
fullest,812
fun,813
funn,814
funner,815
funniest,816
funny,817
fwend,818
fyi,819
gab,820
gabbi,821
game,822
games,823
gard,824
gave,825
gawgus,826
gay,827
gd,828
gem,829
gena,830
general,831
generosity,832
geog,833
get,834
getin,835
gets,836
gettin,837
getting,838
gf,839
gh,840
ghettopatsy,841
ghost,842
giants,843
gift,844
gig,845
giggle,846
girl,847
girlie,848
girls,849
girrrllllllllll,850
give,851
given,852
giving,853
glad,854
glade,855
glasgow,856
glass,857
go,858
god,859
gods,860
goes,861
goin,862
going,863
golden,864
gone,865
gonna,866
goober,867
good,868
goodbye,869
goood,870
gooody,871
goose,872
gorgo,873
gosti,874
got,875
gothic,876
gots,877
gotta,878
gotten,879
gparsedonedigitiing,880
grab,881
grabbing,882
graduate,883
graduated,884
gramma,885
grandpa,886
grats,887
great,888
greatest,889
green,890
greg,891
grindin,892
groovy,893
ground,894
grow,895
grreegg,896
gsi,897
guam,898
gud,899
guess,900
guide,901
gulps,902
gun,903
guna,904
gunna,905
guns,906
gurl,907
gurrintees,908
guy,909
guys,910
ha,911
hack,912
had,913
hadn,914
hafta,915
haha,916
hahah,917
hahaha,918
hahahaha,919
hahahahahah,920
hahahahahaha,921
hahahahahahahah,922
hair,923
half,924
hall,925
halloween,926
hallways,927
halo,928
ham,929
hand,930
handles,931
hands,932
handsome,933
hang,934
hangin,935
hanging,936
hangout,937
hannahs,938
hans,939
happen,940
happend,941
happened,942
happening,943
happennin,944
happppest,945
happy,946
hard,947
hardcore,948
harder,949
harrassing,950
harry,951
has,952
hat,953
hate,954
hauz,955
hav,956
have,957
haven,958
havent,959
havin,960
having,961
havnt,962
hax,963
hayfever,964
hd,965
he,966
head,967
headline,968
hear,969
heard,970
hearing,971
heart,972
hearts,973
heavan,974
heck,975
hector,976
hehe,977
heheh,978
hehehe,979
height,980
hell,981
hello,982
helloooooooo,983
helmet,984
helo,985
help,986
helped,987
her,988
herd,989
here,990
hereeeeeee,991
heres,992
hero,993
herself,994
hey,995
heyahh,996
heyy,997
hhheeeellllllooooooooo,998
hhhhhiiiiiiiiiiii,999
hi,1000
hidin,1001
high,1002
highly,1003
hiiii,1004
hiiiiiiiiiiiii,1005
him,1006
his,1007
history,1008
hit,1009
hittin,1010
hiya,1011
hmm,1012
hmmmm,1013
hobag,1014
hoe,1015
hol,1016
hold,1017
hole,1018
holiday,1019
holidays,1020
holla,1021
holly,1022
hols,1023
home,1024
homey,1025
homie,1026
homies,1027
homo,1028
homw,1029
honestly,1030
honey,1031
honour,1032
honoured,1033
hoo,1034
hooked,1035
hooters,1036
hope,1037
hopefully,1038
hopes,1039
hoping,1040
horny,1041
horror,1042
hot,1043
hotel,1044
hotmail,1045
hott,1046
hottest,1047
hottie,1048
hottstuff,1049
hours,1050
house,1051
how,1052
hows,1053
hparsedonedigitpparseddigits,1054
htown,1055
hudson,1056
hug,1057
huggz,1058
hugs,1059
huh,1060
humbled,1061
hun,1062
hundreds,1063
hung,1064
hungover,1065
hunny,1066
hunting,1067
hurry,1068
hurt,1069
hurts,1070
huy,1071
hye,1072
ibiza,1073
ice,1074
id,1075
idea,1076
idk,1077
if,1078
ight,1079
ii,1080
ill,1081
ily,1082
im,1083
ima,1084
impatient,1085
impressive,1086
in,1087
ina,1088
inappropriate,1089
incase,1090
inches,1091
incredible,1092
indeed,1093
indian,1094
induced,1095
infamous,1096
infinity,1097
info,1098
ink,1099
inn,1100
inner,1101
insecurities,1102
inside,1103
instead,1104
intense,1105
interested,1106
internet,1107
interrested,1108
into,1109
intresting,1110
invading,1111
invitation,1112
invite,1113
invited,1114
involved,1115
ironic,1116
is,1117
isac,1118
ish,1119
island,1120
it,1121
its,1122
itself,1123
itt,1124
iv,1125
ive,1126
iwas,1127
jackal,1128
jacksonville,1129
jaden,1130
jadens,1131
jail,1132
jake,1133
james,1134
janine,1135
janinesiu,1136
jazzy,1137
jello,1138
jen,1139
jeremy,1140
jersy,1141
jerz,1142
jess,1143
jessica,1144
jesss,1145
jewelry,1146
jimmy,1147
jk,1148
job,1149
joe,1150
jog,1151
john,1152
joke,1153
jokes,1154
jokin,1155
jonny,1156
joooolllz,1157
josh,1158
josiah,1159
journey,1160
jp,1161
judgments,1162
juice,1163
julie,1164
july,1165
jundo,1166
jus,1167
juss,1168
just,1169
justifiable,1170
justin,1171
jux,1172
kak,1173
kandyland,1174
kate,1175
keep,1176
keeping,1177
kellen,1178
kelley,1179
kels,1180
ken,1181
kenny,1182
kett,1183
kevin,1184
keychain,1185
kick,1186
kickin,1187
kicks,1188
kid,1189
kidd,1190
kiddin,1191
kidding,1192
kidney,1193
kids,1194
kill,1195
killed,1196
killer,1197
killers,1198
kiln,1199
kim,1200
kind,1201
kinda,1202
kindly,1203
king,1204
kiss,1205
kisses,1206
kitchen,1207
kitties,1208
kizzy,1209
klink,1210
klinkenberg,1211
kno,1212
knoe,1213
knopfler,1214
know,1215
knows,1216
knuckle,1217
kokua,1218
kong,1219
konntz,1220
kool,1221
korny,1222
kris,1223
kristin,1224
kuala,1225
la,1226
laa,1227
labrynthitus,1228
lad,1229
lady,1230
ladyrose,1231
lame,1232
lamin,1233
laos,1234
last,1235
lata,1236
late,1237
lately,1238
later,1239
laters,1240
laterz,1241
lates,1242
latest,1243
latez,1244
laugh,1245
law,1246
lawrence,1247
lax,1248
layel,1249
layout,1250
laziness,1251
lazy,1252
lbgp,1253
leaderboard,1254
leadership,1255
leah,1256
leann,1257
learning,1258
least,1259
leave,1260
leaving,1261
lectures,1262
lee,1263
left,1264
legend,1265
legs,1266
let,1267
lets,1268
letter,1269
letting,1270
liable,1271
liars,1272
lick,1273
lies,1274
life,1275
light,1276
like,1277
lil,1278
lily,1279
line,1280
lisa,1281
list,1282
listen,1283
listenin,1284
listin,1285
literally,1286
little,1287
live,1288
lived,1289
living,1290
ll,1291
llama,1292
llllooooooogggggaaaaaannnn,1293
lmao,1294
loads,1295
locker,1296
log,1297
logan,1298
lol,1299
lolol,1300
london,1301
long,1302
longer,1303
look,1304
looked,1305
looking,1306
looks,1307
lord,1308
lose,1309
loser,1310
loserific,1311
lost,1312
lot,1313
lots,1314
lottery,1315
loud,1316
louis,1317
lounge,1318
lovce,1319
love,1320
lovee,1321
lovely,1322
lover,1323
loves,1324
lovesz,1325
lovin,1326
loving,1327
lparsedonedigitl,1328
lubb,1329
luck,1330
luckily,1331
lucky,1332
luke,1333
lumpur,1334
luv,1335
lylas,1336
ma,1337
macka,1338
macross,1339
mad,1340
madden,1341
made,1342
magazine,1343
maggie,1344
magic,1345
mah,1346
maine,1347
make,1348
makes,1349
making,1350
mall,1351
malt,1352
mama,1353
mamores,1354
man,1355
managed,1356
management,1357
manhahahhaahaha,1358
many,1359
marathon,1360
marc,1361
march,1362
marco,1363
maribel,1364
mark,1365
married,1366
martin,1367
martine,1368
mas,1369
mate,1370
mates,1371
matey,1372
matt,1373
matter,1374
mawmaw,1375
may,1376
maybe,1377
mc,1378
me,1379
meals,1380
mean,1381
means,1382
meditate,1383
meet,1384
meeting,1385
mei,1386
mel,1387
melanie,1388
melissa,1389
member,1390
men,1391
mental,1392
mentally,1393
mention,1394
mentioning,1395
meridiem,1396
merry,1397
mess,1398
message,1399
messaged,1400
met,1401
metal,1402
metel,1403
mets,1404
mex,1405
mi,1406
michelle,1407
michigan,1408
micro,1409
mid,1410
might,1411
mike,1412
mikey,1413
miles,1414
min,1415
mind,1416
mine,1417
minn,1418
mins,1419
minus,1420
minute,1421
minutes,1422
miserable,1423
misery,1424
miss,1425
missed,1426
missing,1427
mission,1428
mississippi,1429
missouri,1430
missus,1431
mmmm,1432
mnogo,1433
mo,1434
mom,1435
moment,1436
mon,1437
monday,1438
money,1439
monica,1440
monique,1441
monster,1442
monterrey,1443
month,1444
months,1445
more,1446
morning,1447
most,1448
mostly,1449
mother,1450
move,1451
moved,1452
movie,1453
movies,1454
moving,1455
mp,1456
mpact,1457
mr,1458
ms,1459
msn,1460
muah,1461
much,1462
muchoo,1463
muchos,1464
mudd,1465
multiculturalism,1466
mum,1467
mums,1468
munchin,1469
mundelein,1470
muscles,1471
music,1472
must,1473
mutha,1474
muthafucka,1475
mutherfucking,1476
mwah,1477
mwahaha,1478
mwahahahaha,1479
mwahhhh,1480
mwahz,1481
my,1482
myself,1483
myspace,1484
myspae,1485
myyspaceeee,1486
na,1487
nag,1488
nah,1489
name,1490
names,1491
nap,1492
nashville,1493
nasty,1494
nate,1495
nation,1496
natural,1497
naturally,1498
nature,1499
navid,1500
navy,1501
naw,1502
nd,1503
ne,1504
near,1505
neck,1506
need,1507
needa,1508
needed,1509
needs,1510
needy,1511
neglected,1512
neighbours,1513
neil,1514
nell,1515
nething,1516
neva,1517
never,1518
new,1519
newcastle,1520
news,1521
next,1522
neye,1523
nice,1524
nick,1525
nie,1526
nig,1527
nigga,1528
niggy,1529
night,1530
nights,1531
nina,1532
no,1533
nobbers,1534
nobody,1535
noodle,1536
noon,1537
norm,1538
north,1539
noses,1540
not,1541
nothin,1542
nothing,1543
notified,1544
november,1545
now,1546
nuffffink,1547
nufink,1548
nul,1549
numbah,1550
number,1551
numbers,1552
nun,1553
nutting,1554
nver,1555
oceana,1556
oct,1557
odd,1558
of,1559
off,1560
offend,1561
offense,1562
official,1563
officially,1564
offie,1565
often,1566
oh,1567
ohh,1568
ohio,1569
oic,1570
ok,1571
okay,1572
old,1573
older,1574
olives,1575
oltl,1576
omg,1577
on,1578
once,1579
one,1580
ones,1581
only,1582
onyx,1583
ooo,1584
oooohhhhhhh,1585
oou,1586
open,1587
opening,1588
opposites,1589
or,1590
orange,1591
order,1592
organic,1593
orly,1594
other,1595
otherwise,1596
our,1597
out,1598
outlawed,1599
outrage,1600
over,1601
overlap,1602
owen,1603
own,1604
owned,1605
owner,1606
ox,1607
oxooxoxooxoxoxox,1608
pa,1609
pack,1610
package,1611
packet,1612
page,1613
pal,1614
paper,1615
paradise,1616
parents,1617
park,1618
parpxxx,1619
parseddigits,1620
parsedfourdigits,1621
parsedonedigit,1622
parsedonedigitdays,1623
parsedonedigitget,1624
parsedonedigithour,1625
parsedonedigitlb,1626
parsedonedigitme,1627
parsedonedigitmz,1628
parsedonedigitnd,1629
parsedonedigitoth,1630
parsedonedigitst,1631
parsedonedigitth,1632
parsedthreedigits,1633
parsedthreedigitsr,1634
parsedtime,1635
parsedtwodigits,1636
parsedtwodigitsth,1637
part,1638
particular,1639
partner,1640
party,1641
pass,1642
passin,1643
passing,1644
passy,1645
past,1646
paybacks,1647
payin,1648
pea,1649
peace,1650
peahead,1651
peas,1652
peeps,1653
pention,1654
people,1655
permanent,1656
person,1657
personalised,1658
personally,1659
perve,1660
peterrrr,1661
peyton,1662
pge,1663
phoebe,1664
phone,1665
photo,1666
photoshop,1667
physical,1668
pic,1669
pick,1670
picnic,1671
picnick,1672
pics,1673
picture,1674
pictures,1675
picz,1676
pie,1677
pierce,1678
pik,1679
pillow,1680
pimp,1681
pink,1682
pirates,1683
pissed,1684
pissing,1685
pix,1686
pizza,1687
place,1688
placed,1689
plan,1690
plans,1691
play,1692
playa,1693
played,1694
playin,1695
playing,1696
plea,1697
please,1698
pleeez,1699
pluralism,1700
plus,1701
plz,1702
points,1703
pole,1704
poles,1705
polite,1706
political,1707
polluted,1708
poor,1709
poped,1710
popped,1711
poppin,1712
popssss,1713
porch,1714
pornography,1715
possessions,1716
possibility,1717
possible,1718
post,1719
postcards,1720
posted,1721
potter,1722
power,1723
ppl,1724
prayers,1725
praying,1726
preciate,1727
precise,1728
pregnancy,1729
pregnant,1730
prepared,1731
prescious,1732
present,1733
preservation,1734
pressure,1735
pretty,1736
prima,1737
primo,1738
pringles,1739
printing,1740
prinze,1741
private,1742
pro,1743
prob,1744
probable,1745
probably,1746
problem,1747
problems,1748
probs,1749
profanity,1750
profile,1751
profilr,1752
program,1753
prohibited,1754
prolly,1755
promise,1756
proud,1757
ps,1758
psssssssssssssst,1759
psssst,1760
psych,1761
pub,1762
public,1763
puff,1764
pulled,1765
pumba,1766
punk,1767
puppy,1768
purple,1769
purpose,1770
pussy,1771
put,1772
putting,1773
qhat,1774
quad,1775
quads,1776
que,1777
queen,1778
question,1779
quickie,1780
quiet,1781
quit,1782
quite,1783
quote,1784
quuaddd,1785
race,1786
racism,1787
racist,1788
randy,1789
rap,1790
rat,1791
rather,1792
ratm,1793
ravioli,1794
re,1795
reach,1796
read,1797
ready,1798
real,1799
realize,1800
realized,1801
really,1802
realy,1803
reason,1804
reasons,1805
recall,1806
recently,1807
reception,1808
recites,1809
record,1810
rectally,1811
red,1812
reede,1813
reeeeeeeeeeeeeal,1814
regards,1815
regret,1816
reigns,1817
rela,1818
relax,1819
release,1820
reli,1821
remember,1822
reminded,1823
renji,1824
rents,1825
rep,1826
replace,1827
reply,1828
request,1829
requests,1830
respect,1831
response,1832
responsibility,1833
rest,1834
retarded,1835
retro,1836
return,1837
returnin,1838
reunion,1839
rewarded,1840
rhode,1841
rib,1842
ricky,1843
ride,1844
rides,1845
ridiculed,1846
right,1847
rights,1848
ring,1849
rink,1850
rissa,1851
river,1852
rn,1853
roam,1854
rob,1855
robbie,1856
robotic,1857
rock,1858
rocks,1859
roids,1860
romantic,1861
roof,1862
room,1863
roomie,1864
roommate,1865
root,1866
rooting,1867
routine,1868
row,1869
rubbish,1870
ruby,1871
rule,1872
ryan,1873
sad,1874
sadly,1875
safe,1876
said,1877
sam,1878
samantha,1879
same,1880
sammi,1881
san,1882
santa,1883
sassy,1884
sat,1885
saturday,1886
save,1887
saved,1888
savvy,1889
saw,1890
say,1891
saying,1892
says,1893
scaner,1894
scare,1895
scareyin,1896
scarriest,1897
scary,1898
scene,1899
schedual,1900
schmello,1901
school,1902
scooby,1903
scoop,1904
score,1905
screwedd,1906
scripture,1907
sea,1908
sean,1909
search,1910
seattle,1911
secrets,1912
sed,1913
see,1914
seein,1915
seeing,1916
seems,1917
seen,1918
self,1919
send,1920
sendin,1921
senior,1922
senoir,1923
senor,1924
sense,1925
sent,1926
sept,1927
series,1928
serious,1929
seriously,1930
set,1931
seth,1932
settlin,1933
several,1934
sexi,1935
sexxxxy,1936
sexy,1937
shame,1938
shana,1939
she,1940
shelby,1941
sheryl,1942
shes,1943
shift,1944
shirts,1945
shit,1946
shitty,1947
shlong,1948
sho,1949
shock,1950
shoes,1951
shopping,1952
shorty,1953
shot,1954
shots,1955
should,1956
shove,1957
show,1958
showed,1959
showin,1960
showing,1961
shows,1962
shud,1963
shut,1964
si,1965
sick,1966
sierra,1967
sign,1968
signed,1969
sike,1970
silence,1971
silent,1972
silly,1973
silver,1974
silvy,1975
simon,1976
simply,1977
since,1978
singing,1979
sir,1980
sis,1981
sista,1982
sister,1983
sisters,1984
sit,1985
site,1986
sitter,1987
sitting,1988
siu,1989
six,1990
ski,1991
skillet,1992
skip,1993
skupa,1994
sky,1995
sleep,1996
sleeping,1997
slice,1998
slide,1999
sloppy,2000
slowly,2001
smell,2002
smile,2003
smiled,2004
smiles,2005
smoke,2006
smoking,2007
smurfday,2008
snowboard,2009
so,2010
soap,2011
socialising,2012
softball,2013
soldiers,2014
solo,2015
some,2016
somebody,2017
somemore,2018
someone,2019
something,2020
sometime,2021
sometimes,2022
son,2023
song,2024
songs,2025
sons,2026
soo,2027
soon,2028
sooner,2029
sooo,2030
soooo,2031
soooooooooo,2032
soooooooooooo,2033
sooooooooooooo,2034
sophie,2035
sorri,2036
sorry,2037
sort,2038
soul,2039
soulja,2040
sounds,2041
sox,2042
space,2043
spam,2044
spamming,2045
sparsedonedigit,2046
speaker,2047
speaking,2048
specail,2049
special,2050
specific,2051
speek,2052
spelled,2053
spent,2054
spinning,2055
spk,2056
spoke,2057
spoken,2058
spot,2059
spread,2060
spreading,2061
spring,2062
springfield,2063
sprinkler,2064
spun,2065
stace,2066
staff,2067
stairs,2068
stak,2069
stand,2070
starrrr,2071
start,2072
starting,2073
starved,2074
state,2075
states,2076
stay,2077
staying,2078
staz,2079
stealing,2080
stephanie,2081
steve,2082
stick,2083
stickyland,2084
stil,2085
still,2086
stocks,2087
stoked,2088
stop,2089
stoping,2090
stopped,2091
stoppin,2092
stopping,2093
straight,2094
stranger,2095
streatham,2096
streets,2097
strong,2098
study,2099
stuff,2100
style,2101
subjects,2102
subscribe,2103
subscribed,2104
such,2105
suck,2106
sucked,2107
sucks,2108
suk,2109
sum,2110
summer,2111
summit,2112
summmerr,2113
sumthin,2114
sumthing,2115
sun,2116
sunday,2117
sundays,2118
sunshine,2119
sup,2120
super,2121
support,2122
supposah,2123
supposed,2124
supremelyyyyyyyyyyy,2125
sure,2126
surfer,2127
surr,2128
swee,2129
sweeet,2130
sweet,2131
sweetie,2132
swimmin,2133
ta,2134
table,2135
tad,2136
take,2137
taken,2138
taking,2139
talk,2140
talked,2141
tanishas,2142
tape,2143
tapes,2144
tar,2145
tastic,2146
taught,2147
tay,2148
tbh,2149
teach,2150
teacher,2151
team,2152
tech,2153
techz,2154
teh,2155
telemundo,2156
tell,2157
ten,2158
terri,2159
terrible,2160
terrorstorm,2161
test,2162
texas,2163
text,2164
th,2165
tha,2166
than,2167
thank,2168
thanks,2169
thanksgiving,2170
thanx,2171
thanxxx,2172
that,2173
thatd,2174
thats,2175
the,2176
their,2177
them,2178
then,2179
therapists,2180
there,2181
theres,2182
these,2183
they,2184
thi,2185
thing,2186
things,2187
thingy,2188
think,2189
thinkin,2190
thinking,2191
this,2192
thnxs,2193
tho,2194
those,2195
though,2196
thought,2197
three,2198
throat,2199
through,2200
throw,2201
throwing,2202
throwup,2203
thru,2204
thuggin,2205
thunderstorm,2206
thunderstorms,2207
thurs,2208
thursday,2209
thx,2210
tia,2211
tickets,2212
tiffany,2213
tiffy,2214
til,2215
till,2216
tim,2217
time,2218
times,2219
timon,2220
tired,2221
tisha,2222
tiz,2223
to,2224
toby,2225
today,2226
together,2227
told,2228
tom,2229
tomarow,2230
tommorow,2231
tomorrow,2232
tongue,2233
tongues,2234
tonight,2235
tonite,2236
tons,2237
tony,2238
too,2239
took,2240
tooo,2241
top,2242
tornadoes,2243
tortilla,2244
total,2245
totally,2246
totem,2247
touch,2248
towards,2249
town,2250
toy,2251
tranquilizer,2252
trash,2253
trauma,2254
treatin,2255
treating,2256
tres,2257
trey,2258
trhe,2259
trick,2260
tricks,2261
tried,2262
trish,2263
trouble,2264
truck,2265
true,2266
truth,2267
try,2268
tryin,2269
trying,2270
tryna,2271
ts,2272
ttul,2273
ttyl,2274
ttys,2275
tues,2276
tune,2277
turn,2278
turnout,2279
tv,2280
twas,2281
twin,2282
twirled,2283
twist,2284
two,2285
tyler,2286
types,2287
ugly,2288
uhhh,2289
uk,2290
um,2291
umm,2292
ummm,2293
un,2294
unaware,2295
unborn,2296
uncle,2297
under,2298
underberg,2299
understood,2300
unfortunate,2301
uni,2302
unit,2303
university,2304
until,2305
unwed,2306
up,2307
updated,2308
uploaded,2309
upparsedonedigit,2310
ur,2311
urban,2312
urself,2313
ursuline,2314
us,2315
usall,2316
use,2317
used,2318
useful,2319
usual,2320
uuu,2321
values,2322
vampires,2323
ve,2324
vegas,2325
verson,2326
very,2327
vic,2328
vice,2329
vicky,2330
victims,2331
video,2332
village,2333
villn,2334
violates,2335
violets,2336
visit,2337
volleyball,2338
waddup,2339
wait,2340
waiting,2341
waking,2342
walk,2343
walked,2344
walks,2345
walmart,2346
waned,2347
wanking,2348
wanna,2349
want,2350
wanted,2351
war,2352
warranty,2353
warwick,2354
was,2355
wasn,2356
wassup,2357
wat,2358
watch,2359
watched,2360
watchin,2361
watching,2362
water,2363
watever,2364
wats,2365
watson,2366
watup,2367
watz,2368
waves,2369
way,2370
wayno,2371
ways,2372
waz,2373
wazz,2374
wb,2375
we,2376
wean,2377
wear,2378
web,2379
website,2380
wed,2381
wedding,2382
wednesday,2383
wee,2384
week,2385
weekend,2386
weeknd,2387
weeks,2388
weird,2389
wel,2390
welcome,2391
welfare,2392
well,2393
welp,2394
wen,2395
went,2396
were,2397
wet,2398
what,2399
whatd,2400
whatever,2401
whats,2402
whatsup,2403
whatup,2404
when,2405
where,2406
whether,2407
whew,2408
whhat,2409
whhey,2410
which,2411
while,2412
whistles,2413
white,2414
who,2415
whoa,2416
whole,2417
why,2418
wi,2419
wicked,2420
width,2421
wieght,2422
wies,2423
wife,2424
wig,2425
will,2426
win,2427
winding,2428
windmill,2429
wish,2430
wishes,2431
wit,2432
witchcraft,2433
with,2434
without,2435
wittyness,2436
wkends,2437
wnt,2438
woah,2439
woman,2440
women,2441
won,2442
wonderful,2443
wont,2444
woo,2445
woohoo,2446
woop,2447
word,2448
words,2449
work,2450
working,2451
world,2452
worrd,2453
worried,2454
worry,2455
worshiped,2456
wot,2457
would,2458
wouldnt,2459
wow,2460
write,2461
wrong,2462
wrote,2463
wubuparsedonedigit,2464
wus,2465
wut,2466
wuts,2467
wutsup,2468
wuv,2469
wuz,2470
www,2471
xmas,2472
xo,2473
xoxo,2474
xoxox,2475
xoxoxo,2476
xoxoxoxo,2477
xoxoxoxoxox,2478
xx,2479
xxx,2480
xxxx,2481
xxxxx,2482
xxxxxxx,2483
xxxxxxxxxxx,2484
xxxxxxxxxxxx,2485
xxxxxxxxxxxxx,2486
xxxxxxxxxxxxxxxxxxxxxxxxxxxxxxxxxxx,2487
ya,2488
yah,2489
yall,2490
yankees,2491
yanks,2492
yay,2493
yea,2494
yeah,2495
yeahh,2496
year,2497
years,2498
yeayea,2499
yeh,2500
yep,2501
yes,2502
yesterday,2503
yet,2504
yew,2505
yo,2506
yooo,2507
yooooooooo,2508
you,2509
youd,2510
youll,2511
young,2512
your,2513
yours,2514
yourself,2515
yous,2516
youu,2517
yuh,2518
yup,2519
yur,2520
yuu,2521
zdr,2522
zermey,2523
zoink,2524
zomg,2525
¾roses,2526
