aaa,0
aac,1
abilities,2
ability,3
able,4
abroad,5
absolute,6
absolutely,7
abuse,8
abused,9
ac,10
accentuates,11
accept,12
acceptable,13
accepted,14
accepts,15
access,16
accessibility,17
accessible,18
accessing,19
accessories,20
accessory,21
accident,22
accidentally,23
accidently,24
accidents,25
accomplished,26
according,27
accordingly,28
account,29
accually,30
accurate,31
achieve,32
achievement,33
acparsedonedigit,34
act,35
action,36
actions,37
activated,38
acts,39
actual,40
actually,41
ad,42
adapter,43
adapters,44
add,45
added,46
addict,47
addition,48
additional,49
additionally,50
address,51
addresses,52
adds,53
adequate,54
adequately,55
adjust,56
adjustability,57
adjusted,58
adjustment,59
adjustments,60
adminstrative,61
admit,62
admitted,63
adobe,64
adoo,65
adparsedfourdigits,66
adparsedfourdigitsw,67
adparsedthreedigits,68
advance,69
advanced,70
advancing,71
advantage,72
advantages,73
advertised,74
advertisement,75
advertises,76
advertising,77
advice,78
advise,79
advised,80
af,81
aff,82
affect,83
affecting,84
afflicted,85
afford,86
affordability,87
affordable,88
affordably,89
africa,90
aftermarket,91
age,92
aggrivation,93
ago,94
agree,95
ahead,96
ahwile,97
aid,98
aids,99
aiff,100
ailing,101
aim,102
air,103
aires,104
alarm,105
alarmed,106
albeit,107
album,108
albums,109
algorithms,110
alhthough,111
alias,112
aligned,113
allow,114
allowed,115
allowing,116
allows,117
alltogether,118
alludes,119
alot,120
alphabetical,121
alphebetical,122
alsmost,123
alter,124
altered,125
alternate,126
alternative,127
aluminum,128
amateur,129
amatuer,130
amaze,131
amazed,132
amazement,133
amazing,134
amazon,135
american,136
amg,137
amp,138
ample,139
analog,140
angeles,141
angle,142
angles,143
annie,144
announced,145
annoy,146
annoyances,147
annoyed,148
annoying,149
anser,150
answer,151
answered,152
answering,153
answers,154
anticipate,155
anybody,156
anytime,157
anyways,158
aol,159
apart,160
apartment,161
aperature,162
aperture,163
apex,164
apexdigialinc,165
apexdigital,166
apexdigitalinc,167
app,168
apparent,169
apparently,170
appealing,171
appear,172
appearance,173
appears,174
apple,175
appliance,176
application,177
applications,178
applied,179
applies,180
applying,181
appointments,182
appreciate,183
appreciated,184
appropriate,185
approved,186
approximately,187
apps,188
aps,189
archos,190
archrival,191
area,192
areas,193
aren,194
arent,195
arguably,196
arm,197
army,198
arrangement,199
array,200
arrived,201
arrogant,202
art,203
articulated,204
artist,205
artists,206
asap,207
asia,208
aside,209
ask,210
asked,211
asking,212
asks,213
asp,214
aspects,215
assembled,216
assign,217
assist,218
associated,219
assume,220
assumed,221
assurance,222
assured,223
asthetic,224
asthetics,225
astounding,226
attach,227
attached,228
attachement,229
attachment,230
attempted,231
attempting,232
attempts,233
attend,234
attendant,235
attended,236
attention,237
attractable,238
attracted,239
attractive,240
au,241
audible,242
audigy,243
audio,244
audiophile,245
auditorium,246
august,247
authorized,248
auto,249
autofocus,250
autofocuses,251
autofocussing,252
automatic,253
automatically,254
automation,255
automode,256
avail,257
available,258
availible,259
average,260
averaging,261
avi,262
avoid,263
avoided,264
awaesome,265
aware,266
away,267
awe,268
awesome,269
awful,270
awkward,271
awsome,272
baby,273
backed,274
background,275
backgrounds,276
backlight,277
backlit,278
backup,279
backyard,280
bad,281
bag,282
bait,283
balance,284
band,285
bang,286
banged,287
bar,288
barely,289
bargain,290
barrel,291
bars,292
bart,293
base,294
based,295
bashing,296
basic,297
basically,298
basicly,299
basis,300
basketball,301
bass,302
batches,303
batteries,304
batterly,305
battery,306
bbb,307
beach,308
beast,309
beat,310
beatiful,311
beats,312
beautiful,313
becames,314
becuase,315
bed,316
bedroom,317
beef,318
beefo,319
beer,320
beetle,321
began,322
begin,323
beginner,324
beginners,325
beginning,326
begins,327
behavior,328
believe,329
belive,330
belkin,331
bell,332
bells,333
belongs,334
belt,335
bending,336
beneficial,337
benefit,338
benifit,339
best,340
bet,341
better,342
beunos,343
bevy,344
beware,345
bias,346
big,347
bigger,348
biggest,349
biggie,350
biking,351
billing,352
bin,353
birthday,354
bit,355
bitten,356
bitter,357
black,358
blamed,359
blanks,360
blast,361
blaster,362
blazing,363
bleeding,364
blessing,365
blind,366
blip,367
blocked,368
blocking,369
bloom,370
blowing,371
blown,372
blows,373
blue,374
bluetooth,375
blunt,376
blurriness,377
blurry,378
boasts,379
boat,380
body,381
bones,382
bonus,383
book,384
booklet,385
bookmark,386
bookmarks,387
books,388
boost,389
boosting,390
bootleg,391
borderuer,392
bore,393
bored,394
boredom,395
born,396
borrow,397
borrowed,398
boss,399
bother,400
bothered,401
bought,402
bounce,403
bounced,404
box,405
boxy,406
boy,407
boyfriend,408
bracket,409
brag,410
brags,411
brainer,412
brand,413
branded,414
brands,415
brass,416
brazil,417
break,418
breakdown,419
breaks,420
breath,421
breathtaking,422
breeze,423
brick,424
brief,425
bright,426
brightly,427
brightness,428
brilliance,429
brilliant,430
brillient,431
bring,432
brisk,433
broke,434
broken,435
broker,436
brother,437
brothers,438
brought,439
browser,440
browsing,441
bruce,442
bruvah,443
btw,444
buck,445
bucks,446
budged,447
budget,448
buffs,449
bug,450
buget,451
build,452
building,453
buildings,454
built,455
bulging,456
bulky,457
bull,458
bullet,459
bummer,460
bumpy,461
bunch,462
bundled,463
buried,464
burn,465
burned,466
burner,467
burning,468
burns,469
burries,470
bus,471
business,472
busy,473
butt,474
button,475
buttons,476
buy,477
buyer,478
buyers,479
buying,480
buys,481
buzz,482
buzzing,483
cabinet,484
cable,485
cables,486
cage,487
cake,488
calendar,489
called,490
caller,491
calling,492
calls,493
camcorder,494
came,495
camea,496
camedia,497
camera,498
cameras,499
campaign,500
camper,501
cancel,502
candles,503
candy,504
canned,505
cannon,506
canon,507
cans,508
cap,509
capabilities,510
capability,511
capable,512
capacity,513
capitalist,514
capture,515
captures,516
car,517
card,518
cards,519
care,520
careful,521
carefully,522
cares,523
carl,524
carpet,525
carrier,526
carriers,527
carries,528
carry,529
carrying,530
case,531
cases,532
cash,533
casing,534
cassette,535
cast,536
catalog,537
catch,538
categories,539
categorizes,540
category,541
cause,542
caused,543
causes,544
causing,545
caution,546
cautious,547
cavity,548
cd,549
cddb,550
cdds,551
cdma,552
cdr,553
cdrw,554
cds,555
ceases,556
ceiling,557
cell,558
cellphone,559
cent,560
center,561
centimeters,562
cents,563
century,564
certain,565
certificate,566
cf,567
chair,568
challenge,569
challenging,570
champagne,571
chance,572
chances,573
changable,574
change,575
changeable,576
changed,577
changes,578
changing,579
chapter,580
charge,581
charged,582
charger,583
charges,584
charging,585
charm,586
cheap,587
cheaper,588
cheapest,589
cheasy,590
check,591
checked,592
checking,593
cheep,594
cheerful,595
cheesiest,596
cheesy,597
chess,598
chic,599
chicago,600
children,601
chinese,602
chip,603
choice,604
choices,605
choose,606
choosing,607
chords,608
chose,609
chosing,610
christmas,611
chrome,612
chucked,613
church,614
cinch,615
cincinnati,616
cingular,617
circles,618
circulation,619
cite,620
claim,621
claiming,622
claims,623
clarity,624
class,625
classic,626
classical,627
classifed,628
classifications,629
classified,630
classify,631
clean,632
cleaned,633
clear,634
clearly,635
clerk,636
click,637
clicking,638
clicks,639
clip,640
clips,641
clock,642
close,643
closed,644
closely,645
closer,646
closest,647
clue,648
clumsy,649
clunky,650
clutter,651
coastal,652
coating,653
coax,654
cocking,655
code,656
codes,657
collaborating,658
collection,659
collections,660
college,661
collisions,662
color,663
coloration,664
colorimetry,665
colors,666
com,667
comaptible,668
combination,669
combined,670
combines,671
combo,672
combos,673
come,674
comes,675
comfortable,676
comfortably,677
comfy,678
coming,679
commander,680
commands,681
comment,682
comments,683
common,684
commonly,685
commutes,686
compact,687
compactflash,688
companies,689
company,690
comparable,691
compare,692
compared,693
comparing,694
comparison,695
compartment,696
compatability,697
compatibility,698
compatible,699
compelled,700
compensate,701
competence,702
competition,703
competitor,704
competitors,705
compilation,706
complain,707
complained,708
complaining,709
complains,710
complaint,711
complaints,712
complete,713
completely,714
completion,715
complex,716
complicated,717
component,718
compose,719
composite,720
compression,721
compromise,722
compromises,723
computer,724
computers,725
concealed,726
concentrate,727
concern,728
concerned,729
concert,730
concerts,731
concluded,732
concludes,733
conclusion,734
condition,735
conditions,736
conducive,737
confidence,738
configurable,739
configure,740
configured,741
confused,742
confusing,743
conjunction,744
connect,745
connected,746
connecting,747
connection,748
connections,749
connectivity,750
connector,751
connetions,752
cons,753
consider,754
considerable,755
consideration,756
considered,757
considering,758
consistantly,759
consistent,760
consistently,761
constant,762
constantly,763
constituants,764
constructed,765
construction,766
consumer,767
consumers,768
consuming,769
contact,770
contacted,771
contacting,772
contacts,773
contenders,774
content,775
continue,776
continued,777
continues,778
continuing,779
continuous,780
continuously,781
contorting,782
contour,783
contours,784
contract,785
contractor,786
contrary,787
contrast,788
control,789
controlling,790
controls,791
contructed,792
convenience,793
conveniences,794
convenient,795
conveniently,796
conversions,797
convert,798
converter,799
converting,800
converts,801
convinced,802
cool,803
coolest,804
coolpix,805
coolpixparsedfourdigits,806
coomes,807
copied,808
copies,809
copy,810
cord,811
corectly,812
corner,813
corners,814
corporate,815
correct,816
corrected,817
correction,818
correctly,819
correspond,820
corrrupted,821
corrupt,822
cost,823
costs,824
couch,825
couldn,826
count,827
counter,828
countertop,829
counting,830
countless,831
countries,832
country,833
couple,834
coupons,835
course,836
courtesy,837
cover,838
coverage,839
covered,840
covers,841
coveted,842
cparsedfourdigitsz,843
crack,844
craftmanship,845
cramp,846
cranky,847
crap,848
crapped,849
crappiness,850
crappy,851
craps,852
craptacular,853
crash,854
crashed,855
crashes,856
crashing,857
crazy,858
create,859
created,860
creates,861
creating,862
creation,863
creative,864
credit,865
cried,866
crisp,867
criticize,868
criticsm,869
critter,870
crop,871
crossing,872
crowded,873
cruising,874
crummy,875
csr,876
ct,877
cubic,878
cumbersome,879
currency,880
current,881
currently,882
currrently,883
curve,884
curvy,885
cust,886
custom,887
customer,888
customers,889
customerservice,890
customizable,891
customization,892
customize,893
cut,894
cute,895
cuzin,896
cvds,897
cycle,898
cycles,899
dad,900
damage,901
damaged,902
damned,903
dampening,904
dandy,905
dangerous,906
dare,907
dark,908
darker,909
darn,910
data,911
database,912
date,913
day,914
daylight,915
days,916
dazzling,917
dcs,918
ddparsedonedigit,919
deactivate,920
dead,921
deadline,922
deafults,923
deal,924
dealing,925
debit,926
decade,927
december,928
decent,929
decibles,930
decide,931
decided,932
deciding,933
decision,934
deck,935
dedicated,936
default,937
defaulted,938
defaults,939
defeats,940
defective,941
defectively,942
defects,943
deficient,944
definately,945
defined,946
definitely,947
degrees,948
delay,949
delays,950
delete,951
deleted,952
deleting,953
delicate,954
delighted,955
deliver,956
delivered,957
delivers,958
delivery,959
dell,960
demand,961
demands,962
den,963
denial,964
dennis,965
dense,966
density,967
dent,968
department,969
dependable,970
depending,971
depends,972
depressed,973
depressing,974
depressingly,975
dept,976
depth,977
describing,978
description,979
descussion,980
deserves,981
design,982
designed,983
designing,984
desire,985
desk,986
despite,987
destroy,988
destroyed,989
destructed,990
detachable,991
details,992
detectable,993
detecting,994
determine,995
determined,996
detract,997
detracts,998
detroit,999
devastated,1000
developed,1001
developing,1002
development,1003
develops,1004
device,1005
devices,1006
diagnos,1007
diagnose,1008
dial,1009
dialing,1010
dialogue,1011
did,1012
didn,1013
didnt,1014
die,1015
died,1016
dies,1017
difference,1018
differences,1019
different,1020
differential,1021
differing,1022
difficult,1023
difficulties,1024
difficulty,1025
diggin,1026
digi,1027
digicam,1028
digicams,1029
digital,1030
dim,1031
dimage,1032
dimished,1033
diopter,1034
direct,1035
direction,1036
directions,1037
directly,1038
directory,1039
dirty,1040
dis,1041
disable,1042
disadvantages,1043
disapointed,1044
disappeared,1045
disappoint,1046
disappointed,1047
disappointing,1048
disappointment,1049
disc,1050
discount,1051
discoutinous,1052
discover,1053
discovered,1054
discovering,1055
discovery,1056
discs,1057
disdain,1058
disgusted,1059
disipointed,1060
disk,1061
disks,1062
dislikes,1063
disney,1064
display,1065
displayed,1066
displaying,1067
displays,1068
disposable,1069
dissapears,1070
dissapointed,1071
dissapointment,1072
dissapointments,1073
dissappointed,1074
dissatisified,1075
dissuade,1076
distance,1077
distorted,1078
distortion,1079
distraction,1080
disturbance,1081
disturbing,1082
ditties,1083
divided,1084
division,1085
divx,1086
dock,1087
docking,1088
document,1089
documentation,1090
documented,1091
documents,1092
does,1093
doesn,1094
doesnt,1095
dog,1096
dogs,1097
doing,1098
dollar,1099
dollars,1100
dominant,1101
don,1102
donkey,1103
donno,1104
dont,1105
door,1106
double,1107
doubler,1108
doubles,1109
doubt,1110
doubts,1111
downer,1112
downfall,1113
downladed,1114
download,1115
downloadable,1116
downloaded,1117
downloading,1118
downloads,1119
downside,1120
dozen,1121
dozens,1122
dparsedthreedigitss,1123
dpreview,1124
dpreviews,1125
drag,1126
dragging,1127
drain,1128
drains,1129
drastically,1130
drawback,1131
drawbacks,1132
drawer,1133
dream,1134
drive,1135
driver,1136
drivers,1137
drives,1138
driving,1139
drop,1140
dropped,1141
dropping,1142
drops,1143
drove,1144
dry,1145
dsc,1146
dsf,1147
dts,1148
du,1149
dual,1150
ducking,1151
dull,1152
dumb,1153
dummy,1154
dumps,1155
duper,1156
duplicate,1157
duplicates,1158
durability,1159
durable,1160
duration,1161
dust,1162
dutch,1163
dvd,1164
dvdr,1165
dvdrw,1166
dvds,1167
dye,1168
dying,1169
dynamic,1170
eamil,1171
ear,1172
earbuds,1173
earlier,1174
early,1175
earnest,1176
earphone,1177
earphones,1178
earpice,1179
earpiece,1180
ears,1181
ease,1182
easier,1183
easiest,1184
easily,1185
east,1186
easy,1187
eat,1188
eax,1189
ebay,1190
eclectic,1191
ect,1192
edge,1193
edges,1194
edit,1195
editing,1196
effect,1197
effective,1198
effort,1199
eh,1200
eject,1201
elderly,1202
electricity,1203
electronic,1204
electronics,1205
elegant,1206
eliminate,1207
eliminated,1208
elments,1209
elph,1210
elphs,1211
elses,1212
elusive,1213
em,1214
email,1215
emailed,1216
emailing,1217
emails,1218
embarassing,1219
embarrassed,1220
embedded,1221
employees,1222
enable,1223
enabled,1224
enables,1225
enabling,1226
enclose,1227
enclosed,1228
encode,1229
encoded,1230
encoding,1231
encounter,1232
encountered,1233
end,1234
ended,1235
endless,1236
endlessly,1237
ends,1238
engage,1239
engery,1240
engine,1241
engineer,1242
engineered,1243
engineering,1244
english,1245
engorged,1246
enhancement,1247
enhancing,1248
enjoy,1249
enjoyed,1250
enjoying,1251
enjoyment,1252
enjoys,1253
enlarge,1254
enlarging,1255
enormous,1256
enought,1257
ensure,1258
ensuring,1259
enter,1260
entering,1261
entertaining,1262
enthusiast,1263
enthusiastic,1264
enthusiastically,1265
entire,1266
entries,1267
entry,1268
envied,1269
environment,1270
environmental,1271
environments,1272
eos,1273
epinions,1274
episodes,1275
eq,1276
equal,1277
equalizer,1278
equally,1279
equipment,1280
equipped,1281
equivalent,1282
ergonomical,1283
ergonomics,1284
ericsson,1285
error,1286
errors,1287
erros,1288
especially,1289
essentially,1290
established,1291
estate,1292
estimate,1293
ethernet,1294
euphoria,1295
europe,1296
european,1297
evaluated,1298
evaulate,1299
evening,1300
event,1301
eventhough,1302
eventually,1303
eventualy,1304
everythig,1305
evils,1306
evolve,1307
ex,1308
exactly,1309
exaggerated,1310
example,1311
exceeded,1312
exceedingly,1313
excel,1314
excellent,1315
exception,1316
exceptional,1317
excessive,1318
exchange,1319
excited,1320
exclusively,1321
excuse,1322
exhaustive,1323
exhibited,1324
exhustive,1325
exist,1326
existing,1327
expecct,1328
expect,1329
expectation,1330
expectations,1331
expected,1332
expecting,1333
expedited,1334
expense,1335
expensive,1336
experience,1337
experienced,1338
experiment,1339
experimented,1340
experimenting,1341
experince,1342
expert,1343
expire,1344
expired,1345
expires,1346
explain,1347
explained,1348
explains,1349
exploit,1350
explored,1351
explorer,1352
exposed,1353
exposure,1354
exposures,1355
extemely,1356
extended,1357
extension,1358
extensive,1359
extensively,1360
external,1361
extra,1362
extraneous,1363
extras,1364
extreme,1365
extremely,1366
eye,1367
eyed,1368
eyeing,1369
eyesight,1370
ez,1371
fabulous,1372
face,1373
faceplate,1374
faceplates,1375
fact,1376
factor,1377
factoring,1378
factors,1379
factory,1380
faded,1381
fail,1382
failed,1383
failing,1384
fails,1385
failure,1386
fair,1387
fairly,1388
faithfully,1389
fall,1390
falling,1391
falls,1392
false,1393
familiar,1394
family,1395
familyplan,1396
famous,1397
fan,1398
fans,1399
fantasic,1400
fantastic,1401
fantastically,1402
fantasy,1403
far,1404
fashioned,1405
fast,1406
faster,1407
father,1408
fault,1409
faulty,1410
fav,1411
favor,1412
favorite,1413
fax,1414
fe,1415
fear,1416
feature,1417
featured,1418
features,1419
february,1420
fed,1421
feed,1422
feedback,1423
feel,1424
feeling,1425
feelings,1426
feels,1427
feet,1428
fell,1429
fellow,1430
felt,1431
fetch,1432
fiddling,1433
field,1434
fields,1435
fifty,1436
figure,1437
figured,1438
figures,1439
file,1440
filecount,1441
filenames,1442
files,1443
fileviewer,1444
filing,1445
filled,1446
filling,1447
fillmore,1448
film,1449
filter,1450
filters,1451
finally,1452
finder,1453
finding,1454
fine,1455
finer,1456
finest,1457
finger,1458
fingers,1459
finicky,1460
finish,1461
finished,1462
fired,1463
firewire,1464
firmware,1465
fisher,1466
fit,1467
fits,1468
fix,1469
fixed,1470
fixes,1471
fixing,1472
fizzled,1473
flagship,1474
flaky,1475
flash,1476
flashes,1477
flashy,1478
flat,1479
flaw,1480
flawed,1481
flawless,1482
flawlessly,1483
flaws,1484
flew,1485
flexibility,1486
flexible,1487
flight,1488
flimsy,1489
flip,1490
flowers,1491
fluid,1492
fly,1493
flyball,1494
flywheel,1495
fm,1496
focal,1497
focus,1498
focused,1499
focusing,1500
focussing,1501
folder,1502
folders,1503
folks,1504
follow,1505
followed,1506
following,1507
fool,1508
fooled,1509
foot,1510
force,1511
forced,1512
foreign,1513
foremost,1514
forests,1515
forever,1516
forewarned,1517
forget,1518
forgo,1519
forgot,1520
forgotten,1521
form,1522
format,1523
formats,1524
formatted,1525
formatting,1526
forth,1527
fortunately,1528
fortune,1529
forward,1530
fparsedonedigit,1531
fparsedthreedigits,1532
fraction,1533
fragile,1534
frame,1535
free,1536
freeway,1537
freeze,1538
freezes,1539
freezing,1540
frend,1541
frequent,1542
frequently,1543
fried,1544
friend,1545
friendlier,1546
friendly,1547
friends,1548
fringing,1549
froze,1550
frozen,1551
frustrated,1552
frustrating,1553
frustration,1554
ft,1555
fully,1556
fumble,1557
fun,1558
func,1559
function,1560
functional,1561
functionality,1562
functions,1563
funky,1564
funny,1565
funtion,1566
fussy,1567
future,1568
gadget,1569
gadgets,1570
gain,1571
gaining,1572
gains,1573
gallery,1574
game,1575
games,1576
gap,1577
garbage,1578
garbling,1579
gave,1580
gb,1581
gear,1582
geared,1583
geeky,1584
gem,1585
general,1586
generally,1587
generate,1588
generated,1589
generation,1590
generations,1591
genre,1592
genres,1593
gentlest,1594
german,1595
gets,1596
getting,1597
ghz,1598
gift,1599
gifts,1600
gig,1601
gigabyte,1602
gigabytes,1603
gigantic,1604
gigs,1605
girl,1606
girlfriend,1607
given,1608
gives,1609
giving,1610
gizmo,1611
glad,1612
glance,1613
glaring,1614
glass,1615
glaze,1616
glinting,1617
glitches,1618
glitters,1619
globally,1620
glove,1621
glow,1622
glowing,1623
goddam,1624
goddaughter,1625
goes,1626
going,1627
gold,1628
golden,1629
gon,1630
gone,1631
good,1632
goodness,1633
goofy,1634
google,1635
got,1636
goth,1637
gotted,1638
gotten,1639
gparsedonedigit,1640
gprs,1641
grab,1642
gracenotes,1643
grade,1644
grain,1645
grainy,1646
grand,1647
grandma,1648
grandmother,1649
granted,1650
graphics,1651
gravitated,1652
gray,1653
great,1654
greater,1655
greatest,1656
green,1657
grieps,1658
grip,1659
gripe,1660
groovy,1661
grossly,1662
group,1663
groups,1664
grow,1665
gsm,1666
gsmparsedthreedigits,1667
guarantee,1668
guess,1669
guessing,1670
guide,1671
guides,1672
gut,1673
guy,1674
gym,1675
habit,1676
hacked,1677
hacks,1678
hadn,1679
haggard,1680
half,1681
halfway,1682
hand,1683
handbag,1684
handbags,1685
handed,1686
handle,1687
handles,1688
hands,1689
handset,1690
handsets,1691
handsfree,1692
handy,1693
hang,1694
hanging,1695
hangs,1696
happen,1697
happened,1698
happens,1699
happier,1700
happily,1701
happy,1702
hard,1703
harddisk,1704
harder,1705
hardest,1706
hardly,1707
hardware,1708
harm,1709
hasn,1710
hassle,1711
hate,1712
hates,1713
haul,1714
haven,1715
havent,1716
having,1717
havoc,1718
hazard,1719
hazy,1720
hazzles,1721
hd,1722
hdd,1723
hddparsedthreedigits,1724
hdtv,1725
head,1726
headache,1727
headaches,1728
headed,1729
headfone,1730
heading,1731
headphone,1732
headphones,1733
heads,1734
headset,1735
health,1736
hear,1737
heard,1738
hearing,1739
heart,1740
heartedly,1741
heaven,1742
heavier,1743
heaviest,1744
heavily,1745
heavy,1746
heck,1747
heed,1748
heft,1749
held,1750
hell,1751
hellishly,1752
help,1753
helped,1754
helpful,1755
helps,1756
hendrix,1757
herd,1758
hesitant,1759
hesitation,1760
hey,1761
hi,1762
hick,1763
hidden,1764
hides,1765
high,1766
higher,1767
highest,1768
highlights,1769
highly,1770
hinderance,1771
hinged,1772
hint,1773
hip,1774
hipster,1775
hiss,1776
hissing,1777
history,1778
hit,1779
hitch,1780
hits,1781
hitting,1782
ho,1783
hobbiest,1784
hold,1785
holding,1786
holds,1787
hole,1788
holiday,1789
home,1790
homely,1791
homework,1792
honestly,1793
hook,1794
hooked,1795
hooking,1796
hoome,1797
hooray,1798
hope,1799
hoped,1800
hopefully,1801
hopes,1802
hoping,1803
horoscopes,1804
horrendous,1805
horrible,1806
horribly,1807
hot,1808
hotkey,1809
hour,1810
hours,1811
house,1812
hovewer,1813
hrs,1814
http,1815
huge,1816
hum,1817
hundreds,1818
hurdles,1819
hurry,1820
hurt,1821
hurts,1822
husband,1823
hype,1824
hyped,1825
ibm,1826
ibook,1827
ice,1828
icing,1829
iconoclast,1830
id,1831
ide,1832
idea,1833
ideal,1834
ideas,1835
identical,1836
identified,1837
identify,1838
identifying,1839
idiot,1840
idparsedonedigit,1841
idparsedonedigitvparseddigits,1842
ignorant,1843
ignore,1844
ignored,1845
iguazu,1846
ihp,1847
ii,1848
ill,1849
illiterate,1850
illuminates,1851
im,1852
image,1853
images,1854
imagine,1855
imaging,1856
imho,1857
immaterial,1858
immediately,1859
immense,1860
imo,1861
impatient,1862
import,1863
important,1864
imports,1865
impossible,1866
impossibly,1867
impress,1868
impressed,1869
impression,1870
impressive,1871
improve,1872
improved,1873
improvement,1874
improves,1875
inbox,1876
inbuilt,1877
inch,1878
inches,1879
incident,1880
inclined,1881
include,1882
included,1883
includes,1884
including,1885
inconveinent,1886
inconveniences,1887
inconvenient,1888
incorrect,1889
increadably,1890
increase,1891
increased,1892
incredibe,1893
incredible,1894
incredibly,1895
indestructibility,1896
indicate,1897
indicated,1898
indicator,1899
indirect,1900
indistinguishable,1901
individualized,1902
individually,1903
indoor,1904
inept,1905
inexpensive,1906
inferior,1907
infinitely,1908
info,1909
information,1910
informed,1911
infrared,1912
infuriating,1913
initial,1914
initially,1915
innovative,1916
inoperable,1917
inordinate,1918
input,1919
inputparsedonedigit,1920
insanely,1921
insert,1922
inserted,1923
insertion,1924
inside,1925
insisting,1926
inspection,1927
inspired,1928
instability,1929
install,1930
installation,1931
installed,1932
installing,1933
installs,1934
instance,1935
instances,1936
instant,1937
instantly,1938
instead,1939
instincts,1940
instruction,1941
instructions,1942
instruments,1943
insure,1944
insurmoutable,1945
integrated,1946
integrates,1947
intend,1948
intended,1949
intense,1950
intent,1951
interacts,1952
interested,1953
interesting,1954
interface,1955
interfacing,1956
interference,1957
interferes,1958
interlace,1959
internal,1960
international,1961
internationally,1962
internet,1963
interruption,1964
intrested,1965
introduce,1966
intuitive,1967
invest,1968
investigating,1969
investing,1970
investment,1971
involved,1972
involves,1973
ion,1974
iphoto,1975
ipod,1976
ipodders,1977
ipods,1978
ipodsdirtysecret,1979
ir,1980
irda,1981
iriver,1982
irivers,1983
irony,1984
irriation,1985
isacc,1986
isn,1987
isnt,1988
iso,1989
isolated,1990
issue,1991
issues,1992
italian,1993
item,1994
items,1995
ithave,1996
itunes,1997
ive,1998
jack,1999
jacks,2000
jan,2001
january,2002
java,2003
jazz,2004
jet,2005
jimi,2006
jme,2007
job,2008
jobs,2009
joe,2010
jog,2011
jogger,2012
jogging,2013
join,2014
joined,2015
joke,2016
jones,2017
jour,2018
journey,2019
jpeg,2020
jpegs,2021
jpgs,2022
judgement,2023
juice,2024
jukebox,2025
jukeboxed,2026
jukeboxes,2027
july,2028
jumping,2029
junk,2030
junky,2031
just,2032
justify,2033
jvc,2034
karma,2035
karoake,2036
kbps,2037
keen,2038
keepers,2039
keeping,2040
keeps,2041
kenny,2042
kentucky,2043
kept,2044
key,2045
keychain,2046
keying,2047
keypad,2048
keypads,2049
keys,2050
kicks,2051
kid,2052
kids,2053
kill,2054
killer,2055
kind,2056
kinda,2057
kingston,2058
kitchen,2059
kits,2060
knew,2061
knife,2062
knob,2063
knock,2064
knocked,2065
knockoff,2066
know,2067
knowing,2068
knowledge,2069
known,2070
knows,2071
kodak,2072
korean,2073
koreans,2074
kpbs,2075
kudos,2076
kuwait,2077
lab,2078
labled,2079
labor,2080
labs,2081
lack,2082
lacking,2083
lacks,2084
lag,2085
laid,2086
lame,2087
landed,2088
landscape,2089
language,2090
languages,2091
lap,2092
laptop,2093
large,2094
larger,2095
lasted,2096
lasting,2097
lastly,2098
lasts,2099
latch,2100
late,2101
later,2102
latest,2103
latitude,2104
launched,2105
laundry,2106
layer,2107
layout,2108
lazy,2109
lcd,2110
lead,2111
leading,2112
learn,2113
learned,2114
learning,2115
lease,2116
leather,2117
leave,2118
leaving,2119
lebovitz,2120
led,2121
left,2122
leg,2123
legendary,2124
legit,2125
legitimate,2126
leica,2127
lemon,2128
len,2129
length,2130
lengthy,2131
lens,2132
lense,2133
lenses,2134
lensmateonline,2135
lesser,2136
lesson,2137
let,2138
lets,2139
letterbox,2140
level,2141
levels,2142
lever,2143
lexar,2144
li,2145
library,2146
lid,2147
lie,2148
life,2149
lifespan,2150
lifted,2151
light,2152
lighter,2153
lighting,2154
lightingfast,2155
lightly,2156
lightweight,2157
like,2158
liked,2159
likely,2160
likes,2161
liking,2162
likings,2163
lil,2164
limit,2165
limitations,2166
limited,2167
limits,2168
line,2169
lines,2170
link,2171
linked,2172
lip,2173
lips,2174
list,2175
listed,2176
listen,2177
listened,2178
listener,2179
listening,2180
listing,2181
listings,2182
lists,2183
lit,2184
literature,2185
lithium,2186
litium,2187
little,2188
live,2189
living,2190
ll,2191
lmost,2192
load,2193
loaded,2194
loading,2195
loads,2196
local,2197
locate,2198
located,2199
locating,2200
location,2201
locations,2202
lock,2203
locked,2204
locking,2205
locks,2206
log,2207
logged,2208
logically,2209
lol,2210
lonely,2211
long,2212
longer,2213
longest,2214
longevity,2215
look,2216
looked,2217
looking,2218
looks,2219
loose,2220
los,2221
lose,2222
losing,2223
loss,2224
lost,2225
lot,2226
lots,2227
loud,2228
lousy,2229
love,2230
loved,2231
lovers,2232
loves,2233
loving,2234
low,2235
lower,2236
lowest,2237
lparsedfourdigits,2238
lttle,2239
luck,2240
lucky,2241
lug,2242
lugging,2243
lumix,2244
lump,2245
lunch,2246
luxury,2247
lying,2248
lyra,2249
mac,2250
machine,2251
machinery,2252
machines,2253
macro,2254
macrovision,2255
mad,2256
magazines,2257
magnesium,2258
magnification,2259
mail,2260
mailing,2261
mails,2262
main,2263
mainly,2264
major,2265
majority,2266
make,2267
maker,2268
makes,2269
making,2270
man,2271
manage,2272
managed,2273
manager,2274
managing,2275
manipulate,2276
manner,2277
manual,2278
manually,2279
manufactured,2280
manufacturer,2281
manufacturers,2282
manufacturing,2283
manuver,2284
march,2285
marked,2286
market,2287
marketing,2288
markup,2289
marriage,2290
martian,2291
marvel,2292
mass,2293
massive,2294
mastered,2295
match,2296
material,2297
math,2298
matter,2299
matters,2300
mature,2301
matured,2302
max,2303
maximum,2304
maybe,2305
mayybe,2306
mb,2307
mbyte,2308
mean,2309
meaning,2310
means,2311
meant,2312
measly,2313
mechanically,2314
mechanics,2315
mechanism,2316
media,2317
mediaplay,2318
mediaplayer,2319
mediasource,2320
medical,2321
mediocre,2322
medium,2323
meet,2324
mega,2325
megabyte,2326
megapixel,2327
megapixels,2328
members,2329
memories,2330
memorized,2331
memory,2332
mention,2333
mentioned,2334
mentions,2335
menu,2336
menus,2337
merchant,2338
mess,2339
message,2340
messages,2341
messed,2342
messenger,2343
messing,2344
met,2345
meta,2346
metal,2347
metallic,2348
meter,2349
metering,2350
method,2351
methods,2352
metrics,2353
metz,2354
mhz,2355
microdrive,2356
microdrives,2357
microseconds,2358
microsoft,2359
midi,2360
mighty,2361
miles,2362
mind,2363
mini,2364
minilux,2365
minimal,2366
minimize,2367
minolta,2368
minor,2369
mins,2370
minus,2371
minute,2372
minutes,2373
minutest,2374
mirror,2375
mirrors,2376
misfortune,2377
miss,2378
missed,2379
missing,2380
mistake,2381
mix,2382
mixed,2383
mixing,2384
mls,2385
mm,2386
mms,2387
mo,2388
mobile,2389
mode,2390
model,2391
models,2392
modem,2393
moderate,2394
moderately,2395
modern,2396
modes,2397
modify,2398
module,2399
mom,2400
moment,2401
moments,2402
mon,2403
money,2404
monitor,2405
monster,2406
monstrosity,2407
month,2408
months,2409
mooooooh,2410
moot,2411
morning,2412
mortar,2413
motivate,2414
motor,2415
motorola,2416
motorolla,2417
mountain,2418
mounted,2419
moveable,2420
movement,2421
movie,2422
movies,2423
moving,2424
mp,2425
mparsedonedigitu,2426
mpeg,2427
mpegparsedonedigit,2428
mpparsedonedigit,2429
mpparsedonedigits,2430
ms,2431
mtc,2432
multi,2433
multidisk,2434
multiformat,2435
multilple,2436
multimedia,2437
multiple,2438
multitude,2439
murals,2440
murphy,2441
music,2442
musical,2443
musicmatch,2444
muvo,2445
myriad,2446
na,2447
nah,2448
names,2449
napster,2450
narrowed,2451
national,2452
nations,2453
natural,2454
naturally,2455
navigate,2456
navigating,2457
navigation,2458
navigational,2459
navigator,2460
naysayers,2461
near,2462
nearly,2463
neat,2464
neccessary,2465
necessarily,2466
necessary,2467
neck,2468
need,2469
needed,2470
needing,2471
needless,2472
needs,2473
negative,2474
negatives,2475
net,2476
network,2477
neutral,2478
new,2479
newbies,2480
newer,2481
newly,2482
nice,2483
nicely,2484
nicer,2485
nicest,2486
nicities,2487
night,2488
nightmare,2489
nikon,2490
nirvana,2491
nits,2492
noise,2493
noiseless,2494
noises,2495
nokia,2496
nokias,2497
nokiausa,2498
nomad,2499
nomadness,2500
nomadworld,2501
non,2502
nonetheless,2503
nonexistant,2504
nonflip,2505
nonresponsive,2506
normal,2507
northern,2508
notch,2509
note,2510
notebook,2511
noted,2512
notice,2513
noticeable,2514
noticeably,2515
noticed,2516
noting,2517
notmad,2518
november,2519
novice,2520
nparsedtwodigits,2521
nparsedtwodigitss,2522
ntsc,2523
nudge,2524
number,2525
numbering,2526
numbers,2527
numbskulls,2528
numerous,2529
nuts,2530
nx,2531
objections,2532
objects,2533
obscures,2534
observed,2535
obstacle,2536
obstruct,2537
obstructed,2538
obstructs,2539
obtain,2540
obtainable,2541
obtaining,2542
obvious,2543
obviously,2544
occaisions,2545
occasion,2546
occasional,2547
occasionally,2548
occasions,2549
occludes,2550
occur,2551
occurrences,2552
occurs,2553
odd,2554
oddities,2555
offensive,2556
offer,2557
offered,2558
offering,2559
offers,2560
office,2561
officemax,2562
offsets,2563
oh,2564
ok,2565
okay,2566
okayed,2567
old,2568
older,2569
olympus,2570
onceagain,2571
ones,2572
onkyo,2573
online,2574
onscreen,2575
ooh,2576
open,2577
opened,2578
opening,2579
operate,2580
operates,2581
operating,2582
operation,2583
operator,2584
operators,2585
opinion,2586
opinions,2587
opposed,2588
oppressed,2589
opted,2590
optic,2591
optical,2592
optics,2593
optimized,2594
option,2595
optional,2596
options,2597
orange,2598
orchestra,2599
order,2600
ordered,2601
ordering,2602
organization,2603
organize,2604
organized,2605
organizer,2606
organizing,2607
oriented,2608
original,2609
originally,2610
os,2611
ot,2612
otherdigicam,2613
ounces,2614
outdoor,2615
outfitters,2616
outlet,2617
outlook,2618
outnumber,2619
outperforms,2620
output,2621
outputs,2622
outs,2623
outstanding,2624
outtakes,2625
outweigh,2626
outweighed,2627
outweighs,2628
overall,2629
overloaded,2630
overlook,2631
overly,2632
overpriced,2633
overrides,2634
overseas,2635
oversight,2636
overused,2637
overview,2638
overworked,2639
overwrite,2640
owned,2641
owner,2642
owners,2643
owning,2644
oz,2645
pace,2646
pack,2647
package,2648
packaged,2649
packed,2650
packing,2651
packs,2652
page,2653
pages,2654
paid,2655
pain,2656
painless,2657
paintball,2658
pair,2659
pairs,2660
pal,2661
pales,2662
palm,2663
paltry,2664
panasonic,2665
panasonics,2666
pancakes,2667
panel,2668
panoramic,2669
pants,2670
paper,2671
paperweight,2672
par,2673
parallax,2674
parent,2675
parents,2676
park,2677
parseddigits,2678
parseddigitsgb,2679
parseddigitsmb,2680
parseddigitsmp,2681
parseddigitsx,2682
parsedfivedigits,2683
parsedfourdigits,2684
parsedfourdigitsc,2685
parsedfourdigitss,2686
parsedfourdigitsx,2687
parsedfourdigitsxparseddigits,2688
parsedonedigit,2689
parsedonedigita,2690
parsedonedigitapexgo,2691
parsedonedigitft,2692
parsedonedigitgb,2693
parsedonedigitgz,2694
parsedonedigitk,2695
parsedonedigitlb,2696
parsedonedigitm,2697
parsedonedigitmb,2698
parsedonedigitmp,2699
parsedonedigitnd,2700
parsedonedigitrd,2701
parsedonedigits,2702
parsedonedigitst,2703
parsedonedigitth,2704
parsedonedigitx,2705
parsedonedigitxparsedtwodigits,2706
parsedthreedigits,2707
parsedthreedigitsbps,2708
parsedthreedigitskb,2709
parsedthreedigitskbps,2710
parsedthreedigitskbs,2711
parsedthreedigitsmb,2712
parsedthreedigitsmeg,2713
parsedthreedigitsv,2714
parsedtwodigits,2715
parsedtwodigitscl,2716
parsedtwodigitsdb,2717
parsedtwodigitsg,2718
parsedtwodigitsgb,2719
parsedtwodigitshrs,2720
parsedtwodigitsin,2721
parsedtwodigitsk,2722
parsedtwodigitsmb,2723
parsedtwodigitsmm,2724
parsedtwodigitsst,2725
parsedtwodigitsth,2726
parsedtwodigitsusd,2727
parsedtwodigitsx,2728
partially,2729
particular,2730
particularly,2731
parties,2732
parts,2733
party,2734
pass,2735
past,2736
patches,2737
patience,2738
patient,2739
pause,2740
pay,2741
paying,2742
pb,2743
pc,2744
pcs,2745
pda,2746
pdf,2747
peace,2748
peers,2749
peice,2750
penny,2751
pentium,2752
people,2753
percent,2754
perceptible,2755
perfect,2756
perfection,2757
perfectly,2758
perform,2759
performance,2760
performer,2761
performs,2762
period,2763
peripheral,2764
permanently,2765
person,2766
persona,2767
personal,2768
personally,2769
personnel,2770
perspective,2771
phenomenon,2772
philips,2773
phone,2774
phonebook,2775
phones,2776
photo,2777
photograph,2778
photographer,2779
photographers,2780
photographic,2781
photographs,2782
photography,2783
photorealistic,2784
photos,2785
photoshop,2786
photostich,2787
photosuite,2788
physical,2789
pic,2790
picasa,2791
pick,2792
picked,2793
picking,2794
pickup,2795
pics,2796
picture,2797
pictured,2798
picturers,2799
pictures,2800
pie,2801
piece,2802
pieces,2803
pig,2804
piggy,2805
pillowside,2806
pim,2807
pin,2808
pinch,2809
pioneer,2810
pitch,2811
pitched,2812
pitiful,2813
pix,2814
pixel,2815
pixels,2816
place,2817
placed,2818
places,2819
plain,2820
plan,2821
plane,2822
planes,2823
planning,2824
plans,2825
plastic,2826
plasticky,2827
plate,2828
play,2829
playback,2830
played,2831
player,2832
players,2833
playing,2834
playlist,2835
playlists,2836
plays,2837
pleaded,2838
pleased,2839
pleasing,2840
plenty,2841
plopping,2842
plug,2843
plugged,2844
plunge,2845
plus,2846
plusses,2847
pocket,2848
pockets,2849
pod,2850
point,2851
pointed,2852
points,2853
policy,2854
polymer,2855
polymorphic,2856
polyphonic,2857
poor,2858
poorly,2859
pop,2860
poping,2861
popped,2862
popping,2863
pops,2864
popular,2865
populate,2866
port,2867
portable,2868
portrait,2869
portraits,2870
pos,2871
poser,2872
position,2873
positions,2874
positive,2875
positives,2876
possibilities,2877
possible,2878
possibly,2879
post,2880
postage,2881
posted,2882
posters,2883
posts,2884
potential,2885
potentially,2886
pouch,2887
power,2888
powered,2889
powerful,2890
powerhouse,2891
powering,2892
powershot,2893
practically,2894
practice,2895
practices,2896
praise,2897
pre,2898
predecessor,2899
predict,2900
prefer,2901
preference,2902
preferences,2903
preferred,2904
premanent,2905
premium,2906
prepaid,2907
prepared,2908
present,2909
presents,2910
presets,2911
press,2912
pressed,2913
pressing,2914
pressure,2915
prettier,2916
pretty,2917
prev,2918
prevent,2919
preview,2920
previews,2921
previous,2922
previously,2923
price,2924
priced,2925
prices,2926
pricey,2927
pricing,2928
primarily,2929
primary,2930
prime,2931
print,2932
printed,2933
printer,2934
printing,2935
prints,2936
prior,2937
priority,2938
pro,2939
prob,2940
probably,2941
problem,2942
problems,2943
probly,2944
probram,2945
proceeded,2946
process,2947
processed,2948
processing,2949
produce,2950
produced,2951
produces,2952
product,2953
production,2954
products,2955
profession,2956
professional,2957
professionally,2958
profile,2959
progam,2960
program,2961
programming,2962
programs,2963
progress,2964
progressive,2965
promised,2966
promps,2967
prompt,2968
promptly,2969
prone,2970
proof,2971
proper,2972
properly,2973
propietary,2974
proprietary,2975
pros,2976
prospective,2977
protect,2978
protection,2979
protective,2980
protector,2981
protects,2982
prove,2983
proven,2984
proverbial,2985
provide,2986
provided,2987
provider,2988
provides,2989
providing,2990
pry,2991
ps,2992
pseudo,2993
psparsedonedigit,2994
psychidelic,2995
public,2996
pull,2997
pulled,2998
pulling,2999
pulls,3000
pup,3001
puppies,3002
purchase,3003
purchased,3004
purchasing,3005
pure,3006
purple,3007
purpose,3008
purposes,3009
push,3010
pushed,3011
pushing,3012
puts,3013
puzzles,3014
quad,3015
qualities,3016
quality,3017
quarter,3018
queried,3019
question,3020
questioned,3021
questions,3022
quibble,3023
quick,3024
quicker,3025
quickly,3026
quicky,3027
quiet,3028
quieter,3029
quietly,3030
quirks,3031
quirky,3032
quit,3033
quite,3034
qulaity,3035
quote,3036
ra,3037
rack,3038
rad,3039
radio,3040
raise,3041
ral,3042
ram,3043
ran,3044
random,3045
range,3046
rank,3047
rapid,3048
rapidly,3049
rare,3050
rarely,3051
rate,3052
rated,3053
rates,3054
rating,3055
ratio,3056
raw,3057
razor,3058
rca,3059
reach,3060
reachable,3061
read,3062
readable,3063
reader,3064
readers,3065
readily,3066
reading,3067
reads,3068
ready,3069
real,3070
realation,3071
realistic,3072
reality,3073
realize,3074
realized,3075
realizes,3076
really,3077
rear,3078
reason,3079
reasonable,3080
reasonably,3081
reasons,3082
rebate,3083
rebates,3084
reboot,3085
rebooted,3086
rec,3087
recall,3088
receipt,3089
receive,3090
received,3091
receiver,3092
receivers,3093
receives,3094
receiving,3095
recent,3096
recently,3097
reception,3098
rechargable,3099
recharge,3100
rechargeable,3101
recharged,3102
recharger,3103
recharges,3104
recharging,3105
rechargings,3106
recieved,3107
recogmend,3108
recognize,3109
recognized,3110
recognizes,3111
recognizing,3112
recomend,3113
recommend,3114
recommendation,3115
recommendations,3116
recommended,3117
recomment,3118
record,3119
recorder,3120
recording,3121
records,3122
recored,3123
recreate,3124
rectangular,3125
recycling,3126
red,3127
redchair,3128
redeye,3129
redhat,3130
redwood,3131
refer,3132
referred,3133
reflected,3134
reflects,3135
refreshing,3136
refund,3137
refunded,3138
refunds,3139
refuse,3140
refused,3141
refuses,3142
regard,3143
regards,3144
region,3145
regional,3146
register,3147
registered,3148
regret,3149
regrets,3150
regular,3151
rejected,3152
relation,3153
relatively,3154
relax,3155
release,3156
released,3157
releases,3158
releasing,3159
relevant,3160
reliability,3161
reliable,3162
reliance,3163
relies,3164
reloaded,3165
rely,3166
remain,3167
remainder,3168
remaining,3169
remarkable,3170
remember,3171
reminded,3172
remixes,3173
remorse,3174
remote,3175
remotes,3176
removable,3177
remove,3178
removed,3179
rename,3180
renaming,3181
rendered,3182
rendering,3183
renewal,3184
rent,3185
rental,3186
rented,3187
rep,3188
repaing,3189
repair,3190
repairs,3191
repeat,3192
repeated,3193
repeatedly,3194
replacable,3195
replace,3196
replaceable,3197
replaced,3198
replacement,3199
replaces,3200
replacing,3201
repleace,3202
replies,3203
replug,3204
reply,3205
replying,3206
report,3207
reported,3208
reports,3209
repost,3210
representative,3211
represents,3212
reproduced,3213
reps,3214
reputable,3215
reputation,3216
requested,3217
requesting,3218
require,3219
required,3220
requirements,3221
requires,3222
res,3223
rescue,3224
research,3225
researched,3226
researching,3227
resellers,3228
resent,3229
reservations,3230
reset,3231
resilience,3232
resol,3233
resolution,3234
resolutions,3235
resolve,3236
resolves,3237
reson,3238
resources,3239
respect,3240
respected,3241
respond,3242
responded,3243
response,3244
responses,3245
responsible,3246
responsive,3247
rest,3248
resting,3249
result,3250
resulted,3251
resulting,3252
results,3253
retail,3254
retailer,3255
retailers,3256
retention,3257
retraction,3258
return,3259
returned,3260
returning,3261
returns,3262
revamp,3263
reveiws,3264
reversed,3265
review,3266
reviewed,3267
reviewer,3268
reviewers,3269
reviews,3270
revised,3271
revive,3272
rewind,3273
rice,3274
rich,3275
ricksters,3276
rid,3277
ridculously,3278
rides,3279
ridges,3280
ridicule,3281
ridiculous,3282
right,3283
ring,3284
ringer,3285
ringing,3286
rings,3287
ringtones,3288
rio,3289
riovolt,3290
rip,3291
ripped,3292
ripper,3293
ripping,3294
rips,3295
risk,3296
rma,3297
road,3298
roam,3299
roaming,3300
robust,3301
rock,3302
rocks,3303
rolls,3304
rom,3305
roof,3306
room,3307
rooms,3308
rotates,3309
rotation,3310
roughly,3311
round,3312
route,3313
routinely,3314
roxxorz,3315
rs,3316
rubber,3317
rugged,3318
ruggedly,3319
ruin,3320
ruining,3321
ruins,3322
rule,3323
run,3324
runner,3325
running,3326
runs,3327
rush,3328
rv,3329
rw,3330
saavy,3331
sacrifice,3332
sad,3333
sadoun,3334
said,3335
sais,3336
sale,3337
sales,3338
salesperson,3339
sample,3340
samsung,3341
sandisk,3342
sanyo,3343
satellite,3344
satisfaction,3345
satisfactory,3346
satisfied,3347
saturated,3348
saturday,3349
saturdays,3350
save,3351
saved,3352
saver,3353
saves,3354
saving,3355
savour,3356
saw,3357
say,3358
saying,3359
says,3360
sca,3361
scan,3362
scanned,3363
scans,3364
scary,3365
scene,3366
scenes,3367
schemes,3368
school,3369
science,3370
scored,3371
scouting,3372
scoying,3373
scratch,3374
scratched,3375
scratches,3376
screen,3377
screens,3378
screensaver,3379
screensavers,3380
screwed,3381
screwing,3382
scroll,3383
scrolling,3384
scrollwheel,3385
se,3386
seach,3387
seamless,3388
search,3389
searched,3390
searches,3391
searching,3392
season,3393
seated,3394
sec,3395
second,3396
seconds,3397
section,3398
secure,3399
seeing,3400
seek,3401
seeking,3402
seen,3403
seldom,3404
select,3405
selectable,3406
selected,3407
selection,3408
selections,3409
selectively,3410
selects,3411
self,3412
sell,3413
seller,3414
selling,3415
sells,3416
semi,3417
send,3418
sending,3419
sends,3420
sense,3421
sensibilities,3422
sensitive,3423
sensitivity,3424
sensor,3425
sent,3426
sep,3427
separate,3428
separated,3429
separately,3430
seperated,3431
seperately,3432
series,3433
seriously,3434
seriousness,3435
serve,3436
server,3437
serves,3438
service,3439
services,3440
servicing,3441
set,3442
sets,3443
setting,3444
settings,3445
settled,3446
settling,3447
setup,3448
sexy,3449
sh,3450
shade,3451
shadow,3452
shadows,3453
shake,3454
shaking,3455
shaky,3456
shame,3457
shape,3458
shapes,3459
share,3460
sharing,3461
sharp,3462
sharper,3463
sharpness,3464
sheer,3465
shelf,3466
shelling,3467
shelves,3468
shifting,3469
shine,3470
shines,3471
shining,3472
shiny,3473
ship,3474
shipped,3475
shipping,3476
ships,3477
shock,3478
shocked,3479
shoddy,3480
shoe,3481
shoot,3482
shooting,3483
shoots,3484
shop,3485
shopped,3486
shopping,3487
short,3488
shortcoming,3489
shortcomings,3490
shortcut,3491
shot,3492
shots,3493
shoulder,3494
shouldn,3495
showing,3496
shown,3497
shows,3498
shudder,3499
shuffle,3500
shut,3501
shutter,3502
shutting,3503
shuttle,3504
sick,3505
sides,3506
siemens,3507
sigh,3508
sign,3509
signal,3510
signals,3511
signed,3512
significant,3513
significantly,3514
silent,3515
silver,3516
silverish,3517
sim,3518
similar,3519
similarily,3520
simm,3521
simple,3522
simpler,3523
simplest,3524
simpletech,3525
simply,3526
sinc,3527
single,3528
sister,3529
sit,3530
site,3531
sites,3532
sitting,3533
situation,3534
situational,3535
situations,3536
size,3537
sized,3538
skill,3539
skills,3540
skimped,3541
skip,3542
skipping,3543
skips,3544
slave,3545
sleek,3546
sleep,3547
slice,3548
slick,3549
slideshows,3550
sliding,3551
slightly,3552
sligtly,3553
slim,3554
slip,3555
slots,3556
slow,3557
slower,3558
slowing,3559
slowly,3560
slparsedtwodigits,3561
slr,3562
slrs,3563
small,3564
smaller,3565
smallest,3566
smart,3567
smell,3568
smoke,3569
smooth,3570
smoothly,3571
snap,3572
snapped,3573
snapping,3574
sniffer,3575
snooze,3576
snow,3577
snug,3578
snuggly,3579
socks,3580
software,3581
sold,3582
soldiers,3583
solely,3584
solid,3585
solidly,3586
solution,3587
solved,3588
somethings,3589
somewhat,3590
song,3591
songs,3592
sony,3593
sonys,3594
soom,3595
soon,3596
sooner,3597
sooooo,3598
sophisticated,3599
sorry,3600
sort,3601
sorta,3602
sorting,3603
sorts,3604
sound,3605
soundblaster,3606
soundcard,3607
sounded,3608
sounding,3609
sounds,3610
source,3611
sources,3612
south,3613
sp,3614
space,3615
spaced,3616
spam,3617
span,3618
spare,3619
sparklers,3620
sparsedthreedigits,3621
sparsedtwodigits,3622
speak,3623
speaker,3624
speakerphone,3625
speakers,3626
speakphone,3627
special,3628
specific,3629
specifically,3630
specified,3631
specs,3632
spectacular,3633
speculation,3634
speed,3635
speeding,3636
speedlite,3637
speeds,3638
spend,3639
spending,3640
spent,3641
spills,3642
spin,3643
splitter,3644
splurge,3645
spoke,3646
sporadic,3647
sports,3648
spot,3649
spots,3650
spotted,3651
springsteen,3652
sprint,3653
squarer,3654
squashed,3655
squeeze,3656
srs,3657
stability,3658
stable,3659
stack,3660
stage,3661
staggering,3662
stainless,3663
stains,3664
stamp,3665
stand,3666
standard,3667
standards,3668
standby,3669
standing,3670
stands,3671
star,3672
stare,3673
stars,3674
start,3675
started,3676
starter,3677
starting,3678
starts,3679
state,3680
states,3681
static,3682
station,3683
stations,3684
stats,3685
stay,3686
stayed,3687
staying,3688
stays,3689
steadily,3690
steady,3691
steal,3692
steel,3693
steep,3694
stem,3695
stems,3696
step,3697
steps,3698
stereo,3699
stevesdigicams,3700
stiching,3701
stick,3702
sticks,3703
sticky,3704
stil,3705
stink,3706
stinks,3707
stitch,3708
stitching,3709
stn,3710
stock,3711
stolen,3712
stone,3713
stop,3714
stopaction,3715
stoppage,3716
stopped,3717
stopping,3718
stoppped,3719
stopwatch,3720
storage,3721
store,3722
stored,3723
stores,3724
story,3725
straight,3726
strange,3727
strap,3728
stream,3729
street,3730
strength,3731
strengths,3732
stress,3733
stretch,3734
stretches,3735
strictly,3736
strike,3737
strikes,3738
strong,3739
structurally,3740
structure,3741
structured,3742
stuck,3743
stucked,3744
stucks,3745
stucture,3746
study,3747
stuff,3748
stuffff,3749
stuffs,3750
stunned,3751
stunning,3752
sturdy,3753
style,3754
styling,3755
stylish,3756
sub,3757
subcategory,3758
subfolders,3759
subject,3760
subjects,3761
subnotebook,3762
subs,3763
subscriber,3764
subsequent,3765
subsidizes,3766
substance,3767
substandard,3768
substitute,3769
subtle,3770
suburbs,3771
subway,3772
success,3773
successfully,3774
succession,3775
suck,3776
sucka,3777
suckers,3778
sucks,3779
suddenly,3780
suffers,3781
suggest,3782
suggested,3783
suggesting,3784
suggestion,3785
suing,3786
suit,3787
suite,3788
summarize,3789
summary,3790
summation,3791
summer,3792
sun,3793
sunset,3794
super,3795
superb,3796
superfluous,3797
superior,3798
supplied,3799
supplier,3800
supply,3801
support,3802
supported,3803
supports,3804
suppose,3805
supposed,3806
suprised,3807
suprisingly,3808
sure,3809
surely,3810
surf,3811
surface,3812
surfing,3813
suroundings,3814
surpassed,3815
surpasses,3816
surprise,3817
surprised,3818
surprising,3819
surprisingly,3820
surreal,3821
survey,3822
survive,3823
suspect,3824
svcd,3825
svcds,3826
swap,3827
swear,3828
sweet,3829
swiss,3830
switch,3831
switched,3832
switches,3833
switching,3834
symbols,3835
symphony,3836
sync,3837
synchronization,3838
synchronized,3839
synchronizing,3840
syncing,3841
synopsis,3842
tab,3843
tabbed,3844
table,3845
tad,3846
tag,3847
tagged,3848
tagging,3849
tags,3850
taken,3851
takes,3852
taking,3853
tale,3854
talk,3855
talked,3856
talkers,3857
talking,3858
talks,3859
tank,3860
task,3861
tax,3862
teach,3863
teamed,3864
teases,3865
tech,3866
techie,3867
technical,3868
technician,3869
technologies,3870
technology,3871
tedious,3872
teen,3873
teeny,3874
teh,3875
telephone,3876
telephoto,3877
television,3878
tell,3879
telling,3880
telll,3881
tells,3882
tempi,3883
temporary,3884
tend,3885
term,3886
terms,3887
terrible,3888
terribly,3889
terrific,3890
test,3891
tested,3892
testing,3893
text,3894
thank,3895
thankfully,3896
thanks,3897
thats,3898
theater,3899
theirs,3900
theres,3901
theyve,3902
thicker,3903
thier,3904
thing,3905
things,3906
thingy,3907
think,3908
thinking,3909
thinks,3910
tho,3911
thought,3912
thousands,3913
thrilled,3914
throw,3915
thrown,3916
thumb,3917
thumbdrive,3918
thumbs,3919
thusfar,3920
ti,3921
tid,3922
tiff,3923
tightly,3924
tigt,3925
till,3926
tilt,3927
tilted,3928
time,3929
timely,3930
timers,3931
times,3932
tinker,3933
tiny,3934
tip,3935
tips,3936
tire,3937
title,3938
titles,3939
tmobile,3940
tmobiles,3941
today,3942
toggle,3943
told,3944
toll,3945
tom,3946
tomorrow,3947
ton,3948
tonal,3949
tone,3950
tones,3951
tons,3952
took,3953
tool,3954
topnotch,3955
tops,3956
torture,3957
toshiba,3958
toshibas,3959
tossed,3960
total,3961
totally,3962
touch,3963
touched,3964
touchpad,3965
touchups,3966
tough,3967
toy,3968
tparsedthreedigits,3969
tparsedthreedigitsi,3970
track,3971
tracking,3972
tracks,3973
trade,3974
tradeoff,3975
traditional,3976
tragic,3977
train,3978
transer,3979
transfer,3980
transfered,3981
transferes,3982
transfering,3983
transferred,3984
transferring,3985
transfers,3986
transmitter,3987
transmitters,3988
transport,3989
trash,3990
travel,3991
traveling,3992
travelled,3993
travelling,3994
travesty,3995
tray,3996
treat,3997
tree,3998
tremendous,3999
trendy,4000
tri,4001
trial,4002
tricky,4003
tried,4004
tries,4005
trigger,4006
trilliums,4007
trip,4008
tripod,4009
trips,4010
trouble,4011
troubles,4012
troubleshooting,4013
troublesome,4014
truck,4015
true,4016
truly,4017
trumps,4018
trunk,4019
trust,4020
trusted,4021
try,4022
trying,4023
tune,4024
tunecast,4025
tuner,4026
tunes,4027
tungsten,4028
turn,4029
turnaround,4030
turned,4031
turning,4032
turns,4033
tv,4034
tvs,4035
tw,4036
twain,4037
tweaking,4038
tweakings,4039
twice,4040
twist,4041
txt,4042
type,4043
types,4044
typical,4045
typically,4046
typifies,4047
ugly,4048
ui,4049
uk,4050
ultimate,4051
ultimately,4052
ultra,4053
umm,4054
unable,4055
unacceptably,4056
unaccustomed,4057
unbeatable,4058
unbelievably,4059
unchangeable,4060
uncomfortable,4061
uncomplicated,4062
unconventional,4063
uncreative,4064
uncritical,4065
undeliverable,4066
underestimate,4067
underrated,4068
understand,4069
understandable,4070
understood,4071
underutilized,4072
undone,4073
undoubtedly,4074
uneasy,4075
unequivocably,4076
uneven,4077
unfilled,4078
unfortunately,4079
unforutnately,4080
unhelpful,4081
unique,4082
unit,4083
units,4084
univ,4085
universal,4086
universally,4087
unknown,4088
unless,4089
unlike,4090
unlimited,4091
unlisted,4092
unlock,4093
unlocked,4094
unlucky,4095
unmatched,4096
unnecessary,4097
unnerving,4098
unnoticed,4099
unplayable,4100
unpleasant,4101
unpredictable,4102
unreservedly,4103
unsatisfactory,4104
unspecified,4105
unsteady,4106
unusable,4107
unwrapped,4108
update,4109
updated,4110
updates,4111
updating,4112
upgrade,4113
upgraded,4114
upgrading,4115
upload,4116
uploaded,4117
uploading,4118
uploads,4119
upper,4120
ups,4121
upto,4122
ur,4123
urban,4124
urgent,4125
url,4126
usa,4127
usability,4128
usage,4129
usb,4130
use,4131
useable,4132
used,4133
useful,4134
useless,4135
user,4136
users,4137
uses,4138
using,4139
usual,4140
usually,4141
utility,4142
utilized,4143
utilizes,4144
utterly,4145
uv,4146
vacation,4147
vacationing,4148
valid,4149
valuable,4150
value,4151
vanished,4152
variable,4153
variation,4154
variations,4155
variety,4156
various,4157
vary,4158
varying,4159
vast,4160
vastly,4161
vcd,4162
vcds,4163
vcr,4164
ve,4165
vectis,4166
vegas,4167
vendor,4168
verify,4169
verizon,4170
versa,4171
versatile,4172
version,4173
versions,4174
versus,4175
veteran,4176
veterans,4177
viable,4178
vibrant,4179
vibrate,4180
vibration,4181
vice,4182
video,4183
videos,4184
view,4185
viewable,4186
viewed,4187
viewfinder,4188
viewing,4189
views,4190
viking,4191
virtually,4192
visa,4193
visable,4194
visceral,4195
visible,4196
visiting,4197
visual,4198
visuals,4199
vivid,4200
vmparsedfourdigits,4201
vob,4202
voice,4203
voids,4204
volkswagen,4205
volume,4206
voucher,4207
vs,4208
wait,4209
waiting,4210
wake,4211
waking,4212
walk,4213
walkman,4214
wall,4215
wallet,4216
wallpaper,4217
wallpapers,4218
walls,4219
walmart,4220
wan,4221
want,4222
wanted,4223
wanting,4224
wants,4225
wap,4226
wardrobe,4227
warn,4228
warned,4229
warning,4230
warnings,4231
warranty,4232
warrenty,4233
warrranty,4234
wary,4235
wash,4236
washed,4237
washing,4238
wasn,4239
wasnt,4240
wast,4241
waste,4242
wasted,4243
wat,4244
watch,4245
watched,4246
watching,4247
wave,4248
way,4249
ways,4250
weak,4251
weaknesses,4252
wear,4253
weather,4254
web,4255
website,4256
websites,4257
week,4258
weekdays,4259
weekend,4260
weekm,4261
weeks,4262
weigh,4263
weighed,4264
weighs,4265
weight,4266
weighty,4267
weird,4268
weirdest,4269
went,4270
weren,4271
whatsoever,4272
whe,4273
wheel,4274
whichever,4275
whihc,4276
whine,4277
whirl,4278
whistles,4279
white,4280
whoa,4281
wicked,4282
wide,4283
widely,4284
widescreen,4285
wife,4286
wildlife,4287
wildly,4288
willing,4289
willingness,4290
win,4291
winamp,4292
wind,4293
window,4294
windows,4295
winner,4296
winning,4297
winparsedtwodigits,4298
winter,4299
winxp,4300
wipe,4301
wiped,4302
wipes,4303
wireless,4304
wires,4305
wise,4306
wish,4307
wma,4308
wolla,4309
won,4310
wonder,4311
wonderful,4312
wont,4313
word,4314
words,4315
work,4316
workaround,4317
worked,4318
workin,4319
working,4320
works,4321
workstation,4322
world,4323
worldphone,4324
worried,4325
worrying,4326
worse,4327
worst,4328
worth,4329
worthwhile,4330
worthwile,4331
woth,4332
wouldn,4333
wouldnt,4334
wow,4335
wrist,4336
write,4337
writing,4338
written,4339
wrong,4340
wrote,4341
www,4342
xacto,4343
xmass,4344
xp,4345
xparsedthreedigits,4346
xparsedtwodigits,4347
xtra,4348
ya,4349
yeah,4350
year,4351
years,4352
yells,4353
yep,4354
yes,4355
yesterday,4356
yield,4357
yielded,4358
yo,4359
youd,4360
youre,4361
yoursound,4362
youve,4363
zeiss,4364
zen,4365
zennx,4366
zens,4367
zero,4368
zillion,4369
zip,4370
zone,4371
zones,4372
zoom,4373
zooming,4374
zooms,4375
zx,4376
