___________________________,0
_______________________________,1
_____________________________________________,2
aaaahhhhhh,3
abandon,4
abbas,5
abducted,6
abhorrent,7
ability,8
able,9
abode,10
abolutely,11
aboriginal,12
aboroginals,13
aborogine,14
abortion,15
abraham,16
abroad,17
abrogate,18
abrogated,19
abrupt,20
absence,21
absense,22
absolute,23
absolutely,24
absolution,25
absurd,26
abu,27
abundant,28
abuse,29
abused,30
abusing,31
abysmally,32
academies,33
accept,34
acceptable,35
acceptance,36
accepted,37
accepting,38
access,39
accessible,40
accident,41
accommodate,42
according,43
accordingly,44
account,45
accounted,46
accounts,47
accurate,48
accusation,49
accusations,50
accused,51
accusing,52
acer,53
acheive,54
achieve,55
achieving,56
acknowleged,57
acquire,58
act,59
acted,60
acting,61
action,62
actions,63
activist,64
activity,65
acts,66
actual,67
actualisation,68
actually,69
acumen,70
acuses,71
acxts,72
ad,73
add,74
added,75
additionally,76
additionsal,77
address,78
addressed,79
addresses,80
addressing,81
adds,82
adduce,83
adequate,84
adjust,85
admin,86
administartion,87
administators,88
administration,89
administrative,90
administrators,91
admire,92
admit,93
admitted,94
admitting,95
adolescence,96
adulation,97
adulthood,98
adults,99
advance,100
advanced,101
advances,102
advantage,103
adventure,104
advert,105
advertise,106
advisers,107
advocate,108
advocating,109
afair,110
affair,111
affairs,112
affect,113
affinity,114
afflicting,115
afford,116
afghan,117
afghanistan,118
afghans,119
afraid,120
africa,121
african,122
afrikaaner,123
afrikaaners,124
age,125
agency,126
agenda,127
agendas,128
ages,129
aggression,130
aggressive,131
ago,132
agree,133
agreed,134
agreeing,135
agreement,136
agreements,137
agrees,138
ah,139
ahead,140
ahh,141
ahmadinejihad,142
aid,143
aiejrlsk,144
aim,145
aimed,146
aims,147
aina,148
air,149
aircraft,150
airlines,151
airport,152
airports,153
airwaves,154
akin,155
al,156
alan,157
alans,158
alaska,159
albeit,160
albert,161
albright,162
alcohol,163
ales,164
ali,165
aliens,166
alike,167
alive,168
aliya,169
aljazeera,170
allah,171
allegations,172
alleged,173
allegedly,174
alliance,175
allied,176
allience,177
allies,178
alloted,179
allow,180
allowed,181
allowing,182
allows,183
allude,184
alluding,185
ally,186
alongside,187
alot,188
alright,189
alternating,190
alternatively,191
altogether,192
amaze,193
amazed,194
amazing,195
ambassador,196
ambitions,197
amd,198
amendment,199
america,200
american,201
americancivilians,202
americans,203
americas,204
amerindian,205
amerindians,206
amigo,207
amnesty,208
amodel,209
amounted,210
amounts,211
amp,212
amsterdam,213
amusement,214
analagous,215
analogies,216
analysis,217
anarchists,218
anarchy,219
ancestors,220
ancestral,221
ancestry,222
ancient,223
andrea,224
andy,225
angel,226
angela,227
angeles,228
angels,229
anger,230
angle,231
angles,232
anglia,233
anglicans,234
angola,235
angry,236
animals,237
anne,238
annexing,239
annhialate,240
annihilation,241
anniversary,242
annon,243
announce,244
announced,245
annoyed,246
annoying,247
annual,248
anothers,249
anothr,250
answer,251
answered,252
answering,253
answers,254
antagonistic,255
anthony,256
anthropological,257
anti,258
antibiotics,259
antineocon,260
anybody,261
anymore,262
anythig,263
anytime,264
apart,265
apartheid,266
apartheit,267
apartment,268
aperthied,269
apologies,270
apologise,271
apologists,272
apologize,273
apology,274
appalled,275
appalling,276
apparent,277
apparently,278
appealed,279
appear,280
appeared,281
appears,282
appease,283
appeasers,284
appeases,285
applauded,286
apple,287
apples,288
applicable,289
apply,290
applying,291
appointments,292
appolo,293
appreciate,294
apprehension,295
approach,296
approached,297
approaching,298
approval,299
approve,300
approving,301
approx,302
april,303
aquaintance,304
arab,305
arabia,306
arabians,307
arabic,308
arabs,309
arafat,310
arbitray,311
arbs,312
arch,313
architects,314
archives,315
area,316
areas,317
aren,318
arent,319
argentina,320
argue,321
argued,322
arguements,323
argues,324
arguing,325
argument,326
arguments,327
ariel,328
arm,329
armed,330
armenian,331
armies,332
arms,333
army,334
arnie,335
aropund,336
arranged,337
arrest,338
arrested,339
arriving,340
arrogance,341
arrogant,342
arrow,343
arse,344
arsenals,345
art,346
article,347
articles,348
articulately,349
artificial,350
aryans,351
asa,352
asdf,353
ashanti,354
asia,355
asian,356
asians,357
aside,358
ask,359
asked,360
asking,361
aspect,362
aspirate,363
aspirational,364
aspirations,365
aspire,366
asprin,367
assasination,368
assault,369
assembly,370
assert,371
asserted,372
assesement,373
assess,374
assimilate,375
assimilated,376
assimilation,377
assist,378
assistance,379
associate,380
associated,381
association,382
assume,383
assumed,384
assuming,385
assumption,386
assumptions,387
assure,388
astonished,389
astonishing,390
astute,391
aswell,392
ataturk,393
atheist,394
atlast,395
atleast,396
atom,397
atomic,398
atothez,399
atrocities,400
attack,401
attacked,402
attacking,403
attacks,404
attain,405
attempt,406
attempting,407
attempts,408
attention,409
attest,410
attire,411
attitude,412
attitudes,413
attorney,414
attract,415
attracted,416
attraction,417
attracts,418
attributable,419
attribute,420
attributing,421
audiance,422
august,423
austarlia,424
australia,425
australians,426
austria,427
austrians,428
authorities,429
authority,430
authors,431
automobile,432
available,433
availed,434
avalible,435
avenge,436
average,437
aviv,438
avoid,439
avoided,440
avoiding,441
await,442
awaiting,443
award,444
aware,445
away,446
awe,447
awful,448
axe,449
axegrinder,450
ay,451
az,452
azania,453
azar,454
aziz,455
baader,456
baathists,457
babies,458
baby,459
babysitting,460
backed,461
background,462
backing,463
backwater,464
bad,465
badly,466
baffles,467
bagdad,468
baghdad,469
bailiffs,470
bajore,471
balance,472
balancing,473
balfour,474
bali,475
balkan,476
ball,477
ballot,478
balls,479
ban,480
bang,481
banging,482
bank,483
bankers,484
bankruptcy,485
bankstown,486
banned,487
banning,488
bar,489
barabism,490
barack,491
barbados,492
barbaric,493
barbarism,494
bargain,495
barking,496
barmy,497
barrier,498
bartering,499
base,500
baseball,501
based,502
baseless,503
bases,504
basest,505
bashing,506
basic,507
basically,508
basics,509
basiji,510
basis,511
basra,512
bat,513
battles,514
batttle,515
bay,516
bbc,517
beach,518
beaches,519
bear,520
bearded,521
bearing,522
bears,523
beating,524
beats,525
beause,526
beautiful,527
becuase,528
bed,529
beeb,530
began,531
beggars,532
begger,533
begging,534
begin,535
beginning,536
begs,537
beharry,538
behave,539
behaved,540
behaving,541
behavior,542
behaviour,543
beheading,544
behold,545
beings,546
beirut,547
belfer,548
belgiium,549
belief,550
beliefs,551
belies,552
believe,553
believed,554
believers,555
believes,556
believing,557
belittle,558
belived,559
bellicose,560
belly,561
belong,562
belonging,563
belongs,564
belt,565
ben,566
bending,567
beneath,568
benefit,569
benefits,570
bennnett,571
benz,572
berlusconi,573
bertie,574
best,575
bested,576
bet,577
bethlehem,578
betrays,579
better,580
bho,581
bias,582
big,583
bigger,584
biggest,585
bigot,586
bigoted,587
bigotry,588
bigots,589
bigotted,590
billion,591
billions,592
bills,593
bin,594
binoculars,595
bird,596
birds,597
birth,598
bit,599
bitch,600
bites,601
bits,602
bizarre,603
black,604
blackburn,605
blacks,606
blah,607
blair,608
blairparsedonedigit,609
blame,610
blamed,611
blames,612
blaming,613
blast,614
blatant,615
blatantly,616
blatter,617
bleat,618
bleeding,619
blending,620
blessing,621
blew,622
bliar,623
blind,624
blindly,625
blindness,626
blocade,627
blockaded,628
blocks,629
blood,630
bloodletting,631
bloodshed,632
bloody,633
blow,634
blowing,635
blows,636
blue,637
blurt,638
bnp,639
board,640
boarded,641
boarders,642
boards,643
boat,644
body,645
bogus,646
bolshevik,647
bolster,648
bolton,649
bomb,650
bombarded,651
bombardment,652
bombardments,653
bombed,654
bomber,655
bombers,656
bombing,657
bombings,658
bombs,659
bon,660
bones,661
bonhoeffer,662
bonuses,663
boo,664
book,665
boom,666
booming,667
booms,668
boosting,669
boot,670
booth,671
boots,672
bordeauxparsedtwodigits,673
border,674
bordering,675
borders,676
bore,677
boring,678
boris,679
born,680
borrower,681
bother,682
bothered,683
bothering,684
bottle,685
bought,686
bouncy,687
bound,688
boundaries,689
boundary,690
bowing,691
bowl,692
bownding,693
box,694
boy,695
boycott,696
boycotting,697
boydavey,698
boys,699
brain,700
brainwashed,701
branch,702
branded,703
brandon,704
brats,705
brave,706
bravery,707
brazeness,708
brazil,709
breach,710
break,711
breaker,712
breakfast,713
breaking,714
breaks,715
breasts,716
breath,717
breslan,718
brewers,719
briatain,720
bribe,721
bribes,722
bribing,723
brick,724
brigade,725
brilliant,726
bring,727
bringing,728
brings,729
brit,730
britain,731
britains,732
britan,733
britian,734
british,735
britishness,736
britons,737
brits,738
broadcast,739
broke,740
broken,741
bronx,742
brother,743
brothers,744
brought,745
brown,746
brunt,747
brush,748
brutal,749
brutally,750
bs,751
btw,752
bud,753
buddhist,754
buddy,755
budget,756
buggars,757
build,758
building,759
buildings,760
built,761
bulgaria,762
bull,763
bum,764
bummed,765
bumpkins,766
bunch,767
bunfight,768
bunker,769
bunkers,770
burden,771
bureaucracy,772
buried,773
burka,774
burma,775
burn,776
bus,777
bush,778
business,779
busses,780
busy,781
button,782
buy,783
buying,784
bwahaha,785
bye,786
cabal,787
cabinet,788
cable,789
caesar,790
cafe,791
cafes,792
cafta,793
cahvez,794
cake,795
calais,796
calculating,797
calendar,798
calf,799
californian,800
caliphite,801
called,802
calling,803
calls,804
cambodia,805
came,806
camera,807
camouflage,808
camp,809
campagain,810
campaign,811
campare,812
camps,813
campus,814
canaanintes,815
canaanite,816
canada,817
canadafreepress,818
canadian,819
canadians,820
cancel,821
cancer,822
candidates,823
candle,824
cannanites,825
canons,826
cap,827
capability,828
capable,829
capital,830
capitalist,831
capitalists,832
capitol,833
caps,834
captainlogic,835
car,836
care,837
cared,838
careful,839
carefully,840
cares,841
carolina,842
carpet,843
carried,844
carry,845
carrying,846
cars,847
cartel,848
carter,849
carthy,850
carthyism,851
cartoon,852
cartoons,853
case,854
cases,855
cash,856
casinos,857
castro,858
casualties,859
casualty,860
cat,861
catch,862
categories,863
category,864
catering,865
cathars,866
cathch,867
catholic,868
cats,869
caught,870
cause,871
caused,872
causes,873
causing,874
ceacefire,875
cease,876
ceased,877
ceasefire,878
ceding,879
celebration,880
celebrations,881
celebrity,882
cell,883
cellar,884
cells,885
celt,886
censorship,887
cent,888
center,889
central,890
centred,891
centres,892
centuries,893
century,894
certai,895
certain,896
certainly,897
chain,898
chair,899
chairs,900
challenge,901
challenged,902
chance,903
chancellor,904
chances,905
change,906
changed,907
changes,908
changing,909
channel,910
chaos,911
chap,912
chapel,913
chapin,914
chapter,915
character,916
characterful,917
characterise,918
characterised,919
characters,920
charge,921
charged,922
charges,923
charismatic,924
charities,925
charity,926
charlesi,927
charters,928
chashews,929
chat,930
chavez,931
cheap,932
cheat,933
check,934
checks,935
cheddi,936
cheek,937
cheered,938
cheering,939
cheerleaders,940
cheese,941
chemical,942
cheney,943
chest,944
chicago,945
chicken,946
chief,947
child,948
childhood,949
childish,950
childline,951
children,952
childs,953
china,954
chinese,955
chipmaker,956
chips,957
choeung,958
choice,959
choices,960
choke,961
chomsky,962
choose,963
choosen,964
chooses,965
choosing,966
choosy,967
chopped,968
chore,969
chose,970
chosen,971
christ,972
christian,973
christianity,974
christians,975
christinaity,976
christmas,977
christrainanti,978
chritians,979
chrsitian,980
chucked,981
chunck,982
chunk,983
chunks,984
church,985
churches,986
churchill,987
cia,988
cientific,989
cigar,990
circle,991
circles,992
circling,993
circumstance,994
circumstances,995
circus,996
cite,997
cited,998
cities,999
citizen,1000
citizens,1001
citizenship,1002
city,1003
civil,1004
civilian,1005
civilians,1006
civilisation,1007
civilised,1008
civillian,1009
civilzed,1010
claim,1011
claimed,1012
claiming,1013
claims,1014
clamp,1015
clap,1016
clapped,1017
clarification,1018
clarify,1019
class,1020
classics,1021
classrooms,1022
claudius,1023
clause,1024
clean,1025
cleanse,1026
cleansed,1027
clear,1028
cleared,1029
clearly,1030
clergy,1031
clever,1032
cliche,1033
cliches,1034
client,1035
cling,1036
clinton,1037
clip,1038
clocks,1039
close,1040
closed,1041
closely,1042
closet,1043
closure,1044
clould,1045
clout,1046
clue,1047
clueless,1048
clumsily,1049
cluster,1050
clutching,1051
cnn,1052
coal,1053
coalition,1054
coastal,1055
codes,1056
coexistence,1057
coffee,1058
coffin,1059
cohabitate,1060
coherent,1061
cohesion,1062
coin,1063
coincidence,1064
coinciding,1065
coins,1066
cojones,1067
colaboration,1068
cold,1069
coleman,1070
collaborated,1071
collaboration,1072
collaborators,1073
collapses,1074
collateral,1075
collection,1076
collectively,1077
collide,1078
colneljihadist,1079
colonalism,1080
colonel,1081
colonelartist,1082
colonial,1083
colonialism,1084
colonialists,1085
colonised,1086
colonists,1087
colonized,1088
colonizers,1089
colours,1090
columbia,1091
column,1092
columnist,1093
com,1094
coma,1095
combat,1096
combatants,1097
combatting,1098
combined,1099
combing,1100
come,1101
comes,1102
comfortable,1103
comfortably,1104
comforting,1105
comical,1106
coming,1107
command,1108
commemorated,1109
commemorations,1110
comment,1111
comments,1112
commercial,1113
commies,1114
commission,1115
commit,1116
commits,1117
committed,1118
committee,1119
committing,1120
committment,1121
common,1122
communication,1123
communing,1124
communism,1125
communist,1126
communists,1127
communities,1128
community,1129
companies,1130
company,1131
comparatively,1132
compare,1133
compared,1134
compares,1135
comparing,1136
comparison,1137
compass,1138
compassionate,1139
compassionately,1140
compensated,1141
compensation,1142
competed,1143
competent,1144
competition,1145
competitive,1146
competitor,1147
competitors,1148
complain,1149
complained,1150
complaining,1151
complaint,1152
complaints,1153
complete,1154
completely,1155
compliant,1156
comply,1157
comprehension,1158
comprised,1159
compromises,1160
computer,1161
computers,1162
concatenate,1163
conceal,1164
concede,1165
concentrated,1166
concentration,1167
concept,1168
concepts,1169
concern,1170
concerned,1171
concerning,1172
concerns,1173
concesions,1174
conclude,1175
conclusion,1176
conclusions,1177
condaleeza,1178
condemn,1179
condemnation,1180
condemned,1181
condemning,1182
condescending,1183
condiderate,1184
conditions,1185
condone,1186
condones,1187
conduct,1188
conducted,1189
conference,1190
confession,1191
confident,1192
confirmed,1193
conflict,1194
conflicts,1195
confronted,1196
confronts,1197
confuse,1198
confused,1199
confuses,1200
confusing,1201
congrats,1202
congratulations,1203
congress,1204
conjecture,1205
connections,1206
connects,1207
conny,1208
conquer,1209
conquered,1210
conquest,1211
cons,1212
consent,1213
consequence,1214
consequences,1215
consequent,1216
consequently,1217
conservative,1218
consider,1219
considerably,1220
consideration,1221
considered,1222
considering,1223
consistency,1224
consistent,1225
consistently,1226
consists,1227
consolidation,1228
conspiracy,1229
constant,1230
constitute,1231
constitutional,1232
constitutionally,1233
construction,1234
constructively,1235
consulate,1236
consult,1237
consulted,1238
contact,1239
contain,1240
containing,1241
contains,1242
contaminated,1243
contemporary,1244
contempory,1245
conten,1246
context,1247
continent,1248
continously,1249
continually,1250
continue,1251
continued,1252
continues,1253
continuously,1254
continuum,1255
contract,1256
contradiction,1257
contradictions,1258
contrary,1259
contrast,1260
contray,1261
contribute,1262
contributed,1263
contributes,1264
contributions,1265
contributors,1266
contrived,1267
control,1268
controlled,1269
controlling,1270
controversial,1271
conveniant,1272
convenient,1273
convention,1274
conventional,1275
conversations,1276
convert,1277
conveys,1278
convicted,1279
convictions,1280
convince,1281
convinced,1282
convoy,1283
cool,1284
cooperation,1285
cope,1286
copenhagen,1287
copied,1288
copies,1289
coppeliadee,1290
core,1291
corner,1292
corporate,1293
corporation,1294
corpus,1295
correct,1296
corrected,1297
correction,1298
correctly,1299
correlation,1300
correspondent,1301
corrupt,1302
corruption,1303
cos,1304
cost,1305
costed,1306
cough,1307
couldn,1308
council,1309
count,1310
counter,1311
counterargument,1312
counterparts,1313
counterpoints,1314
counting,1315
countries,1316
countruies,1317
country,1318
countrymen,1319
coup,1320
couple,1321
courage,1322
courageous,1323
course,1324
court,1325
courtesy,1326
courting,1327
courts,1328
cousin,1329
cousins,1330
cover,1331
coverage,1332
covered,1333
covering,1334
cowardly,1335
cowboy,1336
cowboys,1337
cows,1338
cp,1339
crackling,1340
crackpot,1341
cracks,1342
cradle,1343
crane,1344
crap,1345
crass,1346
crazy,1347
create,1348
created,1349
creating,1350
creation,1351
creatures,1352
credence,1353
credit,1354
creeping,1355
creole,1356
crescent,1357
cretin,1358
crime,1359
crimes,1360
criminal,1361
criminalised,1362
criminals,1363
cripple,1364
crisis,1365
crisps,1366
cristian,1367
critical,1368
criticise,1369
criticised,1370
criticising,1371
criticism,1372
criticize,1373
criticizing,1374
critique,1375
critise,1376
cronies,1377
crook,1378
crooked,1379
cross,1380
crossbones,1381
crossed,1382
crossing,1383
crucial,1384
crusade,1385
crush,1386
crushed,1387
crying,1388
ctoo,1389
cuba,1390
cuban,1391
culprit,1392
cult,1393
cultural,1394
culture,1395
cultures,1396
cure,1397
curious,1398
current,1399
currently,1400
cushion,1401
cusp,1402
custom,1403
customs,1404
cut,1405
cute,1406
cuts,1407
cybersoldiers,1408
cyprus,1409
czech,1410
dad,1411
daddy,1412
dag,1413
dag_petersen,1414
dagnarius,1415
daily,1416
damage,1417
damages,1418
damned,1419
damnocrasy,1420
dandy,1421
dane,1422
danes,1423
danger,1424
dangerous,1425
dangers,1426
danish,1427
dare,1428
darfour,1429
darfur,1430
daring,1431
dark,1432
darn,1433
dart,1434
darthvedder,1435
darvishi,1436
darwin,1437
data,1438
date,1439
dated,1440
daughters,1441
david,1442
davidson,1443
davison,1444
dawson,1445
day,1446
days,1447
dead,1448
deadly,1449
deafening,1450
deal,1451
dealing,1452
dealings,1453
deals,1454
dealt,1455
dear,1456
death,1457
deaths,1458
debate,1459
debated,1460
debates,1461
debating,1462
debtor,1463
debts,1464
decade,1465
deceipt,1466
deceit,1467
december,1468
decency,1469
decent,1470
decide,1471
decided,1472
decides,1473
decision,1474
decisions,1475
deck,1476
declared,1477
declaring,1478
decline,1479
declined,1480
decontextualised,1481
decreasing,1482
dedicated,1483
deduce,1484
deep,1485
deeper,1486
defacating,1487
defacing,1488
defaluting,1489
defence,1490
defences,1491
defend,1492
defenders,1493
defending,1494
defense,1495
defent,1496
deficits,1497
definatly,1498
define,1499
defined,1500
defines,1501
defining,1502
definitely,1503
definition,1504
definitions,1505
deflect,1506
deflection,1507
defy,1508
degree,1509
degrees,1510
dehumanization,1511
delegation,1512
deliberate,1513
deliberately,1514
delighted,1515
delightful,1516
delightfully,1517
deliver,1518
delivered,1519
delivering,1520
dell,1521
delude,1522
deluge,1523
delusional,1524
dem,1525
demand,1526
demanding,1527
demands,1528
demeaning,1529
demeans,1530
demise,1531
democracies,1532
democracy,1533
democrat,1534
democratic,1535
democrats,1536
democtrats,1537
demographic,1538
demonizing,1539
demonstrate,1540
demonstrated,1541
demonstrates,1542
demonstrating,1543
demonstrations,1544
denial,1545
denied,1546
deniers,1547
denigration,1548
denmark,1549
denominations,1550
denoted,1551
denoting,1552
dense,1553
denser,1554
density,1555
dent,1556
deny,1557
denying,1558
department,1559
depend,1560
depending,1561
depicted,1562
depleted,1563
deployment,1564
depose,1565
depository,1566
depressed,1567
depression,1568
depressives,1569
depth,1570
deranged,1571
derived,1572
derogatorily,1573
derring,1574
desade,1575
descended,1576
described,1577
desert,1578
deserve,1579
deserved,1580
deserves,1581
designed,1582
desire,1583
desired,1584
desperate,1585
desperation,1586
despise,1587
despite,1588
despose,1589
destabilising,1590
destinations,1591
destroy,1592
destroyed,1593
destroying,1594
destruction,1595
destructive,1596
destrution,1597
detains,1598
detect,1599
detected,1600
detecting,1601
deter,1602
deterent,1603
determination,1604
determine,1605
determined,1606
determining,1607
deterrence,1608
deterrent,1609
deterrents,1610
detonates,1611
detonating,1612
detraction,1613
deutschmark,1614
devastate,1615
devastated,1616
devastatingly,1617
develop,1618
developed,1619
developemental,1620
developing,1621
development,1622
developments,1623
device,1624
devices,1625
devil,1626
dez,1627
dialects,1628
diana,1629
dictated,1630
dictator,1631
dictatorial,1632
dictators,1633
dictatorship,1634
dictatorships,1635
did,1636
didn,1637
didnt,1638
die,1639
died,1640
dies,1641
diet,1642
differant,1643
difference,1644
differences,1645
different,1646
differes,1647
differing,1648
difficult,1649
difficulty,1650
diffuse,1651
digestion,1652
digging,1653
dignified,1654
dignity,1655
digress,1656
dim,1657
dinner,1658
dinosaurs,1659
dioxin,1660
dipanna,1661
diplomacy,1662
diplomatic,1663
diplomats,1664
direct,1665
directed,1666
direction,1667
directly,1668
director,1669
disagree,1670
disagreement,1671
disappoint,1672
disappointed,1673
disappointment,1674
disarming,1675
disaster,1676
disbelieve,1677
disconnection,1678
discourse,1679
discover,1680
discovered,1681
discovery,1682
discredit,1683
discrete,1684
discrimination,1685
discuss,1686
discussing,1687
discussion,1688
discussions,1689
disease,1690
diseases,1691
disengagement,1692
disengenious,1693
disengenous,1694
disgraceful,1695
disgusting,1696
dishonest,1697
dishonour,1698
disinterest,1699
dislie,1700
dislike,1701
disliked,1702
dismiss,1703
dismissed,1704
disparaging,1705
dispicable,1706
displace,1707
displaced,1708
display,1709
disposal,1710
dispossession,1711
disproportionate,1712
disproportionately,1713
dispute,1714
disputed,1715
disputes,1716
distance,1717
distant,1718
distasteful,1719
distating,1720
distorter,1721
distortions,1722
distract,1723
districts,1724
divert,1725
divide,1726
dividends,1727
divorced,1728
djia,1729
dna,1730
docks,1731
doctor,1732
doctors,1733
doctrine,1734
docu,1735
document,1736
documentated,1737
documented,1738
documents,1739
dodge,1740
dodgy,1741
does,1742
doesn,1743
doesnt,1744
dog,1745
dogs,1746
doing,1747
dollar,1748
domestic,1749
dominant,1750
dominate,1751
domination,1752
don,1753
donated,1754
donations,1755
donator,1756
dont,1757
donøt,1758
doomed,1759
door,1760
dossier,1761
dostum,1762
dotted,1763
double,1764
doubled,1765
doubt,1766
doubts,1767
dow,1768
downhill,1769
downs,1770
downside,1771
downward,1772
dozen,1773
dozens,1774
dr,1775
draconian,1776
draft,1777
dragged,1778
drain,1779
drained,1780
dramatically,1781
draw,1782
drawings,1783
drawn,1784
draws,1785
dream,1786
dreaming,1787
dreidelspin,1788
dresden,1789
dress,1790
dresses,1791
drink,1792
drinking,1793
drive,1794
drivel,1795
driven,1796
driver,1797
drives,1798
driving,1799
drone,1800
drop,1801
dropped,1802
drove,1803
drug,1804
drums,1805
drunk,1806
dry,1807
du,1808
dubai,1809
dubya,1810
duck,1811
ducks,1812
dude,1813
duh,1814
dull,1815
dumber,1816
dump,1817
dumped,1818
dumps,1819
dunno,1820
duped,1821
duplicity,1822
dura,1823
dutch,1824
duty,1825
dwarfs,1826
dying,1827
dysfunctional,1828
eager,1829
ear,1830
eard,1831
earlier,1832
early,1833
earn,1834
earned,1835
earning,1836
earnings,1837
ears,1838
earth,1839
earthquake,1840
easier,1841
easily,1842
easing,1843
east,1844
eastern,1845
easterners,1846
easy,1847
eat,1848
eating,1849
ebt,1850
ebts,1851
ecnomies,1852
economic,1853
economical,1854
economics,1855
economies,1856
economy,1857
ecosystem,1858
ecstasy,1859
ed,1860
edcuated,1861
edited,1862
edition,1863
educate,1864
educated,1865
education,1866
educational,1867
effect,1868
effective,1869
effectively,1870
effects,1871
effort,1872
egeland,1873
egg,1874
ego,1875
egypt,1876
egyptians,1877
eh,1878
eighties,1879
eighty,1880
eire,1881
eith,1882
ek,1883
elderly,1884
elect,1885
elected,1886
electing,1887
election,1888
elections,1889
electorate,1890
elects,1891
elemets,1892
elephants,1893
em,1894
emanate,1895
embarrassment,1896
embassy,1897
embracing,1898
embroiled,1899
emerged,1900
emigrants,1901
emigrating,1902
emigration,1903
emission,1904
emmigrated,1905
emmotional,1906
emphasising,1907
empire,1908
empires,1909
employed,1910
employer,1911
empowering,1912
empt,1913
empting,1914
emptively,1915
en,1916
enacting,1917
encourage,1918
encouraged,1919
encouragement,1920
encourages,1921
encouraging,1922
encourged,1923
end,1924
ended,1925
enemies,1926
enemy,1927
enemys,1928
energy,1929
energybulletin,1930
enforce,1931
engage,1932
engaged,1933
engagement,1934
engineered,1935
engineering,1936
engineers,1937
england,1938
english,1939
englishman,1940
englishmen,1941
enitrely,1942
enjoy,1943
enjoys,1944
enlighten,1945
enlightening,1946
enlightenment,1947
enlisted,1948
enormous,1949
enrichment,1950
enshrined,1951
ensure,1952
entered,1953
entering,1954
enterprise,1955
entire,1956
entirely,1957
entirety,1958
entitled,1959
entrapment,1960
environment,1961
environmental,1962
envoy,1963
epic,1964
episode,1965
equal,1966
equally,1967
equated,1968
equivalence,1969
equivalent,1970
er,1971
era,1972
erected,1973
erm,1974
err,1975
error,1976
errors,1977
errr,1978
escalating,1979
especially,1980
essentially,1981
establish,1982
establishment,1983
esteem,1984
estimated,1985
et,1986
eta,1987
ethnic,1988
ethnically,1989
ethnicity,1990
ethnicly,1991
eu,1992
euarabia,1993
euphamistically,1994
euro,1995
euroleft,1996
eurolefties,1997
euroleftism,1998
eurolefty,1999
europe,2000
european,2001
europeans,2002
europes,2003
euros,2004
evastating,2005
evening,2006
event,2007
events,2008
eventually,2009
everybody,2010
everyday,2011
evicted,2012
evicting,2013
evidece,2014
evidence,2015
evidenced,2016
evil,2017
evilize,2018
evils,2019
evo,2020
evolve,2021
ex,2022
exact,2023
exactly,2024
exaggerated,2025
example,2026
examples,2027
excessive,2028
exchange,2029
excited,2030
exciting,2031
excludes,2032
exclusive,2033
exclusively,2034
excrement,2035
excuse,2036
excuses,2037
executed,2038
executive,2039
exempt,2040
exept,2041
exercise,2042
exerted,2043
exhausted,2044
exist,2045
existence,2046
existential,2047
existing,2048
exists,2049
exiting,2050
expalined,2051
expansion,2052
expansionist,2053
expat,2054
expect,2055
expectation,2056
expected,2057
expel,2058
expense,2059
expensive,2060
experience,2061
experienced,2062
expert,2063
experts,2064
explain,2065
explained,2066
explaining,2067
explains,2068
explanation,2069
explicit,2070
explicitly,2071
exploded,2072
exploit,2073
explore,2074
explored,2075
explorer,2076
explosively,2077
expose,2078
exposed,2079
exposes,2080
exposing,2081
expounded,2082
expressed,2083
expressing,2084
expression,2085
extend,2086
extended,2087
extensively,2088
extent,2089
extermination,2090
external,2091
extinct,2092
extinction,2093
extra,2094
extradition,2095
extreme,2096
extremisim,2097
extremism,2098
extremists,2099
exxon,2100
eye,2101
eyes,2102
face,2103
faced,2104
fact,2105
factor,2106
factors,2107
factory,2108
facts,2109
factual,2110
factually,2111
fail,2112
failed,2113
failing,2114
failings,2115
fails,2116
failure,2117
fair,2118
faith,2119
falkenburg,2120
falklands,2121
fall,2122
falling,2123
false,2124
familiar,2125
families,2126
family,2127
famous,2128
fan,2129
fanatic,2130
fanatical,2131
fanatically,2132
fanatics,2133
fancy,2134
fantasy,2135
far,2136
farce,2137
farm,2138
farmers,2139
fascism,2140
fascist,2141
fascistic,2142
fascists,2143
fashion,2144
fashioned,2145
fast,2146
fat,2147
father,2148
fault,2149
faults,2150
favour,2151
favoured,2152
favourite,2153
favours,2154
fear,2155
fearing,2156
fears,2157
feasibility,2158
feature,2159
featured,2160
fec,2161
fed,2162
federal,2163
feeble,2164
feed,2165
feeding,2166
feel,2167
feeling,2168
feelings,2169
feels,2170
fees,2171
feet,2172
fellas,2173
fellow,2174
felt,2175
female,2176
fence,2177
ferrari,2178
fervently,2179
fewer,2180
ffs,2181
fgm,2182
field,2183
fields,2184
fifa,2185
fifties,2186
fight,2187
fighters,2188
fighting,2189
figure,2190
figurers,2191
figures,2192
fil,2193
filled,2194
final,2195
finally,2196
financed,2197
financial,2198
financing,2199
finding,2200
finds,2201
fine,2202
fined,2203
finegold,2204
finger,2205
finish,2206
finished,2207
finn,2208
fired,2209
fires,2210
firework,2211
firing,2212
firmly,2213
fish,2214
fishy,2215
fit,2216
fits,2217
fiver,2218
flag,2219
flagrant,2220
flags,2221
flashpoint,2222
flashpoints,2223
flatter,2224
flaws,2225
fled,2226
fleeing,2227
fleet,2228
flesh,2229
flies,2230
flight,2231
flights,2232
flimsiest,2233
flip,2234
flock,2235
flooded,2236
flopping,2237
flu,2238
fly,2239
flying,2240
fo,2241
focus,2242
focused,2243
fog,2244
folded,2245
folk,2246
follow,2247
followed,2248
followers,2249
following,2250
fond,2251
food,2252
fool,2253
fools,2254
foot,2255
football,2256
footwear,2257
forbidden,2258
force,2259
forced,2260
forcefully,2261
forces,2262
forcible,2263
forcing,2264
ford,2265
forecast,2266
foreign,2267
foreigners,2268
forest,2269
forestation,2270
forever,2271
forgein,2272
forget,2273
forgien,2274
forgiven,2275
forgot,2276
form,2277
formation,2278
formerusername,2279
forming,2280
forms,2281
formulaparsedonedigit_fan,2282
forum,2283
forumdudeparsedonedigit,2284
forums,2285
forward,2286
fosters,2287
fought,2288
foul,2289
foundation,2290
foundations,2291
fox,2292
foxnews,2293
fparsedonedigit,2294
fr,2295
fragile,2296
frame,2297
franc,2298
france,2299
franjly,2300
frankly,2301
fraud,2302
free,2303
freed,2304
freedly,2305
freedom,2306
freedome,2307
freedumb,2308
freee,2309
freely,2310
freespeech,2311
french,2312
frequency,2313
frequently,2314
fresh,2315
friday,2316
friend,2317
friends,2318
friendship,2319
fripono,2320
frist,2321
fro,2322
frolic,2323
frought,2324
frozen,2325
fruitcakes,2326
frustration,2327
fulfill,2328
fulfilling,2329
fully,2330
fun,2331
functioning,2332
fundamental,2333
fundamentalists,2334
funded,2335
fundementalist,2336
funding,2337
funds,2338
funny,2339
furniture,2340
furthermore,2341
fuss,2342
fussy,2343
futile,2344
futility,2345
future,2346
fuzzy,2347
fyi,2348
gagarin,2349
gain,2350
gained,2351
gaining,2352
gains,2353
galant,2354
galloway,2355
gamble,2356
gambled,2357
game,2358
games,2359
gangs,2360
gangsterism,2361
gap,2362
gar,2363
garden,2364
gardens,2365
gas,2366
gasgoine,2367
gathered,2368
gathering,2369
gaul,2370
gaurds,2371
gave,2372
gavin,2373
gavinukparsedonedigit,2374
gawd,2375
gay,2376
gays,2377
gaza,2378
gbparsedfivedigits,2379
gbparsedsixdigits,2380
gdp,2381
gen,2382
general,2383
generalised,2384
generalising,2385
generalizations,2386
generally,2387
generation,2388
generational,2389
generations,2390
genetic,2391
geneva,2392
genicides,2393
genius,2394
genocide,2395
genocides,2396
gentiles,2397
gentle,2398
genuine,2399
geographic,2400
geology,2401
geoncide,2402
george,2403
georgia,2404
georgian,2405
german,2406
germans,2407
germany,2408
germanys,2409
germmany,2410
gets,2411
getting,2412
ghana,2413
ghandi,2414
gharib,2415
ghe,2416
ghetto,2417
gibberish,2418
ginally,2419
girl,2420
girls,2421
given,2422
gives,2423
giving,2424
gizelle,2425
glad,2426
gladio,2427
glaring,2428
glasgow,2429
gleaning,2430
glee,2431
glitches,2432
global,2433
globalisation,2434
globe,2435
glossed,2436
gloves,2437
glowingtrw,2438
gm,2439
gmt,2440
gnashing,2441
goal,2442
goals,2443
god,2444
goerge,2445
goes,2446
goggles,2447
going,2448
golan,2449
golden,2450
goldman,2451
goldwater,2452
golf,2453
gone,2454
gonna,2455
good,2456
goodies,2457
goofy,2458
google,2459
gore,2460
got,2461
gotten,2462
gov,2463
goverment,2464
govern,2465
governance,2466
governed,2467
government,2468
governments,2469
govt,2470
grab,2471
grabbing,2472
gracefully,2473
graffitti,2474
grand,2475
granht,2476
grant,2477
granting,2478
granty,2479
grasp,2480
grass,2481
grave,2482
graves,2483
great,2484
greater,2485
greatest,2486
greatness,2487
greece,2488
greedy,2489
greeks,2490
green,2491
grew,2492
greymatter,2493
greywolf,2494
grief,2495
grip,2496
groomed,2497
groping,2498
ground,2499
groundhog,2500
grounds,2501
group,2502
groups,2503
growl,2504
grown,2505
growth,2506
grrr,2507
grumbles,2508
gt,2509
gtrandfather,2510
guarantee,2511
guaranteed,2512
guard,2513
guardian,2514
guards,2515
guerre,2516
guesing,2517
guess,2518
guessing,2519
guest,2520
guests,2521
guidance,2522
guilty,2523
guitarist,2524
gulf,2525
gullible,2526
gun,2527
guns,2528
gunshot,2529
gurion,2530
gustav,2531
gutav,2532
guy,2533
guys,2534
gw,2535
gwb,2536
ha,2537
haaretz,2538
habit,2539
hadn,2540
hadnt,2541
haesten,2542
hafta,2543
hagar,2544
hair,2545
hairs,2546
half,2547
hall,2548
halt,2549
ham,2550
hama,2551
hamas,2552
hammas,2553
hammer,2554
hamza,2555
hand,2556
handed,2557
handedness,2558
handful,2559
handguns,2560
handicapped,2561
handing,2562
handling,2563
handpicked,2564
hands,2565
handwringing,2566
handy,2567
handyman,2568
hang,2569
hanged,2570
hanging,2571
hangs,2572
haniyeh,2573
hankooki,2574
happen,2575
happened,2576
happening,2577
happens,2578
happily,2579
happiness,2580
happy,2581
haram,2582
hard,2583
harder,2584
hardly,2585
hardware,2586
harldy,2587
harm,2588
harming,2589
harmonious,2590
harrassment,2591
harrison,2592
harry,2593
harsh,2594
harshly,2595
hart,2596
harvest,2597
hase,2598
hasn,2599
hate,2600
hated,2601
haters,2602
hates,2603
hath,2604
hatred,2605
haunting,2606
haven,2607
havenøt,2608
having,2609
havn,2610
hawks,2611
head,2612
heading,2613
headquarters,2614
heads,2615
heal,2616
healing,2617
health,2618
healthcare,2619
healthy,2620
hear,2621
heard,2622
hearing,2623
hearings,2624
hears,2625
heart,2626
heartedly,2627
heartfelt,2628
heartland,2629
heat,2630
heaven,2631
heavens,2632
heavier,2633
heavy,2634
heck,2635
heir,2636
heirarchy,2637
held,2638
helen,2639
helicopters,2640
hell,2641
hello,2642
help,2643
helpers,2644
helpful,2645
helping,2646
hem,2647
hempel,2648
hereditary,2649
heres,2650
heritage,2651
hero,2652
heroes,2653
heroin,2654
hey,2655
hezbollah,2656
hi,2657
hidden,2658
hide,2659
hiding,2660
high,2661
higher,2662
highest,2663
highlights,2664
highly,2665
hijacking,2666
hiking,2667
hilarious,2668
hill,2669
hillarious,2670
hillary,2671
hindu,2672
hindus,2673
hint,2674
hip,2675
hiroshima,2676
hispanic,2677
historain,2678
historical,2679
historically,2680
history,2681
hit,2682
hitler,2683
hitlers,2684
hits,2685
hmd,2686
hmm,2687
hmmm,2688
hmmmm,2689
ho,2690
hodgepodge,2691
hogan,2692
hold,2693
holders,2694
holding,2695
holdings,2696
hole,2697
holes,2698
holiday,2699
holland,2700
holler,2701
hollywoodisation,2702
holocaust,2703
holy,2704
home,2705
homeland,2706
homeless,2707
homes,2708
homework,2709
homosexual,2710
honest,2711
honestly,2712
honestreporting,2713
hong,2714
honor,2715
honour,2716
honourable,2717
hoo,2718
hook,2719
hooliganism,2720
hope,2721
hopefully,2722
hopeless,2723
hopelessly,2724
hoping,2725
horrendous,2726
horrific,2727
horror,2728
horrors,2729
horse,2730
hos,2731
hospital,2732
hospitals,2733
host,2734
hostage,2735
hosted,2736
hostile,2737
hostilities,2738
hostility,2739
hosting,2740
hot,2741
hotmousemat,2742
hounded,2743
hounding,2744
hour,2745
hours,2746
house,2747
houses,2748
housing,2749
howstuffwork,2750
hp,2751
hparsedonedigitgparseddigits,2752
huge,2753
hugely,2754
hugo,2755
huguenots,2756
huh,2757
hull,2758
human,2759
humanitarian,2760
humanity,2761
humankind,2762
humans,2763
humberside,2764
humiliating,2765
humour,2766
hundreds,2767
hundredth,2768
hung,2769
hungarian,2770
hunger,2771
hurricane,2772
hurt,2773
hurting,2774
hurts,2775
hussain,2776
hussein,2777
hybrids,2778
hype,2779
hyper,2780
hyperbolic,2781
hyphenated,2782
hypocricy,2783
hypocrisy,2784
hypocrites,2785
hypocritical,2786
hypocritically,2787
hypothetical,2788
hys,2789
hysteria,2790
hysteric,2791
hülsmeyer,2792
i_pardon_u,2793
ia,2794
ian,2795
ianpeter,2796
ias,2797
ic,2798
ice,2799
id,2800
idea,2801
ideals,2802
ideas,2803
identification,2804
identify,2805
identikit,2806
identity,2807
ideology,2808
idf,2809
idiology,2810
idiosyncracies,2811
idiot,2812
idiotic,2813
idiots,2814
idol,2815
ignorance,2816
ignorant,2817
ignore,2818
ignored,2819
ignores,2820
ignoring,2821
iht,2822
ii,2823
iii,2824
iirc,2825
il,2826
ilk,2827
ill,2828
illegal,2829
illegitimate,2830
illiberal,2831
ills,2832
illuminating,2833
illustrate,2834
illustrated,2835
illustrates,2836
illustrative,2837
im,2838
image,2839
images,2840
imaginable,2841
imaginations,2842
imagine,2843
imams,2844
imemc,2845
imf,2846
imho,2847
immature,2848
immediate,2849
immediately,2850
immemorial,2851
immerse,2852
immigrant,2853
immigrants,2854
immigration,2855
imminent,2856
immunity,2857
imo,2858
impact,2859
imperative,2860
imperfect,2861
imperial,2862
imperialist,2863
imperialistic,2864
imperils,2865
implanted,2866
implementaion,2867
implemented,2868
implicate,2869
implies,2870
implying,2871
import,2872
importance,2873
important,2874
imports,2875
impose,2876
imposed,2877
impossible,2878
impotence,2879
impotent,2880
impress,2881
impressed,2882
impressive,2883
imprisoned,2884
improved,2885
imran,2886
imrove,2887
imunity,2888
inadequacy,2889
inadequate,2890
inadvertently,2891
inappropriate,2892
inappropriately,2893
inaugural,2894
incapacitated,2895
inceindary,2896
incharge,2897
incident,2898
incidental,2899
incidentally,2900
incidents,2901
incited,2902
incitement,2903
inciting,2904
include,2905
included,2906
includes,2907
including,2908
inclusive,2909
inclusivity,2910
income,2911
incomes,2912
incompetence,2913
incompetent,2914
incomprehendible,2915
inconsistency,2916
inconvenient,2917
incorporated,2918
incorporation,2919
increase,2920
increased,2921
increasing,2922
increasingly,2923
incredibly,2924
incumbent,2925
incurred,2926
incurring,2927
incursion,2928
indecent,2929
indefensible,2930
independance,2931
independence,2932
independent,2933
india,2934
indian,2935
indians,2936
indicate,2937
indicated,2938
indicates,2939
indicating,2940
indifference,2941
indigenous,2942
indio,2943
indios,2944
indirectly,2945
individual,2946
individualism,2947
individually,2948
individuals,2949
indo,2950
indoctrinated,2951
indonesia,2952
indonesian,2953
indonesians,2954
induced,2955
inducing,2956
indulge,2957
industrial,2958
industries,2959
industry,2960
inentilaly,2961
inevitable,2962
inevitably,2963
inexcusable,2964
inextricably,2965
infact,2966
infamous,2967
infantilising,2968
inferred,2969
inferring,2970
infidels,2971
infiltrators,2972
infinitum,2973
inflation,2974
inflict,2975
influence,2976
influenced,2977
influences,2978
info,2979
inform,2980
information,2981
informative,2982
infrastucture,2983
infringes,2984
ing,2985
inhabit,2986
inhabitant,2987
inhabitants,2988
inherrent,2989
inhuman,2990
inist,2991
initial,2992
initially,2993
injured,2994
injury,2995
inner,2996
innocent,2997
innocents,2998
insanity,2999
insecurity,3000
inside,3001
insidious,3002
insight,3003
insightful,3004
insignificant,3005
insinuate,3006
insist,3007
insisted,3008
insistence,3009
insisting,3010
inspect,3011
inspecters,3012
inspections,3013
inspire,3014
inspired,3015
inspiring,3016
instability,3017
install,3018
installations,3019
installed,3020
instance,3021
instances,3022
instead,3023
instigate,3024
institute,3025
instituted,3026
institution,3027
institutional,3028
instruction,3029
instructions,3030
instructor,3031
insulting,3032
insults,3033
insurance,3034
insurgency,3035
insurgent,3036
insurgents,3037
integrate,3038
integration,3039
integrity,3040
intel,3041
intellectual,3042
intellegence,3043
intelligence,3044
intelligent,3045
intend,3046
intended,3047
intensity,3048
intent,3049
intention,3050
inter,3051
interaction,3052
interested,3053
interesting,3054
interestingly,3055
interests,3056
internal,3057
international,3058
internet,3059
internment,3060
interpal,3061
interpretation,3062
interrupted,3063
intertwined,3064
intervention,3065
interview,3066
interviewer,3067
intially,3068
intimate,3069
intimidation,3070
intolerant,3071
inton,3072
intoxicating,3073
intracacies,3074
intresting,3075
intrigue,3076
intrinsic,3077
introduce,3078
introduced,3079
invade,3080
invaded,3081
invaders,3082
invading,3083
invasion,3084
invasions,3085
invective,3086
invented,3087
inventing,3088
inventors,3089
invertebrate,3090
investigate,3091
investigated,3092
investigating,3093
investigation,3094
investment,3095
investors,3096
inveterate,3097
invitation,3098
invloved,3099
involved,3100
involvement,3101
ioc,3102
ira,3103
iran,3104
iranian,3105
iranians,3106
irans,3107
iraq,3108
iraqi,3109
iraqis,3110
ireland,3111
irish,3112
irna,3113
iron,3114
ironic,3115
ironically,3116
irony,3117
irrational,3118
irrelevant,3119
irritating,3120
irving,3121
isareli,3122
ish,3123
ishmail,3124
islaam,3125
islam,3126
islamaphobe,3127
islamic,3128
islamificationism,3129
islamiphobe,3130
islamist,3131
islamists,3132
islamofacists,3133
islamofascism,3134
islamofascists,3135
island,3136
ismail,3137
isn,3138
isnt,3139
isolationist,3140
isr,3141
israel,3142
israeli,3143
israelians,3144
israelis,3145
israelnationalne,3146
israelnn,3147
israels,3148
isreal,3149
isrealians,3150
issue,3151
issues,3152
italian,3153
italians,3154
italy,3155
itstoppedraining,3156
ive,3157
jack,3158
jacked,3159
jail,3160
jailed,3161
jalabad,3162
james,3163
jamo,3164
jan,3165
jane,3166
january,3167
japan,3168
japanese,3169
jasb,3170
jazeera,3171
jazira,3172
jd,3173
jerk,3174
jerusalem,3175
jessica,3176
jesus,3177
jew,3178
jewish,3179
jews,3180
jewsih,3181
jfks,3182
jihad,3183
jihadi,3184
jihadist,3185
jingles,3186
jj,3187
jla,3188
joan,3189
job,3190
jobs,3191
jobsworth,3192
joe,3193
john,3194
johnny,3195
join,3196
joined,3197
joining,3198
joint,3199
joke,3200
jokes,3201
joking,3202
jong,3203
jordan,3204
jordanian,3205
jorge,3206
journal,3207
journalist,3208
journalists,3209
jowell,3210
jqack,3211
judafacist,3212
judaism,3213
judge,3214
judicial,3215
juicy,3216
jump,3217
jungle,3218
junior,3219
junk,3220
junta,3221
jury,3222
just,3223
justice,3224
justifiably,3225
justifications,3226
justified,3227
justify,3228
karbala,3229
karbul,3230
karl,3231
kashmir,3232
kashmiri,3233
kashmiris,3234
kassam,3235
kassams,3236
kazahkstan,3237
kazakhstan,3238
keen,3239
keeping,3240
keeps,3241
kennedy,3242
kept,3243
kevin,3244
key,3245
kgb,3246
khan,3247
kick,3248
kicked,3249
kicking,3250
kidding,3251
kidnapped,3252
kidnappings,3253
kids,3254
kiling,3255
kill,3256
killed,3257
killing,3258
killings,3259
kills,3260
kim,3261
kind,3262
kinda,3263
kindergarten,3264
kindly,3265
kinds,3266
king,3267
kinky,3268
kitchen,3269
kj,3270
kl,3271
knee,3272
knesset,3273
knew,3274
knickers,3275
knicknamed,3276
knife,3277
knoll,3278
know,3279
knowledge,3280
known,3281
knows,3282
knucklescrapers,3283
knwo,3284
kong,3285
koran,3286
koranist,3287
korea,3288
korean,3289
koreans,3290
kowtow,3291
kreschev,3292
kurdish,3293
kurds,3294
kuwaeit,3295
kuwait,3296
kuweit,3297
kyoto,3298
label,3299
labelling,3300
labor,3301
laboratory,3302
labour,3303
lacewing,3304
lack,3305
lad,3306
ladder,3307
laden,3308
lads,3309
lady,3310
lager,3311
lame,3312
lancaster,3313
lancs,3314
land,3315
lands,3316
landscape,3317
language,3318
lankans,3319
lantau,3320
lap,3321
large,3322
largely,3323
larger,3324
largest,3325
larnaca,3326
lasers,3327
lashes,3328
lasted,3329
late,3330
later,3331
latest,3332
latimes,3333
latin,3334
latte,3335
laugh,3336
laughable,3337
laughed,3338
laughing,3339
launched,3340
launches,3341
launching,3342
lauren,3343
laurie,3344
lavat,3345
law,3346
laws,3347
lawyer,3348
lawyers,3349
lay,3350
lazily,3351
lbyia,3352
le,3353
lead,3354
leader,3355
leaders,3356
leadership,3357
leading,3358
leads,3359
leaning,3360
learn,3361
learned,3362
learnt,3363
leave,3364
leaving,3365
lebanese,3366
lebanon,3367
lecture,3368
led,3369
leers,3370
left,3371
leftie,3372
lefties,3373
lefty,3374
legacy,3375
legal,3376
legalities,3377
legendary,3378
legislation,3379
legitimacising,3380
legitimate,3381
legs,3382
lenders,3383
leniency,3384
lennon,3385
lenovo,3386
lessen,3387
lesser,3388
lesson,3389
lessons,3390
lest,3391
let,3392
lets,3393
letter,3394
letters,3395
letting,3396
level,3397
levelled,3398
levels,3399
levied,3400
lgf,3401
liable,3402
liar,3403
liars,3404
lib,3405
liberals,3406
liberate,3407
liberating,3408
liberation,3409
liberty,3410
library,3411
licenses,3412
licking,3413
lid,3414
lie,3415
lied,3416
liek,3417
lies,3418
life,3419
lifestyle,3420
light,3421
lighten,3422
lightening,3423
like,3424
liked,3425
likely,3426
likes,3427
likud,3428
lily,3429
limbo,3430
limit,3431
limitations,3432
limits,3433
lincoln,3434
lincolnshire,3435
line,3436
lines,3437
linguist,3438
lining,3439
link,3440
linked,3441
links,3442
lion,3443
list,3444
listen,3445
listening,3446
litany,3447
literally,3448
literature,3449
lithe,3450
little,3451
littlegreenfootballs,3452
live,3453
lived,3454
lives,3455
living,3456
ll,3457
lmao,3458
loach,3459
load,3460
loaded,3461
loads,3462
loans,3463
loathed,3464
lobbyists,3465
local,3466
locals,3467
location,3468
locked,3469
locking,3470
logic,3471
logical,3472
lol,3473
lombards,3474
london,3475
londonium,3476
lone,3477
loner,3478
long,3479
longer,3480
longtime,3481
lonney,3482
look,3483
looked,3484
looking,3485
looks,3486
looney,3487
loonies,3488
looooong,3489
loosened,3490
loosers,3491
looted,3492
looting,3493
lord,3494
los,3495
lose,3496
loser,3497
losers,3498
loses,3499
losing,3500
loss,3501
losses,3502
lost,3503
lot,3504
lots,3505
loud,3506
lousy,3507
love,3508
loved,3509
lovely,3510
loves,3511
loving,3512
low,3513
lower,3514
lowered,3515
lowering,3516
lowest,3517
loyalty,3518
lt,3519
lucilla,3520
luck,3521
lucky,3522
lucrative,3523
lugage,3524
lump,3525
lunatics,3526
lush,3527
lust,3528
lusts,3529
lutheran,3530
lwa,3531
lying,3532
lynch,3533
macademia,3534
macedonia,3535
machine,3536
machinery,3537
machines,3538
macmillan,3539
mad,3540
madeleine,3541
madonna,3542
magnitude,3543
mahler,3544
mail,3545
main,3546
mainland,3547
mainly,3548
mainstream,3549
maintain,3550
maintaining,3551
maj,3552
major,3553
majoritively,3554
majority,3555
make,3556
makes,3557
making,3558
malaysia,3559
malchrome,3560
male,3561
males,3562
malfunctioning,3563
malls,3564
malt,3565
man,3566
manafacture,3567
manage,3568
managed,3569
management,3570
manages,3571
manchester,3572
mandate,3573
mandated,3574
mandatory,3575
mandela,3576
mango,3577
manic,3578
manicured,3579
manipulated,3580
mankind,3581
manner,3582
mans,3583
manual,3584
manufacturers,3585
mao,3586
map,3587
mapp,3588
mar,3589
marach,3590
march,3591
marching,3592
marine,3593
mark,3594
market,3595
markets,3596
marley,3597
marquis,3598
marraiges,3599
marrakesh,3600
marriage,3601
married,3602
mars,3603
marshals,3604
marshels,3605
martian,3606
martians,3607
martyr,3608
martyrdom,3609
marx,3610
marxist,3611
mary,3612
mash,3613
mass,3614
massacre,3615
massacres,3616
massaged,3617
massing,3618
massive,3619
masterclass,3620
mastered,3621
match,3622
matches,3623
mate,3624
material,3625
matter,3626
matters,3627
mature,3628
maturity,3629
max,3630
maximum,3631
maybe,3632
mayhem,3633
mb,3634
mc,3635
mcb,3636
mcbean,3637
mcdonald,3638
mcneil,3639
mean,3640
meaning,3641
meaningful,3642
means,3643
meant,3644
measues,3645
measure,3646
meat,3647
mechanism,3648
media,3649
medias,3650
medical,3651
medicine,3652
medievil,3653
meet,3654
meeting,3655
meetings,3656
meinhof,3657
melanie,3658
melon,3659
member,3660
membered,3661
members,3662
memo,3663
memorial,3664
memorials,3665
memory,3666
men,3667
menhuin,3668
mens,3669
mental,3670
mentally,3671
mention,3672
mentioned,3673
mentions,3674
mercies,3675
merciful,3676
mercy,3677
mere,3678
merely,3679
merest,3680
merge,3681
merit,3682
merits,3683
merkel,3684
mess,3685
message,3686
messages,3687
messiah,3688
mestizo,3689
met,3690
meta,3691
metallic,3692
methods,3693
mexican,3694
mexicans,3695
mexico,3696
meyer,3697
miami,3698
michael,3699
micheal,3700
mickey,3701
micro,3702
microsoft,3703
mid,3704
middle,3705
migrants,3706
migration,3707
miimalising,3708
miles,3709
militant,3710
militants,3711
militarily,3712
militarised,3713
military,3714
millenia,3715
miller,3716
million,3717
millionaire,3718
millionairesse,3719
millions,3720
milosvic,3721
mind,3722
minded,3723
minds,3724
minefield,3725
miners,3726
mines,3727
minimal,3728
minimalised,3729
minister,3730
minor,3731
minority,3732
minute,3733
minutes,3734
mis,3735
miscarriage,3736
misfits,3737
misfortune,3738
mish,3739
misinterpreted,3740
misinterprit,3741
misled,3742
misogyny,3743
misplaced,3744
misread,3745
misrepresent,3746
misrepresentation,3747
miss,3748
missed,3749
misses,3750
missile,3751
missiles,3752
missing,3753
missions,3754
missippi,3755
missippparsedonedigit,3756
missus,3757
mist,3758
mistake,3759
mistakes,3760
mistress,3761
mistressofmydomain,3762
mistressofmydomains,3763
mists,3764
mitt,3765
mix,3766
mixed,3767
mixing,3768
mixture,3769
mm,3770
mmmmmm,3771
mn,3772
mne,3773
mob,3774
mobile,3775
mock,3776
mod,3777
model,3778
moderated,3779
modern,3780
modesty,3781
mods,3782
mohammad,3783
mohammadans,3784
mohammed,3785
moist,3786
mom,3787
moment,3788
moments,3789
momment,3790
mommy,3791
mon,3792
monday,3793
mondial,3794
money,3795
mongering,3796
mongolia,3797
monkeys,3798
monologue,3799
monopulse,3800
monotonous,3801
monster,3802
month,3803
monthly,3804
months,3805
mood,3806
moods,3807
moon,3808
moore,3809
moot,3810
moral,3811
morale,3812
morales,3813
morass,3814
morning,3815
morocco,3816
moronic,3817
mortgage,3818
moses,3819
moslems,3820
mosques,3821
mossadeq,3822
mother,3823
motivation,3824
motive,3825
motives,3826
motorcade,3827
mounted,3828
mouse,3829
moussaoui,3830
mouth,3831
mouths,3832
moved,3833
movement,3834
movements,3835
moving,3836
mow,3837
mparsedonedigitlparseddigitsjparsedonedigit,3838
mps,3839
mr,3840
mrjingles,3841
mrs,3842
ms,3843
msg,3844
msn,3845
msnbc,3846
mubashar,3847
mud,3848
muddying,3849
mufti,3850
mugabe,3851
mullahs,3852
multi,3853
multiculrism,3854
mum,3855
mump,3856
muppet,3857
murder,3858
murdered,3859
murderer,3860
murdering,3861
murderous,3862
murders,3863
murduch,3864
musab,3865
museum,3866
museums,3867
musharraf,3868
mushy,3869
music,3870
muslim,3871
muslims,3872
musso,3873
mutterings,3874
mutual,3875
mutually,3876
mutuals,3877
muzlins,3878
mwaaaaaaaahahahahahahahaaaaaaaaa,3879
mych,3880
mylroie,3881
mystery,3882
myth,3883
nafta,3884
nafthe,3885
nagasaki,3886
naighbor,3887
nail,3888
nails,3889
naive,3890
naiveté,3891
named,3892
names,3893
napalm,3894
narrow,3895
nasty,3896
nation,3897
national,3898
nationalist,3899
nationalists,3900
nationalities,3901
nationality,3902
nations,3903
nationstate,3904
native,3905
natives,3906
nato,3907
natural,3908
naturally,3909
nature,3910
navy,3911
naz,3912
nazi,3913
nazis,3914
nazism,3915
nbc,3916
nd,3917
ne,3918
near,3919
nearly,3920
neatly,3921
nec,3922
neck,3923
need,3924
needed,3925
needs,3926
negate,3927
neglect,3928
neglected,3929
negotiate,3930
negotiating,3931
negotiation,3932
negotiations,3933
neighbors,3934
neighbours,3935
neil,3936
nelson,3937
neo,3938
neocons,3939
netanyahu,3940
netherlanders,3941
network,3942
neutral,3943
new,3944
newborn,3945
newest,3946
newly,3947
newnight,3948
news,3949
newsflash,3950
newspaper,3951
newsparsedonedigit,3952
newsparsedtwodigits,3953
newsworthy,3954
niaghbors,3955
nice,3956
nick,3957
nigeria,3958
nigeriam,3959
night,3960
nighthook,3961
nights,3962
nighttime,3963
nikki,3964
nip,3965
nit,3966
nixon,3967
nk,3968
nobel,3969
noble,3970
nologo,3971
nom,3972
nomatter,3973
nomination,3974
non,3975
nonsense,3976
nonsnense,3977
nook,3978
nope,3979
norm,3980
normal,3981
normans,3982
norms,3983
norse,3984
north,3985
northern,3986
norwich,3987
nose,3988
noses,3989
note,3990
noted,3991
notice,3992
noticed,3993
noticing,3994
noting,3995
notion,3996
noughts,3997
novel,3998
november,3999
nowt,4000
noxious,4001
nr,4002
nsw,4003
nuclear,4004
nuke,4005
nukes,4006
numbed,4007
number,4008
numbers,4009
numbing,4010
numerous,4011
nut,4012
nutcase,4013
nutters,4014
nuttin,4015
nutty,4016
nypd,4017
nytimes,4018
oaths,4019
ob,4020
obama,4021
object,4022
objecting,4023
objections,4024
objective,4025
objectives,4026
objects,4027
obligated,4028
obligations,4029
oblige,4030
obliged,4031
obliterated,4032
oblivion,4033
observant,4034
observation,4035
observations,4036
obsessed,4037
obvioulsy,4038
obvious,4039
obviously,4040
oc,4041
occamøs,4042
occasion,4043
occasional,4044
occasions,4045
occulted,4046
occupation,4047
occupations,4048
occupied,4049
occupiers,4050
occupy,4051
occupying,4052
occur,4053
occured,4054
occurs,4055
ocean,4056
october,4057
odd,4058
oddly,4059
odds,4060
odious,4061
oecd,4062
offence,4063
offended,4064
offensive,4065
offer,4066
offered,4067
offering,4068
office,4069
officers,4070
offices,4071
official,4072
officials,4073
oh,4074
ohj,4075
oil,4076
ok,4077
okay,4078
oklahoma,4079
old,4080
older,4081
oldest,4082
ole,4083
olmert,4084
olympic,4085
olympics,4086
omri,4087
ones,4088
ongoing,4089
onus,4090
oona,4091
oozes,4092
op,4093
opec,4094
open,4095
opened,4096
opening,4097
openly,4098
opens,4099
opera,4100
operation,4101
operations,4102
opinion,4103
opinions,4104
opponent,4105
opportune,4106
opportunist,4107
opportunities,4108
opportunity,4109
opposed,4110
opposing,4111
opposite,4112
opposites,4113
opposition,4114
oppressed,4115
oppressive,4116
opressed,4117
option,4118
optional,4119
opwn,4120
oranges,4121
orbit,4122
ordeals,4123
order,4124
ordered,4125
orders,4126
ordinary,4127
org,4128
organisation,4129
organisations,4130
organise,4131
organised,4132
organising,4133
organism,4134
organistion,4135
organization,4136
organizations,4137
organize,4138
organized,4139
orginal,4140
orientation,4141
orif,4142
origianlly,4143
original,4144
originally,4145
originated,4146
originator,4147
orthodox,4148
orwell,4149
ostensibly,4150
oswald,4151
othwerwise,4152
otter,4153
ottoman,4154
ottomans,4155
ouch,4156
ought,4157
ourself,4158
outbursts,4159
outdated,4160
outer,4161
outlasting,4162
outlawing,4163
outlet,4164
outline,4165
outlined,4166
outnumbered,4167
outraged,4168
outright,4169
outside,4170
outsiders,4171
outspoken,4172
outstanding,4173
outstrip,4174
ovbious,4175
overall,4176
overs,4177
overseas,4178
oversight,4179
overwhelming,4180
overwhelmingly,4181
ow,4182
owe,4183
owned,4184
owner,4185
owners,4186
ownership,4187
oz,4188
ozy,4189
pace,4190
pacifists,4191
pack,4192
package,4193
packet,4194
page,4195
pageant,4196
paid,4197
pain,4198
painful,4199
pains,4200
paint,4201
painting,4202
pakistan,4203
pakistani,4204
pakistanis,4205
pakistans,4206
pale,4207
pales,4208
palestian,4209
palestians,4210
palestina,4211
palestinans,4212
palestine,4213
palestinian,4214
palestinians,4215
palestnians,4216
palin,4217
palis,4218
palistinians,4219
pals,4220
pan,4221
panicked,4222
panned,4223
panorama,4224
paparazzi,4225
paper,4226
papers,4227
paradise,4228
paradises,4229
paragraphs,4230
parallel,4231
parallels,4232
paranoia,4233
parent,4234
parenting,4235
parents,4236
paris,4237
park,4238
parker,4239
parliament,4240
parliment,4241
parseddigits,4242
parsedfourdigits,4243
parsedfourdigitss,4244
parsedfourdigitsth,4245
parsedonedigit,4246
parsedonedigitg,4247
parsedonedigitk,4248
parsedonedigitm,4249
parsedonedigitnd,4250
parsedonedigitrd,4251
parsedonedigitth,4252
parsedsixdigits,4253
parsedthreedigits,4254
parsedthreedigitsk,4255
parsedthreedigitsm,4256
parsedtime,4257
parsedtwodigits,4258
parsedtwodigitsbn,4259
parsedtwodigitsk,4260
parsedtwodigitsm,4261
parsedtwodigitss,4262
parsedtwodigitsst,4263
parsedtwodigitsth,4264
participants,4265
participated,4266
participle,4267
particular,4268
particularly,4269
parties,4270
partisan,4271
partnerships,4272
parts,4273
party,4274
pasha,4275
pass,4276
passed,4277
passengers,4278
passes,4279
passing,4280
passion,4281
passively,4282
passport,4283
past,4284
paste,4285
pastures,4286
pat,4287
patent,4288
paternalism,4289
path,4290
pathetic,4291
patronising,4292
pattern,4293
paul,4294
pax,4295
pay,4296
paying,4297
pc,4298
pea,4299
peace,4300
peaceful,4301
peaks,4302
peanuts,4303
pears,4304
peasants,4305
pecans,4306
pedantic,4307
peer,4308
peking,4309
pen,4310
penal,4311
penalty,4312
penetrate,4313
peninsula,4314
pension,4315
pensions,4316
people,4317
peoples,4318
percent,4319
percentages,4320
perception,4321
perchance,4322
peres,4323
perfect,4324
perfectly,4325
perform,4326
performed,4327
performing,4328
period,4329
perish,4330
perishing,4331
perle,4332
permanent,4333
permission,4334
permit,4335
perpetrated,4336
perpetuating,4337
persecuted,4338
person,4339
personal,4340
personalities,4341
personally,4342
personnel,4343
persons,4344
perspective,4345
persuaded,4346
pet,4347
pete,4348
peters,4349
petition,4350
petty,4351
peu,4352
pfft,4353
phenomenon,4354
phil,4355
philippines,4356
phillips,4357
philosopher,4358
phone,4359
phoneacians,4360
phoned,4361
phophorous,4362
photos,4363
phrase,4364
phrases,4365
phrophet,4366
physical,4367
physically,4368
picayunities,4369
pick,4370
picking,4371
picture,4372
piece,4373
pieces,4374
pig,4375
pigeonhole,4376
pigs,4377
pillock,4378
pilot,4379
pilots,4380
piltdown,4381
pinko,4382
pipe,4383
pirlo,4384
pit,4385
pity,4386
placard,4387
place,4388
places,4389
placing,4390
plain,4391
plaintive,4392
plan,4393
plane,4394
planes,4395
planet,4396
planned,4397
planners,4398
planning,4399
plans,4400
plant,4401
planted,4402
plants,4403
plaster,4404
play,4405
played,4406
player,4407
players,4408
playing,4409
plays,4410
pleaded,4411
plear,4412
pleasant,4413
pleasure,4414
plenty,4415
ploughed,4416
ploy,4417
plus,4418
poindexter,4419
point,4420
pointed,4421
pointing,4422
pointless,4423
points,4424
poison,4425
poisonous,4426
poisons,4427
poking,4428
poland,4429
polar,4430
pole,4431
police,4432
policeman,4433
policies,4434
policy,4435
polish,4436
politcal,4437
political,4438
politically,4439
politicians,4440
politicos,4441
politics,4442
poll,4443
polls,4444
polluters,4445
pollution,4446
pond,4447
poochies,4448
pool,4449
pools,4450
poor,4451
poorly,4452
pop,4453
pope,4454
popping,4455
popular,4456
popularity,4457
populated,4458
population,4459
populations,4460
populist,4461
pork,4462
portray,4463
portrayed,4464
ports,4465
portugese,4466
portuguese,4467
posative,4468
posed,4469
posession,4470
position,4471
positions,4472
positive,4473
possession,4474
possibilities,4475
possibility,4476
possible,4477
possibly,4478
post,4479
posted,4480
poster,4481
posters,4482
posting,4483
postings,4484
posts,4485
posturing,4486
pot,4487
potemtial,4488
potential,4489
pound,4490
pounding,4491
poverty,4492
power,4493
powerbase,4494
powered,4495
powerful,4496
powerfull,4497
powers,4498
ppa,4499
pr,4500
practical,4501
practice,4502
practiced,4503
practices,4504
pragmatic,4505
praise,4506
praised,4507
prank,4508
prattle,4509
pray,4510
praying,4511
pre,4512
preaching,4513
precipitate,4514
precise,4515
precisely,4516
precision,4517
precludes,4518
predatory,4519
predicted,4520
predictions,4521
predominately,4522
prefer,4523
prefered,4524
preference,4525
prehaps,4526
prejudices,4527
prematurely,4528
premeditating,4529
premium,4530
prepare,4531
prepared,4532
preperation,4533
prerequisite,4534
presbyterians,4535
presence,4536
present,4537
presentation,4538
presented,4539
president,4540
presidents,4541
presnted,4542
press,4543
presso,4544
pressure,4545
pressurise,4546
prestwick,4547
presumably,4548
presume,4549
presure,4550
pretend,4551
pretending,4552
pretext,4553
pretty,4554
preudo,4555
prevent,4556
prevented,4557
preventing,4558
previous,4559
previously,4560
prey,4561
price,4562
prices,4563
pride,4564
prides,4565
priest,4566
primary,4567
prime,4568
primitive,4569
princess,4570
principle,4571
print,4572
printing,4573
prior,4574
prison,4575
prisoners,4576
prisons,4577
private,4578
prize,4579
prized,4580
pro,4581
proactive,4582
probability,4583
probably,4584
problem,4585
problematic,4586
problems,4587
process,4588
prodi,4589
produce,4590
produced,4591
produces,4592
product,4593
production,4594
productive,4595
products,4596
profess,4597
professional,4598
professors,4599
profitable,4600
profitibility,4601
profits,4602
profusely,4603
program,4604
programme,4605
programs,4606
progress,4607
progressiove,4608
progressive,4609
prohibit,4610
project,4611
projecting,4612
projects,4613
prominent,4614
promised,4615
promote,4616
promoting,4617
promotion,4618
prompted,4619
prone,4620
proof,4621
propably,4622
propaganda,4623
propagandist,4624
properly,4625
properties,4626
property,4627
prophecy,4628
propoganada,4629
propoganda,4630
proportion,4631
proposal,4632
proposed,4633
proscribed,4634
prosecuted,4635
prosecutions,4636
prosperity,4637
protect,4638
protecting,4639
protection,4640
protector,4641
protects,4642
protest,4643
protestants,4644
protested,4645
protesters,4646
protests,4647
proud,4648
prove,4649
proved,4650
proverb,4651
proves,4652
provide,4653
providing,4654
province,4655
provinces,4656
provoke,4657
provoking,4658
pruduction,4659
prvent,4660
ps,4661
psychiatrists,4662
psychological,4663
psychologists,4664
psychology,4665
pu,4666
pub,4667
public,4668
publicity,4669
published,4670
publisher,4671
publishing,4672
pubs,4673
puddin,4674
puffing,4675
pull,4676
pulled,4677
punishable,4678
punished,4679
punishment,4680
pupil,4681
puppet,4682
purchase,4683
purchased,4684
purchasing,4685
pure,4686
purely,4687
purile,4688
purpose,4689
purposes,4690
pursue,4691
pursuing,4692
push,4693
pushed,4694
pushing,4695
putin,4696
puts,4697
putting,4698
puydedome,4699
pyongyang,4700
pyramid,4701
qaeda,4702
quada,4703
quake,4704
qualification,4705
qualifications,4706
qualitavely,4707
quality,4708
quantify,4709
quarter,4710
qubal,4711
que,4712
quebec,4713
queda,4714
quels,4715
question,4716
questioned,4717
questioning,4718
questions,4719
quick,4720
quickly,4721
quid,4722
quiet,4723
quit,4724
quite,4725
quitely,4726
quote,4727
quotes,4728
quoting,4729
rabbi,4730
rabble,4731
rabid,4732
rabin,4733
race,4734
racial,4735
racism,4736
racist,4737
radar,4738
radars,4739
radical,4740
radicalized,4741
radio,4742
radioactive,4743
rafah,4744
rag,4745
rage,4746
rahman,4747
raid,4748
rail,4749
rained,4750
raise,4751
raised,4752
raising,4753
rallied,4754
rally,4755
ran,4756
rancorous,4757
range,4758
ranging,4759
rankings,4760
ranks,4761
ransomes,4762
rant,4763
ranting,4764
rape,4765
raped,4766
rapid,4767
rapidly,4768
raping,4769
rat,4770
rates,4771
ratify,4772
rating,4773
ratings,4774
rational,4775
rattling,4776
ravi,4777
ray,4778
razor,4779
reach,4780
reached,4781
reaching,4782
reacted,4783
reaction,4784
reactions,4785
reactor,4786
read,4787
readers,4788
readiness,4789
reading,4790
readliy,4791
reads,4792
ready,4793
real,4794
realise,4795
realised,4796
realistic,4797
reality,4798
really,4799
ream,4800
reaping,4801
reaserch,4802
reason,4803
reasonable,4804
reasoning,4805
reasons,4806
rebates,4807
rebounding,4808
rebuild,4809
rebuke,4810
recall,4811
receive,4812
received,4813
receives,4814
recent,4815
recently,4816
recession,4817
recieved,4818
recipient,4819
reciprocating,4820
recluse,4821
recognise,4822
recognised,4823
recognising,4824
recognition,4825
recognize,4826
recognizeable,4827
recollect,4828
recommendations,4829
record,4830
records,4831
recourse,4832
recovering,4833
recruit,4834
recrutment,4835
red,4836
redesignating,4837
redirected,4838
reduced,4839
redundant,4840
reed,4841
refer,4842
referee,4843
reference,4844
references,4845
refering,4846
referring,4847
refers,4848
refinanced,4849
refinement,4850
reflected,4851
refuge,4852
refugees,4853
refugess,4854
refuse,4855
refused,4856
refuses,4857
refusing,4858
refute,4859
refuted,4860
regard,4861
regarded,4862
regarding,4863
regards,4864
regime,4865
regimes,4866
region,4867
regional,4868
regions,4869
regret,4870
regretting,4871
regular,4872
regularly,4873
regulations,4874
reich,4875
reichspatent,4876
reign,4877
reinforcements,4878
reins,4879
rejected,4880
rejecting,4881
rekindle,4882
related,4883
relating,4884
relations,4885
relationship,4886
relationships,4887
relative,4888
relatives,4889
relativists,4890
relaunch,4891
released,4892
relentless,4893
reliability,4894
reliable,4895
reliant,4896
relief,4897
religion,4898
religions,4899
religious,4900
religon,4901
reluctant,4902
rely,4903
remain,4904
remaining,4905
remains,4906
remark,4907
remarkable,4908
remarks,4909
remember,4910
remembered,4911
remembers,4912
reminded,4913
reminds,4914
removal,4915
remove,4916
removed,4917
removing,4918
renege,4919
renouncing,4920
rented,4921
repeat,4922
repeated,4923
repeatedly,4924
repeating,4925
repeats,4926
rephrase,4927
replace,4928
replaced,4929
replacing,4930
reply,4931
replying,4932
report,4933
reported,4934
reportedly,4935
reporters,4936
reports,4937
represent,4938
representation,4939
represents,4940
repression,4941
repressive,4942
republic,4943
republican,4944
republicans,4945
reputation,4946
require,4947
required,4948
requirement,4949
requires,4950
resarch,4951
research,4952
resent,4953
reservoir,4954
resident,4955
residents,4956
resist,4957
resistance,4958
resolution,4959
resolutions,4960
resolved,4961
resort,4962
resource,4963
resourceful,4964
resources,4965
respect,4966
respectable,4967
respected,4968
respectfully,4969
respecting,4970
responce,4971
respond,4972
responded,4973
respondents,4974
responding,4975
responsability,4976
response,4977
responses,4978
responsibility,4979
responsible,4980
responsiblity,4981
rest,4982
restance,4983
restarted,4984
restaurants,4985
resting,4986
restock,4987
restored,4988
restrained,4989
restrict,4990
restricted,4991
restrictions,4992
result,4993
resulted,4994
resulting,4995
results,4996
retail,4997
retailer,4998
retaliate,4999
retaliation,5000
retiring,5001
retold,5002
retracts,5003
retrieve,5004
retrospect,5005
retry,5006
return,5007
returning,5008
revealed,5009
revelation,5010
revenge,5011
review,5012
revisionist,5013
revolution,5014
revolutionary,5015
reward,5016
rewrite,5017
reza,5018
rhetoric,5019
rhodesia,5020
rice,5021
rich,5022
richard,5023
richer,5024
richest,5025
ricketts,5026
rid,5027
riddance,5028
ridiclus,5029
ridiculous,5030
ridiculously,5031
riding,5032
right,5033
righteous,5034
rightful,5035
rights,5036
ring,5037
rings,5038
riot,5039
rioting,5040
riotng,5041
riots,5042
ripley,5043
ripped,5044
rise,5045
risen,5046
rises,5047
risible,5048
rising,5049
risk,5050
rita,5051
rittaq,5052
rjsc,5053
road,5054
roadmap,5055
roam,5056
roar,5057
robbie,5058
robert,5059
rocket,5060
rockets,5061
rocks,5062
rogue,5063
role,5064
roles,5065
rolling,5066
roma,5067
roman,5068
romania,5069
romans,5070
romantic,5071
romney,5072
roof,5073
room,5074
rooming,5075
roosvelt,5076
root,5077
rooted,5078
rooting,5079
ropert,5080
rose,5081
rosie,5082
rough,5083
round,5084
roundabouts,5085
rounded,5086
rounds,5087
rouser,5088
rout,5089
route,5090
routinely,5091
royal,5092
roybearparsedtwodigits,5093
rpg,5094
rsed,5095
rubbing,5096
rubbish,5097
rubbu,5098
ruined,5099
ruining,5100
rule,5101
ruled,5102
rulers,5103
rules,5104
ruling,5105
rumbles,5106
rumsfeld,5107
run,5108
running,5109
runs,5110
rural,5111
rush,5112
russia,5113
russian,5114
russians,5115
ruth,5116
ruthlessly,5117
rwanda,5118
ry,5119
sa,5120
sabra,5121
sabre,5122
sacking,5123
sacrifices,5124
sad,5125
sadam,5126
sadat,5127
saddam,5128
sadly,5129
saeed,5130
safe,5131
safeguard,5132
safely,5133
sahaf,5134
said,5135
sailors,5136
sake,5137
salafists,5138
salaries,5139
salary,5140
sales,5141
salome,5142
samadashvili,5143
sanctioned,5144
sanctioning,5145
sanctions,5146
sandbox,5147
sandwich,5148
sane,5149
sanitation,5150
sarah,5151
sarcastic,5152
sassanid,5153
sat,5154
satan,5155
satanic,5156
satellites,5157
satirist,5158
satisfactory,5159
satisfy,5160
saturday,5161
saudi,5162
sauds,5163
savagery,5164
save,5165
saved,5166
saves,5167
saw,5168
saxon,5169
say,5170
saying,5171
says,5172
scale,5173
scales,5174
scam,5175
scandal,5176
scandanavia,5177
scapegoat,5178
scapegoated,5179
scared,5180
scaremongering,5181
scargill,5182
sceintist,5183
scenario,5184
scenarios,5185
scenes,5186
scewed,5187
sch,5188
schemes,5189
scholars,5190
school,5191
schoolchildren,5192
schools,5193
schwartskopf,5194
science,5195
scienitst,5196
scientific,5197
scientist,5198
scientists,5199
score,5200
scores,5201
scot,5202
scotland,5203
scots,5204
scottish,5205
scottishness,5206
scrap,5207
screaming,5208
screw,5209
screwed,5210
screwing,5211
scrutiny,5212
scum,5213
scupper,5214
sea,5215
sealion,5216
sean,5217
search,5218
searched,5219
searching,5220
season,5221
seat,5222
seats,5223
second,5224
secondary,5225
seconds,5226
secret,5227
secs,5228
sectarian,5229
section,5230
sector,5231
secular,5232
secured,5233
security,5234
sedition,5235
seed,5236
seeing,5237
seek,5238
seeking,5239
seeme,5240
seen,5241
seeping,5242
seeps,5243
sees,5244
segregation,5245
seldom,5246
selection,5247
selective,5248
selectively,5249
selectiveness,5250
selector,5251
selects,5252
self,5253
sell,5254
seller,5255
semantics,5256
semetic,5257
semetism,5258
semite,5259
semites,5260
semitic,5261
semitism,5262
senate,5263
senator,5264
send,5265
sending,5266
senior,5267
sense,5268
sensible,5269
sensitive,5270
sensitivity,5271
sent,5272
sentence,5273
sentenced,5274
sentiments,5275
sep,5276
separating,5277
separation,5278
separatum,5279
september,5280
septmeber,5281
sequels,5282
sequence,5283
seriously,5284
servants,5285
serve,5286
served,5287
serves,5288
service,5289
servicemen,5290
services,5291
servies,5292
serving,5293
sessions,5294
set,5295
settle,5296
settlement,5297
settlements,5298
settler,5299
settlers,5300
settles,5301
seucrity,5302
seven,5303
seventh,5304
severely,5305
sex,5306
sexist,5307
sexual,5308
sfc,5309
sh,5310
shabby,5311
shades,5312
shah,5313
shahab,5314
shakes,5315
shall,5316
shalom,5317
shame,5318
shameful,5319
shankar,5320
shapes,5321
share,5322
shared,5323
sharia,5324
shariah,5325
sharing,5326
sharon,5327
shatilla,5328
sheer,5329
sheesh,5330
sheikh,5331
sheiks,5332
sheilds,5333
shelter,5334
shenanigans,5335
shia,5336
shias,5337
shields,5338
shifted,5339
shifting,5340
ship,5341
ships,5342
shock,5343
shoe,5344
shoes,5345
shoot,5346
shooting,5347
shootings,5348
shoots,5349
short,5350
shortages,5351
shortcomingof,5352
shorter,5353
shortlist,5354
shot,5355
shots,5356
shouldn,5357
shout,5358
showbiz,5359
showcase,5360
showed,5361
showing,5362
shown,5363
shows,5364
shrinking,5365
shunned,5366
shut,5367
shutting,5368
shy,5369
sick,5370
sickening,5371
sickeningly,5372
sided,5373
sides,5374
sieging,5375
sight,5376
sign,5377
signed,5378
significant,5379
significantly,5380
signing,5381
signs,5382
sikh,5383
sikhs,5384
silence,5385
silliness,5386
silly,5387
silver,5388
simchaparsedonedigit,5389
similar,5390
similarly,5391
simon,5392
simonparsedtwodigits,5393
simple,5394
simpler,5395
simplicity,5396
simplify,5397
simply,5398
singing,5399
single,5400
singular,5401
siniora,5402
sinister,5403
sink,5404
sinking,5405
sinto,5406
sir,5407
sis,5408
sisters,5409
sit,5410
site,5411
sites,5412
sits,5413
sitting,5414
situation,5415
situations,5416
size,5417
sizeable,5418
sk,5419
skilled,5420
skills,5421
skirmish,5422
skull,5423
skulls,5424
slams,5425
slaughtered,5426
slave,5427
slaves,5428
sleng,5429
slide,5430
slight,5431
slightly,5432
slighty,5433
slinging,5434
slip,5435
slipped,5436
slipping,5437
slot,5438
slow,5439
slowly,5440
slur,5441
small,5442
smallwa,5443
smashed,5444
smelly,5445
smicha,5446
smidgeon,5447
smileys,5448
smililar,5449
smoke,5450
smoker,5451
smokescreen,5452
sneaked,5453
sneer,5454
sneering,5455
snideness,5456
snippet,5457
snogging,5458
snow,5459
soap,5460
social,5461
socialism,5462
socialist,5463
socialists,5464
societies,5465
society,5466
sodomy,5467
soemhow,5468
soil,5469
soilders,5470
sold,5471
soldier,5472
soldiers,5473
sole,5474
solely,5475
solid,5476
solidarity,5477
solomoron,5478
solution,5479
solve,5480
solved,5481
somali,5482
somalia,5483
somebody,5484
somethihng,5485
son,5486
song,5487
sonic,5488
sons,5489
soon,5490
sooner,5491
sophistry,5492
soprano,5493
sorry,5494
sort,5495
sorted,5496
sorts,5497
sound,5498
sounds,5499
source,5500
sources,5501
south,5502
southern,5503
sovereign,5504
soverignty,5505
soviet,5506
soviets,5507
sown,5508
space,5509
spaghetti,5510
spain,5511
spam,5512
spaniards,5513
spanish,5514
spawned,5515
speak,5516
speakin,5517
speaking,5518
speaks,5519
special,5520
specialist,5521
specific,5522
specifically,5523
spectacular,5524
spectating,5525
spectators,5526
speculation,5527
speculations,5528
speech,5529
speeches,5530
speed,5531
spell,5532
spelling,5533
spend,5534
spending,5535
spends,5536
spent,5537
spider,5538
spiked,5539
spin,5540
spinmeisters,5541
spiral,5542
spirit,5543
spirits,5544
spit,5545
splendid,5546
spoke,5547
spoken,5548
sponsors,5549
sport,5550
sportsfield,5551
spot,5552
spots,5553
spout,5554
spouts,5555
spray,5556
sprayed,5557
sprays,5558
spread,5559
spreading,5560
spree,5561
squad,5562
square,5563
squeamish,5564
sri,5565
stabbing,5566
stability,5567
stable,5568
staff,5569
stage,5570
stagnant,5571
stake,5572
stalin,5573
stalinism,5574
stalinist,5575
stalking,5576
stalling,5577
stamina,5578
stamp,5579
stance,5580
stand,5581
standard,5582
standards,5583
standing,5584
stands,5585
star,5586
starbucks,5587
stare,5588
stares,5589
start,5590
started,5591
starters,5592
starting,5593
starts,5594
starvation,5595
starved,5596
starving,5597
starwars,5598
stashed,5599
state,5600
stated,5601
statehood,5602
statement,5603
statementr,5604
statements,5605
states,5606
station,5607
stations,5608
statistics,5609
stats,5610
status,5611
stauts,5612
stay,5613
stayed,5614
steadily,5615
steal,5616
stealth,5617
stella,5618
step,5619
stepping,5620
sticking,5621
stir,5622
stlins,5623
stock,5624
stocks,5625
stole,5626
stolen,5627
stomachs,5628
stone,5629
stonings,5630
stood,5631
stop,5632
stoping,5633
stopped,5634
stopping,5635
stops,5636
stor,5637
store,5638
stores,5639
stories,5640
storm,5641
stormin,5642
story,5643
straight,5644
straightforward,5645
strand,5646
stranger,5647
strangulation,5648
strategic,5649
stratosphere,5650
straw,5651
strawman,5652
straws,5653
street,5654
streets,5655
strenegh,5656
strengh,5657
strength,5658
stresses,5659
stressful,5660
stretch,5661
stretcher,5662
stretchers,5663
strike,5664
strikes,5665
strip,5666
stripping,5667
strong,5668
strongest,5669
struck,5670
structures,5671
stuart,5672
stub,5673
stucked,5674
students,5675
studied,5676
studies,5677
study,5678
studying,5679
stuff,5680
stupa,5681
stupid,5682
stupidity,5683
style,5684
sub,5685
subject,5686
subjective,5687
subjects,5688
subjugated,5689
subliminally,5690
submit,5691
submitted,5692
subsequent,5693
subsidies,5694
substance,5695
substantial,5696
substantiate,5697
substantive,5698
substitute,5699
subtly,5700
suburban,5701
subvert,5702
succeed,5703
succeeding,5704
succesful,5705
succesfull,5706
success,5707
successes,5708
sucide,5709
sucks,5710
sudan,5711
sudaneese,5712
sudden,5713
suddenly,5714
sue,5715
suffer,5716
suffered,5717
suffering,5718
sufficient,5719
suggest,5720
suggested,5721
suggesting,5722
suggestion,5723
suicide,5724
suicides,5725
suit,5726
suitable,5727
suits,5728
sultan,5729
sum,5730
sumatra,5731
summarising,5732
sunlight,5733
sunni,5734
sunnis,5735
super,5736
supereamists,5737
superiority,5738
supplied,5739
supply,5740
supplying,5741
support,5742
supported,5743
supporter,5744
supporters,5745
supporting,5746
supports,5747
suppose,5748
supposed,5749
suppress,5750
supress,5751
supressor,5752
suprised,5753
suprises,5754
surbiton,5755
sure,5756
surely,5757
surpirse,5758
surpress,5759
surprise,5760
surprised,5761
surprising,5762
surrender,5763
surrounded,5764
surrounding,5765
surveillance,5766
surveys,5767
survival,5768
survive,5769
survived,5770
survivors,5771
suspect,5772
suspects,5773
suspense,5774
suspicious,5775
sustainable,5776
sustained,5777
suv,5778
svay,5779
swam,5780
swearing,5781
sweet,5782
sweets,5783
swim,5784
swimmer,5785
swimming,5786
swimsuit,5787
swimsuits,5788
swinger,5789
swings,5790
swiss,5791
switched,5792
sword,5793
syllables,5794
symbol,5795
symbolic,5796
symbolism,5797
symbols,5798
sympathetic,5799
sympathiser,5800
sympathize,5801
sympathy,5802
syria,5803
systematically,5804
systems,5805
ta,5806
table,5807
tablets,5808
tack,5809
tackle,5810
tactic,5811
tactics,5812
taheri,5813
taht,5814
tailor,5815
taken,5816
takeover,5817
takes,5818
taking,5819
taleban,5820
talent,5821
taliban,5822
talibans,5823
talk,5824
talking,5825
talks,5826
talmud,5827
talmudist,5828
tame,5829
tantrums,5830
tao,5831
tapes,5832
taps,5833
tar,5834
target,5835
targeted,5836
targets,5837
targetted,5838
targetting,5839
tariff,5840
tariffs,5841
tarred,5842
task,5843
tasks,5844
taste,5845
tatty,5846
taught,5847
tautological,5848
tax,5849
taxation,5850
taxes,5851
tb,5852
teach,5853
teacher,5854
teachers,5855
teaches,5856
teaching,5857
team,5858
teamed,5859
tear,5860
tearing,5861
tears,5862
technically,5863
techniques,5864
technology,5865
tedious,5866
teenage,5867
teens,5868
teh,5869
tel,5870
telegrams,5871
telegraph,5872
telemobiloscope,5873
telephone,5874
television,5875
tell,5876
telling,5877
tells,5878
temper,5879
tempers,5880
temples,5881
tempted,5882
tenants,5883
tend,5884
tender,5885
tends,5886
tenets,5887
tens,5888
tensions,5889
tenuous,5890
teresa,5891
term,5892
terms,5893
terrible,5894
terrifying,5895
territories,5896
territory,5897
terroism,5898
terror,5899
terrorised,5900
terrorism,5901
terrorist,5902
terrorists,5903
tessa,5904
test,5905
tested,5906
testified,5907
textbook,5908
textbooks,5909
th,5910
thailand,5911
thank,5912
thanked,5913
thankful,5914
thanks,5915
thanx,5916
thatcher,5917
thats,5918
theatrics,5919
theforevermanparsedonedigit,5920
theme,5921
themeselves,5922
theocracy,5923
theoretical,5924
theories,5925
theory,5926
thereof,5927
theres,5928
thier,5929
thing,5930
thingie,5931
things,5932
think,5933
thinking,5934
thinks,5935
thinly,5936
tho,5937
thoroughly,5938
thought,5939
thoughts,5940
thousand,5941
thousands,5942
thread,5943
threads,5944
threadstarter,5945
threat,5946
threatened,5947
threatening,5948
threatens,5949
threats,5950
threive,5951
throwing,5952
thrown,5953
thrust,5954
thu,5955
thursday,5956
tibet,5957
tibetan,5958
tidal,5959
tie,5960
tied,5961
ties,5962
tight,5963
tighten,5964
time,5965
times,5966
timesdispatch,5967
timewatch,5968
timor,5969
tiny,5970
tip,5971
tired,5972
tis,5973
title,5974
tko,5975
tnt,5976
today,5977
todays,5978
toddy,5979
toe,5980
toed,5981
toilet,5982
toilets,5983
told,5984
tolearance,5985
tolen,5986
tolerance,5987
tolerated,5988
toll,5989
tollerance,5990
tom,5991
tome,5992
tone,5993
tongue,5994
tonka,5995
tonker,5996
tony,5997
tonys,5998
tonysilver,5999
took,6000
tools,6001
topic,6002
topless,6003
toronto,6004
torpor,6005
torture,6006
toss,6007
total,6008
totally,6009
touches,6010
touching,6011
tough,6012
tour,6013
tourism,6014
tourist,6015
tournament,6016
tours,6017
tower,6018
towering,6019
towns,6020
toxic,6021
toyhon,6022
traceable,6023
traces,6024
track,6025
trade,6026
traded,6027
trader,6028
traders,6029
tradition,6030
traditional,6031
trafalgar,6032
traffic,6033
tragedies,6034
tragedy,6035
tragic,6036
trail,6037
trained,6038
training,6039
transact,6040
transatlantic,6041
transcript,6042
transcripts,6043
transistor,6044
translation,6045
transparent,6046
transplanted,6047
transport,6048
transporter,6049
trap,6050
trash,6051
trashed,6052
travel,6053
travelgalparsedthreedigits,6054
travelled,6055
travelling,6056
treachery,6057
treason,6058
treat,6059
treated,6060
treaties,6061
treatment,6062
treaty,6063
tree,6064
trembles,6065
trial,6066
trials,6067
tribes,6068
tribesmen,6069
trick,6070
tricks,6071
tried,6072
trigger,6073
trip,6074
tripe,6075
trite,6076
trolls,6077
troop,6078
troops,6079
trotted,6080
trouble,6081
trousers,6082
truce,6083
truck,6084
true,6085
truly,6086
truman,6087
trun,6088
trust,6089
truth,6090
try,6091
trying,6092
tsarion,6093
tsunami,6094
tubes,6095
tuesday,6096
tunes,6097
tungsram,6098
tunisia,6099
tuol,6100
turbulent,6101
turf,6102
turk,6103
turkey,6104
turkish,6105
turmoil,6106
turn,6107
turned,6108
turning,6109
turns,6110
tv,6111
twice,6112
twin,6113
twins,6114
twist,6115
twisted,6116
twisting,6117
twofold,6118
type,6119
typed,6120
types,6121
typical,6122
typically,6123
typo,6124
ubergunner,6125
uder,6126
uganda,6127
ugg,6128
ugly,6129
uk,6130
ukraine,6131
ukrainian,6132
ulpan,6133
ulster,6134
ultimately,6135
ultras,6136
umproviked,6137
unable,6138
unacceptable,6139
unanimous,6140
unarmed,6141
unbearable,6142
unbelievable,6143
uncaring,6144
uncivilised,6145
uncle,6146
unclear,6147
uncomfortable,6148
unconscionable,6149
uncontrollable,6150
unconventional,6151
undemocratic,6152
undeniably,6153
underestanding,6154
underlying,6155
undermine,6156
undermining,6157
understand,6158
understandable,6159
understanding,6160
understands,6161
understood,6162
undesired,6163
undoubtedly,6164
unecessary,6165
unemployment,6166
unfair,6167
unfairly,6168
unfettered,6169
unfold,6170
unfortunate,6171
unfortunately,6172
unfortunatley,6173
ungrateful,6174
unhappy,6175
unholy,6176
uni,6177
uninformed,6178
uninterupted,6179
union,6180
unionism,6181
unionists,6182
unit,6183
united,6184
universal,6185
universe,6186
universities,6187
university,6188
unjustifiable,6189
unjustified,6190
unless,6191
unlike,6192
unlikeable,6193
unlikely,6194
unnamed,6195
unnecessary,6196
unpleasant,6197
unpopular,6198
unpopulated,6199
unproven,6200
unrealistic,6201
unreasonable,6202
unrelated,6203
unreliable,6204
unreported,6205
unspeakable,6206
unsubstantiated,6207
unsuccessful,6208
unsuitable,6209
unto,6210
untrustworthy,6211
unwholesome,6212
unwilling,6213
uphold,6214
upset,6215
upside,6216
upstarts,6217
upu,6218
upward,6219
uranium,6220
urban,6221
urgent,6222
urges,6223
usa,6224
usapears,6225
use,6226
used,6227
useful,6228
useless,6229
username,6230
uses,6231
using,6232
usual,6233
usually,6234
utilitarian,6235
utopia,6236
utterly,6237
vacancies,6238
vacation,6239
vagant,6240
valid,6241
validated,6242
valise,6243
valuable,6244
value,6245
valued,6246
values,6247
vanunu,6248
variability,6249
variation,6250
variety,6251
various,6252
vast,6253
vat,6254
vatican,6255
vc,6256
ve,6257
vegetarian,6258
vehemently,6259
vehicles,6260
veiled,6261
vein,6262
venetians,6263
venezuala,6264
venezuela,6265
venezuelan,6266
venezuelans,6267
vent,6268
venture,6269
verb,6270
verbal,6271
verdict,6272
versa,6273
verse,6274
version,6275
vessel,6276
vested,6277
vestige,6278
veto,6279
vexing,6280
vice,6281
vicious,6282
victim,6283
victimhood,6284
victims,6285
victorian,6286
victories,6287
video,6288
vietnam,6289
view,6290
viewpoint,6291
viewpoints,6292
views,6293
vigilant,6294
vile,6295
vina,6296
vindicationparsedthreedigits,6297
vindictiveness,6298
violate,6299
violating,6300
violation,6301
violence,6302
violent,6303
virgins,6304
virtualisation,6305
virulently,6306
visible,6307
visit,6308
visited,6309
visitors,6310
vitamin,6311
viva,6312
viz,6313
vocal,6314
voice,6315
void,6316
volunteering,6317
vomit,6318
voodoo,6319
vote,6320
voted,6321
voters,6322
voting,6323
vs,6324
vulgar,6325
vw,6326
wacko,6327
waggy,6328
wail,6329
wailing,6330
wait,6331
waited,6332
waiting,6333
wales,6334
walk,6335
walking,6336
wall,6337
walled,6338
walnuts,6339
wander,6340
wandering,6341
wanna,6342
want,6343
wanted,6344
wants,6345
war,6346
warden,6347
warents,6348
warfare,6349
warmest,6350
warming,6351
warmonger,6352
warn,6353
warned,6354
warning,6355
warrant,6356
warrants,6357
warrnet,6358
wars,6359
wart,6360
wash,6361
washington,6362
wasn,6363
wasnt,6364
waste,6365
watch,6366
watches,6367
watching,6368
watchout,6369
water,6370
watered,6371
waters,6372
watersports,6373
watson,6374
watt,6375
wave,6376
waves,6377
waving,6378
way,6379
wayne,6380
ways,6381
wb,6382
wbos,6383
weak,6384
weakened,6385
weakens,6386
weakest,6387
weaklings,6388
weakness,6389
wealth,6390
wealthy,6391
weapon,6392
weaponry,6393
weapons,6394
wear,6395
wearing,6396
weather,6397
weaving,6398
weblog,6399
website,6400
websites,6401
wednesday,6402
wee,6403
weed,6404
week,6405
weeks,6406
weep,6407
weight,6408
weird,6409
weirdos,6410
welcome,6411
weltanschauung,6412
wendy,6413
wendyman,6414
wendymann,6415
went,6416
wepaons,6417
weren,6418
werent,6419
west,6420
western,6421
westerner,6422
wests,6423
westward,6424
wether,6425
wets,6426
whats,6427
whatsoever,6428
wheedling,6429
wheezing,6430
whic,6431
whichever,6432
whilst,6433
whinger,6434
whining,6435
whip,6436
whisky,6437
white,6438
whites,6439
whitey,6440
wholy,6441
whoops,6442
whosoever,6443
wide,6444
widely,6445
wider,6446
widespread,6447
widow,6448
wiener,6449
wife,6450
wik,6451
wikipedia,6452
wild,6453
williams,6454
willing,6455
willingness,6456
wing,6457
wingers,6458
wings,6459
winner,6460
winners,6461
winning,6462
wioth,6463
wipe,6464
wiped,6465
wiping,6466
wisdom,6467
wish,6468
wishes,6469
wishywashyness,6470
witha,6471
withdraw,6472
withdrawing,6473
withdrawn,6474
withdrawned,6475
withdrw,6476
withref,6477
withstand,6478
witness,6479
witnessed,6480
witnesses,6481
witty,6482
wmd,6483
wmds,6484
woe,6485
woken,6486
wolfowitz,6487
woman,6488
women,6489
won,6490
wonder,6491
wondered,6492
wonderful,6493
wonderfully,6494
wonderign,6495
wondering,6496
wonders,6497
wont,6498
woolwich,6499
word,6500
worded,6501
words,6502
wore,6503
work,6504
worked,6505
worker,6506
workers,6507
workforce,6508
working,6509
works,6510
workshops,6511
world,6512
worldwide,6513
worms,6514
worried,6515
worries,6516
worry,6517
worrying,6518
worse,6519
worship,6520
worst,6521
worth,6522
worthy,6523
wouldn,6524
wouldnt,6525
wounded,6526
wounding,6527
wow,6528
wp,6529
wragg,6530
wraggers,6531
wriggle,6532
write,6533
writing,6534
written,6535
wrong,6536
wrote,6537
wrt,6538
wsj,6539
wtc,6540
wto,6541
wums,6542
wwii,6543
wwparsedonedigit,6544
www,6545
xavier,6546
ya,6547
yank,6548
yanks,6549
yard,6550
yawn,6551
ye,6552
yea,6553
yeah,6554
year,6555
yearly,6556
years,6557
yeh,6558
yehudi,6559
yellow,6560
yep,6561
yes,6562
yield,6563
yields,6564
yo,6565
yoav,6566
yoke,6567
yor,6568
york,6569
yorkshire,6570
yossarian,6571
young,6572
younger,6573
yout,6574
youth,6575
yrs,6576
yummy,6577
yup,6578
yvonne,6579
zabacs,6580
zabak,6581
zarqawi,6582
zebra,6583
zebras,6584
zebrasviewpoint,6585
zeldalicious,6586
zero,6587
zi,6588
zidane,6589
zimbabwe,6590
zionism,6591
zionist,6592
zionists,6593
zoltán,6594
zone,6595
zones,6596
