___________________________,0
_______________________________,1
_____________________________________________,2
aaaahhhhhh,3
abandon,4
abducted,5
ability,6
able,7
abode,8
abolutely,9
aboriginal,10
abortion,11
abraham,12
abroad,13
abrupt,14
absence,15
absense,16
absolute,17
absolutely,18
absolution,19
absurd,20
abu,21
abuse,22
abusing,23
abysmally,24
academies,25
accept,26
acceptable,27
acceptance,28
accepted,29
accepting,30
access,31
accessible,32
accident,33
accommodate,34
accommodation,35
according,36
accordingly,37
account,38
accounts,39
accurate,40
accusation,41
accusations,42
accused,43
accusing,44
acer,45
achieve,46
achieving,47
acknowleged,48
acquire,49
act,50
acted,51
acting,52
action,53
actions,54
active,55
activity,56
acts,57
actual,58
actualisation,59
actually,60
acumen,61
acuses,62
acutely,63
acxts,64
ad,65
add,66
added,67
additionally,68
additionsal,69
address,70
addressed,71
addresses,72
addressing,73
adds,74
adjust,75
admin,76
administartion,77
administators,78
administration,79
administrative,80
administrators,81
admire,82
admission,83
admit,84
admitted,85
admitting,86
adopting,87
adulation,88
adults,89
advance,90
advanced,91
advances,92
advantage,93
adventure,94
advertise,95
advocate,96
advocating,97
aerial,98
afair,99
affair,100
affairs,101
affect,102
affinity,103
afflicting,104
afford,105
afghan,106
afghanistan,107
afghans,108
aforementioned,109
afraid,110
africa,111
african,112
age,113
agency,114
agenda,115
agendas,116
ages,117
aggression,118
aggressive,119
ago,120
agree,121
agreed,122
agreeing,123
agreement,124
agreements,125
agrees,126
ah,127
ahead,128
ahh,129
ahmed,130
aid,131
aiejrlsk,132
aim,133
aimed,134
aims,135
aina,136
air,137
aircraft,138
aired,139
airlines,140
airport,141
airports,142
airwaves,143
akin,144
al,145
alan,146
alans,147
alarming,148
alaska,149
albeit,150
albert,151
albright,152
alcohol,153
ales,154
ali,155
aliens,156
alike,157
alive,158
aliya,159
aljazeera,160
allah,161
allegations,162
alleged,163
allegedly,164
allende,165
alliance,166
allied,167
allies,168
allocated,169
alloted,170
allow,171
allowed,172
allowing,173
allows,174
allude,175
alluding,176
ally,177
alongside,178
alot,179
alright,180
alternating,181
altogether,182
amazed,183
amazing,184
ambassador,185
ambitions,186
ambulance,187
amd,188
america,189
american,190
americancivilians,191
americans,192
americas,193
amerindian,194
amerindians,195
amigo,196
amnesty,197
amodel,198
amounted,199
amounts,200
amp,201
amsterdam,202
amusement,203
amusing,204
analagous,205
analogies,206
analogy,207
analysis,208
anarchists,209
anarchy,210
ancestors,211
ancestral,212
ancestry,213
ancient,214
andrea,215
andy,216
angel,217
angela,218
angeles,219
anger,220
angle,221
angles,222
anglia,223
anglicans,224
angola,225
angry,226
animal,227
animals,228
ann,229
anne,230
annexing,231
annihilation,232
anniversary,233
announce,234
announced,235
annoyed,236
annoying,237
annual,238
anothers,239
anothr,240
answer,241
answered,242
answering,243
answers,244
antagonistic,245
anthony,246
anti,247
antibiotics,248
antineocon,249
anybody,250
anybodys,251
anymore,252
anythig,253
anytime,254
apart,255
apartheid,256
apartheit,257
apartment,258
apatheid,259
aperthied,260
apolitical,261
apologies,262
apologise,263
apologize,264
apology,265
appalled,266
appalling,267
apparent,268
apparently,269
appealed,270
appears,271
appeasers,272
appeases,273
appetite,274
applauded,275
apple,276
apples,277
apply,278
applying,279
appolo,280
appreciate,281
apprehension,282
approached,283
approaching,284
approval,285
approve,286
approved,287
approving,288
approx,289
approximately,290
april,291
apropriate,292
aquaintance,293
arab,294
arabia,295
arabians,296
arabic,297
arabs,298
arafat,299
arbitray,300
arbs,301
arch,302
architects,303
archives,304
area,305
areas,306
aren,307
arent,308
argentina,309
argue,310
argued,311
arguements,312
argues,313
arguing,314
argument,315
arguments,316
ariel,317
arm,318
armed,319
armenian,320
armies,321
arms,322
army,323
arnie,324
aropund,325
arranged,326
arrest,327
arrested,328
arrived,329
arriving,330
arrogant,331
arrow,332
arrresting,333
arsenals,334
art,335
article,336
articles,337
articulately,338
artificial,339
artillery,340
aryans,341
asdf,342
ashanti,343
asia,344
asian,345
asians,346
aside,347
ask,348
asked,349
asking,350
aspect,351
aspirational,352
aspire,353
asprin,354
assasination,355
assault,356
assembly,357
assert,358
assesement,359
assess,360
assessing,361
assimilate,362
assimilated,363
assimilation,364
assist,365
assistance,366
associate,367
associated,368
assume,369
assuming,370
assumption,371
assumptions,372
assure,373
astonishing,374
astounding,375
astute,376
aswat,377
aswell,378
ataturk,379
atlast,380
atleast,381
atom,382
atomic,383
atothez,384
atrocities,385
atrocity,386
atta,387
attack,388
attacked,389
attackers,390
attacking,391
attacks,392
attain,393
attempt,394
attempting,395
attempts,396
attention,397
attest,398
attire,399
attitude,400
attitudes,401
attorney,402
attract,403
attracted,404
attracts,405
attributable,406
attribute,407
attributing,408
audiance,409
audited,410
austarlia,411
australia,412
australian,413
australians,414
australias,415
austria,416
austrians,417
authorities,418
authority,419
authors,420
automobile,421
available,422
availed,423
avalible,424
avenge,425
average,426
avert,427
avigdor,428
aviv,429
avoid,430
avoided,431
avoiding,432
awaiting,433
award,434
aware,435
away,436
awe,437
awful,438
axe,439
axegrinder,440
ay,441
az,442
azania,443
azar,444
aziz,445
baader,446
baathists,447
babies,448
baby,449
backed,450
background,451
backing,452
backwater,453
bad,454
badly,455
baffles,456
bagdad,457
baggage,458
baghdad,459
bailiffs,460
bajore,461
balance,462
balancing,463
balfour,464
bali,465
balkan,466
ball,467
ballot,468
balls,469
ban,470
band,471
bang,472
banging,473
bank,474
bankers,475
bankruptcy,476
banning,477
bar,478
barabism,479
barack,480
barbados,481
barbarians,482
barbaric,483
barbarism,484
barbarity,485
bargain,486
barking,487
barmy,488
barrel,489
barrier,490
bartering,491
base,492
baseball,493
based,494
baseless,495
bases,496
bashing,497
basic,498
basically,499
basics,500
basiji,501
basis,502
basra,503
bat,504
batttle,505
bbc,506
beach,507
beaches,508
bear,509
beard,510
bearded,511
bearing,512
bears,513
beat,514
beating,515
beats,516
beause,517
beautiful,518
becuase,519
bed,520
beeb,521
beef,522
began,523
beggars,524
begger,525
begging,526
begin,527
beginning,528
beharry,529
behave,530
behaved,531
behavior,532
behaviour,533
beheading,534
behold,535
beings,536
beirut,537
belfer,538
belgiium,539
belief,540
beliefs,541
believe,542
believed,543
believes,544
believing,545
believs,546
belittle,547
belived,548
bellicose,549
belly,550
belong,551
belonging,552
belongs,553
belt,554
ben,555
bending,556
beneath,557
benefit,558
benefits,559
bennett,560
bennnett,561
benny,562
benz,563
berlusconi,564
bertie,565
best,566
bested,567
bet,568
bethlehem,569
betrays,570
better,571
bho,572
bias,573
big,574
bigger,575
biggest,576
bigot,577
bigoted,578
bigotry,579
bigots,580
bigotted,581
billion,582
billions,583
bills,584
bin,585
binoculars,586
bird,587
birds,588
birth,589
bit,590
bitch,591
bites,592
bits,593
bizarre,594
black,595
blacks,596
blah,597
blair,598
blame,599
blamed,600
blames,601
blast,602
blaster,603
blatant,604
blatantly,605
blatter,606
bleat,607
bleating,608
bleeding,609
blending,610
blessed,611
blessing,612
blew,613
bliar,614
blind,615
blindly,616
blocade,617
blockaded,618
blocks,619
blood,620
bloodshed,621
bloody,622
blow,623
blowing,624
blows,625
blue,626
blurt,627
bnp,628
board,629
boarders,630
boards,631
boat,632
body,633
bogus,634
bold,635
bolster,636
bolton,637
bomb,638
bombardment,639
bombardments,640
bombed,641
bomber,642
bombers,643
bombing,644
bombings,645
bombs,646
bon,647
bona,648
bones,649
bonhoeffer,650
bonuses,651
book,652
boom,653
booming,654
booms,655
boosting,656
boot,657
bootlickers,658
boots,659
bordeauxparsedtwodigits,660
border,661
bordering,662
borders,663
bore,664
boring,665
boris,666
born,667
borrower,668
bother,669
bothered,670
bothering,671
bottle,672
bought,673
bound,674
boundaries,675
boundary,676
bowing,677
bowl,678
bownding,679
box,680
boy,681
boycott,682
boycotting,683
boydavey,684
boys,685
brain,686
brainwashed,687
branch,688
branded,689
brandon,690
brats,691
brave,692
bravery,693
brazeness,694
breach,695
break,696
breaker,697
breaking,698
breath,699
breslan,700
brewers,701
briatain,702
bribe,703
bribes,704
bribing,705
brief,706
brigade,707
brilliant,708
brimstone,709
bring,710
bringing,711
brings,712
brit,713
britain,714
britan,715
british,716
britons,717
brits,718
broadcast,719
broadly,720
broke,721
broken,722
bronx,723
brother,724
brothers,725
brought,726
brown,727
brunt,728
brutal,729
brutality,730
brutally,731
brutish,732
bs,733
btw,734
bud,735
buddhist,736
buddy,737
budget,738
buggars,739
build,740
building,741
buildings,742
builds,743
built,744
bulgaria,745
bull,746
bullet,747
bullets,748
bum,749
bummed,750
bunch,751
bunfight,752
bunker,753
bunkers,754
burden,755
bureaucracy,756
burger,757
buried,758
burka,759
burma,760
burn,761
bus,762
bush,763
business,764
busses,765
bust,766
busy,767
button,768
buy,769
buying,770
buys,771
bwahaha,772
bye,773
cabal,774
cabinet,775
cable,776
caesar,777
cafes,778
cahvez,779
cake,780
calais,781
calculating,782
calf,783
californian,784
caliphite,785
called,786
calling,787
calls,788
cambodia,789
camcorder,790
came,791
camera,792
camp,793
campagain,794
campaign,795
campare,796
campus,797
canaanintes,798
canaanite,799
canada,800
canadafreepress,801
canadian,802
canadians,803
cancel,804
cancer,805
candle,806
cannanites,807
canons,808
cap,809
capabilities,810
capability,811
capable,812
capital,813
capitalist,814
capitol,815
captainlogic,816
captcha,817
captured,818
car,819
carbine,820
care,821
cared,822
careful,823
cares,824
carolina,825
carpet,826
carried,827
carry,828
carrying,829
cars,830
cartel,831
cartels,832
carter,833
carthy,834
carthyism,835
cartoon,836
cartoons,837
case,838
cases,839
cash,840
casinos,841
castro,842
casualties,843
casualty,844
cat,845
catastrophic,846
catch,847
categories,848
category,849
catering,850
cathars,851
cathch,852
catholic,853
catholics,854
caught,855
cause,856
caused,857
causes,858
causing,859
ceacefire,860
cease,861
ceased,862
ceasefire,863
ceding,864
celebrate,865
celebration,866
celebrations,867
cell,868
cellar,869
censorship,870
cent,871
center,872
central,873
centredaily,874
centres,875
centuries,876
century,877
certai,878
certain,879
certainly,880
chain,881
chair,882
chairs,883
chalabi,884
challenged,885
challenging,886
chance,887
chancellor,888
chances,889
change,890
changed,891
changes,892
changing,893
channel,894
chaos,895
chap,896
chapel,897
chapter,898
character,899
characterful,900
characterise,901
characterised,902
characteristic,903
characters,904
charge,905
charged,906
charges,907
charismatic,908
charities,909
charity,910
charlesi,911
charters,912
chashews,913
chat,914
chavez,915
cheap,916
cheat,917
check,918
checked,919
checks,920
cheddi,921
cheek,922
cheered,923
cheering,924
cheerleaders,925
cheers,926
cheese,927
chemical,928
cheney,929
chest,930
chicago,931
chicken,932
chief,933
child,934
childhood,935
childish,936
childline,937
children,938
childs,939
china,940
chinese,941
chipmaker,942
chips,943
choice,944
choices,945
chomsky,946
choose,947
choosen,948
chooses,949
choosing,950
choosy,951
chopped,952
chore,953
chose,954
chosen,955
christ,956
christian,957
christianity,958
christians,959
christinaity,960
christmas,961
christrainanti,962
chritians,963
chrsitian,964
chucking,965
chunck,966
chunk,967
chunks,968
church,969
churches,970
churchill,971
cia,972
circle,973
circles,974
circling,975
circumstance,976
circumstances,977
circus,978
citation,979
citations,980
cited,981
cities,982
citizen,983
citizens,984
citizenship,985
city,986
civil,987
civilian,988
civilians,989
civilisation,990
civilised,991
civilized,992
civillian,993
civilzed,994
civlian,995
claim,996
claimed,997
claiming,998
claims,999
clamp,1000
clap,1001
clarification,1002
class,1003
classes,1004
classics,1005
classified,1006
claudius,1007
clause,1008
cleanse,1009
cleansed,1010
cleansing,1011
clear,1012
cleared,1013
clearing,1014
clearly,1015
clergy,1016
clever,1017
cliche,1018
cliches,1019
clicking,1020
client,1021
cling,1022
clinton,1023
clip,1024
close,1025
closed,1026
closely,1027
closet,1028
closure,1029
clould,1030
clout,1031
clue,1032
clueless,1033
clumsily,1034
cluster,1035
clutching,1036
cnn,1037
coal,1038
coalition,1039
coastal,1040
cocaine,1041
codes,1042
coexistence,1043
coffee,1044
coffin,1045
cognitive,1046
cohabitate,1047
coherent,1048
cohesion,1049
coin,1050
coincidence,1051
coinciding,1052
cojones,1053
colaboration,1054
cold,1055
coleman,1056
collaborated,1057
collaboration,1058
collaborators,1059
collateral,1060
collatoral,1061
colleagues,1062
collection,1063
college,1064
colleges,1065
collide,1066
colneljihadist,1067
colonalism,1068
colonel,1069
colonelartist,1070
colonial,1071
colonialism,1072
colonialists,1073
colonised,1074
colonists,1075
colonized,1076
colonizers,1077
colours,1078
colt,1079
columbia,1080
column,1081
columnist,1082
com,1083
coma,1084
combat,1085
combatants,1086
combatting,1087
combined,1088
combing,1089
come,1090
comes,1091
comfortable,1092
comfortably,1093
comforting,1094
comical,1095
coming,1096
command,1097
commemorated,1098
commemorations,1099
comment,1100
comments,1101
commercial,1102
commie,1103
comming,1104
commission,1105
commits,1106
committed,1107
committee,1108
committing,1109
committment,1110
common,1111
communication,1112
communing,1113
communism,1114
communist,1115
communists,1116
communities,1117
community,1118
companies,1119
company,1120
compare,1121
compared,1122
compares,1123
comparing,1124
comparison,1125
compass,1126
compassionate,1127
compelled,1128
compensated,1129
competed,1130
competent,1131
competition,1132
competitive,1133
competitor,1134
competitors,1135
complain,1136
complaining,1137
complaint,1138
complaints,1139
complete,1140
completely,1141
compliant,1142
comprehension,1143
comprised,1144
compromises,1145
computer,1146
computers,1147
concede,1148
conceived,1149
concentrated,1150
concentration,1151
concept,1152
concern,1153
concerned,1154
concerning,1155
concerns,1156
concesions,1157
concieved,1158
concluded,1159
conclusion,1160
conclusions,1161
condaleeza,1162
condemn,1163
condemnation,1164
condemned,1165
condemning,1166
condescending,1167
conditions,1168
condone,1169
condones,1170
conduct,1171
conducted,1172
conference,1173
confession,1174
confident,1175
confirmed,1176
conflict,1177
conflicts,1178
confronts,1179
confuse,1180
confused,1181
confuses,1182
confusing,1183
congrats,1184
congratulations,1185
congress,1186
congressmen,1187
conjecture,1188
connections,1189
connects,1190
conny,1191
conquer,1192
conquered,1193
conquest,1194
cons,1195
consent,1196
consequence,1197
consequences,1198
consequently,1199
conservative,1200
conservbatives,1201
consider,1202
considerably,1203
consideration,1204
considered,1205
considering,1206
consistency,1207
consistent,1208
consistently,1209
consists,1210
consolidation,1211
conspiracy,1212
conspiratorial,1213
constant,1214
constitute,1215
constitution,1216
constitutional,1217
construction,1218
constructively,1219
consulate,1220
consult,1221
contact,1222
contain,1223
containing,1224
contains,1225
contaminated,1226
contemporary,1227
contempory,1228
contempt,1229
conten,1230
context,1231
continent,1232
continously,1233
continually,1234
continue,1235
continued,1236
continues,1237
continuously,1238
continuum,1239
contract,1240
contradiction,1241
contrary,1242
contrast,1243
contray,1244
contribute,1245
contributed,1246
contributes,1247
contributions,1248
contributors,1249
control,1250
controlled,1251
controlling,1252
controls,1253
controversial,1254
conveniant,1255
convenient,1256
convention,1257
conventional,1258
convert,1259
conveys,1260
convicted,1261
conviction,1262
convictions,1263
convince,1264
convinced,1265
convoy,1266
cool,1267
cooperation,1268
cop,1269
copenhagen,1270
coppeliadee,1271
core,1272
corner,1273
corporate,1274
corporation,1275
corpses,1276
corpus,1277
correct,1278
corrected,1279
correction,1280
correctly,1281
correlation,1282
correspondent,1283
corrupt,1284
corruption,1285
cos,1286
cost,1287
costed,1288
cough,1289
couldn,1290
council,1291
count,1292
counter,1293
counterargument,1294
counterparts,1295
counterpoints,1296
counting,1297
countries,1298
countruies,1299
country,1300
countrymen,1301
coup,1302
couple,1303
courage,1304
courageous,1305
course,1306
court,1307
courtesy,1308
courting,1309
courts,1310
cousin,1311
cousins,1312
cover,1313
coverage,1314
covered,1315
covering,1316
cowardly,1317
cowards,1318
cowboy,1319
cowboys,1320
cows,1321
cp,1322
crackpot,1323
cracks,1324
crap,1325
crass,1326
crazy,1327
create,1328
created,1329
creating,1330
creation,1331
creatures,1332
credence,1333
credit,1334
creeping,1335
creole,1336
crescent,1337
cretin,1338
cretins,1339
cricism,1340
cricket,1341
crime,1342
crimes,1343
criminal,1344
criminals,1345
cripple,1346
crisis,1347
cristian,1348
criteria,1349
critical,1350
criticise,1351
criticised,1352
criticising,1353
criticism,1354
criticisms,1355
criticize,1356
criticized,1357
criticizing,1358
critique,1359
critiques,1360
critise,1361
cronies,1362
crook,1363
crooked,1364
cross,1365
crossbones,1366
crossed,1367
crossing,1368
crucial,1369
crusade,1370
crush,1371
crying,1372
cuba,1373
cuban,1374
culprit,1375
cult,1376
cultural,1377
culture,1378
cultures,1379
cup,1380
cure,1381
curious,1382
current,1383
currently,1384
cushion,1385
cusp,1386
custom,1387
customs,1388
cut,1389
cute,1390
cuts,1391
cybersoldiers,1392
cyprus,1393
dad,1394
daddy,1395
daft,1396
dag,1397
dag_petersen,1398
dagnarius,1399
daily,1400
damage,1401
damages,1402
damned,1403
damnocrasy,1404
dan,1405
dancers,1406
dandy,1407
danes,1408
danger,1409
dangerous,1410
danish,1411
danmark,1412
dare,1413
darfour,1414
darfur,1415
dark,1416
darn,1417
dart,1418
darthvedder,1419
darvishi,1420
darwin,1421
data,1422
date,1423
dated,1424
daughters,1425
davidson,1426
davison,1427
dawson,1428
day,1429
days,1430
dead,1431
deadlocked,1432
deadly,1433
deafening,1434
deal,1435
dealing,1436
dealings,1437
dealt,1438
dealtwith,1439
dear,1440
death,1441
deaths,1442
debate,1443
debated,1444
debates,1445
debating,1446
debtor,1447
debts,1448
decade,1449
deceipt,1450
deceit,1451
deceive,1452
december,1453
decency,1454
decent,1455
deception,1456
decide,1457
decided,1458
decides,1459
decision,1460
decisions,1461
deck,1462
declaration,1463
declared,1464
declaring,1465
decline,1466
declined,1467
decontextualised,1468
decreasing,1469
dedicated,1470
deep,1471
deeper,1472
defacating,1473
defacing,1474
defaluting,1475
defence,1476
defend,1477
defenders,1478
defending,1479
defense,1480
defent,1481
deficiency,1482
deficit,1483
deficits,1484
defination,1485
definatly,1486
define,1487
defines,1488
defining,1489
definitely,1490
definition,1491
definitions,1492
deflect,1493
deflection,1494
degrade,1495
dehumanization,1496
delegation,1497
deliberate,1498
deliberately,1499
delighted,1500
delightful,1501
delightfully,1502
deliver,1503
delivered,1504
dell,1505
delude,1506
deluge,1507
delusional,1508
delve,1509
dem,1510
demand,1511
demanding,1512
demands,1513
demeaning,1514
demeans,1515
demise,1516
democracies,1517
democracy,1518
democrat,1519
democratic,1520
democratically,1521
democrats,1522
democtrats,1523
demographic,1524
demonizing,1525
demonstrate,1526
demonstrated,1527
demonstrates,1528
demonstrating,1529
denial,1530
denied,1531
denigrates,1532
denigration,1533
denmark,1534
denominations,1535
denoting,1536
denser,1537
dent,1538
denverpost,1539
deny,1540
denying,1541
department,1542
depend,1543
depending,1544
depends,1545
depicted,1546
depleted,1547
deployment,1548
depose,1549
depository,1550
depression,1551
depressives,1552
depth,1553
deputy,1554
deranged,1555
derogatorily,1556
desade,1557
descended,1558
descends,1559
described,1560
deserve,1561
deserved,1562
deserves,1563
designated,1564
designed,1565
desire,1566
desired,1567
desperate,1568
desperation,1569
despise,1570
despite,1571
despose,1572
destabilising,1573
destroy,1574
destroyed,1575
destroying,1576
destruction,1577
destructive,1578
destrution,1579
detailing,1580
details,1581
detected,1582
deter,1583
deterent,1584
determination,1585
determine,1586
determined,1587
determining,1588
deterrence,1589
deterrent,1590
deterrents,1591
detonates,1592
detonating,1593
detraction,1594
deutschmark,1595
devastated,1596
devastatingly,1597
develop,1598
developed,1599
developing,1600
development,1601
devices,1602
devil,1603
devoid,1604
dez,1605
di,1606
dialects,1607
diana,1608
diaries,1609
dick,1610
dickie,1611
dictated,1612
dictator,1613
dictatorial,1614
dictators,1615
dictatorship,1616
dictatorships,1617
did,1618
didn,1619
didnt,1620
die,1621
died,1622
dies,1623
diet,1624
differant,1625
difference,1626
differences,1627
different,1628
differes,1629
differing,1630
difficult,1631
difficulty,1632
digging,1633
dignified,1634
dignity,1635
digress,1636
dim,1637
dinner,1638
dinosaurs,1639
dioxin,1640
dipanna,1641
diplomacy,1642
diplomatic,1643
diplomats,1644
direct,1645
directed,1646
direction,1647
directly,1648
director,1649
dirty,1650
disagree,1651
disagreement,1652
disappoint,1653
disappointed,1654
disappointment,1655
disapprove,1656
disarming,1657
disaster,1658
disater,1659
disbelieve,1660
disconnection,1661
discourse,1662
discover,1663
discovered,1664
discovery,1665
discredit,1666
discrete,1667
discuss,1668
discussing,1669
discussion,1670
discussions,1671
disease,1672
diseases,1673
disengagement,1674
disengenious,1675
disgraceful,1676
disgusting,1677
dishonest,1678
dishonesty,1679
disinterest,1680
dislie,1681
disliked,1682
dismiss,1683
dismissed,1684
disobey,1685
disparaging,1686
disparity,1687
dispicable,1688
display,1689
disposal,1690
disproportionate,1691
disproportionately,1692
dispute,1693
disputed,1694
disputes,1695
distance,1696
distasteful,1697
distating,1698
distinguish,1699
distorter,1700
distortions,1701
distract,1702
distributed,1703
distributing,1704
districts,1705
divert,1706
divide,1707
dividends,1708
divisive,1709
divorced,1710
djia,1711
dna,1712
docks,1713
doctor,1714
doctors,1715
doctrine,1716
docu,1717
document,1718
documentated,1719
documented,1720
documenting,1721
documents,1722
dod,1723
dodge,1724
dodgy,1725
does,1726
doesn,1727
doesnt,1728
dog,1729
dogs,1730
doing,1731
dollar,1732
dollars,1733
domestic,1734
dominant,1735
dominate,1736
don,1737
donald,1738
donated,1739
donations,1740
donator,1741
dont,1742
donøt,1743
door,1744
doorsteps,1745
doplomatic,1746
dossier,1747
dostum,1748
dotted,1749
double,1750
doubt,1751
doubts,1752
dow,1753
downhill,1754
downs,1755
dozen,1756
dozens,1757
dr,1758
draconian,1759
draft,1760
drain,1761
drained,1762
dramatically,1763
draw,1764
drawers,1765
drawings,1766
drawn,1767
draws,1768
dream,1769
dreaming,1770
dreidelspin,1771
dresden,1772
dress,1773
dresses,1774
drink,1775
drinking,1776
drive,1777
drivel,1778
driven,1779
driver,1780
drives,1781
driving,1782
drone,1783
drop,1784
dropped,1785
drove,1786
drug,1787
drums,1788
drunk,1789
dry,1790
du,1791
dubai,1792
dubya,1793
duck,1794
ducks,1795
duh,1796
dull,1797
dumber,1798
dump,1799
dumped,1800
dumps,1801
dunno,1802
duped,1803
duplicity,1804
dura,1805
dutch,1806
duty,1807
dwarfs,1808
dying,1809
dynamic,1810
dysfunctional,1811
eager,1812
ear,1813
eard,1814
earlier,1815
early,1816
earn,1817
earned,1818
earning,1819
earnings,1820
ears,1821
earth,1822
earthquake,1823
easier,1824
easily,1825
easing,1826
east,1827
eastern,1828
easterners,1829
easy,1830
eat,1831
eating,1832
ebt,1833
ebts,1834
economic,1835
economical,1836
economics,1837
economies,1838
economy,1839
ecosystem,1840
ecstasy,1841
ed,1842
edcuated,1843
edition,1844
educate,1845
educated,1846
education,1847
educational,1848
eec,1849
effect,1850
effective,1851
effectively,1852
effects,1853
effort,1854
egeland,1855
egg,1856
ego,1857
egypt,1858
egyptians,1859
eh,1860
eighteen,1861
eighties,1862
eighty,1863
eire,1864
eith,1865
elderly,1866
elect,1867
elected,1868
electing,1869
elections,1870
electorate,1871
elects,1872
element,1873
elemets,1874
elephants,1875
em,1876
emailed,1877
emanate,1878
embarrassing,1879
embarrassment,1880
embraced,1881
embracing,1882
embroiled,1883
emerged,1884
emigrating,1885
emission,1886
emmigrated,1887
empathize,1888
emphasising,1889
empire,1890
empires,1891
employed,1892
employer,1893
empowering,1894
empt,1895
empting,1896
emptively,1897
en,1898
enacting,1899
encountered,1900
encourage,1901
encouraged,1902
encouragement,1903
encourages,1904
encourged,1905
end,1906
ended,1907
endless,1908
enemies,1909
enemy,1910
enemys,1911
energybulletin,1912
enforce,1913
enforcing,1914
engage,1915
engaged,1916
engagement,1917
engaging,1918
engineered,1919
engineering,1920
engineers,1921
england,1922
english,1923
englishman,1924
engulfed,1925
enitrely,1926
enjoy,1927
enjoys,1928
enlighten,1929
enlightened,1930
enlightening,1931
enlisted,1932
enrichment,1933
enrolled,1934
enshrined,1935
ensure,1936
entered,1937
entering,1938
enterprise,1939
entertainment,1940
entire,1941
entirely,1942
entirety,1943
entitled,1944
entrapment,1945
environment,1946
environmental,1947
envoy,1948
epic,1949
episode,1950
equal,1951
equality,1952
equally,1953
equated,1954
equivalence,1955
equivalent,1956
er,1957
era,1958
erected,1959
erm,1960
err,1961
erroneous,1962
error,1963
errors,1964
errr,1965
es,1966
escalating,1967
especially,1968
essentially,1969
establish,1970
establishing,1971
esteem,1972
estimate,1973
estimated,1974
et,1975
eta,1976
ethnic,1977
ethnically,1978
ethnicity,1979
ethnicly,1980
eu,1981
euphamistically,1982
euro,1983
euroleft,1984
eurolefties,1985
eurolefty,1986
europe,1987
european,1988
europeans,1989
europes,1990
euros,1991
evastating,1992
evening,1993
event,1994
events,1995
eventually,1996
everybody,1997
everyday,1998
evicted,1999
evicting,2000
evidece,2001
evidence,2002
evidenced,2003
evil,2004
evilize,2005
evils,2006
evo,2007
evolve,2008
evolved,2009
ex,2010
exact,2011
exactly,2012
exaggerated,2013
examine,2014
example,2015
examples,2016
exceeds,2017
excellent,2018
exception,2019
exceptions,2020
excessive,2021
exchange,2022
exchanged,2023
excited,2024
exciting,2025
excludes,2026
exclusive,2027
exclusively,2028
excrement,2029
excuse,2030
excuses,2031
executed,2032
executive,2033
exempt,2034
exept,2035
exercise,2036
exerted,2037
exhausted,2038
exiled,2039
exist,2040
existence,2041
existential,2042
exists,2043
exiting,2044
expanding,2045
expansion,2046
expansionist,2047
expat,2048
expect,2049
expectation,2050
expected,2051
expects,2052
expel,2053
expense,2054
expensive,2055
experience,2056
experienced,2057
experts,2058
explain,2059
explained,2060
explaining,2061
explains,2062
explanation,2063
explicit,2064
explicitly,2065
exploded,2066
exploit,2067
explore,2068
explored,2069
explosively,2070
exports,2071
expose,2072
exposes,2073
exposing,2074
expounded,2075
expressed,2076
expressing,2077
expression,2078
extend,2079
extent,2080
extermination,2081
external,2082
extinct,2083
extinction,2084
extra,2085
extraction,2086
extradition,2087
extreme,2088
extremely,2089
extremisim,2090
extremist,2091
extremists,2092
exxon,2093
eye,2094
eyes,2095
eyewitnesses,2096
fabrication,2097
face,2098
faced,2099
faces,2100
facing,2101
fact,2102
factor,2103
factors,2104
factory,2105
facts,2106
factual,2107
factually,2108
fail,2109
failed,2110
failing,2111
failings,2112
fails,2113
failure,2114
fair,2115
faith,2116
falkenburg,2117
falklands,2118
fall,2119
falling,2120
falls,2121
false,2122
familiar,2123
families,2124
family,2125
famous,2126
fan,2127
fanatic,2128
fanatical,2129
fanatically,2130
fanatics,2131
fancied,2132
fancy,2133
fantasy,2134
far,2135
farc,2136
farce,2137
farm,2138
farmers,2139
fascinating,2140
fascism,2141
fascist,2142
fascistic,2143
fascists,2144
fashion,2145
fashioned,2146
fast,2147
fat,2148
father,2149
fault,2150
faults,2151
fauxtography,2152
favour,2153
favourable,2154
favourite,2155
favours,2156
fear,2157
fearing,2158
fears,2159
feature,2160
fed,2161
federal,2162
feeble,2163
feed,2164
feeding,2165
feel,2166
feeling,2167
feelings,2168
feels,2169
fees,2170
feet,2171
feisal,2172
fellas,2173
fellow,2174
felt,2175
female,2176
fence,2177
ferrari,2178
fervently,2179
fewer,2180
ffs,2181
fgm,2182
fide,2183
field,2184
fields,2185
fifa,2186
fifties,2187
fight,2188
fighters,2189
fighting,2190
figure,2191
figurers,2192
figures,2193
fil,2194
filled,2195
final,2196
finally,2197
financed,2198
financial,2199
financing,2200
finding,2201
findings,2202
finds,2203
fine,2204
fined,2205
finegold,2206
finger,2207
finish,2208
finished,2209
fired,2210
fires,2211
firework,2212
firing,2213
firmly,2214
fish,2215
fishy,2216
fit,2217
fits,2218
fiver,2219
flag,2220
flagrant,2221
flags,2222
flames,2223
flashpoint,2224
flashpoints,2225
flatter,2226
flaws,2227
fled,2228
fleeing,2229
fleet,2230
flesh,2231
flies,2232
flight,2233
flights,2234
flimsiest,2235
flip,2236
floating,2237
flock,2238
flocked,2239
flooded,2240
flopping,2241
flu,2242
fly,2243
flying,2244
fo,2245
focus,2246
focused,2247
folded,2248
folk,2249
follow,2250
followed,2251
followers,2252
following,2253
fond,2254
food,2255
fool,2256
foolish,2257
fools,2258
foot,2259
football,2260
footwear,2261
force,2262
forced,2263
forcefully,2264
forces,2265
forcible,2266
forcing,2267
forecast,2268
foreign,2269
foreigners,2270
forest,2271
forestation,2272
forever,2273
forgein,2274
forget,2275
forgien,2276
forgiven,2277
forgot,2278
form,2279
formation,2280
formerusername,2281
forming,2282
forms,2283
formulaparsedonedigit_fan,2284
forum,2285
forumdudeparsedonedigit,2286
forums,2287
forward,2288
fought,2289
foul,2290
foundation,2291
foundations,2292
fox,2293
foxnews,2294
fparsedonedigit,2295
fparsedtwodigits,2296
fr,2297
fragile,2298
franc,2299
france,2300
frank,2301
frankly,2302
free,2303
freed,2304
freedly,2305
freedom,2306
freedome,2307
freedumb,2308
freee,2309
freely,2310
freespeech,2311
french,2312
frequency,2313
frequently,2314
frequnetly,2315
fresh,2316
friday,2317
friend,2318
friends,2319
fripono,2320
frist,2321
fro,2322
frolic,2323
fromt,2324
frought,2325
frozen,2326
fruitcakes,2327
frustrated,2328
frustration,2329
fueled,2330
fulfill,2331
fully,2332
fun,2333
functioning,2334
fundamental,2335
fundamentalists,2336
funded,2337
fundementalist,2338
funding,2339
funds,2340
funny,2341
furniture,2342
furthermore,2343
fuss,2344
fussy,2345
futile,2346
futility,2347
future,2348
fuzzy,2349
fyi,2350
gagarin,2351
gain,2352
gained,2353
gains,2354
galant,2355
galloway,2356
gallows,2357
gamble,2358
gambled,2359
game,2360
games,2361
gang,2362
gangs,2363
gangsterism,2364
gannet,2365
gannets,2366
gar,2367
garden,2368
gas,2369
gathered,2370
gathering,2371
gaul,2372
gaurds,2373
gave,2374
gavin,2375
gawd,2376
gay,2377
gays,2378
gaza,2379
gdp,2380
gen,2381
general,2382
generalised,2383
generalising,2384
generalizations,2385
generally,2386
generate,2387
generations,2388
genetic,2389
geneva,2390
genicides,2391
genius,2392
genocide,2393
genocides,2394
gentiles,2395
gentle,2396
genuine,2397
geology,2398
geoncide,2399
george,2400
georgia,2401
georgian,2402
german,2403
germans,2404
germany,2405
germanys,2406
germmany,2407
gets,2408
getting,2409
ghana,2410
ghandi,2411
gharib,2412
ghe,2413
ghetto,2414
gibberish,2415
ginally,2416
girl,2417
girls,2418
given,2419
gives,2420
giving,2421
gizelle,2422
glad,2423
gladio,2424
glaring,2425
glasgow,2426
gleaning,2427
glee,2428
glitches,2429
global,2430
globalisation,2431
globe,2432
glossed,2433
gloves,2434
glowingtrw,2435
gm,2436
gmt,2437
gnashing,2438
goal,2439
goals,2440
god,2441
goerge,2442
goes,2443
goggles,2444
going,2445
golan,2446
golden,2447
goldman,2448
goldwater,2449
golf,2450
gone,2451
gonna,2452
good,2453
goodies,2454
goodness,2455
goodwill,2456
goofy,2457
google,2458
gore,2459
got,2460
gothicdumster,2461
gotten,2462
goverment,2463
govern,2464
governance,2465
governed,2466
government,2467
governments,2468
govt,2469
grab,2470
grabbing,2471
gracefully,2472
graffitti,2473
grand,2474
grandchildren,2475
granht,2476
grant,2477
granty,2478
grasp,2479
grass,2480
grave,2481
graves,2482
great,2483
greater,2484
greatest,2485
greatness,2486
greece,2487
greedy,2488
greeks,2489
green,2490
grew,2491
greymatter,2492
greywolf,2493
grief,2494
groomed,2495
groping,2496
ground,2497
grounds,2498
group,2499
groups,2500
growing,2501
growl,2502
grown,2503
growth,2504
grrr,2505
grumbles,2506
gt,2507
gtrandfather,2508
guarantee,2509
guaranteed,2510
guard,2511
guardian,2512
guards,2513
guerre,2514
guesing,2515
guess,2516
guessing,2517
guest,2518
guests,2519
guff,2520
guidance,2521
guilty,2522
guitarist,2523
gulf,2524
gullible,2525
gun,2526
guns,2527
gunshot,2528
gurion,2529
gustav,2530
gutav,2531
guy,2532
guys,2533
gw,2534
gwb,2535
ha,2536
haaretz,2537
habit,2538
hacked,2539
hadn,2540
hadnt,2541
haesten,2542
hagar,2543
haifa,2544
hair,2545
hairs,2546
half,2547
hall,2548
halt,2549
ham,2550
hamas,2551
hammas,2552
hammer,2553
hamza,2554
hand,2555
handed,2556
handedness,2557
handguns,2558
handicapped,2559
handing,2560
handling,2561
handpick,2562
handpicked,2563
hands,2564
handwringing,2565
handy,2566
handyman,2567
hang,2568
hanged,2569
hanging,2570
hankooki,2571
happen,2572
happened,2573
happening,2574
happens,2575
happily,2576
happiness,2577
happy,2578
hard,2579
harder,2580
hardly,2581
hardware,2582
harldy,2583
harm,2584
harming,2585
harmonious,2586
haroon,2587
harpercollins,2588
harrassment,2589
harsh,2590
harshly,2591
hart,2592
harvest,2593
hase,2594
hasn,2595
hate,2596
hated,2597
haters,2598
hates,2599
hatred,2600
haunting,2601
haven,2602
havenøt,2603
having,2604
havn,2605
hawks,2606
head,2607
heading,2608
headline,2609
headlines,2610
headquarters,2611
heads,2612
heal,2613
health,2614
healthcare,2615
healthy,2616
hear,2617
heard,2618
hearing,2619
hearings,2620
hears,2621
heart,2622
heartedly,2623
heartfelt,2624
heartland,2625
heat,2626
heaven,2627
heavens,2628
heavier,2629
heavy,2630
hebrew,2631
heck,2632
heh,2633
heir,2634
heirarchy,2635
held,2636
helen,2637
hell,2638
hello,2639
help,2640
helpers,2641
helpful,2642
helping,2643
hem,2644
hempel,2645
hereditary,2646
heres,2647
hero,2648
heroes,2649
hey,2650
hezbollah,2651
hi,2652
hidden,2653
hide,2654
high,2655
higher,2656
highest,2657
highlighted,2658
highlights,2659
highly,2660
hijacking,2661
hiking,2662
hill,2663
hillarious,2664
hillary,2665
hindu,2666
hindus,2667
hint,2668
hip,2669
hiroshima,2670
hispanic,2671
historian,2672
historic,2673
historical,2674
historically,2675
history,2676
hit,2677
hitler,2678
hitlers,2679
hits,2680
hizbollah,2681
hmd,2682
hmmm,2683
hmmmm,2684
ho,2685
hodgepodge,2686
hogan,2687
hold,2688
holders,2689
holding,2690
holdings,2691
hole,2692
holes,2693
holiday,2694
holland,2695
holler,2696
hollywoodisation,2697
holocaust,2698
holy,2699
hom,2700
home,2701
homeland,2702
homeless,2703
homes,2704
homosexual,2705
homosexuals,2706
honest,2707
honestly,2708
honestreporting,2709
hong,2710
honor,2711
honour,2712
honourable,2713
hooliganism,2714
hope,2715
hopefully,2716
hopeless,2717
hopelessly,2718
hoping,2719
horrendous,2720
horrific,2721
horror,2722
horrors,2723
horse,2724
hos,2725
hospital,2726
hospitals,2727
host,2728
hostage,2729
hosted,2730
hostile,2731
hostilities,2732
hostility,2733
hosting,2734
hot,2735
hothousemat,2736
hounded,2737
hounding,2738
hours,2739
house,2740
houses,2741
housing,2742
howard,2743
howstuffwork,2744
hp,2745
hparsedonedigitgparseddigits,2746
huge,2747
hugely,2748
hugo,2749
huguenots,2750
huh,2751
huindreds,2752
hull,2753
human,2754
humanists,2755
humanitarian,2756
humanity,2757
humankind,2758
humans,2759
humberside,2760
humiliating,2761
humour,2762
humvees,2763
hundreds,2764
hundredth,2765
hung,2766
hunger,2767
hurricane,2768
hurt,2769
hurting,2770
hurts,2771
husband,2772
hussain,2773
hussein,2774
hype,2775
hyper,2776
hyperbolic,2777
hyphenated,2778
hypocricy,2779
hypocrisy,2780
hypocrites,2781
hypocritical,2782
hypocritically,2783
hypothetical,2784
hys,2785
hysteria,2786
i_pardon_u,2787
ia,2788
ian,2789
ias,2790
ic,2791
ice,2792
id,2793
idea,2794
ideals,2795
ideas,2796
identification,2797
identify,2798
identikit,2799
identity,2800
ideology,2801
idf,2802
idiot,2803
idiotic,2804
idiots,2805
idol,2806
ignorance,2807
ignorant,2808
ignore,2809
ignored,2810
ignores,2811
ignoring,2812
iht,2813
ii,2814
iirc,2815
il,2816
ilk,2817
ill,2818
illegal,2819
illegitimate,2820
illiberal,2821
ills,2822
illuminating,2823
illustrate,2824
illustrated,2825
illustrates,2826
illustrative,2827
im,2828
image,2829
images,2830
imaginable,2831
imaginations,2832
imagine,2833
imams,2834
imemc,2835
imf,2836
imho,2837
immature,2838
immediate,2839
immediately,2840
immemorial,2841
immerse,2842
immigrant,2843
immigrants,2844
immigration,2845
imminence,2846
imminent,2847
immunity,2848
imo,2849
imoeachment,2850
impact,2851
impeachment,2852
imperfect,2853
imperial,2854
imperialist,2855
imperialistic,2856
imperils,2857
implanted,2858
implausible,2859
implement,2860
implementaion,2861
implemented,2862
implicate,2863
implies,2864
implying,2865
import,2866
importance,2867
important,2868
imports,2869
impose,2870
imposed,2871
imposing,2872
impossible,2873
impotence,2874
impotent,2875
impress,2876
impressed,2877
impression,2878
impressive,2879
imprisoned,2880
improper,2881
improved,2882
imunity,2883
inadequacy,2884
inadequate,2885
inadvertently,2886
inappropriately,2887
inaugural,2888
incapacitated,2889
inceindary,2890
incessant,2891
incharge,2892
inches,2893
incident,2894
incidental,2895
incidentally,2896
incidents,2897
incited,2898
incitement,2899
inciting,2900
include,2901
included,2902
includes,2903
including,2904
inclusive,2905
inclusivity,2906
income,2907
incomes,2908
incompetence,2909
incompetent,2910
incomprehendible,2911
inconvenient,2912
incorporation,2913
increase,2914
increased,2915
increasing,2916
increasingly,2917
incredibly,2918
incurred,2919
incurring,2920
incursion,2921
indecent,2922
indefensible,2923
independance,2924
independence,2925
independent,2926
india,2927
indian,2928
indians,2929
indicate,2930
indicated,2931
indicates,2932
indicating,2933
indifference,2934
indigenous,2935
indio,2936
indios,2937
indirect,2938
individual,2939
individuals,2940
indo,2941
indoctrinated,2942
indonesia,2943
indonesian,2944
indonesians,2945
induced,2946
inducing,2947
indulge,2948
industrial,2949
industries,2950
industry,2951
inentilaly,2952
inevitable,2953
inevitably,2954
inexcusable,2955
inextricably,2956
infact,2957
infamous,2958
infantilising,2959
inferior,2960
inferred,2961
inferring,2962
infidels,2963
infiltrators,2964
inflation,2965
inflict,2966
influence,2967
influenced,2968
influences,2969
info,2970
inform,2971
information,2972
infrastucture,2973
ing,2974
inhabit,2975
inhabitant,2976
inhabitants,2977
inherrent,2978
inhuman,2979
inist,2980
initial,2981
initially,2982
injured,2983
injury,2984
inner,2985
innocent,2986
innocents,2987
ins,2988
insanity,2989
insecurity,2990
inside,2991
insidious,2992
insight,2993
insightful,2994
insignificant,2995
insinuate,2996
insist,2997
insisted,2998
insistence,2999
insisting,3000
inspect,3001
inspecters,3002
inspire,3003
inspired,3004
inspires,3005
inspiring,3006
instability,3007
install,3008
installations,3009
installed,3010
instance,3011
instances,3012
instead,3013
instigate,3014
institute,3015
instituted,3016
institution,3017
institutional,3018
institutions,3019
instruction,3020
instructions,3021
instructor,3022
insultan,3023
insulting,3024
insults,3025
insurance,3026
insurgency,3027
insurgent,3028
insurgents,3029
insurrection,3030
integrate,3031
integrating,3032
integration,3033
integrity,3034
intel,3035
intellectual,3036
intellectually,3037
intellegence,3038
intelligence,3039
intelligent,3040
intend,3041
intended,3042
intensity,3043
intent,3044
inter,3045
interacted,3046
interested,3047
interesting,3048
interestingly,3049
interests,3050
intermixed,3051
internal,3052
international,3053
internet,3054
interpal,3055
interpretation,3056
interrupted,3057
intertwined,3058
intervention,3059
interview,3060
interviews,3061
intially,3062
intifada,3063
intifadah,3064
intimidation,3065
intolerant,3066
inton,3067
intracacies,3068
intresting,3069
intrigue,3070
intrinsic,3071
introduce,3072
introduced,3073
invade,3074
invaded,3075
invaders,3076
invading,3077
invasion,3078
invasions,3079
invective,3080
invectives,3081
invented,3082
inventing,3083
invertebrate,3084
investigate,3085
investigated,3086
investigating,3087
investigation,3088
investment,3089
investors,3090
invitation,3091
invite,3092
invloved,3093
involved,3094
involvement,3095
involving,3096
ioc,3097
ira,3098
iran,3099
iranian,3100
iranians,3101
irans,3102
iraq,3103
iraqi,3104
iraqis,3105
ireland,3106
iris,3107
irish,3108
irna,3109
iron,3110
ironic,3111
ironically,3112
irony,3113
irrational,3114
irrelevant,3115
irritating,3116
irving,3117
isa,3118
isareli,3119
ishmail,3120
islaam,3121
islam,3122
islamaphobe,3123
islamic,3124
islamificationism,3125
islamiphobe,3126
islamist,3127
islamists,3128
islamofacists,3129
islamofascism,3130
islamofascists,3131
island,3132
ismail,3133
isn,3134
isnt,3135
isolationist,3136
isr,3137
israel,3138
israeli,3139
israelians,3140
israelis,3141
israelnationalne,3142
israelnn,3143
israels,3144
isreal,3145
isreali,3146
isrealians,3147
issue,3148
issued,3149
issues,3150
italian,3151
italians,3152
italy,3153
itstoppedraining,3154
ive,3155
jack,3156
jacka,3157
jacked,3158
jail,3159
jailed,3160
jalabad,3161
james,3162
jamo,3163
jan,3164
jane,3165
january,3166
japan,3167
japanese,3168
jasb,3169
jazeera,3170
jazira,3171
jd,3172
jeb,3173
jerk,3174
jerusalem,3175
jessica,3176
jesus,3177
jew,3178
jewish,3179
jews,3180
jewsih,3181
jfks,3182
jihad,3183
jihadi,3184
jihadist,3185
jingles,3186
jingly,3187
jj,3188
jla,3189
joan,3190
job,3191
jobless,3192
jobs,3193
jobsworth,3194
joe,3195
john,3196
johnny,3197
join,3198
joined,3199
joining,3200
joinining,3201
joint,3202
joke,3203
jokes,3204
joking,3205
jong,3206
jordan,3207
jordanian,3208
journal,3209
journalist,3210
journalists,3211
jowell,3212
joys,3213
jqack,3214
judafacist,3215
judaism,3216
judge,3217
judgement,3218
judicial,3219
juicy,3220
jump,3221
jungle,3222
junior,3223
junta,3224
jury,3225
just,3226
justice,3227
justifiably,3228
justifications,3229
justified,3230
justify,3231
justness,3232
karbala,3233
kashmir,3234
kashmiri,3235
kashmiris,3236
kasparov,3237
kassam,3238
kassams,3239
kazahkstan,3240
kazakhstan,3241
keen,3242
keeping,3243
keeps,3244
kennedy,3245
kept,3246
kevin,3247
key,3248
kgb,3249
khalilzad,3250
khan,3251
kick,3252
kicked,3253
kicking,3254
kid,3255
kidding,3256
kidnapped,3257
kidnappings,3258
kids,3259
kiling,3260
kill,3261
killed,3262
killing,3263
killings,3264
kills,3265
kim,3266
kind,3267
kinda,3268
kindergarten,3269
kindly,3270
kinds,3271
king,3272
kinky,3273
kitchen,3274
kj,3275
kl,3276
knee,3277
knesset,3278
knew,3279
knickers,3280
knicknamed,3281
knife,3282
knoll,3283
know,3284
knowledge,3285
known,3286
knows,3287
knucklescrapers,3288
knwo,3289
kong,3290
koran,3291
koranist,3292
korea,3293
korean,3294
koreans,3295
kosovo,3296
kowtow,3297
kreschev,3298
kristol,3299
kudos,3300
kurdish,3301
kurds,3302
kuwaeit,3303
kuwait,3304
kuweit,3305
kyoto,3306
label,3307
labelling,3308
labour,3309
lacewing,3310
lack,3311
ladder,3312
laden,3313
lads,3314
lady,3315
lager,3316
lame,3317
lancaster,3318
lancs,3319
land,3320
landowners,3321
lands,3322
language,3323
lankans,3324
lantau,3325
lap,3326
larceny,3327
large,3328
largely,3329
larger,3330
largest,3331
larnaca,3332
lasers,3333
lashes,3334
lasted,3335
late,3336
later,3337
latest,3338
latimes,3339
latin,3340
laugh,3341
laughable,3342
laughed,3343
laughing,3344
launched,3345
launches,3346
launching,3347
laurie,3348
lavat,3349
law,3350
laws,3351
lawyer,3352
lawyers,3353
lay,3354
lazily,3355
le,3356
lead,3357
leader,3358
leaders,3359
leadership,3360
leading,3361
leads,3362
leaning,3363
learn,3364
learned,3365
learning,3366
learnt,3367
leave,3368
leaving,3369
lebanese,3370
lebanon,3371
lecture,3372
led,3373
leers,3374
left,3375
leftie,3376
leftist,3377
lefty,3378
legacy,3379
legal,3380
legalities,3381
legendary,3382
legislation,3383
legitimacising,3384
legitimate,3385
legitimately,3386
legs,3387
leicester,3388
lenders,3389
leniency,3390
lennon,3391
lenovo,3392
lessen,3393
lesser,3394
lesson,3395
lessons,3396
lest,3397
let,3398
lets,3399
letter,3400
letters,3401
letting,3402
level,3403
levels,3404
levied,3405
lgf,3406
liable,3407
liar,3408
liars,3409
lib,3410
liberal,3411
liberating,3412
liberation,3413
liberman,3414
liberty,3415
library,3416
lid,3417
lie,3418
lied,3419
liek,3420
lies,3421
life,3422
lifestyle,3423
light,3424
lighten,3425
lightening,3426
like,3427
liked,3428
likely,3429
likes,3430
likud,3431
lily,3432
limbo,3433
limit,3434
limitations,3435
limits,3436
lincolnshire,3437
line,3438
lines,3439
linguist,3440
lining,3441
link,3442
linked,3443
links,3444
lion,3445
list,3446
listen,3447
listening,3448
litany,3449
literally,3450
literature,3451
lithe,3452
little,3453
littlegreenfootballs,3454
live,3455
lived,3456
lives,3457
living,3458
ll,3459
lmao,3460
loach,3461
load,3462
loads,3463
loans,3464
loathed,3465
lobbyists,3466
local,3467
locals,3468
location,3469
lock,3470
locked,3471
locking,3472
logic,3473
logical,3474
lol,3475
lombards,3476
london,3477
londonium,3478
loner,3479
long,3480
longer,3481
longtime,3482
lonney,3483
look,3484
looked,3485
looking,3486
looks,3487
looney,3488
loonies,3489
looooong,3490
loosers,3491
looted,3492
looting,3493
lord,3494
los,3495
lose,3496
loser,3497
losers,3498
loses,3499
losing,3500
loss,3501
losses,3502
lost,3503
lot,3504
lots,3505
loud,3506
lousy,3507
love,3508
loved,3509
lovely,3510
loving,3511
low,3512
lower,3513
lowered,3514
lowering,3515
lowest,3516
loyalty,3517
lt,3518
lucky,3519
lucrative,3520
lugage,3521
lump,3522
lunatics,3523
lust,3524
lutheran,3525
lying,3526
lynch,3527
macademia,3528
macbeth,3529
macedonia,3530
machine,3531
machinery,3532
machines,3533
macmillan,3534
mad,3535
madeleine,3536
madonna,3537
magazine,3538
magnitude,3539
mahler,3540
mail,3541
main,3542
mainland,3543
mainly,3544
mainstream,3545
maintain,3546
maintaining,3547
maj,3548
major,3549
majoritively,3550
majority,3551
make,3552
makes,3553
making,3554
malaysia,3555
malchrome,3556
male,3557
males,3558
malfunction,3559
malfunctioning,3560
malls,3561
malt,3562
man,3563
manafacture,3564
manage,3565
managed,3566
management,3567
manages,3568
manchester,3569
mandela,3570
mango,3571
manic,3572
manipulated,3573
mankind,3574
manner,3575
mans,3576
manual,3577
manufacturers,3578
mao,3579
map,3580
mapp,3581
mar,3582
marach,3583
march,3584
marching,3585
marine,3586
mark,3587
market,3588
markets,3589
marley,3590
marquis,3591
marraiges,3592
marrakesh,3593
marriage,3594
married,3595
marshals,3596
marshels,3597
martian,3598
martians,3599
martyr,3600
martyrdom,3601
marxist,3602
mary,3603
mass,3604
massacre,3605
massacred,3606
massacres,3607
massaged,3608
massing,3609
massive,3610
masterclass,3611
mastered,3612
match,3613
matches,3614
material,3615
matter,3616
matters,3617
max,3618
maximum,3619
maybe,3620
mayhem,3621
mb,3622
mc,3623
mcb,3624
mcbean,3625
mcdonald,3626
mcneil,3627
mean,3628
meaning,3629
meanings,3630
means,3631
meant,3632
measues,3633
measure,3634
meat,3635
mechanism,3636
media,3637
medias,3638
medical,3639
medicine,3640
medics,3641
medievil,3642
meet,3643
meeting,3644
meetings,3645
meinhof,3646
melanie,3647
melon,3648
member,3649
membered,3650
members,3651
memo,3652
memorials,3653
memory,3654
men,3655
menhuin,3656
mens,3657
mensa,3658
mental,3659
mentally,3660
mention,3661
mentioned,3662
mentions,3663
mentors,3664
mercies,3665
merciful,3666
mercy,3667
mere,3668
merely,3669
merest,3670
merge,3671
merit,3672
merits,3673
merkel,3674
mess,3675
message,3676
messages,3677
messiah,3678
mestizo,3679
met,3680
meta,3681
methods,3682
mexican,3683
mexicans,3684
mexico,3685
meyer,3686
miami,3687
michael,3688
micheal,3689
mickey,3690
micro,3691
microsoft,3692
mid,3693
middle,3694
migrants,3695
migration,3696
miimalising,3697
miles,3698
militarily,3699
militarised,3700
military,3701
militias,3702
millenia,3703
miller,3704
million,3705
millionairesse,3706
millions,3707
milosvic,3708
mind,3709
minded,3710
minds,3711
miners,3712
mines,3713
minimal,3714
minimalised,3715
minister,3716
minor,3717
minority,3718
minute,3719
minutes,3720
mis,3721
miscarriage,3722
misconception,3723
misfortune,3724
misinterpreted,3725
misinterprit,3726
misled,3727
misread,3728
misrepresent,3729
misrepresentation,3730
miss,3731
missed,3732
misses,3733
missile,3734
missiles,3735
missing,3736
missions,3737
missippparsedonedigit,3738
missus,3739
mist,3740
mistake,3741
mistakes,3742
mistress,3743
mistressofmydomain,3744
mistressofmydomains,3745
misunderstanding,3746
mitt,3747
mix,3748
mixed,3749
mixing,3750
mixture,3751
mmmmmm,3752
mn,3753
mne,3754
mob,3755
mobile,3756
mod,3757
modderated,3758
moderated,3759
moderator,3760
modern,3761
modesty,3762
mods,3763
mohammad,3764
mohammadans,3765
mohammed,3766
mom,3767
moment,3768
moments,3769
momment,3770
mommy,3771
mon,3772
monday,3773
mondial,3774
money,3775
mongering,3776
mongolia,3777
monkeys,3778
monologue,3779
monotonous,3780
monster,3781
month,3782
months,3783
mood,3784
moods,3785
moon,3786
moore,3787
moot,3788
moral,3789
morale,3790
morales,3791
morass,3792
morning,3793
morocco,3794
morris,3795
mortgage,3796
moselms,3797
moses,3798
moshe,3799
moslems,3800
mosque,3801
mosques,3802
mossadeq,3803
mother,3804
mothers,3805
motivation,3806
motive,3807
motives,3808
motorcade,3809
mounted,3810
mouse,3811
moussaoui,3812
mouth,3813
moved,3814
movement,3815
movements,3816
moving,3817
mow,3818
mparsedfourdigits,3819
mps,3820
mr,3821
mrjingles,3822
mrs,3823
ms,3824
msg,3825
msn,3826
msnbc,3827
mubashar,3828
mud,3829
muddying,3830
mufti,3831
mugabe,3832
muhammad,3833
mullahs,3834
multi,3835
mum,3836
mump,3837
muppet,3838
murder,3839
murdered,3840
murderer,3841
murdering,3842
murderous,3843
murders,3844
murduch,3845
musab,3846
museums,3847
musharraf,3848
mushy,3849
music,3850
muslim,3851
muslims,3852
musso,3853
mutterings,3854
mutual,3855
mutually,3856
mutuals,3857
muzlins,3858
mwaaaaaaaahahahahahahahaaaaaaaaa,3859
mych,3860
mylroie,3861
mystery,3862
myth,3863
nafthe,3864
nagasaki,3865
nahhh,3866
naighbor,3867
nail,3868
nails,3869
naive,3870
naiveté,3871
named,3872
names,3873
napalm,3874
narrative,3875
narrow,3876
nasty,3877
nation,3878
national,3879
nationalist,3880
nationalists,3881
nationalities,3882
nations,3883
nationstate,3884
native,3885
natives,3886
nato,3887
natural,3888
naturally,3889
nature,3890
nauseam,3891
naz,3892
nazi,3893
nazis,3894
nazism,3895
nbc,3896
nd,3897
ne,3898
near,3899
nearly,3900
neatly,3901
nec,3902
necessarily,3903
neck,3904
need,3905
needed,3906
needn,3907
needs,3908
negate,3909
neglect,3910
negotiate,3911
negotiation,3912
negotiations,3913
neighbors,3914
neighbours,3915
neil,3916
nelson,3917
neo,3918
neocons,3919
nerve,3920
netanyahu,3921
netherlanders,3922
network,3923
neutral,3924
new,3925
newest,3926
newly,3927
newnight,3928
news,3929
newsflash,3930
newspaper,3931
newsparsedonedigit,3932
newsparsedtwodigits,3933
niaghbors,3934
nice,3935
nick,3936
nieve,3937
nigeria,3938
nigeriam,3939
night,3940
nighthook,3941
nightmare,3942
nighttime,3943
nijmeijert,3944
nikki,3945
nip,3946
nit,3947
nixon,3948
nk,3949
nobel,3950
noble,3951
nobs,3952
nologo,3953
nom,3954
nomatter,3955
nominal,3956
nomination,3957
non,3958
nonsense,3959
nonsensical,3960
nonsnense,3961
nook,3962
nope,3963
norm,3964
normal,3965
normans,3966
norse,3967
north,3968
northern,3969
norwich,3970
nose,3971
noses,3972
note,3973
noted,3974
notes,3975
notice,3976
noticed,3977
noticing,3978
noting,3979
notion,3980
notions,3981
noughts,3982
novel,3983
november,3984
noxious,3985
nuclear,3986
nuke,3987
nukes,3988
numbed,3989
number,3990
numbers,3991
numbing,3992
numerous,3993
numpty,3994
nut,3995
nutcase,3996
nutcases,3997
nutters,3998
nuttin,3999
nutty,4000
nypd,4001
nytimes,4002
oaths,4003
ob,4004
obama,4005
obesity,4006
object,4007
objecting,4008
objectives,4009
obligated,4010
obligation,4011
obligations,4012
oblige,4013
obliged,4014
obliterated,4015
observant,4016
observation,4017
obsessed,4018
obvioulsy,4019
obvious,4020
obviously,4021
oc,4022
occamøs,4023
occasion,4024
occasional,4025
occasions,4026
occulted,4027
occupation,4028
occupations,4029
occupied,4030
occupiers,4031
occupy,4032
occupying,4033
occur,4034
occured,4035
occurs,4036
ocean,4037
october,4038
odd,4039
oddly,4040
odds,4041
odious,4042
oecd,4043
offence,4044
offensive,4045
offer,4046
offered,4047
offering,4048
office,4049
officers,4050
offices,4051
official,4052
officials,4053
oh,4054
ohj,4055
oil,4056
ok,4057
okay,4058
oklahoma,4059
old,4060
older,4061
oldest,4062
olds,4063
olive,4064
olympic,4065
olympics,4066
omri,4067
ones,4068
ongoing,4069
onus,4070
oona,4071
oozes,4072
op,4073
opec,4074
open,4075
opened,4076
opening,4077
openly,4078
opens,4079
opera,4080
operation,4081
operations,4082
opinion,4083
opinions,4084
opponent,4085
opponents,4086
opportune,4087
opportunist,4088
opportunities,4089
opportunity,4090
opposed,4091
opposing,4092
opposite,4093
opposites,4094
opposition,4095
oppressed,4096
oppressive,4097
opressed,4098
option,4099
oranges,4100
orbit,4101
orchards,4102
ordeals,4103
order,4104
ordered,4105
orders,4106
ordinance,4107
ordinary,4108
org,4109
organisation,4110
organisations,4111
organise,4112
organised,4113
organising,4114
organism,4115
organistion,4116
organization,4117
organizations,4118
organize,4119
organized,4120
orginal,4121
orientation,4122
orif,4123
origianlly,4124
original,4125
originally,4126
originated,4127
originator,4128
orthodox,4129
ostensibly,4130
oswald,4131
othwerwise,4132
otter,4133
ottoman,4134
ottomans,4135
ouch,4136
ought,4137
outbursts,4138
outdated,4139
outer,4140
outlasting,4141
outlawing,4142
outlet,4143
outline,4144
outlined,4145
outnumbered,4146
outraged,4147
outrageous,4148
outright,4149
outs,4150
outsiders,4151
outspoken,4152
outstanding,4153
outstrip,4154
overall,4155
overriding,4156
overs,4157
overseas,4158
oversight,4159
overthrow,4160
overwhelming,4161
overwhelmingly,4162
owe,4163
owned,4164
owner,4165
owners,4166
ownership,4167
ozy,4168
pace,4169
pacifists,4170
pack,4171
package,4172
page,4173
pageant,4174
paid,4175
pain,4176
painful,4177
painting,4178
pakistan,4179
pakistani,4180
pakistanis,4181
pakistans,4182
pale,4183
pales,4184
palestian,4185
palestians,4186
palestina,4187
palestinans,4188
palestine,4189
palestinian,4190
palestinians,4191
palestnians,4192
palin,4193
palis,4194
palistinians,4195
pallywood,4196
pals,4197
pan,4198
panicked,4199
panna,4200
panned,4201
panorama,4202
paparazzi,4203
paper,4204
papers,4205
paradise,4206
paradises,4207
parallel,4208
parallels,4209
paranoia,4210
parcel,4211
parent,4212
parents,4213
paris,4214
park,4215
parker,4216
parliament,4217
parseddigits,4218
parseddigitsbn,4219
parseddigitsth,4220
parsedfourdigits,4221
parsedfourdigitss,4222
parsedfourdigitsth,4223
parsedonedigit,4224
parsedonedigitbn,4225
parsedonedigitg,4226
parsedonedigitk,4227
parsedonedigitm,4228
parsedonedigitnd,4229
parsedonedigitrd,4230
parsedonedigitth,4231
parsedthreedigits,4232
parsedthreedigitsm,4233
parsedtime,4234
parsedtwodigits,4235
parsedtwodigitsbn,4236
parsedtwodigitsk,4237
parsedtwodigitsm,4238
parsedtwodigitss,4239
parsedtwodigitsst,4240
parsedtwodigitsth,4241
participants,4242
participate,4243
participated,4244
participle,4245
particular,4246
particularly,4247
parties,4248
partisan,4249
partition,4250
partly,4251
partnerships,4252
parts,4253
party,4254
pasha,4255
pass,4256
passed,4257
passes,4258
passing,4259
passively,4260
passport,4261
past,4262
pastures,4263
pat,4264
paternalism,4265
pathetic,4266
pattern,4267
paul,4268
pax,4269
pay,4270
paying,4271
payment,4272
pc,4273
pea,4274
peace,4275
peaceful,4276
peacefully,4277
peaks,4278
peanuts,4279
pearls,4280
pears,4281
peasants,4282
pecans,4283
pedantic,4284
peking,4285
pen,4286
penal,4287
penalty,4288
penchant,4289
penetrate,4290
peninsula,4291
penny,4292
pension,4293
pensions,4294
pentagon,4295
people,4296
peoples,4297
percent,4298
percentages,4299
perception,4300
perceptions,4301
perchance,4302
peres,4303
perfect,4304
perfectly,4305
perform,4306
performed,4307
performing,4308
period,4309
perishing,4310
perle,4311
permanent,4312
permission,4313
permit,4314
permitted,4315
perpetrated,4316
perpetuating,4317
persecuted,4318
persecution,4319
person,4320
personal,4321
personalities,4322
personally,4323
personnel,4324
persons,4325
perspective,4326
persuaded,4327
perverse,4328
pet,4329
pete,4330
peters,4331
petition,4332
petra,4333
petty,4334
peu,4335
pfft,4336
phenomenon,4337
phil,4338
philippines,4339
phillips,4340
philosopher,4341
philosophy,4342
phone,4343
phoneacians,4344
phoned,4345
phophorous,4346
photographer,4347
photographs,4348
photos,4349
phrase,4350
phrases,4351
physical,4352
physically,4353
pick,4354
picking,4355
picture,4356
piece,4357
pieces,4358
pig,4359
pigeonhole,4360
pigs,4361
pillock,4362
pilot,4363
pilots,4364
piltdown,4365
pinochet,4366
pipe,4367
pirlo,4368
pistol,4369
pit,4370
pity,4371
placard,4372
place,4373
places,4374
placing,4375
plain,4376
plaintive,4377
plan,4378
plane,4379
planes,4380
planet,4381
planned,4382
planners,4383
planning,4384
plans,4385
plant,4386
planted,4387
plants,4388
plaster,4389
play,4390
played,4391
player,4392
players,4393
playing,4394
pleaded,4395
plear,4396
pleasure,4397
plenty,4398
ploughed,4399
ploy,4400
plus,4401
pm,4402
poem,4403
poindexter,4404
point,4405
pointed,4406
pointing,4407
pointless,4408
points,4409
poison,4410
poisonous,4411
poking,4412
polar,4413
pole,4414
police,4415
policeman,4416
policies,4417
policy,4418
polish,4419
politcal,4420
political,4421
politically,4422
politicians,4423
politicos,4424
politics,4425
poll,4426
polls,4427
polluters,4428
pollution,4429
pond,4430
poochies,4431
pool,4432
poor,4433
poorly,4434
pop,4435
pope,4436
popular,4437
popularity,4438
populated,4439
population,4440
populations,4441
populist,4442
portray,4443
portrayed,4444
ports,4445
portuguese,4446
posession,4447
position,4448
positions,4449
positive,4450
possession,4451
possibility,4452
possible,4453
possibly,4454
post,4455
posted,4456
poster,4457
posters,4458
posting,4459
postings,4460
posts,4461
posturing,4462
pot,4463
potential,4464
pound,4465
pounding,4466
poverty,4467
power,4468
powerbase,4469
powered,4470
powerful,4471
powerfull,4472
powers,4473
ppa,4474
pr,4475
practical,4476
practice,4477
practiced,4478
practices,4479
pragmatic,4480
praise,4481
praised,4482
prank,4483
prattle,4484
pray,4485
praying,4486
pre,4487
preach,4488
preaching,4489
precipitate,4490
precise,4491
precisely,4492
precision,4493
precludes,4494
predatory,4495
predicted,4496
prediction,4497
predictions,4498
predominately,4499
prefer,4500
prefered,4501
preference,4502
prehaps,4503
prejudice,4504
prejudices,4505
prematurely,4506
premeditating,4507
premium,4508
prepare,4509
prepared,4510
prepartions,4511
preperation,4512
prerequisite,4513
presbyterians,4514
presence,4515
present,4516
presentation,4517
presented,4518
president,4519
presidents,4520
presnted,4521
press,4522
presso,4523
pressure,4524
pressurise,4525
prestwick,4526
presumably,4527
presume,4528
presure,4529
pretend,4530
pretending,4531
pretext,4532
pretty,4533
preudo,4534
prevent,4535
prevented,4536
preventing,4537
previous,4538
previously,4539
price,4540
prices,4541
pride,4542
prides,4543
priest,4544
primary,4545
prime,4546
primitive,4547
princess,4548
principle,4549
print,4550
printed,4551
printing,4552
prior,4553
prisions,4554
prison,4555
prisons,4556
private,4557
prize,4558
pro,4559
proactive,4560
probability,4561
probably,4562
problem,4563
problems,4564
process,4565
proclaiming,4566
prodding,4567
prodi,4568
produce,4569
produced,4570
produces,4571
product,4572
production,4573
productive,4574
products,4575
profess,4576
professional,4577
professors,4578
profitable,4579
profitibility,4580
profits,4581
profound,4582
profusely,4583
program,4584
programme,4585
programs,4586
progress,4587
progressiove,4588
progressive,4589
prohibit,4590
project,4591
projects,4592
prominent,4593
promised,4594
promote,4595
promoting,4596
promotion,4597
prompted,4598
promptly,4599
prone,4600
proof,4601
propably,4602
propaganda,4603
propagandist,4604
properly,4605
properties,4606
property,4607
prophecy,4608
propoganada,4609
propoganda,4610
proportion,4611
proposed,4612
proscribed,4613
prosecuted,4614
prosecutions,4615
prosperity,4616
prosperous,4617
protect,4618
protecting,4619
protection,4620
protector,4621
protects,4622
protest,4623
protestants,4624
protested,4625
protesters,4626
protestors,4627
protests,4628
proud,4629
prove,4630
proved,4631
proverb,4632
proves,4633
provide,4634
providing,4635
province,4636
provinces,4637
provocation,4638
provoke,4639
provoking,4640
prvent,4641
ps,4642
psychiatrists,4643
psychological,4644
psychologists,4645
psychology,4646
pu,4647
pub,4648
public,4649
publicity,4650
publicly,4651
published,4652
publisher,4653
publishing,4654
pubs,4655
puffing,4656
pull,4657
pulled,4658
pumping,4659
punishable,4660
punished,4661
punishment,4662
pupil,4663
puppet,4664
purchase,4665
purchased,4666
purchasing,4667
pure,4668
purely,4669
purile,4670
purpose,4671
purposes,4672
pursue,4673
pursuing,4674
push,4675
pushed,4676
pushing,4677
putin,4678
puts,4679
putting,4680
puy,4681
puydedome,4682
pyongyang,4683
qaeda,4684
qassam,4685
quada,4686
quake,4687
qualification,4688
qualifications,4689
qualitavely,4690
quality,4691
quarter,4692
quattro,4693
quayle,4694
qubal,4695
que,4696
quebec,4697
queda,4698
quell,4699
quelling,4700
quels,4701
question,4702
questioned,4703
questioning,4704
questions,4705
quick,4706
quickly,4707
quid,4708
quiet,4709
quips,4710
quit,4711
quite,4712
quitely,4713
quote,4714
quotes,4715
quoting,4716
rabbi,4717
rabble,4718
rabid,4719
rabin,4720
race,4721
racial,4722
racism,4723
racist,4724
radical,4725
radicalized,4726
radicals,4727
radio,4728
radioactive,4729
rafah,4730
rag,4731
rahman,4732
raid,4733
rail,4734
rained,4735
raise,4736
raised,4737
raising,4738
rallied,4739
rally,4740
ran,4741
rancorous,4742
range,4743
ranging,4744
rankings,4745
ranks,4746
ransomes,4747
rant,4748
ranting,4749
rape,4750
raped,4751
rapid,4752
rapidly,4753
raping,4754
rashid,4755
rat,4756
rates,4757
ratify,4758
rating,4759
ratings,4760
rational,4761
rattling,4762
ravi,4763
ray,4764
razor,4765
reached,4766
reaching,4767
react,4768
reacted,4769
reaction,4770
reactions,4771
read,4772
readers,4773
reading,4774
reads,4775
real,4776
realise,4777
realised,4778
realistic,4779
reality,4780
really,4781
ream,4782
reaping,4783
reaserch,4784
reason,4785
reasonable,4786
reasoning,4787
reasons,4788
rebates,4789
rebounding,4790
rebuild,4791
rebuke,4792
recall,4793
recalls,4794
receive,4795
received,4796
receives,4797
recent,4798
recently,4799
recession,4800
recieved,4801
recieves,4802
recipient,4803
reciprocating,4804
reckless,4805
recluse,4806
recognise,4807
recognised,4808
recognising,4809
recognition,4810
recognize,4811
recognizeable,4812
recollect,4813
recommendations,4814
record,4815
records,4816
recourse,4817
recovering,4818
recruit,4819
recrutment,4820
red,4821
redesignating,4822
reduced,4823
redundant,4824
reed,4825
refer,4826
referee,4827
reference,4828
referenced,4829
references,4830
refering,4831
referring,4832
refers,4833
refinanced,4834
reflected,4835
refuge,4836
refugees,4837
refugess,4838
refuse,4839
refused,4840
refuses,4841
refusing,4842
refute,4843
regard,4844
regarded,4845
regarding,4846
regards,4847
regime,4848
regimes,4849
region,4850
regional,4851
regret,4852
regretting,4853
regular,4854
regularly,4855
regulations,4856
reich,4857
reign,4858
reinforcements,4859
reins,4860
rejected,4861
rejecting,4862
rekindle,4863
related,4864
relating,4865
relation,4866
relations,4867
relationship,4868
relationships,4869
relative,4870
relatives,4871
relativists,4872
relaunch,4873
release,4874
released,4875
relentless,4876
reliability,4877
reliable,4878
reliant,4879
relief,4880
religion,4881
religions,4882
religious,4883
reluctant,4884
rely,4885
remain,4886
remaining,4887
remains,4888
remark,4889
remarkable,4890
remarks,4891
remember,4892
remembered,4893
remembers,4894
reminded,4895
reminds,4896
removal,4897
remove,4898
removed,4899
removing,4900
renege,4901
renouncing,4902
rented,4903
repeat,4904
repeated,4905
repeatedly,4906
repeating,4907
repeats,4908
rephrase,4909
replace,4910
replaced,4911
replacing,4912
replies,4913
reply,4914
replying,4915
report,4916
reported,4917
reportedly,4918
reporters,4919
reports,4920
represent,4921
representation,4922
representative,4923
represents,4924
repressive,4925
reps,4926
republic,4927
republican,4928
republicans,4929
reputable,4930
reputation,4931
request,4932
require,4933
required,4934
requirement,4935
requires,4936
research,4937
researching,4938
resent,4939
reserve,4940
reservoir,4941
resident,4942
residents,4943
resign,4944
resist,4945
resistance,4946
resolution,4947
resolutions,4948
resolved,4949
resort,4950
resource,4951
resources,4952
respect,4953
respectable,4954
respected,4955
respectfully,4956
responce,4957
respond,4958
respondents,4959
responding,4960
response,4961
responsibility,4962
responsible,4963
rest,4964
restance,4965
restarted,4966
restaurants,4967
resting,4968
restock,4969
restored,4970
restricted,4971
result,4972
resulted,4973
resulting,4974
results,4975
retail,4976
retailer,4977
retaliate,4978
retaliation,4979
retold,4980
retracts,4981
retrieve,4982
retrospect,4983
return,4984
returning,4985
revealed,4986
reveals,4987
revenge,4988
review,4989
reviewed,4990
revisionist,4991
revive,4992
revolution,4993
revolutionary,4994
reward,4995
reza,4996
rhetoric,4997
rhodesia,4998
rhymes,4999
rice,5000
rich,5001
richard,5002
richer,5003
richest,5004
ricketts,5005
rid,5006
riddance,5007
riddled,5008
ridiclus,5009
ridiculous,5010
ridiculously,5011
riding,5012
rifle,5013
rifles,5014
right,5015
righteous,5016
rightful,5017
rights,5018
ring,5019
riot,5020
rioting,5021
riotng,5022
riots,5023
ripley,5024
ripped,5025
rise,5026
risen,5027
rises,5028
risible,5029
rising,5030
risk,5031
risking,5032
rita,5033
rittaq,5034
rjsc,5035
road,5036
roadmap,5037
roadside,5038
roam,5039
roar,5040
robbie,5041
robert,5042
rock,5043
rocket,5044
rockets,5045
rocks,5046
rogue,5047
role,5048
rolling,5049
roma,5050
roman,5051
romania,5052
romans,5053
romney,5054
roof,5055
room,5056
rooming,5057
roosvelt,5058
root,5059
rooted,5060
rooting,5061
ropert,5062
rose,5063
rosie,5064
rough,5065
round,5066
roundabouts,5067
rounds,5068
rouser,5069
rout,5070
route,5071
routinely,5072
royal,5073
roybearparsedtwodigits,5074
rpg,5075
rsed,5076
rubber,5077
rubbing,5078
rubbish,5079
ruin,5080
ruined,5081
ruining,5082
rule,5083
ruled,5084
rulers,5085
rules,5086
ruling,5087
rumbles,5088
rumsfeld,5089
rumsfeldt,5090
run,5091
running,5092
runs,5093
rural,5094
rush,5095
ruskies,5096
russia,5097
russian,5098
russians,5099
ruth,5100
rwanda,5101
ry,5102
sa,5103
saa,5104
sabra,5105
sabre,5106
sacking,5107
sacrifices,5108
sad,5109
sadam,5110
sadat,5111
saddam,5112
sadly,5113
saeed,5114
safe,5115
safeguard,5116
sahaf,5117
said,5118
saids,5119
sailors,5120
sake,5121
salafists,5122
salaries,5123
salary,5124
sales,5125
salome,5126
samadashvili,5127
sample,5128
sanctioned,5129
sanctioning,5130
sanctions,5131
sandbox,5132
sandwich,5133
sane,5134
sanitation,5135
sarah,5136
sarcastic,5137
sassanid,5138
sat,5139
satan,5140
satanic,5141
satellites,5142
satirist,5143
satisfactory,5144
satisfy,5145
saudi,5146
sauds,5147
savagery,5148
save,5149
saved,5150
saves,5151
saving,5152
saw,5153
say,5154
saying,5155
says,5156
scale,5157
scales,5158
scandal,5159
scandanavia,5160
scapegoat,5161
scapegoated,5162
scared,5163
scaremongering,5164
scargill,5165
sceintist,5166
scenario,5167
scenes,5168
sch,5169
scholars,5170
school,5171
schoolchildren,5172
schoolgirls,5173
schools,5174
schwartskopf,5175
science,5176
scienitst,5177
scientific,5178
scientist,5179
scientists,5180
score,5181
scores,5182
scot,5183
scotland,5184
scots,5185
scottish,5186
scottishness,5187
scrap,5188
scream,5189
screaming,5190
screening,5191
screwed,5192
screwing,5193
script,5194
scrutiny,5195
scum,5196
sea,5197
sealion,5198
sean,5199
search,5200
searched,5201
searching,5202
season,5203
seat,5204
seats,5205
second,5206
secondary,5207
seconds,5208
secret,5209
secs,5210
sect,5211
sectarian,5212
sector,5213
secular,5214
secured,5215
security,5216
sedition,5217
seed,5218
seeing,5219
seek,5220
seeking,5221
seeme,5222
seen,5223
seeping,5224
sees,5225
segregation,5226
seldom,5227
selection,5228
selective,5229
selectively,5230
selectiveness,5231
selector,5232
self,5233
sell,5234
seller,5235
sells,5236
semantics,5237
semetic,5238
semetism,5239
semite,5240
semites,5241
semitic,5242
semitism,5243
senate,5244
senator,5245
senators,5246
send,5247
sending,5248
senior,5249
sense,5250
sensible,5251
sensitive,5252
sent,5253
sentence,5254
sentenced,5255
sentenceing,5256
sentences,5257
sentiments,5258
sep,5259
separating,5260
separation,5261
separatum,5262
sept,5263
septmeber,5264
sequels,5265
sequence,5266
seriously,5267
servants,5268
serve,5269
served,5270
serves,5271
service,5272
servicemen,5273
services,5274
servies,5275
set,5276
settle,5277
settlement,5278
settlements,5279
settler,5280
settlers,5281
settles,5282
seucrity,5283
seven,5284
seventh,5285
severely,5286
sex,5287
sexist,5288
sexual,5289
sfc,5290
sh,5291
shabby,5292
shades,5293
shah,5294
shahab,5295
shall,5296
shalom,5297
shame,5298
shankar,5299
shapes,5300
share,5301
shared,5302
sharia,5303
shariah,5304
sharing,5305
sharon,5306
shatilla,5307
sheer,5308
sheesh,5309
sheikh,5310
sheiks,5311
sheilds,5312
shelling,5313
shelter,5314
shenanigans,5315
shia,5316
shias,5317
shields,5318
shifted,5319
shifting,5320
shining,5321
ship,5322
shock,5323
shoe,5324
shoes,5325
shoot,5326
shooting,5327
shootings,5328
shoots,5329
short,5330
shortages,5331
shortcomingof,5332
shorter,5333
shot,5334
shots,5335
shouldn,5336
shout,5337
showbiz,5338
showcase,5339
showed,5340
showing,5341
shown,5342
shows,5343
shrinking,5344
shunned,5345
shut,5346
shutting,5347
sick,5348
sickeningly,5349
sided,5350
sidelines,5351
sides,5352
sidestepped,5353
sidique,5354
sieging,5355
sight,5356
sighted,5357
sign,5358
signed,5359
significant,5360
significantly,5361
signing,5362
sikh,5363
sikhs,5364
silence,5365
silliness,5366
silly,5367
silver,5368
simchaparsedonedigit,5369
similar,5370
simon,5371
simonparsedtwodigits,5372
simple,5373
simpler,5374
simplest,5375
simplify,5376
simply,5377
singing,5378
single,5379
singular,5380
siniora,5381
sinister,5382
sink,5383
sinking,5384
sinto,5385
sir,5386
sis,5387
sisters,5388
sit,5389
site,5390
sites,5391
sits,5392
sitting,5393
situation,5394
situations,5395
size,5396
sizeable,5397
sk,5398
skills,5399
skimped,5400
skirmish,5401
skull,5402
skulls,5403
slams,5404
slaughtered,5405
slave,5406
slaves,5407
slide,5408
slight,5409
slightly,5410
slighty,5411
slinging,5412
slip,5413
slipped,5414
slipping,5415
slow,5416
slowly,5417
slur,5418
small,5419
smashed,5420
smelly,5421
smicha,5422
smileys,5423
smililar,5424
smoke,5425
smoker,5426
smokescreen,5427
smuggling,5428
sneaked,5429
sneer,5430
sneering,5431
snideness,5432
snippet,5433
snogging,5434
snow,5435
soap,5436
social,5437
socialism,5438
socialist,5439
societies,5440
society,5441
sodomy,5442
soemhow,5443
soil,5444
soilders,5445
sold,5446
soldier,5447
soldiers,5448
sole,5449
solely,5450
solid,5451
solomoron,5452
solution,5453
solve,5454
solved,5455
somalia,5456
somebody,5457
somethihng,5458
son,5459
sonic,5460
sons,5461
soon,5462
sooner,5463
sophistry,5464
soprano,5465
sorry,5466
sort,5467
sorted,5468
sorts,5469
sound,5470
sounds,5471
source,5472
sources,5473
south,5474
southern,5475
sovereign,5476
soverignty,5477
soviet,5478
soviets,5479
sown,5480
space,5481
spaghetti,5482
spain,5483
spam,5484
spaniards,5485
spanish,5486
spartacus,5487
spawned,5488
speak,5489
speakin,5490
speaking,5491
speaks,5492
special,5493
specialist,5494
specific,5495
specifically,5496
spectacular,5497
spectating,5498
spectators,5499
speculations,5500
speech,5501
speeches,5502
speed,5503
spell,5504
spelling,5505
spend,5506
spending,5507
spends,5508
spent,5509
spew,5510
spider,5511
spiked,5512
spin,5513
spinmeisters,5514
spirit,5515
spit,5516
splendid,5517
spoke,5518
spoken,5519
spokeswoman,5520
sponsors,5521
sport,5522
sportsfield,5523
spot,5524
spots,5525
spout,5526
spouts,5527
spray,5528
sprayed,5529
sprays,5530
spread,5531
spreading,5532
spree,5533
springs,5534
squad,5535
squandered,5536
square,5537
sri,5538
stabbing,5539
stability,5540
stable,5541
staff,5542
staffed,5543
stage,5544
stagnant,5545
stake,5546
stalin,5547
stalinism,5548
stalinist,5549
stalking,5550
stamina,5551
stamp,5552
stance,5553
stand,5554
standard,5555
standards,5556
standing,5557
stands,5558
star,5559
starbucks,5560
stare,5561
stares,5562
stark,5563
start,5564
started,5565
starters,5566
starting,5567
starts,5568
starvation,5569
starved,5570
starving,5571
starwars,5572
stashed,5573
state,5574
stated,5575
statehood,5576
statement,5577
statements,5578
states,5579
station,5580
statistics,5581
stats,5582
status,5583
stauts,5584
stay,5585
stayed,5586
steadily,5587
steal,5588
stella,5589
step,5590
sticking,5591
stir,5592
stlins,5593
stock,5594
stockpile,5595
stocks,5596
stole,5597
stolen,5598
stomachs,5599
stone,5600
stones,5601
stood,5602
stop,5603
stopped,5604
stopping,5605
stops,5606
stor,5607
store,5608
stores,5609
stories,5610
storm,5611
stormin,5612
story,5613
straight,5614
straightforward,5615
strand,5616
strangely,5617
stranger,5618
strategic,5619
stratosphere,5620
straw,5621
strawman,5622
straws,5623
street,5624
streets,5625
strenegh,5626
strengh,5627
strength,5628
stresses,5629
stressful,5630
stretch,5631
stretcher,5632
stretchers,5633
strike,5634
strikes,5635
strip,5636
stripping,5637
strong,5638
strongest,5639
strongly,5640
struck,5641
structures,5642
stuart,5643
stub,5644
stuck,5645
stucked,5646
students,5647
studied,5648
studies,5649
study,5650
studying,5651
stuff,5652
stupid,5653
stupidity,5654
style,5655
sub,5656
subject,5657
subjective,5658
subjects,5659
subjugated,5660
subliminally,5661
submit,5662
submitted,5663
subsequent,5664
subsidies,5665
substance,5666
substantial,5667
substantive,5668
subtly,5669
suburban,5670
subvert,5671
succeed,5672
succeeding,5673
succesful,5674
succesfull,5675
success,5676
successes,5677
sucide,5678
sucks,5679
sudan,5680
sudden,5681
suddenly,5682
sue,5683
suffer,5684
suffered,5685
suffering,5686
suggest,5687
suggested,5688
suggesting,5689
suggests,5690
suicide,5691
suicides,5692
suit,5693
suitable,5694
suits,5695
sultan,5696
sum,5697
sumatra,5698
summarising,5699
sunlight,5700
sunnis,5701
superiority,5702
supplied,5703
supply,5704
supplying,5705
support,5706
supported,5707
supporter,5708
supporters,5709
supporting,5710
supports,5711
suppose,5712
supposed,5713
suppress,5714
supress,5715
supressor,5716
suprised,5717
suprises,5718
surbiton,5719
sure,5720
surely,5721
surpirse,5722
surpress,5723
surprise,5724
surprised,5725
surprising,5726
surrender,5727
surrounded,5728
surrounding,5729
surveillance,5730
surveys,5731
survival,5732
survive,5733
survived,5734
survivors,5735
suspect,5736
suspects,5737
suspense,5738
suspicious,5739
sustained,5740
sustaining,5741
suv,5742
swam,5743
swearing,5744
sweet,5745
sweets,5746
swim,5747
swimmer,5748
swimming,5749
swimsuit,5750
swimsuits,5751
swinger,5752
swings,5753
swiss,5754
switched,5755
sword,5756
sy,5757
symbol,5758
symbolic,5759
symbolism,5760
symbols,5761
sympathetic,5762
sympathiser,5763
sympathize,5764
sympathy,5765
synagogue,5766
syria,5767
syrian,5768
systematically,5769
systems,5770
ta,5771
table,5772
tablets,5773
tack,5774
tactic,5775
tactics,5776
taheri,5777
taht,5778
tailor,5779
taken,5780
takeover,5781
takes,5782
taking,5783
taleban,5784
talent,5785
taliban,5786
talibans,5787
talk,5788
talking,5789
talks,5790
talmud,5791
talmudist,5792
tame,5793
tanja,5794
tanks,5795
tantrums,5796
tao,5797
tapes,5798
taps,5799
target,5800
targeted,5801
targets,5802
targetted,5803
targetting,5804
tariff,5805
tariffs,5806
taste,5807
tatty,5808
taught,5809
tautological,5810
tax,5811
taxation,5812
taxes,5813
tb,5814
teach,5815
teacher,5816
teachers,5817
teaches,5818
teaching,5819
team,5820
teamed,5821
tear,5822
tearing,5823
tears,5824
technically,5825
techniques,5826
technology,5827
tedious,5828
teens,5829
teh,5830
tel,5831
telegrams,5832
telephone,5833
television,5834
tell,5835
telling,5836
tells,5837
temper,5838
temples,5839
tenants,5840
tender,5841
tends,5842
tenet,5843
tenets,5844
tens,5845
tensions,5846
tenuous,5847
teresa,5848
term,5849
terms,5850
terrible,5851
terrifying,5852
territories,5853
territory,5854
territroies,5855
terroism,5856
terror,5857
terrorised,5858
terrorism,5859
terrorist,5860
terrorists,5861
tessa,5862
test,5863
testified,5864
teven,5865
textbook,5866
textbooks,5867
th,5868
thailand,5869
thank,5870
thanked,5871
thankful,5872
thanks,5873
thanx,5874
thatcher,5875
thats,5876
theatrics,5877
theforevermanparsedonedigit,5878
theme,5879
themeselves,5880
theocracy,5881
theoretical,5882
theories,5883
theory,5884
theres,5885
thier,5886
thing,5887
thingie,5888
things,5889
think,5890
thinking,5891
thinks,5892
thinly,5893
tho,5894
thompson,5895
thoroughly,5896
thought,5897
thoughts,5898
thousand,5899
thousands,5900
thread,5901
threads,5902
threadstarter,5903
threat,5904
threatened,5905
threatening,5906
threatens,5907
threats,5908
threive,5909
throwing,5910
thrown,5911
thrust,5912
thu,5913
thursday,5914
thwarted,5915
tibet,5916
tibetan,5917
tidal,5918
tie,5919
tied,5920
ties,5921
tight,5922
tighten,5923
time,5924
times,5925
timesdispatch,5926
timewatch,5927
timor,5928
tiny,5929
tip,5930
tips,5931
tired,5932
title,5933
tko,5934
tnt,5935
today,5936
todays,5937
toddy,5938
toe,5939
toed,5940
toilet,5941
tolarance,5942
told,5943
tolearance,5944
tolen,5945
tolerance,5946
tolerated,5947
toll,5948
tollerance,5949
tom,5950
tome,5951
tone,5952
tongue,5953
tonka,5954
tonker,5955
tony,5956
tonysilver,5957
took,5958
tools,5959
topic,5960
topless,5961
toronto,5962
torpor,5963
torture,5964
toss,5965
total,5966
totally,5967
touches,5968
touching,5969
tough,5970
tourism,5971
tourist,5972
tours,5973
tower,5974
towering,5975
towns,5976
toxic,5977
toyhon,5978
traceable,5979
traces,5980
track,5981
trade,5982
traded,5983
traders,5984
tradition,5985
traditional,5986
trafalgar,5987
traffic,5988
tragedies,5989
tragedy,5990
tragic,5991
trained,5992
training,5993
transatlantic,5994
transcript,5995
transcripts,5996
transistor,5997
translation,5998
transparent,5999
transplanted,6000
transport,6001
transporter,6002
trap,6003
trash,6004
trashed,6005
travel,6006
travelgalparsedthreedigits,6007
travelled,6008
travelling,6009
treachery,6010
treason,6011
treat,6012
treated,6013
treaties,6014
treatment,6015
treatments,6016
treaty,6017
tree,6018
trembles,6019
tremendous,6020
trial,6021
trials,6022
tribes,6023
tribesmen,6024
tribunal,6025
trick,6026
tricks,6027
tried,6028
trigger,6029
trip,6030
tripe,6031
triple,6032
trite,6033
trolls,6034
troop,6035
troops,6036
trouble,6037
trousers,6038
truce,6039
truck,6040
true,6041
truly,6042
truman,6043
trust,6044
truth,6045
try,6046
trying,6047
tsarion,6048
tsunami,6049
tubes,6050
tuesday,6051
tunes,6052
tunisia,6053
turf,6054
turk,6055
turkey,6056
turkish,6057
turmoil,6058
turn,6059
turned,6060
turning,6061
turns,6062
tv,6063
twin,6064
twist,6065
twisted,6066
twisting,6067
twofold,6068
type,6069
typed,6070
types,6071
typical,6072
typically,6073
typo,6074
ubergunner,6075
uder,6076
uganda,6077
ugandan,6078
ugg,6079
ugly,6080
uk,6081
ukraine,6082
ukrainian,6083
ulpan,6084
ulster,6085
ultimately,6086
ultras,6087
umproviked,6088
unabashed,6089
unable,6090
unacceptable,6091
unanimous,6092
unarmed,6093
unbalanced,6094
unbearable,6095
unbelievable,6096
uncaring,6097
uncivilised,6098
uncle,6099
unclear,6100
uncomfortable,6101
unconscionable,6102
uncontrollable,6103
unconventional,6104
undemocratic,6105
undeniably,6106
underlying,6107
undermine,6108
undermines,6109
undermining,6110
understand,6111
understanding,6112
understands,6113
understood,6114
undesired,6115
undeterred,6116
undoubtedly,6117
unecessary,6118
unemployment,6119
uneven,6120
unfair,6121
unfairly,6122
unfettered,6123
unfold,6124
unfortunate,6125
unfortunately,6126
unfortunatley,6127
unhappy,6128
unholy,6129
uni,6130
uninformed,6131
uninterupted,6132
union,6133
unionism,6134
unionists,6135
unit,6136
united,6137
universal,6138
universe,6139
universities,6140
university,6141
unjustifiable,6142
unjustified,6143
unless,6144
unlike,6145
unlikeable,6146
unlikely,6147
unnamed,6148
unneccessary,6149
unnecessary,6150
unorthodox,6151
unpleasant,6152
unpopulated,6153
unproven,6154
unrealistic,6155
unreliable,6156
unreported,6157
unspeakable,6158
unsubstantiated,6159
unsuccessful,6160
unsuitable,6161
unto,6162
untrustworthy,6163
unwholesome,6164
upcoming,6165
uphold,6166
uprooting,6167
upset,6168
upside,6169
upstarts,6170
upu,6171
upyerpipe,6172
uranium,6173
urban,6174
urgent,6175
urges,6176
usa,6177
usage,6178
usapears,6179
use,6180
used,6181
useful,6182
useless,6183
username,6184
uses,6185
using,6186
usual,6187
usually,6188
usuing,6189
utilitarian,6190
utopia,6191
utter,6192
utterly,6193
vacancies,6194
vacation,6195
vagant,6196
valid,6197
validated,6198
valise,6199
valuable,6200
value,6201
valued,6202
values,6203
vanunu,6204
variability,6205
variety,6206
various,6207
vast,6208
vat,6209
vatican,6210
vc,6211
ve,6212
vegetarian,6213
vehemently,6214
vehicles,6215
veiled,6216
venetians,6217
venezuala,6218
venezuela,6219
venezuelan,6220
venezuelans,6221
vent,6222
venture,6223
veracity,6224
verb,6225
verbal,6226
verdict,6227
verge,6228
verifying,6229
versa,6230
verse,6231
versed,6232
version,6233
vessel,6234
vested,6235
vestige,6236
vests,6237
veto,6238
vexing,6239
vice,6240
vicious,6241
victim,6242
victimhood,6243
victims,6244
victorian,6245
victories,6246
victory,6247
video,6248
videos,6249
vietnam,6250
view,6251
viewpoint,6252
viewpoints,6253
views,6254
vigilant,6255
vile,6256
violate,6257
violating,6258
violation,6259
violence,6260
violent,6261
virgins,6262
virtualisation,6263
virulently,6264
vis,6265
visible,6266
visit,6267
visited,6268
visitors,6269
vitamin,6270
vitriolic,6271
viva,6272
viz,6273
vocal,6274
voice,6275
volunteering,6276
vomit,6277
voodoo,6278
vote,6279
voted,6280
voters,6281
votes,6282
voting,6283
vs,6284
vulgar,6285
vultures,6286
vw,6287
wacko,6288
waggy,6289
wahhabist,6290
wail,6291
wailing,6292
wait,6293
waited,6294
waiting,6295
wake,6296
wales,6297
walk,6298
walking,6299
wall,6300
walled,6301
walls,6302
walnuts,6303
wander,6304
wandering,6305
wanna,6306
want,6307
wanted,6308
wants,6309
war,6310
warden,6311
warents,6312
warfare,6313
warmest,6314
warming,6315
warmonger,6316
warn,6317
warned,6318
warped,6319
warrant,6320
warrants,6321
warrnet,6322
wars,6323
washington,6324
wasn,6325
wasnt,6326
waste,6327
watch,6328
watches,6329
watching,6330
watchout,6331
water,6332
waters,6333
wave,6334
waves,6335
waving,6336
way,6337
wayne,6338
ways,6339
wayward,6340
wb,6341
wbos,6342
weak,6343
weakened,6344
weakens,6345
weakness,6346
wealthy,6347
weapon,6348
weaponry,6349
weapons,6350
wear,6351
wearing,6352
weather,6353
weave,6354
weaving,6355
web,6356
weblog,6357
website,6358
websites,6359
wednesday,6360
wee,6361
weed,6362
week,6363
weekend,6364
weeks,6365
weep,6366
weight,6367
weird,6368
weirdos,6369
welcome,6370
weltanschauung,6371
wendy,6372
wendyisms,6373
wendyman,6374
wendymann,6375
went,6376
wepaons,6377
weren,6378
werent,6379
west,6380
western,6381
westerner,6382
wests,6383
westward,6384
wether,6385
wets,6386
whats,6387
whatsoever,6388
wheedling,6389
wheezing,6390
whic,6391
whichester,6392
whilst,6393
whinger,6394
whining,6395
whip,6396
whisky,6397
white,6398
whites,6399
whitey,6400
whoda,6401
wholy,6402
whoops,6403
wide,6404
widely,6405
wider,6406
widespread,6407
widow,6408
wiener,6409
wife,6410
wik,6411
wikipedia,6412
wild,6413
william,6414
williams,6415
willing,6416
willingly,6417
willingness,6418
win,6419
wing,6420
wingers,6421
wings,6422
winner,6423
winners,6424
winning,6425
wioth,6426
wiped,6427
wiping,6428
wish,6429
wishes,6430
witha,6431
withdraw,6432
withdrawing,6433
withdrawn,6434
withdrawned,6435
withhold,6436
withref,6437
withstand,6438
witness,6439
witnessed,6440
witnesses,6441
witty,6442
wmd,6443
wolfowitz,6444
woman,6445
women,6446
won,6447
wonder,6448
wondered,6449
wonderful,6450
wonderfully,6451
wonderign,6452
wondering,6453
wonders,6454
wont,6455
wooden,6456
woolsey,6457
woolwich,6458
word,6459
worded,6460
words,6461
wore,6462
work,6463
worked,6464
worker,6465
workers,6466
workforce,6467
working,6468
works,6469
workshops,6470
world,6471
worlds,6472
worldwide,6473
worms,6474
worried,6475
worries,6476
worry,6477
worrying,6478
worse,6479
worship,6480
worst,6481
worth,6482
worthy,6483
wouldn,6484
wouldnt,6485
wounded,6486
wounding,6487
wow,6488
wp,6489
wragg,6490
wraggers,6491
wriggle,6492
write,6493
writes,6494
writing,6495
written,6496
wrong,6497
wrongdoing,6498
wrote,6499
wrt,6500
wsj,6501
wtc,6502
wto,6503
wums,6504
wwii,6505
wwparsedonedigit,6506
www,6507
xavier,6508
ya,6509
yank,6510
yanks,6511
yard,6512
yawn,6513
ye,6514
yea,6515
yeah,6516
year,6517
yearly,6518
years,6519
yeeessssssss,6520
yeh,6521
yehudi,6522
yellow,6523
yep,6524
yes,6525
yesterday,6526
yield,6527
yields,6528
yoav,6529
yoke,6530
york,6531
yorker,6532
yorkshire,6533
yossarian,6534
young,6535
younger,6536
youngster,6537
yout,6538
youth,6539
yrs,6540
yummy,6541
yup,6542
yvonne,6543
zabak,6544
zalmay,6545
zarqawi,6546
zebra,6547
zebras,6548
zebrasviewpoint,6549
zeldalicious,6550
zero,6551
zi,6552
zimbabwe,6553
zionism,6554
zionist,6555
zionists,6556
zone,6557
zones,6558
