___________________________,0
_______________________________,1
_____________________________________________,2
abandon,3
abbas,4
abducted,5
abhorrent,6
ability,7
able,8
abolutely,9
aboriginal,10
aboroginals,11
aborogine,12
abortion,13
abraham,14
abroad,15
abrogate,16
abrogated,17
abrupt,18
absence,19
absolute,20
absolutely,21
absolution,22
absurd,23
abu,24
abundant,25
abuse,26
abused,27
abusing,28
abysmally,29
academies,30
accept,31
acceptable,32
acceptance,33
accepted,34
access,35
accessible,36
accident,37
accommodate,38
accommodation,39
according,40
accordingly,41
account,42
accounted,43
accounts,44
accurate,45
accusation,46
accusations,47
accused,48
accusing,49
acer,50
acheive,51
achieve,52
achieving,53
acknowleged,54
acquire,55
act,56
acted,57
acting,58
action,59
actions,60
active,61
activist,62
activity,63
acts,64
actual,65
actualisation,66
actually,67
acumen,68
acuses,69
acutely,70
acxts,71
ad,72
add,73
added,74
additionally,75
additionsal,76
address,77
addressed,78
addresses,79
addressing,80
adds,81
adduce,82
adequate,83
adjust,84
admin,85
administartion,86
administators,87
administration,88
administrative,89
administrators,90
admire,91
admission,92
admit,93
admitted,94
admitting,95
adolescence,96
adopting,97
adulation,98
adulthood,99
adults,100
advance,101
advanced,102
advances,103
advantage,104
advert,105
advertise,106
advisers,107
advocate,108
advocating,109
aerial,110
afair,111
affair,112
affairs,113
affect,114
affinity,115
afflicting,116
afford,117
afghan,118
afghanistan,119
afghans,120
aforementioned,121
afraid,122
africa,123
african,124
afrikaaner,125
afrikaaners,126
age,127
agency,128
agenda,129
ages,130
aggression,131
aggressive,132
ago,133
agree,134
agreed,135
agreeing,136
agreement,137
agreements,138
agrees,139
ah,140
ahead,141
ahmadinejihad,142
ahmed,143
aid,144
aiejrlsk,145
aim,146
aimed,147
aims,148
aina,149
air,150
aircraft,151
aired,152
airlines,153
airport,154
airports,155
akin,156
al,157
alan,158
alans,159
alarming,160
alaska,161
albeit,162
albert,163
albright,164
alcohol,165
ali,166
aliens,167
alike,168
alive,169
aliya,170
aljazeera,171
allah,172
allegations,173
alleged,174
allegedly,175
allende,176
alliance,177
allied,178
allience,179
allies,180
allocated,181
alloted,182
allow,183
allowed,184
allowing,185
allows,186
allude,187
alluding,188
ally,189
alongside,190
alot,191
alright,192
alternating,193
alternatively,194
amaze,195
amazed,196
amazing,197
ambassador,198
ambitions,199
ambulance,200
amd,201
amendment,202
america,203
american,204
americancivilians,205
americans,206
amigo,207
amnesty,208
amodel,209
amounted,210
amounts,211
amp,212
amsterdam,213
amusement,214
amusing,215
analagous,216
analogies,217
analogy,218
analysis,219
anarchists,220
anarchy,221
ancestors,222
ancestral,223
ancestry,224
ancient,225
andrea,226
andy,227
angel,228
angela,229
angeles,230
angels,231
anger,232
angle,233
angles,234
anglia,235
anglicans,236
angola,237
angry,238
animal,239
animals,240
ann,241
anne,242
annexing,243
annhialate,244
annihilation,245
anniversary,246
annon,247
announced,248
annoyed,249
annual,250
anothers,251
answer,252
answered,253
answering,254
answers,255
antagonistic,256
anthony,257
anthropological,258
anti,259
antibiotics,260
antineocon,261
anybody,262
anybodys,263
anymore,264
anythig,265
anytime,266
apart,267
apartheid,268
apartheit,269
apartment,270
apatheid,271
aperthied,272
apolitical,273
apologies,274
apologise,275
apologists,276
apologize,277
apology,278
appalled,279
appalling,280
apparent,281
apparently,282
appealed,283
appear,284
appeared,285
appears,286
appease,287
appeasers,288
appeases,289
appetite,290
applauded,291
apple,292
apples,293
applicable,294
apply,295
applying,296
appointments,297
appolo,298
appreciate,299
apprehension,300
approach,301
approached,302
approaching,303
approval,304
approve,305
approved,306
approving,307
approx,308
approximately,309
april,310
apropriate,311
aquaintance,312
arab,313
arabia,314
arabians,315
arabic,316
arabs,317
arafat,318
arbitray,319
arbs,320
arch,321
archives,322
area,323
areas,324
aren,325
arent,326
argentina,327
argue,328
argued,329
arguements,330
argues,331
arguing,332
argument,333
arguments,334
ariel,335
arm,336
armed,337
armenian,338
armies,339
arms,340
army,341
arnie,342
aropund,343
arranged,344
arrest,345
arrested,346
arrived,347
arriving,348
arrogance,349
arrogant,350
arrow,351
arrresting,352
arse,353
arsenals,354
art,355
article,356
articles,357
articulately,358
artillery,359
aryans,360
asa,361
asdf,362
ashanti,363
asia,364
asian,365
asians,366
aside,367
ask,368
asked,369
asking,370
aspect,371
aspirate,372
aspirational,373
aspirations,374
aspire,375
asprin,376
assasination,377
assault,378
assembly,379
assert,380
asserted,381
assesement,382
assess,383
assessing,384
assimilate,385
assimilated,386
assimilation,387
assist,388
assistance,389
associate,390
associated,391
association,392
assume,393
assumed,394
assuming,395
assumption,396
assumptions,397
assure,398
astonished,399
astonishing,400
astounding,401
astute,402
aswat,403
aswell,404
atheist,405
atlast,406
atleast,407
atom,408
atomic,409
atothez,410
atrocities,411
atrocity,412
atta,413
attack,414
attacked,415
attackers,416
attacking,417
attacks,418
attain,419
attempt,420
attempting,421
attempts,422
attention,423
attest,424
attire,425
attitude,426
attitudes,427
attorney,428
attract,429
attracted,430
attraction,431
attracts,432
attribute,433
attributing,434
audiance,435
audited,436
august,437
austarlia,438
australia,439
australian,440
australians,441
australias,442
austria,443
austrians,444
authorities,445
authority,446
authors,447
automobile,448
available,449
availed,450
avalible,451
avenge,452
average,453
avert,454
avigdor,455
aviv,456
avoid,457
avoided,458
avoiding,459
await,460
awaiting,461
award,462
aware,463
away,464
awe,465
awful,466
axe,467
axegrinder,468
ay,469
az,470
azania,471
azar,472
baathists,473
babies,474
baby,475
babysitting,476
backed,477
background,478
backing,479
backwater,480
bad,481
badly,482
baffles,483
bagdad,484
baggage,485
baghdad,486
bailiffs,487
balance,488
balancing,489
balfour,490
bali,491
balkan,492
ball,493
ballot,494
balls,495
ban,496
band,497
bang,498
bank,499
bankers,500
bankruptcy,501
bankstown,502
banned,503
banning,504
bar,505
barabism,506
barack,507
barbados,508
barbarians,509
barbaric,510
barbarism,511
barbarity,512
barking,513
barmy,514
barrel,515
barrier,516
bartering,517
base,518
baseball,519
based,520
baseless,521
bases,522
basest,523
bashing,524
basic,525
basically,526
basis,527
basra,528
bat,529
battles,530
bay,531
bbc,532
beach,533
beaches,534
bear,535
beard,536
bearded,537
bearing,538
bears,539
beat,540
beating,541
beats,542
beause,543
beautiful,544
becuase,545
bed,546
beeb,547
beef,548
began,549
beggars,550
begger,551
begin,552
beginning,553
begs,554
beharry,555
behave,556
behaved,557
behaving,558
behavior,559
behaviour,560
beheading,561
behold,562
beings,563
belfer,564
belgiium,565
belief,566
beliefs,567
belies,568
believe,569
believed,570
believers,571
believes,572
believing,573
believs,574
belived,575
bellicose,576
belly,577
belong,578
belonging,579
belongs,580
belt,581
ben,582
bending,583
beneath,584
benefit,585
benefits,586
bennett,587
bennnett,588
benny,589
benz,590
berlusconi,591
bertie,592
best,593
bested,594
bet,595
bethlehem,596
betrays,597
better,598
bho,599
bias,600
big,601
bigger,602
biggest,603
bigot,604
bigoted,605
bigotry,606
bigots,607
bigotted,608
billions,609
bills,610
bin,611
binoculars,612
bird,613
birds,614
birth,615
bit,616
bitch,617
bites,618
bizarre,619
black,620
blackburn,621
blacks,622
blah,623
blair,624
blairparsedonedigit,625
blame,626
blamed,627
blames,628
blaming,629
blast,630
blaster,631
blatant,632
blatantly,633
blatter,634
bleat,635
bleating,636
bleeding,637
blending,638
blessed,639
blessing,640
blew,641
bliar,642
blind,643
blindly,644
blindness,645
blocade,646
blockaded,647
blocks,648
blood,649
bloodletting,650
bloodshed,651
bloody,652
blow,653
blowing,654
blows,655
blue,656
blurt,657
bnp,658
board,659
boarded,660
boarders,661
boards,662
boat,663
bogus,664
bold,665
bolshevik,666
bolster,667
bolton,668
bomb,669
bombarded,670
bombardment,671
bombardments,672
bombed,673
bomber,674
bombers,675
bombing,676
bombings,677
bombs,678
bon,679
bona,680
bones,681
bonhoeffer,682
bonuses,683
boo,684
book,685
boom,686
booming,687
booms,688
boosting,689
boot,690
booth,691
bootlickers,692
bordeauxparsedtwodigits,693
border,694
bordering,695
borders,696
bore,697
boring,698
boris,699
born,700
borrower,701
bother,702
bothered,703
bothering,704
bottle,705
bouncy,706
bound,707
boundaries,708
boundary,709
bowing,710
bowl,711
bownding,712
box,713
boy,714
boycott,715
boycotting,716
boydavey,717
boys,718
brain,719
brainwashed,720
branch,721
branded,722
brandon,723
brave,724
bravery,725
brazeness,726
brazil,727
breach,728
break,729
breaker,730
breakfast,731
breaking,732
breaks,733
breasts,734
breath,735
bribe,736
bribes,737
bribing,738
brick,739
brief,740
brilliant,741
brimstone,742
bring,743
bringing,744
brings,745
brit,746
britain,747
britains,748
britan,749
britian,750
british,751
britishness,752
britons,753
brits,754
broadcast,755
broadly,756
broke,757
broken,758
brother,759
brothers,760
brought,761
brown,762
brunt,763
brush,764
brutal,765
brutality,766
brutally,767
brutish,768
bs,769
btw,770
buddhist,771
buddy,772
budget,773
build,774
building,775
buildings,776
builds,777
built,778
bulgaria,779
bull,780
bullet,781
bullets,782
bum,783
bummed,784
bumpkins,785
bunch,786
bunfight,787
bunker,788
bunkers,789
burden,790
bureaucracy,791
burger,792
buried,793
burma,794
burn,795
bus,796
bush,797
business,798
busses,799
bust,800
busy,801
button,802
buy,803
buying,804
buys,805
bwahaha,806
bye,807
cabal,808
cabinet,809
cable,810
caesar,811
cafe,812
cafes,813
cafta,814
cahvez,815
cake,816
calais,817
calculating,818
calendar,819
californian,820
caliphite,821
called,822
calling,823
calls,824
cambodia,825
camcorder,826
came,827
camera,828
camouflage,829
camp,830
campagain,831
campaign,832
campare,833
camps,834
campus,835
canaanintes,836
canaanite,837
canada,838
canadafreepress,839
canadians,840
cancel,841
cancer,842
candidates,843
cannanites,844
canons,845
cap,846
capabilities,847
capability,848
capable,849
capital,850
capitalist,851
capitalists,852
capitol,853
caps,854
captainlogic,855
captcha,856
captured,857
car,858
carbine,859
care,860
cared,861
careful,862
carefully,863
cares,864
carolina,865
carpet,866
carried,867
carry,868
carrying,869
cars,870
cartel,871
cartels,872
carter,873
carthy,874
carthyism,875
cartoon,876
cartoons,877
case,878
cases,879
cash,880
casinos,881
castro,882
casualties,883
cat,884
catastrophic,885
catch,886
categories,887
category,888
catering,889
cathars,890
cathch,891
catholic,892
catholics,893
cats,894
caught,895
cause,896
caused,897
causes,898
causing,899
ceacefire,900
cease,901
ceasefire,902
ceding,903
celebrate,904
celebration,905
celebrations,906
celebrity,907
cell,908
cellar,909
cells,910
celt,911
censorship,912
cent,913
center,914
central,915
centred,916
centredaily,917
centres,918
centuries,919
century,920
certai,921
certain,922
certainly,923
chain,924
chair,925
chairs,926
chalabi,927
challenge,928
challenged,929
challenging,930
chance,931
chancellor,932
chances,933
change,934
changed,935
changes,936
changing,937
channel,938
chaos,939
chap,940
chapel,941
chapin,942
chapter,943
character,944
characterful,945
characterise,946
characterised,947
characteristic,948
characters,949
charge,950
charged,951
charges,952
charismatic,953
charities,954
charity,955
charlesi,956
charters,957
chashews,958
chat,959
chavez,960
cheap,961
cheat,962
check,963
checked,964
checks,965
cheddi,966
cheek,967
cheered,968
cheering,969
cheerleaders,970
cheers,971
cheese,972
chemical,973
cheney,974
chest,975
chicago,976
chicken,977
chief,978
child,979
childhood,980
childish,981
childline,982
children,983
china,984
chinese,985
chipmaker,986
chips,987
choeung,988
choice,989
choke,990
chomsky,991
choose,992
choosen,993
chooses,994
choosing,995
choosy,996
chopped,997
chore,998
chose,999
chosen,1000
christ,1001
christian,1002
christianity,1003
christians,1004
christinaity,1005
christmas,1006
christrainanti,1007
chritians,1008
chrsitian,1009
chucked,1010
chucking,1011
chunck,1012
chunk,1013
chunks,1014
church,1015
churches,1016
churchill,1017
cia,1018
cientific,1019
cigar,1020
circle,1021
circles,1022
circling,1023
circumstance,1024
circumstances,1025
circus,1026
citation,1027
citations,1028
cite,1029
cited,1030
cities,1031
citizen,1032
citizens,1033
citizenship,1034
city,1035
civil,1036
civilian,1037
civilians,1038
civilisation,1039
civilised,1040
civilized,1041
civillian,1042
civilzed,1043
civlian,1044
claim,1045
claimed,1046
claiming,1047
claims,1048
clap,1049
clapped,1050
clarification,1051
clarify,1052
class,1053
classes,1054
classics,1055
classified,1056
classrooms,1057
claudius,1058
clause,1059
clean,1060
cleanse,1061
cleansed,1062
cleansing,1063
clear,1064
cleared,1065
clearing,1066
clearly,1067
clergy,1068
clever,1069
cliche,1070
clicking,1071
client,1072
cling,1073
clinton,1074
clip,1075
clocks,1076
close,1077
closed,1078
closely,1079
closet,1080
closure,1081
clould,1082
clout,1083
clue,1084
clueless,1085
clumsily,1086
cluster,1087
clutching,1088
cnn,1089
coal,1090
coalition,1091
coastal,1092
cocaine,1093
codes,1094
coexistence,1095
coffin,1096
cognitive,1097
coherent,1098
cohesion,1099
coin,1100
coinciding,1101
coins,1102
cojones,1103
colaboration,1104
cold,1105
collaborated,1106
collaborators,1107
collapses,1108
collateral,1109
collatoral,1110
colleagues,1111
collection,1112
collectively,1113
college,1114
colleges,1115
collide,1116
colneljihadist,1117
colonalism,1118
colonel,1119
colonelartist,1120
colonial,1121
colonized,1122
colonizers,1123
colours,1124
colt,1125
columbia,1126
column,1127
columnist,1128
com,1129
coma,1130
combat,1131
combatants,1132
combatting,1133
combined,1134
come,1135
comes,1136
comfortable,1137
comfortably,1138
comforting,1139
coming,1140
command,1141
commemorated,1142
commemorations,1143
comment,1144
comments,1145
commercial,1146
commie,1147
commies,1148
comming,1149
commission,1150
commit,1151
committed,1152
committee,1153
committing,1154
committment,1155
common,1156
communication,1157
communing,1158
communism,1159
communist,1160
communists,1161
communities,1162
community,1163
companies,1164
company,1165
comparatively,1166
compare,1167
compared,1168
compares,1169
comparing,1170
comparison,1171
compass,1172
compassionate,1173
compassionately,1174
compelled,1175
compensated,1176
compensation,1177
competed,1178
competent,1179
competition,1180
competitive,1181
competitors,1182
complain,1183
complained,1184
complaining,1185
complaint,1186
complaints,1187
complete,1188
completely,1189
compliant,1190
comply,1191
comprehension,1192
comprised,1193
compromises,1194
computer,1195
computers,1196
concatenate,1197
conceal,1198
concede,1199
conceived,1200
concentrated,1201
concentration,1202
concept,1203
concepts,1204
concern,1205
concerned,1206
concerning,1207
concerns,1208
concesions,1209
concieved,1210
conclude,1211
concluded,1212
conclusion,1213
conclusions,1214
condaleeza,1215
condemn,1216
condemnation,1217
condemned,1218
condemning,1219
condescending,1220
condiderate,1221
conditions,1222
condone,1223
condones,1224
conduct,1225
conducted,1226
conference,1227
confession,1228
confident,1229
confirmed,1230
conflict,1231
conflicts,1232
confronted,1233
confronts,1234
confuse,1235
confused,1236
confuses,1237
confusing,1238
congrats,1239
congratulations,1240
congress,1241
congressmen,1242
conjecture,1243
connections,1244
connects,1245
conny,1246
conquered,1247
conquest,1248
cons,1249
consent,1250
consequence,1251
consequences,1252
consequent,1253
consequently,1254
conservative,1255
conservbatives,1256
consider,1257
considerably,1258
consideration,1259
considered,1260
considering,1261
consistency,1262
consistent,1263
consistently,1264
consists,1265
conspiracy,1266
conspiratorial,1267
constant,1268
constitute,1269
constitution,1270
constitutional,1271
constitutionally,1272
construction,1273
constructively,1274
consulate,1275
consult,1276
consulted,1277
contact,1278
contain,1279
containing,1280
contains,1281
contaminated,1282
contemporary,1283
contempory,1284
contempt,1285
conten,1286
context,1287
continent,1288
continously,1289
continually,1290
continue,1291
continued,1292
continues,1293
continuously,1294
continuum,1295
contract,1296
contradictions,1297
contrary,1298
contrast,1299
contray,1300
contribute,1301
contributed,1302
contributes,1303
contributions,1304
contrived,1305
control,1306
controlled,1307
controlling,1308
controls,1309
conveniant,1310
convention,1311
conventional,1312
conversations,1313
convert,1314
conveys,1315
convicted,1316
conviction,1317
convictions,1318
convince,1319
convinced,1320
convoy,1321
cool,1322
cooperation,1323
cop,1324
cope,1325
copenhagen,1326
copied,1327
copies,1328
core,1329
corner,1330
corporate,1331
corpses,1332
corpus,1333
correct,1334
corrected,1335
correction,1336
correctly,1337
correlation,1338
corrupt,1339
corruption,1340
cos,1341
cost,1342
costed,1343
cough,1344
couldn,1345
council,1346
count,1347
counter,1348
counterargument,1349
counting,1350
countries,1351
countruies,1352
country,1353
countrymen,1354
coup,1355
couple,1356
courage,1357
courageous,1358
course,1359
court,1360
courtesy,1361
courting,1362
courts,1363
cousin,1364
cousins,1365
cover,1366
coverage,1367
covered,1368
covering,1369
cowardly,1370
cowards,1371
cowboy,1372
cowboys,1373
cows,1374
cp,1375
crackling,1376
crackpot,1377
cracks,1378
cradle,1379
crane,1380
crap,1381
crass,1382
crazy,1383
create,1384
created,1385
creating,1386
creation,1387
creatures,1388
credence,1389
credit,1390
creeping,1391
cretin,1392
cretins,1393
cricism,1394
cricket,1395
crime,1396
crimes,1397
criminal,1398
criminalised,1399
criminals,1400
cripple,1401
crisis,1402
crisps,1403
cristian,1404
criteria,1405
critical,1406
criticise,1407
criticised,1408
criticising,1409
criticism,1410
criticisms,1411
criticize,1412
criticized,1413
critique,1414
critiques,1415
critise,1416
cronies,1417
crook,1418
crooked,1419
cross,1420
crossed,1421
crossing,1422
crucial,1423
crusade,1424
crush,1425
crushed,1426
crying,1427
ctoo,1428
cuba,1429
cuban,1430
culprit,1431
cult,1432
cultural,1433
culture,1434
cultures,1435
cup,1436
cure,1437
curious,1438
current,1439
currently,1440
cushion,1441
cusp,1442
customs,1443
cut,1444
cuts,1445
cybersoldiers,1446
cyprus,1447
czech,1448
daddy,1449
daft,1450
dag,1451
dag_petersen,1452
dagnarius,1453
daily,1454
damage,1455
damages,1456
damned,1457
damnocrasy,1458
dan,1459
dancers,1460
dandy,1461
dane,1462
danes,1463
danger,1464
dangerous,1465
dangers,1466
danish,1467
danmark,1468
dare,1469
darfour,1470
darfur,1471
daring,1472
dark,1473
darn,1474
dart,1475
darthvedder,1476
darvishi,1477
darwin,1478
data,1479
date,1480
dated,1481
daughters,1482
david,1483
davidson,1484
davison,1485
dawson,1486
day,1487
days,1488
dead,1489
deadlocked,1490
deadly,1491
deafening,1492
deal,1493
dealing,1494
dealings,1495
deals,1496
dealt,1497
dealtwith,1498
dear,1499
death,1500
deaths,1501
debate,1502
debated,1503
debates,1504
debating,1505
debtor,1506
debts,1507
decade,1508
deceipt,1509
deceit,1510
deceive,1511
december,1512
decency,1513
decent,1514
deception,1515
decide,1516
decided,1517
decides,1518
decision,1519
deck,1520
declaration,1521
declared,1522
declaring,1523
decline,1524
declined,1525
decontextualised,1526
decreasing,1527
dedicated,1528
deduce,1529
deep,1530
deeper,1531
defacating,1532
defacing,1533
defaluting,1534
defence,1535
defences,1536
defend,1537
defenders,1538
defending,1539
defense,1540
defent,1541
deficiency,1542
deficit,1543
deficits,1544
defination,1545
definatly,1546
defined,1547
defines,1548
defining,1549
definitely,1550
definition,1551
definitions,1552
deflect,1553
deflection,1554
defy,1555
degrade,1556
degree,1557
degrees,1558
dehumanization,1559
delegation,1560
deliberate,1561
deliberately,1562
delighted,1563
delightful,1564
delightfully,1565
deliver,1566
delivered,1567
delivering,1568
dell,1569
delude,1570
deluge,1571
delusional,1572
delve,1573
dem,1574
demand,1575
demanding,1576
demands,1577
demeaning,1578
demeans,1579
demise,1580
democracies,1581
democracy,1582
democrat,1583
democratic,1584
democratically,1585
democrats,1586
democtrats,1587
demographic,1588
demonizing,1589
demonstrate,1590
demonstrated,1591
demonstrates,1592
demonstrating,1593
demonstrations,1594
denial,1595
denied,1596
deniers,1597
denigrates,1598
denigration,1599
denmark,1600
denominations,1601
denoted,1602
dense,1603
denser,1604
density,1605
dent,1606
denverpost,1607
deny,1608
denying,1609
department,1610
depend,1611
depending,1612
depends,1613
depicted,1614
depleted,1615
depose,1616
depressed,1617
depression,1618
depressives,1619
depth,1620
deputy,1621
deranged,1622
derived,1623
derring,1624
desade,1625
descended,1626
descends,1627
described,1628
desert,1629
deserve,1630
deserves,1631
designated,1632
designed,1633
desired,1634
desperate,1635
desperation,1636
despise,1637
despite,1638
destabilising,1639
destinations,1640
destroy,1641
destroyed,1642
destroying,1643
destruction,1644
destructive,1645
destrution,1646
detailing,1647
details,1648
detains,1649
detect,1650
detected,1651
detecting,1652
deter,1653
deterent,1654
determination,1655
determine,1656
determined,1657
determining,1658
deterrence,1659
deterrent,1660
deterrents,1661
detonates,1662
detonating,1663
detraction,1664
deutschmark,1665
devastate,1666
devastatingly,1667
develop,1668
developed,1669
developemental,1670
developing,1671
development,1672
developments,1673
device,1674
devices,1675
devil,1676
devoid,1677
dez,1678
di,1679
dialects,1680
diana,1681
diaries,1682
dick,1683
dickie,1684
dictated,1685
dictator,1686
dictatorial,1687
dictators,1688
dictatorship,1689
dictatorships,1690
did,1691
didn,1692
didnt,1693
die,1694
died,1695
dies,1696
diet,1697
differant,1698
difference,1699
differences,1700
different,1701
differes,1702
differing,1703
difficult,1704
difficulty,1705
diffuse,1706
digestion,1707
digging,1708
dignified,1709
dignity,1710
digress,1711
dim,1712
dinner,1713
dinosaurs,1714
dioxin,1715
dipanna,1716
diplomacy,1717
diplomatic,1718
diplomats,1719
direct,1720
directed,1721
direction,1722
directly,1723
director,1724
dirty,1725
disagree,1726
disagreement,1727
disappoint,1728
disappointed,1729
disappointment,1730
disapprove,1731
disarming,1732
disaster,1733
disater,1734
disbelieve,1735
discourse,1736
discover,1737
discovered,1738
discovery,1739
discredit,1740
discrete,1741
discrimination,1742
discuss,1743
discussing,1744
discussion,1745
discussions,1746
disease,1747
disengagement,1748
disengenious,1749
disengenous,1750
disgraceful,1751
disgusting,1752
dishonest,1753
dishonesty,1754
dishonour,1755
disinterest,1756
dislie,1757
dislike,1758
disliked,1759
dismiss,1760
dismissed,1761
disobey,1762
disparaging,1763
disparity,1764
dispicable,1765
displace,1766
displaced,1767
display,1768
disposal,1769
dispossession,1770
disproportionate,1771
disproportionately,1772
dispute,1773
disputed,1774
disputes,1775
distance,1776
distant,1777
distasteful,1778
distating,1779
distinguish,1780
distorter,1781
distortions,1782
distributed,1783
distributing,1784
districts,1785
divert,1786
divide,1787
dividends,1788
divisive,1789
divorced,1790
djia,1791
dna,1792
docks,1793
doctor,1794
doctors,1795
doctrine,1796
docu,1797
document,1798
documenting,1799
documents,1800
dod,1801
dodge,1802
dodgy,1803
does,1804
doesn,1805
doesnt,1806
dog,1807
dogs,1808
doing,1809
dollar,1810
dollars,1811
domestic,1812
dominant,1813
dominate,1814
domination,1815
don,1816
donald,1817
donated,1818
donations,1819
donator,1820
dont,1821
doomed,1822
door,1823
doorsteps,1824
doplomatic,1825
dossier,1826
dostum,1827
dotted,1828
double,1829
doubled,1830
doubt,1831
doubts,1832
dow,1833
downhill,1834
downs,1835
downside,1836
downward,1837
dozen,1838
dozens,1839
dr,1840
draconian,1841
dragged,1842
drain,1843
drained,1844
dramatically,1845
draw,1846
drawers,1847
drawings,1848
drawn,1849
draws,1850
dream,1851
dreidelspin,1852
dresden,1853
dress,1854
dresses,1855
drink,1856
drinking,1857
drive,1858
drivel,1859
driven,1860
driver,1861
driving,1862
drop,1863
dropped,1864
drove,1865
drug,1866
drums,1867
drunk,1868
dry,1869
du,1870
dubai,1871
dubya,1872
dude,1873
duh,1874
dull,1875
dumber,1876
dump,1877
dumped,1878
dunno,1879
duped,1880
duplicity,1881
dura,1882
dutch,1883
duty,1884
dwarfs,1885
dying,1886
dynamic,1887
dysfunctional,1888
eager,1889
ear,1890
eard,1891
earlier,1892
early,1893
earn,1894
earned,1895
earnings,1896
ears,1897
earth,1898
earthquake,1899
easily,1900
easing,1901
east,1902
eastern,1903
easy,1904
eat,1905
eating,1906
ebt,1907
ebts,1908
ecnomies,1909
economic,1910
economical,1911
economics,1912
economies,1913
economy,1914
ecstasy,1915
ed,1916
edcuated,1917
edited,1918
edition,1919
educate,1920
educated,1921
education,1922
educational,1923
eec,1924
effect,1925
effective,1926
effectively,1927
effects,1928
effort,1929
egeland,1930
egg,1931
ego,1932
egypt,1933
egyptians,1934
eh,1935
eighteen,1936
eighties,1937
eighty,1938
eire,1939
eith,1940
ek,1941
elderly,1942
elect,1943
elected,1944
electing,1945
election,1946
elections,1947
electorate,1948
elects,1949
element,1950
elemets,1951
elephants,1952
em,1953
emailed,1954
embarrassing,1955
embarrassment,1956
embassy,1957
embraced,1958
embroiled,1959
emerged,1960
emigrants,1961
emigrating,1962
emigration,1963
emission,1964
emmigrated,1965
emmotional,1966
empathize,1967
emphasising,1968
empire,1969
empires,1970
employer,1971
empowering,1972
empt,1973
emptively,1974
en,1975
enacting,1976
encountered,1977
encourage,1978
encouraged,1979
encouragement,1980
encourages,1981
encouraging,1982
encourged,1983
end,1984
ended,1985
endless,1986
enemies,1987
enemy,1988
enemys,1989
energy,1990
energybulletin,1991
enforce,1992
enforcing,1993
engage,1994
engaged,1995
engagement,1996
engaging,1997
engineered,1998
engineering,1999
engineers,2000
england,2001
english,2002
englishman,2003
englishmen,2004
engulfed,2005
enitrely,2006
enjoy,2007
enjoys,2008
enlighten,2009
enlightened,2010
enlightening,2011
enlightenment,2012
enlisted,2013
enormous,2014
enrichment,2015
enrolled,2016
enshrined,2017
entered,2018
entering,2019
entertainment,2020
entire,2021
entirely,2022
entirety,2023
entitled,2024
entrapment,2025
environment,2026
environmental,2027
envoy,2028
epic,2029
episode,2030
equal,2031
equality,2032
equally,2033
equivalence,2034
equivalent,2035
er,2036
era,2037
err,2038
erroneous,2039
error,2040
errors,2041
errr,2042
es,2043
especially,2044
essentially,2045
establish,2046
establishing,2047
establishment,2048
esteem,2049
estimate,2050
estimated,2051
et,2052
eta,2053
ethnic,2054
ethnically,2055
ethnicity,2056
eu,2057
euarabia,2058
euphamistically,2059
euro,2060
euroleft,2061
eurolefties,2062
euroleftism,2063
eurolefty,2064
europe,2065
european,2066
europeans,2067
europes,2068
euros,2069
evastating,2070
evening,2071
event,2072
events,2073
eventually,2074
everybody,2075
everyday,2076
evicted,2077
evicting,2078
evidece,2079
evidence,2080
evidenced,2081
evil,2082
evilize,2083
evils,2084
evo,2085
evolve,2086
evolved,2087
ex,2088
exact,2089
exactly,2090
exaggerated,2091
examine,2092
example,2093
examples,2094
exceeds,2095
excellent,2096
exception,2097
exceptions,2098
exchange,2099
exchanged,2100
excited,2101
exciting,2102
excludes,2103
exclusive,2104
exclusively,2105
excrement,2106
excuse,2107
excuses,2108
executed,2109
executive,2110
exempt,2111
exept,2112
exercise,2113
exerted,2114
exhausted,2115
exiled,2116
exist,2117
existence,2118
existential,2119
existing,2120
exists,2121
exiting,2122
expalined,2123
expanding,2124
expansion,2125
expansionist,2126
expat,2127
expect,2128
expectation,2129
expected,2130
expects,2131
expel,2132
expense,2133
expensive,2134
experience,2135
experienced,2136
expert,2137
experts,2138
explain,2139
explained,2140
explaining,2141
explains,2142
explanation,2143
explicit,2144
explicitly,2145
exploded,2146
explored,2147
explorer,2148
explosively,2149
exports,2150
expose,2151
exposed,2152
exposes,2153
exposing,2154
expounded,2155
expressed,2156
expressing,2157
expression,2158
extend,2159
extended,2160
extensively,2161
extent,2162
extermination,2163
external,2164
extinct,2165
extinction,2166
extra,2167
extraction,2168
extradition,2169
extreme,2170
extremely,2171
extremism,2172
extremist,2173
extremists,2174
exxon,2175
eye,2176
eyes,2177
eyewitnesses,2178
fabrication,2179
face,2180
faced,2181
faces,2182
facing,2183
fact,2184
factor,2185
factors,2186
factory,2187
facts,2188
factual,2189
factually,2190
fail,2191
failed,2192
failing,2193
failings,2194
fails,2195
failure,2196
fair,2197
faith,2198
falkenburg,2199
falklands,2200
fall,2201
falling,2202
falls,2203
false,2204
familiar,2205
families,2206
family,2207
famous,2208
fan,2209
fanatic,2210
fanatical,2211
fanatically,2212
fanatics,2213
fancied,2214
fancy,2215
fantasy,2216
far,2217
farc,2218
farce,2219
farm,2220
farmers,2221
fascinating,2222
fascism,2223
fascist,2224
fascists,2225
fashion,2226
fashioned,2227
fast,2228
fat,2229
father,2230
fault,2231
faults,2232
fauxtography,2233
favour,2234
favourable,2235
favoured,2236
favourite,2237
favours,2238
fear,2239
fearing,2240
fears,2241
feasibility,2242
feature,2243
featured,2244
fec,2245
fed,2246
federal,2247
feeble,2248
feed,2249
feeding,2250
feel,2251
feeling,2252
feelings,2253
feels,2254
fees,2255
feet,2256
feisal,2257
fellow,2258
felt,2259
female,2260
fence,2261
fervently,2262
fewer,2263
ffs,2264
fgm,2265
fide,2266
field,2267
fields,2268
fifa,2269
fifties,2270
fight,2271
fighters,2272
fighting,2273
figure,2274
figurers,2275
figures,2276
fil,2277
filled,2278
final,2279
finally,2280
financed,2281
financial,2282
financing,2283
finding,2284
findings,2285
finds,2286
fine,2287
fined,2288
finegold,2289
finger,2290
finish,2291
finished,2292
finn,2293
fired,2294
fires,2295
firing,2296
firmly,2297
fish,2298
fishy,2299
fit,2300
fits,2301
fiver,2302
flag,2303
flagrant,2304
flags,2305
flames,2306
flashpoint,2307
flashpoints,2308
flaws,2309
fled,2310
fleeing,2311
fleet,2312
flies,2313
flight,2314
flights,2315
flimsiest,2316
flip,2317
floating,2318
flock,2319
flocked,2320
flopping,2321
flu,2322
fly,2323
flying,2324
fo,2325
focus,2326
focused,2327
fog,2328
folded,2329
folk,2330
follow,2331
followed,2332
followers,2333
following,2334
food,2335
fool,2336
foolish,2337
fools,2338
football,2339
forbidden,2340
force,2341
forced,2342
forcefully,2343
forces,2344
forcible,2345
forcing,2346
ford,2347
forecast,2348
foreign,2349
foreigners,2350
forest,2351
forestation,2352
forever,2353
forgein,2354
forget,2355
forgien,2356
forgiven,2357
forgot,2358
form,2359
formerusername,2360
forming,2361
forms,2362
forum,2363
forumdudeparsedonedigit,2364
forums,2365
forward,2366
fosters,2367
fought,2368
foul,2369
foundation,2370
foundations,2371
fox,2372
foxnews,2373
fparsedonedigit,2374
fparsedtwodigits,2375
fr,2376
fragile,2377
frame,2378
franc,2379
france,2380
franjly,2381
frank,2382
frankly,2383
fraud,2384
free,2385
freed,2386
freedly,2387
freedom,2388
freedome,2389
freedumb,2390
freee,2391
freely,2392
freespeech,2393
french,2394
frequency,2395
frequently,2396
frequnetly,2397
fresh,2398
friday,2399
friend,2400
friends,2401
friendship,2402
fripono,2403
frist,2404
fro,2405
frolic,2406
fromt,2407
frought,2408
frozen,2409
fruitcakes,2410
frustrated,2411
frustration,2412
fueled,2413
fulfill,2414
fulfilling,2415
fully,2416
fun,2417
functioning,2418
fundamental,2419
fundamentalists,2420
funded,2421
fundementalist,2422
funding,2423
funds,2424
funny,2425
furniture,2426
furthermore,2427
fuss,2428
fussy,2429
futile,2430
futility,2431
future,2432
fuzzy,2433
gagarin,2434
gain,2435
gaining,2436
gains,2437
galant,2438
galloway,2439
gallows,2440
gamble,2441
gambled,2442
game,2443
games,2444
gang,2445
gangs,2446
gangsterism,2447
gannet,2448
gannets,2449
gap,2450
garden,2451
gardens,2452
gas,2453
gasgoine,2454
gathered,2455
gathering,2456
gaul,2457
gaurds,2458
gave,2459
gavin,2460
gavinukparsedonedigit,2461
gawd,2462
gay,2463
gays,2464
gaza,2465
gbparsedfivedigits,2466
gbparsedsixdigits,2467
gdp,2468
gen,2469
general,2470
generalised,2471
generalising,2472
generalizations,2473
generally,2474
generate,2475
generation,2476
generational,2477
generations,2478
genetic,2479
geneva,2480
genicides,2481
genius,2482
genocide,2483
genocides,2484
gentiles,2485
gentle,2486
genuine,2487
geographic,2488
geology,2489
geoncide,2490
george,2491
georgia,2492
german,2493
germans,2494
germany,2495
germanys,2496
germmany,2497
gets,2498
getting,2499
ghana,2500
ghe,2501
ghetto,2502
gibberish,2503
ginally,2504
girls,2505
given,2506
gives,2507
giving,2508
gizelle,2509
glad,2510
gladio,2511
glaring,2512
gleaning,2513
glee,2514
glitches,2515
global,2516
globalisation,2517
globe,2518
glossed,2519
gloves,2520
glowingtrw,2521
gm,2522
gmt,2523
gnashing,2524
goal,2525
goals,2526
god,2527
goerge,2528
goes,2529
goggles,2530
going,2531
golan,2532
goldman,2533
goldwater,2534
golf,2535
gone,2536
gonna,2537
good,2538
goodies,2539
goodness,2540
goodwill,2541
goofy,2542
google,2543
gore,2544
got,2545
gothicdumster,2546
gotten,2547
gov,2548
goverment,2549
govern,2550
governance,2551
governed,2552
government,2553
governments,2554
govt,2555
grab,2556
grabbing,2557
gracefully,2558
graffitti,2559
grand,2560
grandchildren,2561
granht,2562
grant,2563
granting,2564
granty,2565
grasp,2566
grave,2567
graves,2568
great,2569
greater,2570
greatest,2571
greatness,2572
greece,2573
greedy,2574
greeks,2575
green,2576
grew,2577
greymatter,2578
greywolf,2579
grip,2580
groping,2581
ground,2582
groundhog,2583
grounds,2584
group,2585
groups,2586
growing,2587
growl,2588
grown,2589
growth,2590
grrr,2591
grumbles,2592
gt,2593
gtrandfather,2594
guarantee,2595
guaranteed,2596
guard,2597
guardian,2598
guards,2599
guerre,2600
guess,2601
guessing,2602
guest,2603
guests,2604
guff,2605
guidance,2606
guilty,2607
guitarist,2608
gulf,2609
gullible,2610
gun,2611
guns,2612
gurion,2613
gustav,2614
gutav,2615
guy,2616
guys,2617
gw,2618
gwb,2619
ha,2620
haaretz,2621
hacked,2622
hadn,2623
hadnt,2624
haesten,2625
hafta,2626
hagar,2627
haifa,2628
hair,2629
hairs,2630
half,2631
hall,2632
ham,2633
hama,2634
hamas,2635
hammas,2636
hammer,2637
hamza,2638
hand,2639
handed,2640
handedness,2641
handful,2642
handguns,2643
handicapped,2644
handing,2645
handling,2646
handpick,2647
handpicked,2648
hands,2649
handwringing,2650
handy,2651
handyman,2652
hang,2653
hanged,2654
hanging,2655
hangs,2656
haniyeh,2657
hankooki,2658
happen,2659
happened,2660
happening,2661
happens,2662
happily,2663
happiness,2664
happy,2665
haram,2666
hard,2667
harder,2668
hardly,2669
harm,2670
harming,2671
harmonious,2672
haroon,2673
harpercollins,2674
harrassment,2675
harrison,2676
harry,2677
harsh,2678
harshly,2679
hart,2680
harvest,2681
hase,2682
hasn,2683
hate,2684
hated,2685
haters,2686
hates,2687
hath,2688
hatred,2689
haunting,2690
haven,2691
having,2692
havn,2693
hawks,2694
head,2695
heading,2696
headline,2697
headlines,2698
headquarters,2699
heads,2700
heal,2701
healing,2702
health,2703
healthcare,2704
healthy,2705
hear,2706
heard,2707
hearing,2708
hearings,2709
hears,2710
heart,2711
heartedly,2712
heartfelt,2713
heartland,2714
heat,2715
heaven,2716
heavens,2717
heavier,2718
heavy,2719
hebrew,2720
heck,2721
heh,2722
heir,2723
held,2724
helen,2725
helicopters,2726
hell,2727
hello,2728
help,2729
helpers,2730
helping,2731
hem,2732
hempel,2733
hereditary,2734
heres,2735
heritage,2736
hero,2737
heroes,2738
heroin,2739
hey,2740
hezbollah,2741
hi,2742
hidden,2743
hide,2744
hiding,2745
high,2746
higher,2747
highest,2748
highlighted,2749
highly,2750
hijacking,2751
hiking,2752
hilarious,2753
hill,2754
hillarious,2755
hillary,2756
hindu,2757
hindus,2758
hint,2759
hip,2760
hispanic,2761
historain,2762
historian,2763
historic,2764
historical,2765
historically,2766
history,2767
hit,2768
hitler,2769
hitlers,2770
hits,2771
hizbollah,2772
hmd,2773
hmm,2774
hmmm,2775
hmmmm,2776
ho,2777
hodgepodge,2778
hogan,2779
hold,2780
holders,2781
holding,2782
holdings,2783
hole,2784
holes,2785
holiday,2786
holland,2787
holler,2788
holocaust,2789
holy,2790
hom,2791
home,2792
homeland,2793
homeless,2794
homes,2795
homework,2796
homosexual,2797
homosexuals,2798
honest,2799
honestly,2800
honestreporting,2801
hong,2802
honor,2803
honour,2804
honourable,2805
hoo,2806
hook,2807
hooliganism,2808
hope,2809
hopefully,2810
hopeless,2811
hopelessly,2812
hoping,2813
horrendous,2814
horrific,2815
horror,2816
horrors,2817
horse,2818
hos,2819
hospital,2820
hospitals,2821
host,2822
hostage,2823
hostilities,2824
hostility,2825
hosting,2826
hot,2827
hothousemat,2828
hotmousemat,2829
hounded,2830
hounding,2831
hour,2832
hours,2833
house,2834
houses,2835
housing,2836
howard,2837
howstuffwork,2838
hp,2839
huge,2840
hugely,2841
hugo,2842
huguenots,2843
huh,2844
huindreds,2845
hull,2846
human,2847
humanists,2848
humanitarian,2849
humanity,2850
humankind,2851
humans,2852
humberside,2853
humiliating,2854
humour,2855
humvees,2856
hundreds,2857
hundredth,2858
hung,2859
hungarian,2860
hunger,2861
hurricane,2862
hurt,2863
hurting,2864
hurts,2865
husband,2866
hussain,2867
hussein,2868
hybrids,2869
hype,2870
hyperbolic,2871
hyphenated,2872
hypocricy,2873
hypocrisy,2874
hypocrites,2875
hypocritical,2876
hypocritically,2877
hypothetical,2878
hys,2879
hysteria,2880
hysteric,2881
hülsmeyer,2882
i_pardon_u,2883
ia,2884
ian,2885
ianpeter,2886
ias,2887
ic,2888
ice,2889
id,2890
idea,2891
ideals,2892
ideas,2893
identification,2894
identify,2895
identikit,2896
identity,2897
ideology,2898
idf,2899
idiology,2900
idiosyncracies,2901
idiotic,2902
idiots,2903
idol,2904
ignorance,2905
ignorant,2906
ignore,2907
ignored,2908
ignores,2909
ignoring,2910
iht,2911
ii,2912
iii,2913
iirc,2914
il,2915
ilk,2916
ill,2917
illegal,2918
illegitimate,2919
illiberal,2920
ills,2921
illuminating,2922
illustrate,2923
illustrates,2924
illustrative,2925
im,2926
image,2927
images,2928
imaginable,2929
imaginations,2930
imagine,2931
imams,2932
imemc,2933
imf,2934
imho,2935
immature,2936
immediate,2937
immediately,2938
immemorial,2939
immerse,2940
immigrant,2941
immigrants,2942
immigration,2943
imminence,2944
imminent,2945
immunity,2946
imo,2947
imoeachment,2948
impact,2949
impeachment,2950
imperative,2951
imperfect,2952
imperial,2953
imperialist,2954
imperialistic,2955
implanted,2956
implausible,2957
implement,2958
implementaion,2959
implemented,2960
implicate,2961
implies,2962
implying,2963
import,2964
importance,2965
important,2966
imports,2967
impose,2968
imposed,2969
imposing,2970
impossible,2971
impotence,2972
impotent,2973
impress,2974
impressed,2975
impression,2976
impressive,2977
imprisoned,2978
improper,2979
improved,2980
imran,2981
imrove,2982
imunity,2983
inadequacy,2984
inadequate,2985
inappropriate,2986
inaugural,2987
incapacitated,2988
inceindary,2989
incessant,2990
incharge,2991
inches,2992
incident,2993
incidental,2994
incidentally,2995
incidents,2996
incited,2997
incitement,2998
inciting,2999
include,3000
included,3001
includes,3002
including,3003
inclusive,3004
inclusivity,3005
income,3006
incomes,3007
incompetence,3008
incompetent,3009
incomprehendible,3010
inconsistency,3011
inconvenient,3012
incorporated,3013
incorporation,3014
increase,3015
increased,3016
increasing,3017
increasingly,3018
incredibly,3019
incumbent,3020
incurred,3021
incurring,3022
incursion,3023
indecent,3024
independance,3025
independence,3026
independent,3027
india,3028
indian,3029
indians,3030
indicate,3031
indicated,3032
indicates,3033
indicating,3034
indifference,3035
indigenous,3036
indirect,3037
indirectly,3038
individual,3039
individualism,3040
individually,3041
individuals,3042
indo,3043
indoctrinated,3044
indonesia,3045
indonesian,3046
indonesians,3047
induced,3048
indulge,3049
industrial,3050
industries,3051
industry,3052
inentilaly,3053
inevitable,3054
inevitably,3055
inextricably,3056
infact,3057
infamous,3058
inferior,3059
inferred,3060
inferring,3061
infidels,3062
infiltrators,3063
infinitum,3064
inflation,3065
inflict,3066
influence,3067
influenced,3068
influences,3069
info,3070
inform,3071
information,3072
informative,3073
infringes,3074
ing,3075
inhabit,3076
inhabitants,3077
inherrent,3078
inhuman,3079
inist,3080
initial,3081
initially,3082
injured,3083
injury,3084
inner,3085
innocent,3086
innocents,3087
ins,3088
insanity,3089
inside,3090
insidious,3091
insight,3092
insightful,3093
insignificant,3094
insinuate,3095
insist,3096
insistence,3097
insisting,3098
inspect,3099
inspecters,3100
inspections,3101
inspired,3102
inspires,3103
inspiring,3104
instability,3105
install,3106
installations,3107
installed,3108
instance,3109
instances,3110
instead,3111
institute,3112
instituted,3113
institution,3114
institutional,3115
institutions,3116
instructions,3117
insultan,3118
insulting,3119
insults,3120
insurance,3121
insurgency,3122
insurgent,3123
insurgents,3124
insurrection,3125
integrating,3126
integration,3127
integrity,3128
intel,3129
intellectual,3130
intellectually,3131
intellegence,3132
intelligence,3133
intelligent,3134
intend,3135
intended,3136
intensity,3137
intent,3138
intention,3139
inter,3140
interacted,3141
interaction,3142
interested,3143
interesting,3144
interestingly,3145
interests,3146
intermixed,3147
internal,3148
international,3149
internet,3150
internment,3151
interpal,3152
interpretation,3153
interrupted,3154
intervention,3155
interview,3156
interviewer,3157
interviews,3158
intially,3159
intifada,3160
intifadah,3161
intimate,3162
intimidation,3163
intolerant,3164
inton,3165
intoxicating,3166
intracacies,3167
intresting,3168
intrigue,3169
intrinsic,3170
introduce,3171
invade,3172
invaded,3173
invaders,3174
invading,3175
invasion,3176
invasions,3177
invectives,3178
invented,3179
inventing,3180
inventors,3181
invertebrate,3182
investigate,3183
investigated,3184
investigating,3185
investigation,3186
investment,3187
inveterate,3188
invitation,3189
invite,3190
invloved,3191
involved,3192
involvement,3193
involving,3194
ioc,3195
iran,3196
iranian,3197
iranians,3198
irans,3199
iraq,3200
iraqi,3201
iraqis,3202
ireland,3203
iris,3204
irish,3205
irna,3206
iron,3207
ironic,3208
ironically,3209
irony,3210
irrelevant,3211
irritating,3212
isa,3213
isareli,3214
ish,3215
ishmail,3216
islam,3217
islamaphobe,3218
islamic,3219
islamiphobe,3220
islamist,3221
islamists,3222
islamofacists,3223
islamofascism,3224
islamofascists,3225
island,3226
ismail,3227
isn,3228
isnt,3229
isolationist,3230
israel,3231
israeli,3232
israelians,3233
israelis,3234
israelnationalne,3235
israelnn,3236
israels,3237
isreal,3238
isreali,3239
issue,3240
issued,3241
issues,3242
italian,3243
italians,3244
italy,3245
itstoppedraining,3246
ive,3247
jacka,3248
jacked,3249
jail,3250
jailed,3251
jalabad,3252
james,3253
jamo,3254
jan,3255
january,3256
japan,3257
japanese,3258
jasb,3259
jazeera,3260
jd,3261
jeb,3262
jerk,3263
jerusalem,3264
jessica,3265
jesus,3266
jew,3267
jewish,3268
jews,3269
jewsih,3270
jihad,3271
jihadist,3272
jingly,3273
jj,3274
jla,3275
joan,3276
job,3277
jobless,3278
jobs,3279
jobsworth,3280
joe,3281
john,3282
johnny,3283
join,3284
joined,3285
joining,3286
joinining,3287
joint,3288
joke,3289
joking,3290
jong,3291
jordan,3292
jordanian,3293
jorge,3294
journal,3295
journalist,3296
journalists,3297
jowell,3298
joys,3299
jqack,3300
judafacist,3301
judaism,3302
judge,3303
judgement,3304
judicial,3305
juicy,3306
jump,3307
jungle,3308
junior,3309
junk,3310
junta,3311
jury,3312
just,3313
justice,3314
justifiably,3315
justifications,3316
justified,3317
justify,3318
justness,3319
karbala,3320
karbul,3321
karl,3322
kashmir,3323
kashmiri,3324
kashmiris,3325
kasparov,3326
kassam,3327
kassams,3328
kazahkstan,3329
kazakhstan,3330
keen,3331
keeping,3332
keeps,3333
kennedy,3334
kept,3335
kevin,3336
kgb,3337
khalilzad,3338
khan,3339
kick,3340
kicked,3341
kid,3342
kidding,3343
kidnapped,3344
kidnappings,3345
kids,3346
kiling,3347
kill,3348
killed,3349
killing,3350
killings,3351
kills,3352
kim,3353
kind,3354
kinda,3355
kindly,3356
kinds,3357
king,3358
kinky,3359
kitchen,3360
kj,3361
kl,3362
knee,3363
knesset,3364
knew,3365
knickers,3366
knicknamed,3367
knife,3368
know,3369
knowledge,3370
known,3371
knows,3372
knucklescrapers,3373
knwo,3374
kong,3375
koran,3376
koranist,3377
korea,3378
korean,3379
koreans,3380
kosovo,3381
kowtow,3382
kreschev,3383
kristol,3384
kudos,3385
kurdish,3386
kuwaeit,3387
kuwait,3388
kuweit,3389
kyoto,3390
label,3391
labelling,3392
labor,3393
laboratory,3394
labour,3395
lacewing,3396
lack,3397
lad,3398
ladder,3399
laden,3400
lads,3401
lady,3402
lager,3403
lame,3404
lancaster,3405
lancs,3406
land,3407
landowners,3408
lands,3409
landscape,3410
language,3411
lankans,3412
lantau,3413
lap,3414
larceny,3415
large,3416
largely,3417
larger,3418
largest,3419
larnaca,3420
lasers,3421
lashes,3422
lasted,3423
late,3424
later,3425
latest,3426
latimes,3427
latin,3428
latte,3429
laugh,3430
laughable,3431
laughed,3432
laughing,3433
launched,3434
launches,3435
launching,3436
lauren,3437
laurie,3438
lavat,3439
law,3440
laws,3441
lawyer,3442
lawyers,3443
lay,3444
lazily,3445
lbyia,3446
le,3447
lead,3448
leader,3449
leaders,3450
leadership,3451
leading,3452
leads,3453
learn,3454
learned,3455
learning,3456
learnt,3457
leave,3458
leaving,3459
lebanese,3460
lebanon,3461
lecture,3462
led,3463
leers,3464
left,3465
leftie,3466
lefties,3467
leftist,3468
lefty,3469
legacy,3470
legal,3471
legalities,3472
legendary,3473
legislation,3474
legitimacising,3475
legitimate,3476
legitimately,3477
legs,3478
leicester,3479
lenders,3480
leniency,3481
lennon,3482
lenovo,3483
lesser,3484
lesson,3485
lessons,3486
lest,3487
let,3488
lets,3489
letter,3490
letters,3491
letting,3492
level,3493
levelled,3494
levels,3495
levied,3496
lgf,3497
liable,3498
liar,3499
liars,3500
lib,3501
liberal,3502
liberals,3503
liberate,3504
liberating,3505
liberation,3506
liberman,3507
library,3508
licenses,3509
licking,3510
lid,3511
lie,3512
lied,3513
liek,3514
lies,3515
life,3516
lifestyle,3517
light,3518
lighten,3519
lightening,3520
like,3521
liked,3522
likely,3523
likes,3524
likud,3525
lily,3526
limbo,3527
limit,3528
limitations,3529
limits,3530
lincoln,3531
lincolnshire,3532
line,3533
lines,3534
linguist,3535
lining,3536
link,3537
linked,3538
links,3539
lion,3540
list,3541
listen,3542
listening,3543
litany,3544
literally,3545
literature,3546
lithe,3547
little,3548
littlegreenfootballs,3549
live,3550
lived,3551
lives,3552
living,3553
ll,3554
lmao,3555
loach,3556
load,3557
loaded,3558
loads,3559
loans,3560
loathed,3561
lobbyists,3562
local,3563
location,3564
lock,3565
locked,3566
locking,3567
logic,3568
logical,3569
lol,3570
lombards,3571
london,3572
londonium,3573
lone,3574
loner,3575
long,3576
longer,3577
longtime,3578
lonney,3579
look,3580
looked,3581
looking,3582
looks,3583
looney,3584
loonies,3585
looooong,3586
loosened,3587
loosers,3588
looted,3589
looting,3590
lord,3591
los,3592
lose,3593
loser,3594
losers,3595
loses,3596
losing,3597
loss,3598
losses,3599
lost,3600
lot,3601
lots,3602
loud,3603
lousy,3604
love,3605
loved,3606
lovely,3607
loves,3608
loving,3609
low,3610
lower,3611
lowered,3612
lowering,3613
lowest,3614
loyalty,3615
lt,3616
lucilla,3617
luck,3618
lucky,3619
lucrative,3620
lugage,3621
lump,3622
lunatics,3623
lush,3624
lust,3625
lusts,3626
lutheran,3627
lwa,3628
lying,3629
lynch,3630
macademia,3631
macbeth,3632
macedonia,3633
machine,3634
machinery,3635
machines,3636
macmillan,3637
mad,3638
madeleine,3639
madonna,3640
magazine,3641
magnitude,3642
mahler,3643
mail,3644
main,3645
mainland,3646
mainly,3647
mainstream,3648
maintaining,3649
maj,3650
major,3651
majoritively,3652
majority,3653
make,3654
makes,3655
making,3656
malaysia,3657
malchrome,3658
male,3659
males,3660
malfunction,3661
malls,3662
malt,3663
man,3664
manafacture,3665
manage,3666
managed,3667
management,3668
manages,3669
manchester,3670
mandate,3671
mandated,3672
mandatory,3673
mandela,3674
manic,3675
manicured,3676
manipulated,3677
mankind,3678
manner,3679
mans,3680
manual,3681
manufacturers,3682
mao,3683
map,3684
mapp,3685
mar,3686
march,3687
marching,3688
marine,3689
mark,3690
market,3691
markets,3692
marley,3693
marquis,3694
marraiges,3695
marrakesh,3696
marriage,3697
married,3698
mars,3699
marshals,3700
marshels,3701
martian,3702
martyr,3703
martyrdom,3704
marx,3705
marxist,3706
mary,3707
mash,3708
mass,3709
massacre,3710
massacred,3711
massacres,3712
massaged,3713
massing,3714
massive,3715
masterclass,3716
mastered,3717
match,3718
matches,3719
mate,3720
material,3721
matter,3722
matters,3723
mature,3724
maturity,3725
max,3726
maximum,3727
maybe,3728
mayhem,3729
mb,3730
mc,3731
mcb,3732
mcbean,3733
mcdonald,3734
mcneil,3735
mean,3736
meaning,3737
meaningful,3738
meanings,3739
means,3740
meant,3741
measues,3742
measure,3743
mechanism,3744
media,3745
medias,3746
medical,3747
medicine,3748
medics,3749
medievil,3750
meet,3751
meeting,3752
meetings,3753
melanie,3754
melon,3755
member,3756
membered,3757
members,3758
memo,3759
memorial,3760
memorials,3761
memory,3762
men,3763
menhuin,3764
mens,3765
mensa,3766
mental,3767
mentally,3768
mention,3769
mentioned,3770
mentions,3771
mentors,3772
mercies,3773
merciful,3774
mercy,3775
mere,3776
merely,3777
merest,3778
merge,3779
merit,3780
merits,3781
merkel,3782
mess,3783
message,3784
messages,3785
messiah,3786
met,3787
metallic,3788
methods,3789
mexico,3790
meyer,3791
miami,3792
michael,3793
micheal,3794
mickey,3795
micro,3796
microsoft,3797
mid,3798
middle,3799
miimalising,3800
miles,3801
militant,3802
militants,3803
militarily,3804
militarised,3805
military,3806
militias,3807
millenia,3808
miller,3809
million,3810
millionaire,3811
millionairesse,3812
millions,3813
milosvic,3814
mind,3815
minded,3816
minds,3817
minefield,3818
miners,3819
mines,3820
minimal,3821
minimalised,3822
minister,3823
minor,3824
minority,3825
minute,3826
minutes,3827
mis,3828
miscarriage,3829
misconception,3830
misfits,3831
misfortune,3832
mish,3833
misinterpreted,3834
misinterprit,3835
misled,3836
misogyny,3837
misplaced,3838
misread,3839
misrepresent,3840
misrepresentation,3841
miss,3842
missed,3843
missile,3844
missiles,3845
missing,3846
missions,3847
missippi,3848
missus,3849
mist,3850
mistake,3851
mistress,3852
mistressofmydomain,3853
mistressofmydomains,3854
mists,3855
misunderstanding,3856
mitt,3857
mix,3858
mixed,3859
mixing,3860
mixture,3861
mm,3862
mmmmmm,3863
mn,3864
mne,3865
mob,3866
mobile,3867
mock,3868
mod,3869
modderated,3870
model,3871
moderated,3872
moderator,3873
modern,3874
modesty,3875
mods,3876
mohammad,3877
mohammed,3878
moist,3879
mom,3880
moment,3881
moments,3882
momment,3883
mommy,3884
mon,3885
monday,3886
mondial,3887
money,3888
mongering,3889
mongolia,3890
monkeys,3891
monologue,3892
monopulse,3893
monotonous,3894
monster,3895
month,3896
monthly,3897
months,3898
mood,3899
moods,3900
moon,3901
moore,3902
moot,3903
moral,3904
morale,3905
morales,3906
morass,3907
morning,3908
morocco,3909
moronic,3910
morris,3911
mortgage,3912
moselms,3913
moses,3914
moshe,3915
moslems,3916
mosque,3917
mosques,3918
mossadeq,3919
mother,3920
mothers,3921
motivation,3922
motive,3923
motives,3924
mounted,3925
mouse,3926
moussaoui,3927
mouth,3928
mouths,3929
moved,3930
movement,3931
movements,3932
moving,3933
mow,3934
mparsedfourdigits,3935
mparsedonedigitlparseddigitsjparsedonedigit,3936
mps,3937
mr,3938
mrjingles,3939
mrs,3940
ms,3941
msg,3942
msn,3943
msnbc,3944
mubashar,3945
mud,3946
muddying,3947
mufti,3948
mugabe,3949
muhammad,3950
mullahs,3951
multi,3952
multiculrism,3953
mum,3954
mump,3955
muppet,3956
murder,3957
murdered,3958
murderer,3959
murdering,3960
murderous,3961
murders,3962
museum,3963
museums,3964
musharraf,3965
mushy,3966
music,3967
muslim,3968
muslims,3969
musso,3970
mutterings,3971
mutual,3972
mutually,3973
mutuals,3974
muzlins,3975
mwaaaaaaaahahahahahahahaaaaaaaaa,3976
mych,3977
mylroie,3978
mystery,3979
myth,3980
nafta,3981
nafthe,3982
nahhh,3983
naighbor,3984
nail,3985
nails,3986
naive,3987
naiveté,3988
named,3989
names,3990
napalm,3991
narrative,3992
narrow,3993
nasty,3994
nation,3995
national,3996
nationalists,3997
nationalities,3998
nationality,3999
nations,4000
nationstate,4001
native,4002
nato,4003
natural,4004
naturally,4005
nature,4006
nauseam,4007
navy,4008
naz,4009
nazi,4010
nazis,4011
nazism,4012
nbc,4013
nd,4014
ne,4015
near,4016
nearly,4017
neatly,4018
nec,4019
necessarily,4020
neck,4021
need,4022
needed,4023
needn,4024
needs,4025
negate,4026
neglect,4027
neglected,4028
negotiate,4029
negotiating,4030
negotiation,4031
negotiations,4032
neighbors,4033
neighbours,4034
neil,4035
nelson,4036
neo,4037
neocons,4038
nerve,4039
netanyahu,4040
netherlanders,4041
network,4042
neutral,4043
new,4044
newborn,4045
newest,4046
newly,4047
newnight,4048
news,4049
newspaper,4050
newsparsedonedigit,4051
newsparsedtwodigits,4052
newsworthy,4053
nice,4054
nieve,4055
nigeria,4056
nigeriam,4057
night,4058
nighthook,4059
nightmare,4060
nights,4061
nighttime,4062
nijmeijert,4063
nikki,4064
nip,4065
nit,4066
nixon,4067
nk,4068
nobel,4069
noble,4070
nobs,4071
nologo,4072
nom,4073
nomatter,4074
nominal,4075
nomination,4076
non,4077
nonsense,4078
nonsensical,4079
nonsnense,4080
nook,4081
nope,4082
norm,4083
normal,4084
normans,4085
norms,4086
norse,4087
north,4088
northern,4089
norwich,4090
nose,4091
noses,4092
note,4093
noted,4094
notes,4095
notice,4096
noticed,4097
noticing,4098
noting,4099
notion,4100
notions,4101
novel,4102
november,4103
nowt,4104
noxious,4105
nr,4106
nsw,4107
nuclear,4108
nukes,4109
numbed,4110
number,4111
numbers,4112
numbing,4113
numpty,4114
nut,4115
nutcase,4116
nutcases,4117
nutters,4118
nuttin,4119
nutty,4120
nytimes,4121
oaths,4122
ob,4123
obama,4124
obesity,4125
object,4126
objecting,4127
objections,4128
objective,4129
objectives,4130
objects,4131
obligated,4132
obligation,4133
obligations,4134
oblige,4135
obliged,4136
obliterated,4137
oblivion,4138
observant,4139
observation,4140
observations,4141
obsessed,4142
obvioulsy,4143
obvious,4144
obviously,4145
oc,4146
occasion,4147
occasional,4148
occasions,4149
occulted,4150
occupation,4151
occupations,4152
occupied,4153
occupiers,4154
occupy,4155
occupying,4156
occur,4157
occured,4158
occurs,4159
ocean,4160
october,4161
odd,4162
oddly,4163
odds,4164
odious,4165
oecd,4166
offence,4167
offended,4168
offensive,4169
offer,4170
offered,4171
offering,4172
office,4173
officers,4174
offices,4175
official,4176
officials,4177
oh,4178
ohj,4179
oil,4180
ok,4181
okay,4182
oklahoma,4183
old,4184
oldest,4185
olds,4186
ole,4187
olive,4188
olmert,4189
olympic,4190
olympics,4191
omri,4192
ones,4193
ongoing,4194
oona,4195
oozes,4196
op,4197
opec,4198
open,4199
opened,4200
opening,4201
openly,4202
opens,4203
opera,4204
operation,4205
operations,4206
opinion,4207
opinions,4208
opponent,4209
opponents,4210
opportune,4211
opportunist,4212
opportunities,4213
opportunity,4214
opposed,4215
opposing,4216
opposite,4217
opposites,4218
opposition,4219
oppressed,4220
oppressive,4221
opressed,4222
option,4223
optional,4224
opwn,4225
oranges,4226
orbit,4227
orchards,4228
order,4229
ordered,4230
orders,4231
ordinance,4232
ordinary,4233
org,4234
organisation,4235
organisations,4236
organise,4237
organised,4238
organising,4239
organism,4240
organistion,4241
organization,4242
organizations,4243
organize,4244
orginal,4245
orientation,4246
orif,4247
origianlly,4248
original,4249
originally,4250
originated,4251
originator,4252
orthodox,4253
orwell,4254
ostensibly,4255
oswald,4256
othwerwise,4257
otter,4258
ottomans,4259
ouch,4260
ought,4261
ourself,4262
outbursts,4263
outer,4264
outlasting,4265
outlawing,4266
outlet,4267
outline,4268
outlined,4269
outnumbered,4270
outraged,4271
outrageous,4272
outs,4273
outside,4274
outsiders,4275
outspoken,4276
outstanding,4277
outstrip,4278
ovbious,4279
overall,4280
overriding,4281
overs,4282
overseas,4283
oversight,4284
overthrow,4285
overwhelming,4286
overwhelmingly,4287
ow,4288
owe,4289
owned,4290
owner,4291
owners,4292
ownership,4293
oz,4294
ozy,4295
pace,4296
pacifists,4297
pack,4298
package,4299
packet,4300
page,4301
paid,4302
pain,4303
painful,4304
pains,4305
paint,4306
painting,4307
pakistan,4308
pakistani,4309
pakistanis,4310
pale,4311
pales,4312
palestian,4313
palestians,4314
palestina,4315
palestinans,4316
palestine,4317
palestinian,4318
palestinians,4319
palestnians,4320
palin,4321
palis,4322
palistinians,4323
pallywood,4324
pals,4325
pan,4326
panicked,4327
panna,4328
panned,4329
panorama,4330
paparazzi,4331
paper,4332
paradise,4333
paradises,4334
paragraphs,4335
parallel,4336
paranoia,4337
parcel,4338
parent,4339
parenting,4340
parents,4341
paris,4342
park,4343
parker,4344
parliament,4345
parliment,4346
parseddigits,4347
parseddigitsbn,4348
parseddigitsth,4349
parsedfourdigits,4350
parsedfourdigitss,4351
parsedfourdigitsth,4352
parsedonedigit,4353
parsedonedigitbn,4354
parsedonedigitk,4355
parsedonedigitm,4356
parsedonedigitrd,4357
parsedonedigitth,4358
parsedsixdigits,4359
parsedthreedigits,4360
parsedthreedigitsk,4361
parsedthreedigitsm,4362
parsedtime,4363
parsedtwodigits,4364
parsedtwodigitsbn,4365
parsedtwodigitsk,4366
parsedtwodigitss,4367
parsedtwodigitsst,4368
parsedtwodigitsth,4369
participants,4370
participate,4371
participated,4372
particular,4373
particularly,4374
parties,4375
partisan,4376
partition,4377
partly,4378
partnerships,4379
parts,4380
party,4381
pasha,4382
pass,4383
passed,4384
passengers,4385
passes,4386
passing,4387
passion,4388
passively,4389
passport,4390
past,4391
paste,4392
pastures,4393
pat,4394
patent,4395
path,4396
pathetic,4397
patronising,4398
pattern,4399
paul,4400
pax,4401
pay,4402
paying,4403
payment,4404
pc,4405
pea,4406
peace,4407
peaceful,4408
peacefully,4409
peaks,4410
peanuts,4411
pearls,4412
pears,4413
peasants,4414
pecans,4415
pedantic,4416
peer,4417
peking,4418
pen,4419
penal,4420
penalty,4421
penchant,4422
penetrate,4423
peninsula,4424
penny,4425
pension,4426
pensions,4427
pentagon,4428
people,4429
peoples,4430
percent,4431
percentages,4432
perception,4433
perceptions,4434
perchance,4435
peres,4436
perfect,4437
perfectly,4438
perform,4439
performed,4440
performing,4441
period,4442
perish,4443
perishing,4444
perle,4445
permanent,4446
permission,4447
permit,4448
permitted,4449
perpetrated,4450
perpetuating,4451
persecuted,4452
persecution,4453
person,4454
personal,4455
personalities,4456
personally,4457
personnel,4458
persons,4459
perspective,4460
perverse,4461
pet,4462
pete,4463
peters,4464
petition,4465
petra,4466
petty,4467
peu,4468
pfft,4469
phenomenon,4470
phil,4471
philippines,4472
phillips,4473
philosopher,4474
philosophy,4475
phone,4476
phoneacians,4477
phoned,4478
phophorous,4479
photographer,4480
photographs,4481
photos,4482
phrase,4483
phrases,4484
phrophet,4485
physical,4486
physically,4487
picayunities,4488
pick,4489
picking,4490
picture,4491
piece,4492
pieces,4493
pig,4494
pigeonhole,4495
pigs,4496
pillock,4497
pilot,4498
pilots,4499
piltdown,4500
pinko,4501
pinochet,4502
pipe,4503
pirlo,4504
pistol,4505
pit,4506
pity,4507
placard,4508
place,4509
places,4510
placing,4511
plain,4512
plaintive,4513
plan,4514
plane,4515
planes,4516
planet,4517
planned,4518
planners,4519
planning,4520
plans,4521
plant,4522
planted,4523
plants,4524
plaster,4525
play,4526
played,4527
player,4528
players,4529
playing,4530
plays,4531
pleaded,4532
plear,4533
pleasant,4534
pleasure,4535
plenty,4536
ploughed,4537
ploy,4538
plus,4539
pm,4540
poem,4541
poindexter,4542
point,4543
pointed,4544
pointing,4545
pointless,4546
points,4547
poison,4548
poisonous,4549
poisons,4550
poking,4551
poland,4552
polar,4553
pole,4554
police,4555
policeman,4556
policies,4557
policy,4558
polish,4559
politcal,4560
political,4561
politically,4562
politicians,4563
politicos,4564
politics,4565
poll,4566
polls,4567
polluters,4568
pollution,4569
poochies,4570
pool,4571
pools,4572
poor,4573
poorly,4574
pop,4575
pope,4576
popping,4577
popular,4578
popularity,4579
populated,4580
population,4581
populations,4582
populist,4583
pork,4584
portray,4585
portrayed,4586
ports,4587
portugese,4588
portuguese,4589
posative,4590
posed,4591
posession,4592
position,4593
positions,4594
positive,4595
possession,4596
possibilities,4597
possibility,4598
possible,4599
possibly,4600
post,4601
posted,4602
poster,4603
posters,4604
posting,4605
postings,4606
posts,4607
posturing,4608
pot,4609
potemtial,4610
potential,4611
pound,4612
pounding,4613
poverty,4614
power,4615
powerbase,4616
powered,4617
powerful,4618
powerfull,4619
powers,4620
ppa,4621
pr,4622
practical,4623
practice,4624
practiced,4625
practices,4626
pragmatic,4627
praised,4628
prank,4629
prattle,4630
pray,4631
praying,4632
pre,4633
preach,4634
preaching,4635
precipitate,4636
precise,4637
precisely,4638
precision,4639
precludes,4640
predatory,4641
predicted,4642
prediction,4643
predictions,4644
prefer,4645
prefered,4646
preference,4647
prejudice,4648
prejudices,4649
premeditating,4650
premium,4651
prepare,4652
prepared,4653
prepartions,4654
preperation,4655
prerequisite,4656
presbyterians,4657
presence,4658
present,4659
presentation,4660
presented,4661
president,4662
presidents,4663
presnted,4664
press,4665
presso,4666
pressure,4667
pressurise,4668
prestwick,4669
presumably,4670
presume,4671
presure,4672
pretend,4673
pretending,4674
pretty,4675
preudo,4676
prevent,4677
preventing,4678
previous,4679
previously,4680
prey,4681
price,4682
prices,4683
pride,4684
prides,4685
primary,4686
prime,4687
primitive,4688
princess,4689
principle,4690
print,4691
printed,4692
printing,4693
prior,4694
prisions,4695
prison,4696
prisoners,4697
prisons,4698
private,4699
prize,4700
prized,4701
pro,4702
proactive,4703
probability,4704
probably,4705
problem,4706
problematic,4707
problems,4708
process,4709
proclaiming,4710
prodding,4711
prodi,4712
produce,4713
produced,4714
produces,4715
production,4716
products,4717
profess,4718
professional,4719
professors,4720
profitable,4721
profitibility,4722
profits,4723
profound,4724
profusely,4725
program,4726
programme,4727
programs,4728
progress,4729
progressiove,4730
progressive,4731
prohibit,4732
project,4733
projecting,4734
projects,4735
prominent,4736
promised,4737
promote,4738
promoting,4739
promotion,4740
prompted,4741
promptly,4742
prone,4743
proof,4744
propably,4745
propaganda,4746
propagandist,4747
properly,4748
properties,4749
property,4750
prophecy,4751
propoganada,4752
propoganda,4753
proposal,4754
proposed,4755
proscribed,4756
prosecuted,4757
prosperity,4758
prosperous,4759
protect,4760
protecting,4761
protection,4762
protector,4763
protects,4764
protest,4765
protestants,4766
protested,4767
protesters,4768
protestors,4769
protests,4770
proud,4771
prove,4772
proved,4773
proverb,4774
proves,4775
provide,4776
province,4777
provinces,4778
provocation,4779
provoke,4780
provoking,4781
pruduction,4782
prvent,4783
ps,4784
psychological,4785
psychology,4786
public,4787
publicity,4788
publicly,4789
published,4790
publisher,4791
publishing,4792
puddin,4793
puffing,4794
pull,4795
pulled,4796
pumping,4797
punishable,4798
punished,4799
punishment,4800
pupil,4801
puppet,4802
purchase,4803
purchased,4804
purchasing,4805
pure,4806
purely,4807
purile,4808
purpose,4809
purposes,4810
pursue,4811
pursuing,4812
push,4813
pushed,4814
pushing,4815
putin,4816
puts,4817
putting,4818
puy,4819
puydedome,4820
pyongyang,4821
pyramid,4822
qaeda,4823
qassam,4824
quada,4825
quake,4826
qualification,4827
qualifications,4828
qualitavely,4829
quality,4830
quantify,4831
quarter,4832
quattro,4833
quayle,4834
qubal,4835
que,4836
quebec,4837
queda,4838
quell,4839
quelling,4840
quels,4841
question,4842
questioned,4843
questioning,4844
questions,4845
quick,4846
quickly,4847
quid,4848
quiet,4849
quips,4850
quit,4851
quite,4852
quitely,4853
quote,4854
quotes,4855
quoting,4856
rabbi,4857
rabble,4858
rabid,4859
rabin,4860
race,4861
racial,4862
racism,4863
racist,4864
radar,4865
radars,4866
radical,4867
radicalized,4868
radicals,4869
radio,4870
radioactive,4871
rafah,4872
rag,4873
rage,4874
rahman,4875
raid,4876
rail,4877
rained,4878
raise,4879
raised,4880
raising,4881
rallied,4882
rally,4883
ran,4884
rancorous,4885
ranging,4886
rankings,4887
ranks,4888
ransomes,4889
rant,4890
ranting,4891
rape,4892
rapid,4893
rapidly,4894
raping,4895
rashid,4896
rat,4897
rates,4898
ratify,4899
ratings,4900
rational,4901
rattling,4902
ravi,4903
ray,4904
reach,4905
reached,4906
reaching,4907
react,4908
reacted,4909
reaction,4910
reactions,4911
reactor,4912
read,4913
readers,4914
readiness,4915
reading,4916
readliy,4917
ready,4918
real,4919
realise,4920
realised,4921
realistic,4922
reality,4923
really,4924
ream,4925
reaping,4926
reason,4927
reasonable,4928
reasoning,4929
reasons,4930
rebates,4931
rebuild,4932
recall,4933
recalls,4934
receive,4935
received,4936
receives,4937
recent,4938
recently,4939
recession,4940
recieved,4941
recieves,4942
recipient,4943
reciprocating,4944
reckless,4945
recognise,4946
recognised,4947
recognising,4948
recognition,4949
recognize,4950
recognizeable,4951
recollect,4952
record,4953
records,4954
recourse,4955
recovering,4956
recruit,4957
recrutment,4958
red,4959
redesignating,4960
redirected,4961
reduced,4962
redundant,4963
reed,4964
refer,4965
reference,4966
referenced,4967
references,4968
refering,4969
referring,4970
refers,4971
refinanced,4972
refinement,4973
reflected,4974
refugees,4975
refugess,4976
refuse,4977
refused,4978
refuses,4979
refusing,4980
refute,4981
refuted,4982
regard,4983
regarded,4984
regarding,4985
regards,4986
regime,4987
regimes,4988
region,4989
regional,4990
regions,4991
regret,4992
regretting,4993
regular,4994
regularly,4995
regulations,4996
reich,4997
reichspatent,4998
reign,4999
reins,5000
rejected,5001
rejecting,5002
rekindle,5003
related,5004
relating,5005
relation,5006
relations,5007
relationship,5008
relationships,5009
relative,5010
relatives,5011
relativists,5012
relaunch,5013
release,5014
released,5015
relentless,5016
reliability,5017
reliable,5018
reliant,5019
relief,5020
religion,5021
religions,5022
religious,5023
religon,5024
reluctant,5025
rely,5026
remain,5027
remaining,5028
remains,5029
remark,5030
remarkable,5031
remarks,5032
remember,5033
remembered,5034
remembers,5035
reminded,5036
reminds,5037
removal,5038
remove,5039
removed,5040
removing,5041
renouncing,5042
rented,5043
repeat,5044
repeated,5045
repeatedly,5046
repeating,5047
repeats,5048
rephrase,5049
replace,5050
replaced,5051
replacing,5052
replies,5053
reply,5054
replying,5055
report,5056
reported,5057
reporters,5058
reports,5059
represent,5060
representative,5061
represents,5062
repression,5063
repressive,5064
reps,5065
republican,5066
republicans,5067
reputable,5068
reputation,5069
request,5070
require,5071
required,5072
requirement,5073
requires,5074
resarch,5075
research,5076
researching,5077
resent,5078
reserve,5079
reservoir,5080
resident,5081
residents,5082
resign,5083
resist,5084
resistance,5085
resolution,5086
resolutions,5087
resolved,5088
resort,5089
resource,5090
resourceful,5091
resources,5092
respect,5093
respectable,5094
respected,5095
respectfully,5096
respecting,5097
responce,5098
respond,5099
responded,5100
respondents,5101
responding,5102
responsability,5103
response,5104
responses,5105
responsibility,5106
responsible,5107
responsiblity,5108
rest,5109
restance,5110
restarted,5111
restaurants,5112
resting,5113
restock,5114
restored,5115
restrained,5116
restrict,5117
restricted,5118
restrictions,5119
result,5120
resulted,5121
resulting,5122
retail,5123
retailer,5124
retaliate,5125
retaliation,5126
retiring,5127
retold,5128
retracts,5129
retrieve,5130
retrospect,5131
retry,5132
return,5133
returning,5134
revealed,5135
reveals,5136
revelation,5137
revenge,5138
review,5139
reviewed,5140
revive,5141
revolution,5142
revolutionary,5143
reward,5144
rewrite,5145
reza,5146
rhetoric,5147
rhodesia,5148
rhymes,5149
rice,5150
rich,5151
richard,5152
richest,5153
ricketts,5154
rid,5155
riddled,5156
ridiclus,5157
ridiculous,5158
ridiculously,5159
riding,5160
rifle,5161
rifles,5162
right,5163
righteous,5164
rightful,5165
rights,5166
ring,5167
rings,5168
riot,5169
rioting,5170
riotng,5171
riots,5172
ripped,5173
rise,5174
risen,5175
rises,5176
risible,5177
rising,5178
risk,5179
risking,5180
rita,5181
rittaq,5182
road,5183
roadmap,5184
roadside,5185
roam,5186
roar,5187
robbie,5188
robert,5189
rock,5190
rocket,5191
rockets,5192
rocks,5193
rogue,5194
role,5195
roles,5196
roma,5197
roman,5198
romania,5199
romans,5200
romantic,5201
romney,5202
roof,5203
room,5204
rooming,5205
roosvelt,5206
rooted,5207
rooting,5208
rose,5209
rosie,5210
round,5211
roundabouts,5212
rounded,5213
rounds,5214
rouser,5215
rout,5216
route,5217
routinely,5218
royal,5219
roybearparsedtwodigits,5220
rpg,5221
rsed,5222
rubber,5223
rubbing,5224
rubbish,5225
rubbu,5226
ruin,5227
ruined,5228
ruining,5229
rule,5230
ruled,5231
rulers,5232
rules,5233
ruling,5234
rumbles,5235
rumsfeld,5236
rumsfeldt,5237
run,5238
running,5239
runs,5240
rural,5241
rush,5242
ruskies,5243
russia,5244
russian,5245
russians,5246
ruth,5247
ruthlessly,5248
rwanda,5249
ry,5250
sa,5251
saa,5252
sabra,5253
sabre,5254
sacking,5255
sacrifices,5256
sad,5257
sadam,5258
sadat,5259
saddam,5260
sadly,5261
saeed,5262
safe,5263
safeguard,5264
safely,5265
sahaf,5266
said,5267
saids,5268
sailors,5269
sake,5270
salafists,5271
salaries,5272
salary,5273
sales,5274
salome,5275
samadashvili,5276
sample,5277
sanctioned,5278
sanctioning,5279
sanctions,5280
sandbox,5281
sandwich,5282
sane,5283
sanitation,5284
sarah,5285
sarcastic,5286
sassanid,5287
sat,5288
satan,5289
satanic,5290
satellites,5291
satirist,5292
satisfactory,5293
satisfy,5294
saturday,5295
saudi,5296
sauds,5297
savagery,5298
save,5299
saved,5300
saves,5301
saving,5302
saw,5303
saxon,5304
say,5305
saying,5306
says,5307
scale,5308
scales,5309
scam,5310
scandanavia,5311
scapegoat,5312
scapegoated,5313
scared,5314
scaremongering,5315
scargill,5316
sceintist,5317
scenario,5318
scenarios,5319
scenes,5320
scewed,5321
sch,5322
schemes,5323
scholars,5324
school,5325
schoolchildren,5326
schoolgirls,5327
schools,5328
schwartskopf,5329
science,5330
scienitst,5331
scientific,5332
scientist,5333
scientists,5334
score,5335
scores,5336
scot,5337
scotland,5338
scots,5339
scottish,5340
scottishness,5341
scrap,5342
scream,5343
screening,5344
screw,5345
screwed,5346
screwing,5347
script,5348
scrutiny,5349
scum,5350
scupper,5351
sea,5352
sealion,5353
sean,5354
searched,5355
searching,5356
season,5357
seat,5358
seats,5359
second,5360
secondary,5361
seconds,5362
secret,5363
secs,5364
sect,5365
sectarian,5366
section,5367
sector,5368
secular,5369
secured,5370
security,5371
sedition,5372
seed,5373
seeing,5374
seek,5375
seeking,5376
seeme,5377
seen,5378
seeping,5379
seeps,5380
sees,5381
segregation,5382
seldom,5383
selection,5384
selective,5385
selectively,5386
selectiveness,5387
selector,5388
selects,5389
self,5390
sell,5391
seller,5392
sells,5393
semantics,5394
semetic,5395
semetism,5396
semite,5397
semites,5398
semitic,5399
semitism,5400
senate,5401
senator,5402
senators,5403
send,5404
sending,5405
senior,5406
sense,5407
sensible,5408
sensitive,5409
sensitivity,5410
sent,5411
sentence,5412
sentenced,5413
sentenceing,5414
sentences,5415
sentiments,5416
sep,5417
separating,5418
separation,5419
separatum,5420
sept,5421
september,5422
septmeber,5423
sequels,5424
sequence,5425
seriously,5426
servants,5427
serve,5428
served,5429
serves,5430
service,5431
servicemen,5432
services,5433
servies,5434
serving,5435
sessions,5436
set,5437
settle,5438
settlement,5439
settlements,5440
settler,5441
settlers,5442
settles,5443
seucrity,5444
seven,5445
seventh,5446
sex,5447
sexist,5448
sexual,5449
sfc,5450
shabby,5451
shades,5452
shah,5453
shahab,5454
shakes,5455
shall,5456
shame,5457
shameful,5458
shankar,5459
shapes,5460
share,5461
shared,5462
sharia,5463
shariah,5464
sharing,5465
sharon,5466
shatilla,5467
sheer,5468
sheesh,5469
sheikh,5470
sheiks,5471
sheilds,5472
shelling,5473
shelter,5474
shenanigans,5475
shia,5476
shias,5477
shields,5478
shifted,5479
shifting,5480
shining,5481
ship,5482
ships,5483
shock,5484
shoes,5485
shoot,5486
shooting,5487
shootings,5488
shoots,5489
short,5490
shortages,5491
shortcomingof,5492
shorter,5493
shortlist,5494
shot,5495
shots,5496
shouldn,5497
showbiz,5498
showcase,5499
showed,5500
showing,5501
shown,5502
shows,5503
shrinking,5504
shunned,5505
shut,5506
shutting,5507
shy,5508
sick,5509
sickening,5510
sickeningly,5511
sided,5512
sidelines,5513
sides,5514
sidestepped,5515
sidique,5516
sieging,5517
sight,5518
sighted,5519
sign,5520
signed,5521
significant,5522
significantly,5523
signing,5524
signs,5525
sikh,5526
sikhs,5527
silence,5528
silliness,5529
silly,5530
silver,5531
simchaparsedonedigit,5532
similar,5533
similarly,5534
simon,5535
simonparsedtwodigits,5536
simple,5537
simpler,5538
simplest,5539
simplicity,5540
simply,5541
singing,5542
single,5543
sinister,5544
sink,5545
sinking,5546
sir,5547
sis,5548
sisters,5549
sit,5550
site,5551
sites,5552
sits,5553
sitting,5554
situation,5555
situations,5556
size,5557
sizeable,5558
sk,5559
skilled,5560
skills,5561
skimped,5562
skirmish,5563
skulls,5564
slams,5565
slaughtered,5566
slave,5567
slaves,5568
sleng,5569
slide,5570
slight,5571
slightly,5572
slinging,5573
slip,5574
slipped,5575
slipping,5576
slot,5577
slowly,5578
small,5579
smallwa,5580
smashed,5581
smelly,5582
smidgeon,5583
smililar,5584
smoker,5585
smokescreen,5586
smuggling,5587
sneer,5588
sneering,5589
snideness,5590
snogging,5591
snow,5592
soap,5593
social,5594
socialism,5595
socialist,5596
socialists,5597
societies,5598
society,5599
sodomy,5600
soemhow,5601
soil,5602
soilders,5603
sold,5604
soldier,5605
soldiers,5606
sole,5607
solely,5608
solid,5609
solidarity,5610
solomoron,5611
solution,5612
solve,5613
solved,5614
somali,5615
somalia,5616
somebody,5617
somethihng,5618
son,5619
song,5620
sonic,5621
sons,5622
soon,5623
sooner,5624
sophistry,5625
soprano,5626
sorry,5627
sort,5628
sorted,5629
sorts,5630
sound,5631
sounds,5632
source,5633
sources,5634
south,5635
southern,5636
soviets,5637
sown,5638
space,5639
spaghetti,5640
spain,5641
spam,5642
spanish,5643
spartacus,5644
spawned,5645
speak,5646
speaking,5647
speaks,5648
special,5649
specialist,5650
specific,5651
specifically,5652
spectacular,5653
spectating,5654
spectators,5655
speculation,5656
speculations,5657
speech,5658
speeches,5659
speed,5660
spell,5661
spelling,5662
spend,5663
spending,5664
spends,5665
spent,5666
spew,5667
spiked,5668
spin,5669
spinmeisters,5670
spiral,5671
spirit,5672
spirits,5673
spit,5674
splendid,5675
spoke,5676
spoken,5677
spokeswoman,5678
sport,5679
spot,5680
spots,5681
spout,5682
spray,5683
sprayed,5684
sprays,5685
spread,5686
spreading,5687
spree,5688
springs,5689
squad,5690
squandered,5691
square,5692
squeamish,5693
sri,5694
stabbing,5695
stability,5696
stable,5697
staff,5698
staffed,5699
stage,5700
stagnant,5701
stake,5702
stalin,5703
stalinism,5704
stalinist,5705
stalking,5706
stalling,5707
stamina,5708
stamp,5709
stance,5710
stand,5711
standard,5712
standards,5713
standing,5714
stands,5715
star,5716
starbucks,5717
stare,5718
stares,5719
stark,5720
start,5721
started,5722
starters,5723
starting,5724
starts,5725
starvation,5726
starved,5727
starving,5728
starwars,5729
stashed,5730
state,5731
stated,5732
statehood,5733
statement,5734
statementr,5735
statements,5736
states,5737
station,5738
stations,5739
statistics,5740
stats,5741
status,5742
stauts,5743
stay,5744
stayed,5745
steal,5746
stealth,5747
step,5748
stepping,5749
stir,5750
stock,5751
stockpile,5752
stocks,5753
stolen,5754
stomachs,5755
stone,5756
stones,5757
stonings,5758
stood,5759
stop,5760
stoping,5761
stopped,5762
stopping,5763
stops,5764
stor,5765
store,5766
stores,5767
stories,5768
storm,5769
stormin,5770
story,5771
straight,5772
straightforward,5773
strand,5774
strangely,5775
strangulation,5776
strategic,5777
straw,5778
strawman,5779
straws,5780
street,5781
streets,5782
strenegh,5783
strengh,5784
strength,5785
stresses,5786
stressful,5787
stretch,5788
strike,5789
strikes,5790
strip,5791
strong,5792
strongest,5793
strongly,5794
struck,5795
structures,5796
stuart,5797
stub,5798
stuck,5799
students,5800
studied,5801
studies,5802
study,5803
studying,5804
stuff,5805
stupa,5806
stupid,5807
stupidity,5808
style,5809
sub,5810
subject,5811
subjects,5812
subjugated,5813
subliminally,5814
submit,5815
submitted,5816
subsequent,5817
subsidies,5818
substance,5819
substantial,5820
substantiate,5821
substantive,5822
substitute,5823
subtly,5824
suburban,5825
subvert,5826
succeed,5827
succeeding,5828
succesful,5829
succesfull,5830
success,5831
successes,5832
sucide,5833
sudan,5834
sudaneese,5835
sudden,5836
suddenly,5837
sue,5838
suffer,5839
suffered,5840
suffering,5841
sufficient,5842
suggest,5843
suggested,5844
suggesting,5845
suggestion,5846
suggests,5847
suicide,5848
suicides,5849
suit,5850
suitable,5851
suits,5852
sultan,5853
sum,5854
sumatra,5855
summarising,5856
sunlight,5857
sunni,5858
sunnis,5859
super,5860
supereamists,5861
supplied,5862
supply,5863
supplying,5864
support,5865
supported,5866
supporter,5867
supporters,5868
supporting,5869
supports,5870
suppose,5871
supposed,5872
suppress,5873
supress,5874
supressor,5875
suprised,5876
suprises,5877
sure,5878
surely,5879
surpirse,5880
surpress,5881
surprise,5882
surprised,5883
surprising,5884
surrender,5885
surrounded,5886
surrounding,5887
surveillance,5888
surveys,5889
survival,5890
survive,5891
suspect,5892
suspects,5893
suspense,5894
suspicious,5895
sustainable,5896
sustained,5897
sustaining,5898
suv,5899
svay,5900
swearing,5901
sweet,5902
swim,5903
swimmer,5904
swimming,5905
swimsuit,5906
swimsuits,5907
swinger,5908
swings,5909
swiss,5910
switched,5911
sword,5912
sy,5913
syllables,5914
symbol,5915
symbols,5916
sympathetic,5917
sympathiser,5918
sympathize,5919
sympathy,5920
synagogue,5921
syria,5922
syrian,5923
systematically,5924
systems,5925
ta,5926
table,5927
tablets,5928
tack,5929
tackle,5930
tactic,5931
tactics,5932
taheri,5933
taht,5934
tailor,5935
taken,5936
takes,5937
taking,5938
taleban,5939
talent,5940
taliban,5941
talibans,5942
talk,5943
talking,5944
talks,5945
talmud,5946
talmudist,5947
tame,5948
tanja,5949
tanks,5950
tantrums,5951
tapes,5952
taps,5953
tar,5954
target,5955
targeted,5956
targets,5957
targetted,5958
targetting,5959
tariff,5960
tariffs,5961
tarred,5962
task,5963
tasks,5964
taste,5965
tatty,5966
taught,5967
tautological,5968
tax,5969
taxation,5970
taxes,5971
tb,5972
teach,5973
teacher,5974
teachers,5975
teaches,5976
team,5977
teamed,5978
tear,5979
tears,5980
technically,5981
techniques,5982
technology,5983
teenage,5984
teens,5985
teh,5986
tel,5987
telegrams,5988
telegraph,5989
telemobiloscope,5990
telephone,5991
television,5992
tell,5993
telling,5994
tells,5995
temper,5996
tempers,5997
temples,5998
tempted,5999
tenants,6000
tend,6001
tender,6002
tends,6003
tenet,6004
tenets,6005
tens,6006
tensions,6007
tenuous,6008
teresa,6009
term,6010
terms,6011
terrible,6012
territories,6013
territory,6014
territroies,6015
terroism,6016
terror,6017
terrorised,6018
terrorism,6019
terrorist,6020
terrorists,6021
tessa,6022
test,6023
tested,6024
testified,6025
teven,6026
thailand,6027
thank,6028
thanked,6029
thankful,6030
thanks,6031
thanx,6032
thatcher,6033
thats,6034
theforevermanparsedonedigit,6035
theme,6036
themeselves,6037
theoretical,6038
theories,6039
theory,6040
thereof,6041
theres,6042
thier,6043
thing,6044
thingie,6045
things,6046
think,6047
thinking,6048
thinks,6049
thinly,6050
tho,6051
thompson,6052
thoroughly,6053
thought,6054
thoughts,6055
thousand,6056
thousands,6057
thread,6058
threads,6059
threadstarter,6060
threat,6061
threatened,6062
threatening,6063
threatens,6064
threats,6065
throwing,6066
thrown,6067
thrust,6068
thu,6069
thursday,6070
thwarted,6071
tibet,6072
tibetan,6073
tidal,6074
tie,6075
tied,6076
ties,6077
tight,6078
tighten,6079
time,6080
times,6081
timesdispatch,6082
timor,6083
tiny,6084
tip,6085
tips,6086
tired,6087
tis,6088
title,6089
tko,6090
tnt,6091
today,6092
todays,6093
toddy,6094
toe,6095
toed,6096
toilet,6097
toilets,6098
tolarance,6099
told,6100
tolearance,6101
tolen,6102
tolerance,6103
tolerated,6104
toll,6105
tollerance,6106
tom,6107
tome,6108
tone,6109
tongue,6110
tonka,6111
tonker,6112
tony,6113
tonys,6114
tonysilver,6115
took,6116
tools,6117
topic,6118
topless,6119
toronto,6120
torpor,6121
torture,6122
toss,6123
total,6124
totally,6125
touching,6126
tough,6127
tour,6128
tourism,6129
tourist,6130
tournament,6131
tours,6132
tower,6133
towering,6134
towns,6135
toxic,6136
toyhon,6137
traceable,6138
traces,6139
track,6140
trade,6141
traded,6142
trader,6143
traders,6144
tradition,6145
traditional,6146
traffic,6147
tragedies,6148
tragedy,6149
tragic,6150
trail,6151
trained,6152
training,6153
transact,6154
transatlantic,6155
transcript,6156
transcripts,6157
translation,6158
transparent,6159
transport,6160
trap,6161
trash,6162
trashed,6163
travel,6164
travelled,6165
travelling,6166
treachery,6167
treason,6168
treat,6169
treated,6170
treaties,6171
treatment,6172
treatments,6173
treaty,6174
tree,6175
trembles,6176
tremendous,6177
trial,6178
trials,6179
tribes,6180
tribunal,6181
trick,6182
tricks,6183
tried,6184
trigger,6185
trip,6186
tripe,6187
triple,6188
trolls,6189
troop,6190
troops,6191
trotted,6192
trouble,6193
truce,6194
truck,6195
true,6196
truly,6197
truman,6198
trun,6199
trust,6200
truth,6201
try,6202
trying,6203
tsarion,6204
tsunami,6205
tubes,6206
tuesday,6207
tunes,6208
tungsram,6209
tunisia,6210
tuol,6211
turbulent,6212
turf,6213
turkey,6214
turmoil,6215
turn,6216
turned,6217
turning,6218
turns,6219
tv,6220
twice,6221
twin,6222
twins,6223
twist,6224
twisted,6225
twisting,6226
type,6227
typed,6228
types,6229
typical,6230
typically,6231
typo,6232
ubergunner,6233
uder,6234
uganda,6235
ugandan,6236
ugly,6237
uk,6238
ulpan,6239
ulster,6240
ultimately,6241
ultras,6242
umproviked,6243
unabashed,6244
unable,6245
unacceptable,6246
unanimous,6247
unarmed,6248
unbalanced,6249
unbearable,6250
unbelievable,6251
uncaring,6252
uncivilised,6253
uncle,6254
unclear,6255
uncomfortable,6256
unconscionable,6257
uncontrollable,6258
unconventional,6259
undemocratic,6260
undeniably,6261
underestanding,6262
undermine,6263
undermines,6264
undermining,6265
understand,6266
understandable,6267
understanding,6268
understands,6269
understood,6270
undesired,6271
undeterred,6272
undoubtedly,6273
unecessary,6274
unemployment,6275
uneven,6276
unfair,6277
unfairly,6278
unfettered,6279
unfold,6280
unfortunate,6281
unfortunately,6282
unfortunatley,6283
ungrateful,6284
unhappy,6285
unholy,6286
uni,6287
uninformed,6288
uninterupted,6289
union,6290
unionism,6291
unionists,6292
unit,6293
united,6294
universal,6295
universe,6296
universities,6297
university,6298
unjustifiable,6299
unjustified,6300
unless,6301
unlike,6302
unlikeable,6303
unlikely,6304
unnamed,6305
unneccessary,6306
unnecessary,6307
unorthodox,6308
unpleasant,6309
unpopular,6310
unpopulated,6311
unproven,6312
unrealistic,6313
unreasonable,6314
unrelated,6315
unreliable,6316
unreported,6317
unspeakable,6318
unsubstantiated,6319
unsuitable,6320
unto,6321
untrustworthy,6322
unwholesome,6323
unwilling,6324
upcoming,6325
uphold,6326
uprooting,6327
upset,6328
upside,6329
upu,6330
upward,6331
upyerpipe,6332
uranium,6333
urban,6334
urges,6335
usa,6336
usage,6337
usapears,6338
use,6339
used,6340
useful,6341
useless,6342
username,6343
uses,6344
using,6345
usual,6346
usually,6347
usuing,6348
utopia,6349
utter,6350
utterly,6351
vacancies,6352
vacation,6353
valid,6354
validated,6355
valise,6356
valuable,6357
value,6358
valued,6359
values,6360
vanunu,6361
variability,6362
variation,6363
variety,6364
various,6365
vast,6366
vat,6367
vatican,6368
vc,6369
ve,6370
vegetarian,6371
vehemently,6372
vehicles,6373
veiled,6374
vein,6375
venetians,6376
venezuala,6377
venezuela,6378
venezuelan,6379
vent,6380
venture,6381
veracity,6382
verbal,6383
verdict,6384
verge,6385
verifying,6386
versa,6387
verse,6388
versed,6389
version,6390
vessel,6391
vested,6392
vests,6393
veto,6394
vexing,6395
vice,6396
vicious,6397
victim,6398
victimhood,6399
victims,6400
victorian,6401
victories,6402
victory,6403
video,6404
videos,6405
vietnam,6406
view,6407
viewpoint,6408
views,6409
vigilant,6410
vile,6411
vina,6412
vindicationparsedthreedigits,6413
vindictiveness,6414
violate,6415
violating,6416
violence,6417
violent,6418
virgins,6419
virulently,6420
vis,6421
visible,6422
visit,6423
visited,6424
vitamin,6425
vitriolic,6426
viva,6427
viz,6428
vocal,6429
voice,6430
void,6431
volunteering,6432
voodoo,6433
vote,6434
voted,6435
voters,6436
votes,6437
voting,6438
vs,6439
vulgar,6440
vultures,6441
vw,6442
wacko,6443
waggy,6444
wahhabist,6445
wail,6446
wailing,6447
wait,6448
waited,6449
waiting,6450
wake,6451
wales,6452
walk,6453
walking,6454
wall,6455
walled,6456
walls,6457
walnuts,6458
wander,6459
wandering,6460
wanna,6461
want,6462
wanted,6463
wants,6464
war,6465
warden,6466
warents,6467
warfare,6468
warmest,6469
warming,6470
warmonger,6471
warn,6472
warned,6473
warning,6474
warped,6475
warrant,6476
warrnet,6477
wars,6478
wart,6479
wash,6480
washington,6481
wasn,6482
wasnt,6483
waste,6484
watch,6485
watches,6486
watching,6487
watchout,6488
water,6489
watered,6490
waters,6491
watersports,6492
watson,6493
watt,6494
wave,6495
waves,6496
waving,6497
way,6498
wayne,6499
ways,6500
wayward,6501
wb,6502
wbos,6503
weak,6504
weakened,6505
weakens,6506
weakest,6507
weaklings,6508
weakness,6509
wealth,6510
wealthy,6511
weapon,6512
weaponry,6513
weapons,6514
wear,6515
wearing,6516
weather,6517
weave,6518
weaving,6519
web,6520
weblog,6521
website,6522
websites,6523
wednesday,6524
wee,6525
weed,6526
week,6527
weekend,6528
weeks,6529
weep,6530
weight,6531
weird,6532
weirdos,6533
welcome,6534
weltanschauung,6535
wendy,6536
wendyisms,6537
wendyman,6538
wendymann,6539
went,6540
wepaons,6541
weren,6542
werent,6543
west,6544
western,6545
westerner,6546
wests,6547
westward,6548
wether,6549
wets,6550
whats,6551
whatsoever,6552
wheedling,6553
whic,6554
whichester,6555
whichever,6556
whilst,6557
whinger,6558
whining,6559
whip,6560
whisky,6561
white,6562
whites,6563
whitey,6564
whoda,6565
wholy,6566
whoops,6567
whosoever,6568
wide,6569
widely,6570
wider,6571
widespread,6572
wiener,6573
wife,6574
wikipedia,6575
wild,6576
william,6577
williams,6578
willing,6579
willingly,6580
willingness,6581
win,6582
wing,6583
wingers,6584
wings,6585
winner,6586
winners,6587
winning,6588
wipe,6589
wiped,6590
wiping,6591
wisdom,6592
wish,6593
wishes,6594
wishywashyness,6595
witha,6596
withdraw,6597
withdrawing,6598
withdrawn,6599
withdrawned,6600
withdrw,6601
withhold,6602
withref,6603
withstand,6604
witness,6605
witnesses,6606
witty,6607
wmd,6608
wmds,6609
woe,6610
woken,6611
wolfowitz,6612
woman,6613
women,6614
won,6615
wonder,6616
wondered,6617
wonderful,6618
wonderfully,6619
wonderign,6620
wondering,6621
wonders,6622
wont,6623
wooden,6624
woolsey,6625
woolwich,6626
word,6627
worded,6628
words,6629
wore,6630
work,6631
worked,6632
worker,6633
workers,6634
workforce,6635
working,6636
works,6637
workshops,6638
world,6639
worlds,6640
worldwide,6641
worms,6642
worried,6643
worries,6644
worry,6645
worrying,6646
worse,6647
worship,6648
worst,6649
worth,6650
worthy,6651
wouldn,6652
wouldnt,6653
wounded,6654
wounding,6655
wow,6656
wp,6657
wragg,6658
wraggers,6659
wriggle,6660
write,6661
writes,6662
writing,6663
written,6664
wrong,6665
wrongdoing,6666
wrote,6667
wrt,6668
wsj,6669
wtc,6670
wto,6671
wums,6672
wwii,6673
wwparsedonedigit,6674
www,6675
xavier,6676
ya,6677
yank,6678
yanks,6679
yard,6680
yawn,6681
ye,6682
yea,6683
yeah,6684
year,6685
yearly,6686
years,6687
yeeessssssss,6688
yeh,6689
yehudi,6690
yellow,6691
yep,6692
yes,6693
yesterday,6694
yields,6695
yo,6696
yoav,6697
yoke,6698
yor,6699
york,6700
yorker,6701
yorkshire,6702
yossarian,6703
young,6704
younger,6705
youngster,6706
yout,6707
youth,6708
yrs,6709
yummy,6710
zabacs,6711
zabak,6712
zalmay,6713
zebra,6714
zebras,6715
zebrasviewpoint,6716
zeldalicious,6717
zero,6718
zi,6719
zidane,6720
zimbabwe,6721
zionist,6722
zionists,6723
zoltán,6724
zone,6725
zones,6726
