abandoned,0
ability,1
able,2
abroad,3
absolute,4
absolutely,5
abundance,6
abuse,7
abused,8
abuses,9
accept,10
acceptable,11
acceptance,12
accepted,13
access,14
accident,15
accidentally,16
accidents,17
acclimatized,18
accomplishment,19
according,20
account,21
accountable,22
accrued,23
accumulation,24
accurate,25
accusations,26
accusing,27
accutane,28
achieving,29
acid,30
acidparsedonedigit,31
acknowledges,32
acorn,33
act,34
action,35
actions,36
activated,37
active,38
activist,39
activities,40
activity,41
actor,42
acts,43
actual,44
actuality,45
actuall,46
actually,47
ad,48
adapted,49
add,50
added,51
adding,52
addition,53
additional,54
additionally,55
address,56
addressed,57
addresses,58
adequately,59
adjustable,60
adjustments,61
admin,62
administered,63
administration,64
administrative,65
admires,66
admission,67
admitted,68
adobe,69
adopt,70
advance,71
advanced,72
advancing,73
advantage,74
advertising,75
aeroflop,76
aeroflot,77
affairs,78
affect,79
affected,80
afford,81
affordable,82
afp,83
afraid,84
afterlife,85
afternoon,86
ag,87
age,88
agencies,89
agency,90
agenda,91
agendas,92
agents,93
ages,94
aggressive,95
ago,96
agree,97
agreed,98
agreeing,99
agriculture,100
ahh,101
ahhhhhhhhhhhhhhhhhhhhhhhhhhhhhhhhhhhhhhhhhhhhhhhhhhhhh,102
aid,103
aids,104
aim,105
air,106
airplane,107
al,108
alaska,109
album,110
alcohol,111
alert,112
alex,113
alexx,114
alittle,115
alliance,116
allied,117
allies,118
allow,119
allowed,120
allowing,121
allows,122
alot,123
alternate,124
alternative,125
amazes,126
amazing,127
amazingly,128
amendment,129
america,130
american,131
americans,132
ammunition,133
amnesty,134
amp,135
amtrak,136
analogies,137
analysis,138
analyst,139
analyzed,140
ancient,141
andrew,142
android,143
angeles,144
anger,145
angle,146
animal,147
animals,148
ankle,149
annoyances,150
annoying,151
anon,152
answer,153
answering,154
anti,155
antiquated,156
anymore,157
aparsedtwodigits,158
apart,159
aphrodite,160
apocalypse,161
apologize,162
apology,163
apostrophe,164
app,165
appalled,166
apparently,167
appeal,168
appear,169
appearance,170
appears,171
appetite,172
applauded,173
apple,174
applications,175
applied,176
apply,177
appreciate,178
approach,179
approaching,180
appropriately,181
aprobation,182
apt,183
arab,184
arabia,185
archie,186
architechts,187
area,188
aren,189
argue,190
arguing,191
argument,192
arise,193
arizona,194
arlington,195
arms,196
array,197
arrested,198
arrestee,199
arresting,200
article,201
articles,202
artificial,203
artificially,204
artsy,205
asap,206
ascii,207
ashamed,208
ashcroft,209
aside,210
ask,211
asks,212
ass,213
assembly,214
assessments,215
assets,216
assholes,217
associated,218
association,219
assume,220
assuming,221
assure,222
asterisked,223
asthma,224
astley,225
astounds,226
athlete,227
athletic,228
atmospheric,229
atom,230
atomic,231
attached,232
attack,233
attacking,234
attacks,235
attempt,236
attending,237
attention,238
attic,239
aud,240
audience,241
aus,242
australia,243
australian,244
authentication,245
author,246
authorities,247
authority,248
authorized,249
authorizes,250
authors,251
auto,252
automatically,253
automation,254
av,255
available,256
average,257
aviator,258
avoid,259
avoidance,260
avoided,261
award,262
awards,263
aware,264
away,265
awesome,266
awkward,267
awol,268
awwwwww,269
ayway,270
baby,271
backs,272
backwards,273
bacon,274
bacteria,275
bad,276
badass,277
badly,278
bag,279
bags,280
bail,281
bailout,282
bailouts,283
baiting,284
balances,285
bale,286
balk,287
ball,288
balloon,289
ban,290
bands,291
bank,292
banks,293
banned,294
banner,295
banning,296
bans,297
barbarians,298
barely,299
bargain,300
baron,301
barracks,302
barrel,303
barry,304
base,305
based,306
basement,307
basic,308
basically,309
basics,310
basis,311
bastard,312
batshit,313
batteries,314
battery,315
battle,316
battlestar,317
bbc,318
beach,319
beam,320
bear,321
beat,322
beautiful,323
beds,324
beenthe,325
beethoven,326
beg,327
begets,328
begin,329
begining,330
behave,331
behaves,332
behavior,333
beings,334
belief,335
believability,336
believe,337
belly,338
belt,339
belts,340
bench,341
benefits,342
benifits,343
benign,344
benjamin,345
benz,346
best,347
bested,348
bet,349
beta,350
betcha,351
bethesda,352
better,353
bible,354
biden,355
bidgtls,356
biff,357
big,358
bigger,359
biggest,360
billion,361
billions,362
bills,363
binary,364
bird,365
birds,366
bisexual,367
bit,368
bitch,369
bitching,370
bite,371
bittorent,372
bj,373
black,374
blackface,375
blacklabelsar,376
blame,377
blamefor,378
blames,379
blanks,380
blast,381
bleed,382
blemish,383
blessed,384
blew,385
blind,386
blinded,387
blindly,388
bliss,389
blog,390
blogpost,391
blogs,392
blogspam,393
bloom,394
blow,395
blowhards,396
blue,397
bluemotion,398
blurred,399
board,400
boat,401
boating,402
bobby,403
bodies,404
body,405
bogus,406
bollocks,407
bollywood,408
bomb,409
bombula,410
boner,411
bong,412
bonus,413
book,414
books,415
border,416
bored,417
borg,418
born,419
borne,420
boss,421
bosworth,422
bother,423
bothered,424
bottle,425
bought,426
bounce,427
bounds,428
bovine,429
bowtie,430
box,431
boy,432
bparsedtwodigitsc,433
bragged,434
brain,435
brains,436
brake,437
brandon,438
bravo,439
break,440
breaking,441
breaks,442
breakthroughs,443
breeding,444
bribe,445
brick,446
briefly,447
bright,448
bring,449
bringing,450
brings,451
broke,452
bros,453
brother,454
browser,455
browsers,456
brute,457
bs,458
btw,459
bubble,460
bubbles,461
buchanan,462
budget,463
buffet,464
bug,465
buggers,466
build,467
builder,468
building,469
buildings,470
built,471
bull,472
bullets,473
bullshit,474
bum,475
bumble,476
bunch,477
bundle,478
bunker,479
bureau,480
buried,481
buries,482
burning,483
burried,484
burrito,485
bury,486
bush,487
business,488
businesses,489
businessman,490
busted,491
butt,492
butts,493
buy,494
buyers,495
buying,496
bypass,497
ca,498
cabinet,499
cafeteria,500
cage,501
cages,502
cahoots,503
cali,504
calibrated,505
california,506
called,507
calls,508
cambodia,509
camcorder,510
came,511
camel,512
camera,513
caminiti,514
camp,515
campaign,516
camps,517
canada,518
canals,519
cancel,520
cancer,521
candles,522
canseco,523
cap,524
capable,525
capitalization,526
caps,527
captain,528
capture,529
captured,530
car,531
carbon,532
carcinogens,533
card,534
cardinals,535
care,536
career,537
careful,538
cares,539
carmen,540
carnival,541
carry,542
carrying,543
cars,544
cartridge,545
case,546
cases,547
cash,548
casual,549
cat,550
catalog,551
catastrophic,552
catch,553
catchup,554
catechism,555
categorically,556
category,557
catering,558
catholic,559
cats,560
caught,561
cause,562
caused,563
causes,564
causing,565
ce,566
celebrity,567
cell,568
cellphones,569
cemetery,570
center,571
centers,572
centigrade,573
centrist,574
cents,575
century,576
ceo,577
certain,578
certainly,579
certainty,580
certifiable,581
certified,582
chad,583
chain,584
chair,585
chairman,586
champion,587
chance,588
chances,589
change,590
changed,591
changes,592
changing,593
channels,594
character,595
characteristic,596
charge,597
charged,598
charger,599
chargers,600
charges,601
cheap,602
cheaper,603
cheated,604
cheaters,605
cheating,606
check,607
checker,608
cheer,609
cheers,610
chemical,611
chemically,612
cheney,613
chernobyl,614
cherry,615
chew,616
chicago,617
chief,618
child,619
childish,620
children,621
chimp,622
chimps,623
china,624
chinese,625
choice,626
choose,627
chosen,628
christ,629
christian,630
christianity,631
christians,632
christmas,633
christopher,634
chuck,635
church,636
churches,637
cia,638
circumstances,639
citations,640
cite,641
cites,642
citizen,643
citizens,644
civil,645
civilians,646
claim,647
claimed,648
claiming,649
claptrap,650
classes,651
classic,652
classify,653
clause,654
clean,655
cleaned,656
clear,657
clearly,658
clever,659
click,660
clicks,661
client,662
clients,663
climate,664
climber,665
clinical,666
clinton,667
close,668
closed,669
clothes,670
cloths,671
clown,672
clownhall,673
clowns,674
club,675
clump,676
clutters,677
coal,678
coalition,679
cocaine,680
cockcroft,681
cockmeats,682
cocks,683
code,684
codes,685
cofee,686
coffee,687
coincidence,688
colar,689
cold,690
collapse,691
collect,692
college,693
colleges,694
colombiano,695
com,696
combinations,697
comcast,698
come,699
comedy,700
comes,701
comfort,702
comforting,703
comic,704
coming,705
comment,706
commentary,707
commented,708
commenting,709
comments,710
commercial,711
commercials,712
commericals,713
commit,714
committed,715
commodity,716
common,717
communicate,718
communists,719
community,720
companies,721
company,722
comparable,723
compared,724
comparison,725
compass,726
compassion,727
compensate,728
compete,729
competent,730
competition,731
compile,732
compiles,733
complain,734
complaining,735
complains,736
complaints,737
complete,738
completely,739
compliance,740
complicated,741
complicating,742
composed,743
composite,744
comprehend,745
comprehension,746
comprised,747
compromise,748
compromised,749
computer,750
concept,751
concerned,752
concerning,753
concerns,754
conclusion,755
conclusive,756
condemning,757
condition,758
conditions,759
conduct,760
conducting,761
confederate,762
confidence,763
confident,764
configuration,765
confirmed,766
confirms,767
confiscated,768
conflict,769
confused,770
confusing,771
congratulations,772
congregate,773
congregation,774
congress,775
conjuring,776
connected,777
connections,778
connects,779
consensus,780
consequence,781
consequences,782
conservatives,783
considered,784
considering,785
considers,786
consistently,787
console,788
conspiracy,789
constant,790
constitutes,791
constitution,792
constitutional,793
construct,794
constructing,795
construction,796
consumer,797
consumption,798
contact,799
contained,800
containing,801
content,802
contests,803
context,804
continually,805
continue,806
contracts,807
contradictory,808
contrary,809
contribute,810
contributes,811
control,812
controlled,813
controller,814
controversy,815
conveniently,816
converted,817
convicted,818
conviction,819
convictions,820
cool,821
coordination,822
cop,823
coparsedonedigit,824
copies,825
cops,826
copulating,827
copy,828
copying,829
copyright,830
copyrighted,831
copywritten,832
corel,833
cornerstone,834
corollary,835
corporate,836
corporations,837
correct,838
corrected,839
corrupt,840
corruption,841
corwin,842
cost,843
costs,844
costume,845
couch,846
couldn,847
counterparts,848
countries,849
country,850
counts,851
couple,852
coupling,853
coupon,854
course,855
courses,856
court,857
courtesy,858
cover,859
coverage,860
cowsay,861
crack,862
cracked,863
craft,864
crap,865
crashing,866
crate,867
crazy,868
cream,869
create,870
created,871
creating,872
creativity,873
creatures,874
credibility,875
credit,876
creditor,877
credits,878
creed,879
crime,880
crimes,881
criminal,882
criminals,883
criticize,884
critics,885
crook,886
cross,887
crowd,888
cruelty,889
crying,890
cue,891
culprits,892
cultural,893
cup,894
curb,895
cure,896
curing,897
currency,898
currently,899
curry,900
curse,901
curtain,902
curve,903
custom,904
cut,905
cute,906
cuts,907
cycle,908
cycles,909
cyprots,910
daily,911
damn,912
dance,913
dangerous,914
darcine,915
darkshroud,916
darth,917
daschle,918
data,919
datum,920
david,921
day,922
days,923
dc,924
dead,925
deadpan,926
deal,927
dealers,928
deals,929
dear,930
death,931
deaths,932
debate,933
debated,934
debt,935
december,936
decent,937
decide,938
decided,939
decimate,940
decision,941
decisions,942
declare,943
declared,944
declined,945
decrease,946
deduct,947
deep,948
deeper,949
default,950
defective,951
defendent,952
defense,953
deficit,954
deficits,955
defined,956
definitely,957
deformities,958
degree,959
degrees,960
delete,961
deliberately,962
deliver,963
dem,964
demand,965
demanding,966
demint,967
democracy,968
democrat,969
democratic,970
democrats,971
demoed,972
dems,973
denied,974
denier,975
denis,976
dep,977
department,978
departments,979
deployment,980
depravity,981
depreciation,982
depressed,983
depression,984
deprogrammed,985
described,986
deserves,987
deserving,988
design,989
desirable,990
desire,991
desires,992
desperately,993
despite,994
destroy,995
destroyed,996
destroying,997
destruction,998
detective,999
determined,1000
detroit,1001
devalue,1002
developer,1003
developing,1004
development,1005
device,1006
devices,1007
devious,1008
devised,1009
devoted,1010
dhs,1011
diagnosed,1012
dialing,1013
dick,1014
dickwad,1015
did,1016
didn,1017
didnt,1018
die,1019
difference,1020
different,1021
difficult,1022
difficulties,1023
dig,1024
digg,1025
digger,1026
diggers,1027
digging,1028
diggs,1029
digital,1030
diminutive,1031
dinosaur,1032
directed,1033
direction,1034
directly,1035
directors,1036
directory,1037
dirty,1038
disability,1039
disabled,1040
disagree,1041
disappear,1042
disappointed,1043
discover,1044
discovered,1045
discrimination,1046
discriminatory,1047
discuss,1048
discussed,1049
discussion,1050
disease,1051
diseases,1052
disgrace,1053
disgusting,1054
disordered,1055
disorders,1056
displayed,1057
disqualification,1058
disregard,1059
dissident,1060
distracted,1061
distribute,1062
distributed,1063
distributes,1064
distribution,1065
disturbing,1066
diversity,1067
divinity,1068
division,1069
dns,1070
doccasionally,1071
doctor,1072
doctors,1073
document,1074
documentaries,1075
documentary,1076
documented,1077
does,1078
doesn,1079
dog,1080
dogs,1081
doing,1082
doings,1083
dollar,1084
dollars,1085
doma,1086
domain,1087
domains,1088
domesticated,1089
domination,1090
don,1091
dont,1092
doom,1093
door,1094
doors,1095
doosh,1096
dope,1097
doses,1098
double,1099
doubt,1100
douche,1101
douchebag,1102
dough,1103
downey,1104
download,1105
downloading,1106
downloads,1107
dozen,1108
dp,1109
dr,1110
dragon,1111
draino,1112
drastic,1113
draw,1114
drawer,1115
dream,1116
dress,1117
drink,1118
drinking,1119
drinks,1120
drive,1121
drivel,1122
driven,1123
driver,1124
drivers,1125
driving,1126
drm,1127
drool,1128
drop,1129
dropped,1130
dropping,1131
drug,1132
drugs,1133
drumroll,1134
drunk,1135
dry,1136
ds,1137
dtv,1138
duct,1139
dude,1140
dugg,1141
dugout,1142
dumb,1143
dumber,1144
dumbs,1145
dumbya,1146
dump,1147
dunno,1148
duplicate,1149
duplicates,1150
dust,1151
dvd,1152
dwindling,1153
dying,1154
eager,1155
earc,1156
early,1157
earmark,1158
earned,1159
earnings,1160
earth,1161
ease,1162
easier,1163
easily,1164
east,1165
easy,1166
eat,1167
ebonics,1168
ebook,1169
ebooks,1170
echelons,1171
eclectic,1172
economic,1173
economics,1174
economists,1175
economy,1176
ecstasy,1177
ed,1178
edit,1179
editor,1180
editorial,1181
edmonds,1182
education,1183
eeepc,1184
effect,1185
effective,1186
effects,1187
efficiency,1188
effort,1189
efforts,1190
ego,1191
elderly,1192
elected,1193
election,1194
electric,1195
electrical,1196
electronic,1197
eligible,1198
eliminating,1199
ellis,1200
em,1201
email,1202
embarrass,1203
embarrassment,1204
embarrassments,1205
emergency,1206
eminem,1207
emissions,1208
emotional,1209
employees,1210
employers,1211
employment,1212
encarta,1213
encounter,1214
encourage,1215
encourages,1216
end,1217
ending,1218
endorsed,1219
ends,1220
energy,1221
enforced,1222
engaged,1223
engine,1224
engineering,1225
engineeringaficionado,1226
england,1227
english,1228
enhanced,1229
enhancement,1230
enjoy,1231
enjoyed,1232
enron,1233
ensure,1234
enthusiasm,1235
entire,1236
entirely,1237
entirety,1238
entrenched,1239
entrpeneur,1240
enviro,1241
environment,1242
ep,1243
epic,1244
episode,1245
equal,1246
equation,1247
equipment,1248
equivalent,1249
er,1250
erase,1251
errands,1252
escape,1253
especially,1254
essence,1255
essentially,1256
established,1257
estimate,1258
et,1259
ethanol,1260
ethics,1261
ethnic,1262
etiquette,1263
europeans,1264
evaporate,1265
evasion,1266
event,1267
events,1268
everybody,1269
evidence,1270
evidently,1271
evil,1272
evolution,1273
exact,1274
exacting,1275
exactly,1276
examined,1277
example,1278
examples,1279
excellent,1280
exceptional,1281
excessive,1282
excuse,1283
execs,1284
executable,1285
execute,1286
executive,1287
executives,1288
exercise,1289
exhausted,1290
exhibitions,1291
exist,1292
existing,1293
exists,1294
exorbitant,1295
expect,1296
expectations,1297
expected,1298
expense,1299
expenses,1300
expensive,1301
experience,1302
experiments,1303
explain,1304
explanation,1305
export,1306
exposed,1307
exposes,1308
express,1309
exterminated,1310
extinct,1311
extra,1312
extras,1313
extreme,1314
extremely,1315
eye,1316
eyes,1317
fa,1318
face,1319
facebook,1320
facepalm,1321
faces,1322
facilities,1323
facility,1324
fact,1325
factor,1326
factors,1327
facts,1328
factually,1329
fag,1330
faggot,1331
fail,1332
failed,1333
failing,1334
fails,1335
fair,1336
fairly,1337
fake,1338
falls,1339
false,1340
families,1341
family,1342
fan,1343
fanboy,1344
fancy,1345
fannie,1346
fans,1347
fantastic,1348
fantasy,1349
fantatics,1350
fap,1351
fapping,1352
far,1353
fares,1354
farfromperfectx,1355
farm,1356
farms,1357
fashion,1358
fast,1359
fastball,1360
faster,1361
fastest,1362
fat,1363
fatest,1364
fatigue,1365
fault,1366
faults,1367
fauna,1368
faux,1369
favor,1370
favorite,1371
favorites,1372
favour,1373
favoured,1374
fbi,1375
fear,1376
feasible,1377
feature,1378
features,1379
featuring,1380
feb,1381
fed,1382
federal,1383
fedex,1384
feed,1385
feeds,1386
feel,1387
feeling,1388
feels,1389
felines,1390
fella,1391
fellow,1392
felt,1393
fema,1394
female,1395
females,1396
fertility,1397
fertilization,1398
ff,1399
fffffsssorry,1400
ffs,1401
field,1402
fight,1403
fighters,1404
fighting,1405
fights,1406
figure,1407
figured,1408
figuring,1409
file,1410
files,1411
filetype,1412
filing,1413
filled,1414
fillion,1415
film,1416
filter,1417
filters,1418
final,1419
finally,1420
finances,1421
financial,1422
finding,1423
fine,1424
fing,1425
finger,1426
finish,1427
firearm,1428
firebugs,1429
firefox,1430
fires,1431
firm,1432
firms,1433
fish,1434
fist,1435
fix,1436
fixed,1437
fl,1438
flash,1439
flashing,1440
flattery,1441
flavored,1442
flood,1443
flooded,1444
floods,1445
floor,1446
floppy,1447
flowers,1448
fly,1449
flyballs,1450
flying,1451
focus,1452
folks,1453
follow,1454
following,1455
food,1456
fool,1457
foolish,1458
foolishly,1459
foolishness,1460
fools,1461
football,1462
footprint,1463
force,1464
forced,1465
forces,1466
forcing,1467
ford,1468
forehead,1469
foreign,1470
forensic,1471
forest,1472
forever,1473
forget,1474
forklift,1475
forks,1476
form,1477
format,1478
formats,1479
formatted,1480
forums,1481
forward,1482
fossil,1483
fought,1484
foul,1485
fox,1486
foxit,1487
fparsedonedigit,1488
frame,1489
franklin,1490
fraud,1491
freakin,1492
freddie,1493
free,1494
freedom,1495
freely,1496
frequently,1497
freudian,1498
fridayparsedfourdigits,1499
friend,1500
friends,1501
frontpage,1502
frost,1503
frowns,1504
fta,1505
ftp,1506
fu,1507
fuck,1508
fucked,1509
fuckin,1510
fucking,1511
fucktard,1512
fuel,1513
fuels,1514
fulfill,1515
fully,1516
fun,1517
function,1518
functioning,1519
functions,1520
fundamental,1521
funding,1522
funds,1523
fungi,1524
fungieparsedonedigit,1525
funnier,1526
funny,1527
furious,1528
furnish,1529
fusion,1530
future,1531
futuregen,1532
futuristic,1533
fuuuuuuuuuuuuuuuuuuuuuuuuuuuuuuuckwatch,1534
fæces,1535
gaiden,1536
gain,1537
gained,1538
gains,1539
galactica,1540
galaxy,1541
gamble,1542
game,1543
games,1544
gaming,1545
ganged,1546
gaqua,1547
gas,1548
gates,1549
gather,1550
gave,1551
gay,1552
gbvista,1553
gdp,1554
gear,1555
gee,1556
geek,1557
geeze,1558
general,1559
generalizing,1560
generally,1561
generated,1562
generation,1563
genitalia,1564
genitals,1565
genius,1566
genuine,1567
geo,1568
geoblocking,1569
german,1570
germans,1571
germany,1572
gestapo,1573
gets,1574
getting,1575
getup,1576
giants,1577
gift,1578
gifts,1579
girl,1580
girls,1581
given,1582
gives,1583
giving,1584
glad,1585
glasses,1586
glitz,1587
global,1588
globe,1589
glove,1590
glowing,1591
gm,1592
gmail,1593
gneural,1594
goal,1595
goat,1596
goatee,1597
god,1598
godwin,1599
goes,1600
goggles,1601
goin,1602
going,1603
gold,1604
goldmine,1605
gonna,1606
good,1607
google,1608
gop,1609
got,1610
gotta,1611
governed,1612
government,1613
gpparsedonedigitx,1614
grad,1615
grades,1616
graduate,1617
grand,1618
grandparents,1619
grandstanding,1620
granny,1621
grant,1622
granted,1623
grants,1624
graphic,1625
grasp,1626
grateful,1627
great,1628
greed,1629
greedy,1630
green,1631
greeter,1632
gross,1633
ground,1634
group,1635
groups,1636
grow,1637
growing,1638
grown,1639
grows,1640
gsp,1641
guard,1642
guess,1643
guilty,1644
guitar,1645
gulag,1646
gump,1647
gun,1648
guns,1649
guy,1650
guys,1651
ha,1652
habit,1653
hack,1654
hackers,1655
hah,1656
haha,1657
hahah,1658
hahahahi,1659
hailed,1660
half,1661
hall,1662
hamas,1663
hammer,1664
hand,1665
handed,1666
handicapped,1667
handing,1668
handle,1669
handles,1670
handling,1671
hang,1672
hannah,1673
happen,1674
happened,1675
happening,1676
happens,1677
happily,1678
happy,1679
harbinger,1680
harbor,1681
harboring,1682
hard,1683
harder,1684
hardly,1685
hardware,1686
harmful,1687
harmless,1688
harrison,1689
harvard,1690
hasn,1691
hate,1692
hated,1693
hatred,1694
haven,1695
havent,1696
having,1697
hazard,1698
head,1699
headed,1700
headline,1701
headquarters,1702
heads,1703
health,1704
healthcare,1705
healthier,1706
healthy,1707
heaps,1708
hear,1709
heard,1710
hearing,1711
hears,1712
heart,1713
heath,1714
heavy,1715
hedge,1716
hefty,1717
heheh,1718
height,1719
held,1720
helicopter,1721
hell,1722
hello,1723
helluva,1724
helmsley,1725
help,1726
helpful,1727
helping,1728
hero,1729
heroes,1730
heroin,1731
herpes,1732
hes,1733
hey,1734
hezbollah,1735
hidden,1736
hide,1737
high,1738
higher,1739
highest,1740
highlights,1741
highly,1742
hijab,1743
hilarious,1744
hilariously,1745
hint,1746
hippocratic,1747
hiring,1748
history,1749
hit,1750
hitler,1751
hitters,1752
hmm,1753
hmo,1754
hmos,1755
hold,1756
holding,1757
hole,1758
hollywood,1759
holocaust,1760
home,1761
homeland,1762
homerun,1763
hominem,1764
homosexual,1765
homosexuality,1766
homosexuals,1767
honest,1768
honestly,1769
honey,1770
honored,1771
hook,1772
hooker,1773
hoopla,1774
hooray,1775
hope,1776
hopeless,1777
hoping,1778
horizon,1779
horizontal,1780
horizontally,1781
horrible,1782
hospital,1783
host,1784
hot,1785
hotel,1786
hottest,1787
hour,1788
hours,1789
house,1790
houses,1791
housing,1792
houstonpress,1793
howard,1794
htc,1795
hubris,1796
huffington,1797
huffingtonpost,1798
huge,1799
human,1800
humanitarian,1801
humanity,1802
humorous,1803
hundreds,1804
hungry,1805
hunt,1806
hunter,1807
hurricane,1808
hurried,1809
hurt,1810
hurts,1811
hybrid,1812
hybrids,1813
hydro,1814
hype,1815
hypocrisy,1816
iajdsiofajsuparsedtwodigitsiparsedfivedigits,1817
ianal,1818
iasoparsedfourdigits,1819
icbms,1820
ice,1821
iceberg,1822
idea,1823
ideal,1824
ideals,1825
ideas,1826
identity,1827
ideology,1828
idiot,1829
idiotic,1830
idiots,1831
ifpa,1832
ignorance,1833
ignore,1834
ignored,1835
ii,1836
ilk,1837
illegal,1838
illinois,1839
illness,1840
illogical,1841
im,1842
image,1843
imagery,1844
images,1845
imaginary,1846
imbalance,1847
immigrants,1848
immortal,1849
impact,1850
impared,1851
impartial,1852
impending,1853
implanting,1854
implement,1855
implemented,1856
import,1857
important,1858
impose,1859
imposed,1860
impossible,1861
impressive,1862
improve,1863
improvement,1864
improvements,1865
improving,1866
inaccurate,1867
inch,1868
inciting,1869
inclination,1870
include,1871
included,1872
includes,1873
including,1874
income,1875
incoming,1876
inconvenienced,1877
incorrect,1878
increase,1879
increased,1880
increases,1881
increasing,1882
increasingly,1883
incredible,1884
incredibly,1885
indefinitely,1886
independence,1887
indian,1888
indians,1889
indication,1890
individual,1891
individuals,1892
induces,1893
inducing,1894
industrial,1895
industry,1896
ineligible,1897
infamous,1898
infection,1899
infections,1900
inflation,1901
influence,1902
influences,1903
info,1904
information,1905
infringe,1906
ing,1907
inhaling,1908
inherit,1909
initiative,1910
initiatives,1911
injured,1912
injury,1913
innings,1914
innnovators,1915
innocent,1916
innovation,1917
innovative,1918
input,1919
insane,1920
insecure,1921
insecurities,1922
insignificant,1923
insignificantly,1924
insinuation,1925
inspiring,1926
install,1927
installation,1928
installations,1929
installing,1930
installment,1931
instant,1932
instantly,1933
instead,1934
instinct,1935
institute,1936
institutes,1937
institution,1938
institutions,1939
instruction,1940
insult,1941
insurance,1942
int,1943
integrate,1944
intelligence,1945
intelligentsia,1946
intend,1947
intended,1948
intense,1949
intensity,1950
interception,1951
interdependent,1952
interested,1953
interesting,1954
internal,1955
internet,1956
internets,1957
interpretation,1958
intervention,1959
interventionist,1960
interview,1961
intoxicated,1962
intrinsic,1963
intro,1964
introduced,1965
introduction,1966
invade,1967
invented,1968
invest,1969
investigate,1970
investigated,1971
investigating,1972
investigation,1973
investigations,1974
investment,1975
invisible,1976
invoked,1977
involved,1978
involves,1979
iphone,1980
ipod,1981
ipvparsedonedigit,1982
iq,1983
iran,1984
iranain,1985
iranian,1986
irish,1987
ironic,1988
irrational,1989
islamic,1990
island,1991
isn,1992
isnt,1993
isolate,1994
isps,1995
israel,1996
issue,1997
isyeah,1998
ixam,1999
jack,2000
jackals,2001
jackass,2002
jacket,2003
jail,2004
jakarta,2005
january,2006
japan,2007
japanese,2008
jason,2009
jealous,2010
jefferson,2011
jenkees,2012
jessica,2013
jewish,2014
jews,2015
jfc,2016
jinandjuice,2017
job,2018
jobs,2019
jogging,2020
john,2021
join,2022
joined,2023
joke,2024
jokes,2025
jolly,2026
joomla,2027
journalist,2028
journalists,2029
jr,2030
judge,2031
judging,2032
jumbo,2033
jump,2034
june,2035
junior,2036
junk,2037
jury,2038
just,2039
justice,2040
justices,2041
justify,2042
juvenile,2043
kabbalah,2044
kanye,2045
karl,2046
kate,2047
kde,2048
keeps,2049
ken,2050
kennedy,2051
kenyans,2052
kept,2053
ketchup,2054
kevin,2055
key,2056
keyboard,2057
keynesianism,2058
keys,2059
kick,2060
kicked,2061
kicks,2062
kid,2063
kidd,2064
kidding,2065
kids,2066
kiiiiiinda,2067
kill,2068
killed,2069
killer,2070
killing,2071
killings,2072
kills,2073
kilo,2074
kind,2075
kinda,2076
kindergarten,2077
kindle,2078
kinds,2079
kinseyincanada,2080
kkk,2081
knew,2082
knock,2083
knocked,2084
know,2085
knowing,2086
knowledge,2087
known,2088
knows,2089
kool,2090
koranimals,2091
kotaku,2092
krazy,2093
kroeger,2094
krugman,2095
kung,2096
label,2097
labor,2098
labyrinth,2099
laced,2100
lack,2101
laffer,2102
laid,2103
lake,2104
lamb,2105
lame,2106
land,2107
language,2108
languages,2109
lantern,2110
lap,2111
large,2112
largely,2113
largest,2114
larry,2115
lastly,2116
late,2117
lately,2118
later,2119
laugh,2120
laughable,2121
laughing,2122
laughter,2123
launched,2124
laundry,2125
law,2126
lawmakers,2127
lawn,2128
laws,2129
lawyers,2130
lay,2131
laying,2132
layoff,2133
ld,2134
leach,2135
leaches,2136
lead,2137
leaders,2138
leadership,2139
league,2140
leaked,2141
leaps,2142
learn,2143
learned,2144
lease,2145
leash,2146
leave,2147
leaves,2148
leaving,2149
ledger,2150
leed,2151
left,2152
leftist,2153
leftists,2154
leftost,2155
legal,2156
legalization,2157
legalize,2158
legalized,2159
legalizing,2160
legally,2161
legislation,2162
legislative,2163
legit,2164
lenders,2165
lends,2166
leona,2167
leopard,2168
lesbians,2169
lessons,2170
let,2171
lets,2172
letter,2173
letting,2174
level,2175
levels,2176
lgbt,2177
li,2178
liar,2179
libel,2180
liberal,2181
liberation,2182
liberties,2183
libraries,2184
libs,2185
libtards,2186
licencing,2187
license,2188
licensed,2189
lie,2190
lies,2191
life,2192
lifehacker,2193
lift,2194
light,2195
like,2196
likely,2197
likeness,2198
likes,2199
lil,2200
limited,2201
limits,2202
limo,2203
lincoln,2204
line,2205
lines,2206
link,2207
links,2208
list,2209
listen,2210
listened,2211
listening,2212
lists,2213
literal,2214
literally,2215
literate,2216
little,2217
live,2218
lives,2219
living,2220
ll,2221
load,2222
loan,2223
loans,2224
localization,2225
locally,2226
locked,2227
log,2228
logic,2229
logo,2230
logon,2231
lol,2232
lolwatdammit,2233
long,2234
longer,2235
longstanding,2236
look,2237
looked,2238
looking,2239
looks,2240
lookup,2241
lookups,2242
loose,2243
looses,2244
lord,2245
los,2246
lose,2247
loser,2248
loses,2249
losing,2250
loss,2251
losses,2252
lost,2253
lot,2254
lots,2255
lousy,2256
love,2257
loved,2258
loveless,2259
loves,2260
low,2261
lowcountry,2262
lower,2263
lowered,2264
lowering,2265
loyola,2266
luck,2267
lucky,2268
lucy,2269
lump,2270
lunch,2271
lures,2272
lying,2273
lyrics,2274
mac,2275
machine,2276
machines,2277
macintosh,2278
madness,2279
mae,2280
magnificent,2281
mah,2282
mail,2283
maimed,2284
main,2285
maine,2286
mainstream,2287
maintenance,2288
major,2289
majoring,2290
majority,2291
make,2292
makers,2293
makes,2294
making,2295
malaria,2296
male,2297
malfunctioning,2298
man,2299
managed,2300
management,2301
mandated,2302
mandates,2303
mandatory,2304
maniac,2305
manifesto,2306
manipulating,2307
mans,2308
manual,2309
manufacture,2310
manufacturers,2311
manufacturing,2312
marching,2313
marcia,2314
marginal,2315
marginalizing,2316
margins,2317
marijuana,2318
mario,2319
market,2320
marketing,2321
marq,2322
marriage,2323
married,2324
marry,2325
marshalls,2326
marxism,2327
marxists,2328
maryland,2329
mash,2330
mass,2331
master,2332
match,2333
mate,2334
material,2335
math,2336
matter,2337
matters,2338
mattoon,2339
maximum,2340
maybe,2341
mayer,2342
mayor,2343
mba,2344
mccain,2345
mcdonalds,2346
mead,2347
meager,2348
mean,2349
meanie,2350
means,2351
meant,2352
measurement,2353
mechanical,2354
media,2355
medicaid,2356
medical,2357
medicare,2358
medication,2359
medications,2360
medicine,2361
meds,2362
meet,2363
melbourne,2364
meltdown,2365
membership,2366
meme,2367
memorable,2368
memories,2369
memorization,2370
men,2371
mentally,2372
mention,2373
mentioned,2374
merch,2375
merdieselnail,2376
merely,2377
mesmerizing,2378
mess,2379
message,2380
messed,2381
messiuh,2382
metal,2383
meth,2384
methanol,2385
method,2386
methods,2387
mexican,2388
michael,2389
microbiology,2390
microsecond,2391
microsoft,2392
mid,2393
middle,2394
mighty,2395
mike,2396
mile,2397
mileage,2398
military,2399
milk,2400
million,2401
millionaire,2402
millions,2403
mind,2404
minded,2405
minerals,2406
miners,2407
mini,2408
minimizes,2409
minimum,2410
minnesota,2411
minor,2412
minute,2413
minutes,2414
miracle,2415
mirrored,2416
miserable,2417
misguided,2418
misinterpret,2419
misleading,2420
misrepresenting,2421
miss,2422
missed,2423
missing,2424
mission,2425
mistake,2426
mistaken,2427
mix,2428
mmm,2429
moan,2430
moans,2431
mobile,2432
modern,2433
modernization,2434
molester,2435
mom,2436
moment,2437
monarchy,2438
money,2439
monitor,2440
monkeybusiness,2441
monster,2442
montana,2443
month,2444
months,2445
mootools,2446
moral,2447
morality,2448
morally,2449
morals,2450
moreso,2451
mormon,2452
morning,2453
moron,2454
morons,2455
mortgage,2456
mortgages,2457
mother,2458
motherf,2459
motherfuckers,2460
mothers,2461
motion,2462
motivation,2463
motivations,2464
motive,2465
motofone,2466
motorola,2467
mouths,2468
moved,2469
movement,2470
movie,2471
movies,2472
moving,2473
mozart,2474
mpaa,2475
mpparsedonedigit,2476
mpparsedonedigits,2477
mpxparsedthreedigits,2478
ms,2479
muck,2480
mucking,2481
mud,2482
mumbai,2483
mumbo,2484
munchies,2485
muppets,2486
murder,2487
murdered,2488
murderous,2489
music,2490
muslims,2491
mvc,2492
mweather,2493
mypc,2494
mystery,2495
mytown,2496
nah,2497
nail,2498
nailed,2499
naive,2500
named,2501
nancy,2502
narcotics,2503
nasa,2504
nathan,2505
nation,2506
national,2507
nationalist,2508
nationalization,2509
nationalized,2510
nationhood,2511
nations,2512
natural,2513
naturally,2514
nazi,2515
near,2516
nearly,2517
necessarily,2518
necessary,2519
need,2520
needed,2521
needs,2522
neely,2523
negate,2524
negative,2525
negligible,2526
neighborhood,2527
neighbors,2528
neo,2529
nes,2530
net,2531
netted,2532
network,2533
networks,2534
new,2535
news,2536
newses,2537
newsworthy,2538
ng,2539
nice,2540
nicely,2541
niconiconico,2542
nietzsche,2543
night,2544
nightmare,2545
ninja,2546
nintendo,2547
nite,2548
nobel,2549
noble,2550
nobodies,2551
nodes,2552
nodparsedtwodigits,2553
noise,2554
nokia,2555
nominees,2556
non,2557
nooooo,2558
nope,2559
normal,2560
normally,2561
north,2562
northeast,2563
nose,2564
note,2565
nothingness,2566
nothings,2567
notice,2568
noumuon,2569
novels,2570
november,2571
noxious,2572
nparsedthreedigits,2573
nsw,2574
ntfs,2575
nuclear,2576
nuke,2577
number,2578
numbers,2579
nut,2580
nutcases,2581
nuts,2582
nwo,2583
o_o,2584
o_parsedonedigit,2585
oaksterdam,2586
oath,2587
obama,2588
objectively,2589
obligation,2590
obligatory,2591
obscure,2592
obsolete,2593
obviously,2594
occupation,2595
occur,2596
occurred,2597
ocean,2598
oceanic,2599
offending,2600
offensive,2601
offer,2602
office,2603
officer,2604
officers,2605
official,2606
officials,2607
oh,2608
ohshi,2609
oifdasparsedonedigitifasparsedthreedigits,2610
oil,2611
ok,2612
okay,2613
old,2614
ones,2615
online,2616
onlywire,2617
ooh,2618
ooooooohhhhhhh,2619
op,2620
open,2621
opened,2622
opera,2623
operating,2624
opinion,2625
opponents,2626
opportunity,2627
oppose,2628
opposing,2629
oppurtunity,2630
oprah,2631
opt,2632
opted,2633
optimal,2634
optimally,2635
option,2636
options,2637
order,2638
ordinary,2639
organization,2640
orientation,2641
original,2642
os,2643
osama,2644
oscar,2645
osx,2646
ot,2647
oui,2648
outcome,2649
outcry,2650
outer,2651
outright,2652
outrun,2653
outside,2654
overall,2655
overkill,2656
overpriced,2657
overthrow,2658
overtime,2659
overused,2660
owl,2661
owner,2662
owners,2663
owning,2664
owns,2665
pack,2666
packaging,2667
packed,2668
packet,2669
packing,2670
padded,2671
page,2672
pages,2673
paid,2674
paint,2675
palestinians,2676
palin,2677
palmero,2678
panda,2679
pandas,2680
pandering,2681
pandora,2682
pants,2683
paper,2684
paperwork,2685
par,2686
parachute,2687
paragraph,2688
parallel,2689
parent,2690
parents,2691
parole,2692
parseddigits,2693
parseddigitsdparsedonedigitc,2694
parseddigitsebc,2695
parseddigitsjkasdaopd,2696
parsedfivedigits,2697
parsedfourdigits,2698
parsedfourdigitsathlon,2699
parsedfourdigitsoijdf,2700
parsedfourdigitswho,2701
parsedonedigit,2702
parsedonedigitchan,2703
parsedonedigitcparseddigitsa,2704
parsedonedigitd,2705
parsedonedigitdfparsedonedigit,2706
parsedonedigitebparsedonedigit,2707
parsedonedigitgw,2708
parsedonedigitst,2709
parsedonedigitth,2710
parsedonedigitx,2711
parsedthreedigits,2712
parsedthreedigitsd,2713
parsedthreedigitsk,2714
parsedthreedigitskz,2715
parsedthreedigitslbs,2716
parsedthreedigitsmpg,2717
parsedtime,2718
parsedtwodigits,2719
parsedtwodigitsaparsedonedigit,2720
parsedtwodigitsgb,2721
parsedtwodigitsgrand,2722
parsedtwodigitsk,2723
parsedtwodigitsmillion,2724
particularly,2725
parties,2726
partisan,2727
partner,2728
partners,2729
parts,2730
party,2731
pass,2732
passed,2733
passenger,2734
passwindow,2735
password,2736
past,2737
pasteurization,2738
patent,2739
path,2740
pathetic,2741
patriot,2742
patterns,2743
paul,2744
pawn,2745
pay,2746
paygrade,2747
payment,2748
payments,2749
pc,2750
pcp,2751
peaceful,2752
peaches,2753
pearl,2754
pedantic,2755
pedobears,2756
peds,2757
peers,2758
pelosi,2759
pelt,2760
penalizes,2761
penalty,2762
penance,2763
people,2764
percent,2765
percentage,2766
percentages,2767
perception,2768
perfect,2769
perfectly,2770
performed,2771
periods,2772
permanence,2773
permissible,2774
permissions,2775
perpetuates,2776
person,2777
persona,2778
personal,2779
personality,2780
personally,2781
persons,2782
perversity,2783
pesticides,2784
pet,2785
peter,2786
pgood,2787
ph,2788
pharmaceutical,2789
phelps,2790
phenomena,2791
phone,2792
phones,2793
photo,2794
photos,2795
phrase,2796
physically,2797
pic,2798
picard,2799
pick,2800
picked,2801
picker,2802
pics,2803
picture,2804
pie,2805
piece,2806
pieces,2807
pile,2808
pills,2809
pilot,2810
pinch,2811
pink,2812
pipe,2813
pirate,2814
pissed,2815
pissing,2816
pistol,2817
pit,2818
pitcher,2819
pitchers,2820
pitches,2821
pitching,2822
place,2823
placement,2824
placing,2825
plain,2826
plan,2827
plane,2828
planet,2829
planets,2830
plants,2831
platform,2832
platformers,2833
play,2834
played,2835
player,2836
players,2837
playing,2838
plenty,2839
plug,2840
plurality,2841
plus,2842
pnac,2843
pocket,2844
pocketbook,2845
pockets,2846
point,2847
points,2848
poisoning,2849
poisonous,2850
pole,2851
poles,2852
police,2853
policies,2854
policy,2855
political,2856
politically,2857
politicians,2858
politics,2859
ponzi,2860
poor,2861
pop,2862
pope,2863
popular,2864
population,2865
pork,2866
porn,2867
portion,2868
position,2869
positions,2870
possible,2871
possibly,2872
post,2873
posted,2874
poster,2875
posters,2876
posting,2877
postponed,2878
pot,2879
potentially,2880
pounds,2881
power,2882
powerful,2883
powerplant,2884
pox,2885
practical,2886
practice,2887
practiced,2888
practicing,2889
praise,2890
pre,2891
preaching,2892
precedent,2893
precisely,2894
predators,2895
preference,2896
preferential,2897
preinstalled,2898
premise,2899
premiums,2900
preparation,2901
presence,2902
present,2903
presented,2904
preserve,2905
presidency,2906
president,2907
press,2908
presses,2909
presumably,2910
pretend,2911
pretends,2912
pretty,2913
prevent,2914
prevention,2915
previous,2916
price,2917
prices,2918
prick,2919
priest,2920
primarily,2921
print,2922
printed,2923
printing,2924
prior,2925
priority,2926
prison,2927
prisoner,2928
prisoners,2929
prisons,2930
privacy,2931
private,2932
privately,2933
privilege,2934
prize,2935
pro,2936
probability,2937
probably,2938
probed,2939
problem,2940
problems,2941
probs,2942
procedures,2943
process,2944
procreate,2945
produce,2946
produced,2947
producer,2948
product,2949
production,2950
productive,2951
products,2952
professional,2953
professionally,2954
professors,2955
profit,2956
profitable,2957
profitactually,2958
profiteer,2959
program,2960
programs,2961
progress,2962
project,2963
projects,2964
promise,2965
promised,2966
promoting,2967
promotion,2968
promptly,2969
proof,2970
prop,2971
propaganda,2972
propeller,2973
proper,2974
properly,2975
properties,2976
property,2977
proponents,2978
proportion,2979
proposed,2980
props,2981
prosecution,2982
prosecutions,2983
prosecutors,2984
prostitue,2985
prostitute,2986
protect,2987
protecting,2988
protectionism,2989
protectionist,2990
protein,2991
prove,2992
proved,2993
proven,2994
provide,2995
provided,2996
providing,2997
provision,2998
proxies,2999
proxy,3000
ps,3001
psa,3002
pseudo,3003
psn,3004
psst,3005
psuedo,3006
psych,3007
psychiatric,3008
psychiatrist,3009
psycho,3010
psychopathic,3011
public,3012
publicity,3013
publicly,3014
publishing,3015
pubs,3016
pudge,3017
pull,3018
pulled,3019
pulling,3020
punch,3021
pundits,3022
punished,3023
punishment,3024
purchases,3025
pure,3026
pursued,3027
pursuits,3028
push,3029
pushed,3030
pussy,3031
pussys,3032
puts,3033
putting,3034
puzzle,3035
pv,3036
qld,3037
qm,3038
quakeholio,3039
quality,3040
quantities,3041
quantity,3042
quantum,3043
question,3044
questioned,3045
questioning,3046
questions,3047
quick,3048
quiet,3049
quit,3050
quite,3051
qwest,3052
rabbit,3053
race,3054
racism,3055
racist,3056
radiative,3057
radical,3058
radicals,3059
raffled,3060
rafikichi,3061
raging,3062
rail,3063
raise,3064
raised,3065
raising,3066
ramen,3067
rampant,3068
ranch,3069
random,3070
range,3071
ranging,3072
ranked,3073
ranking,3074
ranting,3075
rape,3076
rapidly,3077
rarely,3078
rate,3079
rates,3080
rating,3081
rational,3082
raving,3083
ray,3084
razor,3085
reaction,3086
reactor,3087
read,3088
readable,3089
reader,3090
readers,3091
reading,3092
readjust,3093
ready,3094
real,3095
realise,3096
reality,3097
realize,3098
realized,3099
realizing,3100
really,3101
reason,3102
reasonable,3103
reasons,3104
recall,3105
receive,3106
received,3107
receiving,3108
recent,3109
recently,3110
recession,3111
recipe,3112
recognise,3113
recognize,3114
record,3115
recorded,3116
recording,3117
records,3118
recover,3119
recovery,3120
red,3121
reduce,3122
reduction,3123
reeve,3124
reference,3125
reflected,3126
refreshing,3127
refused,3128
refuses,3129
regard,3130
regarding,3131
regardless,3132
regimes,3133
regret,3134
regular,3135
regulation,3136
rehabilitation,3137
reilly,3138
reinstate,3139
reinvestment,3140
rejected,3141
relationship,3142
relatively,3143
release,3144
released,3145
releases,3146
relegated,3147
relevant,3148
relics,3149
relief,3150
religion,3151
religions,3152
religious,3153
reloading,3154
remained,3155
remains,3156
remember,3157
reminded,3158
remorse,3159
removal,3160
remove,3161
removed,3162
render,3163
rendition,3164
renegotiate,3165
renovate,3166
renovating,3167
renovation,3168
renovations,3169
rent,3170
repair,3171
repeal,3172
repealed,3173
repeat,3174
repeatedly,3175
replace,3176
replenished,3177
reported,3178
reporters,3179
reports,3180
repost,3181
represent,3182
representation,3183
represents,3184
reproach,3185
reptilians,3186
republic,3187
republican,3188
republicans,3189
republicrats,3190
republithug,3191
requests,3192
require,3193
required,3194
requires,3195
rescue,3196
research,3197
reserved,3198
resin,3199
resort,3200
resource,3201
resources,3202
respect,3203
responding,3204
response,3205
responsible,3206
rest,3207
restoration,3208
restoring,3209
restriction,3210
result,3211
results,3212
retard,3213
retarded,3214
retire,3215
retrace,3216
retribution,3217
return,3218
revealing,3219
revenge,3220
revenues,3221
reversing,3222
review,3223
reviewer,3224
revolt,3225
revolution,3226
riaa,3227
rib,3228
rich,3229
rick,3230
rid,3231
ridden,3232
ridiculous,3233
rifle,3234
rifles,3235
rig,3236
right,3237
rights,3238
riled,3239
rino,3240
rinse,3241
ripp,3242
rips,3243
rise,3244
risks,3245
rivals,3246
roaches,3247
road,3248
roar,3249
robbots,3250
robbottodays,3251
robert,3252
robocop,3253
robotfindskitten,3254
robots,3255
rochester,3256
rock,3257
rocks,3258
rodriguez,3259
roid,3260
role,3261
roll,3262
romance,3263
ron,3264
ronald,3265
room,3266
root,3267
rope,3268
rose,3269
rotate,3270
roughly,3271
round,3272
roundup,3273
royalties,3274
rss,3275
rufies,3276
ruined,3277
rule,3278
rulers,3279
rules,3280
run,3281
runners,3282
running,3283
runs,3284
rush,3285
rushycontin,3286
russian,3287
ryan,3288
sacrifice,3289
sad,3290
sadly,3291
safari,3292
safe,3293
safely,3294
safety,3295
sahfaaari,3296
said,3297
sake,3298
salaries,3299
sales,3300
salt,3301
sand,3302
sandiego,3303
sarcasm,3304
sarcasmi,3305
sarcastic,3306
sat,3307
satellite,3308
satisfy,3309
saudi,3310
save,3311
saving,3312
saw,3313
say,3314
sayglobal,3315
saying,3316
sayings,3317
says,3318
scale,3319
scandal,3320
scandinavia,3321
scarce,3322
scares,3323
scenario,3324
scene,3325
sceptical,3326
scheme,3327
schiff,3328
scholar,3329
school,3330
schoolgirl,3331
schoolgirls,3332
schools,3333
science,3334
scientifically,3335
scientists,3336
scott,3337
screen,3338
screw,3339
scroll,3340
scumbag,3341
sea,3342
search,3343
searched,3344
season,3345
seat,3346
seated,3347
sec,3348
secessionist,3349
second,3350
secondly,3351
seconds,3352
secrecy,3353
secret,3354
secretary,3355
secrets,3356
sect,3357
sectarian,3358
section,3359
sector,3360
secure,3361
secured,3362
security,3363
seeing,3364
seen,3365
seinfeld,3366
seized,3367
selected,3368
selection,3369
self,3370
selfish,3371
sell,3372
sellers,3373
selling,3374
sells,3375
semi,3376
send,3377
senior,3378
sense,3379
sensible,3380
sensitivity,3381
sentence,3382
sentencing,3383
sentience,3384
serendipitous,3385
seriously,3386
served,3387
server,3388
servers,3389
service,3390
services,3391
set,3392
setting,3393
settings,3394
seven,3395
seventy,3396
severe,3397
sewer,3398
sex,3399
sexual,3400
sexy,3401
sh,3402
shacknews,3403
shadows,3404
shady,3405
shall,3406
shame,3407
shaq,3408
share,3409
shared,3410
sharers,3411
shares,3412
sharing,3413
sharp,3414
sharpton,3415
sheep,3416
sheesh,3417
sheik,3418
shift,3419
shiny,3420
shit,3421
shitty,3422
shock,3423
shocking,3424
shoot,3425
shooting,3426
shoots,3427
shops,3428
short,3429
shortfall,3430
shot,3431
shotgun,3432
shoulders,3433
shouldn,3434
shout,3435
shouted,3436
shouts,3437
shove,3438
shoved,3439
showed,3440
showing,3441
shows,3442
shparsedonedigitts,3443
shrek,3444
shugashack,3445
shut,3446
shuttle,3447
sibel,3448
sick,3449
sickness,3450
sides,3451
sideswiped,3452
sift,3453
sign,3454
signed,3455
significance,3456
significant,3457
significantly,3458
silence,3459
silly,3460
silver,3461
silverlight,3462
similar,3463
simple,3464
simply,3465
simpson,3466
sincerely,3467
singing,3468
single,3469
sink,3470
sir,3471
sirius,3472
site,3473
sites,3474
size,3475
skeptical,3476
skews,3477
skittlesusamarket,3478
slammed,3479
slap,3480
slave,3481
slavery,3482
sleep,3483
sleeves,3484
slice,3485
slideshows,3486
slightest,3487
slinging,3488
slipped,3489
slow,3490
slumdog,3491
slums,3492
small,3493
smallest,3494
smart,3495
smashing,3496
smells,3497
smile,3498
smithsonian,3499
smoke,3500
smoked,3501
smoking,3502
snake,3503
snakes,3504
snap,3505
sniper,3506
snobby,3507
snoopy,3508
social,3509
socialblade,3510
socialism,3511
socialist,3512
socially,3513
society,3514
sociopath,3515
socks,3516
sodade,3517
software,3518
solar,3519
sold,3520
soldiers,3521
solid,3522
solution,3523
solved,3524
somebody,3525
someplace,3526
somethin,3527
somewhat,3528
sone,3529
song,3530
songs,3531
sony,3532
soon,3533
sooner,3534
sooni,3535
sooo,3536
soooo,3537
sore,3538
sorry,3539
sort,3540
sorts,3541
sosa,3542
soul,3543
sound,3544
sounds,3545
soundtrack,3546
source,3547
sourced,3548
sources,3549
south,3550
southern,3551
sowell,3552
space,3553
spam,3554
spamming,3555
spar,3556
spc,3557
speak,3558
speaking,3559
speaks,3560
special,3561
specialized,3562
specif,3563
specific,3564
specifically,3565
speech,3566
speed,3567
speedo,3568
spell,3569
spending,3570
spends,3571
spent,3572
spewing,3573
spikes,3574
spite,3575
splicing,3576
split,3577
splitting,3578
spoiler,3579
spoils,3580
spoofed,3581
sport,3582
spread,3583
spreading,3584
spyware,3585
sqeaking,3586
squad,3587
squeezing,3588
squirrel,3589
st,3590
stadiums,3591
staff,3592
stage,3593
stagflation,3594
stand,3595
standard,3596
standards,3597
standing,3598
standpoint,3599
stands,3600
stapp,3601
star,3602
stare,3603
start,3604
started,3605
starting,3606
starts,3607
starve,3608
starving,3609
stashed,3610
state,3611
statement,3612
staters,3613
states,3614
static,3615
station,3616
statistically,3617
status,3618
stay,3619
stays,3620
stds,3621
steal,3622
stealing,3623
stearns,3624
steel,3625
steger,3626
step,3627
steps,3628
stereotype,3629
stern,3630
steve,3631
steven,3632
stick,3633
sticking,3634
stifled,3635
stimulates,3636
stimulus,3637
stinger,3638
stock,3639
stoner,3640
stones,3641
stood,3642
stop,3643
stopped,3644
store,3645
stored,3646
stores,3647
stories,3648
story,3649
straight,3650
strains,3651
strange,3652
strap,3653
streaming,3654
street,3655
streetaddress,3656
streets,3657
strictly,3658
strike,3659
strikes,3660
string,3661
stripper,3662
strippers,3663
strong,3664
stronger,3665
strparsedonedigitfehe,3666
structure,3667
stuck,3668
student,3669
students,3670
studied,3671
studies,3672
study,3673
stuff,3674
stupid,3675
stupidest,3676
style,3677
subconscious,3678
submission,3679
submissions,3680
submit,3681
submitted,3682
subs,3683
subsidies,3684
subsidise,3685
subsidy,3686
substantial,3687
substantially,3688
substitute,3689
subsumed,3690
subterranean,3691
subtleties,3692
subway,3693
success,3694
successful,3695
suck,3696
sucked,3697
sucking,3698
sucks,3699
sudden,3700
suddenly,3701
suffer,3702
suffered,3703
suggest,3704
suggestion,3705
suggests,3706
suicidal,3707
suicide,3708
suleman,3709
sulphur,3710
sum,3711
summed,3712
summer,3713
super,3714
superior,3715
superman,3716
supply,3717
support,3718
supported,3719
supporter,3720
supporters,3721
supports,3722
suppose,3723
supposed,3724
supposedly,3725
suppress,3726
sure,3727
surely,3728
surfaces,3729
surpass,3730
surprise,3731
surprised,3732
surprises,3733
surrender,3734
surrounded,3735
surveying,3736
suspect,3737
suspense,3738
swap,3739
swat,3740
swear,3741
sweat,3742
swim,3743
swinging,3744
swollen,3745
sync,3746
systems,3747
tab,3748
table,3749
tactics,3750
taken,3751
takes,3752
taking,3753
tale,3754
talent,3755
talk,3756
talked,3757
talking,3758
talks,3759
tank,3760
tanning,3761
tanukiparsedonedigiteven,3762
tape,3763
tapes,3764
target,3765
targets,3766
tasteless,3767
tax,3768
taxation,3769
taxes,3770
tbh,3771
teachers,3772
teaches,3773
teaching,3774
teams,3775
technique,3776
technology,3777
techs,3778
tekhpoynt,3779
television,3780
tell,3781
tellin,3782
telling,3783
tells,3784
temperatures,3785
tempered,3786
temporarily,3787
tendencies,3788
tends,3789
tens,3790
term,3791
terminal,3792
terms,3793
terrible,3794
terroist,3795
terrorism,3796
terrorist,3797
test,3798
testimony,3799
tests,3800
texas,3801
text,3802
texting,3803
tham,3804
thank,3805
thanks,3806
thanparsedfourdigits,3807
thanx,3808
thats,3809
theater,3810
theaters,3811
theft,3812
theirs,3813
theory,3814
therefor,3815
theres,3816
thet,3817
theyll,3818
thing,3819
things,3820
think,3821
thinking,3822
thinks,3823
thirds,3824
thirsty,3825
thomas,3826
thorazine,3827
thought,3828
thoughts,3829
thousand,3830
thousands,3831
thread,3832
threat,3833
threatened,3834
threatening,3835
threatens,3836
throw,3837
throwing,3838
thunder,3839
thunderbird,3840
tibetans,3841
tickets,3842
tie,3843
tigers,3844
tight,3845
time,3846
times,3847
timing,3848
tip,3849
tired,3850
titanic,3851
title,3852
today,3853
toilet,3854
told,3855
tolerate,3856
tonnes,3857
took,3858
tor,3859
torn,3860
torrent,3861
torture,3862
torturing,3863
totally,3864
touchdown,3865
touched,3866
touching,3867
tough,3868
town,3869
toys,3870
tpb,3871
trace,3872
traced,3873
track,3874
tractors,3875
trading,3876
traditionally,3877
traffic,3878
tragic,3879
trailer,3880
trained,3881
training,3882
trains,3883
trans,3884
transition,3885
translated,3886
transportation,3887
transsexual,3888
trap,3889
trappings,3890
trash,3891
travesty,3892
treasury,3893
treat,3894
treated,3895
treatment,3896
treatments,3897
treaty,3898
trial,3899
trials,3900
tries,3901
trillion,3902
trolls,3903
tropic,3904
trouble,3905
truck,3906
true,3907
truly,3908
trunk,3909
trust,3910
truth,3911
truths,3912
try,3913
trying,3914
ts,3915
tty,3916
tubatechno,3917
tucker,3918
tune,3919
turbines,3920
turd,3921
turf,3922
turk,3923
turn,3924
turned,3925
turning,3926
tv,3927
twice,3928
twisted,3929
twitter,3930
type,3931
types,3932
typical,3933
typing,3934
tyrants,3935
ugly,3936
uhbama,3937
ultimately,3938
um,3939
umm,3940
unbelievable,3941
undead,3942
undercover,3943
undergrad,3944
undermines,3945
understand,3946
understandable,3947
understanding,3948
understood,3949
underway,3950
undistorted,3951
undoubtedly,3952
unemployed,3953
unfortunately,3954
unhappy,3955
unhealthy,3956
uni,3957
uniform,3958
unintended,3959
unique,3960
unite,3961
united,3962
universal,3963
universe,3964
university,3965
unjust,3966
unknown,3967
unless,3968
unlike,3969
unlucky,3970
unmannedmissionhope,3971
unrelatedgold,3972
unstated,3973
untie,3974
update,3975
updates,3976
upgrade,3977
upheld,3978
uphill,3979
uploading,3980
upper,3981
ups,3982
upscale,3983
uptick,3984
urban,3985
urge,3986
usa,3987
usage,3988
use,3989
used,3990
useful,3991
useless,3992
user,3993
username,3994
users,3995
uses,3996
using,3997
usps,3998
usual,3999
usually,4000
utilizing,4001
utorrent,4002
vacation,4003
vader,4004
vague,4005
valentine,4006
valid,4007
value,4008
valued,4009
values,4010
vampires,4011
vandalism,4012
variety,4013
vase,4014
vast,4015
vastly,4016
ve,4017
vegas,4018
vehicle,4019
vehicles,4020
velocity,4021
vending,4022
venomous,4023
verizon,4024
version,4025
versus,4026
vespertine,4027
veterans,4028
vhs,4029
vibrant,4030
vibrating,4031
vicious,4032
victim,4033
victims,4034
victoria,4035
video,4036
view,4037
viewer,4038
vigor,4039
vinegar,4040
violent,4041
virtual,4042
virtually,4043
virus,4044
visible,4045
visit,4046
visiting,4047
vista,4048
vitro,4049
voice,4050
volunteering,4051
vote,4052
voted,4053
voters,4054
vw,4055
vying,4056
wade,4057
wait,4058
waiting,4059
wake,4060
walk,4061
walking,4062
wallpaper,4063
walls,4064
walmart,4065
wanna,4066
wannabes,4067
want,4068
wanted,4069
wanting,4070
wants,4071
war,4072
warming,4073
warning,4074
warrant,4075
warrants,4076
wars,4077
washington,4078
wasn,4079
waste,4080
wasted,4081
wasting,4082
watch,4083
watched,4084
watchin,4085
watching,4086
watermelons,4087
watershed,4088
wave,4089
way,4090
ways,4091
wazoo,4092
weak,4093
wealth,4094
weapons,4095
wear,4096
wears,4097
web,4098
webdesigners,4099
webkit,4100
webscriptions,4101
website,4102
websites,4103
weed,4104
week,4105
weekend,4106
weeks,4107
weighing,4108
weight,4109
weinbergnot,4110
weird,4111
welcome,4112
welcoming,4113
welfare,4114
went,4115
weren,4116
west,4117
western,4118
whaaa,4119
whaaaa,4120
whacks,4121
whats,4122
whatsoever,4123
whatwe,4124
wheels,4125
whilst,4126
whiners,4127
whining,4128
whipped,4129
white,4130
whiteness,4131
whomever,4132
whyve,4133
wicked,4134
wide,4135
widely,4136
wife,4137
wifi,4138
wii,4139
wiki,4140
wikipedia,4141
wild,4142
wildland,4143
wildlife,4144
willing,4145
win,4146
wind,4147
winded,4148
windows,4149
windowsuntil,4150
windy,4151
wine,4152
winge,4153
wings,4154
winmo,4155
winner,4156
winning,4157
winslet,4158
wipe,4159
wiretapping,4160
wish,4161
wishing,4162
witch,4163
withdrew,4164
withholds,4165
withot,4166
withstand,4167
woh,4168
wolfowitz,4169
woman,4170
women,4171
won,4172
wonder,4173
wonderful,4174
wondering,4175
wont,4176
woo,4177
wood,4178
woooooo,4179
word,4180
wording,4181
words,4182
wore,4183
work,4184
worked,4185
working,4186
workplace,4187
works,4188
world,4189
worlds,4190
worried,4191
worries,4192
worrisome,4193
worry,4194
worse,4195
worship,4196
worst,4197
worth,4198
worthy,4199
wouldn,4200
wounds,4201
wow,4202
woz,4203
wparsedonedigit,4204
wrist,4205
write,4206
writer,4207
writers,4208
writers_guild_of,4209
written,4210
wrong,4211
wsads,4212
wtf,4213
wwe,4214
xbox,4215
xkcd,4216
xm,4217
xp,4218
xparsedonedigit,4219
xparsedthreedigits,4220
xvid,4221
xvparsedfourdigits,4222
ya,4223
yahtzee,4224
yankees,4225
yapping,4226
yeah,4227
year,4228
years,4229
yeast,4230
yeeeeeahhhh,4231
yelling,4232
yen,4233
yep,4234
yes,4235
yessss,4236
yesterday,4237
york,4238
young,4239
youre,4240
youth,4241
zendezparsedonedigit,4242
zero,4243
zip,4244
zipline,4245
zog,4246
zombie,4247
zombies,4248
zoned,4249
zoo,4250
