ability,0
able,1
about,2
abreu,3
absence,4
absolutely,5
absurd,6
accepted,7
accidents,8
across,9
act,10
action,11
activist,12
acts,13
actual,14
actually,15
acute,16
adapts,17
added,18
addiction,19
address,20
addresses,21
adhere,22
ado,23
advancement,24
advantage,25
advocate,26
affairs,27
affordable,28
afghanistan,29
after,30
again,31
against,32
age,33
ago,34
agony,35
agree,36
agricultural,37
aime,38
akyol,39
al,40
alien,41
alive,42
all,43
allen,44
allow,45
allowing,46
almost,47
alone,48
along,49
alongg,50
also,51
alternative,52
although,53
always,54
am,55
amazing,56
american,57
americans,58
amount,59
amp,60
an,61
analogy,62
analyze,63
and,64
ann,65
another,66
answer,67
answers,68
antonio,69
any,70
anyone,71
anything,72
apes,73
apocalypse,74
appears,75
applaud,76
architect,77
are,78
area,79
areas,80
aren,81
argument,82
ariely,83
army,84
around,85
arrive,86
art,87
articulated,88
artist,89
as,90
aside,91
ask,92
aspect,93
ass,94
assertion,95
assistance,96
astute,97
at,98
atoms,99
att,100
attached,101
attempt,102
attendant,103
attitude,104
autonomy,105
avoided,106
avoids,107
awaken,108
aware,109
away,110
awesome,111
awhile,112
baby,113
back,114
bad,115
bajo,116
barber,117
based,118
basic,119
be,120
beautiful,121
because,122
become,123
becomes,124
beef,125
been,126
before,127
begging,128
begins,129
behavior,130
behavioral,131
behaviours,132
being,133
beings,134
belief,135
beliefs,136
believe,137
bell,138
belongs,139
best,140
better,141
between,142
beyond,143
bias,144
bible,145
big,146
bigg,147
biggest,148
bill,149
billions,150
binding,151
biodiversity,152
bit,153
bjorn,154
blackmore,155
blanket,156
bless,157
blessing,158
blind,159
blocking,160
blog,161
blogspot,162
bodies,163
body,164
book,165
bored,166
born,167
bosses,168
bostrom,169
bothered,170
boundaries,171
brain,172
briefly,173
bright,174
brilliant,175
bringing,176
brutal,177
brutally,178
build,179
burdoning,180
business,181
businesses,182
but,183
buy,184
buying,185
by,186
calculation,187
california,188
call,189
came,190
campaign,191
campbell,192
can,193
cancer,194
cannon,195
canot,196
capital,197
car,198
carbon,199
carr,200
catch,201
cause,202
causing,203
cello,204
century,205
cfr,206
chair,207
change,208
changed,209
changing,210
cheat,211
check,212
chery,213
children,214
childrenn,215
chinese,216
choice,217
chris,218
christina,219
chronic,220
cierta,221
circumstances,222
city,223
civil,224
claim,225
clarified,226
clases,227
clasism,228
class,229
classes,230
clear,231
climate,232
clinical,233
close,234
closely,235
clothing,236
clue,237
clumsy,238
co,239
cohesion,240
colbert,241
collapse,242
com,243
come,244
comes,245
comforts,246
comical,247
command,248
comment,249
commenting,250
commercially,251
common,252
communication,253
communities,254
community,255
companions,256
compare,257
compensation,258
compete,259
complain,260
complejas,261
complete,262
completely,263
complex,264
comprehend,265
computer,266
concept,267
concert,268
concluded,269
conclusion,270
condition,271
conducted,272
confirm,273
confirmation,274
confusion,275
connected,276
connection,277
conscience,278
consciousness,279
conservatives,280
considered,281
consistently,282
conspiracy,283
constantly,284
construct,285
continue,286
contradiction,287
contradictions,288
contribute,289
control,290
cooked,291
cool,292
copied,293
core,294
corpus,295
corrupt,296
corruption,297
costo,298
costs,299
could,300
counter,301
countles,302
countries,303
country,304
countrymen,305
couple,306
course,307
covert,308
craftsman,309
create,310
created,311
creating,312
creations,313
creative,314
creator,315
creators,316
crops,317
crosses,318
cual,319
cuba,320
curiosity,321
current,322
customers,323
dad,324
damage,325
damaging,326
dan,327
dancers,328
dancing,329
dangers,330
daniel,331
dare,332
data,333
david,334
davos,335
dawkins,336
day,337
dd,338
de,339
deaf,340
deal,341
dear,342
death,343
debate,344
december,345
decent,346
decision,347
decrease,348
deed,349
deeper,350
default,351
definitely,352
deliver,353
demanded,354
demean,355
democratic,356
denied,357
depressed,358
deprived,359
derivatives,360
descent,361
descisions,362
describe,363
descriptions,364
design,365
designed,366
despite,367
determination,368
detroit,369
devastating,370
develop,371
development,372
device,373
dewan,374
did,375
died,376
diet,377
dietary,378
different,379
differentiation,380
differently,381
differing,382
digital,383
dilution,384
dims,385
dinero,386
direction,387
discipline,388
discourse,389
discovered,390
discs,391
discuss,392
discussed,393
discusses,394
diseases,395
disgraceful,396
disprove,397
disturbing,398
do,399
does,400
doesn,401
doing,402
dollar,403
dollars,404
dominating,405
don,406
done,407
down,408
drive,409
driving,410
dubious,411
due,412
dumbing,413
dumped,414
duplicates,415
dutch,416
each,417
eacute,418
earlier,419
ears,420
easier,421
easy,422
eat,423
eccentricities,424
echo,425
economic,426
economist,427
educate,428
educated,429
education,430
effectively,431
effectiveness,432
efficient,433
either,434
elderly,435
elephant,436
eliminated,437
elites,438
eloquent,439
embargo,440
embrace,441
emiliano,442
emotional,443
empathy,444
empowering,445
en,446
encourage,447
encouraged,448
end,449
endorse,450
ends,451
energy,452
engine,453
enough,454
enslavement,455
ensure,456
enterprise,457
environmental,458
epic,459
epistemology,460
equally,461
equate,462
equipment,463
ero,464
es,465
escazos,466
eso,467
especially,468
est,469
este,470
etc,471
ethical,472
euclidean,473
euphoria,474
europe,475
even,476
event,477
events,478
eventually,479
ever,480
every,481
everyone,482
everything,483
evolution,484
evolutionist,485
evolutionn,486
evolved,487
evqparsedonedigitwnvtcparsedonedigitm,488
example,489
examples,490
excellent,491
exchanging,492
excited,493
exercise,494
existed,495
existen,496
existence,497
expansiveness,498
experience,499
experiences,500
experiencing,501
experiment,502
experinces,503
explains,504
explored,505
express,506
expressed,507
extra,508
extraordinary,509
extremely,510
face,511
fact,512
fail,513
faiths,514
fall,515
fallacies,516
fallen,517
falsifiable,518
family,519
famous,520
fancy,521
fantastic,522
far,523
fascinating,524
fat,525
fatter,526
fault,527
fears,528
feature,529
features,530
feed,531
feel,532
feeling,533
feldman,534
felix,535
felt,536
femininity,537
feminist,538
fertility,539
few,540
fight,541
final,542
find,543
finding,544
findings,545
fine,546
first,547
fit,548
fix,549
floating,550
flu,551
fluctuations,552
focus,553
focused,554
focusing,555
follow,556
followed,557
following,558
food,559
footprint,560
for,561
force,562
forgets,563
form,564
forma,565
formed,566
fortification,567
forward,568
fossil,569
found,570
free,571
freedom,572
friends,573
from,574
frustrations,575
fuels,576
full,577
functional,578
fundamentalisms,579
fundamentals,580
further,581
future,582
gallon,583
garbage,584
gas,585
gasoline,586
gauge,587
gay,588
generates,589
generation,590
genius,591
geof,592
geometry,593
germans,594
get,595
getting,596
gilbert,597
gilgamesh,598
girl,599
give,600
given,601
gives,602
giving,603
global,604
globall,605
glorified,606
glue,607
gm,608
go,609
god,610
goglemapsapi,611
going,612
gold,613
good,614
goree,615
got,616
gotten,617
governing,618
government,619
governments,620
gps,621
grand,622
great,623
greater,624
greatest,625
green,626
gregariousness,627
grew,628
grips,629
grow,630
gt,631
guarantee,632
guess,633
guide,634
guitar,635
guy,636
guys,637
had,638
hagovers,639
haidt,640
hall,641
hand,642
handcuffed,643
handicapped,644
handling,645
happen,646
happening,647
happiness,648
happy,649
hapy,650
hard,651
has,652
hate,653
hated,654
have,655
haven,656
having,657
he,658
heading,659
headlines,660
heads,661
healthy,662
heart,663
heed,664
helip,665
hell,666
help,667
helped,668
helping,669
her,670
here,671
hero,672
hidden,673
high,674
highly,675
hilarious,676
him,677
his,678
historical,679
history,680
hit,681
hold,682
honest,683
hook,684
hope,685
hopefully,686
horrible,687
horrifying,688
hours,689
house,690
how,691
however,692
html,693
htp,694
huge,695
human,696
humane,697
humanity,698
humble,699
humor,700
hunting,701
ib,702
idea,703
ideals,704
ideas,705
ideological,706
ideologues,707
if,708
ignorance,709
ignore,710
ignoringg,711
ii,712
illusion,713
imersive,714
impact,715
implica,716
implications,717
impolite,718
importantly,719
impossible,720
in,721
inaccessible,722
incidences,723
included,724
includes,725
incomes,726
incomprehensible,727
incorporation,728
increase,729
indexes,730
india,731
industry,732
inevitable,733
info,734
information,735
informed,736
informs,737
ingang,738
ingenious,739
ingrained,740
injustice,741
innovation,742
insanity,743
inside,744
inspire,745
inspiring,746
instead,747
institutionalised,748
intelligent,749
intention,750
intentionalityy,751
interacting,752
interaction,753
interconnected,754
interesteding,755
interesting,756
international,757
internet,758
interpreted,759
interview,760
interviews,761
into,762
introduce,763
introduction,764
introdues,765
introverted,766
intrusion,767
intuitive,768
invade,769
inventor,770
investigation,771
invited,772
involves,773
iq,774
iraqi,775
irrational,776
is,777
islam,778
islamicc,779
island,780
isn,781
isnt,782
isolating,783
israel,784
issue,785
issues,786
issuing,787
it,788
its,789
iwould,790
japan,791
japanese,792
jil,793
job,794
join,795
jon,796
jones,797
jos,798
just,799
kaba,800
keep,801
ken,802
killing,803
kind,804
klein,805
knocked,806
know,807
knowledge,808
knows,809
korea,810
lacking,811
large,812
las,813
last,814
lastly,815
lastt,816
latching,817
late,818
law,819
ldquo,820
leacture,821
lead,822
leads,823
learn,824
learned,825
learning,826
least,827
lecture,828
leeuwenhoek,829
left,830
legalized,831
legitimal,832
legitimize,833
less,834
level,835
licenses,836
lie,837
lies,838
life,839
lifestyle,840
light,841
lights,842
like,843
likely,844
lint,845
list,846
listening,847
little,848
live,849
lived,850
lives,851
living,852
lo,853
local,854
lol,855
long,856
longer,857
look,858
looking,859
looks,860
losing,861
loss,862
lost,863
lot,864
lots,865
love,866
machine,867
macroevolution,868
made,869
magic,870
magnetic,871
maher,872
main,873
mainstream,874
maintain,875
major,876
majority,877
make,878
makes,879
making,880
man,881
managing,882
manipulate,883
manipulation,884
mankind,885
manufacture,886
many,887
map,888
marketer,889
masculinity,890
masses,891
materials,892
math,893
may,894
mdash,895
me,896
mean,897
meaning,898
means,899
meant,900
mechanisms,901
media,902
medicinal,903
medicine,904
meetings,905
memes,906
memetics,907
men,908
mention,909
mentioned,910
mentioning,911
mentions,912
mere,913
message,914
met,915
methodical,916
mexican,917
mgvkvkmbrparsedonedigita,918
microbes,919
microsoft,920
micrososft,921
microwave,922
might,923
mild,924
mileage,925
military,926
minds,927
mini,928
minimal,929
mirror,930
misandry,931
misled,932
misrepresented,933
missed,934
mit,935
model,936
modern,937
moment,938
money,939
monkeys,940
moon,941
morality,942
more,943
mosher,944
most,945
mostly,946
mother,947
motivations,948
moved,949
movie,950
moving,951
mpparsedonedigit,952
mr,953
much,954
muchas,955
muhamed,956
murderer,957
mushroom,958
mushrooms,959
music,960
muslims,961
mustafe,962
my,963
mycelium,964
myself,965
mystical,966
myth,967
name,968
nanking,969
nation,970
natural,971
nature,972
need,973
needed,974
needs,975
negative,976
neighbors,977
network,978
neuroscience,979
never,980
new,981
newly,982
newnham,983
news,984
newspapers,985
nice,986
nick,987
nightmares,988
no,989
noah,990
nobody,991
not,992
note,993
notes,994
now,995
nuclear,996
number,997
numbers,998
nutrient,999
nz,1000
obedience,1001
objects,1002
observation,1003
obvious,1004
obviously,1005
occupation,1006
ocean,1007
of,1008
off,1009
offended,1010
offer,1011
often,1012
oh,1013
ohio,1014
oil,1015
oils,1016
old,1017
on,1018
one,1019
ones,1020
only,1021
onto,1022
open,1023
openly,1024
opinion,1025
opposite,1026
oppression,1027
option,1028
or,1029
orbital,1030
order,1031
organizations,1032
orientado,1033
other,1034
others,1035
otherwise,1036
our,1037
ourselves,1038
out,1039
outcome,1040
outlets,1041
over,1042
overwhelm,1043
own,1044
owned,1045
pace,1046
pacifier,1047
page,1048
pain,1049
pandemic,1050
paradigm,1051
paradox,1052
paraphrasing,1053
parody,1054
parsedfourdigits,1055
parsedonedigit,1056
parsedonedigitd,1057
parsedthreedigits,1058
parsedthreedigitsp,1059
parsedtwodigits,1060
parsedtwodigitsth,1061
part,1062
partially,1063
particles,1064
partner,1065
passed,1066
passion,1067
passionate,1068
path,1069
paths,1070
patience,1071
payback,1072
paying,1073
pc,1074
peace,1075
pedophiles,1076
peeve,1077
pensamos,1078
people,1079
peoples,1080
percussivee,1081
perfect,1082
perfectly,1083
performance,1084
perhaps,1085
periods,1086
permissible,1087
permiten,1088
permits,1089
person,1090
personally,1091
perversion,1092
pet,1093
philosophy,1094
phone,1095
phrase,1096
picking,1097
piece,1098
pillars,1099
pink,1100
pinker,1101
plagued,1102
plain,1103
plant,1104
plants,1105
plastic,1106
plastics,1107
play,1108
player,1109
player_embeded,1110
playing,1111
please,1112
point,1113
pointed,1114
pointless,1115
points,1116
police,1117
political,1118
pontification,1119
poor,1120
portal,1121
porter,1122
poses,1123
positive,1124
possible,1125
possibly,1126
post,1127
postsecret,1128
povertyy,1129
power,1130
powers,1131
preaching,1132
precise,1133
predictablyy,1134
pregnant,1135
presented,1136
pressing,1137
pretty,1138
prevent,1139
pricing,1140
pride,1141
priorities,1142
privacy,1143
privilege,1144
pro,1145
probably,1146
probing,1147
problem,1148
problema,1149
problems,1150
proceed,1151
process,1152
produce,1153
produces,1154
products,1155
professionals,1156
professor,1157
profit,1158
profitable,1159
profits,1160
program,1161
progress,1162
project,1163
projects,1164
promise,1165
promote,1166
properties,1167
prophet,1168
proportion,1169
proportionate,1170
protect,1171
prove,1172
proved,1173
proven,1174
provide,1175
providers,1176
providing,1177
provoking,1178
ps,1179
psychology,1180
public,1181
publish,1182
purity,1183
purpose,1184
put,1185
puzzle,1186
quality,1187
quantity,1188
que,1189
question,1190
quiet,1191
quit,1192
quite,1193
quo,1194
race,1195
radio,1196
rahul,1197
raise,1198
rapid,1199
rarely,1200
rate,1201
rather,1202
ratio,1203
ravaged,1204
rdquo,1205
re,1206
reach,1207
reached,1208
read,1209
ready,1210
real,1211
reality,1212
realize,1213
really,1214
reap,1215
reasearch,1216
reason,1217
received,1218
recently,1219
recognize,1220
recommendations,1221
recursos,1222
recycling,1223
reduction,1224
referring,1225
refers,1226
regardless,1227
regards,1228
reign,1229
reject,1230
reliance,1231
religion,1232
religions,1233
religious,1234
remember,1235
reminds,1236
reminiscence,1237
report,1238
reproducible,1239
requesting,1240
requirements,1241
reserved,1242
residents,1243
resilience,1244
resource,1245
resources,1246
responses,1247
responsibility,1248
rest,1249
resultados,1250
return,1251
revealed,1252
revelation,1253
revenue,1254
revolution,1255
rich,1256
richard,1257
rifles,1258
right,1259
righteous,1260
rigid,1261
rigorous,1262
ring,1263
risk,1264
robinson,1265
role,1266
room,1267
root,1268
roots,1269
routs,1270
rsquo,1271
ruling,1272
run,1273
running,1274
sacrifice,1275
sad,1276
sadam,1277
sadlyy,1278
safe,1279
said,1280
salary,1281
sale,1282
same,1283
satelites,1284
saturday,1285
saves,1286
saw,1287
say,1288
saying,1289
scale,1290
scenarios,1291
schedule,1292
schizophrenia,1293
school,1294
science,1295
scientific,1296
screwed,1297
screwing,1298
sea,1299
search,1300
searches,1301
seasonal,1302
secret,1303
secrete,1304
security,1305
see,1306
seem,1307
seemingly,1308
seems,1309
seen,1310
sees,1311
selection,1312
self,1313
selling,1314
sending,1315
sense,1316
senses,1317
sensing,1318
sentence,1319
seriously,1320
set,1321
setting,1322
several,1323
shamelessly,1324
share,1325
shared,1326
shares,1327
sharing,1328
she,1329
short,1330
shortened,1331
should,1332
show,1333
shown,1334
shows,1335
shrine,1336
shrouded,1337
shut,1338
sickened,1339
sicker,1340
siempre,1341
significance,1342
significant,1343
similar,1344
similares,1345
simples,1346
simply,1347
sin,1348
since,1349
single,1350
sir,1351
sit,1352
size,1353
sky,1354
slavery,1355
sleep,1356
sleepy,1357
smart,1358
smile,1359
smiled,1360
sniping,1361
so,1362
social,1363
society,1364
software,1365
solar,1366
sole,1367
soluciones,1368
solving,1369
some,1370
someone,1371
something,1372
sometimes,1373
son,1374
sorry,1375
sort,1376
sought,1377
sound,1378
sounds,1379
source,1380
sowing,1381
spare,1382
speak,1383
speaker,1384
specific,1385
specter,1386
speech,1387
spent,1388
spiderman,1389
spike,1390
spirituality,1391
sponsers,1392
spread,1393
springtime,1394
squeezing,1395
ss,1396
stability,1397
staffs,1398
stage,1399
stand,1400
standard,1401
start,1402
started,1403
starts,1404
state,1405
stated,1406
stations,1407
statistics,1408
status,1409
staying,1410
step,1411
stephen,1412
stereotype,1413
steroids,1414
steve,1415
stewart,1416
sticky,1417
still,1418
stole,1419
stop,1420
stopped,1421
stories,1422
street,1423
stringss,1424
stronger,1425
struck,1426
structure,1427
structures,1428
student,1429
students,1430
studied,1431
study,1432
stuff,1433
stuffs,1434
stumble,1435
style,1436
styrofoam,1437
subject,1438
substitutes,1439
successfully,1440
succumbing,1441
such,1442
suck,1443
suffering,1444
suggest,1445
suggests,1446
suicided,1447
support,1448
suppose,1449
supposed,1450
sure,1451
surprising,1452
surprisingly,1453
surroundings,1454
susan,1455
suspect,1456
swept,1457
synthesizer,1458
system,1459
sytems,1460
taboo,1461
tack,1462
take,1463
taking,1464
talented,1465
taliban,1466
talk,1467
talking,1468
tank,1469
teach,1470
teacher,1471
teachers,1472
teaching,1473
tearing,1474
techniques,1475
technology,1476
ted,1477
telecom,1478
tell,1479
term,1480
tern,1481
terrorism,1482
testimony,1483
thailand,1484
than,1485
thank,1486
thanks,1487
that,1488
thats,1489
the,1490
their,1491
them,1492
themselves,1493
then,1494
theories,1495
theory,1496
there,1497
thereby,1498
these,1499
they,1500
thing,1501
things,1502
think,1503
thinking,1504
third,1505
this,1506
thomas,1507
those,1508
though,1509
thought,1510
thoughtful,1511
threads,1512
threat,1513
threatening,1514
three,1515
thrive,1516
through,1517
tiempo,1518
time,1519
timely,1520
times,1521
title,1522
tj,1523
to,1524
today,1525
toe,1526
told,1527
tonic,1528
tonight,1529
too,1530
tools,1531
top,1532
topic,1533
totally,1534
touching,1535
tragic,1536
transcendence,1537
transfer,1538
transformations,1539
transition,1540
translated,1541
trials,1542
triumph,1543
truce,1544
true,1545
truly,1546
truth,1547
try,1548
trying,1549
tube,1550
turn,1551
tv,1552
two,1553
type,1554
tyrannyy,1555
un,1556
unable,1557
unbelivable,1558
under,1559
understand,1560
understanding,1561
understands,1562
understatment,1563
undo,1564
undone,1565
unhappy,1566
unison,1567
universe,1568
until,1569
unusual,1570
up,1571
us,1572
use,1573
used,1574
useful,1575
uses,1576
vagina,1577
valid,1578
valuable,1579
value,1580
values,1581
various,1582
vast,1583
ve,1584
veces,1585
vehicles,1586
vemos,1587
ver,1588
version,1589
very,1590
via,1591
vibrations,1592
video,1593
viewing,1594
viewpoint,1595
viewpoints,1596
violent,1597
virgin,1598
virtual,1599
virtualized,1600
vision,1601
visit,1602
vlc,1603
voice,1604
vortex,1605
vulnerability,1606
wait,1607
walker,1608
walking,1609
walt,1610
wang,1611
wans,1612
want,1613
wanted,1614
wants,1615
war,1616
warming,1617
warped,1618
was,1619
waste,1620
watch,1621
watched,1622
watching,1623
water,1624
waves,1625
way,1626
we,1627
weakness,1628
weapons,1629
webb,1630
weekday,1631
wek,1632
well,1633
wellington,1634
were,1635
what,1636
whatever,1637
whatsoever,1638
whel,1639
when,1640
where,1641
which,1642
while,1643
who,1644
whole,1645
whom,1646
whose,1647
why,1648
wi,1649
will,1650
wind,1651
wish,1652
with,1653
without,1654
women,1655
wonder,1656
wonderful,1657
woody,1658
word,1659
words,1660
work,1661
worked,1662
workers,1663
works,1664
world,1665
worldwide,1666
worth,1667
worthy,1668
would,1669
wouldn,1670
wow,1671
writers,1672
written,1673
wrong,1674
wrought,1675
xd,1676
year,1677
years,1678
yes,1679
yet,1680
you,1681
young,1682
youngsters,1683
your,1684
yours,1685
youtube,1686
ystating,1687
