aa,0
aaages,1
abbey,2
aber,3
abilities,4
abingdon,5
able,6
abort,7
aborted,8
abount,9
abouts,10
abroad,11
absence,12
absolutely,13
absolutley,14
abstaining,15
abuse,16
ac,17
academy,18
accepted,19
access,20
accident,21
accobatic,22
according,23
account,24
accountants,25
accumulated,26
accurate,27
ache,28
acheivable,29
aches,30
achievable,31
achieve,32
achievement,33
achievemnets,34
achiever,35
achieving,36
achievment,37
achilees,38
achilles,39
aching,40
achive,41
ackworth,42
act,43
acted,44
action,45
actual,46
actually,47
actualy,48
acute,49
adam,50
adapting,51
add,52
adding,53
addition,54
address,55
adds,56
adhering,57
adidas,58
adizero,59
adjusting,60
admin,61
admire,62
admit,63
adn,64
adolescents,65
adrift,66
advantage,67
advantages,68
adventure,69
advert,70
advice,71
advise,72
advised,73
advocate,74
ady,75
aerobic,76
affair,77
affect,78
affiliated,79
afford,80
affy,81
afraid,82
afternoon,83
afterwork,84
age,85
aged,86
agenda,87
ages,88
aggravated,89
aggression,90
aggressive,91
aggro,92
ago,93
agony,94
agree,95
agt,96
ah,97
aha,98
ahead,99
ahhhh,100
ahve,101
aid,102
aids,103
ailments,104
aim,105
aiming,106
aint,107
air,108
airport,109
aka,110
alan,111
alan_every,112
alanm,113
alarm,114
albeit,115
alcohol,116
alex,117
ali,118
allegedly,119
alley,120
allocated,121
allow,122
allowing,123
allows,124
allstar,125
alnwick,126
alot,127
alp,128
alps,129
alter,130
alternate,131
alty,132
amateur,133
amazed,134
amazing,135
ambitions,136
ambulance,137
amsterdam,138
amused,139
anaemia,140
anal,141
analysed,142
analysis,143
andrew,144
andy,145
angelic,146
angle,147
angry,148
aniversary,149
ankle,150
ankles,151
anna,152
annajo,153
annie,154
annoyed,155
annoyingly,156
answer,157
answers,158
ant,159
anthony,160
anti,161
anticipation,162
anticlockwise,163
antics,164
antsy,165
anxiety,166
anybody,167
anymore,168
aol,169
aorn,170
aparsedonedigit,171
aparsedtwodigitsk,172
apart,173
apartment,174
apologies,175
apology,176
app,177
appalling,178
apparent,179
apparently,180
appealing,181
appear,182
appearance,183
appeared,184
appears,185
appetite,186
application,187
appointment,188
appreciate,189
appreciated,190
approach,191
approaching,192
appropriate,193
approx,194
april,195
aqua,196
aquathlon,197
aquired,198
arabs,199
arbroath,200
arch,201
archers,202
area,203
areas,204
aren,205
argie,206
argos,207
argued,208
arm,209
arms,210
arranged,211
arrangments,212
arround,213
arse,214
arsenal,215
artful,216
article,217
articles,218
arts,219
asap,220
ashamed,221
ashley,222
ask,223
asked,224
askern,225
asking,226
asleep,227
aspirant,228
aspiring,229
ass,230
assistant,231
associated,232
association,233
assume,234
assumed,235
assuming,236
astride,237
athlete,238
athletic,239
atleast,240
atmosphere,241
attachment,242
attack,243
attacks,244
attemp,245
attempt,246
attended,247
attention,248
attitude,249
august,250
aunt,251
australia,252
autism,253
automatically,254
autumn,255
available,256
ave,257
average,258
averaged,259
averaging,260
avghr,261
avoid,262
avoided,263
avoiding,264
awaits,265
awake,266
award,267
awards,268
aware,269
away,270
awayday,271
awe,272
awesome,273
awful,274
awreness,275
ay,276
babble,277
babies,278
baby,279
bac,280
backing,281
backslash,282
backwards,283
bacon,284
bad,285
badly,286
badminton,287
bag,288
bagels,289
bagged,290
bags,291
bah,292
baking,293
balance,294
ball,295
ballot,296
ballots,297
balls,298
banana,299
bandstand,300
bang,301
bank,302
banks,303
banksie,304
banners,305
banter,306
bar,307
barclays,308
bare,309
barefoot,310
barely,311
bargain,312
bargains,313
barnes,314
barred,315
barriers,316
base,317
based,318
baseline,319
bashful,320
basically,321
basics,322
basis,323
bat,324
batfink,325
bath,326
bathroom,327
baths,328
battered,329
battersey,330
battle,331
batw,332
bay,333
bb,334
bbq,335
bd,336
beach,337
beachy,338
beaming,339
beans,340
bear,341
bearable,342
bearing,343
beast,344
beat,345
beaten,346
beats,347
beauties,348
beautiful,349
beckham,350
bed,351
beders,352
beer,353
beers,354
began,355
beginning,356
begrudge,357
behaving,358
bej,359
belated,360
beleive,361
believe,362
belive,363
bells,364
belt,365
bempton,366
bend,367
bending,368
bene,369
benefit,370
benefits,371
bent,372
benyo,373
beqqueathed,374
bequathed,375
bequeath,376
bequeathed,377
bequeathing,378
bequethed,379
berkhamsted,380
berlin,381
bernard,382
berry,383
best,384
bet,385
better,386
beverley,387
bex,388
bfb,389
bicton,390
bid,391
biddies,392
big,393
bigger,394
biggest,395
biggies,396
bigotted,397
bike,398
billie,399
billy,400
bin,401
bingham,402
bingo,403
birdcage,404
birmingham,405
birthday,406
birthdays,407
bishop,408
bit,409
bits,410
bizarre,411
bl,412
black,413
blackberry,414
blackheath,415
blackmail,416
blackpool,417
blame,418
blast,419
blasting,420
bleeding,421
bleeped,422
bless,423
blessed,424
blessing,425
blessings,426
blimey,427
blinkin,428
bliss,429
blister,430
blisters,431
blizzard,432
blobby,433
block,434
blokes,435
blood,436
bloody,437
blooming,438
blousey,439
blow,440
blowing,441
blown,442
blubber,443
blue,444
blues,445
blxxdy,446
bm,447
bmi,448
boat,449
bob,450
bobby,451
bod,452
bodes,453
body,454
bog,455
boggy,456
bogs,457
boing,458
bold,459
bond,460
bones,461
bonfire,462
bongo,463
bonkers,464
book,465
booked,466
booking,467
books,468
boost,469
booster,470
boots,471
bootsie,472
booze,473
bore,474
born,475
borrow,476
boss,477
boston,478
bother,479
bothered,480
bothering,481
bottle,482
bottleof,483
bottles,484
bottling,485
bought,486
bounce,487
bound,488
boundary,489
bounding,490
bourton,491
bout,492
bovvered,493
bow,494
bowi,495
bowl,496
bowland,497
boxes,498
boxing,499
boy,500
boyfriend,501
boys,502
bp,503
bparsedonedigit,504
br,505
brad,506
brain,507
brake,508
bramley,509
branch,510
bras,511
brat,512
braver,513
brazilian,514
bread,515
break,516
breakfast,517
breaks,518
breakthrough,519
breast,520
breaststroke,521
breath,522
breezing,523
brendan,524
brian,525
bricks,526
brid,527
bridge,528
bridges,529
brief,530
briefcase,531
bright,532
brighton,533
brilliant,534
brilliantly,535
bring,536
bringing,537
brings,538
bristol,539
british,540
brizzle,541
broadly,542
broke,543
brolly,544
bronze,545
brook,546
brookwood,547
brother,548
brought,549
brownie,550
brownies,551
brownish,552
btw,553
bubbly,554
buck,555
bucket,556
buena,557
buff,558
bug,559
bugger,560
build,561
builder,562
building,563
built,564
bulk,565
bull,566
bullying,567
bum,568
bummer,569
bump,570
bumps,571
bumpy,572
bunch,573
bunged,574
bunny,575
burn,576
burnt,577
burst,578
bursting,579
burtonwood,580
burtyboy,581
bus,582
bush,583
bushed,584
bushes,585
bushey,586
bushy,587
business,588
bust,589
buster,590
busy,591
butcher,592
buti,593
butt,594
butterfly,595
buttie,596
buttons,597
butty,598
buy,599
buying,600
buys,601
buzzing,602
bw,603
byfleet,604
bypass,605
cab,606
cabbie,607
cadence,608
cake,609
cal,610
calcium,611
calculates,612
calculation,613
calculations,614
calculator,615
calculators,616
calf,617
calfs,618
calls,619
calmed,620
calmer,621
calories,622
calves,623
camaraderie,624
camden,625
came,626
camera,627
cameron,628
camping,629
camps,630
campsite,631
canada,632
canal,633
canary,634
canberra,635
cancer,636
canoe,637
canteen,638
cap,639
cape,640
capital,641
capsule,642
captain,643
car,644
caramel,645
caravan,646
carb,647
carbo,648
carbohydrate,649
carbs,650
cardiff,651
care,652
career,653
careful,654
careless,655
caribbean,656
carlise,657
carnival,658
caro,659
carole,660
carp,661
carriageway,662
carried,663
carry,664
carrying,665
cars,666
cartiledge,667
cartwheels,668
cas,669
case,670
cases,671
cashed,672
castle,673
casual,674
cat,675
catch,676
catching,677
category,678
cath,679
caught,680
cause,681
caused,682
causes,683
causing,684
cautious,685
caz,686
cba,687
cc,688
ccnba,689
ccoming,690
cd,691
ceal,692
ceilidh,693
ceiling,694
celeb,695
celebrate,696
celebrating,697
celebrations,698
centre,699
centred,700
cereal,701
certain,702
certainly,703
certificate,704
certified,705
cew,706
cg,707
chains,708
chair,709
challenge,710
challenged,711
champagne,712
champers,713
championchip,714
championship,715
champs,716
chance,717
chances,718
change,719
changed,720
changes,721
changing,722
chap,723
character,724
charge,725
charges,726
charities,727
charity,728
charle,729
charlie,730
charlton,731
charter,732
chat,733
chatty,734
chav,735
cheadle,736
cheap,737
cheapskates,738
cheat,739
check,740
checked,741
checking,742
cheeks,743
cheer,744
cheers,745
chelsea,746
cheque,747
cheques,748
chest,749
chi,750
chichester,751
chicken,752
chieftain,753
children,754
chill,755
chilly,756
chin,757
chip,758
chips,759
choc,760
chocolate,761
choked,762
chomping,763
chondroitin,764
choose,765
chr,766
chris,767
christchurch,768
christmas,769
chuffed,770
chum,771
chunk,772
chunks,773
church,774
cinders,775
citibank,776
city,777
cj,778
cl,779
claim,780
claire,781
clairster,782
clan,783
clare,784
clarendon,785
clash,786
classy,787
cleadon,788
clear,789
clears,790
cliffs,791
climb,792
climbed,793
climber,794
climbing,795
clipped,796
clock,797
clocked,798
close,799
closer,800
closest,801
clothes,802
clothing,803
clouds,804
cloudy,805
club,806
clubbing,807
clubmate,808
clubmates,809
clue,810
clydesdale,811
cm,812
coach,813
coached,814
coaches,815
coaching,816
coal,817
coast,818
cockrell,819
codliver,820
coffee,821
cognitive,822
colchester,823
cold,824
colds,825
collapsed,826
colleague,827
collect,828
colon,829
colour,830
column,831
com,832
combination,833
combined,834
come,835
comes,836
comfort,837
comfortable,838
comfortably,839
comic,840
comig,841
coming,842
comment,843
commented,844
comments,845
commiserations,846
commitments,847
committed,848
common,849
communication,850
community,851
compact,852
company,853
compare,854
compared,855
compensate,856
compete,857
competence,858
competing,859
competition,860
competitors,861
complain,862
complaining,863
complete,864
completed,865
completely,866
completing,867
completion,868
comprehended,869
computer,870
comunication,871
concentrate,872
concentrated,873
concern,874
conclusion,875
conclusions,876
concluson,877
conditioned,878
conditioner,879
conditioning,880
conditions,881
conducive,882
conference,883
confess,884
confidence,885
confident,886
confirm,887
confirmation,888
confirmations,889
confirmed,890
confirming,891
confused,892
congestion,893
congleton,894
congrats,895
congratulations,896
conjured,897
conkers,898
connected,899
connective,900
consciously,901
consecutive,902
consider,903
considerably,904
considered,905
considering,906
consistency,907
consistent,908
consolation,909
constant,910
consumed,911
consuming,912
contact,913
contacts,914
contemplating,915
contingent,916
continue,917
continued,918
contributed,919
contributes,920
contribution,921
control,922
controlled,923
convenient,924
conversation,925
convinced,926
cooke,927
cooked,928
cookie,929
cookies,930
cooking,931
cool,932
cooler,933
cop,934
cope,935
copenhagen,936
copy,937
core,938
corner,939
coro,940
coronium,941
correct,942
corredor,943
corridor,944
cos,945
cost,946
costume,947
costumer,948
cosy,949
cough,950
cougie,951
couldgo,952
couldn,953
count,954
counting,955
country,956
countryside,957
county,958
couple,959
courage,960
course,961
court,962
courtesy,963
cover,964
coverage,965
covered,966
covers,967
cow,968
cowboy,969
cowhill,970
coxy,971
coz,972
cp,973
crab,974
crack,975
crackered,976
cracking,977
cramp,978
cramped,979
cranberry,980
crapping,981
crashed,982
crawl,983
crawled,984
crazed,985
crazy,986
cream,987
creating,988
creature,989
credit,990
creme,991
cricket,992
crikey,993
crippled,994
critters,995
crocked,996
cross,997
crossed,998
crossing,999
crouch,1000
crowd,1001
crowds,1002
crucial,1003
cruel,1004
cruisin,1005
cruising,1006
crumbs,1007
crunch,1008
crutch,1009
crxp,1010
cube,1011
cubes,1012
cubs,1013
culminating,1014
cunning,1015
cup,1016
cure,1017
cures,1018
current,1019
currently,1020
currrent,1021
curse,1022
cushion,1023
customer,1024
cut,1025
cycle,1026
cycling,1027
cyclist,1028
dad,1029
daddy,1030
daily,1031
dalya,1032
damage,1033
damaged,1034
damn,1035
dampened,1036
dan,1037
dangerous,1038
daniel,1039
danny,1040
dark,1041
darlington,1042
darren,1043
dartford,1044
dartmoor,1045
dash,1046
date,1047
dates,1048
daughter,1049
daughters,1050
dave,1051
davey,1052
david,1053
davis,1054
day,1055
daylight,1056
days,1057
daz,1058
dazpd,1059
dd,1060
dead,1061
deaf,1062
deal,1063
dear,1064
death,1065
debate,1066
debbo,1067
debster,1068
debstir,1069
dec,1070
decadent,1071
december,1072
decent,1073
decide,1074
decided,1075
decision,1076
decisions,1077
decreasing,1078
dedicated,1079
deep,1080
deeply,1081
def,1082
defect,1083
defer,1084
deffered,1085
deffo,1086
definately,1087
definitely,1088
definition,1089
definitive,1090
defo,1091
degeneration,1092
degrees,1093
dehydrated,1094
delete,1095
delia,1096
delighted,1097
delivery,1098
delusional,1099
deminished,1100
demob,1101
demonstrated,1102
denied,1103
deny,1104
depending,1105
depends,1106
deposit,1107
depressing,1108
depth,1109
descent,1110
describing,1111
description,1112
deserve,1113
deserved,1114
designed,1115
desk,1116
desp,1117
despair,1118
desperate,1119
despite,1120
details,1121
determination,1122
determined,1123
devastated,1124
develop,1125
devon,1126
dfd,1127
dg,1128
diabetes,1129
diabetic,1130
diagnosed,1131
diana,1132
diary,1133
did,1134
didds,1135
diddy,1136
didn,1137
didnt,1138
dids,1139
die,1140
died,1141
diet,1142
diff,1143
difference,1144
differences,1145
different,1146
difficult,1147
difficulties,1148
dig,1149
digging,1150
dilemma,1151
diligence,1152
diminished,1153
dinner,1154
dip,1155
diplomatic,1156
dipped,1157
dips,1158
direct,1159
direction,1160
directly,1161
director,1162
dirty,1163
disabilities,1164
disappointed,1165
disappointment,1166
discarded,1167
discharged,1168
discipline,1169
disclose,1170
discount,1171
discussibg,1172
discussions,1173
disgracing,1174
disguise,1175
disgusted,1176
dish,1177
dishes,1178
dispirited,1179
displayed,1180
disposal,1181
distance,1182
distances,1183
distress,1184
district,1185
ditch,1186
divulge,1187
diy,1188
dn,1189
docklands,1190
docks,1191
doctor,1192
documents,1193
dod,1194
doddle,1195
dodging,1196
dodgy,1197
doe,1198
does,1199
doesn,1200
doesnt,1201
dogs,1202
doing,1203
domestic,1204
don,1205
donate,1206
donation,1207
dont,1208
donut,1209
doodle,1210
doom,1211
dooper,1212
door,1213
dor,1214
dorigo,1215
dork,1216
dot,1217
double,1218
doubled,1219
doubt,1220
doubts,1221
douglas,1222
downhill,1223
downlands,1224
downs,1225
downside,1226
downstairs,1227
dozen,1228
dragged,1229
dragging,1230
dramatically,1231
dread,1232
dreading,1233
dream,1234
dreampt,1235
dreams,1236
dreary,1237
drenched,1238
dress,1239
drewton,1240
drier,1241
drill,1242
drink,1243
drinker,1244
drinking,1245
drinks,1246
drive,1247
drives,1248
drk,1249
drogo,1250
drool,1251
drop,1252
dropped,1253
dropping,1254
drops,1255
drown,1256
dry,1257
ds,1258
dual,1259
dublin,1260
duck,1261
dull,1262
dump,1263
dumpling,1264
duncan,1265
dunk,1266
dunno,1267
duration,1268
dusseldorf,1269
dust,1270
duster,1271
dustin,1272
duty,1273
dvd,1274
dwarfed,1275
dy,1276
dyslexia,1277
ealing,1278
ear,1279
earlier,1280
earliest,1281
early,1282
earned,1283
ears,1284
earth,1285
ease,1286
easier,1287
easiest,1288
easily,1289
east,1290
eastenders,1291
easter,1292
eastham,1293
easy,1294
eat,1295
eaten,1296
eating,1297
eb,1298
ebb,1299
ebbs,1300
echo,1301
economist,1302
ecparsedonedigit,1303
ed,1304
edb,1305
eddie,1306
edge,1307
edges,1308
edinburgh,1309
eek,1310
effect,1311
effective,1312
effects,1313
efficacy,1314
effort,1315
efforts,1316
efort,1317
egged,1318
eggs,1319
eh,1320
ehrwise,1321
elastiman,1322
eleanor,1323
eliminate,1324
eliminating,1325
elite,1326
elixir,1327
elusive,1328
elysees,1329
em,1330
email,1331
emailed,1332
emailing,1333
embankment,1334
embarassing,1335
embra,1336
emergency,1337
emigrating,1338
emigration,1339
emily,1340
emotional,1341
emphasis,1342
enabled,1343
encounter,1344
encourage,1345
encouraged,1346
encouragement,1347
encouraging,1348
end,1349
ended,1350
endless,1351
ends,1352
endurance,1353
endured,1354
energy,1355
england,1356
enjoy,1357
enjoyable,1358
enjoyed,1359
enjoying,1360
enjoys,1361
enter,1362
entered,1363
entering,1364
enters,1365
enticingly,1366
entirely,1367
entires,1368
entrants,1369
entries,1370
entry,1371
epping,1372
eps,1373
equal,1374
equates,1375
equity,1376
equivalent,1377
er,1378
err,1379
error,1380
errors,1381
escape,1382
escaped,1383
esle,1384
esp,1385
especially,1386
essay,1387
essential,1388
essex,1389
estate,1390
estimated,1391
et,1392
eternal,1393
eternally,1394
euph,1395
eve,1396
evelyn,1397
evening,1398
event,1399
eventful,1400
events,1401
eventually,1402
everest,1403
everybody,1404
everyne,1405
everyones,1406
evidence,1407
evryone,1408
exactly,1409
exam,1410
example,1411
exams,1412
excel,1413
excellent,1414
exception,1415
exceptionally,1416
excited,1417
exciting,1418
excluding,1419
excuse,1420
exercise,1421
exercises,1422
exersion,1423
exertion,1424
exhasted,1425
exhausted,1426
exhibiting,1427
exhuasted,1428
expecct,1429
expected,1430
expecting,1431
expects,1432
expensive,1433
experience,1434
experiences,1435
experiment,1436
expletives,1437
exploits,1438
expo,1439
extended,1440
extensions,1441
extra,1442
eye,1443
eyed,1444
eynsham,1445
fab,1446
fabric,1447
fabulous,1448
face,1449
facilities,1450
fact,1451
fading,1452
fail,1453
failed,1454
fails,1455
failure,1456
fainting,1457
fair,1458
fairing,1459
fairly,1460
fairs,1461
faith,1462
fall,1463
fallback,1464
falling,1465
fame,1466
families,1467
family,1468
fan,1469
fancied,1470
fancy,1471
fanfare,1472
fantacised,1473
fantastic,1474
far,1475
farmed,1476
fartlek,1477
fast,1478
faster,1479
fastest,1480
fat,1481
fatbutfit,1482
fate,1483
fault,1484
fave,1485
favour,1486
favourite,1487
favourites,1488
fb,1489
fd,1490
fdone,1491
fear,1492
featured,1493
feb,1494
fed,1495
fee,1496
feed,1497
feedback,1498
feel,1499
feeling,1500
feels,1501
feelt,1502
feet,1503
fell,1504
fella,1505
fellow,1506
felt,1507
female,1508
fenn,1509
ferry,1510
festering,1511
fetch,1512
fewer,1513
ff,1514
fgfa,1515
fi,1516
fiddly,1517
fidgety,1518
field,1519
fields,1520
fifidella,1521
fight,1522
fighter,1523
figs,1524
figure,1525
figured,1526
files,1527
filled,1528
final,1529
finally,1530
finding,1531
fine,1532
finger,1533
fingers,1534
finish,1535
finished,1536
finishing,1537
finishs,1538
finsihed,1539
fires,1540
firstly,1541
firth,1542
fish,1543
fit,1544
fitness,1545
fitter,1546
fitting,1547
fix,1548
fkg,1549
flab,1550
flag,1551
flakes,1552
flamboro,1553
flapjack,1554
flash,1555
flat,1556
flats,1557
fleece,1558
fleet,1559
flexible,1560
flight,1561
flights,1562
flint,1563
flm,1564
flmers,1565
flmparsedtwodigits,1566
flms,1567
flora,1568
florida,1569
flows,1570
flu,1571
fluctuating,1572
fluid,1573
fly,1574
flying,1575
fnick,1576
focus,1577
focussed,1578
folk,1579
folks,1580
follow,1581
followed,1582
following,1583
food,1584
foot,1585
football,1586
force,1587
forced,1588
forecast,1589
forego,1590
forest,1591
forests,1592
forget,1593
forgetting,1594
forgive,1595
forgot,1596
form,1597
formula,1598
forth,1599
fortnight,1600
fortuna,1601
fortunately,1602
fortune,1603
forum,1604
forumites,1605
forums,1606
forward,1607
forwards,1608
fought,1609
foundation,1610
fox,1611
foz,1612
fp,1613
france,1614
freak,1615
fred,1616
free,1617
freebies,1618
freezing,1619
frenchies,1620
frenchmen,1621
fresh,1622
freshness,1623
fretting,1624
fri,1625
friday,1626
fridays,1627
fridge,1628
friend,1629
friendly,1630
friends,1631
friendship,1632
frightened,1633
frosty,1634
frozen,1635
frubes,1636
frustrated,1637
frustrating,1638
frys,1639
fuel,1640
fulfill,1641
fully,1642
fun,1643
fund,1644
funds,1645
funeral,1646
funky,1647
funny,1648
furthest,1649
fuss,1650
future,1651
fw,1652
fwiw,1653
gadgets,1654
gagging,1655
gah,1656
gain,1657
gale,1658
gales,1659
game,1660
games,1661
gamesmanship,1662
gang,1663
gap,1664
gaps,1665
garden,1666
garmin,1667
gathering,1668
gatorade,1669
gatton,1670
gave,1671
gazza,1672
gb,1673
gc,1674
gd,1675
gdave,1676
gear,1677
gel,1678
gels,1679
general,1680
generally,1681
generous,1682
gentle,1683
gently,1684
geoff,1685
geordie,1686
george,1687
georgias,1688
germs,1689
gerroff,1690
gets,1691
gettin,1692
getting,1693
gf,1694
gfa,1695
gfparsedtwodigits,1696
gg,1697
gif,1698
gift,1699
gifts,1700
giles,1701
gilzean,1702
gin,1703
ginger,1704
girl,1705
girlfriend,1706
girls,1707
girly,1708
given,1709
gives,1710
giving,1711
giz,1712
glad,1713
glance,1714
glasgow,1715
glass,1716
glasses,1717
glided,1718
glitzy,1719
gloom,1720
glory,1721
gloves,1722
glucosamine,1723
glue,1724
glute,1725
glycogen,1726
gm,1727
gnr,1728
goal,1729
goalkeeper,1730
gobbling,1731
gobi,1732
goblins,1733
god,1734
godsend,1735
goes,1736
goin,1737
going,1738
gold,1739
golden,1740
golf,1741
gone,1742
gonna,1743
good,1744
goodnight,1745
goody,1746
google,1747
goose,1748
goslo,1749
gossip,1750
got,1751
gotta,1752
gotten,1753
goup,1754
gps,1755
gr,1756
gradient,1757
gradually,1758
gram,1759
grandad,1760
grandparent,1761
grandson,1762
grandstand,1763
granny,1764
grapes,1765
graph,1766
grass,1767
grateful,1768
gratitude,1769
grattons,1770
grave,1771
gravis,1772
gravy,1773
great,1774
greater,1775
greatest,1776
green,1777
greetings,1778
greg,1779
gremlins,1780
grew,1781
grief,1782
grim,1783
grinstead,1784
grion,1785
grip,1786
grit,1787
gritted,1788
grobelaar,1789
groin,1790
grotty,1791
ground,1792
grounds,1793
group,1794
groups,1795
grow,1796
grrrrr,1797
grump,1798
grylls,1799
gt,1800
guarantee,1801
guaranteed,1802
guarentee,1803
guess,1804
guessing,1805
guilty,1806
guiness,1807
gun,1808
gusting,1809
gutted,1810
gutter,1811
guy,1812
guys,1813
gweedore,1814
gym,1815
ha,1816
hadn,1817
haha,1818
hahahaha,1819
hail,1820
hainault,1821
hairdresser,1822
hal,1823
half,1824
halfway,1825
halhigdon,1826
halifax,1827
hallo,1828
halt,1829
haltemprice,1830
halving,1831
ham,1832
hamburg,1833
hammer,1834
hampshire,1835
hampstead,1836
hamstring,1837
hana,1838
hancock,1839
hand,1840
handed,1841
handle,1842
hands,1843
handwritting,1844
handy,1845
hang,1846
hanging,1847
hangover,1848
hangovers,1849
hants,1850
happen,1851
happened,1852
happening,1853
happenings,1854
happens,1855
happy,1856
hard,1857
harder,1858
hardest,1859
hardly,1860
harpy,1861
harry,1862
harvel,1863
harvest,1864
hasn,1865
hassle,1866
hastings,1867
hat,1868
hate,1869
haunches,1870
haven,1871
havent,1872
having,1873
havn,1874
hawk,1875
haytor,1876
hazelnuts,1877
hbos,1878
head,1879
heading,1880
headphones,1881
heal,1882
healing,1883
health,1884
healthier,1885
healthy,1886
hear,1887
heard,1888
hearing,1889
heart,1890
heat,1891
heath,1892
heavier,1893
heavy,1894
heck,1895
heckenhocker,1896
heckled,1897
hectic,1898
hee,1899
heel,1900
height,1901
held,1902
helen,1903
hell,1904
heller,1905
hellip,1906
hello,1907
hellooo,1908
helloooooooo,1909
help,1910
helped,1911
helpful,1912
helping,1913
helpline,1914
helps,1915
hen,1916
hertfordshire,1917
herts,1918
hey,1919
hh,1920
hi,1921
hic,1922
higdon,1923
high,1924
highams,1925
higher,1926
highest,1927
highlight,1928
higo,1929
hilarious,1930
hill,1931
hills,1932
hilly,1933
hillyi,1934
hinder,1935
hip,1936
hippo,1937
hires,1938
history,1939
hit,1940
hiya,1941
hm,1942
hmm,1943
hmmm,1944
hmmmm,1945
hmmmmm,1946
hmmmph,1947
hms,1948
ho,1949
hobble,1950
hobling,1951
hogmonster,1952
hogweed,1953
hol,1954
hold,1955
holding,1956
holds,1957
holiday,1958
holly,1959
hollywood,1960
hols,1961
home,1962
honest,1963
honestly,1964
honey,1965
hong,1966
honoured,1967
hood,1968
hoops,1969
hoorah,1970
hoovering,1971
hope,1972
hopeful,1973
hopefully,1974
hopefuly,1975
hoping,1976
hopkinton,1977
hopping,1978
horizons,1979
horrendously,1980
horrible,1981
horse,1982
horses,1983
hospital,1984
host,1985
hostel,1986
hot,1987
hotel,1988
hotels,1989
hour,1990
hours,1991
house,1992
hove,1993
howard,1994
howards,1995
howdy,1996
howler,1997
hr,1998
hrm,1999
hrow,2000
hrr,2001
hrs,2002
hs,2003
hsbc,2004
ht,2005
htm,2006
html,2007
htp,2008
http,2009
hubbies,2010
hubby,2011
huge,2012
hughes,2013
hugs,2014
hull,2015
humid,2016
hummm,2017
humpless,2018
humpy,2019
hunchbacked,2020
hundreds,2021
hung,2022
hunting,2023
hurrah,2024
hurray,2025
hurry,2026
hurt,2027
hurting,2028
hurts,2029
husband,2030
hybrid,2031
hyde,2032
hydrate,2033
hysterical,2034
ian,2035
ibuprofen,2036
ice,2037
icey,2038
icing,2039
idea,2040
ideal,2041
ideally,2042
ideas,2043
identify,2044
idiot,2045
ill,2046
illness,2047
im,2048
images,2049
imagine,2050
imagined,2051
imelds,2052
imho,2053
immediately,2054
immersion,2055
impart,2056
impatient,2057
impeccable,2058
implies,2059
important,2060
impossible,2061
impressed,2062
impressive,2063
improve,2064
improvement,2065
improving,2066
incarnation,2067
incident,2068
inclines,2069
include,2070
included,2071
includes,2072
including,2073
inclusion,2074
increase,2075
increased,2076
increasing,2077
increasingly,2078
incredible,2079
incredibly,2080
indifferent,2081
indoor,2082
induced,2083
infection,2084
infestation,2085
inflam,2086
inflammation,2087
inflammatories,2088
inflammed,2089
influence,2090
info,2091
information,2092
ing,2093
injured,2094
injuries,2095
injury,2096
inn,2097
innocently,2098
innocents,2099
inside,2100
insoles,2101
inspiration,2102
inspirational,2103
inspire,2104
inspired,2105
inspiring,2106
instead,2107
instills,2108
instructed,2109
instructer,2110
instructions,2111
instructor,2112
insulating,2113
intend,2114
intended,2115
intensity,2116
intention,2117
inter,2118
intercounties,2119
interested,2120
interesting,2121
intermeweb,2122
intermittent,2123
international,2124
internet,2125
interval,2126
intervals,2127
interview,2128
intrigued,2129
intro,2130
introduce,2131
introducing,2132
invaluable,2133
invented,2134
invested,2135
invisible,2136
involve,2137
involved,2138
iphone,2139
ireland,2140
iron,2141
ironman,2142
irons,2143
irresistable,2144
irritating,2145
ish,2146
isle,2147
isn,2148
isotonic,2149
issue,2150
issues,2151
italian,2152
italy,2153
itc,2154
itching,2155
ive,2156
jacket,2157
jam,2158
jamaica,2159
james,2160
jamesk,2161
jamie,2162
jan,2163
jane,2164
january,2165
jap,2166
jaq,2167
jar,2168
jarred,2169
jase,2170
jason,2171
jbss,2172
jd,2173
jdrf,2174
jealous,2175
jej,2176
jelly,2177
jellybabe,2178
jezza,2179
jim,2180
jj,2181
job,2182
jobs,2183
joby,2184
jock,2185
joe,2186
jog,2187
jogged,2188
jogger,2189
joggers,2190
jogging,2191
jogs,2192
john,2193
johns,2194
join,2195
joined,2196
joining,2197
joint,2198
joints,2199
joke,2200
jokes,2201
jon,2202
jools,2203
journey,2204
journeys,2205
joy,2206
jpg,2207
jpvd,2208
jr,2209
jt,2210
judderman,2211
judging,2212
juice,2213
julie,2214
july,2215
jump,2216
jumping,2217
june,2218
junior,2219
just,2220
justifiably,2221
justified,2222
kannouchi,2223
karate,2224
karen,2225
katepie,2226
katie,2227
katrina,2228
kattysparke,2229
katypie,2230
kbown,2231
keen,2232
keeping,2233
keeps,2234
kent,2235
kenyan,2236
kept,2237
kerb,2238
keryn,2239
key,2240
keyneshm,2241
khalid,2242
kick,2243
kicked,2244
kid,2245
kidding,2246
kidney,2247
kids,2248
kill,2249
killed,2250
killer,2251
kind,2252
kinda,2253
kinder,2254
kindly,2255
kingley,2256
kingston,2257
kinsey,2258
kip,2259
kirsty,2260
kissing,2261
kit,2262
kitchen,2263
kite,2264
kk,2265
km,2266
knackered,2267
knee,2268
kneecap,2269
knees,2270
knew,2271
knickers,2272
knock,2273
knocked,2274
knoe,2275
knots,2276
know,2277
knowing,2278
knowledge,2279
known,2280
knows,2281
kong,2282
kp,2283
kparsedonedigit,2284
kramer,2285
la,2286
labour,2287
laces,2288
lack,2289
ladders,2290
ladies,2291
lads,2292
lady,2293
laid,2294
laminating,2295
land,2296
landed,2297
lane,2298
lap,2299
lapper,2300
laptop,2301
larder,2302
lardy,2303
large,2304
larger,2305
lass,2306
lasted,2307
lata,2308
late,2309
lately,2310
later,2311
latest,2312
laugh,2313
laughs,2314
law,2315
lawyers,2316
layer,2317
layers,2318
lazy,2319
lb,2320
lbs,2321
ld,2322
lead,2323
leadership,2324
leading,2325
leaf,2326
league,2327
leagues,2328
learn,2329
learning,2330
learnt,2331
leave,2332
leaves,2333
leaving,2334
led,2335
leeds,2336
left,2337
leg,2338
legends,2339
leggings,2340
legislate,2341
legless,2342
legs,2343
leicester,2344
leisure,2345
leith,2346
lend,2347
lenghts,2348
length,2349
lengths,2350
leotard,2351
lep,2352
let,2353
lets,2354
letter,2355
letters,2356
lettice,2357
letting,2358
level,2359
levels,2360
lf,2361
lfm,2362
licence,2363
lid,2364
life,2365
lifetime,2366
lift,2367
lifted,2368
ligamant,2369
ligaments,2370
light,2371
lighty,2372
like,2373
liked,2374
likely,2375
likelyhood,2376
likes,2377
likewise,2378
limited,2379
limper,2380
lincolnshire,2381
line,2382
lined,2383
lines,2384
lining,2385
link,2386
linked,2387
links,2388
lip,2389
lips,2390
lisbon,2391
lise,2392
list,2393
listen,2394
listings,2395
lite,2396
literally,2397
little,2398
littlemiss,2399
live,2400
lived,2401
liverpool,2402
lives,2403
living,2404
livvy,2405
lizzyb,2406
ll,2407
llbe,2408
lll,2409
lloyds,2410
lm,2411
load,2412
loaded,2413
loading,2414
loads,2415
local,2416
locally,2417
location,2418
loch,2419
log,2420
logbook,2421
logging,2422
logic,2423
logo,2424
lol,2425
london,2426
long,2427
longer,2428
longest,2429
loo,2430
look,2431
looked,2432
looking,2433
looks,2434
loon,2435
loop,2436
loose,2437
loosened,2438
loparsedtwodigits,2439
lor,2440
lord,2441
lorenzo,2442
lose,2443
losing,2444
lost,2445
lot,2446
lotiion,2447
lots,2448
lounge,2449
love,2450
loved,2451
lovely,2452
loving,2453
low,2454
lower,2455
lr,2456
ls,2457
lsd,2458
lsr,2459
lsrs,2460
lt,2461
ltsa,2462
ltsb,2463
lucazade,2464
lucinda,2465
luck,2466
luckily,2467
lucky,2468
lucozade,2469
lucy,2470
lumps,2471
lunch,2472
lunches,2473
lunchtime,2474
lung,2475
lungs,2476
lurgified,2477
lurgy,2478
lurk,2479
lurking,2480
luton,2481
luxembourg,2482
luxury,2483
lwparsedonedigit,2484
lycra,2485
lyndy,2486
macc,2487
machine,2488
machines,2489
macmillan,2490
macs,2491
mad,2492
mag,2493
magazine,2494
magic,2495
magnesium,2496
maidenhead,2497
mail,2498
mailed,2499
main,2500
mainly,2501
maintain,2502
maintained,2503
major,2504
majority,2505
make,2506
maker,2507
makes,2508
making,2509
malarky,2510
male,2511
males,2512
mall,2513
malt,2514
malverns,2515
man,2516
manage,2517
managed,2518
management,2519
manager,2520
managing,2521
mands,2522
mantra,2523
mantras,2524
maps,2525
mara,2526
marafuns,2527
maramates,2528
maras,2529
marathon,2530
marathoner,2531
marathoners,2532
marathons,2533
march,2534
marcus,2535
marders,2536
margin,2537
marigold,2538
mark,2539
marker,2540
markers,2541
market,2542
markings,2543
marl,2544
marmite,2545
marparsedtwodigitsindex,2546
marshall,2547
marshalling,2548
martial,2549
martin,2550
mashed,2551
massage,2552
masses,2553
massive,2554
massively,2555
masters,2556
match,2557
mate,2558
material,2559
maternity,2560
mates,2561
matie,2562
matt,2563
matter,2564
matttherat,2565
mava,2566
max,2567
maxine,2568
maybe,2569
maylarch,2570
mayo,2571
maze,2572
mb,2573
mc,2574
mcallister,2575
mcmillanrunning,2576
meal,2577
mean,2578
meaning,2579
means,2580
meant,2581
meantime,2582
measures,2583
mecca,2584
med,2585
medal,2586
medical,2587
medium,2588
meerkat,2589
meet,2590
meeting,2591
meetings,2592
meg,2593
mega,2594
meldy,2595
melt,2596
members,2597
memory,2598
men,2599
mend,2600
mens,2601
mental,2602
mentally,2603
mention,2604
mentioned,2605
menu,2606
merchandise,2607
mercy,2608
merely,2609
merging,2610
merrier,2611
mess,2612
message,2613
metcheck,2614
methinks,2615
method,2616
metres,2617
mhr,2618
miami,2619
micktherunner,2620
mid,2621
midday,2622
middle,2623
midfoot,2624
midlands,2625
midnight,2626
midweek,2627
mighty,2628
mike,2629
mikeb,2630
milage,2631
milan,2632
mild,2633
mildly,2634
mile,2635
mileage,2636
mileometer,2637
mileparsedtwodigits,2638
miler,2639
milers,2640
miles,2641
miling,2642
milk,2643
milton,2644
min,2645
mind,2646
minging,2647
mini,2648
minimal,2649
minimum,2650
minkey,2651
minkin,2652
minni,2653
minor,2654
mins,2655
minunte,2656
minus,2657
minute,2658
minutes,2659
mis,2660
miserable,2661
miss,2662
missed,2663
missing,2664
mission,2665
missp,2666
mist,2667
mistake,2668
mistakes,2669
mistype,2670
mitten,2671
mix,2672
mixed,2673
mizuno,2674
mk,2675
ml,2676
mm,2677
mmm,2678
mnay,2679
mo,2680
mobile,2681
mode,2682
model,2683
models,2684
modes,2685
modest,2686
moggie,2687
mokina,2688
moment,2689
moments,2690
momentum,2691
mon,2692
monday,2693
mondays,2694
money,2695
monitor,2696
month,2697
monthly,2698
months,2699
monument,2700
mood,2701
moonlight,2702
moons,2703
moral,2704
morale,2705
morecambe,2706
morn,2707
mornibg,2708
mornin,2709
morning,2710
mornings,2711
morons,2712
mortals,2713
mother,2714
motion,2715
motivated,2716
motor,2717
mountain,2718
mouse,2719
mouth,2720
moved,2721
moving,2722
mp,2723
mparsedonedigit,2724
mparsedtwodigits,2725
mph,2726
mpparsedonedigit,2727
mpw,2728
mr,2729
mrs,2730
mrsc,2731
mt,2732
mtr,2733
mud,2734
mudchute,2735
muddy,2736
muff,2737
muffins,2738
multi,2739
multiple,2740
multiples,2741
mum,2742
mummy,2743
murderers,2744
muscle,2745
muscles,2746
mush,2747
music,2748
mutter,2749
muttering,2750
muv,2751
mvparsedtwodigits,2752
mwah,2753
mwcmf,2754
myasthenia,2755
nah,2756
nail,2757
nailed,2758
nails,2759
nam,2760
narrowly,2761
natalie,2762
national,2763
nationwide,2764
natural,2765
naturally,2766
natwest,2767
naughty,2768
ndash,2769
ndereba,2770
near,2771
nearer,2772
nearest,2773
nearing,2774
nearly,2775
necessary,2776
need,2777
needed,2778
needing,2779
needs,2780
negative,2781
negotiate,2782
nelly,2783
nemo,2784
nepal,2785
nerves,2786
nervous,2787
ness,2788
net,2789
neural,2790
neutral,2791
nevermind,2792
new,2793
newark,2794
newbies,2795
news,2796
nf,2797
nhs,2798
nice,2799
nicely,2800
nicer,2801
nicest,2802
nick,2803
nickm,2804
nicks,2805
niggle,2806
niggles,2807
niggly,2808
nigh,2809
night,2810
nightmare,2811
nights,2812
nikelondon,2813
nikster,2814
nimbus,2815
nipple,2816
nipples,2817
nippy,2818
nippynora,2819
nissed,2820
njord,2821
nl,2822
nmparsedonedigit,2823
nn,2824
noise,2825
nolan,2826
non,2827
noooooooooooooooooooooooooooooooooooooooooooooooooooooooooooooooo,2828
nooooooooooooooooooooooooooooooooooooooooooooooooooooooooooooooooooooooooooooo,2829
nooooooooooooooooooooooooooooooooooooooooooooooooooooooooooooooooooooooooooooooooooooooooooooooooooooooooooooooooooooooooooooo,2830
normal,2831
normally,2832
normski,2833
north,2834
northern,2835
nose,2836
nostalgic,2837
note,2838
notebook,2839
notes,2840
noticed,2841
notification,2842
notifications,2843
november,2844
novice,2845
novotel,2846
nowt,2847
nt,2848
nts,2849
numb,2850
numbed,2851
number,2852
numbers,2853
nurofen,2854
nurse,2855
nutrition,2856
nutter,2857
ny,2858
nyc,2859
nytol,2860
nz,2861
oakly,2862
obliged,2863
obscene,2864
observations,2865
obsessive,2866
obstacles,2867
obviously,2868
occasion,2869
occasional,2870
occasionally,2871
occasions,2872
occured,2873
oceans,2874
ock,2875
oct,2876
october,2877
odd,2878
oddly,2879
ode,2880
odeon,2881
ofcourse,2882
offer,2883
offered,2884
offering,2885
office,2886
official,2887
officially,2888
oh,2889
ohamd,2890
oiks,2891
oil,2892
oj,2893
ojs,2894
ok,2895
ol,2896
old,2897
older,2898
oldies,2899
olympic,2900
olympics,2901
om,2902
omahd,2903
omegod,2904
omen,2905
omg,2906
ones,2907
online,2908
ontop,2909
onwards,2910
onyl,2911
ooh,2912
ooo,2913
oooer,2914
oooh,2915
oooooh,2916
ooops,2917
oops,2918
op,2919
open,2920
opened,2921
operating,2922
opinion,2923
opportunity,2924
opporutunities,2925
opposed,2926
opposite,2927
opposition,2928
opted,2929
optimistic,2930
option,2931
options,2932
orange,2933
order,2934
ordered,2935
org,2936
organisation,2937
organise,2938
organised,2939
organising,2940
orient,2941
original,2942
orthotic,2943
osd,2944
osmotherley,2945
osteo,2946
ot,2947
ouch,2948
outbreak,2949
outfit,2950
outing,2951
outlet,2952
outlook,2953
outside,2954
outstanding,2955
ovaltine,2956
ovder,2957
overall,2958
overdo,2959
overdoing,2960
overdone,2961
overhead,2962
overhearing,2963
overstretched,2964
overtake,2965
overtaken,2966
overtired,2967
overtrained,2968
owe,2969
owing,2970
owners,2971
owt,2972
ox,2973
ozy,2974
ozzy,2975
pace,2976
paced,2977
pacemaker,2978
pacer,2979
pacers,2980
paces,2981
pacing,2982
pack,2983
packed,2984
packs,2985
padams,2986
paddington,2987
page,2988
pages,2989
paid,2990
pain,2991
painful,2992
painfull,2993
painless,2994
pains,2995
paint,2996
painting,2997
pair,2998
pairs,2999
paltry,3000
panic,3001
panties,3002
panting,3003
paper,3004
paranoid,3005
parentcraft,3006
parents,3007
paris,3008
park,3009
parks,3010
parseddigits,3011
parseddigitsish,3012
parseddigitsm,3013
parseddigitsmi,3014
parseddigitsmiles,3015
parseddigitsmph,3016
parseddigitsth,3017
parsedfivedigits,3018
parsedfourdigits,3019
parsedfourdigitsm,3020
parsedonedigit,3021
parsedonedigitam,3022
parsedonedigiter,3023
parsedonedigites,3024
parsedonedigitft,3025
parsedonedigitgram,3026
parsedonedigith,3027
parsedonedigithparsedtwodigits,3028
parsedonedigithr,3029
parsedonedigithrs,3030
parsedonedigitish,3031
parsedonedigitk,3032
parsedonedigitkm,3033
parsedonedigitlb,3034
parsedonedigitlbs,3035
parsedonedigitm,3036
parsedonedigitmin,3037
parsedonedigitmins,3038
parsedonedigitmm,3039
parsedonedigitmms,3040
parsedonedigitmph,3041
parsedonedigitn,3042
parsedonedigitnd,3043
parsedonedigitpm,3044
parsedonedigitrd,3045
parsedonedigitsecs,3046
parsedonedigitst,3047
parsedonedigitth,3048
parsedonedigitx,3049
parsedsixdigits,3050
parsedthreedigits,3051
parsedthreedigitsbpm,3052
parsedthreedigitsm,3053
parsedthreedigitsml,3054
parsedthreedigitss,3055
parsedthreedigitsyards,3056
parsedtime,3057
parsedtwodigits,3058
parsedtwodigitsam,3059
parsedtwodigitshrs,3060
parsedtwodigitsish,3061
parsedtwodigitsk,3062
parsedtwodigitskb,3063
parsedtwodigitskm,3064
parsedtwodigitsks,3065
parsedtwodigitslbs,3066
parsedtwodigitsm,3067
parsedtwodigitsmi,3068
parsedtwodigitsmile,3069
parsedtwodigitsmiler,3070
parsedtwodigitsmiles,3071
parsedtwodigitsmin,3072
parsedtwodigitsmins,3073
parsedtwodigitsmm,3074
parsedtwodigitsmnths,3075
parsedtwodigitsmparseddigitss,3076
parsedtwodigitsmpw,3077
parsedtwodigitsp,3078
parsedtwodigitspm,3079
parsedtwodigitsrd,3080
parsedtwodigitss,3081
parsedtwodigitssecs,3082
parsedtwodigitsst,3083
parsedtwodigitsth,3084
parsedtwodigitsxparsedthreedigits,3085
partial,3086
participants,3087
particular,3088
particularly,3089
partly,3090
partner,3091
parts,3092
party,3093
passed,3094
passing,3095
past,3096
pasta,3097
paste,3098
patch,3099
path,3100
pathetic,3101
paths,3102
paul,3103
paula,3104
pavement,3105
pavements,3106
pavey,3107
paving,3108
pay,3109
paying,3110
payment,3111
payments,3112
pb,3113
pbs,3114
pc,3115
peak,3116
peaked,3117
peaks,3118
peaky,3119
pearce,3120
pee,3121
peeekay,3122
peel,3123
peeled,3124
peeps,3125
peev,3126
pelt,3127
pen,3128
pengiun,3129
penny,3130
penquin,3131
pens,3132
people,3133
pepe,3134
perceived,3135
perfect,3136
perfection,3137
perfectly,3138
performance,3139
period,3140
permanent,3141
permitting,3142
person,3143
personally,3144
perspective,3145
persuade,3146
perusing,3147
peter,3148
petrol,3149
pf,3150
pfitzinger,3151
ph,3152
phal,3153
phase,3154
phenomenal,3155
phew,3156
phil,3157
philpub,3158
phoenix,3159
phone,3160
phoned,3161
photo,3162
photos,3163
phsycological,3164
physical,3165
physically,3166
physio,3167
pick,3168
picked,3169
picking,3170
picnic,3171
pics,3172
picture,3173
pie,3174
piece,3175
pig,3176
pilates,3177
piles,3178
pilgrimage,3179
pills,3180
pimlico,3181
pink,3182
pinks,3183
pinpoint,3184
pints,3185
pip,3186
pit,3187
pitch,3188
pits,3189
pity,3190
pixels,3191
pizza,3192
pizzaman,3193
pj,3194
place,3195
placed,3196
places,3197
plan,3198
planned,3199
planning,3200
plans,3201
plasters,3202
plate,3203
plateau,3204
play,3205
played,3206
player,3207
players,3208
playing,3209
plays,3210
pleasant,3211
pleased,3212
pleaze,3213
plenty,3214
plod,3215
plodder,3216
plodding,3217
plodette,3218
ploding,3219
plometrics,3220
plough,3221
plumetted,3222
plus,3223
plyometrics,3224
pm,3225
pmp,3226
podiatrist,3227
podretta,3228
point,3229
pointing,3230
points,3231
poland,3232
polar,3233
police,3234
pollution,3235
poo,3236
pool,3237
poor,3238
poorly,3239
pop,3240
poparsedonedigit,3241
popped,3242
popping,3243
poppy,3244
pops,3245
popular,3246
populate,3247
porcus,3248
porridge,3249
port,3250
position,3251
positive,3252
poss,3253
possible,3254
possibly,3255
post,3256
posted,3257
posting,3258
postings,3259
posts,3260
potential,3261
potentially,3262
potter,3263
pound,3264
pounding,3265
pounds,3266
pouring,3267
powerful,3268
poxy,3269
pp,3270
pparsedthreedigits,3271
ppb,3272
practical,3273
practicioner,3274
practise,3275
practising,3276
prague,3277
pram,3278
prayers,3279
pre,3280
precedents,3281
precisions,3282
predicitons,3283
predict,3284
predicted,3285
predicting,3286
prediction,3287
prefer,3288
preferably,3289
preferring,3290
premises,3291
prep,3292
preparation,3293
prepare,3294
preregister,3295
present,3296
pressure,3297
presumably,3298
presumptious,3299
pretend,3300
pretty,3301
prevent,3302
previous,3303
previously,3304
price,3305
priceless,3306
pricy,3307
primarily,3308
primrose,3309
princess,3310
principle,3311
principles,3312
pringles,3313
print,3314
printed,3315
prior,3316
priorities,3317
priority,3318
private,3319
prize,3320
prizes,3321
prob,3322
probably,3323
problem,3324
problems,3325
process,3326
proclaiming,3327
productive,3328
profile,3329
profound,3330
prog,3331
programmes,3332
progress,3333
progressed,3334
progressive,3335
progressivly,3336
prohibition,3337
prolonging,3338
promise,3339
promptly,3340
proof,3341
proper,3342
properly,3343
prospect,3344
proud,3345
pround,3346
prove,3347
proved,3348
proven,3349
provided,3350
provides,3351
providing,3352
provisional,3353
ps,3354
pseudo,3355
psychological,3356
pub,3357
public,3358
publicly,3359
puff,3360
puffing,3361
puffy,3362
pug,3363
pugs,3364
pulled,3365
pun,3366
punctuation,3367
punishment,3368
purchased,3369
purely,3370
purpose,3371
push,3372
pusher,3373
pushing,3374
puts,3375
putting,3376
pw,3377
qparsedonedigit,3378
qq,3379
quacks,3380
quad,3381
quads,3382
qualified,3383
qualify,3384
qualifying,3385
quality,3386
quarter,3387
quays,3388
quentin,3389
query,3390
question,3391
questions,3392
queue,3393
queueing,3394
queues,3395
quick,3396
quicker,3397
quickle,3398
quickly,3399
quid,3400
quids,3401
quiet,3402
quietly,3403
quite,3404
rabbit,3405
race,3406
raced,3407
racers,3408
races,3409
rach,3410
racing,3411
rackstraw,3412
rain,3413
raining,3414
rainy,3415
raise,3416
raised,3417
raising,3418
raks,3419
ramble,3420
ramp,3421
ran,3422
range,3423
rapists,3424
rare,3425
rarity,3426
rat,3427
rate,3428
rated,3429
rattle,3430
ravenscourt,3431
rb,3432
rbs,3433
reach,3434
reached,3435
reaching,3436
reaction,3437
read,3438
reading,3439
readings,3440
reads,3441
ready,3442
real,3443
realise,3444
realised,3445
realising,3446
realistically,3447
reality,3448
reall,3449
really,3450
rear,3451
rearly,3452
reason,3453
reasonably,3454
reasons,3455
reassured,3456
rec,3457
recall,3458
recce,3459
receive,3460
received,3461
recent,3462
recently,3463
recieve,3464
reckon,3465
reckoned,3466
recognise,3467
recommend,3468
recommended,3469
record,3470
records,3471
recorn,3472
recount,3473
recoup,3474
recover,3475
recovered,3476
recoveries,3477
recovering,3478
recovery,3479
recuperate,3480
red,3481
reds,3482
reduce,3483
reduced,3484
reduces,3485
reducing,3486
reentering,3487
refered,3488
refereeing,3489
referring,3490
reflect,3491
reflective,3492
refreshed,3493
refueling,3494
refuelling,3495
regarding,3496
regards,3497
regents,3498
regimen,3499
register,3500
registered,3501
registration,3502
regretted,3503
regroup,3504
regular,3505
rehearse,3506
rehydrate,3507
rehydrtaion,3508
reins,3509
rejected,3510
rejection,3511
rejections,3512
relates,3513
relative,3514
relatives,3515
relax,3516
relaxed,3517
relaxing,3518
relay,3519
relays,3520
relect,3521
relief,3522
relying,3523
remain,3524
remaining,3525
remains,3526
remarkable,3527
remedial,3528
remedy,3529
remember,3530
reminding,3531
reminds,3532
removed,3533
removing,3534
rep,3535
repair,3536
repaired,3537
repeated,3538
replace,3539
replacement,3540
reply,3541
replys,3542
report,3543
reports,3544
reps,3545
requesting,3546
require,3547
required,3548
research,3549
resembled,3550
reserved,3551
reserves,3552
resident,3553
resiliency,3554
resistance,3555
respect,3556
responded,3557
responses,3558
responsibility,3559
rest,3560
rested,3561
restless,3562
restraint,3563
result,3564
results,3565
resume,3566
retail,3567
retain,3568
retire,3569
retirement,3570
return,3571
returned,3572
revelation,3573
revenge,3574
reverse,3575
revised,3576
reward,3577
rf,3578
rfg,3579
rfj,3580
rfl,3581
rh,3582
rhayader,3583
rhm,3584
rice,3585
rich,3586
richard,3587
richmond,3588
rick,3589
rid,3590
ride,3591
ridiculous,3592
riding,3593
rife,3594
right,3595
rightly,3596
rigorously,3597
ring,3598
ringing,3599
rings,3600
rink,3601
rio,3602
rioja,3603
risk,3604
rival,3605
rivals,3606
river,3607
riza,3608
rk,3609
rm,3610
road,3611
roads,3612
rob,3613
robin,3614
robinsonesque,3615
rochelle,3616
rock,3617
rocket,3618
rocking,3619
rocks,3620
roger,3621
roll,3622
rollick,3623
roma,3624
romantic,3625
ronnie,3626
roo,3627
roobarb,3628
roobarbs,3629
roobs,3630
room,3631
rooms,3632
rooting,3633
rossendale,3634
rotation,3635
rotterdam,3636
rough,3637
roughly,3638
round,3639
roundhay,3640
route,3641
routes,3642
rover,3643
row,3644
rowan,3645
rowing,3646
roz,3647
rub,3648
rubber,3649
rubbish,3650
ruby,3651
rue,3652
rugby,3653
ruin,3654
ruined,3655
ruining,3656
ruislip,3657
rule,3658
rumbletum,3659
run,3660
runlikethewind,3661
runner,3662
runners,3663
running,3664
runny,3665
runs,3666
ruscr,3667
rush,3668
rushing,3669
rw,3670
rwc,3671
rythym,3672
sad,3673
sadly,3674
safc,3675
safe,3676
safely,3677
safety,3678
said,3679
sailed,3680
sailing,3681
sainsbury,3682
salad,3683
salt,3684
samba,3685
sammy,3686
samples,3687
sandra,3688
sandstorms,3689
sandwich,3690
sandwiches,3691
sanps,3692
sant,3693
santa,3694
sapping,3695
saqib,3696
sarah,3697
sarus,3698
sat,3699
satisfied,3700
saturday,3701
saturdays,3702
sauce,3703
savage,3704
saving,3705
saw,3706
say,3707
saying,3708
says,3709
sb,3710
sbf,3711
sc,3712
scale,3713
scare,3714
scared,3715
scarf,3716
scarily,3717
scary,3718
scene,3719
scenery,3720
sceptical,3721
schedule,3722
schedules,3723
scheme,3724
schiphol,3725
school,3726
sciatica,3727
scorpions,3728
scotland,3729
scott,3730
screen,3731
screwed,3732
scrubs,3733
scrumptious,3734
sdi,3735
sea,3736
season,3737
seasons,3738
seat,3739
second,3740
secondary,3741
secondly,3742
seconds,3743
secs,3744
section,3745
sections,3746
seeing,3747
seeking,3748
seemingly,3749
seen,3750
seize,3751
seizing,3752
selbs,3753
selby,3754
self,3755
sell,3756
sellotape,3757
semi,3758
semis,3759
send,3760
sending,3761
sense,3762
sensibility,3763
sensible,3764
sensitive,3765
sent,3766
sept,3767
september,3768
seren,3769
seriously,3770
service,3771
serviced,3772
services,3773
sesamoid,3774
session,3775
sessions,3776
set,3777
sets,3778
settings,3779
settle,3780
settled,3781
seven,3782
severe,3783
sewerby,3784
sezz,3785
sf,3786
shades,3787
shall,3788
shame,3789
shape,3790
share,3791
sharp,3792
sharpener,3793
sharpeners,3794
sharper,3795
sharply,3796
shattered,3797
sheep,3798
sheet,3799
shelter,3800
sheltered,3801
shields,3802
shift,3803
shifting,3804
shifts,3805
shimmering,3806
shimmied,3807
shimms,3808
shin,3809
shins,3810
shiny,3811
shiraz,3812
shirl,3813
shirt,3814
sho,3815
shocker,3816
shocking,3817
shoe,3818
shoes,3819
shona,3820
shooting,3821
shop,3822
shopkeeper,3823
shopping,3824
shops,3825
short,3826
shorter,3827
shortly,3828
shorts,3829
shotokn,3830
shoulder,3831
shoulders,3832
shouldn,3833
shouldnt,3834
shout,3835
showboat,3836
showed,3837
shower,3838
showered,3839
showerstuff,3840
shows,3841
shuffler,3842
shut,3843
si,3844
sick,3845
sign,3846
signals,3847
signed,3848
significant,3849
signing,3850
silence,3851
sill,3852
silly,3853
silver,3854
silverstone,3855
similar,3856
similarity,3857
simon,3858
simple,3859
simply,3860
singapore,3861
single,3862
sink,3863
sir,3864
sis,3865
sister,3866
sit,3867
site,3868
sitting,3869
situated,3870
size,3871
sized,3872
sj,3873
skating,3874
skidding,3875
skills,3876
skin,3877
skinny,3878
skip,3879
skipper,3880
skirt,3881
sky,3882
slacker,3883
sleep,3884
sleepless,3885
sleepy,3886
sleet,3887
sleeve,3888
slept,3889
slight,3890
slightly,3891
slighty,3892
slimboyslim,3893
slip,3894
slipped,3895
sloping,3896
sloth,3897
slow,3898
slowed,3899
slower,3900
slowest,3901
slowly,3902
sm,3903
small,3904
smaller,3905
smarter,3906
smell,3907
smelling,3908
smiffie,3909
smile,3910
smilin,3911
smiling,3912
smith,3913
smoke,3914
smoothie,3915
snail,3916
snakes,3917
sneak,3918
sneaking,3919
sneezing,3920
sniffle,3921
sniffles,3922
snifter,3923
snoopy,3924
snooze,3925
snow,3926
soak,3927
soaked,3928
soapbox,3929
social,3930
sock,3931
socks,3932
sod,3933
sods,3934
sofa,3935
soft,3936
softener,3937
somebody,3938
somerset,3939
somethin,3940
somewhat,3941
son,3942
sons,3943
soon,3944
sooooo,3945
sooooooooo,3946
sorbothane,3947
sore,3948
soreness,3949
sores,3950
sorry,3951
sort,3952
sorted,3953
sound,3954
sounded,3955
sounds,3956
source,3957
south,3958
sox,3959
spams,3960
spannerbparsedonedigittchbumfface,3961
spans,3962
spare,3963
spasming,3964
speak,3965
speaking,3966
special,3967
spectactularly,3968
spectacularly,3969
spectate,3970
spectating,3971
speed,3972
speediest,3973
speedwork,3974
speedy,3975
spelling,3976
spelt,3977
spend,3978
spending,3979
spent,3980
spied,3981
spikes,3982
spill,3983
splash,3984
splits,3985
spoke,3986
spoken,3987
sponsor,3988
sponsored,3989
sponsorship,3990
spoon,3991
sport,3992
sporting,3993
sportive,3994
sports,3995
spose,3996
spot,3997
spotted,3998
spray,3999
spread,4000
spreadsheet,4001
sprightly,4002
spring,4003
springbok,4004
sprint,4005
sprinting,4006
sprints,4007
sprouts,4008
spur,4009
spurs,4010
sq,4011
squad,4012
squeak,4013
squint,4014
ss,4015
ssing,4016
sswfw,4017
st,4018
stability,4019
stacks,4020
stadium,4021
stage,4022
stain,4023
stairs,4024
stalls,4025
stamina,4026
stand,4027
standards,4028
standing,4029
stands,4030
star,4031
stare,4032
starp,4033
start,4034
started,4035
starting,4036
starts,4037
state,4038
statements,4039
static,4040
stating,4041
station,4042
stations,4043
statistics,4044
stats,4045
stay,4046
stayed,4047
staying,4048
stays,4049
steadily,4050
steady,4051
steak,4052
steam,4053
steaming,4054
steep,4055
step,4056
stephen,4057
stepped,4058
steve,4059
stevi,4060
stick,4061
sticking,4062
stickless,4063
sticks,4064
sticky,4065
stiff,4066
stiffer,4067
stiffness,4068
stinker,4069
stinking,4070
stint,4071
stipulates,4072
stir,4073
stocks,4074
stoke,4075
stoker,4076
stomach,4077
stone,4078
stonking,4079
stop,4080
stoped,4081
stopped,4082
stopping,4083
stops,4084
stopwatch,4085
stored,4086
stores,4087
stories,4088
stormed,4089
storms,4090
story,4091
stourbridge,4092
straight,4093
strain,4094
strange,4095
strategies,4096
strategy,4097
stratford,4098
streaks,4099
street,4100
streetlights,4101
strength,4102
strengthen,4103
stress,4104
stretch,4105
stretched,4106
stretches,4107
stretching,4108
strictly,4109
stride,4110
strides,4111
strips,4112
stroke,4113
strong,4114
stronger,4115
strongly,4116
structure,4117
struggle,4118
struggled,4119
struggling,4120
stubs,4121
stuck,4122
stuff,4123
stupid,4124
stupidly,4125
style,4126
stylish,4127
sub,4128
subconcious,4129
subconsciously,4130
subject,4131
subjects,4132
subscriber,4133
substituted,4134
success,4135
successful,4136
suck,4137
sucker,4138
suddenly,4139
sue,4140
suffer,4141
sufferers,4142
suffice,4143
suffolk,4144
sugestions,4145
suggest,4146
suggested,4147
suggesting,4148
suggestion,4149
suggestions,4150
suit,4151
suits,4152
sulk,4153
sullivan,4154
summary,4155
summer,4156
sun,4157
sunday,4158
sundays,4159
sunderland,4160
sunny,4161
super,4162
superb,4163
superdebbo,4164
supernova,4165
superstitious,4166
suposed,4167
supper,4168
supple,4169
supplements,4170
supply,4171
support,4172
supporter,4173
supporters,4174
supporting,4175
suppose,4176
supposed,4177
supposedly,4178
supreme,4179
sure,4180
surely,4181
surface,4182
surfaces,4183
surges,4184
suriving,4185
surprise,4186
surprised,4187
surprisingly,4188
surrey,4189
surrounding,4190
survive,4191
survived,4192
surviving,4193
susan,4194
susie,4195
susiebee,4196
suspect,4197
suspicious,4198
sussex,4199
sw,4200
swam,4201
swanny,4202
swayer,4203
sweary,4204
sweating,4205
sweaty,4206
swedwr,4207
sweep,4208
sweet,4209
sweetest,4210
sweets,4211
swerve,4212
swift,4213
swim,4214
swimming,4215
swin,4216
switch,4217
switching,4218
swparsedtwodigits,4219
sydney,4220
sympathize,4221
sympathy,4222
symptoms,4223
table,4224
tablets,4225
tackling,4226
tactics,4227
tad,4228
tails,4229
taken,4230
takes,4231
taking,4232
talent,4233
tales,4234
talk,4235
talking,4236
tall,4237
tallbird,4238
taller,4239
tallguy,4240
tamworth,4241
tank,4242
tape,4243
taper,4244
tapering,4245
target,4246
targeted,4247
targeting,4248
tarkers,4249
tarmac,4250
tarpaulin,4251
task,4252
tasks,4253
taste,4254
tatts,4255
tauts,4256
tavern,4257
taxes,4258
taxi,4259
taz,4260
tb,4261
tea,4262
teacher,4263
team,4264
teams,4265
technical,4266
tee,4267
teenage,4268
teeshirt,4269
teeth,4270
teh,4271
telephone,4272
tell,4273
telling,4274
tells,4275
telly,4276
temp,4277
temperatures,4278
temperorary,4279
tempo,4280
temporary,4281
tempted,4282
tempting,4283
tend,4284
tended,4285
tendency,4286
tender,4287
tendonitis,4288
tendonosis,4289
tennis,4290
tens,4291
tension,4292
tent,4293
ter,4294
tergat,4295
term,4296
terms,4297
test,4298
testicles,4299
testing,4300
tests,4301
text,4302
tf,4303
tfparsedonedigit,4304
thames,4305
thanet,4306
thank,4307
thankful,4308
thankfully,4309
thanks,4310
thansk,4311
thats,4312
theatre,4313
themall,4314
themarathon,4315
therapist,4316
theraputic,4317
therapy,4318
theread,4319
thermals,4320
thigh,4321
thighs,4322
thing,4323
things,4324
think,4325
thinking,4326
thinks,4327
thinning,4328
thistle,4329
tho,4330
thomas,4331
thoroughly,4332
thou,4333
thought,4334
thoughts,4335
thread,4336
threads,4337
threshold,4338
throbb,4339
throwaway,4340
throwing,4341
thrown,4342
thu,4343
thurs,4344
thursday,4345
tibial,4346
tick,4347
tickets,4348
ticking,4349
tied,4350
tight,4351
tighten,4352
tightness,4353
tights,4354
til,4355
till,4356
tillyp,4357
tim,4358
time,4359
timely,4360
times,4361
timex,4362
timing,4363
tinge,4364
tinkerbelle,4365
tinribs,4366
tip,4367
tipping,4368
tipptop,4369
tips,4370
tipsy,4371
tired,4372
tiredness,4373
tissue,4374
tm,4375
tmap,4376
toastman,4377
toasty,4378
today,4379
toddies,4380
toe,4381
toenail,4382
toenails,4383
toes,4384
toilet,4385
toilets,4386
told,4387
tolerance,4388
tom,4389
tommorrow,4390
tomorrow,4391
tonight,4392
tonk,4393
tony,4394
took,4395
tool,4396
toooo,4397
tooooooo,4398
tootie,4399
tooting,4400
tootling,4401
topics,4402
topped,4403
topping,4404
tops,4405
topsec,4406
torn,4407
tortoiseparsedtwodigits,4408
total,4409
totally,4410
totm,4411
tottenham,4412
tottering,4413
touch,4414
tough,4415
toughener,4416
toughest,4417
toulouse,4418
towells,4419
tower,4420
town,4421
towners,4422
toyed,4423
tr,4424
tracey,4425
track,4426
tracking,4427
trafalgar,4428
traffic,4429
trail,4430
trails,4431
train,4432
trained,4433
trainers,4434
trainign,4435
training,4436
trainning,4437
trains,4438
traning,4439
transport,4440
travel,4441
travelling,4442
travis,4443
treading,4444
treadmill,4445
treadmills,4446
tready,4447
treat,4448
treated,4449
treatment,4450
treddie,4451
treddy,4452
treehouse,4453
trees,4454
trendline,4455
trendy,4456
trg,4457
tri,4458
trial,4459
triathlon,4460
triathlons,4461
trick,4462
tricks,4463
tricky,4464
tried,4465
tries,4466
trimpell,4467
trin,4468
trip,4469
triple,4470
tripped,4471
trochanter,4472
trollers,4473
trophy,4474
trot,4475
trouble,4476
trouty,4477
trucking,4478
true,4479
truely,4480
truleigh,4481
truly,4482
trumpets,4483
trunk,4484
trust,4485
truthful,4486
try,4487
trying,4488
ts,4489
tsb,4490
tt,4491
ttl,4492
ttt,4493
tu,4494
tubby,4495
tube,4496
tues,4497
tuesday,4498
tuning,4499
tunnels,4500
tunturi,4501
turbo,4502
turkey,4503
turn,4504
turned,4505
turnout,4506
turns,4507
tutu,4508
tv,4509
twice,4510
twigged,4511
twist,4512
twixt,4513
type,4514
types,4515
typical,4516
typically,4517
typo,4518
tyres,4519
uess,4520
ufrc,4521
uk,4522
ukathletics,4523
ultimate,4524
ultra,4525
ultrasound,4526
um,4527
umb,4528
umbongo,4529
unacceptable,4530
unbearable,4531
unbelievably,4532
unchanged,4533
uncle,4534
uncomfortable,4535
understand,4536
understandable,4537
understatements,4538
understood,4539
underwear,4540
undeserving,4541
undulating,4542
uneven,4543
unexpectly,4544
unfinished,4545
unfit,4546
unfortunately,4547
unhappy,4548
unimpressed,4549
unique,4550
unit,4551
united,4552
unknown,4553
unless,4554
unlike,4555
unlikely,4556
unlucky,4557
unmbrella,4558
unrealistic,4559
unreliable,4560
unsuccessful,4561
unsure,4562
unsurprising,4563
unto,4564
untrue,4565
update,4566
updated,4567
updates,4568
updating,4569
uphill,4570
upped,4571
upright,4572
ups,4573
upset,4574
upwards,4575
ure,4576
url,4577
urwfrc,4578
use,4579
used,4580
useful,4581
using,4582
usual,4583
usually,4584
ususally,4585
vale,4586
valentine,4587
value,4588
valuxian,4589
valve,4590
vanished,4591
varies,4592
various,4593
vasaline,4594
vaseline,4595
vb,4596
ve,4597
vegetarians,4598
veggies,4599
vengeance,4600
venom,4601
venomous,4602
ventured,4603
verdict,4604
verge,4605
versus,4606
vest,4607
vet,4608
veteran,4609
veyr,4610
vflm,4611
victory,4612
video,4613
vienna,4614
view,4615
viffer,4616
villager,4617
virgin,4618
virtual,4619
virus,4620
viruses,4621
visit,4622
visited,4623
visiting,4624
visits,4625
vital,4626
vitamin,4627
vitamins,4628
viz,4629
voice,4630
void,4631
voila,4632
volume,4633
vote,4634
voucher,4635
vrap,4636
wabo,4637
wafting,4638
wages,4639
wahey,4640
waht,4641
wait,4642
waiting,4643
waking,4644
waldorf,4645
wales,4646
walk,4647
walked,4648
walking,4649
walks,4650
wall,4651
wandering,4652
wanders,4653
wanna,4654
want,4655
wanted,4656
wanting,4657
wants,4658
ward,4659
wardi,4660
warm,4661
warmed,4662
warmer,4663
warming,4664
warning,4665
warrior,4666
wars,4667
wasn,4668
wasps,4669
wasted,4670
wasters,4671
wasting,4672
watch,4673
watched,4674
watches,4675
watching,4676
water,4677
watered,4678
waterloo,4679
waters,4680
waterstop,4681
watford,4682
wating,4683
wave,4684
waves,4685
waving,4686
way,4687
ways,4688
wc,4689
weak,4690
weakness,4691
wealth,4692
wear,4693
wearing,4694
weather,4695
web,4696
website,4697
wed,4698
wedding,4699
wednesday,4700
wednesdays,4701
weds,4702
wee,4703
week,4704
weekday,4705
weekend,4706
weekends,4707
weekly,4708
weeknights,4709
weeks,4710
weeman,4711
weetabix,4712
weigh,4713
weighs,4714
weight,4715
weights,4716
weird,4717
welcombe,4718
welcome,4719
welcomes,4720
welcoming,4721
wellie,4722
wembley,4723
went,4724
weren,4725
west,4726
westminster,4727
wet,4728
wetsuit,4729
wey,4730
whadisay,4731
wharf,4732
whats,4733
whatsoever,4734
wheelchair,4735
wheldrake,4736
whereabouts,4737
whiled,4738
whilst,4739
whisky,4740
whispered,4741
whitby,4742
white,4743
whopping,4744
whow,4745
wi,4746
wicked,4747
wicking,4748
wider,4749
wife,4750
wifes,4751
wilde,4752
willy,4753
wilton,4754
wimbledon,4755
wimped,4756
win,4757
wincanton,4758
wind,4759
windermere,4760
window,4761
windows,4762
windsurfing,4763
windy,4764
wine,4765
wings,4766
winner,4767
wins,4768
winter,4769
wintery,4770
wiped,4771
wise,4772
wish,4773
wished,4774
wishes,4775
wishful,4776
wit,4777
witch,4778
wixey,4779
wobbly,4780
woke,4781
woking,4782
wokingham,4783
woman,4784
womble,4785
women,4786
won,4787
wonder,4788
wondered,4789
wonderful,4790
wondering,4791
wonders,4792
wont,4793
wooden,4794
woods,4795
woodwork,4796
woohoo,4797
woony,4798
worcester,4799
word,4800
words,4801
wore,4802
work,4803
worked,4804
working,4805
workload,4806
workout,4807
workouts,4808
works,4809
world,4810
worldpay,4811
worms,4812
wormwood,4813
worried,4814
worries,4815
worry,4816
worrying,4817
worse,4818
worsened,4819
worst,4820
worth,4821
worthwhile,4822
worthy,4823
wotsit,4824
wouldn,4825
wound,4826
wow,4827
wp,4828
wreck,4829
wrecked,4830
wristwatch,4831
write,4832
writing,4833
written,4834
wrong,4835
wrote,4836
ws,4837
wt,4838
wtf,4839
wtgy,4840
wu,4841
ww,4842
www,4843
wylls,4844
xc,4845
xfr,4846
xmas,4847
xparsedonedigit,4848
xpost,4849
xtrrea,4850
xv,4851
xx,4852
xxx,4853
ya,4854
yachts,4855
yards,4856
yateley,4857
yay,4858
yeah,4859
year,4860
yeara,4861
years,4862
yeh,4863
yellow,4864
yep,4865
yer,4866
yes,4867
yesterday,4868
yeterdays,4869
yikes,4870
yipee,4871
yippeee,4872
yoghurts,4873
yogs,4874
yomping,4875
york,4876
yorks,4877
youll,4878
younger,4879
youre,4880
youself,4881
youth,4882
youths,4883
yr,4884
yrs,4885
yu,4886
yuck,4887
yum,4888
ywould,4889
zimchick,4890
zimmers,4891
zinc,4892
zip,4893
zone,4894
zzzzs,4895
