_yoyo,0
about,1
absolutely,2
addicted,3
admit,4
after,5
again,6
ago,7
ah,8
ahem,9
ahisme,10
aid,11
air,12
airport,13
ako,14
alicia,15
alizegel,16
all,17
alone,18
already,19
also,20
always,21
am,22
amazing,23
amen,24
america,25
amieyacula,26
amo,27
ampel,28
amwriting,29
amypookers,30
an,31
and,32
andrea,33
angry,34
another,35
antwun,36
any,37
anya,38
anymore,39
anything,40
aparsedthreedigitsr,41
app,42
are,43
aren,44
argh,45
around,46
arrghh,47
arrivals,48
arrived,49
as,50
ashamed,51
ashbashparsedfourdigits,52
asher_ashy,53
ask,54
asleep,55
assumed,56
at,57
atlantic,58
atlanticgolf,59
att,60
aubreyoday,61
august,62
avaaz,63
away,64
awesome,65
awesomeee,66
aww,67
awww,68
awwwww,69
babies,70
baby,71
back,72
bad,73
badmood,74
bahahaha,75
band,76
bank,77
banned,78
baq,79
baseball,80
bastards,81
bat,82
bbparsedtwodigits,83
bbq,84
bcause,85
bcceq,86
be,87
beach,88
bear,89
bearly,90
beatrice,91
beautiful,92
beautifull,93
because,94
bed,95
bedtime,96
been,97
begins,98
being,99
best,100
better,101
bettis,102
between,103
bf,104
big,105
bike,106
biked,107
billy,108
birthday,109
bit,110
blender,111
blog,112
blogged,113
blogspot,114
blue,115
bluetree,116
blueturnsred,117
boa,118
board,119
bobby_doreparsedtwodigits,120
bom,121
book,122
booked,123
books,124
booty,125
born,126
both,127
bought,128
bout,129
bowt,130
boyfriend,131
bpp,132
bracelet,133
bras,134
brazil,135
break,136
breath,137
bringsdogtowork,138
british,139
britney,140
bro,141
brooklyn,142
brother,143
budget,144
bull,145
bums,146
bus,147
busy,148
but,149
butt,150
buttercupd,151
bwahahaha,152
by,153
calevans,154
call,155
can,156
cancelled,157
cancun,158
cannot,159
cant,160
car,161
card,162
carolinamnz,163
caroons,164
case,165
cast,166
cause,167
cedar,168
celeb,169
celebrate,170
cell,171
ceremony,172
ch,173
chadwickhjones,174
chair,175
chance,176
change,177
changing,178
channel,179
chariberri,180
charming,181
chasing,182
chest,183
chicken,184
children,185
chilling,186
chloe,187
christmas,188
chubby,189
chug,190
church,191
cinderella,192
cinemar,193
city,194
ckparsedonedigitei,195
class,196
classy,197
clean,198
clear,199
clone,200
closed,201
closet,202
co,203
cockpit,204
code,205
coercion,206
coffee,207
color,208
com,209
come,210
coming,211
comment,212
common,213
communicate,214
community,215
commute,216
compared,217
concentrate,218
confessed,219
congrats,220
connected,221
consecutive,222
conservatives,223
considering,224
consist,225
contains,226
cook,227
cool,228
cools,229
cooool,230
corgreen,231
cos,232
costume,233
could,234
courtneyparsedthreedigits,235
cparsedonedigitjparsedtwodigits,236
cpjparsedonedigit,237
cptac,238
crazy,239
creative,240
crisp,241
crossed,242
crowd,243
cry,244
crying,245
crystalroseparsedtwodigits,246
cuddle,247
currently,248
custody,249
cuwarrior,250
cycle,251
cycling,252
da,253
daaay,254
dad,255
damn,256
danheparsedtwodigits,257
daniel,258
daparsedtwodigits,259
dark,260
darker,261
day,262
days,263
dc,264
ddlovato,265
death,266
debbie,267
debbiefletcher,268
deefamouss,269
deep,270
deepndistant,271
definitely,272
dem,273
den,274
dentist,275
departures,276
desert,277
detailing,278
dey,279
dia,280
diamondlarry,281
did,282
didn,283
didnt,284
died,285
diet,286
dinner,287
dirtinmyi,288
dis,289
disorder,290
display,291
dnt,292
do,293
does,294
doesn,295
doing,296
don,297
done,298
dongwayne,299
dont,300
door,301
dorry,302
down,303
draw,304
dreaamara,305
dreams,306
drewfromtv,307
drinking,308
driver,309
dropbox,310
dropped,311
drown,312
drunk,313
dude,314
dunno,315
during,316
dwarf,317
dyee,318
each,319
eagles,320
earlier,321
earparsedtwodigits,322
eat,323
edits,324
either,325
else,326
emailed,327
emmalbishop,328
end,329
endless,330
energy,331
enjoyed,332
enjoying,333
enough,334
entered,335
erm,336
erynmichael,337
escola,338
essteeyou,339
etc,340
eu,341
even,342
ever,343
everyone,344
everything,345
excited,346
expect,347
experienced,348
expert,349
extremely,350
eye,351
eyepatch,352
eyeranprotestr,353
facebook,354
facility,355
fact,356
fair,357
fam,358
fama,359
family,360
famous,361
fan,362
fank,363
fans,364
fantastic,365
fanyjjang,366
far,367
faraday,368
fast,369
favorite,370
favorr,371
favs,372
february,373
feel,374
feeling,375
felt,376
few,377
film,378
films,379
final,380
financial,381
find,382
fine,383
fingers,384
finished,385
first,386
fishies,387
five,388
fiveparsedtwodigitsdesign,389
fix,390
flickrs,391
flu,392
fml,393
folder,394
followers,395
followfriday,396
food,397
for,398
forget,399
forth,400
forward,401
found,402
fparsedonedigitaparseddigitsyh,403
fr,404
frekin,405
fresh,406
friday,407
friends,408
from,409
fuck,410
fuckers,411
fucking,412
fuckyeahhappy,413
full,414
fun,415
funkyheff,416
funny,417
funy,418
gabor,419
game,420
games,421
gay,422
gems,423
gemstars,424
germany,425
get,426
gets,427
getting,428
gettting,429
gift,430
giparsedonedigitin,431
girl,432
glad,433
glee,434
go,435
goal,436
god,437
going,438
golf,439
gon,440
gone,441
gonna,442
good,443
goodnight,444
gop,445
gosh,446
gossip,447
got,448
gotta,449
grab,450
gramercy,451
grammar,452
grandma,453
great,454
greet,455
greetings,456
groupparsedonedigitcrew,457
growing,458
grr,459
grub,460
guess,461
guidoparsedtwodigits,462
guilty,463
guitar,464
guy,465
guys,466
gve,467
ha,468
had,469
haha,470
hahah,471
hahaha,472
hain,473
hair,474
hairbrush,475
halloween,476
hamburg,477
hands,478
hanging,479
happen,480
happy,481
happyhwife,482
happyprettyyou,483
hard,484
hardcorelomeli,485
harr,486
harry,487
has,488
hat,489
hate,490
hates,491
have,492
haven,493
having,494
he,495
head,496
headache,497
hear,498
heard,499
heavy,500
heck,501
hehe,502
hello,503
help,504
helpless,505
her,506
here,507
hey,508
heycassadee,509
hi,510
higgins,511
him,512
his,513
hmm,514
holds,515
holidays,516
home,517
homecoming,518
homes,519
homework,520
honey,521
hook,522
hope,523
hot,524
hours,525
house,526
how,527
however,528
http,529
hub,530
hug,531
huge,532
huhuu,533
human,534
humbracht,535
hungry,536
hurting,537
hurts,538
iamthemob,539
idk,540
if,541
ignore,542
ignoring,543
il,544
ill,545
illscarlett,546
im,547
imagine,548
imisss,549
impression,550
in,551
incredible,552
indoor,553
indraputra,554
inglorious,555
interesting,556
into,557
iowacodecamp,558
iphone,559
iranelection,560
iraq,561
is,562
isn,563
isotopp,564
issues,565
it,566
its,567
jackieloi,568
jackson,569
jagzparsedthreedigits,570
jake_diparsedthreedigits,571
jakieeeparsedtwodigits,572
janemcmurry,573
jasonmparsedthreedigits,574
jaxsk,575
jeaninedeal,576
jennihogan,577
jessybr,578
jesus,579
jkgirlalltheway,580
joejonasloverxo,581
johnny,582
joining,583
jordanknight,584
journey,585
jparsedonedigitzi,586
just,587
karinkydink,588
katecooperowen,589
kc,590
kebab,591
keema,592
keep,593
kentruff,594
keyboard,595
kinakabahan,596
kind,597
kinda,598
kindasleepy,599
knees,600
knew,601
know,602
knows,603
knw,604
kuuipoparsedfourdigits,605
la,606
lack,607
lady,608
lagi,609
lalasarah,610
laptop,611
last,612
lata,613
later,614
learn,615
lease,616
least,617
leave,618
leeconti,619
left,620
leg,621
legs,622
lesliellyn,623
less,624
let,625
lets,626
librivoxateers,627
life,628
lifted,629
like,630
liked,631
lil,632
lilgreenfingers,633
lisa,634
list,635
listen,636
little,637
live,638
lives,639
ll,640
lloyddavis,641
lnk,642
lol,643
lols,644
long,645
loo,646
look,647
looking,648
looks,649
lookyparsedonedigit,650
lorraine,651
lose,652
lost,653
lot,654
lots,655
love,656
loved,657
lovely,658
loves,659
loveu,660
lparsedonedigitr,661
lt,662
lub,663
lucy,664
luk,665
lunchenda,666
lunches,667
luv,668
ly,669
lying,670
lyphpcp,671
ma,672
mad,673
made,674
maggagyal,675
make,676
makemeupparsedtwodigits,677
makes,678
man,679
many,680
march,681
marcoshaw,682
marketable,683
markkayeshow,684
marleyterrier,685
marly,686
marvetbritto,687
mary,688
massive,689
matter,690
may,691
maybe,692
mbp,693
me,694
mean,695
meaning,696
meet,697
melsieparsedtwodigits,698
memory,699
michael,700
michaelmagical,701
michigan,702
midnight,703
might,704
millajovovich,705
mind,706
mine,707
minute,708
minutes,709
miss,710
missing,711
missy,712
mister,713
mitchelmusso,714
mmm,715
moderator,716
moegreeb,717
momma,718
money,719
months,720
monthsary,721
montreat,722
more,723
morning,724
morriscat,725
most,726
mother,727
motorcycle,728
mouth,729
movies,730
ms,731
much,732
mulator,733
muscle,734
music,735
musicgirlparsedthreedigits,736
mx,737
my,738
myloc,739
myprivatemuse,740
myself,741
myselfffffff,742
myspace,743
na,744
name,745
named,746
natalie,747
natassiachloe,748
natta,749
nbc,750
nd,751
need,752
never,753
new,754
news,755
neww,756
next,757
nic_a_,758
nice,759
night,760
nightly,761
nise,762
nkotb,763
nl,764
no,765
nongling,766
not,767
note,768
nothin,769
noticed,770
now,771
nparsedtwodigitsmz,772
number,773
obama,774
occ,775
of,776
off,777
offers,778
office,779
officially,780
oh,781
ok,782
okay,783
old,784
olds,785
omegle,786
omg,787
on,788
one,789
ones,790
only,791
oowarai,792
ope,793
open,794
opened,795
opinion,796
opinions,797
or,798
orange,799
ordered,800
orinoco,801
oritsuru,802
orphan,803
orphesteude,804
osang,805
osangmeister,806
oth,807
other,808
our,809
ourselves,810
out,811
outfits,812
outlet,813
outside,814
outta,815
over,816
own,817
owt,818
owwwieee,819
oz,820
pace,821
packed,822
packing,823
page,824
pal,825
paper,826
parents,827
parseddigitsth,828
parsedfivedigits,829
parsedfourdigits,830
parsedonedigit,831
parsedonedigitap,832
parsedonedigitbparseddigitszm,833
parsedonedigitdparseddigitsoparsedtwodigits,834
parsedonedigitgmicrocell,835
parsedonedigitgparseddigitshq,836
parsedonedigithgvt,837
parsedonedigitmorrow,838
parsedonedigitpopetorn,839
parsedonedigitwxparsedonedigitp,840
parsedthreedigits,841
parsedtime,842
parsedtwodigits,843
parsedtwodigitsbparsedthreedigits,844
parsedtwodigitscdnparsedonedigit,845
parsedtwodigitsmparseddigits,846
parsedtwodigitswparsedonedigitcparseddigits,847
parsedtwodigitswxcn,848
parts,849
passed,850
passes,851
past,852
people,853
perfect,854
periodd,855
person,856
perzonally,857
pex,858
pfshhh,859
phd,860
phone,861
photo,862
photojazz,863
photos,864
pic,865
picked,866
picking,867
pics,868
picturee,869
pictures,870
piece,871
pigments,872
pink,873
pirate,874
pita,875
pizza,876
place,877
plans,878
play,879
playing,880
please,881
plurk,882
podcast,883
poetryinsepia,884
point,885
popular,886
post,887
poster,888
potter,889
pr,890
pr_things,891
present,892
pretty,893
pro,894
problems,895
processing,896
professor,897
proposal,898
proud,899
psparsedonedigit,900
pumpkin,901
punching,902
pupp,903
purple,904
pusuit,905
put,906
qoo,907
qtt,908
qual,909
queenmotherblog,910
quick,911
quit,912
quiz,913
radioblogger,914
rain,915
rajeshlalwani,916
raspberries,917
rawr,918
re,919
read,920
reading,921
real,922
realbrookewhite,923
realized,924
really,925
recommend,926
record,927
rednecks,928
reduction,929
reference,930
registration,931
reikiawakening,932
related,933
relaxing,934
reminded,935
reported,936
republicans,937
resolution,938
rest,939
restaurant,940
restore,941
returnn,942
rid,943
riding,944
right,945
rings,946
ripped,947
ririardana,948
risk,949
roars,950
roasted,951
robertgirandola,952
rock,953
rt,954
rubs,955
rubyurl,956
run,957
s_lesley,958
sad,959
sadly,960
said,961
salesquotes,962
same,963
sand,964
sarah,965
saramadison,966
say,967
sayin,968
says,969
scalp,970
scared,971
scenery,972
school,973
scores,974
sea,975
seat,976
second,977
see,978
seen,979
sell,980
seriously,981
settled,982
shaking,983
sharing,984
she,985
shinny,986
shirt,987
shit,988
shitttt,989
shitty,990
shoots,991
shot,992
should,993
shoulders,994
show,995
shower,996
showing,997
shows,998
si,999
sick,1000
side,1001
signed,1002
signs,1003
simcards,1004
sing,1005
sis,1006
sister,1007
sit,1008
sitting,1009
skillet,1010
skills,1011
skype,1012
sleep,1013
sleeping,1014
slept,1015
slightly,1016
sm,1017
smart,1018
smh,1019
smile,1020
smiths,1021
smojica,1022
smoking,1023
snapped,1024
snbz,1025
sniffling,1026
snsd,1027
so,1028
soaking,1029
soccer,1030
social,1031
sofa,1032
solobassteve,1033
some,1034
someday,1035
someone,1036
somethin,1037
something,1038
somewhere,1039
songs,1040
soon,1041
sooo,1042
soooo,1043
sooooo,1044
sore,1045
sorry,1046
sort,1047
sounds,1048
soundtrack,1049
soup,1050
space,1051
spam,1052
special,1053
specialist,1054
spell,1055
spending,1056
spent,1057
splinter,1058
sports,1059
stalker,1060
start,1061
started,1062
state,1063
stay,1064
still,1065
stimulates,1066
stop,1067
story,1068
strawberries,1069
street,1070
stress,1071
strokes,1072
strong,1073
stuck,1074
stuff,1075
stupidd,1076
stylish,1077
sua,1078
such,1079
sumbody,1080
summer,1081
sumwhr,1082
sunburned,1083
sunday,1084
sunny,1085
sunnysiide,1086
sunshine,1087
super,1088
superglrl,1089
supports,1090
surprisingly,1091
surraoundings,1092
sweet,1093
sweetener,1094
swimming,1095
swine,1096
switched,1097
tackle,1098
tail,1099
taiwanfloods,1100
take,1101
taking,1102
talented,1103
talk,1104
talkin,1105
talking,1106
tamsterparsedfourdigits,1107
tass,1108
taylor,1109
tcot,1110
te,1111
teacher,1112
team,1113
technology,1114
techs,1115
telling,1116
tep,1117
terrible,1118
tested,1119
testing,1120
text,1121
texttt,1122
than,1123
thank,1124
thanks,1125
thanksgiving,1126
thankss,1127
that,1128
thats,1129
the,1130
thebeadgirl,1131
thee,1132
their,1133
them,1134
then,1135
there,1136
therezzza,1137
these,1138
thesethreecities,1139
they,1140
things,1141
think,1142
thinks,1143
third,1144
this,1145
though,1146
thought,1147
through,1148
throwing,1149
thx,1150
til,1151
till,1152
time,1153
times,1154
tinyurl,1155
tired,1156
to,1157
today,1158
tofu,1159
togo,1160
toh,1161
told,1162
tom,1163
tommcfly,1164
tomorrow,1165
tonight,1166
too,1167
tooday,1168
took,1169
tooth,1170
top,1171
tough,1172
tour,1173
town,1174
tqjonesparsedtwodigits,1175
trainwreck,1176
transferred,1177
tried,1178
triggered,1179
trip,1180
trips,1181
true,1182
tuck,1183
tumblr,1184
tummy,1185
tuna,1186
turn,1187
turns,1188
tweamburke,1189
tweet,1190
twitgoo,1191
twitpic,1192
twitter,1193
two,1194
twurl,1195
ugh,1196
ughh,1197
uk,1198
unbelievable,1199
underpaid,1200
understand,1201
unfortunately,1202
until,1203
up,1204
update,1205
updating,1206
ur,1207
us,1208
usa,1209
use,1210
used,1211
uselessly,1212
users,1213
using,1214
usnoozin,1215
usually,1216
values,1217
vbrissaparsedtwodigits,1218
ve,1219
very,1220
via,1221
vickiheyworth,1222
vid,1223
video,1224
vinilereu,1225
vino,1226
violetposy,1227
voorhout,1228
vt,1229
wah,1230
wait,1231
waiting,1232
wak,1233
walkin,1234
walls,1235
wanna,1236
want,1237
wanted,1238
war,1239
wark,1240
warning,1241
was,1242
wasn,1243
watch,1244
watching,1245
way,1246
we,1247
wearing,1248
wedding,1249
weddings,1250
week,1251
weekend,1252
weekends,1253
weight,1254
well,1255
wen,1256
went,1257
were,1258
weren,1259
westparsedtwodigits,1260
wet,1261
what,1262
whee,1263
when,1264
whenever,1265
while,1266
white,1267
whitecoat,1268
who,1269
whole,1270
whore,1271
whos,1272
whose,1273
whre,1274
why,1275
wifi,1276
wig,1277
wil,1278
wild,1279
will,1280
willsketchforcake,1281
win,1282
wind,1283
windmill,1284
window,1285
windows,1286
winnipeg,1287
wireless,1288
wisdom,1289
wish,1290
wishing,1291
with,1292
without,1293
woh,1294
woke,1295
woman,1296
won,1297
wonderful,1298
woooohhhoooo,1299
woooooooot,1300
woooot,1301
wore,1302
work,1303
working,1304
workk,1305
world,1306
worth,1307
would,1308
wow,1309
wrap,1310
wtf,1311
wtff,1312
wuzzup,1313
www,1314
xkathyxtarax,1315
xoxo,1316
xspparsedonedigitrhparsedtwodigitsd,1317
xueparsedonedigittntparsedonedigitq,1318
xxxx,1319
ya,1320
yarn,1321
yay,1322
yea,1323
yeah,1324
yeahh,1325
year,1326
years,1327
yec,1328
yellowduckx,1329
yep,1330
yes,1331
yeshh,1332
yet,1333
ykoparsedonedigitdzg,1334
yoghurt,1335
yoo,1336
you,1337
your,1338
yu,1339
yum,1340
yup,1341
yuppp,1342
zbussey,1343
ze,1344
zen,1345
zgtdz,1346
zsa,1347
õddd,1348
