ability,0
able,1
abreu,2
absence,3
absolutely,4
absurd,5
accepted,6
accidents,7
act,8
action,9
activist,10
acts,11
actual,12
actually,13
adapts,14
added,15
addiction,16
address,17
addresses,18
adhere,19
ado,20
advancement,21
advantage,22
advocate,23
affairs,24
affordable,25
afghanistan,26
afraid,27
age,28
ago,29
agony,30
agree,31
agricultural,32
aime,33
akyol,34
alien,35
alive,36
allen,37
alleviate,38
allow,39
allowing,40
allows,41
alongg,42
alternative,43
amazing,44
american,45
americans,46
amounts,47
amp,48
analogy,49
analyze,50
ann,51
answer,52
answers,53
antonio,54
apes,55
appears,56
applaud,57
appreciate,58
appropriate,59
apretiate,60
architect,61
area,62
areas,63
aren,64
argument,65
ariely,66
army,67
arrive,68
art,69
arthritis,70
articulated,71
artist,72
ask,73
aspect,74
ass,75
assertion,76
assistance,77
astute,78
atoms,79
att,80
attached,81
attempt,82
attendance,83
attendant,84
attitude,85
authentic,86
authors,87
autonomy,88
avoided,89
avoids,90
awaken,91
away,92
awe,93
awesome,94
awhile,95
background,96
bad,97
band,98
barber,99
barely,100
based,101
basic,102
bathroom,103
beautiful,104
beef,105
begins,106
behavior,107
behavioral,108
behaviours,109
beijing,110
beings,111
belief,112
beliefs,113
believe,114
bell,115
belongs,116
benifit,117
best,118
better,119
bias,120
big,121
bigg,122
biggest,123
billions,124
binding,125
biodiversity,126
bits,127
bjorn,128
blackmore,129
bless,130
blessing,131
blind,132
blog,133
blogspot,134
bodies,135
body,136
book,137
bored,138
born,139
bosses,140
bostrom,141
bothered,142
boundaries,143
boundary,144
brain,145
brains,146
branch,147
briefly,148
bright,149
brilliant,150
bringing,151
brutal,152
brutally,153
build,154
burdoning,155
business,156
businesses,157
buy,158
buying,159
calculation,160
california,161
came,162
campaign,163
campbell,164
cancer,165
candle,166
cannon,167
canot,168
capital,169
car,170
carbon,171
carry,172
cash,173
catch,174
cause,175
cello,176
century,177
cfr,178
chair,179
change,180
changed,181
changing,182
cheat,183
check,184
chery,185
children,186
childrenn,187
china,188
chinese,189
choice,190
chris,191
christians,192
christina,193
chronic,194
circles,195
circumstances,196
city,197
civil,198
claim,199
clarified,200
clasism,201
class,202
classes,203
climate,204
clinical,205
close,206
closely,207
clothing,208
clue,209
clumsy,210
cohesion,211
colbert,212
com,213
come,214
comes,215
comforts,216
comical,217
command,218
comment,219
commenting,220
commercially,221
common,222
community,223
companions,224
compare,225
compass,226
compensation,227
compete,228
complain,229
complete,230
completely,231
complex,232
comprehend,233
computer,234
conceded,235
concept,236
concluded,237
conclusion,238
conclusions,239
condition,240
conducted,241
confirm,242
confirmation,243
confusion,244
connected,245
connection,246
conscience,247
consciousness,248
conservatives,249
consider,250
considered,251
consistently,252
conspiracy,253
constantly,254
construct,255
continue,256
contradictions,257
contribute,258
contribution,259
control,260
controlling,261
cooked,262
cool,263
copied,264
coping,265
core,266
corpus,267
corrupt,268
corruption,269
costs,270
counter,271
countles,272
countries,273
country,274
couple,275
course,276
covert,277
craftsman,278
create,279
created,280
creating,281
creations,282
creative,283
creator,284
creators,285
cringe,286
critical,287
crops,288
crosses,289
cup,290
curiosity,291
current,292
customers,293
dabs,294
dad,295
damage,296
damaging,297
dan,298
dangers,299
daniel,300
dare,301
data,302
dave,303
david,304
davos,305
dawkins,306
day,307
dd,308
dead,309
deaf,310
deal,311
dear,312
death,313
debate,314
decades,315
decent,316
decides,317
decision,318
decrease,319
deed,320
deeper,321
default,322
definitely,323
degenerative,324
delicate,325
deliver,326
demanded,327
demanding,328
demean,329
democratic,330
denied,331
depress,332
depressed,333
deprived,334
derivatives,335
descent,336
descisions,337
descriptions,338
deserved,339
deserves,340
design,341
designed,342
despite,343
determination,344
devastating,345
develop,346
developed,347
development,348
device,349
devoted,350
dewan,351
dictate,352
did,353
died,354
diet,355
dietary,356
different,357
differentiation,358
differing,359
digital,360
dilution,361
dims,362
direction,363
disabled,364
disagree,365
discipline,366
discourse,367
discovered,368
discs,369
discuss,370
discussed,371
discusses,372
diseases,373
disgraceful,374
dismissive,375
disprove,376
distinguishing,377
distraction,378
disturbing,379
does,380
doesn,381
doing,382
dollars,383
dominating,384
don,385
drastically,386
drink,387
drive,388
driving,389
dubious,390
dumbing,391
dumped,392
duplicates,393
duration,394
dutch,395
eacute,396
earlier,397
ears,398
easier,399
easy,400
eat,401
echo,402
economic,403
economist,404
educate,405
educated,406
education,407
effectively,408
effectiveness,409
efficiency,410
efficient,411
efficiently,412
efforts,413
elderly,414
elephant,415
eliminated,416
elites,417
eloquent,418
embrace,419
emiliano,420
emotion,421
emotional,422
empathy,423
emphatically,424
empowering,425
encourage,426
encouraged,427
end,428
endorse,429
ends,430
energy,431
engagement,432
engine,433
enslavement,434
ensure,435
enterprise,436
environment,437
environmental,438
epic,439
equally,440
equate,441
equipment,442
especially,443
eternity,444
ethical,445
euclidean,446
euphoria,447
europe,448
event,449
events,450
eventually,451
evil,452
evolution,453
evolutionist,454
evolutionn,455
evolved,456
example,457
examples,458
excellence,459
excellent,460
exchanging,461
excited,462
exercise,463
existence,464
expansiveness,465
experience,466
experiences,467
experiencing,468
experiment,469
experinces,470
explains,471
explored,472
expressed,473
extra,474
extraordinary,475
extremely,476
face,477
fact,478
facts,479
fail,480
faiths,481
fall,482
fallacies,483
fallen,484
falsifiable,485
family,486
famous,487
fancy,488
fantastic,489
far,490
fascinating,491
fat,492
father,493
fatter,494
fault,495
fear,496
fears,497
feature,498
features,499
feed,500
feel,501
feeling,502
feldman,503
felix,504
felt,505
femininity,506
feminist,507
fertility,508
fiction,509
fight,510
final,511
finally,512
finding,513
findings,514
fine,515
finite,516
fit,517
fix,518
floating,519
flu,520
fluctuations,521
focus,522
focused,523
focusing,524
follow,525
followed,526
following,527
food,528
footprint,529
force,530
forever,531
forgets,532
form,533
formed,534
fortification,535
fossil,536
free,537
freedom,538
friends,539
frightened,540
fuels,541
fun,542
functional,543
functions,544
fundamentalisms,545
fundamentals,546
future,547
gallon,548
garbage,549
gas,550
gasoline,551
gauge,552
gay,553
generally,554
generates,555
generation,556
geof,557
geometry,558
germans,559
getting,560
gilbert,561
gilgamesh,562
girl,563
girls,564
given,565
gives,566
giving,567
global,568
globall,569
glorified,570
glue,571
gm,572
god,573
goglemapsapi,574
going,575
gold,576
good,577
goodness,578
goree,579
got,580
gotten,581
governing,582
government,583
governments,584
gps,585
grand,586
great,587
greater,588
greatest,589
green,590
gregariousness,591
grew,592
grips,593
grow,594
growing,595
gt,596
guarantee,597
guess,598
guide,599
guy,600
guys,601
hagovers,602
haidt,603
hall,604
hand,605
handcuffed,606
handicapped,607
handling,608
hans,609
happen,610
happening,611
happiness,612
happy,613
hapy,614
hard,615
harder,616
hate,617
hated,618
haven,619
having,620
heading,621
headlines,622
heads,623
health,624
healthy,625
heart,626
heaven,627
heed,628
helip,629
hell,630
help,631
helped,632
helping,633
hero,634
high,635
highly,636
hilarious,637
hip,638
historical,639
history,640
hit,641
hold,642
holes,643
hollywood,644
honest,645
hook,646
hope,647
horizons,648
horrible,649
horrifying,650
house,651
html,652
htp,653
huge,654
human,655
humane,656
humanity,657
humble,658
humor,659
hunting,660
ib,661
idea,662
ideals,663
ideas,664
ideological,665
ideologues,666
ignorance,667
ignore,668
ignoringg,669
ii,670
illusion,671
imersive,672
impact,673
implications,674
impolite,675
importantly,676
impossible,677
inaccessible,678
incapable,679
incidences,680
included,681
includes,682
incomes,683
incomprehensible,684
incorporation,685
increase,686
independence,687
indexes,688
india,689
industry,690
inevitable,691
infinite,692
info,693
information,694
informed,695
informs,696
ingang,697
ingenious,698
ingrained,699
inhabits,700
initiated,701
injustice,702
innovation,703
inside,704
inspire,705
inspiring,706
instead,707
institutionalised,708
intelligent,709
intention,710
intentionalityy,711
interacting,712
interaction,713
interactions,714
interactive,715
interconnected,716
interesteding,717
interesting,718
international,719
internet,720
interpreted,721
interview,722
interviews,723
introduce,724
introduction,725
introdues,726
introverted,727
intrusion,728
intuitive,729
invade,730
inventor,731
investigation,732
invited,733
involves,734
iq,735
irrational,736
irritated,737
islam,738
islamicc,739
isn,740
isolating,741
israel,742
issue,743
issues,744
issuing,745
iwould,746
japan,747
japanese,748
jil,749
job,750
jon,751
jones,752
jos,753
journalist,754
just,755
kaba,756
ken,757
killing,758
kind,759
klein,760
knew,761
know,762
knowledge,763
knows,764
korea,765
lacking,766
large,767
lastly,768
lastt,769
latching,770
law,771
ldquo,772
lead,773
leads,774
learn,775
learned,776
lecture,777
lee,778
leeuwenhoek,779
left,780
legitimal,781
legitimize,782
level,783
licenses,784
lie,785
lies,786
life,787
lifestyle,788
light,789
lights,790
like,791
likely,792
lint,793
list,794
listening,795
little,796
live,797
lived,798
lives,799
living,800
ljbmauparsedonedigitjc,801
lol,802
lone,803
long,804
longer,805
look,806
looking,807
looks,808
losing,809
loss,810
lost,811
lot,812
lots,813
love,814
macroevolution,815
magic,816
magnetic,817
maher,818
main,819
mainstream,820
maintain,821
major,822
majority,823
make,824
makes,825
making,826
man,827
managing,828
maneuver,829
manipulate,830
manipulation,831
mankind,832
manufacture,833
mao,834
map,835
marketer,836
marvelling,837
masculinity,838
masses,839
materials,840
math,841
mdash,842
mean,843
meaning,844
means,845
meant,846
measured,847
mechanisms,848
media,849
medicinal,850
medicine,851
meetings,852
memes,853
memetics,854
men,855
mention,856
mentioned,857
mentioning,858
mentions,859
merely,860
message,861
met,862
metaphor,863
methodical,864
mexican,865
mgvkvkmbrparsedonedigita,866
microbes,867
microsoft,868
micrososft,869
microwave,870
mild,871
mileage,872
military,873
mind,874
minds,875
minimal,876
misandry,877
misled,878
misrepresented,879
missed,880
mit,881
model,882
modern,883
moment,884
money,885
mongering,886
monkeys,887
moon,888
moral,889
morality,890
mosher,891
mother,892
motivations,893
moved,894
movie,895
moving,896
mpparsedonedigit,897
mr,898
muhamed,899
murderer,900
mushroom,901
mushrooms,902
music,903
muslims,904
mustafe,905
mycelium,906
mystical,907
myth,908
nanking,909
nation,910
natural,911
nature,912
need,913
needed,914
needs,915
negative,916
neighbors,917
network,918
neuroscience,919
new,920
newly,921
newnham,922
news,923
nice,924
nick,925
noah,926
nonsense,927
note,928
notes,929
number,930
numbers,931
nutrient,932
obedience,933
objects,934
observation,935
observer,936
obvious,937
obviously,938
occupation,939
ocean,940
offended,941
officer,942
oh,943
ohio,944
oil,945
oils,946
old,947
ones,948
open,949
openly,950
operate,951
opinion,952
opposite,953
oppression,954
orbital,955
order,956
organizations,957
outcome,958
outlets,959
overwhelm,960
owned,961
pace,962
page,963
pain,964
pandemic,965
par,966
paradigm,967
paradox,968
paraphrasing,969
paraplegic,970
parody,971
parsedfourdigits,972
parsedonedigit,973
parsedonedigitd,974
parsedthreedigits,975
parsedthreedigitsp,976
parsedtwodigits,977
parsedtwodigitsth,978
partially,979
particles,980
partner,981
party,982
passed,983
passion,984
path,985
paths,986
patience,987
payback,988
paying,989
pc,990
peace,991
pedophiles,992
peeve,993
people,994
peoples,995
perceptions,996
perfect,997
perfectly,998
performance,999
periods,1000
permissible,1001
permits,1002
person,1003
personally,1004
perversion,1005
pet,1006
philosophy,1007
phone,1008
phrase,1009
picking,1010
piece,1011
pillars,1012
pink,1013
pinker,1014
plain,1015
plant,1016
plants,1017
plastic,1018
plastics,1019
player,1020
player_embeded,1021
playing,1022
point,1023
pointed,1024
pointless,1025
points,1026
poke,1027
polarize,1028
police,1029
political,1030
politicians,1031
pontification,1032
poor,1033
pop,1034
portal,1035
porter,1036
poses,1037
position,1038
positive,1039
possible,1040
post,1041
postsecret,1042
povertyy,1043
power,1044
powers,1045
preaching,1046
precise,1047
predictablyy,1048
presented,1049
pressing,1050
pretty,1051
prevent,1052
pricing,1053
pride,1054
principles,1055
prior,1056
priorities,1057
privacy,1058
privilege,1059
pro,1060
probably,1061
probing,1062
problem,1063
problems,1064
proceed,1065
process,1066
produce,1067
produces,1068
products,1069
professional,1070
professionals,1071
professor,1072
profit,1073
profitable,1074
profits,1075
prognostications,1076
program,1077
project,1078
projects,1079
promise,1080
promote,1081
properties,1082
prophet,1083
proportion,1084
proportionate,1085
protect,1086
prove,1087
proved,1088
proven,1089
provide,1090
providers,1091
providing,1092
provoking,1093
ps,1094
psychology,1095
public,1096
publish,1097
purity,1098
purpose,1099
puzzle,1100
quality,1101
quantity,1102
question,1103
quiet,1104
quit,1105
quite,1106
quo,1107
race,1108
rahul,1109
raise,1110
rapid,1111
rapt,1112
rarely,1113
rate,1114
ratio,1115
ravaged,1116
rdquo,1117
reach,1118
reached,1119
reactions,1120
read,1121
ready,1122
real,1123
reality,1124
realize,1125
really,1126
reap,1127
reasearch,1128
reason,1129
recently,1130
recognize,1131
recommendations,1132
recycling,1133
reduction,1134
referring,1135
refers,1136
regain,1137
regardless,1138
regards,1139
reign,1140
reject,1141
rejoined,1142
relative,1143
reliable,1144
religion,1145
religions,1146
religious,1147
remember,1148
reminds,1149
reminiscence,1150
repetoire,1151
report,1152
reproducible,1153
requesting,1154
required,1155
requirements,1156
reserved,1157
residents,1158
resource,1159
resources,1160
responses,1161
responsibility,1162
rest,1163
restrictive,1164
results,1165
return,1166
revealed,1167
revelation,1168
revenue,1169
revolution,1170
richard,1171
rifles,1172
right,1173
righteous,1174
rigid,1175
rigorous,1176
ring,1177
risk,1178
robinson,1179
rock,1180
role,1181
room,1182
root,1183
roots,1184
rosling,1185
routs,1186
rsquo,1187
ruling,1188
running,1189
sacrifice,1190
sad,1191
sadlyy,1192
safe,1193
said,1194
sale,1195
satelites,1196
saves,1197
saw,1198
say,1199
saying,1200
scale,1201
scenarios,1202
schedule,1203
schizophrenia,1204
school,1205
science,1206
scientific,1207
scientist,1208
scientists,1209
screwed,1210
screwing,1211
sea,1212
search,1213
searches,1214
searching,1215
seasonal,1216
secret,1217
secrete,1218
seee,1219
seen,1220
sees,1221
selection,1222
self,1223
selling,1224
sending,1225
senses,1226
sensing,1227
sentence,1228
seriously,1229
set,1230
setting,1231
shamelessly,1232
share,1233
shared,1234
shares,1235
sharing,1236
short,1237
shortened,1238
shown,1239
shrine,1240
shut,1241
sichuan,1242
sickened,1243
sicker,1244
significance,1245
significant,1246
similar,1247
simply,1248
sing,1249
single,1250
sir,1251
sit,1252
size,1253
sky,1254
slavery,1255
sleepy,1256
small,1257
smart,1258
smile,1259
smiled,1260
smolin,1261
smug,1262
sniping,1263
snufed,1264
social,1265
societal,1266
society,1267
software,1268
solar,1269
sole,1270
solving,1271
son,1272
sorry,1273
sort,1274
sought,1275
soul,1276
sounded,1277
sounds,1278
source,1279
sowing,1280
spare,1281
speak,1282
speaker,1283
speaks,1284
specific,1285
specter,1286
speech,1287
spending,1288
spent,1289
spiderman,1290
spike,1291
spirituality,1292
sponsers,1293
spread,1294
springtime,1295
squeezing,1296
ss,1297
stability,1298
stand,1299
standard,1300
start,1301
starts,1302
state,1303
stated,1304
stations,1305
statistics,1306
status,1307
step,1308
stephen,1309
stereotype,1310
steroids,1311
steve,1312
stewart,1313
sticky,1314
stifling,1315
stimulus,1316
stole,1317
stop,1318
stopped,1319
stories,1320
stranger,1321
stream,1322
stressing,1323
stringss,1324
stronger,1325
struck,1326
structure,1327
student,1328
students,1329
studied,1330
study,1331
stuff,1332
stuffs,1333
style,1334
styrofoam,1335
subject,1336
substitutes,1337
success,1338
successfully,1339
succumbing,1340
suffering,1341
suggest,1342
suggests,1343
suicided,1344
suppose,1345
supposed,1346
sure,1347
surprising,1348
surprisingly,1349
surroundings,1350
susan,1351
suspect,1352
swept,1353
sytems,1354
tabarok,1355
taboo,1356
tack,1357
taking,1358
talented,1359
taliban,1360
talk,1361
talking,1362
talks,1363
tampon,1364
teach,1365
teacher,1366
teachers,1367
teaching,1368
techniques,1369
technology,1370
ted,1371
telecom,1372
tell,1373
term,1374
tern,1375
terrorism,1376
test,1377
testimony,1378
thailand,1379
thank,1380
thanks,1381
thats,1382
theory,1383
thing,1384
things,1385
think,1386
thinking,1387
thomas,1388
thought,1389
thoughtful,1390
thousands,1391
threads,1392
threat,1393
threatening,1394
threw,1395
thrive,1396
time,1397
timely,1398
times,1399
title,1400
tj,1401
toe,1402
told,1403
tonic,1404
tools,1405
topic,1406
totally,1407
touch,1408
touched,1409
touches,1410
touching,1411
tragic,1412
transcendence,1413
transcript,1414
transfer,1415
transformations,1416
transition,1417
translated,1418
trials,1419
truce,1420
true,1421
truly,1422
truth,1423
try,1424
trying,1425
tunes,1426
turn,1427
tv,1428
type,1429
tyrannyy,1430
ultimate,1431
unable,1432
unbelivable,1433
understand,1434
understanding,1435
understands,1436
understatment,1437
undo,1438
undone,1439
unhappy,1440
unison,1441
universe,1442
unusual,1443
unveiled,1444
use,1445
used,1446
useful,1447
uses,1448
vagina,1449
valid,1450
value,1451
values,1452
various,1453
vast,1454
ve,1455
vehicles,1456
version,1457
vibrations,1458
video,1459
viewed,1460
viewing,1461
viewpoint,1462
viewpoints,1463
violent,1464
virgin,1465
virtual,1466
virtualized,1467
visit,1468
vlc,1469
vocalist,1470
vocally,1471
voice,1472
vortex,1473
vulnerability,1474
wait,1475
walker,1476
wang,1477
wans,1478
want,1479
wanted,1480
wants,1481
war,1482
warming,1483
warped,1484
waste,1485
watch,1486
watched,1487
watching,1488
water,1489
way,1490
weakness,1491
webb,1492
weekday,1493
wek,1494
whatsoever,1495
whel,1496
wi,1497
wind,1498
wire,1499
wish,1500
women,1501
wonder,1502
wonderful,1503
woody,1504
word,1505
words,1506
work,1507
worked,1508
workers,1509
works,1510
world,1511
worldwide,1512
worth,1513
worthy,1514
wow,1515
write,1516
writers,1517
writing,1518
written,1519
wrong,1520
xd,1521
year,1522
years,1523
yes,1524
youngsters,1525
youtube,1526
ystating,1527
