ability,0
able,1
abreu,2
absence,3
absolutely,4
absurd,5
accepted,6
accidents,7
act,8
activist,9
actual,10
actually,11
acute,12
adapts,13
added,14
address,15
addresses,16
adhere,17
ado,18
advancement,19
advantage,20
advocate,21
affairs,22
affordable,23
afghanistan,24
afraid,25
age,26
ago,27
agony,28
agree,29
agricultural,30
aime,31
akyol,32
al,33
alien,34
allen,35
alleviate,36
allow,37
allowing,38
allows,39
alongg,40
alternative,41
amazing,42
american,43
americans,44
amounts,45
amp,46
analogy,47
analyze,48
ann,49
answer,50
answers,51
antonio,52
apes,53
apocalypse,54
appears,55
applaud,56
appreciate,57
appropriate,58
apretiate,59
architect,60
area,61
areas,62
aren,63
argument,64
ariely,65
army,66
arrive,67
art,68
arthritis,69
artist,70
aside,71
ask,72
ass,73
assertion,74
assistance,75
astute,76
atoms,77
att,78
attached,79
attempt,80
attendance,81
attendant,82
attitude,83
authentic,84
authors,85
autonomy,86
avoided,87
avoids,88
awaken,89
aware,90
away,91
awe,92
awesome,93
awhile,94
baby,95
background,96
bad,97
bajo,98
band,99
barber,100
barely,101
basic,102
bathroom,103
beautiful,104
beef,105
begging,106
begins,107
behavior,108
behavioral,109
behaviours,110
beijing,111
beings,112
belief,113
believe,114
bell,115
belongs,116
benifit,117
best,118
better,119
bias,120
bible,121
big,122
bigg,123
biggest,124
billions,125
biodiversity,126
bit,127
bits,128
bjorn,129
blackmore,130
blanket,131
bless,132
blessing,133
blind,134
blocking,135
blog,136
blogspot,137
bodies,138
body,139
book,140
bored,141
born,142
bostrom,143
bothered,144
boundaries,145
boundary,146
brain,147
brains,148
branch,149
briefly,150
bright,151
brilliant,152
bringing,153
brutally,154
burdoning,155
business,156
businesses,157
buy,158
buying,159
calculation,160
california,161
came,162
campaign,163
cancer,164
candle,165
cannon,166
canot,167
capital,168
car,169
carbon,170
carr,171
carry,172
cash,173
catch,174
cause,175
causing,176
cello,177
century,178
cfr,179
chair,180
change,181
changed,182
changing,183
cheat,184
check,185
chery,186
children,187
childrenn,188
china,189
chinese,190
choice,191
chris,192
christians,193
christina,194
chronic,195
cierta,196
circles,197
circumstances,198
city,199
civil,200
claim,201
clarified,202
clases,203
clasism,204
class,205
classes,206
clear,207
climate,208
clinical,209
close,210
closely,211
clothing,212
clue,213
clumsy,214
cohesion,215
colbert,216
collapse,217
com,218
come,219
comes,220
comforts,221
comical,222
command,223
comment,224
commenting,225
commercially,226
common,227
communication,228
communities,229
community,230
compare,231
compass,232
compensation,233
complain,234
complejas,235
complete,236
completely,237
complex,238
comprehend,239
computer,240
conceded,241
concept,242
concert,243
concluded,244
conclusion,245
conclusions,246
condition,247
conducted,248
confirm,249
confirmation,250
confusion,251
connected,252
connection,253
conscience,254
consciousness,255
conservatives,256
consider,257
considered,258
consistently,259
conspiracy,260
construct,261
continue,262
contradiction,263
contradictions,264
contribution,265
control,266
controlling,267
cooked,268
cool,269
copied,270
coping,271
core,272
corpus,273
corrupt,274
corruption,275
costo,276
costs,277
counter,278
countles,279
countries,280
country,281
countrymen,282
couple,283
course,284
covert,285
craftsman,286
create,287
created,288
creating,289
creations,290
creative,291
creator,292
creators,293
cringe,294
critical,295
crops,296
crosses,297
cual,298
cuba,299
cup,300
curiosity,301
current,302
customers,303
dabs,304
dad,305
damage,306
damaging,307
dan,308
dancers,309
dancing,310
dangers,311
daniel,312
dare,313
data,314
dave,315
david,316
davos,317
day,318
dead,319
deaf,320
deal,321
dear,322
death,323
debate,324
decades,325
december,326
decent,327
decides,328
decision,329
decrease,330
deed,331
deeper,332
default,333
definitely,334
degenerative,335
delicate,336
deliver,337
demanded,338
demanding,339
demean,340
denied,341
depress,342
depressed,343
deprived,344
derivatives,345
descent,346
descisions,347
descriptions,348
deserved,349
deserves,350
design,351
designed,352
despite,353
determination,354
detroit,355
devastating,356
develop,357
developed,358
development,359
device,360
devoted,361
dewan,362
dictate,363
did,364
died,365
diet,366
dietary,367
different,368
differentiation,369
differently,370
differing,371
digital,372
dilution,373
dims,374
dinero,375
direction,376
disabled,377
disagree,378
discipline,379
discourse,380
discovered,381
discs,382
discuss,383
discussed,384
discusses,385
diseases,386
disgraceful,387
dismissive,388
disprove,389
distinguishing,390
distraction,391
disturbing,392
does,393
doesn,394
doing,395
dollar,396
dollars,397
dominating,398
don,399
drastically,400
drink,401
drive,402
driving,403
dubious,404
dumbing,405
dumped,406
duplicates,407
duration,408
dutch,409
eacute,410
earlier,411
ears,412
easier,413
easy,414
eat,415
eccentricities,416
echo,417
economic,418
economist,419
educate,420
education,421
effectively,422
effectiveness,423
efficiency,424
efficient,425
efficiently,426
efforts,427
elderly,428
elephant,429
eliminated,430
elites,431
eloquent,432
embargo,433
embrace,434
emiliano,435
emotion,436
emotional,437
empathy,438
emphatically,439
en,440
encourage,441
encouraged,442
end,443
endorse,444
ends,445
energy,446
engagement,447
enslavement,448
ensure,449
enterprise,450
environment,451
environmental,452
epic,453
epistemology,454
equally,455
equate,456
equipment,457
ero,458
es,459
escazos,460
eso,461
especially,462
est,463
este,464
eternity,465
ethical,466
euclidean,467
euphoria,468
europe,469
event,470
events,471
eventually,472
evil,473
evolution,474
evolutionist,475
evolutionn,476
evolved,477
evqparsedonedigitwnvtcparsedonedigitm,478
example,479
examples,480
excellence,481
exchanging,482
excited,483
existed,484
existen,485
existence,486
expansiveness,487
experience,488
experiences,489
experiment,490
experinces,491
explains,492
explored,493
express,494
expressed,495
extra,496
extraordinary,497
face,498
fact,499
facts,500
fail,501
faiths,502
fall,503
fallacies,504
fallen,505
falsifiable,506
family,507
famous,508
fancy,509
fantastic,510
far,511
fascinating,512
fat,513
father,514
fatter,515
fault,516
fear,517
feature,518
features,519
feed,520
feel,521
feeling,522
felix,523
felt,524
femininity,525
feminist,526
fertility,527
fiction,528
final,529
finally,530
finding,531
findings,532
fine,533
finite,534
fit,535
fix,536
floating,537
flu,538
fluctuations,539
focus,540
focused,541
focusing,542
follow,543
followed,544
following,545
food,546
footprint,547
force,548
forever,549
forgets,550
form,551
forma,552
fortification,553
forward,554
fossil,555
free,556
freedom,557
friends,558
frightened,559
frustrations,560
fuels,561
fun,562
functional,563
functions,564
fundamentalisms,565
fundamentals,566
future,567
gallon,568
garbage,569
gas,570
gasoline,571
gauge,572
gay,573
generally,574
generates,575
generation,576
genius,577
geof,578
geometry,579
germans,580
getting,581
gilbert,582
gilgamesh,583
girl,584
girls,585
given,586
gives,587
giving,588
global,589
globall,590
glorified,591
glue,592
gm,593
god,594
goglemapsapi,595
going,596
gold,597
good,598
goodness,599
goree,600
got,601
gotten,602
governing,603
government,604
governments,605
gps,606
great,607
greater,608
greatest,609
green,610
gregariousness,611
grew,612
grips,613
grow,614
growing,615
guarantee,616
guitar,617
guy,618
guys,619
haidt,620
hall,621
hand,622
handcuffed,623
handicapped,624
handling,625
hans,626
happen,627
happening,628
happiness,629
happy,630
hapy,631
hard,632
harder,633
hate,634
haven,635
having,636
heading,637
headlines,638
heads,639
health,640
healthy,641
heart,642
heaven,643
heed,644
helip,645
hell,646
help,647
helped,648
helping,649
hero,650
hidden,651
high,652
highly,653
hilarious,654
hip,655
historical,656
history,657
hit,658
hold,659
holes,660
hollywood,661
honest,662
hook,663
hope,664
hopefully,665
horizons,666
horrible,667
horrifying,668
hours,669
house,670
html,671
htp,672
huge,673
human,674
humane,675
humanity,676
humble,677
humor,678
hunting,679
ib,680
idea,681
ideas,682
ideological,683
ideologues,684
ignorance,685
ignoringg,686
ii,687
illusion,688
imersive,689
impact,690
implica,691
implications,692
impolite,693
importantly,694
impossible,695
inaccessible,696
incapable,697
incidences,698
included,699
includes,700
incomes,701
incomprehensible,702
increase,703
independence,704
indexes,705
india,706
industry,707
inevitable,708
infinite,709
info,710
informed,711
informs,712
ingang,713
ingrained,714
inhabits,715
initiated,716
injustice,717
innovation,718
insanity,719
inspire,720
inspiring,721
instead,722
intention,723
intentionalityy,724
interacting,725
interaction,726
interactions,727
interactive,728
interconnected,729
interesteding,730
interesting,731
international,732
internet,733
interpreted,734
interview,735
interviews,736
introduce,737
introduction,738
introverted,739
intrusion,740
intuitive,741
invade,742
inventor,743
investigation,744
invited,745
involves,746
iraqi,747
irrational,748
irritated,749
islam,750
islamicc,751
island,752
isn,753
isnt,754
isolating,755
israel,756
issue,757
issues,758
issuing,759
iwould,760
japan,761
japanese,762
jil,763
job,764
join,765
jon,766
jones,767
jos,768
journalist,769
just,770
kaba,771
ken,772
kind,773
klein,774
knew,775
knocked,776
know,777
knowledge,778
knows,779
korea,780
lacking,781
large,782
las,783
lastly,784
lastt,785
latching,786
late,787
law,788
ldquo,789
leacture,790
lead,791
leads,792
learn,793
learned,794
learning,795
lecture,796
lee,797
leeuwenhoek,798
left,799
legalized,800
legitimal,801
legitimize,802
level,803
licenses,804
lies,805
life,806
lifestyle,807
light,808
lights,809
like,810
likely,811
lint,812
list,813
listening,814
little,815
live,816
lived,817
lives,818
living,819
ljbmauparsedonedigitjc,820
lo,821
local,822
lol,823
lone,824
long,825
longer,826
look,827
looking,828
looks,829
losing,830
loss,831
lost,832
lot,833
lots,834
love,835
machine,836
macroevolution,837
magic,838
magnetic,839
maher,840
main,841
mainstream,842
maintain,843
major,844
make,845
makes,846
making,847
man,848
managing,849
maneuver,850
manipulate,851
manipulation,852
mankind,853
manufacture,854
mao,855
map,856
marketer,857
marvelling,858
masculinity,859
masses,860
materials,861
math,862
mdash,863
mean,864
meaning,865
means,866
meant,867
measured,868
mechanisms,869
media,870
medicinal,871
medicine,872
meetings,873
memes,874
memetics,875
men,876
mention,877
mentioned,878
mentioning,879
mentions,880
mere,881
merely,882
message,883
metaphor,884
methodical,885
mexican,886
microbes,887
microsoft,888
micrososft,889
microwave,890
mild,891
mileage,892
military,893
mind,894
minds,895
mini,896
minimal,897
mirror,898
misandry,899
misled,900
misrepresented,901
missed,902
mit,903
modern,904
moment,905
mongering,906
monkeys,907
moon,908
moral,909
morality,910
mosher,911
mother,912
motivations,913
moved,914
movie,915
moving,916
mpparsedonedigit,917
mr,918
muchas,919
murderer,920
mushrooms,921
music,922
mustafe,923
mystical,924
myth,925
nanking,926
nation,927
natural,928
nature,929
need,930
needed,931
needs,932
negative,933
neighbors,934
network,935
neuroscience,936
new,937
newly,938
newnham,939
newspapers,940
nice,941
nick,942
nightmares,943
nonsense,944
note,945
notes,946
nuclear,947
number,948
numbers,949
nutrient,950
nz,951
obedience,952
objects,953
observation,954
observer,955
obviously,956
occupation,957
ocean,958
offended,959
offer,960
officer,961
ohio,962
oil,963
oils,964
old,965
ones,966
open,967
openly,968
operate,969
opinion,970
opposite,971
oppression,972
option,973
orbital,974
order,975
organizations,976
orientado,977
outcome,978
overwhelm,979
owned,980
pace,981
pacifier,982
page,983
pain,984
pandemic,985
par,986
paradigm,987
paradox,988
paraphrasing,989
paraplegic,990
parody,991
parsedfourdigits,992
parsedonedigit,993
parsedonedigitd,994
parsedthreedigits,995
parsedthreedigitsp,996
parsedtwodigits,997
parsedtwodigitsth,998
particles,999
partner,1000
party,1001
passed,1002
passion,1003
passionate,1004
path,1005
paths,1006
patience,1007
payback,1008
paying,1009
pc,1010
peace,1011
pedophiles,1012
peeve,1013
pensamos,1014
people,1015
peoples,1016
perceptions,1017
percussivee,1018
perfect,1019
perfectly,1020
performance,1021
periods,1022
permissible,1023
permiten,1024
permits,1025
person,1026
personally,1027
perversion,1028
pet,1029
philosophy,1030
phone,1031
phrase,1032
picking,1033
piece,1034
pillars,1035
pink,1036
pinker,1037
plagued,1038
plain,1039
plant,1040
plants,1041
plastic,1042
plastics,1043
play,1044
player,1045
playing,1046
point,1047
pointed,1048
pointless,1049
points,1050
poke,1051
polarize,1052
police,1053
political,1054
politicians,1055
pontification,1056
poor,1057
pop,1058
portal,1059
porter,1060
poses,1061
position,1062
positive,1063
possible,1064
possibly,1065
post,1066
postsecret,1067
povertyy,1068
power,1069
powers,1070
preaching,1071
precise,1072
predictablyy,1073
pregnant,1074
presented,1075
pressing,1076
pretty,1077
prevent,1078
pricing,1079
pride,1080
principles,1081
prior,1082
priorities,1083
privacy,1084
privilege,1085
pro,1086
probably,1087
probing,1088
problem,1089
problema,1090
problems,1091
proceed,1092
process,1093
produce,1094
produces,1095
professional,1096
professor,1097
profitable,1098
profits,1099
prognostications,1100
program,1101
progress,1102
project,1103
projects,1104
promise,1105
properties,1106
proportion,1107
protect,1108
prove,1109
proven,1110
provide,1111
providers,1112
providing,1113
provoking,1114
ps,1115
psychology,1116
public,1117
publish,1118
purity,1119
purpose,1120
puzzle,1121
quality,1122
quantity,1123
que,1124
question,1125
quiet,1126
quit,1127
quite,1128
quo,1129
race,1130
radio,1131
rahul,1132
raise,1133
rapid,1134
rapt,1135
rarely,1136
rate,1137
ravaged,1138
rdquo,1139
reach,1140
reached,1141
reactions,1142
read,1143
ready,1144
real,1145
realize,1146
really,1147
reap,1148
reasearch,1149
reason,1150
received,1151
recently,1152
recommendations,1153
recursos,1154
recycling,1155
reduction,1156
referring,1157
regain,1158
regardless,1159
regards,1160
reign,1161
reject,1162
rejoined,1163
relative,1164
reliable,1165
reliance,1166
religion,1167
religions,1168
religious,1169
remember,1170
reminds,1171
reminiscence,1172
repetoire,1173
report,1174
reproducible,1175
requesting,1176
required,1177
requirements,1178
reserved,1179
residents,1180
resilience,1181
resource,1182
resources,1183
responses,1184
responsibility,1185
rest,1186
restrictive,1187
resultados,1188
results,1189
return,1190
revealed,1191
revelation,1192
revenue,1193
revolution,1194
rich,1195
rifles,1196
right,1197
righteous,1198
rigid,1199
rigorous,1200
ring,1201
risk,1202
robinson,1203
rock,1204
role,1205
room,1206
root,1207
roots,1208
rosling,1209
routs,1210
rsquo,1211
ruling,1212
run,1213
running,1214
sacrifice,1215
sad,1216
sadam,1217
sadlyy,1218
safe,1219
said,1220
salary,1221
sale,1222
satelites,1223
saturday,1224
saves,1225
saw,1226
say,1227
saying,1228
scale,1229
scenarios,1230
schedule,1231
schizophrenia,1232
school,1233
science,1234
scientific,1235
scientist,1236
scientists,1237
screwed,1238
screwing,1239
sea,1240
search,1241
searches,1242
searching,1243
seasonal,1244
secret,1245
secrete,1246
security,1247
seee,1248
seemingly,1249
seen,1250
sees,1251
selection,1252
self,1253
selling,1254
sense,1255
senses,1256
sensing,1257
sentence,1258
seriously,1259
setting,1260
shamelessly,1261
shared,1262
shares,1263
sharing,1264
short,1265
shortened,1266
shown,1267
shows,1268
shrine,1269
shrouded,1270
shut,1271
sichuan,1272
sickened,1273
sicker,1274
siempre,1275
significance,1276
significant,1277
similar,1278
similares,1279
simples,1280
sin,1281
sing,1282
sir,1283
sit,1284
size,1285
sky,1286
slavery,1287
sleep,1288
sleepy,1289
small,1290
smart,1291
smiled,1292
smolin,1293
smug,1294
sniping,1295
snufed,1296
social,1297
societal,1298
society,1299
software,1300
solar,1301
sole,1302
soluciones,1303
solving,1304
son,1305
sorry,1306
sort,1307
soul,1308
sound,1309
sounded,1310
sounds,1311
source,1312
sowing,1313
spare,1314
speak,1315
speaker,1316
speaks,1317
specific,1318
specter,1319
speech,1320
spending,1321
spent,1322
spiderman,1323
spike,1324
spirituality,1325
sponsers,1326
spread,1327
springtime,1328
squeezing,1329
ss,1330
stability,1331
staffs,1332
stage,1333
stand,1334
standard,1335
start,1336
started,1337
starts,1338
state,1339
stated,1340
stations,1341
statistics,1342
status,1343
staying,1344
step,1345
stephen,1346
stereotype,1347
steroids,1348
steve,1349
stewart,1350
sticky,1351
stifling,1352
stimulus,1353
stole,1354
stop,1355
stopped,1356
stories,1357
stranger,1358
stream,1359
street,1360
stressing,1361
stringss,1362
struck,1363
structure,1364
structures,1365
student,1366
students,1367
studied,1368
study,1369
stuff,1370
stuffs,1371
stumble,1372
style,1373
subject,1374
substitutes,1375
success,1376
successfully,1377
suck,1378
suffering,1379
suggests,1380
suicided,1381
support,1382
suppose,1383
supposed,1384
sure,1385
surprising,1386
surprisingly,1387
surroundings,1388
susan,1389
suspect,1390
swept,1391
synthesizer,1392
tabarok,1393
taboo,1394
tack,1395
taking,1396
talented,1397
talk,1398
talking,1399
talks,1400
tampon,1401
tank,1402
teach,1403
teacher,1404
teaching,1405
tearing,1406
techniques,1407
technology,1408
ted,1409
telecom,1410
tell,1411
term,1412
tern,1413
terrorism,1414
test,1415
testimony,1416
thailand,1417
thank,1418
thanks,1419
thats,1420
theories,1421
thing,1422
things,1423
think,1424
thinking,1425
thought,1426
thoughtful,1427
thousands,1428
threads,1429
threat,1430
threatening,1431
threw,1432
thrive,1433
tiempo,1434
time,1435
timely,1436
times,1437
title,1438
tj,1439
today,1440
toe,1441
told,1442
tonic,1443
tonight,1444
tools,1445
topic,1446
totally,1447
touch,1448
touched,1449
touches,1450
touching,1451
tragic,1452
transcendence,1453
transcript,1454
transfer,1455
transformations,1456
transition,1457
translated,1458
trials,1459
triumph,1460
truce,1461
true,1462
truly,1463
truth,1464
try,1465
trying,1466
tube,1467
tunes,1468
turn,1469
tv,1470
type,1471
tyrannyy,1472
ultimate,1473
unable,1474
unbelivable,1475
understand,1476
understanding,1477
understands,1478
understatment,1479
undo,1480
undone,1481
unhappy,1482
unison,1483
universe,1484
unusual,1485
unveiled,1486
use,1487
used,1488
useful,1489
uses,1490
vagina,1491
valid,1492
valuable,1493
value,1494
various,1495
vast,1496
ve,1497
veces,1498
vehicles,1499
vemos,1500
ver,1501
version,1502
vibrations,1503
video,1504
viewed,1505
viewing,1506
viewpoint,1507
viewpoints,1508
violent,1509
virgin,1510
virtual,1511
virtualized,1512
vision,1513
visit,1514
vlc,1515
vocalist,1516
vocally,1517
voice,1518
vortex,1519
vulnerability,1520
wait,1521
walker,1522
walking,1523
walt,1524
wang,1525
wans,1526
want,1527
wanted,1528
wants,1529
war,1530
warming,1531
warped,1532
waste,1533
watch,1534
watched,1535
watching,1536
water,1537
waves,1538
way,1539
weakness,1540
weapons,1541
weekday,1542
wek,1543
wellington,1544
whatsoever,1545
whel,1546
wi,1547
wind,1548
wire,1549
wish,1550
women,1551
wonder,1552
wonderful,1553
woody,1554
word,1555
words,1556
work,1557
worked,1558
works,1559
world,1560
worldwide,1561
worth,1562
worthy,1563
wouldn,1564
wow,1565
write,1566
writers,1567
writing,1568
written,1569
wrong,1570
wrought,1571
xd,1572
year,1573
years,1574
yes,1575
young,1576
youngsters,1577
youtube,1578
ystating,1579
