aa,0
aaages,1
abbey,2
aber,3
abilities,4
abingdon,5
able,6
abort,7
aborted,8
about,9
abouts,10
above,11
abroad,12
absence,13
absolutely,14
absolutley,15
abuse,16
ac,17
academy,18
accepted,19
access,20
accident,21
accobatic,22
according,23
account,24
accountants,25
accumulated,26
accurate,27
ache,28
acheivable,29
aches,30
achievable,31
achieve,32
achievement,33
achievemnets,34
achiever,35
achieving,36
achilees,37
achilles,38
aching,39
achive,40
ackworth,41
across,42
act,43
acted,44
action,45
actual,46
actually,47
actualy,48
acute,49
adapting,50
add,51
adding,52
addition,53
address,54
adds,55
adhering,56
adidas,57
adjusting,58
admin,59
admit,60
adn,61
adolescents,62
adrift,63
advantage,64
adventure,65
advert,66
advice,67
advise,68
advised,69
advocate,70
ady,71
aerobic,72
affair,73
affect,74
affiliated,75
afford,76
affy,77
afraid,78
after,79
afternoon,80
afterwards,81
afterwork,82
again,83
against,84
age,85
aged,86
agenda,87
ages,88
aggravated,89
aggression,90
aggressive,91
ago,92
agony,93
agree,94
agt,95
ah,96
aha,97
ahead,98
ahhhh,99
aid,100
aids,101
ailments,102
aim,103
aiming,104
aint,105
air,106
airport,107
aka,108
alan,109
alan_every,110
alanm,111
alarm,112
albeit,113
alcohol,114
alex,115
ali,116
all,117
allegedly,118
alley,119
allocated,120
allow,121
allowing,122
allows,123
almost,124
alnwick,125
alone,126
along,127
alot,128
alps,129
already,130
also,131
alter,132
alternate,133
although,134
alty,135
always,136
am,137
amateur,138
amazed,139
amazing,140
ambitions,141
ambulance,142
amount,143
amsterdam,144
amused,145
an,146
anaemia,147
anal,148
analysed,149
analysis,150
and,151
andrew,152
andy,153
angelic,154
angle,155
angry,156
aniversary,157
ankle,158
ankles,159
anna,160
annajo,161
annie,162
annoyed,163
annoyingly,164
another,165
answer,166
answers,167
anthony,168
anticipation,169
anticlockwise,170
antics,171
anxiety,172
any,173
anybody,174
anymore,175
anyone,176
anything,177
anyway,178
anywhere,179
aol,180
aorn,181
aparsedonedigit,182
aparsedtwodigitsk,183
apart,184
apartment,185
apologies,186
app,187
appalling,188
apparent,189
apparently,190
appealing,191
appear,192
appearance,193
appeared,194
appears,195
appetite,196
application,197
appointment,198
appreciate,199
appreciated,200
approach,201
approaching,202
appropriate,203
approx,204
april,205
aqua,206
aquathlon,207
aquired,208
arabs,209
arbroath,210
arch,211
archers,212
are,213
area,214
areas,215
aren,216
argos,217
argued,218
arms,219
around,220
arrange,221
arranged,222
arround,223
arse,224
arsenal,225
article,226
articles,227
arts,228
as,229
asap,230
ashley,231
ask,232
asked,233
askern,234
asking,235
asleep,236
aspirant,237
aspiring,238
ass,239
assistant,240
associated,241
association,242
assume,243
assumed,244
assuming,245
astride,246
at,247
athletic,248
atleast,249
atmosphere,250
attachment,251
attack,252
attacks,253
attemp,254
attempt,255
attended,256
attention,257
attitude,258
august,259
aunt,260
australia,261
autism,262
automatically,263
autumn,264
available,265
ave,266
average,267
averaged,268
averaging,269
avghr,270
avoid,271
avoided,272
avoiding,273
awaits,274
awake,275
award,276
awards,277
aware,278
away,279
awayday,280
awe,281
awesome,282
awful,283
awreness,284
babble,285
babies,286
baby,287
bac,288
back,289
backing,290
backslash,291
backwards,292
bacon,293
bad,294
badly,295
bag,296
bagels,297
bagged,298
bags,299
bah,300
baking,301
balance,302
ball,303
ballot,304
ballots,305
balls,306
banana,307
bang,308
bank,309
banks,310
banksie,311
banners,312
banter,313
bar,314
barclays,315
bare,316
barefoot,317
barely,318
bargain,319
bargains,320
barred,321
barriers,322
base,323
based,324
baseline,325
bashful,326
basically,327
basics,328
basis,329
bat,330
batfink,331
bath,332
bathroom,333
baths,334
battered,335
battersey,336
battle,337
batw,338
bay,339
bb,340
bbq,341
bd,342
be,343
beach,344
beachy,345
beaming,346
beans,347
bear,348
bearable,349
bearing,350
beast,351
beat,352
beaten,353
beats,354
beauties,355
beautiful,356
because,357
beckham,358
become,359
bed,360
beders,361
been,362
beer,363
beers,364
before,365
beforehand,366
began,367
beginning,368
begrudge,369
behaving,370
behind,371
being,372
bej,373
belated,374
beleive,375
believe,376
belive,377
bells,378
below,379
belt,380
bempton,381
bend,382
bending,383
bene,384
benefit,385
benefits,386
bent,387
benyo,388
beqqueathed,389
bequathed,390
bequeath,391
bequeathed,392
bequeathing,393
bequethed,394
berkhamsted,395
berlin,396
bernard,397
berry,398
besides,399
best,400
bet,401
better,402
between,403
beverley,404
bex,405
beyond,406
bfb,407
bicton,408
bid,409
biddies,410
big,411
bigger,412
biggest,413
biggies,414
bigotted,415
bike,416
billie,417
billy,418
bin,419
bingham,420
bingo,421
birdcage,422
birmingham,423
birthday,424
birthdays,425
bishop,426
bit,427
bits,428
bizarre,429
bl,430
black,431
blackberry,432
blackheath,433
blackmail,434
blackpool,435
blame,436
blast,437
blasting,438
bleeped,439
bless,440
blessing,441
blessings,442
blimey,443
blinkin,444
blister,445
blisters,446
blizzard,447
blobby,448
block,449
blokes,450
bloody,451
blooming,452
blousey,453
blow,454
blowing,455
blown,456
blubber,457
blue,458
blxxdy,459
bm,460
boat,461
bobby,462
bod,463
bodes,464
body,465
bog,466
boggy,467
bogs,468
boing,469
bold,470
bond,471
bones,472
bonfire,473
bongo,474
bonkers,475
book,476
booked,477
booking,478
books,479
boost,480
booster,481
boots,482
bootsie,483
bore,484
borrow,485
boss,486
boston,487
both,488
bother,489
bothered,490
bothering,491
bottle,492
bottleof,493
bottles,494
bottling,495
bought,496
bounce,497
bound,498
boundary,499
bounding,500
bourton,501
bout,502
bow,503
bowi,504
bowl,505
bowland,506
boxes,507
boxing,508
boy,509
boyfriend,510
boys,511
bp,512
bparsedonedigit,513
br,514
brad,515
brain,516
brake,517
bramley,518
branch,519
bras,520
brat,521
braver,522
bread,523
break,524
breakfast,525
breakthrough,526
breast,527
breaststroke,528
breath,529
breezing,530
brendan,531
brian,532
bricks,533
brid,534
bridge,535
bridges,536
briefcase,537
bright,538
brighton,539
brilliant,540
brilliantly,541
bring,542
bringing,543
brings,544
bristol,545
british,546
brizzle,547
broadly,548
broke,549
brolly,550
bronze,551
brook,552
brookwood,553
brother,554
brought,555
brownie,556
brownies,557
btw,558
bubbly,559
buck,560
bucket,561
buena,562
buff,563
bug,564
bugger,565
build,566
building,567
built,568
bulk,569
bull,570
bullying,571
bum,572
bummer,573
bump,574
bumps,575
bumpy,576
bunch,577
bunged,578
bunny,579
burn,580
burst,581
bursting,582
burtonwood,583
burtyboy,584
bus,585
bush,586
bushed,587
bushes,588
bushey,589
bushy,590
business,591
bust,592
buster,593
busy,594
but,595
buti,596
butter,597
butterfly,598
buttie,599
buttons,600
butty,601
buy,602
buying,603
buys,604
buzzing,605
bw,606
by,607
byfleet,608
bypass,609
cadence,610
cake,611
cal,612
calculates,613
calculation,614
calculations,615
calculator,616
calf,617
call,618
calls,619
calmed,620
calmer,621
calories,622
camaraderie,623
camden,624
came,625
camera,626
cameron,627
camping,628
camps,629
campsite,630
can,631
canada,632
canal,633
canary,634
canberra,635
cancer,636
cannot,637
canoe,638
cant,639
canteen,640
cap,641
cape,642
capital,643
capsule,644
captain,645
car,646
caramel,647
caravan,648
carb,649
carbo,650
carbohydrate,651
carbs,652
cardiff,653
care,654
career,655
careful,656
careless,657
carlise,658
carnival,659
caro,660
carp,661
carriageway,662
carried,663
carry,664
carrying,665
cars,666
cartiledge,667
cartwheels,668
case,669
cases,670
cashed,671
castle,672
casual,673
cat,674
catch,675
catching,676
category,677
cath,678
cause,679
caused,680
causes,681
causing,682
cautious,683
caz,684
cba,685
cc,686
ccnba,687
ccoming,688
cd,689
ceal,690
ceilidh,691
ceiling,692
celeb,693
celebrate,694
celebrating,695
celebrations,696
centre,697
cereal,698
certain,699
certainly,700
certified,701
cew,702
cg,703
chains,704
chair,705
challenge,706
challenged,707
champagne,708
champers,709
championchip,710
championship,711
champs,712
chance,713
chances,714
change,715
changed,716
changes,717
changing,718
chap,719
character,720
charge,721
charges,722
charities,723
charity,724
charle,725
charlie,726
charlton,727
chat,728
chatty,729
chav,730
cheadle,731
cheap,732
cheapskates,733
cheat,734
check,735
checked,736
checking,737
cheer,738
cheers,739
chelsea,740
cheque,741
cheques,742
chest,743
chi,744
chichester,745
chicken,746
chieftain,747
children,748
chill,749
chilly,750
chin,751
chip,752
chips,753
choc,754
chocolate,755
choked,756
chondroitin,757
choose,758
chr,759
chris,760
christchurch,761
christmas,762
chuffed,763
chum,764
chunk,765
chunks,766
church,767
cinders,768
citibank,769
city,770
cj,771
cl,772
claim,773
claire,774
clairster,775
clan,776
clare,777
clarendon,778
classy,779
cleadon,780
clear,781
clears,782
cliffs,783
climbed,784
climber,785
climbing,786
clock,787
close,788
closer,789
closest,790
clothes,791
clothing,792
clouds,793
cloudy,794
club,795
clubmate,796
clubmates,797
clue,798
clydesdale,799
cm,800
co,801
coach,802
coached,803
coaches,804
coaching,805
coal,806
coast,807
cockrell,808
codliver,809
coffee,810
cognitive,811
colchester,812
cold,813
colds,814
collapsed,815
colleague,816
collect,817
colon,818
colour,819
column,820
com,821
combination,822
combined,823
come,824
comfort,825
comfortable,826
comic,827
comig,828
coming,829
comment,830
commented,831
comments,832
commiserations,833
commitments,834
committed,835
common,836
communication,837
community,838
compact,839
company,840
compare,841
compared,842
compensate,843
competing,844
competition,845
competitors,846
complain,847
complete,848
completed,849
completely,850
completing,851
completion,852
comprehended,853
computer,854
comunication,855
concentrate,856
concentrated,857
concern,858
conclusion,859
conclusions,860
concluson,861
conditioned,862
conditioner,863
conditioning,864
conditions,865
confess,866
confidence,867
confident,868
confirm,869
confirmation,870
confirmations,871
confirmed,872
confirming,873
confused,874
congestion,875
congleton,876
congrats,877
congratulations,878
conjured,879
conkers,880
connected,881
connective,882
consciously,883
consecutive,884
consider,885
considerably,886
considered,887
considering,888
consistency,889
consistent,890
consolation,891
constant,892
consumed,893
contact,894
contacts,895
contemplating,896
contingent,897
continue,898
continued,899
contributes,900
contribution,901
control,902
controlled,903
convenient,904
conversation,905
convinced,906
cooke,907
cooked,908
cookie,909
cookies,910
cooking,911
cool,912
cooler,913
cop,914
cope,915
copenhagen,916
copy,917
coro,918
coronium,919
correct,920
corredor,921
corridor,922
cos,923
cost,924
costumer,925
cough,926
cougie,927
could,928
couldn,929
couldnt,930
count,931
counting,932
country,933
countryside,934
county,935
couple,936
courage,937
course,938
court,939
courtesy,940
cover,941
covered,942
covers,943
cow,944
cowboy,945
cowhill,946
coxy,947
coz,948
cp,949
crab,950
crack,951
crackered,952
cracking,953
cramp,954
cramped,955
cranberry,956
crapping,957
crashed,958
crawl,959
crawled,960
crazed,961
crazy,962
cream,963
creature,964
credit,965
creme,966
crippled,967
critters,968
crocked,969
cross,970
crossed,971
crossing,972
crowd,973
crowds,974
crucial,975
cruel,976
cruisin,977
cruising,978
crunch,979
crxp,980
cry,981
cube,982
cubes,983
cubs,984
culminating,985
cunning,986
cup,987
cure,988
cures,989
current,990
currently,991
curse,992
cushion,993
customer,994
cut,995
cycle,996
cycling,997
cyclist,998
dad,999
daddy,1000
dalya,1001
damage,1002
damaged,1003
damn,1004
dampened,1005
dan,1006
dangerous,1007
daniel,1008
danny,1009
dark,1010
darlington,1011
darren,1012
dartford,1013
dartmoor,1014
dash,1015
date,1016
daughter,1017
daughters,1018
dave,1019
davey,1020
david,1021
davis,1022
day,1023
days,1024
daz,1025
dazpd,1026
dd,1027
dead,1028
deaf,1029
deal,1030
dear,1031
death,1032
debate,1033
debster,1034
debstir,1035
dec,1036
decadent,1037
december,1038
decent,1039
decide,1040
decided,1041
decision,1042
decisions,1043
decreasing,1044
dedicated,1045
deep,1046
def,1047
defect,1048
defer,1049
deffered,1050
deffo,1051
definately,1052
definitely,1053
definition,1054
definitive,1055
degeneration,1056
degrees,1057
dehydrated,1058
delete,1059
delia,1060
delighted,1061
delivery,1062
deminished,1063
demob,1064
demonstrated,1065
denied,1066
deny,1067
depending,1068
depends,1069
depressing,1070
depth,1071
descent,1072
describing,1073
description,1074
deserve,1075
deserved,1076
designed,1077
desk,1078
desp,1079
despair,1080
desperate,1081
despite,1082
details,1083
determination,1084
determined,1085
devastated,1086
develop,1087
devon,1088
dfd,1089
dg,1090
diabetes,1091
diabetic,1092
diagnosed,1093
diana,1094
diary,1095
did,1096
didds,1097
diddy,1098
didn,1099
didnt,1100
dids,1101
die,1102
diet,1103
diff,1104
difference,1105
differences,1106
different,1107
difficult,1108
difficulties,1109
dig,1110
digging,1111
dilemma,1112
diligence,1113
dinner,1114
dip,1115
dipped,1116
dips,1117
direct,1118
direction,1119
directly,1120
dirty,1121
disabilities,1122
disappointed,1123
disappointment,1124
discarded,1125
discipline,1126
disclose,1127
discount,1128
discussibg,1129
discussions,1130
disgracing,1131
disguise,1132
disgusted,1133
dish,1134
dishes,1135
dispirited,1136
disposal,1137
distance,1138
distances,1139
distress,1140
district,1141
ditch,1142
divulge,1143
diy,1144
dn,1145
do,1146
docklands,1147
docks,1148
doctor,1149
documents,1150
dod,1151
doddle,1152
dodging,1153
dodgy,1154
doe,1155
does,1156
doesn,1157
doesnt,1158
dogs,1159
doing,1160
domestic,1161
don,1162
donate,1163
done,1164
dont,1165
donut,1166
doodle,1167
doom,1168
dooper,1169
dor,1170
dork,1171
dot,1172
double,1173
doubled,1174
doubt,1175
doubts,1176
douglas,1177
down,1178
downhill,1179
downlands,1180
downs,1181
downside,1182
downstairs,1183
dozen,1184
dragged,1185
dragging,1186
dramatically,1187
dread,1188
dreading,1189
dream,1190
dreams,1191
dreary,1192
drenched,1193
dress,1194
drewton,1195
drier,1196
drill,1197
drink,1198
drinker,1199
drinking,1200
drinks,1201
drive,1202
drk,1203
drogo,1204
drool,1205
drop,1206
dropped,1207
dropping,1208
drops,1209
dry,1210
ds,1211
dual,1212
dublin,1213
duck,1214
due,1215
dull,1216
dump,1217
dumpling,1218
duncan,1219
dunno,1220
duration,1221
during,1222
dusseldorf,1223
duster,1224
dustin,1225
duty,1226
dvd,1227
dwarfed,1228
dy,1229
dyslexia,1230
each,1231
ealing,1232
ear,1233
earlier,1234
earliest,1235
early,1236
earned,1237
ears,1238
earth,1239
ease,1240
easier,1241
easiest,1242
easily,1243
east,1244
eastenders,1245
easter,1246
eastham,1247
easy,1248
eat,1249
eaten,1250
eating,1251
eb,1252
ebb,1253
ebbs,1254
echo,1255
economist,1256
ecparsedonedigit,1257
ed,1258
edb,1259
eddie,1260
edge,1261
edges,1262
edinburgh,1263
eek,1264
effect,1265
effective,1266
effects,1267
efficacy,1268
effort,1269
efforts,1270
eg,1271
egged,1272
eggs,1273
eh,1274
ehrwise,1275
either,1276
elastiman,1277
eleanor,1278
eliminating,1279
elite,1280
elixir,1281
else,1282
elusive,1283
elysees,1284
em,1285
email,1286
emailed,1287
emailing,1288
embankment,1289
embarassing,1290
embra,1291
emigrating,1292
emotional,1293
emphasis,1294
empty,1295
encounter,1296
encourage,1297
encouraged,1298
encouragement,1299
encouraging,1300
end,1301
ended,1302
endless,1303
ends,1304
endurance,1305
endured,1306
energy,1307
enjoy,1308
enjoyable,1309
enjoyed,1310
enjoying,1311
enjoys,1312
enough,1313
enter,1314
entered,1315
entering,1316
enticingly,1317
entirely,1318
entires,1319
entrants,1320
entries,1321
entry,1322
eps,1323
equal,1324
equates,1325
equity,1326
equivalent,1327
er,1328
err,1329
error,1330
errors,1331
escape,1332
especially,1333
essay,1334
essential,1335
essex,1336
estate,1337
estimated,1338
et,1339
etc,1340
eternal,1341
eternally,1342
euph,1343
eve,1344
evelyn,1345
even,1346
evening,1347
event,1348
eventful,1349
events,1350
eventually,1351
ever,1352
everest,1353
every,1354
everybody,1355
everyne,1356
everyone,1357
everyones,1358
everything,1359
everywhere,1360
evidence,1361
evryone,1362
exactly,1363
exam,1364
example,1365
exams,1366
excel,1367
excellent,1368
except,1369
exception,1370
exceptionally,1371
excited,1372
exciting,1373
excluding,1374
excuse,1375
exercise,1376
exercises,1377
exersion,1378
exertion,1379
exhasted,1380
exhibiting,1381
exhuasted,1382
expecct,1383
expected,1384
expecting,1385
expects,1386
expensive,1387
experience,1388
experiences,1389
experiment,1390
expletives,1391
exploits,1392
expo,1393
extended,1394
extensions,1395
extra,1396
eye,1397
eyed,1398
eynsham,1399
fab,1400
fabric,1401
fabulous,1402
face,1403
facilities,1404
fact,1405
fading,1406
failed,1407
fails,1408
failure,1409
fainting,1410
fair,1411
fairing,1412
fairly,1413
fairs,1414
faith,1415
fall,1416
fallback,1417
falling,1418
fame,1419
families,1420
family,1421
fan,1422
fancied,1423
fancy,1424
fanfare,1425
fantastic,1426
far,1427
farmed,1428
fartlek,1429
fast,1430
faster,1431
fastest,1432
fat,1433
fatbutfit,1434
fate,1435
fault,1436
fave,1437
favour,1438
favourite,1439
favourites,1440
fb,1441
fd,1442
fdone,1443
fear,1444
featured,1445
feb,1446
fed,1447
fee,1448
feed,1449
feedback,1450
feel,1451
feeling,1452
feels,1453
feelt,1454
feet,1455
fell,1456
fella,1457
fellow,1458
felt,1459
fenn,1460
ferry,1461
festering,1462
fetch,1463
few,1464
fewer,1465
ff,1466
fgfa,1467
fi,1468
fiddly,1469
field,1470
fields,1471
fifidella,1472
fight,1473
fighter,1474
figs,1475
figured,1476
files,1477
filled,1478
final,1479
finally,1480
find,1481
finding,1482
fine,1483
finger,1484
fingers,1485
finish,1486
finished,1487
finishing,1488
fire,1489
fires,1490
first,1491
firstly,1492
firth,1493
fish,1494
fit,1495
fitness,1496
fitting,1497
five,1498
fix,1499
fkg,1500
flab,1501
flag,1502
flakes,1503
flamboro,1504
flapjack,1505
flash,1506
flat,1507
flats,1508
fleece,1509
fleet,1510
flexible,1511
flight,1512
flights,1513
flint,1514
flm,1515
flmers,1516
flmparsedtwodigits,1517
flms,1518
flora,1519
florida,1520
flows,1521
flu,1522
fluctuating,1523
fluid,1524
fly,1525
flying,1526
fnick,1527
focus,1528
folk,1529
folks,1530
follow,1531
followed,1532
following,1533
food,1534
foot,1535
football,1536
for,1537
force,1538
forced,1539
forecast,1540
forego,1541
forest,1542
forests,1543
forget,1544
forgetting,1545
forgive,1546
forgot,1547
form,1548
formula,1549
forth,1550
fortuna,1551
fortunately,1552
fortune,1553
forum,1554
forumites,1555
forums,1556
forward,1557
forwards,1558
fought,1559
found,1560
foundation,1561
four,1562
fox,1563
fp,1564
france,1565
freak,1566
free,1567
freebies,1568
freezing,1569
fresh,1570
freshness,1571
fretting,1572
fri,1573
friday,1574
fridays,1575
fridge,1576
friend,1577
friendly,1578
friends,1579
friendship,1580
from,1581
front,1582
frosty,1583
frozen,1584
frubes,1585
frustrated,1586
frustrating,1587
frys,1588
fuel,1589
fulfill,1590
full,1591
fun,1592
fund,1593
funds,1594
funeral,1595
funky,1596
funny,1597
further,1598
furthest,1599
fuss,1600
future,1601
fwiw,1602
gagging,1603
gah,1604
gain,1605
gale,1606
gales,1607
game,1608
games,1609
gamesmanship,1610
gang,1611
gaps,1612
garden,1613
garmin,1614
gathering,1615
gatorade,1616
gatton,1617
gave,1618
gazza,1619
gb,1620
gc,1621
gd,1622
gdave,1623
gear,1624
gel,1625
gels,1626
general,1627
generally,1628
generous,1629
gentle,1630
gently,1631
geoff,1632
geordie,1633
george,1634
georgias,1635
germs,1636
gerroff,1637
get,1638
gets,1639
getting,1640
gf,1641
gfa,1642
gfparsedtwodigits,1643
gg,1644
gif,1645
gift,1646
gifts,1647
giles,1648
gilzean,1649
gin,1650
ginger,1651
girl,1652
girlfriend,1653
girls,1654
girly,1655
give,1656
given,1657
gives,1658
giving,1659
giz,1660
glad,1661
glance,1662
glasgow,1663
glass,1664
glasses,1665
glided,1666
glitzy,1667
gloom,1668
glory,1669
gloves,1670
glucosamine,1671
glue,1672
glute,1673
glycogen,1674
gm,1675
gnr,1676
go,1677
goal,1678
goalkeeper,1679
gobi,1680
goblins,1681
god,1682
godsend,1683
goes,1684
goin,1685
going,1686
golden,1687
golf,1688
gone,1689
gonna,1690
good,1691
goodnight,1692
goody,1693
google,1694
goose,1695
gossip,1696
got,1697
gotta,1698
gotten,1699
goup,1700
gps,1701
gr,1702
gradient,1703
gram,1704
grandad,1705
grandson,1706
grandstand,1707
granny,1708
grapes,1709
graph,1710
grass,1711
grateful,1712
gratitude,1713
grattons,1714
grave,1715
gravis,1716
gravy,1717
great,1718
greater,1719
greatest,1720
green,1721
greetings,1722
greg,1723
gremlins,1724
grew,1725
grim,1726
grinstead,1727
grip,1728
grit,1729
gritted,1730
grobelaar,1731
groin,1732
grotty,1733
ground,1734
grounds,1735
group,1736
groups,1737
grylls,1738
gt,1739
guarantee,1740
guaranteed,1741
guarentee,1742
guess,1743
guessing,1744
guilty,1745
guiness,1746
gun,1747
gusting,1748
gutted,1749
gutter,1750
guy,1751
guys,1752
gweedore,1753
gym,1754
ha,1755
had,1756
hadn,1757
haha,1758
hahahaha,1759
hail,1760
hainault,1761
hairdresser,1762
hal,1763
half,1764
halfway,1765
halhigdon,1766
halifax,1767
hallo,1768
halt,1769
haltemprice,1770
halving,1771
ham,1772
hamburg,1773
hammer,1774
hampshire,1775
hampstead,1776
hamstring,1777
hana,1778
hancock,1779
hand,1780
handed,1781
handle,1782
handwritting,1783
handy,1784
hang,1785
hanging,1786
hangover,1787
hangovers,1788
hants,1789
happen,1790
happened,1791
happening,1792
happenings,1793
happens,1794
happy,1795
hard,1796
harder,1797
hardest,1798
hardly,1799
harpy,1800
harry,1801
harvel,1802
harvest,1803
has,1804
hasn,1805
hassle,1806
hastings,1807
hat,1808
hate,1809
have,1810
haven,1811
havent,1812
having,1813
havn,1814
hawk,1815
haytor,1816
hazelnuts,1817
hbos,1818
he,1819
head,1820
heading,1821
headphones,1822
heal,1823
healing,1824
health,1825
healthier,1826
healthy,1827
hear,1828
heard,1829
hearing,1830
heart,1831
heat,1832
heath,1833
heavier,1834
heavy,1835
heck,1836
heckenhocker,1837
heckled,1838
hectic,1839
hee,1840
height,1841
held,1842
helen,1843
hell,1844
heller,1845
hellip,1846
hello,1847
hellooo,1848
helloooooooo,1849
help,1850
helped,1851
helpful,1852
helping,1853
helpline,1854
helps,1855
hen,1856
hence,1857
her,1858
here,1859
herself,1860
hertfordshire,1861
herts,1862
hey,1863
hh,1864
hi,1865
hic,1866
higdon,1867
high,1868
highams,1869
higher,1870
highest,1871
highlight,1872
higo,1873
hilarious,1874
hill,1875
hills,1876
hilly,1877
hillyi,1878
him,1879
himself,1880
hinder,1881
hip,1882
hippo,1883
hires,1884
his,1885
hit,1886
hiya,1887
hm,1888
hmm,1889
hmmm,1890
hmmmm,1891
hmmmmm,1892
hms,1893
ho,1894
hobble,1895
hobling,1896
hogmonster,1897
hogweed,1898
hol,1899
hold,1900
holding,1901
holiday,1902
holly,1903
hols,1904
home,1905
honest,1906
honestly,1907
honey,1908
hong,1909
hood,1910
hoops,1911
hoorah,1912
hoovering,1913
hope,1914
hopefully,1915
hopefuly,1916
hoping,1917
hopping,1918
horizons,1919
horrendously,1920
horrible,1921
horse,1922
horses,1923
hospital,1924
hot,1925
hotel,1926
hotels,1927
hour,1928
hours,1929
house,1930
hove,1931
how,1932
howard,1933
howards,1934
howdy,1935
however,1936
howler,1937
hr,1938
hrm,1939
hrow,1940
hrr,1941
hrs,1942
hs,1943
hsbc,1944
ht,1945
htm,1946
html,1947
htp,1948
http,1949
hubbies,1950
hubby,1951
huge,1952
hugs,1953
hull,1954
humid,1955
hummm,1956
humpless,1957
humpy,1958
hunchbacked,1959
hundred,1960
hundreds,1961
hung,1962
hunting,1963
hurrah,1964
hurray,1965
hurry,1966
hurt,1967
hurting,1968
hurts,1969
husband,1970
hybrid,1971
hyde,1972
hydrate,1973
hysterical,1974
ian,1975
ibuprofen,1976
ice,1977
icey,1978
icing,1979
idea,1980
ideal,1981
ideally,1982
ideas,1983
identify,1984
idiot,1985
if,1986
ill,1987
illness,1988
im,1989
images,1990
imagine,1991
imelds,1992
imho,1993
immediately,1994
immersion,1995
impart,1996
impatient,1997
impeccable,1998
implies,1999
important,2000
impossible,2001
impressed,2002
impressive,2003
improve,2004
improvement,2005
improving,2006
in,2007
incarnation,2008
incident,2009
inclines,2010
include,2011
included,2012
includes,2013
including,2014
inclusion,2015
increase,2016
increased,2017
increasing,2018
increasingly,2019
incredible,2020
incredibly,2021
indeed,2022
indifferent,2023
indoor,2024
induced,2025
infection,2026
inflammation,2027
inflammed,2028
influence,2029
info,2030
information,2031
injured,2032
injuries,2033
injury,2034
inn,2035
innocently,2036
innocents,2037
inside,2038
insoles,2039
inspiration,2040
inspirational,2041
inspire,2042
inspired,2043
inspiring,2044
instead,2045
instills,2046
instructed,2047
instructer,2048
instructions,2049
instructor,2050
insulating,2051
intend,2052
intended,2053
intensity,2054
intention,2055
inter,2056
interest,2057
interested,2058
interesting,2059
intermeweb,2060
intermittent,2061
internet,2062
interval,2063
intervals,2064
interview,2065
into,2066
intrigued,2067
intro,2068
introduce,2069
invaluable,2070
invented,2071
invested,2072
invisible,2073
involve,2074
involved,2075
iphone,2076
iron,2077
ironman,2078
irons,2079
irresistable,2080
irritating,2081
is,2082
ish,2083
isle,2084
isn,2085
isotonic,2086
issue,2087
issues,2088
it,2089
italian,2090
itching,2091
its,2092
itself,2093
ive,2094
jacket,2095
jam,2096
jamaica,2097
james,2098
jamesk,2099
jamie,2100
jan,2101
jane,2102
january,2103
jap,2104
jaq,2105
jar,2106
jase,2107
jason,2108
jd,2109
jdrf,2110
jealous,2111
jej,2112
jelly,2113
jellybabe,2114
jezza,2115
jim,2116
jj,2117
job,2118
jobs,2119
joby,2120
jock,2121
joe,2122
jog,2123
jogged,2124
jogger,2125
joggers,2126
jogging,2127
jogs,2128
john,2129
join,2130
joined,2131
joining,2132
joints,2133
jokes,2134
jon,2135
jools,2136
journey,2137
journeys,2138
joy,2139
jpg,2140
jpvd,2141
jr,2142
jt,2143
judderman,2144
judging,2145
julie,2146
july,2147
jump,2148
jumping,2149
june,2150
junior,2151
just,2152
justifiably,2153
justified,2154
kannouchi,2155
karate,2156
karen,2157
katepie,2158
katie,2159
katrina,2160
kattysparke,2161
kbown,2162
keen,2163
keep,2164
keeping,2165
keeps,2166
kent,2167
kept,2168
keryn,2169
key,2170
keyneshm,2171
khalid,2172
kick,2173
kicked,2174
kid,2175
kidding,2176
kidney,2177
kids,2178
kill,2179
killed,2180
killer,2181
kind,2182
kinda,2183
kinder,2184
kindly,2185
kingley,2186
kingston,2187
kinsey,2188
kip,2189
kirsty,2190
kissing,2191
kit,2192
kitchen,2193
kite,2194
kk,2195
km,2196
knackered,2197
knee,2198
kneecap,2199
knees,2200
knew,2201
knickers,2202
knock,2203
knocked,2204
knoe,2205
knots,2206
know,2207
knowing,2208
knowledge,2209
known,2210
knows,2211
kong,2212
kp,2213
kparsedonedigit,2214
kramer,2215
la,2216
labour,2217
laces,2218
lack,2219
ladders,2220
ladies,2221
lads,2222
lady,2223
laid,2224
laminating,2225
land,2226
lane,2227
lap,2228
lapper,2229
laptop,2230
larder,2231
lardy,2232
large,2233
larger,2234
lass,2235
last,2236
lasted,2237
lata,2238
late,2239
lately,2240
later,2241
laugh,2242
law,2243
lawyers,2244
layer,2245
layers,2246
lazy,2247
lb,2248
lbs,2249
ld,2250
lead,2251
leadership,2252
leading,2253
leaf,2254
league,2255
leagues,2256
learn,2257
learning,2258
learnt,2259
least,2260
leave,2261
leaves,2262
leaving,2263
leeds,2264
left,2265
leg,2266
legends,2267
leggings,2268
legislate,2269
legless,2270
legs,2271
leicester,2272
leisure,2273
leith,2274
lend,2275
lenghts,2276
length,2277
lengths,2278
leotard,2279
lep,2280
less,2281
let,2282
lets,2283
letter,2284
letters,2285
lettice,2286
letting,2287
level,2288
levels,2289
lf,2290
lfm,2291
licence,2292
lid,2293
life,2294
lifetime,2295
lift,2296
lifted,2297
ligamant,2298
ligaments,2299
light,2300
lighty,2301
like,2302
liked,2303
likely,2304
likelyhood,2305
likes,2306
likewise,2307
limited,2308
limper,2309
lincolnshire,2310
line,2311
lined,2312
lines,2313
link,2314
linked,2315
links,2316
lip,2317
lips,2318
lisbon,2319
lise,2320
list,2321
listen,2322
listings,2323
lite,2324
little,2325
littlemiss,2326
live,2327
lived,2328
liverpool,2329
lives,2330
living,2331
lizzyb,2332
ll,2333
llbe,2334
lll,2335
lloyds,2336
lm,2337
load,2338
loaded,2339
loading,2340
loads,2341
local,2342
locally,2343
location,2344
log,2345
logbook,2346
logging,2347
logic,2348
logo,2349
lol,2350
london,2351
long,2352
longer,2353
longest,2354
loo,2355
look,2356
looked,2357
looking,2358
looks,2359
loon,2360
loop,2361
loose,2362
loosened,2363
loparsedtwodigits,2364
lor,2365
lord,2366
lorenzo,2367
lose,2368
losing,2369
lost,2370
lot,2371
lots,2372
lounge,2373
love,2374
loved,2375
lovely,2376
loving,2377
low,2378
lower,2379
lr,2380
ls,2381
lsd,2382
lsr,2383
lsrs,2384
lt,2385
ltsa,2386
ltsb,2387
lucazade,2388
lucinda,2389
luck,2390
luckily,2391
lucky,2392
lucozade,2393
lucy,2394
lumps,2395
lunch,2396
lunches,2397
lunchtime,2398
lung,2399
lungs,2400
lurgified,2401
lurgy,2402
lurk,2403
lurking,2404
luton,2405
luxembourg,2406
luxury,2407
lycra,2408
lyndy,2409
macc,2410
machine,2411
machines,2412
macmillan,2413
mad,2414
made,2415
mag,2416
magazine,2417
magic,2418
maidenhead,2419
mail,2420
mailed,2421
main,2422
mainly,2423
maintain,2424
maintained,2425
major,2426
majority,2427
make,2428
maker,2429
makes,2430
making,2431
malarky,2432
male,2433
males,2434
mall,2435
malt,2436
malverns,2437
man,2438
manage,2439
managed,2440
management,2441
manager,2442
managing,2443
mands,2444
mantra,2445
mantras,2446
many,2447
maps,2448
mara,2449
marafuns,2450
maramates,2451
marathon,2452
marathoner,2453
marathoners,2454
marathons,2455
march,2456
marcus,2457
marders,2458
margin,2459
marigold,2460
mark,2461
marker,2462
markers,2463
market,2464
markings,2465
marl,2466
marparsedtwodigitsindex,2467
marshall,2468
martial,2469
martin,2470
mashed,2471
massage,2472
masses,2473
massive,2474
massively,2475
masters,2476
match,2477
mate,2478
material,2479
maternity,2480
mates,2481
matie,2482
matt,2483
matter,2484
matttherat,2485
mava,2486
max,2487
maxine,2488
may,2489
maybe,2490
maylarch,2491
mayo,2492
maze,2493
mb,2494
mcallister,2495
mcmillanrunning,2496
me,2497
meal,2498
mean,2499
meaning,2500
means,2501
meant,2502
meantime,2503
measures,2504
mecca,2505
medal,2506
medical,2507
medium,2508
meerkat,2509
meet,2510
meeting,2511
meetings,2512
meg,2513
mega,2514
meldy,2515
melt,2516
members,2517
men,2518
mend,2519
mens,2520
mental,2521
mentally,2522
mention,2523
mentioned,2524
menu,2525
merchandise,2526
mercy,2527
merely,2528
merging,2529
merrier,2530
message,2531
metcheck,2532
methinks,2533
method,2534
metres,2535
mhr,2536
micktherunner,2537
mid,2538
midday,2539
middle,2540
midfoot,2541
midlands,2542
midnight,2543
midweek,2544
might,2545
mighty,2546
mike,2547
mikeb,2548
milage,2549
milan,2550
mild,2551
mile,2552
mileage,2553
mileometer,2554
mileparsedtwodigits,2555
miler,2556
milers,2557
miles,2558
miling,2559
milk,2560
mill,2561
milton,2562
min,2563
mind,2564
mine,2565
minging,2566
mini,2567
minimal,2568
minimum,2569
minkey,2570
minkin,2571
minni,2572
minor,2573
mins,2574
minunte,2575
minus,2576
minute,2577
minutes,2578
mis,2579
miserable,2580
miss,2581
missed,2582
missing,2583
mission,2584
missp,2585
mist,2586
mistake,2587
mistakes,2588
mistype,2589
mitten,2590
mix,2591
mixed,2592
mizuno,2593
mk,2594
ml,2595
mm,2596
mmm,2597
mo,2598
mobile,2599
mode,2600
model,2601
models,2602
modes,2603
modest,2604
moggie,2605
mokina,2606
moment,2607
moments,2608
mon,2609
monday,2610
mondays,2611
money,2612
monitor,2613
month,2614
monthly,2615
months,2616
monument,2617
mood,2618
moonlight,2619
moons,2620
moral,2621
morale,2622
more,2623
morecambe,2624
morn,2625
mornibg,2626
mornin,2627
morning,2628
mornings,2629
morons,2630
mortals,2631
most,2632
mostly,2633
mother,2634
motivated,2635
motor,2636
mountain,2637
mouse,2638
mouth,2639
move,2640
moved,2641
moving,2642
mp,2643
mparsedtwodigits,2644
mph,2645
mpparsedonedigit,2646
mpw,2647
mr,2648
mrs,2649
mrsc,2650
mt,2651
mtr,2652
much,2653
mud,2654
mudchute,2655
muddy,2656
muff,2657
muffins,2658
multi,2659
multiple,2660
multiples,2661
mum,2662
mummy,2663
muscle,2664
muscles,2665
mush,2666
music,2667
must,2668
mutter,2669
muttering,2670
muv,2671
mvparsedtwodigits,2672
mwah,2673
mwcmf,2674
my,2675
myasthenia,2676
myself,2677
nah,2678
nailed,2679
nam,2680
name,2681
narrowly,2682
natalie,2683
national,2684
nationwide,2685
natural,2686
naturally,2687
natwest,2688
naughty,2689
ndash,2690
ndereba,2691
near,2692
nearer,2693
nearest,2694
nearing,2695
nearly,2696
necessary,2697
need,2698
needed,2699
needing,2700
needs,2701
negative,2702
negotiate,2703
nemo,2704
nepal,2705
nerves,2706
nervous,2707
net,2708
neural,2709
neutral,2710
never,2711
nevermind,2712
new,2713
newark,2714
news,2715
next,2716
nf,2717
nhs,2718
nice,2719
nicely,2720
nicer,2721
nicest,2722
nick,2723
nickm,2724
nicks,2725
niggle,2726
niggles,2727
niggly,2728
nigh,2729
night,2730
nightmare,2731
nights,2732
nikelondon,2733
nimbus,2734
nippy,2735
nippynora,2736
nissed,2737
njord,2738
nl,2739
nmparsedonedigit,2740
nn,2741
no,2742
nobody,2743
noise,2744
nolan,2745
non,2746
none,2747
noooooooooooooooooooooooooooooooooooooooooooooooooooooooooooooooo,2748
nooooooooooooooooooooooooooooooooooooooooooooooooooooooooooooooooooooooooooooo,2749
nooooooooooooooooooooooooooooooooooooooooooooooooooooooooooooooooooooooooooooooooooooooooooooooooooooooooooooooooooooooooooooo,2750
normal,2751
normally,2752
normski,2753
north,2754
northern,2755
nose,2756
nostalgic,2757
not,2758
note,2759
notebook,2760
nothing,2761
noticed,2762
notification,2763
notifications,2764
november,2765
novice,2766
novotel,2767
now,2768
nowt,2769
nt,2770
nts,2771
numb,2772
numbed,2773
number,2774
numbers,2775
nurofen,2776
nurse,2777
nutrition,2778
ny,2779
nyc,2780
nytol,2781
nz,2782
oakley,2783
oakly,2784
obliged,2785
observations,2786
obsessive,2787
obstacles,2788
obviously,2789
occasion,2790
occasional,2791
occasionally,2792
occasions,2793
occured,2794
oceans,2795
october,2796
odd,2797
oddly,2798
ode,2799
of,2800
ofcourse,2801
off,2802
offering,2803
office,2804
official,2805
officially,2806
often,2807
oh,2808
ohamd,2809
oiks,2810
oil,2811
oj,2812
ojs,2813
ok,2814
old,2815
older,2816
oldies,2817
olympic,2818
olympics,2819
om,2820
omahd,2821
omegod,2822
omen,2823
omg,2824
on,2825
once,2826
one,2827
ones,2828
online,2829
only,2830
onto,2831
ontop,2832
onwards,2833
onyl,2834
ooh,2835
ooo,2836
oooer,2837
oooh,2838
oooooh,2839
ooops,2840
oops,2841
open,2842
opened,2843
operating,2844
opinion,2845
opportunity,2846
opporutunities,2847
opposed,2848
opposition,2849
optimistic,2850
option,2851
options,2852
or,2853
orange,2854
order,2855
ordered,2856
org,2857
organisation,2858
organise,2859
organised,2860
organising,2861
orient,2862
original,2863
orthotic,2864
osd,2865
osmotherley,2866
osteo,2867
ot,2868
other,2869
others,2870
otherwise,2871
ouch,2872
our,2873
ours,2874
out,2875
outbreak,2876
outfit,2877
outing,2878
outlet,2879
outlook,2880
outside,2881
outstanding,2882
ovaltine,2883
ovder,2884
over,2885
overall,2886
overdo,2887
overdoing,2888
overdone,2889
overhead,2890
overhearing,2891
overstretched,2892
overtake,2893
overtaken,2894
overtired,2895
overtrained,2896
owe,2897
owing,2898
own,2899
owners,2900
owt,2901
ox,2902
ozy,2903
ozzy,2904
pace,2905
paced,2906
pacemaker,2907
pacer,2908
pacers,2909
pacing,2910
pack,2911
packed,2912
packs,2913
padams,2914
paddington,2915
page,2916
pages,2917
paid,2918
pain,2919
painful,2920
painfull,2921
painless,2922
pains,2923
paint,2924
painting,2925
pair,2926
pairs,2927
paltry,2928
panic,2929
panties,2930
panting,2931
paper,2932
paranoid,2933
parentcraft,2934
parents,2935
paris,2936
park,2937
parks,2938
parseddigits,2939
parseddigitsm,2940
parseddigitsmiles,2941
parseddigitsmph,2942
parseddigitsth,2943
parsedfivedigits,2944
parsedfourdigits,2945
parsedfourdigitsm,2946
parsedonedigit,2947
parsedonedigitam,2948
parsedonedigiter,2949
parsedonedigites,2950
parsedonedigitft,2951
parsedonedigitgram,2952
parsedonedigith,2953
parsedonedigithparsedtwodigits,2954
parsedonedigithr,2955
parsedonedigithrs,2956
parsedonedigitk,2957
parsedonedigitkm,2958
parsedonedigitlb,2959
parsedonedigitlbs,2960
parsedonedigitm,2961
parsedonedigitmin,2962
parsedonedigitmins,2963
parsedonedigitmm,2964
parsedonedigitmms,2965
parsedonedigitmph,2966
parsedonedigitn,2967
parsedonedigitnd,2968
parsedonedigitpm,2969
parsedonedigitsecs,2970
parsedonedigitst,2971
parsedonedigitth,2972
parsedonedigitx,2973
parsedsixdigits,2974
parsedthreedigits,2975
parsedthreedigitsm,2976
parsedthreedigitsml,2977
parsedthreedigitss,2978
parsedthreedigitsyards,2979
parsedtime,2980
parsedtwodigits,2981
parsedtwodigitsam,2982
parsedtwodigitsish,2983
parsedtwodigitsk,2984
parsedtwodigitskb,2985
parsedtwodigitskm,2986
parsedtwodigitsks,2987
parsedtwodigitslbs,2988
parsedtwodigitsm,2989
parsedtwodigitsmile,2990
parsedtwodigitsmiler,2991
parsedtwodigitsmiles,2992
parsedtwodigitsmin,2993
parsedtwodigitsmins,2994
parsedtwodigitsmm,2995
parsedtwodigitsmparseddigitss,2996
parsedtwodigitsmpw,2997
parsedtwodigitsp,2998
parsedtwodigitspm,2999
parsedtwodigitsrd,3000
parsedtwodigitss,3001
parsedtwodigitssecs,3002
parsedtwodigitsst,3003
parsedtwodigitsth,3004
parsedtwodigitsxparsedthreedigits,3005
part,3006
partial,3007
particular,3008
particularly,3009
partly,3010
partner,3011
parts,3012
party,3013
passed,3014
passing,3015
past,3016
pasta,3017
paste,3018
patch,3019
path,3020
pathetic,3021
paths,3022
paul,3023
paula,3024
pavement,3025
pavements,3026
pavey,3027
paving,3028
pay,3029
paying,3030
payment,3031
payments,3032
pb,3033
pbs,3034
pc,3035
peak,3036
peaked,3037
peaks,3038
peaky,3039
peanut,3040
pearce,3041
pee,3042
peeekay,3043
peel,3044
peeled,3045
peeps,3046
peev,3047
pelt,3048
pen,3049
pengiun,3050
penny,3051
penquin,3052
pens,3053
people,3054
pepe,3055
per,3056
perceived,3057
perfect,3058
perfection,3059
performance,3060
perhaps,3061
period,3062
permanent,3063
permitting,3064
person,3065
personally,3066
persuade,3067
perusing,3068
peter,3069
petrol,3070
pf,3071
pfitzinger,3072
ph,3073
phal,3074
phase,3075
phenomenal,3076
phew,3077
philpub,3078
phoenix,3079
phone,3080
phoned,3081
photo,3082
photos,3083
phsycological,3084
physical,3085
physically,3086
physio,3087
pick,3088
picked,3089
picking,3090
picnic,3091
pics,3092
picture,3093
pie,3094
piece,3095
pig,3096
pilates,3097
piles,3098
pilgrimage,3099
pills,3100
pimlico,3101
pink,3102
pinks,3103
pinpoint,3104
pints,3105
pip,3106
pit,3107
pitch,3108
pity,3109
pixels,3110
pizza,3111
pizzaman,3112
pj,3113
place,3114
placed,3115
places,3116
plan,3117
planned,3118
planning,3119
plans,3120
plasters,3121
plate,3122
plateau,3123
play,3124
player,3125
players,3126
playing,3127
plays,3128
pleasant,3129
please,3130
pleased,3131
pleaze,3132
plenty,3133
plod,3134
plodder,3135
plodding,3136
plodette,3137
ploding,3138
plometrics,3139
plough,3140
plumetted,3141
plus,3142
plyometrics,3143
pm,3144
pmp,3145
podiatrist,3146
podretta,3147
point,3148
pointing,3149
points,3150
poland,3151
polar,3152
pollution,3153
pool,3154
poor,3155
poorly,3156
pop,3157
poparsedonedigit,3158
popped,3159
popping,3160
poppy,3161
pops,3162
popular,3163
populate,3164
porcus,3165
porridge,3166
port,3167
position,3168
positive,3169
poss,3170
possible,3171
possibly,3172
post,3173
posted,3174
posting,3175
posts,3176
potential,3177
potentially,3178
potter,3179
pound,3180
pounding,3181
pounds,3182
pouring,3183
powerful,3184
pp,3185
pparsedthreedigits,3186
ppb,3187
practicioner,3188
practise,3189
practising,3190
prague,3191
pram,3192
prayers,3193
pre,3194
precedents,3195
precisions,3196
predicitons,3197
predict,3198
predicted,3199
prediction,3200
prefer,3201
preferably,3202
preferring,3203
premises,3204
prep,3205
preparation,3206
prepare,3207
preregister,3208
present,3209
pressure,3210
presumably,3211
presumptious,3212
pretty,3213
prevent,3214
previous,3215
previously,3216
price,3217
priceless,3218
pricy,3219
primarily,3220
primrose,3221
princess,3222
principle,3223
principles,3224
pringles,3225
print,3226
printed,3227
prior,3228
priorities,3229
priority,3230
private,3231
prize,3232
prizes,3233
prob,3234
probably,3235
problem,3236
problems,3237
process,3238
proclaiming,3239
productive,3240
profile,3241
profound,3242
prog,3243
programmes,3244
progress,3245
progressed,3246
progressive,3247
prohibition,3248
prolonging,3249
promise,3250
promptly,3251
proof,3252
proper,3253
properly,3254
prospect,3255
proud,3256
pround,3257
prove,3258
proved,3259
proven,3260
provided,3261
provides,3262
providing,3263
ps,3264
pseudo,3265
psychological,3266
pub,3267
public,3268
publicly,3269
puff,3270
puffing,3271
puffy,3272
pug,3273
pugs,3274
pulled,3275
pun,3276
punctuation,3277
punishment,3278
purely,3279
purpose,3280
push,3281
pusher,3282
pushing,3283
put,3284
puts,3285
putting,3286
pw,3287
qparsedonedigit,3288
qq,3289
quacks,3290
quads,3291
qualified,3292
qualify,3293
qualifying,3294
quality,3295
quarter,3296
quays,3297
quentin,3298
query,3299
question,3300
questions,3301
queue,3302
queueing,3303
queues,3304
quick,3305
quicker,3306
quickle,3307
quickly,3308
quid,3309
quids,3310
quiet,3311
quite,3312
rabbit,3313
race,3314
racers,3315
races,3316
rach,3317
racing,3318
rackstraw,3319
rain,3320
raining,3321
rainy,3322
raise,3323
raised,3324
raising,3325
ramp,3326
ran,3327
range,3328
rare,3329
rarity,3330
rat,3331
rate,3332
rated,3333
rather,3334
rattle,3335
ravenscourt,3336
rb,3337
rbs,3338
re,3339
reach,3340
reached,3341
reaching,3342
reaction,3343
read,3344
reading,3345
reads,3346
ready,3347
real,3348
realise,3349
realised,3350
realising,3351
realistically,3352
reality,3353
reall,3354
really,3355
rear,3356
rearly,3357
reason,3358
reasonably,3359
reasons,3360
reassured,3361
rec,3362
recall,3363
recce,3364
receive,3365
received,3366
recent,3367
recently,3368
recieve,3369
reckon,3370
reckoned,3371
recognise,3372
recommend,3373
recommended,3374
record,3375
records,3376
recorn,3377
recoup,3378
recover,3379
recovered,3380
recoveries,3381
recovering,3382
recovery,3383
recuperate,3384
red,3385
reduce,3386
reduced,3387
reduces,3388
reducing,3389
reentering,3390
refered,3391
refereeing,3392
referring,3393
reflect,3394
reflective,3395
refreshed,3396
refueling,3397
refuelling,3398
regarding,3399
regards,3400
regents,3401
regimen,3402
register,3403
registered,3404
registration,3405
regretted,3406
regroup,3407
rehearse,3408
rehydrate,3409
rehydrtaion,3410
reins,3411
rejected,3412
rejection,3413
rejections,3414
relates,3415
relative,3416
relatives,3417
relax,3418
relaxed,3419
relaxing,3420
relay,3421
relays,3422
relect,3423
relief,3424
relying,3425
remain,3426
remaining,3427
remains,3428
remarkable,3429
remedial,3430
remedy,3431
remember,3432
reminding,3433
reminds,3434
removed,3435
removing,3436
rep,3437
repair,3438
repeated,3439
replace,3440
replacement,3441
replied,3442
reply,3443
replys,3444
report,3445
reports,3446
reps,3447
requesting,3448
require,3449
research,3450
reserved,3451
reserves,3452
resident,3453
resiliency,3454
resistance,3455
respect,3456
responded,3457
responses,3458
responsibility,3459
rest,3460
rested,3461
restless,3462
restraint,3463
result,3464
results,3465
resume,3466
retail,3467
retire,3468
retirement,3469
return,3470
returned,3471
revelation,3472
revenge,3473
reverse,3474
revised,3475
reward,3476
rf,3477
rfg,3478
rfj,3479
rh,3480
rhayader,3481
rhm,3482
rice,3483
rich,3484
richard,3485
richmond,3486
rick,3487
rid,3488
ride,3489
ridiculous,3490
riding,3491
rife,3492
right,3493
rightly,3494
rigorously,3495
ring,3496
ringing,3497
rings,3498
rink,3499
rio,3500
rioja,3501
risk,3502
rival,3503
rivals,3504
river,3505
riza,3506
rk,3507
rm,3508
road,3509
roads,3510
rob,3511
robin,3512
robinsonesque,3513
rochelle,3514
rock,3515
rocket,3516
rocking,3517
rocks,3518
roger,3519
roll,3520
rollick,3521
roma,3522
romantic,3523
ronnie,3524
roo,3525
roobarb,3526
roobarbs,3527
roobs,3528
room,3529
rooms,3530
rooting,3531
rossendale,3532
rotation,3533
rotterdam,3534
rough,3535
roughly,3536
round,3537
roundhay,3538
route,3539
routes,3540
rover,3541
row,3542
rowan,3543
rowing,3544
roz,3545
rub,3546
rubber,3547
rubbish,3548
ruby,3549
rue,3550
rugby,3551
ruin,3552
ruined,3553
ruining,3554
ruislip,3555
rule,3556
rumbletum,3557
run,3558
runlikethewind,3559
runner,3560
runners,3561
running,3562
runny,3563
runs,3564
ruscr,3565
rush,3566
rushing,3567
rw,3568
rythym,3569
sad,3570
sadly,3571
safc,3572
safe,3573
safely,3574
said,3575
sailed,3576
sailing,3577
sainsbury,3578
salad,3579
salt,3580
samba,3581
same,3582
sammy,3583
samples,3584
sandstorms,3585
sandwich,3586
sandwiches,3587
sanis,3588
sanps,3589
sant,3590
santa,3591
sapping,3592
saqib,3593
sarah,3594
sarus,3595
sat,3596
satisfied,3597
saturday,3598
saturdays,3599
sauce,3600
saving,3601
saw,3602
say,3603
saying,3604
says,3605
sb,3606
sc,3607
scale,3608
scare,3609
scared,3610
scarf,3611
scarily,3612
scary,3613
scene,3614
scenery,3615
sceptical,3616
schedule,3617
schedules,3618
scheme,3619
schiphol,3620
school,3621
sciatica,3622
scorpions,3623
scotland,3624
scott,3625
screwed,3626
scrubs,3627
scrumptious,3628
sdi,3629
sea,3630
season,3631
seasons,3632
seat,3633
second,3634
secondary,3635
secondly,3636
seconds,3637
secs,3638
section,3639
sections,3640
see,3641
seeing,3642
seeking,3643
seem,3644
seemed,3645
seemingly,3646
seems,3647
seen,3648
seize,3649
seizing,3650
selbs,3651
selby,3652
self,3653
sell,3654
sellotape,3655
semi,3656
semis,3657
send,3658
sending,3659
sense,3660
sensibility,3661
sensible,3662
sent,3663
sept,3664
september,3665
seren,3666
serious,3667
seriously,3668
service,3669
services,3670
sesamoid,3671
session,3672
sessions,3673
set,3674
sets,3675
settle,3676
settled,3677
several,3678
severe,3679
sewerby,3680
sezz,3681
sf,3682
shades,3683
shall,3684
shame,3685
shape,3686
share,3687
sharp,3688
sharpener,3689
sharper,3690
sharply,3691
shattered,3692
she,3693
sheep,3694
sheet,3695
shelter,3696
sheltered,3697
shields,3698
shift,3699
shifting,3700
shifts,3701
shimmering,3702
shimmied,3703
shimms,3704
shin,3705
shins,3706
shiny,3707
shiraz,3708
shirl,3709
shirt,3710
sho,3711
shocker,3712
shocking,3713
shoe,3714
shoes,3715
shona,3716
shooting,3717
shop,3718
shopkeeper,3719
shopping,3720
shops,3721
short,3722
shorter,3723
shortly,3724
shorts,3725
shotokn,3726
should,3727
shoulder,3728
shoulders,3729
shouldn,3730
shouldnt,3731
shout,3732
show,3733
showboat,3734
showed,3735
shower,3736
showered,3737
showerstuff,3738
shows,3739
shuffler,3740
shut,3741
sick,3742
side,3743
sign,3744
signals,3745
signed,3746
significant,3747
sill,3748
silly,3749
silver,3750
silverstone,3751
similar,3752
similarity,3753
simon,3754
simple,3755
simply,3756
since,3757
sink,3758
sis,3759
sister,3760
sit,3761
site,3762
sitting,3763
situated,3764
six,3765
size,3766
sized,3767
sj,3768
skating,3769
skidding,3770
skills,3771
skin,3772
skinny,3773
skip,3774
sky,3775
slacker,3776
sleep,3777
sleepless,3778
sleepy,3779
sleet,3780
sleeve,3781
slept,3782
slight,3783
slightly,3784
slighty,3785
slimboyslim,3786
slip,3787
slipped,3788
sloping,3789
sloth,3790
slow,3791
slowed,3792
slower,3793
slowest,3794
slowly,3795
sm,3796
small,3797
smaller,3798
smarter,3799
smell,3800
smelling,3801
smiffie,3802
smile,3803
smilin,3804
smiling,3805
smith,3806
smoke,3807
smoothie,3808
snail,3809
snakes,3810
sneak,3811
sneaking,3812
sneezing,3813
sniffle,3814
sniffles,3815
snifter,3816
snoopy,3817
snooze,3818
snow,3819
so,3820
soak,3821
soaked,3822
social,3823
sock,3824
socks,3825
sod,3826
sods,3827
soft,3828
softener,3829
some,3830
somebody,3831
somehow,3832
someone,3833
somerset,3834
somethin,3835
something,3836
sometime,3837
sometimes,3838
somewhere,3839
son,3840
sons,3841
soon,3842
sooooo,3843
sooooooooo,3844
sorbothane,3845
sore,3846
soreness,3847
sores,3848
sorry,3849
sort,3850
sorted,3851
sound,3852
sounded,3853
sounds,3854
source,3855
south,3856
sox,3857
spams,3858
spannerbparsedonedigittchbumfface,3859
spans,3860
spare,3861
speak,3862
speaking,3863
special,3864
spectactularly,3865
spectacularly,3866
spectate,3867
spectating,3868
speed,3869
speediest,3870
speedwork,3871
speedy,3872
spelling,3873
spelt,3874
spend,3875
spending,3876
spent,3877
spied,3878
spikes,3879
spill,3880
splash,3881
splits,3882
spoke,3883
spoken,3884
sponsor,3885
sponsored,3886
sponsorship,3887
spoon,3888
sport,3889
sporting,3890
sportive,3891
sports,3892
spose,3893
spot,3894
spotted,3895
spread,3896
spreadsheet,3897
sprightly,3898
spring,3899
sprint,3900
sprints,3901
sprouts,3902
spur,3903
spurs,3904
sq,3905
squad,3906
squeak,3907
ss,3908
ssing,3909
sswfw,3910
st,3911
stacks,3912
stadium,3913
stage,3914
stain,3915
stairs,3916
stalls,3917
stamina,3918
stand,3919
standards,3920
standing,3921
stands,3922
star,3923
starp,3924
start,3925
started,3926
starting,3927
starts,3928
state,3929
statements,3930
static,3931
stating,3932
station,3933
stations,3934
stats,3935
stay,3936
stayed,3937
staying,3938
stays,3939
steady,3940
steak,3941
steam,3942
steaming,3943
steep,3944
step,3945
stephen,3946
stepped,3947
steve,3948
stevi,3949
stick,3950
sticking,3951
stickless,3952
sticks,3953
sticky,3954
stiff,3955
stiffer,3956
stiffness,3957
still,3958
stinker,3959
stinking,3960
stint,3961
stipulates,3962
stir,3963
stocks,3964
stoke,3965
stoker,3966
stomach,3967
stone,3968
stonking,3969
stop,3970
stoped,3971
stopped,3972
stopping,3973
stops,3974
stopwatch,3975
stored,3976
stores,3977
stories,3978
stormed,3979
storms,3980
story,3981
stourbridge,3982
straight,3983
strain,3984
strange,3985
strategies,3986
strategy,3987
stratford,3988
streaks,3989
street,3990
streetlights,3991
strength,3992
strengthen,3993
stress,3994
stretch,3995
stretched,3996
stretches,3997
stretching,3998
strictly,3999
stride,4000
strides,4001
strips,4002
stroke,4003
strong,4004
stronger,4005
strongly,4006
struggle,4007
struggled,4008
struggling,4009
stubs,4010
stuck,4011
stuff,4012
stupid,4013
stupidly,4014
style,4015
stylish,4016
sub,4017
subconcious,4018
subconsciously,4019
subject,4020
subscriber,4021
successful,4022
such,4023
sucker,4024
suddenly,4025
sue,4026
suffer,4027
sufferers,4028
suffice,4029
suffolk,4030
sugestions,4031
suggest,4032
suggested,4033
suggesting,4034
suggestion,4035
suggestions,4036
suit,4037
suits,4038
sulk,4039
sullivan,4040
summary,4041
summer,4042
sun,4043
sunday,4044
sundays,4045
sunderland,4046
sunny,4047
super,4048
superb,4049
supernova,4050
superstitious,4051
suposed,4052
supper,4053
supple,4054
supply,4055
support,4056
supporter,4057
supporters,4058
supporting,4059
suppose,4060
supposed,4061
supposedly,4062
supreme,4063
sure,4064
surely,4065
surfaces,4066
surges,4067
suriving,4068
surprise,4069
surprised,4070
surprisingly,4071
surrey,4072
survive,4073
surviving,4074
susan,4075
susie,4076
susiebee,4077
suspect,4078
suspicious,4079
sussex,4080
sustinence,4081
sw,4082
swam,4083
swanny,4084
swayer,4085
sweary,4086
sweating,4087
sweaty,4088
swedwr,4089
sweep,4090
sweet,4091
sweetest,4092
sweets,4093
swerve,4094
swift,4095
swim,4096
swimming,4097
swin,4098
switch,4099
switching,4100
swparsedtwodigits,4101
sydney,4102
sympathize,4103
sympathy,4104
symptoms,4105
system,4106
table,4107
tablets,4108
tackling,4109
tactics,4110
tad,4111
take,4112
taken,4113
takes,4114
taking,4115
talk,4116
talking,4117
tallbird,4118
taller,4119
tallguy,4120
tamworth,4121
tank,4122
tape,4123
taper,4124
tapering,4125
target,4126
targeted,4127
targeting,4128
tarkers,4129
tarmac,4130
tarpaulin,4131
task,4132
tasks,4133
taste,4134
tatts,4135
tauts,4136
tavern,4137
taxes,4138
taxi,4139
taz,4140
tea,4141
teacher,4142
team,4143
teams,4144
technical,4145
tee,4146
teenage,4147
teeshirt,4148
teeth,4149
teh,4150
telephone,4151
tell,4152
telling,4153
tells,4154
telly,4155
temp,4156
temperatures,4157
tempo,4158
tempted,4159
tempting,4160
tend,4161
tended,4162
tendency,4163
tender,4164
tendonitis,4165
tendonosis,4166
tennis,4167
tension,4168
ter,4169
tergat,4170
term,4171
terms,4172
test,4173
testicles,4174
testing,4175
text,4176
tfparsedonedigit,4177
thames,4178
than,4179
thanet,4180
thank,4181
thankful,4182
thankfully,4183
thanks,4184
thansk,4185
that,4186
thats,4187
the,4188
theatre,4189
their,4190
them,4191
themall,4192
themarathon,4193
themselves,4194
then,4195
therapist,4196
theraputic,4197
therapy,4198
there,4199
thereabouts,4200
theread,4201
thermals,4202
these,4203
they,4204
thick,4205
thigh,4206
thighs,4207
thing,4208
things,4209
think,4210
thinking,4211
thinks,4212
third,4213
this,4214
thistle,4215
tho,4216
thomas,4217
thoroughly,4218
those,4219
thou,4220
though,4221
thought,4222
thoughts,4223
thread,4224
threads,4225
three,4226
threshold,4227
through,4228
throughout,4229
throwaway,4230
throwing,4231
thrown,4232
thru,4233
thu,4234
thurs,4235
thursday,4236
thus,4237
tibial,4238
tick,4239
tickets,4240
ticking,4241
tied,4242
tighten,4243
tightness,4244
tights,4245
til,4246
till,4247
tim,4248
time,4249
times,4250
timing,4251
tinge,4252
tinkerbelle,4253
tinribs,4254
tip,4255
tipping,4256
tipptop,4257
tips,4258
tipsy,4259
tired,4260
tiredness,4261
tissue,4262
tm,4263
tmap,4264
to,4265
toastman,4266
toasty,4267
today,4268
toddies,4269
toe,4270
toenail,4271
toes,4272
together,4273
toilet,4274
toilets,4275
told,4276
tolerance,4277
tom,4278
tommorrow,4279
tomorrow,4280
tonight,4281
tonk,4282
tony,4283
too,4284
took,4285
tool,4286
toooo,4287
tooooooo,4288
tootie,4289
tooting,4290
tootling,4291
top,4292
topped,4293
topping,4294
tops,4295
topsec,4296
torn,4297
tortoiseparsedtwodigits,4298
total,4299
totally,4300
totm,4301
tottenham,4302
tottering,4303
touch,4304
tough,4305
toughener,4306
toughest,4307
toulouse,4308
towards,4309
towells,4310
tower,4311
town,4312
towners,4313
tr,4314
tracey,4315
track,4316
tracking,4317
trafalgar,4318
traffic,4319
trail,4320
trails,4321
train,4322
trained,4323
trainers,4324
trainign,4325
training,4326
trainning,4327
trains,4328
traning,4329
transport,4330
travel,4331
travelling,4332
travis,4333
treading,4334
treadmill,4335
treadmills,4336
treat,4337
treated,4338
treatment,4339
treehouse,4340
trees,4341
trendline,4342
trendy,4343
trg,4344
tri,4345
trial,4346
triathlon,4347
triathlons,4348
trick,4349
tricks,4350
tricky,4351
tried,4352
tries,4353
trimpell,4354
trin,4355
trip,4356
triple,4357
trollers,4358
trophy,4359
trot,4360
trouble,4361
trouty,4362
trucking,4363
true,4364
truely,4365
truleigh,4366
truly,4367
trumpets,4368
trust,4369
truthful,4370
try,4371
trying,4372
ts,4373
tsb,4374
tt,4375
ttl,4376
ttt,4377
tu,4378
tubby,4379
tube,4380
tues,4381
tuesday,4382
tuning,4383
tunnels,4384
tunturi,4385
turbo,4386
turkey,4387
turn,4388
turned,4389
turns,4390
tutu,4391
tv,4392
twelve,4393
twice,4394
twigged,4395
twist,4396
twixt,4397
two,4398
type,4399
types,4400
typical,4401
typically,4402
typo,4403
tyres,4404
uk,4405
ukathletics,4406
ultimate,4407
ultra,4408
um,4409
umb,4410
umbongo,4411
unacceptable,4412
unbearable,4413
unbelievably,4414
unchanged,4415
uncle,4416
uncomfortable,4417
under,4418
understand,4419
understandable,4420
understatements,4421
underwear,4422
undeserving,4423
undulating,4424
uneven,4425
unfinished,4426
unfit,4427
unfortunately,4428
unhappy,4429
unimpressed,4430
unique,4431
unit,4432
united,4433
unknown,4434
unless,4435
unlike,4436
unlikely,4437
unlucky,4438
unmbrella,4439
unrealistic,4440
unsuccessful,4441
unsure,4442
until,4443
unto,4444
untrue,4445
up,4446
update,4447
updates,4448
updating,4449
uphill,4450
upon,4451
upright,4452
ups,4453
upset,4454
upwards,4455
ure,4456
url,4457
urwfrc,4458
us,4459
use,4460
used,4461
useful,4462
using,4463
usual,4464
usually,4465
ususally,4466
vale,4467
valentine,4468
value,4469
valuxian,4470
valve,4471
vanished,4472
varies,4473
various,4474
vaseline,4475
vb,4476
ve,4477
vegetarians,4478
veggies,4479
vengeance,4480
venom,4481
venomous,4482
ventured,4483
verdict,4484
verge,4485
versus,4486
very,4487
vest,4488
vet,4489
veteran,4490
veyr,4491
vflm,4492
via,4493
victory,4494
video,4495
vienna,4496
view,4497
viffer,4498
villager,4499
virgin,4500
virtual,4501
virus,4502
viruses,4503
visit,4504
visited,4505
visiting,4506
visits,4507
vitamin,4508
vitamins,4509
viz,4510
voice,4511
void,4512
voila,4513
volume,4514
vote,4515
voucher,4516
vrap,4517
wabo,4518
wafting,4519
wages,4520
wahey,4521
waht,4522
wait,4523
waiting,4524
waking,4525
waldorf,4526
walk,4527
walked,4528
walking,4529
walks,4530
wall,4531
wandering,4532
wanders,4533
want,4534
wanted,4535
wanting,4536
wants,4537
wardi,4538
warm,4539
warmed,4540
warmer,4541
warming,4542
warning,4543
warrior,4544
wars,4545
was,4546
wasn,4547
wasted,4548
wasters,4549
watch,4550
watched,4551
watches,4552
watching,4553
water,4554
watered,4555
waterloo,4556
waters,4557
waterstop,4558
watford,4559
wating,4560
wave,4561
waves,4562
waving,4563
way,4564
ways,4565
wc,4566
we,4567
weak,4568
weakness,4569
wealth,4570
wear,4571
wearing,4572
weather,4573
web,4574
website,4575
wed,4576
wedding,4577
wednesday,4578
wednesdays,4579
weds,4580
wee,4581
week,4582
weekday,4583
weekend,4584
weekends,4585
weekly,4586
weeknights,4587
weeks,4588
weeman,4589
weetabix,4590
weight,4591
weights,4592
weird,4593
welcombe,4594
welcome,4595
welcomes,4596
welcoming,4597
well,4598
wellie,4599
wembley,4600
went,4601
were,4602
weren,4603
west,4604
westminster,4605
wet,4606
wetsuit,4607
wey,4608
whadisay,4609
wharf,4610
what,4611
whatever,4612
whats,4613
whatsoever,4614
wheldrake,4615
when,4616
whenever,4617
where,4618
whereabouts,4619
whereas,4620
wherever,4621
whether,4622
which,4623
while,4624
whiled,4625
whilst,4626
whispered,4627
whitby,4628
white,4629
who,4630
whole,4631
whose,4632
whow,4633
why,4634
wi,4635
wicked,4636
wicking,4637
wider,4638
wife,4639
wifes,4640
wilde,4641
will,4642
willy,4643
wilton,4644
wimbledon,4645
wimped,4646
win,4647
wincanton,4648
wind,4649
windermere,4650
window,4651
windsurfing,4652
windy,4653
wine,4654
wings,4655
winner,4656
wins,4657
winter,4658
wintery,4659
wiped,4660
wise,4661
wish,4662
wished,4663
wishes,4664
wishful,4665
wit,4666
witch,4667
with,4668
within,4669
without,4670
wixey,4671
wobbly,4672
woke,4673
woking,4674
wokingham,4675
woman,4676
womble,4677
women,4678
won,4679
wonder,4680
wondered,4681
wonderful,4682
wondering,4683
wonders,4684
wont,4685
wooden,4686
woods,4687
woohoo,4688
woony,4689
worcester,4690
word,4691
words,4692
wore,4693
work,4694
worked,4695
working,4696
workout,4697
workouts,4698
works,4699
world,4700
worldpay,4701
wormwood,4702
worried,4703
worries,4704
worry,4705
worrying,4706
worse,4707
worsened,4708
worst,4709
worth,4710
worthwhile,4711
worthy,4712
wotsit,4713
would,4714
wouldn,4715
wound,4716
wow,4717
wp,4718
wreck,4719
wrecked,4720
wristwatch,4721
write,4722
writing,4723
written,4724
wrong,4725
wrote,4726
ws,4727
wt,4728
wtf,4729
wtgy,4730
wu,4731
ww,4732
www,4733
wylls,4734
xc,4735
xfr,4736
xmas,4737
xparsedonedigit,4738
xx,4739
xxx,4740
ya,4741
yards,4742
yateley,4743
yay,4744
yeah,4745
year,4746
yeara,4747
years,4748
yeh,4749
yellow,4750
yep,4751
yer,4752
yes,4753
yesterday,4754
yet,4755
yeterdays,4756
yikes,4757
yipee,4758
yippeee,4759
yoghurts,4760
yogs,4761
yomping,4762
york,4763
yorks,4764
you,4765
youll,4766
younger,4767
your,4768
youre,4769
yours,4770
yourself,4771
yourselves,4772
youself,4773
youths,4774
yr,4775
yrs,4776
yu,4777
yuck,4778
yum,4779
ywould,4780
zimchick,4781
zimmers,4782
zinc,4783
zip,4784
zone,4785
zzzzs,4786
