ability,0
able,1
abreu,2
absence,3
absolutely,4
absurd,5
accidents,6
act,7
action,8
activist,9
acts,10
actual,11
actually,12
adapts,13
added,14
addiction,15
address,16
addresses,17
adhere,18
ado,19
advancement,20
advantage,21
advocate,22
affairs,23
affordable,24
afghanistan,25
afraid,26
age,27
ago,28
agree,29
agricultural,30
aime,31
akyol,32
alien,33
alive,34
allen,35
alleviate,36
allow,37
allowing,38
allows,39
alongg,40
alternative,41
amazing,42
american,43
americans,44
amounts,45
amp,46
analogy,47
analyze,48
ann,49
answer,50
answers,51
antonio,52
apes,53
appears,54
appreciate,55
appropriate,56
apretiate,57
architect,58
area,59
aren,60
argument,61
ariely,62
army,63
arrive,64
art,65
arthritis,66
articulated,67
artist,68
ask,69
aspect,70
ass,71
assistance,72
astute,73
atoms,74
att,75
attached,76
attempt,77
attendance,78
attendant,79
attitude,80
authentic,81
authors,82
autonomy,83
avoided,84
awaken,85
away,86
awe,87
awesome,88
background,89
bad,90
band,91
barber,92
barely,93
based,94
basic,95
bathroom,96
beautiful,97
begins,98
behavior,99
behavioral,100
behaviours,101
beijing,102
beings,103
belief,104
beliefs,105
believe,106
bell,107
belongs,108
benifit,109
best,110
better,111
bias,112
big,113
bigg,114
biggest,115
billions,116
binding,117
biodiversity,118
bits,119
bjorn,120
bless,121
blessing,122
blind,123
blog,124
blogspot,125
bodies,126
body,127
book,128
bored,129
born,130
bosses,131
bostrom,132
boundaries,133
boundary,134
brain,135
brains,136
branch,137
briefly,138
bright,139
brilliant,140
bringing,141
brutal,142
brutally,143
build,144
business,145
businesses,146
buying,147
calculation,148
came,149
campaign,150
campbell,151
cancer,152
candle,153
cannon,154
canot,155
capital,156
car,157
carbon,158
carry,159
cash,160
catch,161
cause,162
cello,163
century,164
cfr,165
chair,166
change,167
changed,168
changing,169
cheat,170
check,171
chery,172
children,173
childrenn,174
china,175
chinese,176
choice,177
chris,178
christians,179
christina,180
chronic,181
circles,182
circumstances,183
city,184
civil,185
claim,186
clarified,187
clasism,188
class,189
classes,190
clinical,191
close,192
closely,193
clothing,194
clue,195
clumsy,196
colbert,197
com,198
come,199
comes,200
comforts,201
comical,202
command,203
comment,204
commenting,205
commercially,206
common,207
community,208
companions,209
compare,210
compass,211
compete,212
complain,213
complete,214
completely,215
complex,216
computer,217
conceded,218
concept,219
concluded,220
conclusion,221
conclusions,222
condition,223
conducted,224
confirm,225
confirmation,226
confusion,227
connected,228
connection,229
conscience,230
consciousness,231
conservatives,232
consider,233
considered,234
consistently,235
conspiracy,236
constantly,237
construct,238
continue,239
contradictions,240
contribute,241
contribution,242
control,243
controlling,244
cooked,245
cool,246
copied,247
coping,248
core,249
corpus,250
corrupt,251
corruption,252
costs,253
counter,254
countles,255
countries,256
couple,257
course,258
covert,259
craftsman,260
create,261
created,262
creating,263
creative,264
creator,265
cringe,266
critical,267
crops,268
crosses,269
cup,270
curiosity,271
current,272
dabs,273
dad,274
damage,275
dan,276
dangers,277
dare,278
data,279
dave,280
david,281
davos,282
dawkins,283
day,284
dd,285
dead,286
deaf,287
deal,288
dear,289
death,290
debate,291
decades,292
decent,293
decides,294
decision,295
decrease,296
deed,297
deeper,298
default,299
definitely,300
degenerative,301
delicate,302
deliver,303
demanded,304
demanding,305
demean,306
democratic,307
denied,308
depress,309
depressed,310
deprived,311
derivatives,312
descent,313
descisions,314
descriptions,315
deserved,316
deserves,317
design,318
designed,319
despite,320
determination,321
devastating,322
develop,323
developed,324
development,325
device,326
devoted,327
dewan,328
dictate,329
did,330
died,331
diet,332
dietary,333
different,334
differentiation,335
differing,336
digital,337
dilution,338
dims,339
direction,340
disabled,341
disagree,342
discipline,343
discourse,344
discovered,345
discuss,346
discussed,347
discusses,348
diseases,349
disgraceful,350
dismissive,351
distinguishing,352
distraction,353
disturbing,354
does,355
doesn,356
doing,357
dollars,358
dominating,359
don,360
drastically,361
drink,362
driving,363
dubious,364
dumbing,365
dumped,366
duration,367
dutch,368
eacute,369
earlier,370
ears,371
easier,372
easy,373
echo,374
economic,375
economist,376
educate,377
educated,378
education,379
effectively,380
effectiveness,381
efficiency,382
efficient,383
efficiently,384
efforts,385
elderly,386
elephant,387
eliminated,388
elites,389
eloquent,390
embrace,391
emiliano,392
emotion,393
emotional,394
empathy,395
emphatically,396
empowering,397
encourage,398
encouraged,399
end,400
endorse,401
ends,402
energy,403
engagement,404
engine,405
enslavement,406
ensure,407
environment,408
environmental,409
epic,410
equally,411
equate,412
equipment,413
especially,414
eternity,415
ethical,416
euclidean,417
euphoria,418
europe,419
event,420
events,421
eventually,422
evil,423
evolution,424
evolutionn,425
evolved,426
example,427
examples,428
excellence,429
excellent,430
exchanging,431
excited,432
exercise,433
existence,434
expansiveness,435
experience,436
experiences,437
experiencing,438
experiment,439
experinces,440
explains,441
explored,442
expressed,443
extra,444
extraordinary,445
extremely,446
face,447
fact,448
facts,449
fail,450
faiths,451
fall,452
fallacies,453
fallen,454
family,455
famous,456
fancy,457
fantastic,458
far,459
fascinating,460
fat,461
father,462
fatter,463
fault,464
fear,465
fears,466
feature,467
features,468
feed,469
feel,470
feeling,471
feldman,472
felix,473
felt,474
femininity,475
feminist,476
fertility,477
fiction,478
fight,479
final,480
finally,481
finding,482
findings,483
finite,484
fit,485
fix,486
floating,487
flu,488
fluctuations,489
focus,490
follow,491
followed,492
following,493
food,494
footprint,495
force,496
forever,497
forgets,498
form,499
formed,500
fortification,501
fossil,502
free,503
freedom,504
friends,505
frightened,506
fuels,507
fun,508
functional,509
functions,510
fundamentalisms,511
fundamentals,512
future,513
gallon,514
garbage,515
gas,516
gasoline,517
gauge,518
gay,519
generally,520
generates,521
generation,522
geof,523
geometry,524
germans,525
getting,526
gilbert,527
gilgamesh,528
girl,529
girls,530
given,531
gives,532
giving,533
global,534
globall,535
glorified,536
glue,537
gm,538
god,539
goglemapsapi,540
going,541
gold,542
good,543
goodness,544
got,545
gotten,546
governing,547
government,548
governments,549
gps,550
grand,551
great,552
greater,553
greatest,554
green,555
gregariousness,556
grew,557
grips,558
grow,559
growing,560
gt,561
guarantee,562
guess,563
guide,564
guy,565
guys,566
hagovers,567
haidt,568
hall,569
hand,570
handicapped,571
handling,572
hans,573
happen,574
happening,575
happiness,576
happy,577
hard,578
harder,579
hate,580
hated,581
having,582
heading,583
headlines,584
heads,585
health,586
healthy,587
heart,588
heaven,589
heed,590
helip,591
hell,592
help,593
helped,594
helping,595
hero,596
high,597
highly,598
hilarious,599
hip,600
historical,601
history,602
hit,603
hold,604
holes,605
hollywood,606
honest,607
hook,608
hope,609
horizons,610
horrible,611
horrifying,612
house,613
html,614
htp,615
huge,616
human,617
humane,618
humanity,619
humble,620
humor,621
hunting,622
ib,623
idea,624
ideals,625
ideas,626
ideological,627
ideologues,628
ignorance,629
ignore,630
ignoringg,631
ii,632
illusion,633
imersive,634
impact,635
implications,636
impolite,637
importantly,638
impossible,639
inaccessible,640
incapable,641
incidences,642
included,643
includes,644
incomprehensible,645
incorporation,646
increase,647
independence,648
indexes,649
india,650
industry,651
inevitable,652
infinite,653
info,654
information,655
informed,656
informs,657
ingang,658
ingenious,659
ingrained,660
inhabits,661
initiated,662
injustice,663
innovation,664
inside,665
inspire,666
inspiring,667
institutionalised,668
intelligent,669
intention,670
intentionalityy,671
interacting,672
interaction,673
interactions,674
interactive,675
interconnected,676
interesteding,677
interesting,678
international,679
internet,680
interpreted,681
interview,682
interviews,683
introduce,684
introduction,685
introdues,686
introverted,687
intrusion,688
intuitive,689
invade,690
inventor,691
investigation,692
invited,693
involves,694
iq,695
irrational,696
irritated,697
islam,698
islamicc,699
isn,700
isolating,701
israel,702
issues,703
issuing,704
iwould,705
japan,706
japanese,707
jil,708
job,709
jon,710
jones,711
jos,712
journalist,713
just,714
kaba,715
ken,716
killing,717
kind,718
klein,719
knew,720
know,721
knowledge,722
knows,723
korea,724
large,725
lastly,726
lastt,727
latching,728
law,729
lead,730
leads,731
learn,732
learned,733
lecture,734
lee,735
leeuwenhoek,736
left,737
legitimal,738
legitimize,739
level,740
licenses,741
lie,742
lies,743
life,744
lifestyle,745
light,746
lights,747
like,748
likely,749
lint,750
list,751
listening,752
little,753
live,754
lived,755
lives,756
living,757
ljbmauparsedonedigitjc,758
lol,759
lone,760
long,761
longer,762
look,763
looking,764
looks,765
losing,766
loss,767
lost,768
lot,769
lots,770
love,771
macroevolution,772
magic,773
magnetic,774
maher,775
main,776
mainstream,777
maintain,778
major,779
majority,780
make,781
makes,782
making,783
man,784
managing,785
maneuver,786
manipulate,787
manipulation,788
mankind,789
manufacture,790
mao,791
map,792
marketer,793
marvelling,794
masculinity,795
masses,796
materials,797
math,798
mdash,799
mean,800
meaning,801
means,802
measured,803
mechanisms,804
media,805
medicinal,806
medicine,807
meetings,808
memes,809
memetics,810
men,811
mention,812
mentioned,813
mentions,814
merely,815
message,816
met,817
metaphor,818
methodical,819
mexican,820
mgvkvkmbrparsedonedigita,821
microbes,822
microsoft,823
micrososft,824
microwave,825
mild,826
military,827
mind,828
minds,829
minimal,830
misandry,831
misled,832
misrepresented,833
missed,834
mit,835
model,836
modern,837
moment,838
money,839
mongering,840
monkeys,841
moon,842
moral,843
morality,844
mosher,845
mother,846
movie,847
moving,848
mpparsedonedigit,849
mr,850
muhamed,851
murderer,852
mushroom,853
mushrooms,854
music,855
muslims,856
mustafe,857
mycelium,858
mystical,859
nanking,860
nation,861
natural,862
nature,863
need,864
needed,865
needs,866
negative,867
neighbors,868
network,869
neuroscience,870
new,871
newly,872
newnham,873
news,874
nice,875
nick,876
noah,877
nonsense,878
note,879
number,880
numbers,881
nutrient,882
obedience,883
objects,884
observation,885
observer,886
obvious,887
obviously,888
occupation,889
ocean,890
offended,891
officer,892
oh,893
oil,894
oils,895
old,896
ones,897
open,898
openly,899
operate,900
opinion,901
opposite,902
oppression,903
orbital,904
order,905
organizations,906
outcome,907
outlets,908
overwhelm,909
owned,910
pace,911
page,912
pain,913
pandemic,914
par,915
paradigm,916
paradox,917
paraphrasing,918
paraplegic,919
parody,920
parsedfourdigits,921
parsedonedigit,922
parsedonedigitd,923
parsedthreedigits,924
parsedthreedigitsp,925
parsedtwodigits,926
parsedtwodigitsth,927
partially,928
particles,929
partner,930
party,931
passion,932
path,933
paths,934
patience,935
payback,936
paying,937
pc,938
peace,939
pedophiles,940
peeve,941
people,942
peoples,943
perceptions,944
perfect,945
perfectly,946
performance,947
periods,948
permissible,949
permits,950
personally,951
perversion,952
pet,953
philosophy,954
phone,955
phrase,956
picking,957
piece,958
pillars,959
pink,960
pinker,961
plain,962
plant,963
plants,964
plastic,965
player,966
player_embeded,967
playing,968
point,969
pointed,970
pointless,971
points,972
poke,973
polarize,974
police,975
political,976
politicians,977
pontification,978
pop,979
portal,980
porter,981
poses,982
position,983
positive,984
possible,985
post,986
postsecret,987
povertyy,988
power,989
powers,990
preaching,991
precise,992
predictablyy,993
presented,994
pretty,995
prevent,996
pricing,997
pride,998
principles,999
prior,1000
priorities,1001
privacy,1002
privilege,1003
pro,1004
probably,1005
probing,1006
problem,1007
problems,1008
proceed,1009
process,1010
produce,1011
produces,1012
products,1013
professional,1014
professionals,1015
professor,1016
profit,1017
profits,1018
prognostications,1019
program,1020
project,1021
projects,1022
promise,1023
promote,1024
properties,1025
prophet,1026
proportion,1027
proportionate,1028
protect,1029
prove,1030
proved,1031
proven,1032
provide,1033
providers,1034
providing,1035
provoking,1036
ps,1037
psychology,1038
public,1039
publish,1040
purity,1041
purpose,1042
puzzle,1043
quality,1044
quantity,1045
question,1046
quiet,1047
quite,1048
quo,1049
race,1050
rahul,1051
raise,1052
rapid,1053
rapt,1054
rate,1055
ratio,1056
ravaged,1057
reach,1058
reached,1059
reactions,1060
read,1061
ready,1062
real,1063
reality,1064
realize,1065
really,1066
reasearch,1067
reason,1068
recently,1069
recognize,1070
recommendations,1071
recycling,1072
reduction,1073
referring,1074
refers,1075
regain,1076
regardless,1077
regards,1078
reign,1079
reject,1080
rejoined,1081
relative,1082
reliable,1083
religion,1084
religions,1085
religious,1086
remember,1087
reminds,1088
reminiscence,1089
repetoire,1090
reproducible,1091
requesting,1092
required,1093
requirements,1094
reserved,1095
resource,1096
resources,1097
responses,1098
responsibility,1099
rest,1100
restrictive,1101
results,1102
return,1103
revealed,1104
revelation,1105
revenue,1106
revolution,1107
richard,1108
rifles,1109
right,1110
righteous,1111
rigid,1112
rigorous,1113
ring,1114
risk,1115
robinson,1116
rock,1117
role,1118
room,1119
root,1120
roots,1121
rosling,1122
routs,1123
rsquo,1124
ruling,1125
running,1126
sacrifice,1127
sad,1128
sadlyy,1129
safe,1130
said,1131
satelites,1132
saves,1133
saw,1134
say,1135
saying,1136
scale,1137
scenarios,1138
schedule,1139
schizophrenia,1140
school,1141
science,1142
scientific,1143
scientist,1144
scientists,1145
screwed,1146
screwing,1147
sea,1148
search,1149
searches,1150
searching,1151
seasonal,1152
secret,1153
secrete,1154
seee,1155
seen,1156
sees,1157
selection,1158
self,1159
sending,1160
senses,1161
sensing,1162
sentence,1163
seriously,1164
set,1165
setting,1166
shamelessly,1167
share,1168
shared,1169
shares,1170
sharing,1171
short,1172
shortened,1173
shown,1174
shrine,1175
shut,1176
sichuan,1177
sickened,1178
sicker,1179
significance,1180
significant,1181
similar,1182
simply,1183
sing,1184
single,1185
sir,1186
sit,1187
size,1188
sky,1189
slavery,1190
sleepy,1191
small,1192
smile,1193
smolin,1194
smug,1195
sniping,1196
snufed,1197
social,1198
societal,1199
society,1200
software,1201
solar,1202
sole,1203
solving,1204
son,1205
sorry,1206
sort,1207
sought,1208
soul,1209
sounded,1210
sounds,1211
source,1212
sowing,1213
speaker,1214
speaks,1215
specific,1216
specter,1217
speech,1218
spending,1219
spent,1220
spiderman,1221
spike,1222
spirituality,1223
sponsers,1224
spread,1225
squeezing,1226
ss,1227
stability,1228
stand,1229
standard,1230
start,1231
starts,1232
state,1233
stated,1234
stations,1235
statistics,1236
status,1237
step,1238
stephen,1239
stereotype,1240
steroids,1241
steve,1242
stewart,1243
sticky,1244
stifling,1245
stimulus,1246
stole,1247
stop,1248
stopped,1249
stories,1250
stranger,1251
stream,1252
stressing,1253
stringss,1254
stronger,1255
struck,1256
structure,1257
student,1258
students,1259
studied,1260
study,1261
stuff,1262
stuffs,1263
style,1264
styrofoam,1265
subject,1266
substitutes,1267
success,1268
successfully,1269
succumbing,1270
suffering,1271
suggest,1272
suggests,1273
suicided,1274
suppose,1275
supposed,1276
sure,1277
surprising,1278
surprisingly,1279
surroundings,1280
suspect,1281
swept,1282
sytems,1283
tabarok,1284
taboo,1285
tack,1286
taking,1287
talented,1288
taliban,1289
talk,1290
talking,1291
talks,1292
tampon,1293
teach,1294
teacher,1295
teachers,1296
teaching,1297
techniques,1298
technology,1299
ted,1300
telecom,1301
tell,1302
term,1303
tern,1304
terrorism,1305
test,1306
testimony,1307
thailand,1308
thank,1309
thanks,1310
thats,1311
theory,1312
thing,1313
things,1314
think,1315
thinking,1316
thomas,1317
thought,1318
thoughtful,1319
thousands,1320
threads,1321
threat,1322
threatening,1323
threw,1324
thrive,1325
time,1326
timely,1327
times,1328
title,1329
tj,1330
toe,1331
told,1332
tonic,1333
tools,1334
topic,1335
totally,1336
touch,1337
touched,1338
touches,1339
touching,1340
tragic,1341
transcendence,1342
transcript,1343
transfer,1344
transformations,1345
transition,1346
translated,1347
trials,1348
truce,1349
true,1350
truly,1351
truth,1352
try,1353
trying,1354
tunes,1355
turn,1356
tv,1357
type,1358
tyrannyy,1359
ultimate,1360
unbelivable,1361
understand,1362
understanding,1363
understands,1364
understatment,1365
undo,1366
undone,1367
unhappy,1368
unison,1369
universe,1370
unusual,1371
unveiled,1372
use,1373
used,1374
useful,1375
uses,1376
vagina,1377
valid,1378
value,1379
values,1380
various,1381
vast,1382
ve,1383
version,1384
vibrations,1385
video,1386
viewed,1387
viewing,1388
viewpoint,1389
viewpoints,1390
violent,1391
virgin,1392
virtual,1393
virtualized,1394
visit,1395
vlc,1396
vocalist,1397
vocally,1398
voice,1399
vortex,1400
vulnerability,1401
wait,1402
walker,1403
wang,1404
wans,1405
want,1406
wanted,1407
wants,1408
war,1409
warped,1410
watch,1411
watched,1412
watching,1413
water,1414
way,1415
weakness,1416
webb,1417
weekday,1418
wek,1419
whatsoever,1420
whel,1421
wi,1422
wind,1423
wire,1424
wish,1425
women,1426
wonder,1427
wonderful,1428
woody,1429
word,1430
words,1431
work,1432
worked,1433
workers,1434
works,1435
world,1436
worldwide,1437
worth,1438
worthy,1439
wow,1440
write,1441
writers,1442
writing,1443
written,1444
wrong,1445
year,1446
years,1447
yes,1448
youngsters,1449
youtube,1450
ystating,1451
