ability,0
able,1
absence,2
absolutely,3
absurd,4
accepted,5
accidents,6
act,7
activist,8
actual,9
actually,10
acute,11
adapts,12
added,13
address,14
addresses,15
adhere,16
ado,17
advancement,18
advantage,19
advocate,20
affairs,21
affordable,22
afghanistan,23
afraid,24
age,25
ago,26
agony,27
agree,28
agricultural,29
aime,30
akyol,31
al,32
alien,33
allen,34
alleviate,35
allow,36
allows,37
alongg,38
alternative,39
amazing,40
american,41
americans,42
amounts,43
amp,44
analogy,45
analyze,46
ann,47
answer,48
answers,49
apes,50
apocalypse,51
appears,52
applaud,53
appreciate,54
appropriate,55
apretiate,56
architect,57
area,58
areas,59
aren,60
argument,61
ariely,62
army,63
art,64
arthritis,65
artist,66
aside,67
ask,68
ass,69
assertion,70
assistance,71
astute,72
atoms,73
att,74
attached,75
attempt,76
attendance,77
attendant,78
attitude,79
authentic,80
authors,81
autonomy,82
avoided,83
avoids,84
awaken,85
aware,86
away,87
awe,88
awesome,89
awhile,90
baby,91
background,92
bad,93
bajo,94
band,95
barber,96
barely,97
basic,98
bathroom,99
beautiful,100
beef,101
begging,102
begins,103
behavior,104
behavioral,105
behaviours,106
beijing,107
beings,108
belief,109
believe,110
bell,111
benifit,112
best,113
better,114
bias,115
bible,116
big,117
bigg,118
biggest,119
billions,120
biodiversity,121
bit,122
bits,123
bjorn,124
blackmore,125
blanket,126
bless,127
blessing,128
blind,129
blocking,130
blog,131
bodies,132
body,133
book,134
bored,135
bostrom,136
bothered,137
boundaries,138
boundary,139
brain,140
brains,141
branch,142
bright,143
brilliant,144
bringing,145
brutally,146
burdoning,147
business,148
businesses,149
buy,150
buying,151
calculation,152
california,153
came,154
campaign,155
cancer,156
candle,157
cannon,158
canot,159
capital,160
car,161
carbon,162
carr,163
carry,164
cash,165
catch,166
cause,167
causing,168
cello,169
century,170
cfr,171
chair,172
change,173
changed,174
changing,175
cheat,176
check,177
chery,178
children,179
childrenn,180
china,181
chinese,182
choice,183
chris,184
christians,185
christina,186
chronic,187
cierta,188
circles,189
circumstances,190
city,191
civil,192
claim,193
clarified,194
clases,195
clasism,196
class,197
classes,198
clear,199
climate,200
clinical,201
close,202
closely,203
clothing,204
clue,205
clumsy,206
cohesion,207
colbert,208
collapse,209
com,210
come,211
comes,212
comforts,213
command,214
comment,215
commenting,216
commercially,217
common,218
communication,219
communities,220
compare,221
compass,222
compensation,223
complain,224
complejas,225
complete,226
completely,227
complex,228
comprehend,229
computer,230
conceded,231
concept,232
concert,233
concluded,234
conclusion,235
conclusions,236
condition,237
conducted,238
confirmation,239
connected,240
connection,241
conscience,242
consciousness,243
conservatives,244
consider,245
considered,246
consistently,247
conspiracy,248
construct,249
continue,250
contradiction,251
contribution,252
control,253
controlling,254
cooked,255
cool,256
copied,257
coping,258
core,259
corpus,260
corrupt,261
corruption,262
costo,263
costs,264
countles,265
countries,266
country,267
countrymen,268
couple,269
course,270
covert,271
craftsman,272
create,273
created,274
creating,275
creations,276
creative,277
creator,278
creators,279
cringe,280
critical,281
crosses,282
cual,283
cuba,284
cup,285
curiosity,286
current,287
customers,288
dabs,289
dad,290
damage,291
damaging,292
dan,293
dancers,294
dancing,295
dangers,296
daniel,297
data,298
dave,299
david,300
davos,301
dead,302
deaf,303
deal,304
dear,305
death,306
debate,307
decades,308
december,309
decent,310
decides,311
decision,312
decrease,313
deed,314
deeper,315
default,316
definitely,317
degenerative,318
delicate,319
deliver,320
demanded,321
demanding,322
demean,323
denied,324
depress,325
depressed,326
deprived,327
derivatives,328
descent,329
descriptions,330
deserved,331
deserves,332
design,333
despite,334
determination,335
detroit,336
devastating,337
develop,338
developed,339
development,340
device,341
devoted,342
dewan,343
dictate,344
did,345
died,346
diet,347
dietary,348
different,349
differentiation,350
differently,351
differing,352
digital,353
dilution,354
dims,355
dinero,356
direction,357
disabled,358
disagree,359
discipline,360
discourse,361
discovered,362
discs,363
discuss,364
discussed,365
discusses,366
diseases,367
disgraceful,368
dismissive,369
disprove,370
distinguishing,371
distraction,372
disturbing,373
does,374
doesn,375
doing,376
dollar,377
dollars,378
dominating,379
don,380
drastically,381
drink,382
drive,383
driving,384
dubious,385
dumbing,386
dumped,387
duplicates,388
duration,389
dutch,390
earlier,391
ears,392
easier,393
easy,394
eat,395
eccentricities,396
echo,397
economic,398
economist,399
educate,400
education,401
effectively,402
effectiveness,403
efficiency,404
efficient,405
efficiently,406
efforts,407
elderly,408
elephant,409
eliminated,410
elites,411
eloquent,412
embargo,413
embrace,414
emotion,415
emotional,416
empathy,417
emphatically,418
en,419
encourage,420
encouraged,421
end,422
endorse,423
ends,424
energy,425
engagement,426
enslavement,427
ensure,428
enterprise,429
environment,430
environmental,431
epic,432
epistemology,433
equally,434
equate,435
equipment,436
ero,437
es,438
escazos,439
eso,440
especially,441
est,442
este,443
eternity,444
ethical,445
euclidean,446
euphoria,447
europe,448
event,449
events,450
eventually,451
evil,452
evolution,453
evolutionist,454
evolutionn,455
evolved,456
evqparsedonedigitwnvtcparsedonedigitm,457
examples,458
excellence,459
exchanging,460
excited,461
existed,462
existen,463
expansiveness,464
experience,465
experiences,466
experiment,467
experinces,468
explains,469
explored,470
express,471
expressed,472
extra,473
extraordinary,474
face,475
fact,476
facts,477
fail,478
faiths,479
fall,480
fallen,481
falsifiable,482
family,483
famous,484
fancy,485
fantastic,486
far,487
fascinating,488
fat,489
father,490
fatter,491
fear,492
feature,493
features,494
feed,495
feel,496
feeling,497
felix,498
felt,499
femininity,500
feminist,501
fertility,502
fiction,503
finally,504
finding,505
findings,506
fine,507
finite,508
fit,509
fix,510
floating,511
flu,512
fluctuations,513
focus,514
focused,515
focusing,516
follow,517
followed,518
following,519
food,520
footprint,521
force,522
forever,523
forgets,524
form,525
forma,526
fortification,527
forward,528
fossil,529
free,530
freedom,531
friends,532
frightened,533
frustrations,534
fuels,535
fun,536
functional,537
functions,538
fundamentalisms,539
fundamentals,540
future,541
gallon,542
garbage,543
gas,544
gasoline,545
gauge,546
gay,547
generally,548
generates,549
generation,550
genius,551
geof,552
geometry,553
germans,554
getting,555
gilbert,556
gilgamesh,557
girl,558
girls,559
given,560
giving,561
global,562
globall,563
glorified,564
glue,565
god,566
going,567
gold,568
good,569
goodness,570
goree,571
got,572
gotten,573
governing,574
government,575
governments,576
gps,577
great,578
greatest,579
green,580
gregariousness,581
grew,582
grips,583
grow,584
growing,585
guarantee,586
guitar,587
guy,588
guys,589
hall,590
hand,591
handcuffed,592
handicapped,593
handling,594
hans,595
happen,596
happening,597
happiness,598
happy,599
hapy,600
hard,601
harder,602
hate,603
haven,604
having,605
headlines,606
heads,607
health,608
healthy,609
heart,610
heaven,611
heed,612
helip,613
hell,614
help,615
helped,616
helping,617
hidden,618
high,619
highly,620
hilarious,621
hip,622
historical,623
history,624
hit,625
hold,626
holes,627
hollywood,628
honest,629
hook,630
hope,631
hopefully,632
horizons,633
horrible,634
horrifying,635
hours,636
house,637
htp,638
huge,639
human,640
humane,641
humanity,642
humble,643
humor,644
hunting,645
ib,646
idea,647
ideological,648
ideologues,649
ignorance,650
ignoringg,651
ii,652
illusion,653
imersive,654
impact,655
implica,656
implications,657
impolite,658
importantly,659
impossible,660
inaccessible,661
incapable,662
incidences,663
included,664
incomes,665
incomprehensible,666
increase,667
independence,668
indexes,669
india,670
industry,671
inevitable,672
infinite,673
info,674
informed,675
informs,676
ingang,677
ingrained,678
inhabits,679
initiated,680
injustice,681
innovation,682
insanity,683
inspire,684
inspiring,685
instead,686
intention,687
intentionalityy,688
interacting,689
interaction,690
interactions,691
interactive,692
interconnected,693
interesteding,694
interesting,695
international,696
internet,697
interpreted,698
interview,699
interviews,700
introduce,701
introduction,702
intrusion,703
invade,704
inventor,705
investigation,706
invited,707
involves,708
iraqi,709
irrational,710
irritated,711
islam,712
islamicc,713
island,714
isn,715
isnt,716
isolating,717
israel,718
issue,719
issues,720
issuing,721
iwould,722
japan,723
japanese,724
job,725
join,726
jon,727
journalist,728
just,729
kaba,730
kind,731
klein,732
knew,733
knocked,734
know,735
knowledge,736
knows,737
korea,738
lacking,739
large,740
las,741
lastly,742
lastt,743
late,744
law,745
ldquo,746
leacture,747
lead,748
leads,749
learn,750
learned,751
learning,752
lecture,753
lee,754
leeuwenhoek,755
left,756
legalized,757
legitimize,758
level,759
licenses,760
lies,761
life,762
lifestyle,763
light,764
lights,765
like,766
listening,767
little,768
live,769
lived,770
lives,771
living,772
ljbmauparsedonedigitjc,773
lo,774
local,775
lol,776
lone,777
long,778
longer,779
look,780
looking,781
looks,782
losing,783
loss,784
lost,785
lot,786
lots,787
love,788
machine,789
macroevolution,790
magic,791
magnetic,792
maher,793
main,794
mainstream,795
maintain,796
major,797
make,798
makes,799
making,800
man,801
managing,802
maneuver,803
manipulate,804
manipulation,805
mankind,806
manufacture,807
mao,808
marketer,809
marvelling,810
masculinity,811
masses,812
materials,813
math,814
mdash,815
mean,816
meaning,817
means,818
meant,819
measured,820
mechanisms,821
media,822
medicinal,823
medicine,824
meetings,825
memes,826
memetics,827
men,828
mention,829
mentioned,830
mentioning,831
mentions,832
mere,833
merely,834
message,835
metaphor,836
methodical,837
microbes,838
micrososft,839
microwave,840
mild,841
mileage,842
military,843
mind,844
minds,845
mini,846
minimal,847
mirror,848
misandry,849
misled,850
misrepresented,851
missed,852
mit,853
modern,854
moment,855
mongering,856
monkeys,857
moon,858
moral,859
morality,860
mosher,861
mother,862
motivations,863
moved,864
movie,865
moving,866
mpparsedonedigit,867
mr,868
muchas,869
murderer,870
mushrooms,871
music,872
mustafe,873
mystical,874
myth,875
nanking,876
nation,877
natural,878
nature,879
need,880
needed,881
needs,882
negative,883
neighbors,884
network,885
neuroscience,886
new,887
newly,888
newnham,889
newspapers,890
nice,891
nick,892
nightmares,893
nonsense,894
note,895
notes,896
nuclear,897
number,898
numbers,899
nutrient,900
nz,901
obedience,902
objects,903
observation,904
observer,905
obviously,906
occupation,907
ocean,908
offended,909
offer,910
officer,911
ohio,912
oil,913
oils,914
old,915
ones,916
open,917
openly,918
operate,919
opposite,920
oppression,921
option,922
orbital,923
order,924
organizations,925
orientado,926
outcome,927
overwhelm,928
owned,929
pace,930
pacifier,931
page,932
pain,933
pandemic,934
par,935
paradigm,936
paradox,937
paraplegic,938
parody,939
parsedfourdigits,940
parsedonedigit,941
parsedonedigitd,942
parsedthreedigits,943
parsedthreedigitsp,944
parsedtwodigits,945
parsedtwodigitsth,946
particles,947
partner,948
party,949
passed,950
passion,951
passionate,952
paths,953
patience,954
payback,955
paying,956
pc,957
peace,958
peeve,959
pensamos,960
people,961
peoples,962
perceptions,963
percussivee,964
perfect,965
perfectly,966
performance,967
periods,968
permissible,969
permiten,970
permits,971
person,972
personally,973
perversion,974
pet,975
philosophy,976
phone,977
phrase,978
picking,979
piece,980
pillars,981
pink,982
pinker,983
plagued,984
plain,985
plant,986
plants,987
plastic,988
plastics,989
play,990
player,991
point,992
pointed,993
pointless,994
points,995
poke,996
polarize,997
police,998
political,999
politicians,1000
pontification,1001
poor,1002
pop,1003
position,1004
possible,1005
possibly,1006
post,1007
postsecret,1008
povertyy,1009
power,1010
powers,1011
preaching,1012
precise,1013
predictablyy,1014
pregnant,1015
presented,1016
pressing,1017
pretty,1018
prevent,1019
pricing,1020
principles,1021
prior,1022
priorities,1023
privacy,1024
pro,1025
probably,1026
probing,1027
problem,1028
problema,1029
problems,1030
proceed,1031
process,1032
produce,1033
produces,1034
professional,1035
professor,1036
profitable,1037
profits,1038
prognostications,1039
program,1040
progress,1041
project,1042
projects,1043
promise,1044
properties,1045
proportion,1046
protect,1047
prove,1048
proven,1049
providers,1050
providing,1051
provoking,1052
ps,1053
public,1054
publish,1055
purity,1056
purpose,1057
puzzle,1058
quality,1059
quantity,1060
que,1061
question,1062
quit,1063
quite,1064
race,1065
radio,1066
rahul,1067
raise,1068
rapid,1069
rapt,1070
rarely,1071
rate,1072
ravaged,1073
rdquo,1074
reach,1075
reached,1076
reactions,1077
read,1078
ready,1079
real,1080
realize,1081
really,1082
reap,1083
reasearch,1084
reason,1085
received,1086
recently,1087
recommendations,1088
recursos,1089
recycling,1090
reduction,1091
referring,1092
regain,1093
regards,1094
reign,1095
reject,1096
rejoined,1097
relative,1098
reliable,1099
reliance,1100
religion,1101
religions,1102
religious,1103
remember,1104
reminds,1105
reminiscence,1106
repetoire,1107
report,1108
reproducible,1109
requesting,1110
required,1111
requirements,1112
residents,1113
resilience,1114
resource,1115
resources,1116
responses,1117
responsibility,1118
rest,1119
restrictive,1120
resultados,1121
results,1122
return,1123
revealed,1124
revelation,1125
revenue,1126
revolution,1127
rich,1128
rifles,1129
right,1130
rigid,1131
rigorous,1132
ring,1133
risk,1134
rock,1135
role,1136
room,1137
root,1138
roots,1139
rosling,1140
routs,1141
rsquo,1142
ruling,1143
run,1144
running,1145
sacrifice,1146
sad,1147
sadam,1148
sadlyy,1149
said,1150
salary,1151
sale,1152
satelites,1153
saturday,1154
saw,1155
say,1156
saying,1157
scale,1158
scenarios,1159
schedule,1160
school,1161
science,1162
scientific,1163
scientist,1164
scientists,1165
screwed,1166
screwing,1167
sea,1168
search,1169
searches,1170
searching,1171
seasonal,1172
secret,1173
secrete,1174
security,1175
seee,1176
seemingly,1177
seen,1178
sees,1179
selection,1180
self,1181
selling,1182
sense,1183
senses,1184
sensing,1185
sentence,1186
seriously,1187
setting,1188
shamelessly,1189
shared,1190
shares,1191
sharing,1192
short,1193
shortened,1194
shown,1195
shows,1196
shrine,1197
shrouded,1198
sichuan,1199
sickened,1200
sicker,1201
siempre,1202
significance,1203
significant,1204
similar,1205
similares,1206
simples,1207
sin,1208
sing,1209
sit,1210
size,1211
sky,1212
slavery,1213
sleep,1214
sleepy,1215
small,1216
smart,1217
smiled,1218
smolin,1219
smug,1220
sniping,1221
snufed,1222
social,1223
societal,1224
society,1225
software,1226
solar,1227
sole,1228
soluciones,1229
solving,1230
son,1231
sorry,1232
sort,1233
soul,1234
sound,1235
sounded,1236
sounds,1237
source,1238
sowing,1239
spare,1240
speak,1241
speaker,1242
speaks,1243
specific,1244
specter,1245
speech,1246
spending,1247
spent,1248
spiderman,1249
spirituality,1250
sponsers,1251
spread,1252
springtime,1253
squeezing,1254
ss,1255
staffs,1256
stage,1257
stand,1258
standard,1259
start,1260
started,1261
starts,1262
state,1263
stated,1264
stations,1265
statistics,1266
status,1267
staying,1268
step,1269
stephen,1270
stereotype,1271
steroids,1272
stewart,1273
sticky,1274
stifling,1275
stimulus,1276
stop,1277
stopped,1278
stories,1279
stranger,1280
stream,1281
street,1282
stressing,1283
stringss,1284
struck,1285
structure,1286
structures,1287
student,1288
students,1289
study,1290
stuff,1291
stuffs,1292
stumble,1293
style,1294
subject,1295
substitutes,1296
success,1297
suck,1298
suffering,1299
suggests,1300
suicided,1301
support,1302
suppose,1303
sure,1304
surprising,1305
surprisingly,1306
surroundings,1307
susan,1308
suspect,1309
swept,1310
synthesizer,1311
tabarok,1312
taboo,1313
tack,1314
taking,1315
talented,1316
talk,1317
talking,1318
talks,1319
tampon,1320
tank,1321
teach,1322
teacher,1323
teaching,1324
tearing,1325
techniques,1326
technology,1327
ted,1328
telecom,1329
tell,1330
term,1331
tern,1332
terrorism,1333
test,1334
thailand,1335
thank,1336
thanks,1337
thats,1338
theories,1339
thing,1340
things,1341
think,1342
thinking,1343
thought,1344
thousands,1345
threads,1346
threatening,1347
threw,1348
thrive,1349
tiempo,1350
time,1351
timely,1352
times,1353
tj,1354
today,1355
toe,1356
told,1357
tonic,1358
tonight,1359
tools,1360
topic,1361
totally,1362
touch,1363
touched,1364
touches,1365
touching,1366
transcendence,1367
transcript,1368
transfer,1369
transformations,1370
transition,1371
translated,1372
trials,1373
triumph,1374
truce,1375
true,1376
truly,1377
truth,1378
try,1379
trying,1380
tube,1381
tunes,1382
turn,1383
tv,1384
type,1385
tyrannyy,1386
ultimate,1387
unable,1388
unbelivable,1389
understand,1390
understanding,1391
understatment,1392
undo,1393
undone,1394
unhappy,1395
unison,1396
universe,1397
unusual,1398
unveiled,1399
use,1400
used,1401
useful,1402
uses,1403
vagina,1404
valuable,1405
value,1406
various,1407
vast,1408
ve,1409
veces,1410
vehicles,1411
vemos,1412
ver,1413
version,1414
vibrations,1415
video,1416
viewed,1417
viewing,1418
viewpoint,1419
viewpoints,1420
violent,1421
virgin,1422
virtual,1423
virtualized,1424
vision,1425
visit,1426
vlc,1427
vocalist,1428
vocally,1429
voice,1430
vortex,1431
vulnerability,1432
wait,1433
walker,1434
walking,1435
walt,1436
wang,1437
wans,1438
want,1439
wanted,1440
wants,1441
war,1442
warming,1443
warped,1444
waste,1445
watch,1446
watched,1447
watching,1448
water,1449
waves,1450
way,1451
weakness,1452
weapons,1453
weekday,1454
wek,1455
wellington,1456
whatsoever,1457
whel,1458
wi,1459
wind,1460
wire,1461
wish,1462
women,1463
wonder,1464
wonderful,1465
woody,1466
word,1467
words,1468
work,1469
worked,1470
works,1471
world,1472
worldwide,1473
worth,1474
worthy,1475
wouldn,1476
wow,1477
write,1478
writers,1479
writing,1480
written,1481
wrong,1482
wrought,1483
xd,1484
year,1485
years,1486
young,1487
youngsters,1488
youtube,1489
ystating,1490
