__,0
____,1
aau,2
ab,3
ability,4
about,5
absolute,6
absolutely,7
abt,8
abusing,9
abyone,10
acceptable,11
acceptace,12
acceptance,13
account,14
achievement,15
achievements,16
act,17
acting,18
action,19
actors,20
acts,21
actually,22
addict,23
addicted,24
addidas,25
adding,26
adds,27
adele,28
adidas,29
admire,30
adore,31
ads,32
adult,33
adulthood,34
adventvega,35
advert,36
af,37
afk,38
after,39
afternoon,40
again,41
againagain,42
against,43
age,44
agent,45
ages,46
aggghhhhhhhhh,47
aggravated,48
ago,49
agree,50
agreed,51
ah,52
ahead,53
ahh,54
ahhhhh,55
ahhhhhhhhhhhhhhhhhhhhh,56
aid,57
ain,58
aint,59
air,60
airing,61
airmax,62
airport,63
aisha,64
al,65
alberta,66
album,67
albuquerque,68
alcohol,69
alexxx,70
alicia,71
all,72
allnighter,73
allowed,74
almost,75
almunia,76
alone,77
along,78
alpha,79
alrdy,80
already,81
alskdjalksdjaklsjdaklsjdlkasjdlkjasdlkasdjlkasjdalskdjlaskdj,82
always,83
alwayswinning,84
am,85
amaze,86
amazing,87
america,88
amigonnabeokay,89
amount,90
amp,91
an,92
anal,93
anatole,94
and,95
andrews,96
android,97
ankle,98
annette,99
anniv,100
announce,101
announcements,102
annoy,103
annoyed,104
annoying,105
another,106
anotherheadache,107
answers,108
anticpation,109
antm,110
antonio,111
any,112
anymore,113
anyone,114
anything,115
anythingg,116
anyways,117
anywayz,118
apa_style,119
aparsedonedigit,120
apllo,121
app,122
apparently,123
apple,124
application,125
appreciate,126
appreciated,127
approximately,128
appt,129
april,130
apt,131
aqua,132
aquarius,133
arcade,134
are,135
argh,136
arguing,137
armour,138
arms,139
around,140
arrested,141
arrivals,142
arrived,143
arriving,144
arroooo,145
arrrghhh,146
arsehole,147
arsenal,148
as,149
asap,150
asf,151
ashamed,152
ashby,153
ashishh,154
ashley,155
ashworth,156
ask,157
asked,158
asks,159
asleep,160
asparagus,161
ass,162
assist,163
asx,164
asz,165
at,166
ate,167
athlete,168
athletes,169
atlantic,170
atm,171
atpesummit,172
attached,173
attempting,174
attended,175
attitude,176
attraction,177
attractive,178
aubin,179
auction,180
audi,181
august,182
aunt,183
auntee,184
austin,185
australia,186
av,187
awake,188
award,189
awards,190
away,191
awesome,192
awesomeness,193
awesomest,194
awful,195
awkward,196
awsome,197
aww,198
awww,199
axed,200
ayy,201
az,202
azn,203
azure,204
babe,205
babies,206
baby,207
back,208
backs,209
bad,210
bag,211
bags,212
baha,213
bahama,214
baked,215
bakersfield,216
bakery,217
ball,218
ballet,219
baltimore,220
bananas,221
band,222
bands,223
bangs,224
bankers,225
bar,226
barbie,227
barcelona,228
bare,229
barley,230
barn,231
barry,232
bars,233
barton,234
baseball,235
based,236
basic,237
bass,238
bastards,239
bathed,240
batteries,241
battery,242
battle,243
baylidonaldson,244
bbms,245
bbq,246
bday,247
be,248
beach,249
beardie,250
beat,251
beats,252
beautiful,253
bebeee,254
because,255
become,256
becoming,257
bed,258
bedd,259
been,260
beer,261
before,262
beg,263
begin,264
behind,265
bein,266
being,267
beinsinglesucks,268
bel,269
belieber,270
beliefs,271
believe,272
bell,273
bella,274
belt,275
benchmark,276
benoit,277
bernandez,278
best,279
bestfriend,280
bestfriends,281
bet,282
betchesluvthis,283
betta,284
better,285
between,286
beyonce,287
beyoncé,288
beyond,289
bf,290
bff,291
bid,292
bieber,293
big,294
bigbooty,295
biggest,296
bigggg,297
bigmove,298
bike,299
bikinis,300
bing,301
bint,302
birds,303
birthday,304
bish,305
bit,306
bitch,307
bitches,308
bitchtryagain,309
bites,310
bizspark,311
black,312
blackberries,313
blame,314
blatant,315
bless,316
blessed,317
blessen,318
blessing,319
blew,320
bliev,321
blinkers,322
bliss,323
block,324
blocked,325
blocks,326
bloody,327
blown,328
blue,329
bluesfest,330
blurghhhhh,331
bmg,332
bogart,333
bohemian,334
boise,335
bonus,336
boo,337
book,338
booked,339
bookswithalettermissing,340
boomer,341
boost,342
boot,343
booty,344
bored,345
boredwholedaynow,346
boring,347
borrow,348
bosses,349
both,350
bother,351
bothered,352
bottle,353
bottles,354
bought,355
bourbon,356
bout,357
bowl,358
bowling,359
bowral,360
box,361
boxing,362
boy,363
boys,364
brace,365
brag,366
braided,367
braincells,368
brainstorm,369
bran,370
brand,371
brandon,372
brandy,373
brave,374
bravia,375
break,376
breakfast,377
breaking,378
breath,379
bree,380
breeze,381
breezy,382
brekkie,383
brekky,384
bricks,385
bride,386
bridge,387
bright,388
brighter,389
brighton,390
brilliance,391
brilliant,392
bring,393
bringing,394
britney,395
bro,396
broke,397
broken,398
bronx,399
broo,400
brother,401
brought,402
brown,403
brownies,404
bruce,405
brush,406
brussels,407
bs,408
bsnl,409
bt,410
bucks,411
budget,412
building,413
bullock,414
bullshit,415
bump,416
bumsuck,417
bun,418
bunch,419
burn,420
burr,421
bus,422
business,423
busted,424
busy,425
but,426
butimgettingthemanywaysfuckit,427
butt,428
butts,429
buy,430
buyibg,431
buying,432
buys,433
buzz,434
by,435
bye,436
byebyesummer,437
bytch,438
cab,439
cadburys,440
caddykim,441
cake,442
calculates,443
calendars,444
call,445
calling,446
calls,447
came,448
cameo,449
camera,450
cameraoxford,451
camp,452
campaign,453
campus,454
can,455
canada,456
canadafail,457
candy,458
cannes,459
cannot,460
cant,461
cape,462
car,463
carbon,464
card,465
cardigan,466
cardio,467
care,468
cares,469
carolyn,470
carry,471
carter,472
carver,473
case,474
cash,475
cashback,476
casj,477
casper,478
cast,479
castle,480
cat,481
catch,482
catching,483
cats,484
catwomanbytchz,485
caught,486
cause,487
cbeebies,488
cd,489
cdnjoke,490
celebrate,491
celebrity,492
celebs,493
centennial,494
center,495
centre,496
cents,497
century,498
cereal,499
certificate,500
chains,501
challenge,502
chance,503
chanel,504
change,505
changer,506
chapters,507
character,508
charge,509
charity,510
chart,511
cheapo,512
check,513
checked,514
checking,515
cheese,516
cheryl,517
chesterunisummerball,518
chevy,519
chic,520
chicago,521
chicagomanual,522
chick,523
chicken,524
children,525
chill,526
chillin,527
chips,528
chocolate,529
chocolatecravingfail,530
choice,531
chokes,532
chose,533
chosen,534
chris,535
christ,536
christmas,537
chromeo,538
church,539
cilla,540
circumstances,541
cisco,542
citation,543
cities,544
city,545
civilization,546
cking,547
clashes,548
class,549
classes,550
classic,551
classy,552
cle,553
clef,554
client,555
close,556
closer,557
clothes,558
cloud,559
clouds,560
club,561
coach,562
coast,563
coco,564
code,565
coding,566
cody,567
cold,568
cole,569
colinratushniak,570
collaboration,571
collar,572
collect,573
collection,574
college,575
cologne,576
color,577
colorado,578
colors,579
com,580
comb,581
combat,582
combo,583
come,584
comedy,585
comes,586
comfy,587
comin,588
coming,589
commentator,590
commercial,591
comming,592
commit,593
communicate,594
community,595
comp,596
company,597
compare,598
compared,599
compete,600
competition,601
competitors,602
complaining,603
complete,604
completely,605
complex,606
compliments,607
comprehensive,608
computer,609
computing,610
conclusion,611
conditions,612
conference,613
confidence,614
confused,615
congrats,616
congratulates,617
congratulations,618
congress,619
connect,620
connection,621
connell,622
consideration,623
cont,624
contains,625
content,626
continues,627
contour,628
contract,629
contracted,630
control,631
controller,632
convenient,633
convertible,634
convey,635
convo,636
cool,637
cooler,638
cooling,639
coooool,640
cop,641
copy,642
copyright,643
corgi,644
corgis,645
corner,646
corolla,647
corporations,648
corvette,649
cos,650
costs,651
cotton,652
could,653
couldn,654
couldnt,655
count,656
counterfeit,657
counting,658
country,659
couple,660
course,661
courted,662
cousin,663
covecrest,664
covered,665
coverseyes,666
cowell,667
coworker,668
coz,669
crackers,670
cramps,671
crap,672
crappy,673
crashed,674
crazy,675
crazyasshit,676
cream,677
creamy,678
created,679
creating,680
creative,681
credit,682
creep,683
creeped,684
creeps,685
crew,686
crewneck,687
cried,688
criminal,689
cringe,690
crosby,691
cross,692
crossing,693
cru,694
crunchy,695
crush,696
cry,697
ctfxc,698
cultural,699
cunt,700
cup,701
cups,702
current,703
currys,704
cus,705
customer,706
customers,707
cute,708
cutest,709
cutie,710
cuz,711
cycling,712
dachstar,713
dad,714
daddies,715
daddy,716
dads,717
dallas,718
dam,719
damage,720
damien,721
dammit,722
damn,723
damnit,724
damnn,725
damnnnn,726
danced,727
dancemoms,728
dances,729
dancing,730
dang,731
danger,732
daniel,733
dare,734
dark,735
darling,736
dat,737
date,738
daughter,739
dave,740
david,741
davis,742
dawgs,743
dawn,744
day,745
days,746
dayz,747
db,748
dc,749
dcfabb,750
dd,751
ddddd,752
de,753
dead,754
dear,755
dearfuturehusband,756
death,757
decade,758
decades,759
decided,760
decides,761
decisions,762
deck,763
dedicate,764
deep,765
def,766
definately,767
definite,768
definitely,769
deizydoesit,770
delete,771
deleting,772
delighted,773
delivered,774
delivering,775
dell,776
dellstreak,777
demon,778
dentist,779
deny,780
deposition,781
depressed,782
depression,783
deserved,784
design,785
desktop,786
despise,787
dessert,788
destiny,789
destruction,790
desvers,791
details,792
detective,793
determined,794
detroit,795
devastated,796
developing,797
devices,798
dictionary,799
did,800
didn,801
didnt,802
die,803
died,804
difference,805
difficult,806
dig,807
diners,808
ding,809
dinner,810
dinosaurs,811
direction,812
directly,813
dirt,814
dirty,815
dirtybitch,816
dis,817
disappointed,818
disconnected,819
discontinued,820
diseaz,821
disgusted,822
disgusting,823
disgustingg,824
dislike,825
disliking,826
dissapointed,827
disturbed,828
dive,829
divine,830
diz,831
dj,832
dk,833
dkny,834
dm,835
dmb,836
dmca,837
dnt,838
do,839
doctors,840
does,841
doesn,842
doesnt,843
dog,844
dogs,845
doing,846
dollar,847
dollars,848
don,849
done,850
dont,851
dontknowhowilivedwithoutit,852
donuts,853
doo,854
doodlejump,855
door,856
dope,857
dora,858
dots,859
double,860
doubletree,861
douche,862
doula,863
down,864
downloadin,865
downtown,866
draft,867
drag,868
drake,869
drama,870
drawing,871
dream,872
dreamcar,873
dreamed,874
dreams,875
dress,876
drew,877
drink,878
drinks,879
drive,880
driving,881
droid,882
drop,883
dropped,884
drove,885
drs,886
drunk,887
drunken,888
ds,889
dublin,890
ducks,891
dude,892
due,893
dull,894
dum,895
dumb,896
dump,897
dun,898
dunks,899
during,900
dusted,901
duty,902
dwts,903
dying,904
each,905
eachother,906
eagles,907
ear,908
earbuds,909
early,910
earned,911
earth,912
easier,913
easilyentertained,914
easter,915
eat,916
eaten,917
eatin,918
eating,919
ebay,920
eclipse,921
economical,922
ed,923
edward,924
effective,925
effectively,926
efficient,927
effort,928
ego,929
either,930
el,931
eleavator,932
elected,933
elegant,934
else,935
em,936
email,937
embarrassed,938
embarrassing,939
emerged,940
emi,941
emotionally,942
employed,943
employee,944
end,945
ended,946
engine,947
english,948
engrish,949
enjoyed,950
enjoyin,951
enjoying,952
enormous,953
enough,954
enter,955
entered,956
entertaining,957
entertainment,958
entire,959
enuff,960
eparsedonedigit,961
eparsedonedigitongparsedonedigit,962
epic,963
episode,964
eric,965
ericson,966
ericsson,967
eshop,968
especially,969
essay,970
estate,971
etsy,972
etsykids,973
eve,974
even,975
evening,976
evenings,977
event,978
eventful,979
events,980
ever,981
everrr,982
every,983
everybody,984
everyday,985
everygirl,986
everyone,987
everyparsedonedigit,988
everythiiiing,989
everything,990
everytime,991
evil,992
evileye,993
ex,994
exactly,995
exam,996
excellent,997
except,998
excited,999
exciting,1000
exclusive,1001
executive,1002
exhausted,1003
exhausting,1004
exhibit,1005
exicited,1006
exist,1007
exparsedthreedigitsslb,1008
expect,1009
expected,1010
expensive,1011
expertise,1012
experts,1013
explorer,1014
explorers,1015
express,1016
extremely,1017
eye,1018
eyes,1019
ezurbanvibe,1020
fa,1021
fab,1022
fabb,1023
fabulous,1024
face,1025
facebook,1026
faces,1027
fack,1028
factor,1029
fading,1030
fagbag,1031
fage,1032
fail,1033
fair,1034
fairly,1035
fake,1036
fall,1037
fallen,1038
falling,1039
fam,1040
family,1041
famous,1042
fan,1043
fans,1044
fantastic,1045
fantasticfest,1046
far,1047
fares,1048
farty,1049
fashion,1050
fast,1051
fastandfurious,1052
fastest,1053
fat,1054
fatale,1055
father,1056
fault,1057
fav,1058
fave,1059
favorite,1060
fb,1061
feather,1062
featured,1063
fed,1064
federal,1065
fedex,1066
feel,1067
feeling,1068
feels,1069
feet,1070
fell,1071
felt,1072
femme,1073
fendi,1074
festival,1075
fever,1076
few,1077
ff,1078
ffc,1079
ffffff,1080
fi,1081
fiat,1082
fiber,1083
fieldtrip,1084
fight,1085
figure,1086
figured,1087
film,1088
filming,1089
fin,1090
final,1091
finale,1092
finally,1093
finals,1094
finances,1095
find,1096
finding,1097
fine,1098
finish,1099
finished,1100
finna,1101
fire,1102
first,1103
fish,1104
fishin,1105
fishing,1106
fist,1107
fit,1108
fitness,1109
flash,1110
flauge,1111
flava,1112
flex,1113
flick,1114
flies,1115
flight,1116
flip,1117
flipping,1118
flocka,1119
floor,1120
flop,1121
flops,1122
florida,1123
flow,1124
flu,1125
fml,1126
foams,1127
focal,1128
focus,1129
folks,1130
follow,1131
followback,1132
followfriday,1133
following,1134
fone,1135
food,1136
foodstamps,1137
fools,1138
foosball,1139
foot,1140
football,1141
footlocker,1142
for,1143
ford,1144
foreigners,1145
forget,1146
forgiven,1147
forgot,1148
forgotten,1149
forward,1150
foul,1151
found,1152
founding,1153
franco,1154
frands,1155
frateran,1156
freaken,1157
freaking,1158
free,1159
freestyle,1160
french,1161
fresh,1162
fresher,1163
friday,1164
frie,1165
fried,1166
friend,1167
friendly,1168
friends,1169
friggin,1170
frigid,1171
frm,1172
from,1173
frowns,1174
froyo,1175
froze,1176
frustration,1177
fry,1178
ft,1179
fu,1180
fuck,1181
fuckbing,1182
fucked,1183
fucken,1184
fuckin,1185
fucking,1186
fuckoff,1187
fuckthem,1188
fuckyousummit,1189
fuk,1190
full,1191
fully,1192
fun,1193
funding,1194
fundraising,1195
funeral,1196
funn,1197
funnelicious,1198
funny,1199
funparsedthreedigits,1200
further,1201
future,1202
fxcking,1203
gala,1204
galaxy,1205
galileo,1206
game,1207
gameon,1208
gamerface,1209
games,1210
gamestop,1211
gangsta,1212
garage,1213
gators,1214
gave,1215
gaveuponhim,1216
gay,1217
gayyyyy,1218
gbc,1219
gd,1220
geared,1221
gelato,1222
general,1223
genius,1224
gentleman,1225
genuine,1226
georgia,1227
get,1228
getalife,1229
gets,1230
getting,1231
gettn,1232
ghetto,1233
gift,1234
giggle,1235
giraffe,1236
girl,1237
girlfriend,1238
girlies,1239
girls,1240
give,1241
gives,1242
giving,1243
glad,1244
glasses,1245
glee,1246
glen,1247
gloves,1248
go,1249
goa,1250
goal,1251
goals,1252
goblue,1253
god,1254
godblessbullies,1255
goddamn,1256
goes,1257
goin,1258
going,1259
gojackets,1260
gojesus,1261
gold,1262
gon,1263
gonb,1264
gone,1265
gonna,1266
goo,1267
good,1268
goodbyes,1269
goodgame,1270
goodnight,1271
goofd,1272
google,1273
gorgeous,1274
got,1275
gotta,1276
gotti,1277
gourmet,1278
gps,1279
grab,1280
gracieglam,1281
graduated,1282
grafiks,1283
graph,1284
grateful,1285
gravity,1286
gray,1287
grease,1288
great,1289
greatday,1290
greater,1291
greatest,1292
greatestgadgets,1293
greatfull,1294
greek,1295
green,1296
gritting,1297
grounds,1298
grown,1299
grparsedonedigit,1300
grrr,1301
grrrrrrrrrrrr,1302
gt,1303
gteparsedonedigit,1304
guaranteed,1305
guards,1306
gucci,1307
gud,1308
guess,1309
guessing,1310
guests,1311
guilty,1312
gum,1313
gunna,1314
gunners,1315
gutted,1316
guy,1317
guys,1318
gym,1319
ha,1320
haaay,1321
hack,1322
hacks,1323
had,1324
haha,1325
hair,1326
half,1327
halfrim,1328
halfway,1329
hall,1330
hamilton,1331
hancock,1332
hand,1333
handle,1334
hands,1335
handycam,1336
hang,1337
hanging,1338
hankito,1339
happen,1340
happened,1341
happening,1342
happens,1343
happier,1344
happiest,1345
happy,1346
happytweet,1347
harary,1348
hard,1349
hardest,1350
hardtime,1351
harry,1352
hart,1353
harvey,1354
has,1355
hasn,1356
hate,1357
have,1358
haven,1359
havent,1360
having,1361
hawk,1362
hcr,1363
hd,1364
he,1365
head,1366
headache,1367
headlamp,1368
headphones,1369
healthy,1370
hear,1371
heard,1372
hearing,1373
heart,1374
heartfelt,1375
heat,1376
heated,1377
heater,1378
heathrowe,1379
heaven,1380
heavily,1381
heels,1382
hees,1383
helicopter,1384
hell,1385
hella,1386
hellaclean,1387
helllooooooo,1388
hello,1389
help,1390
her,1391
here,1392
heritage,1393
heroine,1394
herself,1395
hey,1396
hi,1397
hiding,1398
high,1399
highlanders,1400
hilarious,1401
hill,1402
hilton,1403
him,1404
himself,1405
hint,1406
hipstamatic,1407
his,1408
history,1409
hit,1410
hitting,1411
hmmm,1412
hobby,1413
hockey,1414
hoe,1415
hoff,1416
hold,1417
hollywood,1418
holy,1419
home,1420
homework,1421
homie,1422
honestly,1423
honey,1424
hoodnight,1425
hookah,1426
hoop,1427
hooray,1428
hoosier,1429
hope,1430
hopefully,1431
hopes,1432
hoping,1433
horny,1434
horrible,1435
horrid,1436
hospital,1437
host,1438
hostel,1439
hot,1440
hotel,1441
hotels,1442
hott,1443
hour,1444
hours,1445
house,1446
how,1447
howard,1448
hse,1449
htc,1450
http,1451
huge,1452
hugo,1453
huh,1454
hump,1455
humphrey,1456
hungry,1457
hunting,1458
huntsville,1459
hurricane,1460
hurrryyy,1461
hurry,1462
hurt,1463
hurts,1464
husband,1465
hut,1466
hutch,1467
hype,1468
hypocrite,1469
icanhonestlysay,1470
ice,1471
id,1472
idc,1473
idea,1474
ideas,1475
identity,1476
idiot,1477
idk,1478
idmas,1479
ieparsedonedigit,1480
if,1481
ife,1482
ihatenewtwitter,1483
ii,1484
iits,1485
ikea,1486
ikr,1487
ilove,1488
im,1489
ima,1490
imac,1491
imitation,1492
imma,1493
immense,1494
impressed,1495
impression,1496
in,1497
inappropriatefuneralsongs,1498
inc,1499
incarnation,1500
incompetent,1501
inconsiderate,1502
inconvenient,1503
industry,1504
infected,1505
infection,1506
inferior,1507
info,1508
infuse,1509
injections,1510
injunction,1511
inkredible_k_,1512
inlove,1513
inn,1514
innovation,1515
insane,1516
inside,1517
insightful,1518
insoles,1519
inspiring,1520
instead,1521
instinct,1522
instructions,1523
intense,1524
interesting,1525
intern,1526
internap,1527
internet,1528
internets,1529
into,1530
invitation,1531
invite,1532
invited,1533
involved,1534
ipad,1535
iphone,1536
ipod,1537
iregret,1538
irritated,1539
is,1540
island,1541
isn,1542
isnt,1543
isolation,1544
issue,1545
issues,1546
it,1547
itage,1548
ithinkweredonehere,1549
its,1550
itunes,1551
iwannago,1552
iwannagodney,1553
iwantmybed,1554
iwin,1555
iwontgrowup,1556
iyiyi,1557
jabs,1558
jack,1559
jacket,1560
jah,1561
jail,1562
james,1563
jamin,1564
janet,1565
jazz,1566
jazziisstilldumb,1567
jeans,1568
jeggings,1569
jennette,1570
jerseys,1571
jesus,1572
jetsuite,1573
jhb,1574
jingle,1575
jit,1576
joan,1577
job,1578
joey,1579
johnny,1580
joke,1581
jokes,1582
jordan,1583
jr,1584
july,1585
jump,1586
jus,1587
juss,1588
just,1589
justify,1590
justin,1591
justsaying,1592
kalli,1593
kanye,1594
kardashian,1595
kardashians,1596
karmasabitch,1597
kate,1598
kathy,1599
kbshow,1600
keep,1601
keeping,1602
kelly,1603
ken,1604
kentucky,1605
kevin,1606
key,1607
keyboard,1608
keys,1609
kfc,1610
khadse,1611
khaki,1612
kia,1613
kicc,1614
kick,1615
kicked,1616
kicking,1617
kicks,1618
kid,1619
kids,1620
kies,1621
kill,1622
killah,1623
killed,1624
killer,1625
killian,1626
killing,1627
kim,1628
kind,1629
kinda,1630
kinderbueno,1631
kinect,1632
king,1633
kingsley,1634
kink,1635
kits,1636
kjeanbyrne,1637
knew,1638
know,1639
knows,1640
knw,1641
kreayshawn,1642
kris,1643
kristen,1644
kudostoyou,1645
kumaran,1646
kute,1647
kwai,1648
kyiv,1649
la,1650
lab,1651
labor,1652
labs,1653
labtops,1654
ladies,1655
lady,1656
ladycisca,1657
lakers,1658
lame,1659
landlord,1660
landlordhell,1661
langports,1662
laoada,1663
laptop,1664
laptops,1665
large,1666
larry,1667
las,1668
lashes,1669
lasr,1670
last,1671
lasted,1672
later,1673
latin,1674
latonya,1675
laugh,1676
laughed,1677
launch,1678
launched,1679
laundry,1680
laura,1681
laurgro,1682
lauristons,1683
law,1684
lawrence,1685
lay,1686
laying,1687
layla,1688
lazier,1689
lazy,1690
leaders,1691
leadershipsafariparsedonedigitkparsedtwodigits,1692
leak,1693
leaks,1694
learn,1695
learnt,1696
least,1697
leave,1698
leaving,1699
lebron,1700
lecture,1701
left,1702
legend,1703
legit,1704
leisure,1705
lemans,1706
lemars,1707
less,1708
let,1709
lets,1710
letter,1711
letting,1712
lewis,1713
lex,1714
libra,1715
library,1716
libs,1717
lie,1718
liee,1719
life,1720
lifecomesatyoufast,1721
lifesaver,1722
lift,1723
light,1724
lightyears,1725
like,1726
liked,1727
likeeee,1728
likes,1729
lil,1730
line,1731
lines,1732
ling,1733
liquor,1734
lismore,1735
listen,1736
listened,1737
listeners,1738
listening,1739
listings,1740
literally,1741
little,1742
live,1743
liverpool,1744
ll,1745
lloyd,1746
lmao,1747
lmfao,1748
lmfaoo,1749
lmfaooo,1750
loafers,1751
local,1752
locked,1753
lofty,1754
logic,1755
lol,1756
lolz,1757
london,1758
londonriots,1759
lonely,1760
long,1761
longdayahead,1762
longer,1763
look,1764
lookin,1765
looking,1766
looks,1767
loooool,1768
lose,1769
losin,1770
lost,1771
lot,1772
lots,1773
loui,1774
louie,1775
louis,1776
lounge,1777
love,1778
lovechicago,1779
loved,1780
lovee,1781
lovely,1782
lovemyjob,1783
loveoutletmalls,1784
lover,1785
loves,1786
lovethem,1787
lovin,1788
loving,1789
low,1790
lowepro,1791
lower,1792
loyal,1793
lp,1794
lt,1795
ltd,1796
luca,1797
lucas,1798
luck,1799
lucky,1800
luger,1801
lunch,1802
lunchtime,1803
lungs,1804
luv,1805
luvs,1806
lyin,1807
ma,1808
mac,1809
machine,1810
macklemore,1811
mad,1812
maddens,1813
made,1814
madmatts,1815
maestro,1816
mag,1817
magic,1818
mags,1819
mah,1820
mail,1821
main,1822
maintain,1823
make,1824
makes,1825
makeup,1826
makeupbymario,1827
makeyourself,1828
makin,1829
making,1830
mall,1831
mama,1832
man,1833
manage,1834
mane,1835
manga,1836
manhattan,1837
mansion,1838
manuel,1839
many,1840
maps,1841
marathon,1842
marathong,1843
marching,1844
marietta,1845
marilyn,1846
mario,1847
mark,1848
marketing,1849
marketingacademy,1850
marks,1851
maro,1852
martin,1853
martini,1854
marty,1855
maryland,1856
masgana,1857
mason,1858
mass,1859
massage,1860
match,1861
material,1862
materializes,1863
mates,1864
math,1865
matter,1866
max,1867
maxes,1868
maxin,1869
may,1870
maybe,1871
mayhem,1872
maynor,1873
mayor,1874
mazing,1875
mbfw,1876
mcdonalds,1877
mcfly,1878
mdr,1879
me,1880
meadows,1881
mean,1882
meaning,1883
means,1884
mechanical,1885
media,1886
mediocrity,1887
meebo,1888
meet,1889
meeting,1890
meetings,1891
melody,1892
melted,1893
member,1894
members,1895
memorable,1896
memory,1897
memphisfact,1898
men,1899
menchies,1900
mental,1901
mentor,1902
mentoring,1903
merchandising,1904
merry,1905
messages,1906
messed,1907
messenger,1908
met,1909
metroid,1910
mgmt,1911
miami,1912
michael,1913
michaelmyersatd,1914
michellebachmann,1915
microsoft,1916
microwave,1917
middle,1918
middlefingerseverywhere,1919
midget,1920
midnight,1921
midwest,1922
might,1923
migraines,1924
migrainessuck,1925
mii,1926
mike,1927
mile,1928
miles,1929
milk,1930
milky,1931
million,1932
min,1933
mind,1934
mine,1935
miner,1936
mini,1937
mins,1938
minute,1939
minutes,1940
mis,1941
miss,1942
missed,1943
missin,1944
missing,1945
mistake,1946
mistakes,1947
mmm,1948
mmmmm,1949
mobile,1950
mobileme,1951
model,1952
moderate,1953
mom,1954
moment,1955
momma,1956
mommasboy,1957
moms,1958
monday,1959
mondays,1960
money,1961
monin,1962
monster,1963
montage,1964
month,1965
months,1966
mood,1967
moods,1968
more,1969
morethanwordart,1970
moretweetsaboutfood,1971
morgan,1972
morgannnnnnnnn,1973
morning,1974
mornings,1975
morons,1976
most,1977
mostly,1978
mother,1979
mothers,1980
moths,1981
motivation,1982
mountain,1983
move,1984
moved,1985
movie,1986
moving,1987
mr,1988
mrmeatnuggets,1989
ms,1990
msc,1991
msp,1992
msuic,1993
mtl,1994
mtv,1995
much,1996
mucho,1997
mucus,1998
multi,1999
muppets,2000
murderdrome,2001
murray,2002
museo,2003
music,2004
must,2005
mustache,2006
mustaches,2007
mutt,2008
mvp,2009
my,2010
mylilkitchenlab,2011
mynichols,2012
myself,2013
nails,2014
name,2015
named,2016
nancy,2017
nando,2018
nap,2019
nasally,2020
nashville,2021
nasty,2022
natalie,2023
nation,2024
nations,2025
nauseous,2026
navi,2027
nawl,2028
ncaasoftball,2029
nd,2030
neat,2031
necklace,2032
need,2033
needed,2034
needs,2035
neighbor,2036
neighborhood,2037
neighbors,2038
nerve,2039
nes,2040
netbook,2041
networks,2042
neva,2043
nevea,2044
never,2045
neverfails,2046
nevertrust,2047
new,2048
newalltimelow,2049
news,2050
next,2051
nexuss,2052
ngp,2053
nice,2054
nicer,2055
niche,2056
nick,2057
nickelodeon,2058
nicki,2059
nicks,2060
nicky,2061
nickyruddparsedtwodigits,2062
nigga,2063
niggas,2064
niggaz,2065
night,2066
nightmares,2067
nights,2068
nightttttt,2069
nike,2070
nikita,2071
ninja,2072
nintendo,2073
niqqas,2074
nite,2075
njoy,2076
no,2077
nobody,2078
nofatgirls,2079
noir,2080
nola,2081
nominate,2082
nomination,2083
noooooo,2084
normal,2085
nose,2086
not,2087
notgraceful,2088
nothin,2089
nothing,2090
notice,2091
noticing,2092
notify,2093
nova,2094
novels,2095
now,2096
np,2097
nparsedthreedigits,2098
nuff,2099
number,2100
nvidia,2101
ny,2102
nyan,2103
nyc,2104
nycearthquakeparsedfourdigits,2105
nz,2106
o_o,2107
o_parsedonedigit,2108
obama,2109
obsessed,2110
oct,2111
oddparents,2112
odvy,2113
of,2114
off,2115
offering,2116
offers,2117
office,2118
official,2119
officially,2120
oft,2121
often,2122
oh,2123
ohcarolina,2124
ohh,2125
ohjoy,2126
ok,2127
okay,2128
okayy,2129
ol,2130
old,2131
oldbridge,2132
older,2133
olot,2134
olympian,2135
omg,2136
omgyouteen,2137
omnia,2138
on,2139
onam,2140
once,2141
one,2142
oneofthealltimegreats,2143
ones,2144
only,2145
onsomniactic,2146
ooo,2147
ooooooo,2148
open,2149
opera,2150
opinions,2151
optiek,2152
optimism,2153
or,2154
order,2155
ordered,2156
ordinace,2157
oregon,2158
oreo,2159
oreos,2160
original,2161
orland,2162
os,2163
oth,2164
other,2165
others,2166
ouo,2167
our,2168
out,2169
outdoors,2170
outfit,2171
outlet,2172
outrage,2173
outside,2174
outstretched,2175
outta,2176
oval,2177
over,2178
overall,2179
overc,2180
overcomers,2181
overdosed,2182
overflows,2183
own,2184
owner,2185
oy,2186
packed,2187
packing,2188
pad,2189
page,2190
paid,2191
pain,2192
paint,2193
pair,2194
palm,2195
palmer,2196
pants,2197
pantssss,2198
pao,2199
papa,2200
paparazzie,2201
paper,2202
papers,2203
parenthood,2204
parents,2205
paris,2206
park,2207
parking,2208
parseddigits,2209
parseddigitshrs,2210
parseddigitss,2211
parseddigitsth,2212
parsedfivedigits,2213
parsedfivedigitsth,2214
parsedfourdigits,2215
parsedonedigit,2216
parsedonedigitam,2217
parsedonedigitday,2218
parsedonedigitds,2219
parsedonedigiter,2220
parsedonedigitg,2221
parsedonedigitgs,2222
parsedonedigitmp,2223
parsedonedigitnd,2224
parsedonedigitpay,2225
parsedonedigitrd,2226
parsedonedigitst,2227
parsedonedigitth,2228
parsedonedigittoparsedtwodigits,2229
parsedonedigitx,2230
parsedsixdigits,2231
parsedthreedigits,2232
parsedtime,2233
parsedtwodigits,2234
parsedtwodigitsk,2235
parsedtwodigitsmphunder,2236
parsedtwodigitspeopleidmarry,2237
parsedtwodigitsth,2238
parsedtwodigitsthjinnieday,2239
parsedtwodigitsyr,2240
part,2241
participants,2242
partner,2243
partners,2244
parts,2245
party,2246
passed,2247
passes,2248
passing,2249
past,2250
pasta,2251
paste,2252
patent,2253
pattom,2254
pauly,2255
pay,2256
pc,2257
pda,2258
pee,2259
pencils,2260
penn,2261
people,2262
perez,2263
perfect,2264
perform,2265
performing,2266
person,2267
personable,2268
personal,2269
personality,2270
persuing,2271
pfffft,2272
phase,2273
phat,2274
phd,2275
phew,2276
phone,2277
photo,2278
photographing,2279
physically,2280
pic,2281
picasso,2282
pick,2283
pics,2284
picture,2285
pictures,2286
pie,2287
piece,2288
pieces,2289
pierreopperman,2290
piers,2291
pifco,2292
pig,2293
pike,2294
pipeline,2295
piss,2296
pissed,2297
pisses,2298
pizza,2299
place,2300
plan,2301
planned,2302
planning,2303
plans,2304
platform,2305
play,2306
played,2307
player,2308
playing,2309
plays,2310
please,2311
pleased,2312
pledge,2313
plzzzzz,2314
pmcq,2315
pnc,2316
point,2317
political,2318
polka,2319
pool,2320
pooped,2321
poor,2322
portal,2323
ported,2324
positive,2325
possession,2326
possible,2327
possibly,2328
post,2329
posted,2330
posters,2331
potatoes,2332
potential,2333
potter,2334
pouch,2335
pow,2336
power,2337
ppcclassroom,2338
ppl,2339
ppls,2340
practice,2341
prada,2342
pradaa,2343
pradas,2344
pray,2345
prayer,2346
praying,2347
pre,2348
pregnant,2349
pres,2350
presented,2351
president,2352
press,2353
pressure,2354
pretty,2355
preview,2356
previous,2357
price,2358
priceless,2359
prices,2360
primark,2361
princess,2362
principles,2363
print,2364
printer,2365
pro,2366
prob,2367
probably,2368
problem,2369
problems,2370
proceeds,2371
process,2372
prod,2373
product,2374
products,2375
professional,2376
profile,2377
program,2378
programs,2379
progressive,2380
project,2381
promise,2382
promotions,2383
properly,2384
properties,2385
protection,2386
proud,2387
proudly,2388
provided,2389
prudence,2390
psn,2391
psparsedonedigit,2392
psvita,2393
psyched,2394
ptparsedonedigit,2395
pts,2396
pudding,2397
pull,2398
puma,2399
pumped,2400
punch,2401
punk,2402
purchase,2403
purchases,2404
purdue,2405
pure,2406
purple,2407
purse,2408
push,2409
put,2410
putting,2411
puzzle,2412
qanda,2413
qpr,2414
qualified,2415
quality,2416
quarantine,2417
queen,2418
queenslanders,2419
quickly,2420
quinn,2421
quite,2422
quiz,2423
race,2424
racers,2425
rachel,2426
radio,2427
radioooooooo,2428
rain,2429
raindeers,2430
rainy,2431
ran,2432
rank,2433
ranked,2434
rap,2435
rapper,2436
rapter,2437
rather,2438
raul,2439
rbc,2440
re,2441
read,2442
reader,2443
reading,2444
ready,2445
real,2446
realize,2447
realized,2448
really,2449
realy,2450
reason,2451
reasons,2452
received,2453
receiving,2454
receptionist,2455
reciprocate,2456
recommend,2457
recommendation,2458
recommending,2459
red,2460
redvelvet,2461
reformatted,2462
refused,2463
regrets,2464
rehearsallyfe,2465
reinlove,2466
relationship,2467
relax,2468
relaxin,2469
release,2470
released,2471
releasing,2472
reliable,2473
religious,2474
relying,2475
remains,2476
remember,2477
remembering,2478
remix,2479
remote,2480
removed,2481
remy,2482
renewal,2483
renewed,2484
renewing,2485
replica,2486
reply,2487
report,2488
reported,2489
reportedly,2490
repulsive,2491
rescheduled,2492
researching,2493
respect,2494
respond,2495
response,2496
rest,2497
restoration,2498
return,2499
retweet,2500
reversible,2501
revolves,2502
rhapsody,2503
rich,2504
richard,2505
rick,2506
rid,2507
ride,2508
right,2509
rights,2510
ring,2511
riots,2512
ripped,2513
ritz,2514
river,2515
road,2516
rock,2517
rockband,2518
rocked,2519
rockem,2520
rockin,2521
rocko,2522
rocks,2523
rod,2524
rode,2525
role,2526
rolex,2527
roll,2528
rollin,2529
romance,2530
rome,2531
roof,2532
rookie,2533
room,2534
roomie,2535
roommate,2536
rooms,2537
root,2538
rope,2539
ross,2540
routine,2541
row,2542
rparsedonedigit,2543
rt,2544
rub,2545
rubbn,2546
rude,2547
ruin,2548
ruining,2549
rule,2550
rules,2551
run,2552
running,2553
ryach,2554
sac,2555
sad,2556
saddens,2557
safe,2558
safely,2559
said,2560
saints,2561
salad,2562
sale,2563
sales,2564
salif,2565
salle,2566
saltwater,2567
samantha,2568
same,2569
samelson,2570
samsung,2571
samsungsmarttv,2572
samuel,2573
sandals,2574
sandra,2575
santa,2576
satisfying,2577
saturday,2578
sauder,2579
save,2580
saved,2581
saw,2582
say,2583
sayin,2584
saying,2585
says,2586
sbsca,2587
scale,2588
scared,2589
scarf,2590
scholarship,2591
school,2592
science,2593
scooby,2594
scored,2595
scores,2596
scorpio,2597
scotland,2598
scottish,2599
scratch,2600
scream,2601
screaming,2602
screen,2603
screw,2604
screwed,2605
sean,2606
search,2607
seashells,2608
season,2609
seattle,2610
second,2611
seconds,2612
secure,2613
see,2614
seedless,2615
seeing,2616
seem,2617
seems,2618
seen,2619
seeya,2620
selfish,2621
sell,2622
selling,2623
sellouts,2624
semester,2625
semi,2626
send,2627
sending,2628
sent,2629
september,2630
sequence,2631
series,2632
serious,2633
seriously,2634
seriouslyy,2635
serve,2636
server,2637
service,2638
session,2639
set,2640
settings,2641
severely,2642
sexy,2643
sh,2644
shabby,2645
shades,2646
shall,2647
shants,2648
shape,2649
shaqs,2650
share,2651
sharp,2652
sharpies,2653
shave,2654
she,2655
shees,2656
sheesh,2657
shes,2658
shiny,2659
shipping,2660
shirt,2661
shirts,2662
shit,2663
shithead,2664
shitting,2665
sho,2666
shock,2667
shoddy,2668
shoe,2669
shoes,2670
shoot,2671
shootout,2672
shop,2673
shopping,2674
shorts,2675
shorty,2676
shot,2677
shots,2678
should,2679
shouldn,2680
shout,2681
shouting,2682
show,2683
showed,2684
shower,2685
showing,2686
showroom,2687
shows,2688
shox,2689
shred,2690
shut,2691
shutter,2692
shytt,2693
sia,2694
sic,2695
sick,2696
sickkkkkkk,2697
side,2698
siding,2699
sigh,2700
sign,2701
signed,2702
signs,2703
silent,2704
silly,2705
silver,2706
sim,2707
simon,2708
sims,2709
since,2710
sing,2711
singers,2712
singin,2713
singing,2714
single,2715
sir,2716
sister,2717
sisters,2718
sitting,2719
size,2720
skateboards,2721
skin,2722
skinnythoughts,2723
sky,2724
skype,2725
sleep,2726
sleeping,2727
sleepy,2728
sleeves,2729
slipping,2730
slow,2731
small,2732
smart,2733
smarty,2734
smashed,2735
smdh,2736
smell,2737
smellslikecack,2738
smh,2739
smile,2740
smith,2741
snatching,2742
sneakers,2743
sneaks,2744
snell,2745
snoring,2746
snot,2747
snowball,2748
so,2749
soaking,2750
sobay,2751
sobber,2752
social,2753
socks,2754
soexcited,2755
softball,2756
software,2757
sold,2758
solid,2759
some,2760
somebodytoldyouwrong,2761
somemore,2762
someone,2763
somethin,2764
something,2765
sometimes,2766
sometimesyouhaveto,2767
son,2768
song,2769
songs,2770
sony,2771
soo,2772
soon,2773
sooo,2774
soooo,2775
soooooo,2776
sooooooooooo,2777
soooooooooooo,2778
sopumped,2779
sorry,2780
sort,2781
sorta,2782
soul,2783
sound,2784
sounds,2785
soup,2786
south,2787
space,2788
spain,2789
spammed,2790
spanish,2791
sparsedonedigit,2792
sparsedtwodigits,2793
spaziale,2794
speak,2795
speakers,2796
spears,2797
special,2798
speech,2799
speed,2800
spell,2801
spelling,2802
spend,2803
spent,2804
spidey,2805
spike,2806
spirits,2807
spite,2808
splurged,2809
spoils,2810
spongebob,2811
sponsored,2812
sponsoring,2813
sports,2814
spotlite,2815
spray,2816
spreading,2817
squeeze,2818
st,2819
stab,2820
stairs,2821
stalking,2822
stamps,2823
stand,2824
standin,2825
standwithpp,2826
starbucks,2827
staring,2828
starsky,2829
start,2830
started,2831
startin,2832
starting,2833
starts,2834
starving,2835
state,2836
statefarmwasnttthere,2837
statement,2838
states,2839
station,2840
stay,2841
stayed,2842
staying,2843
steak,2844
steal,2845
step,2846
stereotype,2847
steve,2848
stick,2849
still,2850
stillworks,2851
stink,2852
stinks,2853
stockist,2854
stoked,2855
stole,2856
stolen,2857
stomach,2858
stoned,2859
stop,2860
stopped,2861
store,2862
stores,2863
storm,2864
story,2865
strategicvoteparsedtwodigits,2866
strawberries,2867
street,2868
stressed,2869
stressful,2870
strong,2871
struck,2872
strumpit,2873
strung,2874
stuck,2875
student,2876
students,2877
studio,2878
study,2879
studying,2880
studylink,2881
stuff,2882
stuffy,2883
stunning,2884
stunt,2885
stuntdoublecircus,2886
stupid,2887
stupidly,2888
style,2889
styles,2890
success,2891
such,2892
suck,2893
sucked,2894
sucks,2895
sudden,2896
suffer,2897
suites,2898
sultans,2899
sum,2900
summer,2901
summertime,2902
summit,2903
sun,2904
sunday,2905
sundayfunday,2906
sunshine,2907
super,2908
superb,2909
supervisor,2910
support,2911
sure,2912
surprised,2913
surprises,2914
suxx,2915
swag,2916
swear,2917
sweatpants,2918
sweats,2919
sweet,2920
sweetiez,2921
sweetparsedtwodigitsbday,2922
swift,2923
swype,2924
sync,2925
system,2926
tad,2927
take,2928
taken,2929
takes,2930
takin,2931
taking,2932
tale,2933
talented,2934
talk,2935
talking,2936
talkshitgethit,2937
tan,2938
tanya,2939
target,2940
taste,2941
tasting,2942
tattoo,2943
taurus,2944
taxi,2945
tbqf,2946
tca,2947
tea,2948
teacher,2949
teaches,2950
team,2951
teamgod,2952
teamilluminati,2953
teams,2954
tears,2955
tech,2956
techdays,2957
tee,2958
teeth,2959
tell,2960
tellin,2961
telling,2962
tells,2963
terry,2964
test,2965
text,2966
tf,2967
th,2968
tha,2969
thailand,2970
than,2971
thank,2972
thankgod,2973
thanks,2974
thankz,2975
thanx,2976
that,2977
thatgrapejuice,2978
thats,2979
thayounghustlaz,2980
the,2981
theapprentice,2982
theater,2983
theatre,2984
thefuck,2985
thegame,2986
their,2987
thelasttimeichecked,2988
them,2989
themselves,2990
then,2991
there,2992
theres,2993
these,2994
thesis,2995
thevoice,2996
they,2997
theylookfuckedup,2998
thierselfs,2999
thin,3000
thing,3001
things,3002
thingy,3003
think,3004
thinking,3005
thinks,3006
thirsty,3007
thirteenth,3008
this,3009
thismuch,3010
thiswasinmydrafts,3011
thiz,3012
thnk,3013
thnx,3014
tho,3015
those,3016
thou,3017
though,3018
thought,3019
three,3020
thro,3021
through,3022
throughout,3023
throught,3024
thrown,3025
tht,3026
thug,3027
thumbs,3028
thunder,3029
thxz,3030
ticket,3031
tickets,3032
tie,3033
tight,3034
till,3035
tim,3036
time,3037
timeline,3038
times,3039
tired,3040
tires,3041
tmrw,3042
tnt,3043
to,3044
today,3045
todays,3046
together,3047
told,3048
tolerance,3049
tommm,3050
tomorrow,3051
tomorrowwww,3052
tonight,3053
tons,3054
too,3055
tooeazy_parsedonedigit,3056
took,3057
tool,3058
tools,3059
toothache,3060
top,3061
topic,3062
tops,3063
toronto,3064
torture,3065
totally,3066
tots,3067
touchpad,3068
town,3069
toy,3070
tracks,3071
tracksuit,3072
traffic,3073
tragedy,3074
trail,3075
train,3076
trainers,3077
training,3078
translator,3079
trash,3080
travel,3081
treat,3082
trees,3083
trending,3084
trhumanist,3085
tried,3086
trip,3087
true,3088
trueblood,3089
trust,3090
trusting,3091
truth,3092
try,3093
tryina,3094
trying,3095
tryna,3096
trynna,3097
tshirt,3098
tsk,3099
tuesdays,3100
tuition,3101
turn,3102
turned,3103
turns,3104
turtles,3105
tv,3106
tvguide,3107
tweeps,3108
tweet,3109
tweeted,3110
tweetiepies,3111
tweety,3112
twenty,3113
twice,3114
twitpic,3115
twitter,3116
twitters,3117
two,3118
twype,3119
tx,3120
typing,3121
ubc,3122
ucla,3123
uga,3124
uggghhhh,3125
ugghh,3126
ugh,3127
ughh,3128
ughhh,3129
ugly,3130
uh,3131
uhungry,3132
uk,3133
um,3134
under,3135
understand,3136
understanding,3137
unexpected,3138
unfort,3139
unfortunate,3140
unfortunately,3141
uni,3142
unidentical,3143
uniforms,3144
unique,3145
unite,3146
united,3147
universal,3148
unlimited,3149
until,3150
up,3151
upcoming,3152
update,3153
upgrading,3154
uploading,3155
upmost,3156
upparsedonedigit,3157
ups,3158
upset,3159
ur,3160
urgh,3161
us,3162
usa,3163
use,3164
used,3165
useful,3166
useless,3167
user,3168
using,3169
utc,3170
utterly,3171
vaca,3172
vacation,3173
vaio,3174
valentine,3175
valerie,3176
van,3177
vanilla,3178
vapor,3179
vd,3180
ve,3181
vegas,3182
verified,3183
verizon,3184
version,3185
very,3186
via,3187
vibes,3188
vibrant,3189
vick,3190
victorious,3191
vid,3192
video,3193
videos,3194
viewed,3195
vile,3196
vino,3197
vintage,3198
vip,3199
virtualization,3200
vision,3201
visit,3202
visuallyastounding,3203
vma,3204
vodka,3205
voice,3206
voices,3207
voila,3208
volume,3209
vote,3210
voted,3211
votes,3212
voting,3213
vows,3214
vparsedonedigit,3215
vuitton,3216
vwbug,3217
waaaaaayyyy,3218
wack,3219
wade,3220
wait,3221
waitin,3222
waiting,3223
waka,3224
wakemeupwhen,3225
waking,3226
walk,3227
walking,3228
wallet,3229
walls,3230
wanna,3231
want,3232
wanted,3233
wants,3234
warner,3235
warranty,3236
was,3237
washed,3238
wasn,3239
wasnt,3240
wasted,3241
wat,3242
watch,3243
watched,3244
watches,3245
watchin,3246
watching,3247
water,3248
watermelon,3249
wave,3250
way,3251
wayne,3252
wcws,3253
we,3254
weak,3255
wear,3256
wearing,3257
weather,3258
webbie,3259
website,3260
wed,3261
wedding,3262
wednesday,3263
wee,3264
week,3265
weekend,3266
weekends,3267
weeks,3268
weezy,3269
weight,3270
weird,3271
welcome,3272
well,3273
wen,3274
went,3275
were,3276
west,3277
western,3278
westminster,3279
whale,3280
what,3281
whatever,3282
whathappenedtorealmovies,3283
whats,3284
when,3285
where,3286
wherever,3287
whether,3288
which,3289
while,3290
whip,3291
white,3292
whitegirl,3293
who,3294
whole,3295
whoop,3296
whore,3297
why,3298
whyaretheyspeakingspanish,3299
whyy,3300
wi,3301
wife,3302
wifey,3303
wii,3304
wiiware,3305
wildcats,3306
will,3307
willo,3308
win,3309
window,3310
windows,3311
wine,3312
winner,3313
winning,3314
wins,3315
winslet,3316
winter,3317
wired,3318
wireless,3319
wise,3320
wish,3321
wishing,3322
wit,3323
with,3324
within,3325
without,3326
witnessed,3327
wk,3328
woman,3329
women,3330
womens,3331
won,3332
wonder,3333
wonderful,3334
wonders,3335
wont,3336
woo,3337
woofwoofwoof,3338
woohoo,3339
wool,3340
wooohhooo,3341
woooo,3342
woot,3343
word,3344
words,3345
work,3346
worked,3347
workin,3348
working,3349
workout,3350
works,3351
workshop,3352
world,3353
worlds,3354
worldwide,3355
worried,3356
worse,3357
worst,3358
worstmovieever,3359
worstshoesever,3360
worth,3361
worthless,3362
would,3363
wouldn,3364
wouldnt,3365
wow,3366
wowww,3367
write,3368
writing,3369
wrong,3370
wrote,3371
wtchn,3372
wtf,3373
wth,3374
x_x,3375
xbox,3376
xd,3377
xfactor,3378
xmas,3379
xo,3380
xoxo,3381
xparsedtwodigits,3382
xperia,3383
xx,3384
xxxx,3385
ya,3386
yaas,3387
yaay,3388
yall,3389
yay,3390
yayayayayayyay,3391
yayy,3392
yea,3393
yeaa,3394
yeah,3395
yeahhh,3396
yeahright,3397
year,3398
years,3399
yell,3400
yer,3401
yes,3402
yessir,3403
yesss,3404
yessss,3405
yesterday,3406
yet,3407
yeyeeee,3408
yikes,3409
yo,3410
yogurt,3411
yoh,3412
you,3413
youbetcha,3414
young,3415
younger,3416
your,3417
youre,3418
yours,3419
yourself,3420
youtube,3421
yrs,3422
yu,3423
yum,3424
yummy,3425
yup,3426
yuummy,3427
zaventem,3428
zaytoven,3429
zelda,3430
zilleville,3431
zone,3432
zoo,3433
zoom,3434
zouch,3435
zumba,3436
zwaard,3437
