__,0
___,1
____,2
_psparsedonedigit_,3
aaand,4
aaron,5
ab,6
able,7
about,8
absolutely,9
absurd,10
abusing,11
abyone,12
acceptable,13
acceptace,14
acceptance,15
account,16
achievement,17
achievements,18
act,19
acting,20
actingg,21
action,22
actors,23
acts,24
actually,25
addicted,26
addidas,27
adding,28
adds,29
adele,30
adidas,31
adizero,32
admire,33
admit,34
adore,35
ads,36
adult,37
adventvega,38
advert,39
af,40
afk,41
afraid,42
after,43
afternoon,44
again,45
againnnn,46
age,47
agent,48
aggghhhhhhhhh,49
aggravated,50
ago,51
agree,52
agreed,53
ah,54
ahead,55
ahh,56
ahhh,57
ahhhhh,58
ahhhhhhhhhhhhhhhhhhhhh,59
aid,60
ain,61
aint,62
air,63
airmax,64
aisha,65
aka,66
al,67
alberta,68
album,69
albuquerque,70
alcohol,71
alexandre,72
alicia,73
alihartzell,74
all,75
allnighter,76
allowed,77
allpowerful,78
almost,79
almunia,80
alone,81
along,82
alrdy,83
already,84
also,85
always,86
alwayswinning,87
am,88
amaze,89
amazing,90
amazinng,91
ambassador,92
america,93
americans,94
amigonnabeokay,95
amount,96
amp,97
an,98
anal,99
and,100
andrews,101
android,102
ankle,103
anniv,104
announcements,105
annoy,106
annoyed,107
annoying,108
another,109
answer,110
answered,111
answers,112
antm,113
antonio,114
any,115
anymore,116
anyone,117
anything,118
anythingg,119
anyversary,120
anyway,121
anyways,122
anywayz,123
aparsedonedigit,124
apllo,125
app,126
apparently,127
apple,128
application,129
appreciate,130
appreciated,131
appt,132
april,133
aqua,134
aquarius,135
arby,136
are,137
argh,138
armour,139
arms,140
around,141
arrested,142
arrived,143
arriving,144
arroooo,145
arrrghhh,146
arsehole,147
as,148
asap,149
asf,150
ashby,151
ashcroft,152
ashishh,153
ashley,154
ashworth,155
ask,156
asked,157
asks,158
asparagus,159
ass,160
assignments,161
asx,162
asz,163
at,164
ate,165
athletes,166
atlanta,167
atlantic,168
atm,169
attached,170
attempting,171
attended,172
attitude,173
attraction,174
attractive,175
aubin,176
auction,177
audi,178
audio,179
august,180
aunt,181
auntee,182
austin,183
australia,184
aw,185
awake,186
award,187
awards,188
away,189
awesome,190
awesomeness,191
awesomest,192
awhhbabies,193
awkward,194
aww,195
awww,196
axed,197
ayy,198
az,199
azz,200
babe,201
babies,202
baby,203
back,204
backs,205
bad,206
bae,207
bag,208
bags,209
baha,210
bahama,211
baked,212
bakersfield,213
bakery,214
ball,215
ballet,216
baltimore,217
baltimoregp,218
bananas,219
band,220
bangs,221
bankers,222
bar,223
barbie,224
barcelona,225
bare,226
barley,227
barry,228
barton,229
basic,230
basics,231
bass,232
bastards,233
bathed,234
batteries,235
battery,236
baylidonaldson,237
bc,238
bday,239
be,240
beach,241
beat,242
beautiful,243
bebeee,244
because,245
because_it,246
become,247
becoming,248
bed,249
been,250
before,251
beg,252
begin,253
beginnersluck,254
behind,255
bein,256
being,257
bel,258
belated,259
belieber,260
beliefs,261
believe,262
bell,263
bella,264
belt,265
bench,266
benchmark,267
benoit,268
bernandez,269
best,270
bestfriends,271
bestnightever,272
bet,273
betchesluvthis,274
betta,275
better,276
better_,277
between,278
beyonce,279
beyoncé,280
beyond,281
bid,282
bieber,283
big,284
biggest,285
bigggg,286
bigmove,287
bike,288
biker,289
bikini,290
bing,291
bint,292
birds,293
birthday,294
birthdayy,295
bit,296
bitch,297
bitches,298
bitchtryagain,299
bk,300
black,301
blackberries,302
blah,303
blame,304
blatant,305
bless,306
blessed,307
blessen,308
blew,309
bliss,310
blocks,311
blondes,312
bloody,313
blow,314
blown,315
blue,316
bluesfest,317
body,318
bohemian,319
boise,320
bomb,321
bonus,322
boo,323
book,324
booked,325
bookswithalettermissing,326
boomer,327
boonaa,328
boost,329
boot,330
boots,331
booty,332
bored,333
boredwholedaynow,334
boring,335
borrow,336
bosses,337
both,338
bother,339
bothered,340
bottle,341
bottles,342
bought,343
bout,344
bowl,345
bowling,346
bowral,347
box,348
boxing,349
boy,350
boys,351
boyz,352
bra,353
brace,354
braided,355
brainstorm,356
bran,357
brand,358
brandon,359
bravia,360
break,361
breakfast,362
breaking,363
breath,364
bree,365
breeze,366
breezy,367
brekkie,368
brekky,369
bricks,370
bride,371
bright,372
brighter,373
brilliance,374
bring,375
bringing,376
brisket,377
britney,378
bro,379
broke,380
broken,381
bronx,382
brooke,383
brother,384
brown,385
brownies,386
bruce,387
brush,388
bs,389
bsnl,390
bt,391
btw,392
bucks,393
budget,394
building,395
built,396
bulls,397
bullshit,398
bump,399
bunch,400
burn,401
burnt,402
burr,403
bus,404
busted,405
busy,406
but,407
butts,408
buy,409
buyibg,410
buying,411
buzz,412
by,413
bye,414
byebyesummer,415
bytch,416
cadburys,417
caddykim,418
cake,419
calendars,420
call,421
called,422
calling,423
calls,424
cam,425
came,426
camera,427
cameraoxford,428
camp,429
campus,430
can,431
canada,432
canadafail,433
canadians,434
cannes,435
cannot,436
cant,437
cape,438
captivate,439
car,440
carbon,441
card,442
cardiff,443
cardio,444
care,445
carolyn,446
carry,447
carter,448
carver,449
case,450
cash,451
cashback,452
casj,453
cast,454
castle,455
cat,456
catch,457
catching,458
cats,459
catwomanbytchz,460
caught,461
cause,462
cbeebies,463
cd,464
cdnjoke,465
cdnpoli,466
celebrate,467
celebrating,468
celebrity,469
celtics,470
centennial,471
center,472
centre,473
cents,474
cereal,475
certificate,476
cfl,477
chains,478
challenge,479
chance,480
chandler,481
chanel,482
change,483
chapters,484
character,485
charge,486
chart,487
check,488
checked,489
checking,490
cheese,491
cheryl,492
chesterunisummerball,493
chic,494
chicago,495
chick,496
chicken,497
children,498
chill,499
chips,500
chocolate,501
chocolatecravingfail,502
choice,503
chokes,504
chokeyes,505
chose,506
chosen,507
chris,508
christ,509
christmas,510
chuffed,511
church,512
ciggs,513
cilla,514
circumstances,515
ciric,516
cisco,517
city,518
civilization,519
clashes,520
class,521
classes,522
classic,523
classy,524
cle,525
clef,526
client,527
clients,528
close,529
closer,530
closet,531
cloud,532
clouds,533
club,534
coach,535
coaches,536
coasters,537
coco,538
coffee,539
coke,540
cold,541
cole,542
colinratushniak,543
collaboration,544
collar,545
collect,546
collecting,547
collection,548
colleg,549
college,550
cologne,551
color,552
colorado,553
com,554
combat,555
combine,556
combo,557
come,558
comedy,559
comes,560
comfy,561
comin,562
coming,563
commentator,564
comments,565
commercial,566
commit,567
communicate,568
community,569
comp,570
company,571
compare,572
compared,573
comparison,574
competition,575
competitors,576
complete,577
completely,578
compliments,579
comprehensive,580
computer,581
computing,582
conference,583
confidence,584
confused,585
congrats,586
congratulates,587
congratulations,588
congress,589
connection,590
connell,591
consideration,592
consoles,593
cont,594
continue,595
contour,596
control,597
controller,598
convenient,599
convertible,600
convey,601
convincing,602
convo,603
cook,604
cool,605
cooler,606
cooling,607
coooool,608
cop,609
copy,610
corner,611
corolla,612
corporations,613
corvette,614
costs,615
could,616
couldn,617
count,618
counterfeit,619
country,620
couple,621
course,622
courtesy,623
cousin,624
covecrest,625
covered,626
cowell,627
coworker,628
coz,629
crackers,630
cramps,631
crap,632
crappy,633
crashed,634
crazy,635
cream,636
creamy,637
created,638
credit,639
creep,640
creeped,641
crew,642
crewneck,643
criminal,644
cringe,645
crosby,646
crossing,647
crown,648
cru,649
crunchy,650
crush,651
cry,652
ctfxc,653
cultural,654
cunt,655
cup,656
cups,657
curly,658
current,659
currys,660
curve,661
cus,662
customer,663
customers,664
customized,665
cut,666
cute,667
cutest,668
cutie,669
cuz,670
cyber,671
cycling,672
cyprus,673
da,674
dachstar,675
dad,676
daddies,677
daddy,678
dads,679
dalaman,680
dallas,681
dam,682
dame,683
damien,684
dammit,685
damn,686
damnit,687
damnn,688
dancemoms,689
dances,690
dancing,691
dang,692
dangerous,693
daniel,694
dare,695
dark,696
darling,697
dat,698
date,699
dats,700
daughter,701
david,702
davis,703
dawgs,704
dawn,705
day,706
days,707
dayz,708
dd,709
ddddd,710
de,711
dead,712
deal,713
dear,714
dearfuturehusband,715
death,716
deathh,717
debuts,718
decade,719
decades,720
decemeber,721
decided,722
decision,723
deck,724
dedicate,725
definite,726
definitely,727
deizydoesit,728
delete,729
deleting,730
delivered,731
delivering,732
dell,733
dellstreak,734
dem,735
demo,736
demon,737
deny,738
depressed,739
depression,740
derrick,741
design,742
desktop,743
despise,744
dessert,745
destiny,746
destroyswaggerville,747
destruction,748
desvers,749
details,750
determined,751
detroit,752
devastated,753
developing,754
devices,755
diamond,756
dictionary,757
did,758
didn,759
didnt,760
die,761
died,762
difficult,763
dig,764
ding,765
dinner,766
dinosaurs,767
direction,768
directly,769
dirt,770
dirtbiking,771
dirty,772
dirtybitch,773
dis,774
disappointed,775
disconnected,776
discontent,777
discontinued,778
disgusted,779
disgusting,780
dislike,781
disliking,782
dissapointed,783
disturbed,784
ditching,785
divine,786
diz,787
dk,788
dkny,789
dm,790
dmb,791
do,792
does,793
doesn,794
doesnt,795
dog,796
doing,797
dollars,798
dolphin,799
don,800
done,801
dong,802
donkey,803
dont,804
dontknowhowilivedwithoutit,805
donuts,806
doo,807
doodlejump,808
door,809
dope,810
dora,811
double,812
douche,813
down,814
downloaded,815
downloadin,816
downstairs,817
downtown,818
drag,819
dragu,820
drake,821
drama,822
drawing,823
dream,824
dress,825
drew,826
dri,827
drinks,828
drive,829
driving,830
droid,831
drop,832
dropped,833
drove,834
drs,835
drunk,836
drunken,837
dry,838
ds,839
dublin,840
dude,841
due,842
dull,843
dum,844
dumb,845
dump,846
dun,847
dunks,848
during,849
dusted,850
duty,851
dwts,852
dying,853
each,854
eachother,855
eagles,856
early,857
earned,858
earth,859
easier,860
easily,861
easilyentertained,862
eat,863
eating,864
eats,865
ebay,866
eclipse,867
economical,868
ect,869
edward,870
effective,871
effectively,872
efficient,873
ego,874
eightyville,875
either,876
el,877
eleavator,878
elected,879
elegant,880
elevator,881
else,882
em,883
email,884
embarrassed,885
embarrassing,886
emotionally,887
emotions,888
employed,889
employee,890
end,891
ended,892
energy,893
english,894
engrish,895
enjoy,896
enjoyed,897
enjoyin,898
enjoying,899
enormous,900
enough,901
enter,902
entered,903
entertainment,904
entire,905
entitled,906
enuff,907
eparsedonedigit,908
eparsedonedigitongparsedonedigit,909
epic,910
episode,911
eric,912
ericsson,913
eshop,914
especially,915
essay,916
estate,917
etsykids,918
eurgh,919
euros,920
even,921
evening,922
evenings,923
event,924
eventful,925
events,926
ever,927
every,928
everybody,929
everyday,930
everygirl,931
everyone,932
everyparsedonedigit,933
everythiiiing,934
everything,935
everytime,936
evil,937
ex,938
exactly,939
exam,940
excell,941
excellent,942
except,943
excited,944
exciting,945
exclusive,946
executive,947
exhausted,948
exhausting,949
exhibit,950
exist,951
expect,952
expensive,953
expertise,954
experts,955
explorer,956
extremely,957
exxxxxxxxxxxxcited,958
eye,959
eyes,960
ezurbanvibe,961
fa,962
fab,963
fabulous,964
facbook,965
face,966
facebook,967
faces,968
fact,969
factor,970
fading,971
fage,972
fail,973
fairly,974
fake,975
fall,976
fallen,977
fam,978
family,979
famous,980
fan,981
fans,982
fantastic,983
fantasticfest,984
far,985
farty,986
fashion,987
fast,988
fastest,989
fat,990
father,991
fault,992
fav,993
favorite,994
fb,995
fbr,996
fcukin,997
feather,998
featured,999
fed,1000
federal,1001
fedex,1002
feel,1003
feeling,1004
feels,1005
feet,1006
fell,1007
felt,1008
females,1009
fendi,1010
festival,1011
fev,1012
fever,1013
few,1014
ff,1015
ffc,1016
ffffff,1017
ffs,1018
fi,1019
fiat,1020
fiber,1021
fight,1022
figure,1023
figured,1024
filled,1025
film,1026
fin,1027
finale,1028
finally,1029
finals,1030
finances,1031
find,1032
finding,1033
fine,1034
finished,1035
finna,1036
first,1037
fish,1038
fishin,1039
fishing,1040
fist,1041
fit,1042
fitness,1043
fkn,1044
flags,1045
flash,1046
flauge,1047
flava,1048
flex,1049
flick,1050
flies,1051
flight,1052
flip,1053
flipping,1054
flocka,1055
floor,1056
flop,1057
flops,1058
florida,1059
flow,1060
flu,1061
focus,1062
folks,1063
follow,1064
followback,1065
followers,1066
following,1067
followme,1068
fone,1069
food,1070
foodstamps,1071
fools,1072
foosball,1073
foot,1074
football,1075
footlocker,1076
for,1077
ford,1078
foreigners,1079
forever,1080
forget,1081
forgiven,1082
forgot,1083
forgotten,1084
fort,1085
forward,1086
found,1087
founding,1088
foward,1089
fox,1090
franco,1091
freaken,1092
freaking,1093
free,1094
freezer,1095
french,1096
fresh,1097
fresher,1098
friday,1099
frie,1100
fried,1101
friend,1102
friendly,1103
friends,1104
friggin,1105
frm,1106
from,1107
front,1108
frowns,1109
froyo,1110
froze,1111
frustrated,1112
frustration,1113
fry,1114
ft,1115
fu,1116
fuck,1117
fucked,1118
fuckin,1119
fucking,1120
fuckoff,1121
fuckthem,1122
fuckyousummit,1123
fuel,1124
fuk,1125
full,1126
fully,1127
fun,1128
funeral,1129
funn,1130
funnelicious,1131
funny,1132
funparsedthreedigits,1133
further,1134
future,1135
fuzzy,1136
fxcking,1137
gaga,1138
gala,1139
galaxy,1140
galileo,1141
game,1142
gameon,1143
gamerface,1144
games,1145
gamestop,1146
gangsta,1147
garage,1148
gaveuponhim,1149
gay,1150
gayy,1151
gayyyyy,1152
gbc,1153
gd,1154
geared,1155
gelato,1156
general,1157
genius,1158
genre,1159
genuine,1160
georgia,1161
get,1162
getalife,1163
geting,1164
gets,1165
getsonmynerves,1166
gettin,1167
getting,1168
gettn,1169
ghetto,1170
gift,1171
gifts,1172
gig,1173
gingrich,1174
giraffe,1175
girl,1176
girlies,1177
girls,1178
give,1179
gives,1180
giving,1181
glad,1182
glasses,1183
glee,1184
glen,1185
glorious,1186
glory,1187
gloves,1188
go,1189
goa,1190
goal,1191
goals,1192
god,1193
godblessbullies,1194
goes,1195
goin,1196
going,1197
gojackets,1198
gojesus,1199
gon,1200
gonb,1201
gone,1202
gonna,1203
goo,1204
good,1205
goodgame,1206
goodness,1207
goodnight,1208
goodwill,1209
goofd,1210
google,1211
gorgeous,1212
got,1213
gotta,1214
gotti,1215
gourmet,1216
grab,1217
grace,1218
graduated,1219
graph,1220
grateful,1221
gravity,1222
gray,1223
grease,1224
great,1225
greatday,1226
greater,1227
greatest,1228
greatestgadgets,1229
greatfull,1230
greek,1231
gritting,1232
grow,1233
grown,1234
grrr,1235
grrrr,1236
grrrrr,1237
grrrrrr,1238
grrrrrrrrrrrr,1239
gt,1240
gteparsedonedigit,1241
guaranteed,1242
guards,1243
gucci,1244
gud,1245
guess,1246
guessing,1247
guessssszz,1248
guests,1249
guilty,1250
gunners,1251
gutted,1252
guy,1253
guys,1254
gym,1255
ha,1256
haaay,1257
haaha,1258
hack,1259
hacks,1260
had,1261
hadn,1262
haha,1263
hahaha,1264
hahahahaha,1265
hahahahahahaha,1266
hair,1267
half,1268
halfway,1269
hall,1270
halo,1271
hancock,1272
hand,1273
handle,1274
hands,1275
handycam,1276
hangin,1277
hanging,1278
happen,1279
happened,1280
happening,1281
happens,1282
happier,1283
happiest,1284
happpy,1285
happy,1286
happytweet,1287
harary,1288
hard,1289
harder,1290
hardest,1291
hardtime,1292
harrisburg,1293
harry,1294
hart,1295
harvey,1296
has,1297
hasn,1298
hate,1299
haunted,1300
have,1301
haven,1302
havent,1303
having,1304
hawaiian,1305
hawk,1306
hcr,1307
hd,1308
he,1309
head,1310
headache,1311
heading,1312
headlamp,1313
heads,1314
healthy,1315
hear,1316
heard,1317
hearing,1318
heart,1319
heartfelt,1320
heat,1321
heated,1322
heater,1323
heathrowe,1324
heaven,1325
hees,1326
hehehe,1327
helicopter,1328
hell,1329
hella,1330
hellaclean,1331
helllooooooo,1332
hello,1333
help,1334
her,1335
here,1336
heritage,1337
hero,1338
herooo,1339
herr,1340
herself,1341
hey,1342
hi,1343
hiding,1344
high,1345
highlights,1346
hilarious,1347
hills,1348
hilton,1349
him,1350
himself,1351
hint,1352
hipstamatic,1353
his,1354
history,1355
hit,1356
hitting,1357
hmmm,1358
hobby,1359
hockey,1360
hoe,1361
hoff,1362
hold,1363
holiday,1364
hollywood,1365
holy,1366
hom,1367
home,1368
homework,1369
homie,1370
homo,1371
honestly,1372
hoodnight,1373
hoops,1374
hooray,1375
hope,1376
hopefully,1377
hopes,1378
hoping,1379
horny,1380
horribly,1381
host,1382
hostel,1383
hot,1384
hotel,1385
hotmail,1386
hott,1387
hour,1388
hours,1389
house,1390
how,1391
hse,1392
htc,1393
http,1394
huge,1395
hugo,1396
huh,1397
hump,1398
hungry,1399
hunting,1400
huntsville,1401
hurricane,1402
hurrryyy,1403
hurry,1404
hurt,1405
hurts,1406
hut,1407
hypertension,1408
hypocrite,1409
icahn,1410
icanhonestlysay,1411
ice,1412
id,1413
idc,1414
idea,1415
ideas,1416
identity,1417
idiot,1418
idk,1419
ieparsedonedigit,1420
if,1421
ife,1422
ignorant,1423
ii,1424
iits,1425
ikea,1426
ikr,1427
ill,1428
iloveyou,1429
im,1430
ima,1431
imac,1432
imitation,1433
imma,1434
immense,1435
impossible,1436
impressed,1437
in,1438
inappropriatefuneralsongs,1439
inc,1440
incarnation,1441
inclined,1442
incompetent,1443
inconvenient,1444
indies,1445
industry,1446
indycar,1447
infected,1448
inferior,1449
info,1450
information,1451
infuse,1452
injections,1453
injunction,1454
inkredible_k_,1455
inlove,1456
inn,1457
innovation,1458
insane,1459
insanicast,1460
inside,1461
insightful,1462
inspired,1463
inspiring,1464
instead,1465
instinct,1466
instructions,1467
intense,1468
interest,1469
interesting,1470
intern,1471
internap,1472
internet,1473
into,1474
invitation,1475
invitational,1476
invited,1477
involved,1478
iowa,1479
ipad,1480
iphone,1481
ipod,1482
ips,1483
iregret,1484
irritated,1485
is,1486
island,1487
isn,1488
isnt,1489
issue,1490
issues,1491
it,1492
itage,1493
itellyou,1494
ithinkweredonehere,1495
itouch,1496
its,1497
itself,1498
itunes,1499
iwannago,1500
iwannagodney,1501
iwin,1502
iwontgrowup,1503
iyiyi,1504
iz,1505
jack,1506
jacket,1507
jah,1508
jail,1509
james,1510
jamin,1511
jaminn,1512
janet,1513
jazz,1514
jazzmines,1515
jeans,1516
jedward,1517
jeggings,1518
jennette,1519
jerks,1520
jerseys,1521
jerzday,1522
jesus,1523
jetsuite,1524
jhb,1525
jit,1526
joan,1527
job,1528
joey,1529
johnny,1530
joke,1531
jokes,1532
jordan,1533
joyous,1534
jr,1535
july,1536
jump,1537
jus,1538
juss,1539
just,1540
justify,1541
justin,1542
kanye,1543
kardashian,1544
kardashians,1545
karmasabitch,1546
kat,1547
kate,1548
kathy,1549
katie,1550
kbshow,1551
keep,1552
keeping,1553
ken,1554
kentucky,1555
kevin,1556
key,1557
keys,1558
khadse,1559
khaki,1560
kia,1561
kicc,1562
kick,1563
kicked,1564
kid,1565
kids,1566
kies,1567
kill,1568
killed,1569
killer,1570
killing,1571
kim,1572
kind,1573
kinda,1574
kinderbueno,1575
kinect,1576
king,1577
kink,1578
kiss,1579
kitchen,1580
knew,1581
know,1582
known,1583
knows,1584
knw,1585
kreayshawn,1586
kris,1587
krystal,1588
kumaran,1589
kute,1590
kyiv,1591
la,1592
lab,1593
labor,1594
labtops,1595
ladies,1596
lady,1597
ladycisca,1598
ladygaga,1599
lakers,1600
lakeshow,1601
lame,1602
landlord,1603
landlordhell,1604
langports,1605
laoada,1606
lap,1607
laptop,1608
laptops,1609
large,1610
larry,1611
las,1612
lashes,1613
lasr,1614
last,1615
lastnight,1616
late,1617
lately,1618
later,1619
latin,1620
latonya,1621
laugh,1622
laughed,1623
launch,1624
launched,1625
laundry,1626
laura,1627
lauristons,1628
lawrence,1629
lay,1630
layin,1631
laying,1632
layla,1633
lazier,1634
lazy,1635
leaders,1636
leak,1637
leaks,1638
learn,1639
least,1640
leave,1641
leaving,1642
lebron,1643
lecturing,1644
left,1645
legally,1646
legend,1647
legit,1648
leisure,1649
lemans,1650
lemars,1651
less,1652
let,1653
lets,1654
letter,1655
letting,1656
lewis,1657
lex,1658
libra,1659
library,1660
libs,1661
lie,1662
liee,1663
life,1664
lifesaver,1665
lift,1666
light,1667
lights,1668
lightyears,1669
liike,1670
like,1671
liked,1672
likeeee,1673
likes,1674
liking,1675
lil,1676
line,1677
lines,1678
ling,1679
linkedin,1680
liquor,1681
listen,1682
listened,1683
listeners,1684
listening,1685
listings,1686
literally,1687
little,1688
liv,1689
live,1690
living,1691
ll,1692
lli,1693
lloyd,1694
lmao,1695
lmfao,1696
lmfaoo,1697
lmfaooo,1698
loafers,1699
local,1700
lock,1701
locked,1702
lofty,1703
log,1704
logic,1705
lol,1706
lolz,1707
london,1708
londonriots,1709
lonely,1710
long,1711
longdayahead,1712
longer,1713
look,1714
looked,1715
lookin,1716
looking,1717
looks,1718
looove,1719
lose,1720
losin,1721
losing,1722
lost,1723
lot,1724
lots,1725
loui,1726
louie,1727
louis,1728
lounge,1729
love,1730
lovechicago,1731
loved,1732
lovee,1733
loveeee,1734
lovely,1735
lovemyjob,1736
loveoutletmalls,1737
loves,1738
lovin,1739
loving,1740
lovvvvve,1741
low,1742
lower,1743
loyal,1744
lt,1745
lts,1746
luca,1747
lucas,1748
luger,1749
lunch,1750
luv,1751
luvs,1752
lyin,1753
ma,1754
mac,1755
macbook,1756
machine,1757
macklemore,1758
mad,1759
made,1760
madmatts,1761
maestro,1762
mag,1763
mags,1764
mah,1765
maid,1766
mail,1767
main,1768
maintain,1769
make,1770
makes,1771
makeup,1772
makeupbymario,1773
makin,1774
making,1775
mall,1776
mam,1777
man,1778
manage,1779
mane,1780
manga,1781
manhattan,1782
mansion,1783
manuel,1784
many,1785
marathon,1786
marching,1787
marietta,1788
marilyn,1789
mariners,1790
mark,1791
market,1792
marketing,1793
marketingacademy,1794
marks,1795
maro,1796
marshmellows,1797
marty,1798
maryland,1799
masgana,1800
mason,1801
mass,1802
massage,1803
match,1804
material,1805
math,1806
matter,1807
mature,1808
max,1809
maxes,1810
may,1811
maybe,1812
mayhem,1813
maynor,1814
mayor,1815
mazing,1816
mbfw,1817
mccartney,1818
mcdonalds,1819
mcflurry,1820
mcfly,1821
me,1822
meadows,1823
mean,1824
meaning,1825
means,1826
mechanical,1827
mediocrity,1828
meet,1829
meeting,1830
member,1831
members,1832
memory,1833
memphisfact,1834
men,1835
menchies,1836
menlyn,1837
mental,1838
mentoring,1839
messages,1840
messed,1841
messenger,1842
met,1843
mfs,1844
mgmt,1845
mi,1846
michellebachmann,1847
microsoft,1848
middle,1849
middlefingerseverywhere,1850
midnight,1851
might,1852
migraines,1853
migrainessuck,1854
mii,1855
mike,1856
mile,1857
milk,1858
milky,1859
million,1860
mind,1861
mines,1862
mini,1863
mins,1864
minute,1865
minuteclinic,1866
minutes,1867
mis,1868
miss,1869
missed,1870
missin,1871
missing,1872
missthatshow,1873
mistake,1874
mistakes,1875
mmm,1876
mmmmm,1877
mmmmmm,1878
mobile,1879
mobileme,1880
model,1881
moderate,1882
mohammed,1883
mom,1884
moment,1885
momma,1886
mommasboy,1887
moms,1888
mon,1889
monday,1890
mondays,1891
money,1892
monin,1893
monster,1894
month,1895
months,1896
mood,1897
moods,1898
moon,1899
more,1900
morethanwordart,1901
moretweetsaboutfood,1902
morning,1903
mornings,1904
most,1905
mostly,1906
mothafuckas,1907
mother,1908
mothers,1909
motivation,1910
move,1911
movie,1912
moving,1913
mr,1914
ms,1915
msc,1916
msp,1917
mtg,1918
mtv,1919
much,1920
muchappreciatedinfo,1921
mucho,1922
mucus,1923
mum,1924
muppets,1925
murray,1926
murs,1927
museo,1928
music,1929
musical,1930
must,1931
mustache,1932
mustaches,1933
mutt,1934
mvp,1935
mwema,1936
my,1937
mylilkitchenlab,1938
mynichols,1939
myself,1940
na,1941
nails,1942
nakutamani,1943
name,1944
nancy,1945
nap,1946
nasally,1947
nashville,1948
nasty,1949
natalie,1950
nation,1951
nations,1952
naturally,1953
nature,1954
navi,1955
nawl,1956
nazi,1957
nbd,1958
nd,1959
neat,1960
necklace,1961
need,1962
needed,1963
needs,1964
neighbor,1965
nemesis,1966
nerve,1967
netbook,1968
netflix,1969
network,1970
networks,1971
neva,1972
nevea,1973
never,1974
neverfails,1975
nevertrust,1976
new,1977
newalltimelow,1978
news,1979
newt,1980
next,1981
nexuss,1982
nf,1983
nice,1984
nicer,1985
nick,1986
nickelodeon,1987
nicki,1988
nicks,1989
nigga,1990
niggas,1991
niggaz,1992
night,1993
nighters,1994
nights,1995
nightttttt,1996
nike,1997
nikes,1998
nikita,1999
nikki,2000
nintendo,2001
niqqas,2002
nite,2003
njoy,2004
no,2005
nobody,2006
nodeadlinestoday,2007
nofatgirls,2008
noir,2009
nominate,2010
non,2011
nonebesideyou,2012
noooooo,2013
nordy,2014
normal,2015
northeast,2016
nose,2017
not,2018
notcool,2019
notgraceful,2020
nothin,2021
nothing,2022
notice,2023
noticing,2024
notify,2025
nova,2026
novels,2027
now,2028
np,2029
nparsedonedigitg,2030
nparsedthreedigits,2031
number,2032
numbers,2033
ny,2034
nyan,2035
nyc,2036
nz,2037
o_o,2038
o_parsedonedigit,2039
obama,2040
obsessed,2041
obviously,2042
odd,2043
oddparents,2044
odvy,2045
of,2046
off,2047
offered,2048
offering,2049
offers,2050
office,2051
officeparsedthreedigits,2052
official,2053
officially,2054
oft,2055
oh,2056
ohcarolina,2057
ohh,2058
ohjoy,2059
ohkay,2060
ok,2061
okay,2062
okayy,2063
ol,2064
old,2065
oldbridge,2066
older,2067
olly,2068
olot,2069
omg,2070
omnia,2071
on,2072
onam,2073
once,2074
one,2075
ones,2076
online,2077
only,2078
onsomniactic,2079
oof,2080
ooo,2081
oooh,2082
opening,2083
opera,2084
opinions,2085
opportunities,2086
optimism,2087
or,2088
ordered,2089
oregon,2090
oreo,2091
oreos,2092
orland,2093
orlando,2094
os,2095
oth,2096
other,2097
others,2098
ottawa,2099
ouo,2100
our,2101
out,2102
outdoors,2103
outlet,2104
outside,2105
outstretched,2106
outta,2107
oval,2108
ovens,2109
over,2110
overall,2111
overc,2112
overcome,2113
overcomers,2114
overdosed,2115
overflows,2116
own,2117
owns,2118
oy,2119
packed,2120
packing,2121
pad,2122
page,2123
paid,2124
pain,2125
paint,2126
pair,2127
pants,2128
pantssss,2129
papa,2130
paparazzie,2131
paper,2132
papers,2133
parents,2134
paris,2135
park,2136
parking,2137
parseddigits,2138
parseddigitshrs,2139
parseddigitsth,2140
parsedfivedigitsth,2141
parsedfourdigits,2142
parsedonedigit,2143
parsedonedigitds,2144
parsedonedigiter,2145
parsedonedigitg,2146
parsedonedigitgot,2147
parsedonedigitgs,2148
parsedonedigitk,2149
parsedonedigitmi,2150
parsedonedigitmp,2151
parsedonedigitnite,2152
parsedonedigitpay,2153
parsedonedigitrd,2154
parsedonedigitst,2155
parsedonedigitth,2156
parsedonedigitx,2157
parsedsixdigits,2158
parsedthreedigits,2159
parsedthreedigitsb,2160
parsedtime,2161
parsedtwodigits,2162
parsedtwodigitsmphunder,2163
parsedtwodigitspeopleidmarry,2164
parsedtwodigitsth,2165
parsedtwodigitsthjinnieday,2166
parsedtwodigitsyr,2167
part,2168
participants,2169
partner,2170
partners,2171
parts,2172
party,2173
passed,2174
passes,2175
passing,2176
passwords,2177
past,2178
paste,2179
patent,2180
patience,2181
patient,2182
pattom,2183
pauly,2184
pay,2185
pbs,2186
pda,2187
peak,2188
pencils,2189
people,2190
perez,2191
perfect,2192
performing,2193
permission,2194
person,2195
personable,2196
personal,2197
personality,2198
petsitting,2199
phase,2200
phat,2201
phd,2202
phone,2203
photo,2204
physical,2205
physically,2206
pic,2207
picasso,2208
pick,2209
picked,2210
pics,2211
picture,2212
pictures,2213
pie,2214
piece,2215
pieces,2216
pifco,2217
pike,2218
pile,2219
pipeline,2220
piss,2221
pissed,2222
pisses,2223
pissin,2224
pizza,2225
place,2226
places,2227
plan,2228
planning,2229
plans,2230
play,2231
playa,2232
played,2233
player,2234
playing,2235
plays,2236
please,2237
pledge,2238
pls,2239
plus,2240
pnc,2241
point,2242
pointless,2243
points,2244
political,2245
poll,2246
pooped,2247
poor,2248
popular,2249
ported,2250
positive,2251
possibly,2252
post,2253
posted,2254
posters,2255
posting,2256
potatoes,2257
potential,2258
potter,2259
pow,2260
power,2261
powerpoint,2262
ppl,2263
practice,2264
prada,2265
pradas,2266
pray,2267
prayer,2268
praying,2269
pre,2270
pregnant,2271
prepare,2272
pres,2273
preseason,2274
presented,2275
president,2276
press,2277
pressure,2278
presume,2279
pretty,2280
preview,2281
previous,2282
price,2283
priceless,2284
primark,2285
princess,2286
principles,2287
print,2288
printer,2289
pro,2290
probably,2291
problem,2292
problems,2293
probs,2294
process,2295
prod,2296
product,2297
products,2298
profesh,2299
professional,2300
professors,2301
program,2302
programs,2303
project,2304
prolly,2305
promise,2306
promotions,2307
properly,2308
properties,2309
proud,2310
proudly,2311
provided,2312
providing,2313
prudence,2314
ps,2315
psn,2316
psparsedonedigit,2317
psyched,2318
pts,2319
pudding,2320
pukes,2321
pull,2322
puma,2323
pumped,2324
punch,2325
purchase,2326
purchased,2327
purchases,2328
purdue,2329
pure,2330
purse,2331
push,2332
put,2333
putting,2334
qanda,2335
qpr,2336
qualified,2337
quality,2338
quarantine,2339
queen,2340
queenslanders,2341
questionoftheday,2342
questions,2343
quickly,2344
quinn,2345
quite,2346
quiz,2347
race,2348
racers,2349
rachel,2350
rack,2351
radio,2352
radioooooooo,2353
rain,2354
raindeers,2355
rainy,2356
raising,2357
ran,2358
rank,2359
ranked,2360
rant,2361
rap,2362
rapper,2363
rather,2364
raul,2365
rbc,2366
re,2367
read,2368
reader,2369
reading,2370
ready,2371
real,2372
realigning,2373
reality,2374
realize,2375
realized,2376
really,2377
reason,2378
reasons,2379
received,2380
receiving,2381
receptionist,2382
reciprocate,2383
recommend,2384
recommendation,2385
recommending,2386
red,2387
redvelvet,2388
reformatted,2389
refs,2390
refused,2391
registered,2392
registering,2393
regret,2394
regrets,2395
rehearsallyfe,2396
reinlove,2397
reinstall,2398
reinstalling,2399
relationship,2400
relax,2401
release,2402
released,2403
releasing,2404
reliable,2405
religious,2406
relying,2407
remains,2408
remember,2409
remembering,2410
remind,2411
reminds,2412
remix,2413
remote,2414
removed,2415
remy,2416
rendering,2417
renewal,2418
renewed,2419
renewing,2420
rentign,2421
reply,2422
report,2423
reported,2424
reportedly,2425
represent,2426
repulsive,2427
request,2428
rescheduled,2429
rescue,2430
reservations,2431
resort,2432
respect,2433
respond,2434
response,2435
retailers,2436
retire,2437
return,2438
returning,2439
retweet,2440
revision,2441
rhapsody,2442
rhythms,2443
rich,2444
richard,2445
rick,2446
rid,2447
ride,2448
riders,2449
ridiculousness,2450
rife,2451
right,2452
rights,2453
rihanna,2454
ring,2455
ripped,2456
risf,2457
road,2458
roads,2459
rock,2460
rockband,2461
rocked,2462
rockem,2463
rockin,2464
rocko,2465
rocks,2466
rod,2467
role,2468
rolex,2469
roll,2470
roller,2471
romance,2472
rome,2473
roof,2474
room,2475
roomies,2476
roommate,2477
rooms,2478
root,2479
rope,2480
rose,2481
ross,2482
routine,2483
row,2484
rparsedonedigit,2485
rrb,2486
rt,2487
rub,2488
rude,2489
ruining,2490
rules,2491
run,2492
runied,2493
running,2494
sac,2495
sad,2496
saddens,2497
safe,2498
said,2499
saints,2500
salad,2501
sale,2502
sales,2503
salif,2504
samantha,2505
same,2506
samelson,2507
samsung,2508
samsungsmarttv,2509
samsungsupport,2510
samuel,2511
sandals,2512
santa,2513
satisfying,2514
saturday,2515
sauder,2516
save,2517
saved,2518
saw,2519
say,2520
sayin,2521
saying,2522
says,2523
scale,2524
scams,2525
scarf,2526
scedules,2527
schedule,2528
scholarship,2529
school,2530
science,2531
scooby,2532
scored,2533
scores,2534
scorpio,2535
scottish,2536
scratch,2537
screen,2538
screw,2539
screwed,2540
scruf,2541
search,2542
seashells,2543
season,2544
second,2545
seconds,2546
secure,2547
security,2548
see,2549
seedless,2550
seeing,2551
seem,2552
seems,2553
seen,2554
seeya,2555
selfish,2556
sell,2557
selling,2558
sellouts,2559
semester,2560
semi,2561
send,2562
sending,2563
sent,2564
sequence,2565
series,2566
serious,2567
seriously,2568
seriouslyy,2569
serve,2570
service,2571
set,2572
settling,2573
sexiest,2574
sexy,2575
sh,2576
shabby,2577
shades,2578
shall,2579
shame,2580
shape,2581
shaqs,2582
share,2583
sharp,2584
sharpies,2585
shave,2586
she,2587
sheesh,2588
shes,2589
shifter,2590
shiny,2591
shipping,2592
shirt,2593
shirts,2594
shit,2595
shitting,2596
sho,2597
shock,2598
shoddy,2599
shoe,2600
shoes,2601
shoetweets,2602
shoot,2603
shootin,2604
shop,2605
shopping,2606
shorts,2607
shorty,2608
shot,2609
shots,2610
should,2611
shouldn,2612
shout,2613
show,2614
showed,2615
shower,2616
showing,2617
showroom,2618
shows,2619
shox,2620
shred,2621
shut,2622
shutter,2623
shutting,2624
shytt,2625
sia,2626
sic,2627
sick,2628
sickkkkkkk,2629
side,2630
siding,2631
sign,2632
signed,2633
sike,2634
silent,2635
silly,2636
silver,2637
sim,2638
simon,2639
sims,2640
since,2641
sing,2642
singers,2643
singin,2644
singing,2645
single,2646
sir,2647
sister,2648
sisters,2649
sittin,2650
sitting,2651
six,2652
size,2653
skateboards,2654
skin,2655
skinnythoughts,2656
skip,2657
skips,2658
sky,2659
skype,2660
sleep,2661
sleeping,2662
sleepy,2663
sleeves,2664
slipping,2665
slow,2666
small,2667
smart,2668
smdh,2669
smell,2670
smh,2671
smile,2672
smith,2673
smooth,2674
snapback,2675
sneak,2676
sneakers,2677
snell,2678
snoring,2679
snot,2680
snowball,2681
snowday,2682
so,2683
sobber,2684
social,2685
socks,2686
softball,2687
software,2688
sold,2689
solid,2690
some,2691
somemore,2692
someone,2693
something,2694
sometimes,2695
son,2696
song,2697
songs,2698
sony,2699
soo,2700
soon,2701
sooo,2702
soooo,2703
sooooo,2704
soooooo,2705
sooooooooooo,2706
soooooooooooo,2707
sort,2708
sorta,2709
sought,2710
soul,2711
sound,2712
sounds,2713
soup,2714
space,2715
spain,2716
spam,2717
spammed,2718
spamming,2719
sparsedonedigit,2720
sparsedtwodigits,2721
spaziale,2722
speakers,2723
spears,2724
special,2725
speech,2726
speed,2727
spell,2728
spelling,2729
spend,2730
spent,2731
spidey,2732
spike,2733
spirits,2734
spite,2735
spoils,2736
sponsored,2737
sponsoring,2738
spotlite,2739
spots,2740
spray,2741
springfever,2742
squeeze,2743
st,2744
stadium,2745
staff,2746
stairs,2747
stalking,2748
stamps,2749
stand,2750
standing,2751
starbucks,2752
staring,2753
start,2754
started,2755
startin,2756
starting,2757
starts,2758
starving,2759
state,2760
states,2761
station,2762
stay,2763
stayed,2764
staying,2765
steal,2766
steeple,2767
stella,2768
step,2769
steps,2770
stereotype,2771
steve,2772
stick,2773
still,2774
stink,2775
stinkin,2776
stinks,2777
stockist,2778
stoked,2779
stole,2780
stolen,2781
stoned,2782
stop,2783
store,2784
stores,2785
story,2786
straighner,2787
strategicvoteparsedtwodigits,2788
strawberries,2789
street,2790
stressed,2791
stressful,2792
stressing,2793
strong,2794
strumpit,2795
strung,2796
stuck,2797
student,2798
students,2799
studio,2800
study,2801
studying,2802
studylink,2803
stuff,2804
stuffy,2805
stunning,2806
stunt,2807
stuntdoublecircus,2808
stupid,2809
stupidly,2810
style,2811
su,2812
subscription,2813
success,2814
such,2815
suck,2816
sucked,2817
sucker,2818
sucks,2819
sudden,2820
suites,2821
sultans,2822
sum,2823
sumbody,2824
summer,2825
summertime,2826
summit,2827
sun,2828
sunday,2829
sundayfunday,2830
sunny,2831
sunshine,2832
super,2833
superb,2834
supervisor,2835
support,2836
sure,2837
surprise,2838
surprised,2839
surprises,2840
surry,2841
suxx,2842
swag,2843
swear,2844
sweatpants,2845
sweats,2846
sweatshop,2847
sweep,2848
sweet,2849
sweetest,2850
sweetiez,2851
switch,2852
swype,2853
sydney,2854
sync,2855
syracuse,2856
system,2857
systems,2858
tab,2859
taco,2860
tad,2861
take,2862
taken,2863
takes,2864
taking,2865
tale,2866
talented,2867
talk,2868
talking,2869
talkshitgethit,2870
tammi,2871
tan,2872
tanya,2873
target,2874
taste,2875
tasting,2876
tattoo,2877
taurus,2878
tbqf,2879
tca,2880
tea,2881
teach,2882
teacher,2883
teaches,2884
team,2885
teamceltics,2886
teamgod,2887
teamilluminati,2888
teamladiphat,2889
tears,2890
tech,2891
techdays,2892
tee,2893
teeth,2894
tell,2895
tellin,2896
telling,2897
tells,2898
tempo,2899
terry,2900
test,2901
texas,2902
text,2903
texts,2904
tf,2905
tg,2906
th,2907
tha,2908
thailand,2909
than,2910
thank,2911
thankgod,2912
thanks,2913
thankz,2914
thanx,2915
that,2916
thats,2917
the,2918
theater,2919
theatre,2920
thefuck,2921
their,2922
thejoshdiogo,2923
thelasttimeichecked,2924
them,2925
themselves,2926
then,2927
therapy,2928
there,2929
these,2930
thesis,2931
thesteffiekayy,2932
thevoice,2933
they,2934
thierselfs,2935
thing,2936
things,2937
thingsthatshouldbebanned,2938
thingy,2939
think,2940
thinked,2941
thinking,2942
thinks,2943
thirst,2944
thirsty,2945
this,2946
thiz,2947
thnx,2948
tho,2949
those,2950
thou,2951
though,2952
thought,2953
thro,2954
through,2955
throughout,2956
tht,2957
thumbs,2958
thunder,2959
thxz,2960
ticket,2961
tickets,2962
tides,2963
tie,2964
tight,2965
till,2966
tim,2967
time,2968
timeline,2969
times,2970
tint,2971
tired,2972
tires,2973
tmrw,2974
to,2975
today,2976
todays,2977
together,2978
told,2979
tolerance,2980
tommm,2981
tomorrow,2982
tomorrowwww,2983
tonight,2984
tons,2985
too,2986
tooeazy_parsedonedigit,2987
took,2988
tool,2989
toothache,2990
top,2991
topoftheworld,2992
tops,2993
toronto,2994
totally,2995
tote,2996
touchpad,2997
town,2998
tracks,2999
tracksuit,3000
tragedy,3001
trail,3002
train,3003
trainers,3004
training,3005
trampoline,3006
trash,3007
travel,3008
treat,3009
treated,3010
trhumanist,3011
tried,3012
trip,3013
trips,3014
true,3015
trust,3016
truth,3017
try,3018
tryin,3019
tryina,3020
trying,3021
tryna,3022
trynna,3023
tshirt,3024
tsk,3025
tuition,3026
tune,3027
turfs,3028
turkey,3029
turn,3030
turns,3031
tv,3032
tvguide,3033
tweeple,3034
tweeps,3035
tweet,3036
tweetiepies,3037
tweety,3038
twice,3039
twitpic,3040
twitter,3041
twitters,3042
two,3043
twype,3044
tx,3045
tyler,3046
typing,3047
ubc,3048
ublewit,3049
ucla,3050
uga,3051
ugghh,3052
ugh,3053
ughh,3054
ughhh,3055
ugly,3056
uh,3057
uhgggg,3058
uhungry,3059
uk,3060
um,3061
under,3062
understand,3063
unexpected,3064
unfort,3065
unfortunate,3066
uni,3067
unidentical,3068
uniforms,3069
unique,3070
unite,3071
united,3072
universe,3073
until,3074
up,3075
upcoming,3076
update,3077
upgrading,3078
uploading,3079
upmost,3080
upp,3081
upparsedonedigit,3082
ups,3083
upset,3084
uqly,3085
ur,3086
urgh,3087
us,3088
usa,3089
use,3090
used,3091
useful,3092
useless,3093
user,3094
usiku,3095
using,3096
utterly,3097
vacation,3098
vaio,3099
valentine,3100
vanilla,3101
vapor,3102
ve,3103
vegas,3104
verified,3105
verizon,3106
version,3107
very,3108
via,3109
vibrant,3110
vid,3111
video,3112
videos,3113
view,3114
viewed,3115
vile,3116
vintage,3117
vip,3118
virtualization,3119
vision,3120
visit,3121
visuallyastounding,3122
vita,3123
vma,3124
vodka,3125
voice,3126
voices,3127
volume,3128
vote,3129
voted,3130
vows,3131
vs,3132
vuitton,3133
vwbug,3134
waaaaaayyyy,3135
wachin,3136
wade,3137
wahoo,3138
wait,3139
waiting,3140
waka,3141
wakemeupwhen,3142
waking,3143
walk,3144
walkin,3145
walking,3146
wallet,3147
wanna,3148
want,3149
wanted,3150
wants,3151
warm,3152
was,3153
wash,3154
washed,3155
wasn,3156
wasnt,3157
waste,3158
wasted,3159
wat,3160
watch,3161
watched,3162
watchin,3163
watching,3164
water,3165
watermelon,3166
wave,3167
way,3168
wayne,3169
ways,3170
we,3171
weak,3172
wear,3173
wearin,3174
wearing,3175
weather,3176
web,3177
webbie,3178
website,3179
webtv,3180
wed,3181
wedding,3182
wednesday,3183
wee,3184
week,3185
weekend,3186
weekends,3187
weeks,3188
weight,3189
weird,3190
welcome,3191
welfare,3192
well,3193
welovemaster,3194
wen,3195
wendys,3196
went,3197
were,3198
weren,3199
west,3200
western,3201
wet,3202
what,3203
whatever,3204
whathappenedtorealmovies,3205
whelp,3206
when,3207
where,3208
wherever,3209
whether,3210
which,3211
while,3212
whip,3213
white,3214
whitegirl,3215
whittle,3216
who,3217
whole,3218
whoop,3219
whore,3220
why,3221
whyaretheyspeakingspanish,3222
whyy,3223
wi,3224
wife,3225
wifey,3226
wii,3227
wiiware,3228
wild,3229
will,3230
willo,3231
win,3232
window,3233
windows,3234
wine,3235
winning,3236
wins,3237
winslet,3238
winter,3239
wired,3240
wireless,3241
wisconsin,3242
wish,3243
wishing,3244
wit,3245
with,3246
within,3247
without,3248
witnessed,3249
woman,3250
women,3251
womens,3252
won,3253
wonder,3254
wonderful,3255
wont,3256
woo,3257
woofwoofwoof,3258
wooh,3259
woohoo,3260
wool,3261
wooohhooo,3262
woot,3263
word,3264
words,3265
work,3266
worked,3267
workers,3268
workin,3269
working,3270
workout,3271
works,3272
world,3273
worse,3274
worst,3275
worstmovieever,3276
worstshoesever,3277
worth,3278
worthless,3279
would,3280
wouldn,3281
wouldnt,3282
wow,3283
wowww,3284
wpcla,3285
write,3286
writing,3287
wrong,3288
wrote,3289
wtchn,3290
wtf,3291
wuv,3292
xbox,3293
xd,3294
xfactor,3295
xmas,3296
xo,3297
xoxo,3298
xp,3299
xparsedtwodigits,3300
xperia,3301
xx,3302
xxxx,3303
ya,3304
yaas,3305
yaay,3306
yahoo,3307
yall,3308
yay,3309
yayayayayayyay,3310
yayy,3311
yea,3312
yeaa,3313
yeah,3314
yeahright,3315
year,3316
years,3317
yell,3318
yes,3319
yessir,3320
yesss,3321
yessss,3322
yesterday,3323
yet,3324
yeyeeee,3325
yikes,3326
yo,3327
yogurt,3328
yoh,3329
you,3330
youbetcha,3331
youcantdateme,3332
young,3333
younger,3334
your,3335
yours,3336
yourself,3337
youtube,3338
youuuuu,3339
yr,3340
yrs,3341
yu,3342
yum,3343
yummm,3344
yummy,3345
yup,3346
yuummy,3347
zaytoven,3348
zelda,3349
zilleville,3350
zone,3351
zoo,3352
zoom,3353
zouch,3354
zuckerberg,3355
zumba,3356
