__,0
___,1
____,2
_psparsedonedigit_,3
aaand,4
aaron,5
aau,6
ab,7
ability,8
able,9
absolute,10
absolutely,11
absurd,12
abt,13
abusing,14
abyone,15
acceptable,16
acceptance,17
account,18
achievement,19
achievements,20
act,21
acting,22
actingg,23
action,24
actors,25
acts,26
actually,27
addict,28
addicted,29
addidas,30
adding,31
adds,32
adele,33
adidas,34
adizero,35
admire,36
admit,37
adore,38
ads,39
adult,40
adulthood,41
adventvega,42
advert,43
af,44
afk,45
afraid,46
afternoon,47
againagain,48
againnnn,49
age,50
agent,51
ages,52
aggghhhhhhhhh,53
aggravated,54
ago,55
agree,56
agreed,57
ah,58
ahead,59
ahh,60
ahhh,61
ahhhhh,62
ahhhhhhhhhhhhhhhhhhhhh,63
aid,64
ain,65
aint,66
air,67
airing,68
airmax,69
airport,70
aisha,71
aka,72
al,73
alberta,74
album,75
albuquerque,76
alexandre,77
alexxx,78
alicia,79
alihartzell,80
allnighter,81
allowed,82
allpowerful,83
almunia,84
alpha,85
alrdy,86
alskdjalksdjaklsjdaklsjdlkasjdlkjasdlkasdjlkasjdalskdjlaskdj,87
amaze,88
amazing,89
amazinng,90
ambassador,91
america,92
americans,93
amp,94
anal,95
anatole,96
andrews,97
android,98
annette,99
anniv,100
announce,101
announcements,102
annoy,103
annoyed,104
annoying,105
anotherheadache,106
answer,107
answered,108
answers,109
anticpation,110
antm,111
antonio,112
anymore,113
anythingg,114
anyversary,115
anyways,116
apa_style,117
aparsedonedigit,118
apllo,119
app,120
apparently,121
apple,122
application,123
appreciate,124
appreciated,125
approximately,126
appt,127
april,128
apt,129
aqua,130
aquarius,131
arby,132
arcade,133
argh,134
arguing,135
armour,136
arms,137
arrested,138
arrivals,139
arrived,140
arsehole,141
arsenal,142
asap,143
ashamed,144
ashby,145
ashcroft,146
ashishh,147
ashworth,148
ask,149
asked,150
asks,151
asleep,152
asparagus,153
ass,154
assignments,155
assist,156
asx,157
asz,158
ate,159
athlete,160
athletes,161
atlanta,162
atlantic,163
atm,164
atpesummit,165
attached,166
attempting,167
attended,168
attitude,169
attraction,170
attractive,171
aubin,172
auction,173
audi,174
audio,175
august,176
aunt,177
auntee,178
av,179
aw,180
awake,181
award,182
awards,183
away,184
awesome,185
awesomeness,186
awesomest,187
awful,188
awhhbabies,189
awkward,190
awsome,191
aww,192
awww,193
axed,194
ayy,195
az,196
azn,197
azure,198
azz,199
babe,200
babies,201
baby,202
backs,203
bad,204
bae,205
bag,206
bahama,207
baked,208
bakersfield,209
bakery,210
ball,211
ballet,212
baltimore,213
baltimoregp,214
bananas,215
band,216
bands,217
bangs,218
bankers,219
bar,220
barbie,221
barcelona,222
bare,223
barley,224
barn,225
barry,226
bars,227
barton,228
baseball,229
based,230
basic,231
basics,232
bass,233
bastards,234
batteries,235
battery,236
battle,237
baylidonaldson,238
bbms,239
bbq,240
bc,241
bday,242
beardie,243
beat,244
beats,245
beautiful,246
bebeee,247
because_it,248
bed,249
bedd,250
beer,251
beg,252
begin,253
beginnersluck,254
bein,255
beinsinglesucks,256
bel,257
belated,258
belieber,259
beliefs,260
believe,261
bell,262
bella,263
belt,264
bench,265
benchmark,266
bernandez,267
best,268
bestfriend,269
bestfriends,270
bestnightever,271
bet,272
betchesluvthis,273
better,274
better_,275
beyonce,276
beyoncé,277
bf,278
bff,279
bid,280
bieber,281
big,282
bigbooty,283
biggest,284
bigggg,285
bigmove,286
bike,287
biker,288
bikini,289
bikinis,290
bing,291
bint,292
birds,293
birthday,294
birthdayy,295
bish,296
bit,297
bitch,298
bitches,299
bites,300
bizspark,301
bk,302
black,303
blackberries,304
blah,305
blame,306
blatant,307
bless,308
blessed,309
blessen,310
blessing,311
blew,312
bliev,313
blinkers,314
bliss,315
block,316
blocked,317
blocks,318
blondes,319
bloody,320
blow,321
blown,322
blue,323
bluesfest,324
blurghhhhh,325
bmg,326
body,327
bogart,328
bohemian,329
boise,330
bomb,331
bonus,332
boo,333
book,334
bookswithalettermissing,335
boonaa,336
boost,337
boot,338
boots,339
bored,340
boredwholedaynow,341
boring,342
borrow,343
bosses,344
bother,345
bothered,346
bottle,347
bought,348
bourbon,349
bout,350
bowl,351
bowling,352
bowral,353
box,354
boxing,355
boy,356
boys,357
boyz,358
bra,359
brag,360
braided,361
braincells,362
brainstorm,363
bran,364
brand,365
brandon,366
brandy,367
brave,368
bravia,369
break,370
breakfast,371
breaking,372
breath,373
bree,374
breeze,375
breezy,376
brekkie,377
brekky,378
bricks,379
bride,380
bridge,381
bright,382
brighter,383
brighton,384
brilliance,385
brilliant,386
bring,387
brisket,388
britney,389
bro,390
broke,391
broken,392
bronx,393
broo,394
brooke,395
brother,396
brought,397
brown,398
brownies,399
bruce,400
brush,401
brussels,402
bs,403
bsnl,404
bt,405
btw,406
bucks,407
budget,408
building,409
built,410
bullock,411
bulls,412
bullshit,413
bump,414
bumsuck,415
bun,416
bunch,417
burn,418
burnt,419
burr,420
bus,421
business,422
busted,423
busy,424
butimgettingthemanywaysfuckit,425
butt,426
butts,427
buy,428
buying,429
buys,430
bye,431
byebyesummer,432
cab,433
cadburys,434
caddykim,435
cake,436
calculates,437
called,438
calling,439
calls,440
cam,441
came,442
cameo,443
camera,444
cameraoxford,445
camp,446
campaign,447
canada,448
canadafail,449
canadians,450
candy,451
cannes,452
cape,453
captivate,454
car,455
carbon,456
card,457
cardiff,458
cardigan,459
cardio,460
care,461
cares,462
carolyn,463
carry,464
carter,465
carver,466
case,467
cashback,468
casj,469
casper,470
cast,471
castle,472
cat,473
catch,474
catching,475
cats,476
catwomanbytchz,477
caught,478
cause,479
cbeebies,480
cd,481
cdnjoke,482
cdnpoli,483
celebrate,484
celebrating,485
celebrity,486
celebs,487
celtics,488
centennial,489
center,490
centre,491
cents,492
century,493
cereal,494
certificate,495
cfl,496
chains,497
challenge,498
chance,499
chandler,500
chanel,501
change,502
changer,503
chapters,504
character,505
charge,506
charity,507
cheapo,508
check,509
checked,510
checking,511
cheese,512
cheryl,513
chesterunisummerball,514
chevy,515
chic,516
chicago,517
chicagomanual,518
chick,519
chicken,520
children,521
chill,522
chillin,523
chips,524
chocolate,525
chocolatecravingfail,526
choice,527
chokes,528
chokeyes,529
chose,530
chosen,531
chris,532
christ,533
christmas,534
chromeo,535
chuffed,536
church,537
ciggs,538
circumstances,539
ciric,540
cisco,541
citation,542
cities,543
city,544
civilization,545
cking,546
class,547
classes,548
classic,549
classy,550
cle,551
clef,552
client,553
clients,554
close,555
closer,556
closet,557
clothes,558
cloud,559
club,560
coach,561
coaches,562
coast,563
coasters,564
coco,565
code,566
coding,567
cody,568
coffee,569
coke,570
cold,571
cole,572
colinratushniak,573
collaboration,574
collar,575
collect,576
collecting,577
collection,578
colleg,579
college,580
cologne,581
color,582
colorado,583
colors,584
com,585
comb,586
combat,587
combine,588
combo,589
come,590
comedy,591
comes,592
comfy,593
comin,594
coming,595
commentator,596
comments,597
commercial,598
comming,599
commit,600
communicate,601
community,602
comp,603
company,604
compare,605
compared,606
comparison,607
compete,608
competition,609
competitors,610
complaining,611
complete,612
completely,613
complex,614
compliments,615
comprehensive,616
computer,617
computing,618
conclusion,619
conditions,620
conference,621
confused,622
congrats,623
congratulations,624
congress,625
connect,626
connection,627
connell,628
consideration,629
consoles,630
cont,631
contains,632
content,633
continue,634
continues,635
contour,636
contract,637
contracted,638
control,639
controller,640
convenient,641
convertible,642
convincing,643
convo,644
cook,645
cool,646
cooler,647
cooling,648
cop,649
copy,650
copyright,651
corgi,652
corgis,653
corolla,654
corporations,655
corvette,656
cos,657
cotton,658
couldn,659
count,660
counterfeit,661
counting,662
country,663
couple,664
course,665
courted,666
courtesy,667
cousin,668
covecrest,669
covered,670
coverseyes,671
cowell,672
coz,673
crackers,674
cramps,675
crap,676
crappy,677
crashed,678
crazy,679
crazyasshit,680
cream,681
creamy,682
created,683
creating,684
creative,685
credit,686
creep,687
creeped,688
creeps,689
crew,690
crewneck,691
cried,692
criminal,693
crosby,694
cross,695
crossing,696
crown,697
cru,698
crunchy,699
crush,700
ctfxc,701
cultural,702
cunt,703
cup,704
cups,705
curly,706
current,707
currys,708
curve,709
cus,710
customers,711
customized,712
cut,713
cute,714
cuz,715
cyber,716
cycling,717
cyprus,718
da,719
dad,720
daddies,721
daddy,722
dads,723
dalaman,724
dallas,725
dam,726
damage,727
dame,728
damien,729
dammit,730
damn,731
damnit,732
damnn,733
damnnnn,734
danced,735
dancemoms,736
dances,737
dancing,738
dang,739
danger,740
dangerous,741
daniel,742
dare,743
dark,744
darling,745
dat,746
date,747
dats,748
dave,749
david,750
davis,751
dawn,752
day,753
days,754
dayz,755
db,756
dc,757
dcfabb,758
dd,759
ddddd,760
dead,761
deal,762
dear,763
dearfuturehusband,764
death,765
deathh,766
debuts,767
decade,768
decades,769
decemeber,770
decided,771
decides,772
decision,773
decisions,774
deck,775
dedicate,776
deep,777
def,778
definately,779
definite,780
definitely,781
deizydoesit,782
delete,783
deleting,784
delighted,785
delivered,786
delivering,787
dell,788
dellstreak,789
dem,790
demo,791
demon,792
dentist,793
deny,794
deposition,795
depressed,796
depression,797
derrick,798
deserved,799
design,800
desktop,801
despise,802
dessert,803
destiny,804
destroyswaggerville,805
destruction,806
desvers,807
details,808
detective,809
determined,810
devastated,811
developing,812
devices,813
diamond,814
dictionary,815
did,816
didn,817
didnt,818
die,819
died,820
difference,821
difficult,822
dig,823
diners,824
ding,825
dinner,826
dinosaurs,827
direction,828
directly,829
dirtbiking,830
dirty,831
dis,832
disappointed,833
disconnected,834
discontent,835
discontinued,836
diseaz,837
disgusted,838
disgusting,839
disgustingg,840
dislike,841
disliking,842
dissapointed,843
disturbed,844
ditching,845
dive,846
divine,847
diz,848
dj,849
dk,850
dkny,851
dmca,852
dnt,853
doctors,854
does,855
doesn,856
doesnt,857
dog,858
dogs,859
doing,860
dollar,861
dollars,862
dolphin,863
don,864
dong,865
donkey,866
dont,867
dontknowhowilivedwithoutit,868
donuts,869
doo,870
doodlejump,871
door,872
dope,873
dora,874
dots,875
double,876
doubletree,877
douche,878
doula,879
downloaded,880
downloadin,881
downstairs,882
downtown,883
draft,884
drag,885
dragu,886
drake,887
drama,888
drawing,889
dream,890
dreamcar,891
dreamed,892
dreams,893
dress,894
drew,895
dri,896
drink,897
drive,898
driving,899
droid,900
drop,901
dropped,902
drove,903
drs,904
drunk,905
drunken,906
dry,907
ds,908
dublin,909
ducks,910
dude,911
dull,912
dum,913
dumb,914
dump,915
dun,916
dunks,917
dusted,918
duty,919
dwts,920
dying,921
eachother,922
eagles,923
ear,924
earbuds,925
early,926
earth,927
easier,928
easily,929
easilyentertained,930
easter,931
eat,932
eaten,933
eatin,934
eating,935
eats,936
ebay,937
eclipse,938
ect,939
ed,940
edward,941
effective,942
effectively,943
effort,944
ego,945
eightyville,946
el,947
eleavator,948
elected,949
elegant,950
elevator,951
em,952
email,953
embarrassed,954
embarrassing,955
emerged,956
emi,957
emotionally,958
emotions,959
employed,960
employee,961
end,962
ended,963
energy,964
engine,965
enjoy,966
enjoyed,967
enjoyin,968
enjoying,969
enormous,970
entertaining,971
entertainment,972
entire,973
entitled,974
enuff,975
eparsedonedigit,976
eparsedonedigitongparsedonedigit,977
epic,978
episode,979
eric,980
ericson,981
ericsson,982
eshop,983
essay,984
estate,985
etsy,986
etsykids,987
eurgh,988
euros,989
eve,990
evening,991
evenings,992
event,993
eventful,994
events,995
everrr,996
everybody,997
everyday,998
everygirl,999
everyparsedonedigit,1000
everythiiiing,1001
everytime,1002
evil,1003
evileye,1004
ex,1005
exactly,1006
exam,1007
excell,1008
excited,1009
exciting,1010
exclusive,1011
executive,1012
exhausted,1013
exhausting,1014
exhibit,1015
exicited,1016
exparsedthreedigitsslb,1017
expect,1018
expected,1019
expensive,1020
expertise,1021
experts,1022
explorer,1023
explorers,1024
express,1025
extremely,1026
exxxxxxxxxxxxcited,1027
eye,1028
eyes,1029
ezurbanvibe,1030
fa,1031
fab,1032
fabb,1033
fabulous,1034
facbook,1035
face,1036
facebook,1037
fack,1038
fact,1039
factor,1040
fading,1041
fagbag,1042
fage,1043
fail,1044
fair,1045
fairly,1046
fake,1047
fall,1048
fallen,1049
falling,1050
fam,1051
family,1052
fan,1053
fans,1054
fantastic,1055
fantasticfest,1056
far,1057
fares,1058
fashion,1059
fast,1060
fastandfurious,1061
fat,1062
fatale,1063
father,1064
fav,1065
fave,1066
favorite,1067
fb,1068
fbr,1069
fcukin,1070
feather,1071
fed,1072
federal,1073
fedex,1074
feel,1075
feeling,1076
feels,1077
feet,1078
fell,1079
felt,1080
females,1081
femme,1082
fendi,1083
festival,1084
fev,1085
fever,1086
ff,1087
ffc,1088
ffffff,1089
ffs,1090
fi,1091
fiat,1092
fiber,1093
fieldtrip,1094
fight,1095
figure,1096
figured,1097
filled,1098
film,1099
filming,1100
fin,1101
final,1102
finale,1103
finally,1104
finding,1105
fine,1106
finish,1107
finished,1108
finna,1109
fish,1110
fishin,1111
fishing,1112
fist,1113
fit,1114
fkn,1115
flags,1116
flash,1117
flauge,1118
flava,1119
flex,1120
flies,1121
flight,1122
flipping,1123
flocka,1124
floor,1125
florida,1126
fml,1127
foams,1128
focal,1129
focus,1130
follow,1131
followback,1132
followers,1133
followfriday,1134
following,1135
followme,1136
fone,1137
food,1138
foodstamps,1139
fools,1140
foosball,1141
foot,1142
football,1143
footlocker,1144
ford,1145
foreigners,1146
forever,1147
forget,1148
forgot,1149
forgotten,1150
fort,1151
forward,1152
foul,1153
founding,1154
foward,1155
fox,1156
franco,1157
frands,1158
frateran,1159
freaken,1160
freaking,1161
free,1162
freestyle,1163
freezer,1164
french,1165
fresh,1166
fresher,1167
friday,1168
frie,1169
fried,1170
friend,1171
friendly,1172
friends,1173
friggin,1174
frigid,1175
frm,1176
frowns,1177
froyo,1178
froze,1179
frustrated,1180
fry,1181
ft,1182
fu,1183
fuck,1184
fuckbing,1185
fucked,1186
fucken,1187
fuckin,1188
fucking,1189
fuckoff,1190
fuckyousummit,1191
fuel,1192
fuk,1193
fully,1194
fun,1195
funding,1196
fundraising,1197
funeral,1198
funn,1199
funnelicious,1200
funny,1201
funparsedthreedigits,1202
future,1203
fuzzy,1204
fxcking,1205
gaga,1206
gala,1207
galaxy,1208
game,1209
gameon,1210
gamerface,1211
games,1212
gamestop,1213
gangsta,1214
garage,1215
gators,1216
gave,1217
gaveuponhim,1218
gay,1219
gayy,1220
gd,1221
geared,1222
gelato,1223
general,1224
genius,1225
genre,1226
gentleman,1227
genuine,1228
georgia,1229
getalife,1230
geting,1231
gets,1232
getsonmynerves,1233
gettin,1234
getting,1235
gettn,1236
ghetto,1237
gift,1238
gifts,1239
gig,1240
giggle,1241
gingrich,1242
giraffe,1243
girl,1244
girlfriend,1245
girlies,1246
girls,1247
gives,1248
giving,1249
glad,1250
glasses,1251
glee,1252
glen,1253
glorious,1254
glory,1255
gloves,1256
goa,1257
goal,1258
goals,1259
goblue,1260
god,1261
godblessbullies,1262
goddamn,1263
goes,1264
goin,1265
going,1266
gojackets,1267
gojesus,1268
gold,1269
gon,1270
gonb,1271
gone,1272
gonna,1273
goo,1274
good,1275
goodbyes,1276
goodgame,1277
goodness,1278
goodnight,1279
goodwill,1280
goofd,1281
google,1282
gorgeous,1283
got,1284
gotta,1285
gotti,1286
gourmet,1287
gps,1288
grab,1289
grace,1290
gracieglam,1291
graduated,1292
grafiks,1293
graph,1294
grateful,1295
gray,1296
grease,1297
great,1298
greatday,1299
greater,1300
greatest,1301
greatestgadgets,1302
greatfull,1303
greek,1304
green,1305
gritting,1306
grounds,1307
grow,1308
grown,1309
grparsedonedigit,1310
grrr,1311
grrrr,1312
grrrrr,1313
grrrrrr,1314
grrrrrrrrrrrr,1315
gt,1316
gteparsedonedigit,1317
guards,1318
gucci,1319
gud,1320
guess,1321
guessing,1322
guessssszz,1323
guilty,1324
gum,1325
gunna,1326
gutted,1327
guy,1328
guys,1329
gym,1330
haaay,1331
haaha,1332
hack,1333
hacks,1334
hadn,1335
haha,1336
hahaha,1337
hahahahaha,1338
hahahahahahaha,1339
hair,1340
half,1341
halfrim,1342
halfway,1343
hall,1344
halo,1345
hamilton,1346
hancock,1347
handle,1348
hands,1349
handycam,1350
hang,1351
hangin,1352
hanging,1353
hankito,1354
happen,1355
happened,1356
happening,1357
happens,1358
happier,1359
happiest,1360
happpy,1361
happy,1362
happytweet,1363
harary,1364
hard,1365
harder,1366
hardest,1367
hardtime,1368
harrisburg,1369
harry,1370
hart,1371
harvey,1372
hasn,1373
hate,1374
haunted,1375
haven,1376
havent,1377
having,1378
hawaiian,1379
hawk,1380
hcr,1381
hd,1382
head,1383
headache,1384
heading,1385
headlamp,1386
headphones,1387
heads,1388
healthy,1389
hear,1390
heard,1391
hearing,1392
heart,1393
heartfelt,1394
heat,1395
heated,1396
heathrowe,1397
heaven,1398
heavily,1399
heels,1400
hehehe,1401
helicopter,1402
hell,1403
hella,1404
hellaclean,1405
helllooooooo,1406
hello,1407
help,1408
heritage,1409
hero,1410
heroine,1411
herooo,1412
herr,1413
hey,1414
hi,1415
high,1416
highlanders,1417
highlights,1418
hilarious,1419
hill,1420
hills,1421
hilton,1422
history,1423
hit,1424
hitting,1425
hmmm,1426
hobby,1427
hockey,1428
hoe,1429
hoff,1430
hold,1431
holiday,1432
hollywood,1433
holy,1434
hom,1435
home,1436
homework,1437
homie,1438
homo,1439
honestly,1440
honey,1441
hoodnight,1442
hookah,1443
hoop,1444
hoops,1445
hooray,1446
hoosier,1447
hope,1448
hopefully,1449
hopes,1450
hoping,1451
horny,1452
horrible,1453
horribly,1454
horrid,1455
hospital,1456
host,1457
hostel,1458
hot,1459
hotel,1460
hotels,1461
hotmail,1462
hott,1463
hour,1464
hours,1465
house,1466
howard,1467
hse,1468
htc,1469
http,1470
huge,1471
huh,1472
hump,1473
humphrey,1474
hungry,1475
hurricane,1476
hurrryyy,1477
hurry,1478
hurt,1479
hurts,1480
husband,1481
hut,1482
hutch,1483
hype,1484
hypertension,1485
icahn,1486
icanhonestlysay,1487
ice,1488
id,1489
idc,1490
idea,1491
ideas,1492
identity,1493
idiot,1494
idk,1495
idmas,1496
ieparsedonedigit,1497
ife,1498
ignorant,1499
ihatenewtwitter,1500
ii,1501
iits,1502
ikea,1503
ikr,1504
ill,1505
ilove,1506
iloveyou,1507
im,1508
imac,1509
imitation,1510
imma,1511
immense,1512
impossible,1513
impressed,1514
impression,1515
inappropriatefuneralsongs,1516
incarnation,1517
inclined,1518
incompetent,1519
inconsiderate,1520
indies,1521
industry,1522
indycar,1523
infected,1524
infection,1525
inferior,1526
info,1527
information,1528
infuse,1529
injunction,1530
inkredible_k_,1531
inlove,1532
inn,1533
insane,1534
insanicast,1535
inside,1536
insightful,1537
insoles,1538
inspired,1539
inspiring,1540
instead,1541
instinct,1542
instructions,1543
intense,1544
interesting,1545
intern,1546
internap,1547
internet,1548
internets,1549
invitation,1550
invitational,1551
invite,1552
involved,1553
iowa,1554
ipad,1555
iphone,1556
ipod,1557
ips,1558
irritated,1559
island,1560
isn,1561
isnt,1562
isolation,1563
issue,1564
issues,1565
itage,1566
itellyou,1567
ithinkweredonehere,1568
itouch,1569
itunes,1570
iwannago,1571
iwannagodney,1572
iwantmybed,1573
iyiyi,1574
iz,1575
jabs,1576
jack,1577
jacket,1578
jah,1579
jail,1580
james,1581
jamin,1582
jaminn,1583
janet,1584
jazz,1585
jazziisstilldumb,1586
jazzmines,1587
jeans,1588
jedward,1589
jeggings,1590
jennette,1591
jerks,1592
jerseys,1593
jerzday,1594
jesus,1595
jetsuite,1596
jhb,1597
jingle,1598
jit,1599
job,1600
joey,1601
johnny,1602
joke,1603
jokes,1604
joyous,1605
jump,1606
jus,1607
juss,1608
just,1609
justify,1610
justin,1611
justsaying,1612
kalli,1613
kanye,1614
kardashian,1615
kardashians,1616
karmasabitch,1617
kat,1618
kate,1619
kathy,1620
katie,1621
keeping,1622
kelly,1623
ken,1624
kentucky,1625
kevin,1626
key,1627
keyboard,1628
keys,1629
kfc,1630
khadse,1631
khaki,1632
kia,1633
kick,1634
kicked,1635
kicking,1636
kicks,1637
kid,1638
kids,1639
kill,1640
killah,1641
killed,1642
killer,1643
killian,1644
killing,1645
kim,1646
kind,1647
kinda,1648
kinderbueno,1649
kinect,1650
king,1651
kingsley,1652
kink,1653
kiss,1654
kitchen,1655
kits,1656
kjeanbyrne,1657
knew,1658
know,1659
known,1660
knows,1661
knw,1662
kreayshawn,1663
kris,1664
kristen,1665
krystal,1666
kudostoyou,1667
kumaran,1668
kwai,1669
la,1670
lab,1671
labor,1672
labs,1673
labtops,1674
ladies,1675
lady,1676
ladycisca,1677
ladygaga,1678
lakers,1679
lakeshow,1680
lame,1681
landlord,1682
landlordhell,1683
lap,1684
laptop,1685
laptops,1686
large,1687
larry,1688
las,1689
lasr,1690
lasted,1691
lastnight,1692
late,1693
lately,1694
later,1695
latin,1696
latonya,1697
laugh,1698
laughed,1699
launch,1700
launched,1701
laundry,1702
laura,1703
laurgro,1704
lauristons,1705
law,1706
lay,1707
layin,1708
laying,1709
layla,1710
lazier,1711
lazy,1712
leaders,1713
leadershipsafariparsedonedigitkparsedtwodigits,1714
leak,1715
leaks,1716
learn,1717
learnt,1718
leave,1719
leaving,1720
lebron,1721
lecture,1722
lecturing,1723
left,1724
legally,1725
legend,1726
legit,1727
leisure,1728
lemans,1729
lemars,1730
let,1731
lets,1732
letter,1733
letting,1734
lewis,1735
lex,1736
libra,1737
library,1738
libs,1739
liee,1740
life,1741
lifecomesatyoufast,1742
lift,1743
light,1744
lights,1745
liike,1746
like,1747
liked,1748
likeeee,1749
likes,1750
liking,1751
lil,1752
line,1753
lines,1754
ling,1755
linkedin,1756
liquor,1757
lismore,1758
listen,1759
listened,1760
listeners,1761
listening,1762
literally,1763
little,1764
liv,1765
live,1766
liverpool,1767
living,1768
ll,1769
lli,1770
lloyd,1771
lmao,1772
lmfao,1773
lmfaoo,1774
lmfaooo,1775
loafers,1776
local,1777
lock,1778
locked,1779
lofty,1780
log,1781
logic,1782
lol,1783
london,1784
londonriots,1785
lonely,1786
long,1787
longdayahead,1788
longer,1789
look,1790
looked,1791
lookin,1792
looking,1793
looks,1794
loooool,1795
looove,1796
lose,1797
losin,1798
losing,1799
lost,1800
lot,1801
lots,1802
loui,1803
louie,1804
louis,1805
lounge,1806
love,1807
lovechicago,1808
loved,1809
lovee,1810
loveeee,1811
lovely,1812
lovemyjob,1813
loveoutletmalls,1814
lover,1815
loves,1816
lovethem,1817
lovin,1818
loving,1819
lovvvvve,1820
low,1821
lowepro,1822
lower,1823
loyal,1824
lp,1825
lt,1826
lts,1827
luca,1828
lucas,1829
luck,1830
lucky,1831
luger,1832
lunch,1833
lunchtime,1834
lungs,1835
luv,1836
luvs,1837
lyin,1838
ma,1839
mac,1840
macbook,1841
machine,1842
mad,1843
maddens,1844
maestro,1845
mag,1846
magic,1847
mags,1848
mah,1849
maid,1850
mail,1851
main,1852
maintain,1853
make,1854
makes,1855
makeup,1856
makeupbymario,1857
makeyourself,1858
makin,1859
making,1860
mall,1861
mam,1862
mama,1863
man,1864
manage,1865
mane,1866
manga,1867
manhattan,1868
mansion,1869
manuel,1870
maps,1871
marathon,1872
marathong,1873
marching,1874
marilyn,1875
mariners,1876
mario,1877
mark,1878
market,1879
maro,1880
marshmellows,1881
martin,1882
martini,1883
marty,1884
maryland,1885
mass,1886
massage,1887
match,1888
material,1889
materializes,1890
mates,1891
math,1892
matter,1893
mature,1894
max,1895
maxes,1896
maxin,1897
maybe,1898
mayhem,1899
maynor,1900
mazing,1901
mbfw,1902
mccartney,1903
mcdonalds,1904
mcflurry,1905
mcfly,1906
mdr,1907
meadows,1908
mean,1909
meaning,1910
mechanical,1911
media,1912
mediocrity,1913
meebo,1914
meet,1915
meeting,1916
meetings,1917
melody,1918
melted,1919
member,1920
members,1921
memorable,1922
memory,1923
memphisfact,1924
men,1925
menchies,1926
menlyn,1927
mental,1928
mentor,1929
merchandising,1930
merry,1931
messages,1932
messed,1933
messenger,1934
met,1935
metroid,1936
mfs,1937
mgmt,1938
mi,1939
miami,1940
michael,1941
michaelmyersatd,1942
michellebachmann,1943
microsoft,1944
microwave,1945
middle,1946
middlefingerseverywhere,1947
midget,1948
midnight,1949
midwest,1950
migraines,1951
migrainessuck,1952
mii,1953
mike,1954
mile,1955
miles,1956
milk,1957
million,1958
min,1959
mind,1960
miner,1961
mines,1962
mini,1963
mins,1964
minute,1965
minuteclinic,1966
minutes,1967
mis,1968
miss,1969
missed,1970
missing,1971
missthatshow,1972
mistake,1973
mistakes,1974
mmm,1975
mmmmm,1976
mmmmmm,1977
mobile,1978
mobileme,1979
model,1980
moderate,1981
mohammed,1982
mom,1983
moment,1984
momma,1985
moms,1986
mon,1987
monday,1988
mondays,1989
money,1990
monin,1991
monster,1992
montage,1993
month,1994
months,1995
mood,1996
moon,1997
moretweetsaboutfood,1998
morgan,1999
morgannnnnnnnn,2000
morning,2001
mornings,2002
morons,2003
mothafuckas,2004
mother,2005
mothers,2006
moths,2007
mountain,2008
moved,2009
movie,2010
moving,2011
mr,2012
mrmeatnuggets,2013
ms,2014
msc,2015
msp,2016
msuic,2017
mtg,2018
mtl,2019
mtv,2020
muchappreciatedinfo,2021
mucho,2022
mucus,2023
multi,2024
mum,2025
muppets,2026
murderdrome,2027
murray,2028
murs,2029
museo,2030
music,2031
musical,2032
mustache,2033
mustaches,2034
mutt,2035
mvp,2036
mwema,2037
mylilkitchenlab,2038
mynichols,2039
na,2040
nails,2041
nakutamani,2042
named,2043
nancy,2044
nando,2045
nap,2046
nasally,2047
nashville,2048
nasty,2049
natalie,2050
nation,2051
nations,2052
naturally,2053
nature,2054
nauseous,2055
navi,2056
nawl,2057
nazi,2058
nbd,2059
ncaasoftball,2060
nd,2061
neat,2062
necklace,2063
need,2064
needed,2065
needs,2066
neighbor,2067
neighborhood,2068
neighbors,2069
nemesis,2070
nerve,2071
nes,2072
netbook,2073
netflix,2074
network,2075
networks,2076
neva,2077
nevea,2078
new,2079
news,2080
newt,2081
nexuss,2082
nf,2083
ngp,2084
nice,2085
nicer,2086
niche,2087
nick,2088
nickelodeon,2089
nicki,2090
nicks,2091
nicky,2092
nickyruddparsedtwodigits,2093
nigga,2094
niggas,2095
niggaz,2096
night,2097
nighters,2098
nightmares,2099
nights,2100
nightttttt,2101
nike,2102
nikes,2103
nikita,2104
nikki,2105
ninja,2106
nintendo,2107
niqqas,2108
nite,2109
njoy,2110
nodeadlinestoday,2111
nofatgirls,2112
noir,2113
nola,2114
nominate,2115
nomination,2116
non,2117
nonebesideyou,2118
noooooo,2119
nordy,2120
normal,2121
northeast,2122
nose,2123
notcool,2124
notgraceful,2125
notify,2126
nova,2127
novels,2128
nparsedonedigitg,2129
nparsedthreedigits,2130
nuff,2131
number,2132
numbers,2133
nvidia,2134
ny,2135
nyan,2136
nyc,2137
nycearthquakeparsedfourdigits,2138
nz,2139
o_o,2140
o_parsedonedigit,2141
obama,2142
obsessed,2143
obviously,2144
oct,2145
odd,2146
oddparents,2147
odvy,2148
offered,2149
offering,2150
offers,2151
office,2152
officeparsedthreedigits,2153
official,2154
officially,2155
oft,2156
oh,2157
ohcarolina,2158
ohh,2159
ohkay,2160
ok,2161
okay,2162
okayy,2163
ol,2164
old,2165
oldbridge,2166
older,2167
olly,2168
olot,2169
olympian,2170
omg,2171
omgyouteen,2172
omnia,2173
onam,2174
oneofthealltimegreats,2175
ones,2176
online,2177
oof,2178
ooo,2179
oooh,2180
ooooooo,2181
open,2182
opening,2183
opera,2184
opinions,2185
opportunities,2186
optiek,2187
order,2188
ordered,2189
ordinace,2190
oregon,2191
oreo,2192
oreos,2193
original,2194
orland,2195
orlando,2196
os,2197
oth,2198
ottawa,2199
ouo,2200
outdoors,2201
outfit,2202
outlet,2203
outrage,2204
outside,2205
outstretched,2206
oval,2207
ovens,2208
overall,2209
overc,2210
overcome,2211
overcomers,2212
overflows,2213
owner,2214
owns,2215
oy,2216
packed,2217
packing,2218
pad,2219
page,2220
paid,2221
pain,2222
paint,2223
pair,2224
palm,2225
palmer,2226
pants,2227
pao,2228
papa,2229
paparazzie,2230
paper,2231
papers,2232
parenthood,2233
parents,2234
paris,2235
park,2236
parking,2237
parseddigits,2238
parseddigitshrs,2239
parseddigitss,2240
parseddigitsth,2241
parsedfivedigits,2242
parsedfivedigitsth,2243
parsedfourdigits,2244
parsedonedigit,2245
parsedonedigitam,2246
parsedonedigitday,2247
parsedonedigitds,2248
parsedonedigiter,2249
parsedonedigitg,2250
parsedonedigitgot,2251
parsedonedigitgs,2252
parsedonedigitk,2253
parsedonedigitmi,2254
parsedonedigitmp,2255
parsedonedigitnd,2256
parsedonedigitnite,2257
parsedonedigitpay,2258
parsedonedigitrd,2259
parsedonedigitst,2260
parsedonedigitth,2261
parsedonedigittoparsedtwodigits,2262
parsedonedigitx,2263
parsedsixdigits,2264
parsedthreedigits,2265
parsedthreedigitsb,2266
parsedtime,2267
parsedtwodigits,2268
parsedtwodigitsk,2269
parsedtwodigitsmphunder,2270
parsedtwodigitspeopleidmarry,2271
parsedtwodigitsth,2272
parsedtwodigitsthjinnieday,2273
participants,2274
partner,2275
partners,2276
parts,2277
party,2278
passed,2279
passes,2280
passing,2281
passwords,2282
past,2283
pasta,2284
paste,2285
patent,2286
patience,2287
patient,2288
pattom,2289
pauly,2290
pbs,2291
pc,2292
pda,2293
peak,2294
pee,2295
pencils,2296
penn,2297
people,2298
perez,2299
perfect,2300
perform,2301
performing,2302
permission,2303
person,2304
personable,2305
personality,2306
persuing,2307
petsitting,2308
pfffft,2309
phase,2310
phat,2311
phd,2312
phew,2313
phone,2314
photo,2315
photographing,2316
physical,2317
physically,2318
pic,2319
picasso,2320
pick,2321
picked,2322
pics,2323
picture,2324
pictures,2325
pie,2326
piece,2327
pieces,2328
pierreopperman,2329
piers,2330
pifco,2331
pig,2332
pike,2333
pile,2334
pipeline,2335
pissed,2336
pisses,2337
pissin,2338
pizza,2339
place,2340
places,2341
plan,2342
planned,2343
planning,2344
plans,2345
platform,2346
play,2347
playa,2348
played,2349
player,2350
playing,2351
plays,2352
pleased,2353
pledge,2354
pls,2355
plus,2356
plzzzzz,2357
pmcq,2358
pnc,2359
point,2360
pointless,2361
points,2362
political,2363
polka,2364
poll,2365
pool,2366
pooped,2367
poor,2368
popular,2369
portal,2370
ported,2371
positive,2372
possession,2373
possible,2374
possibly,2375
post,2376
posted,2377
posters,2378
posting,2379
potatoes,2380
potential,2381
potter,2382
pouch,2383
pow,2384
power,2385
powerpoint,2386
ppcclassroom,2387
ppl,2388
ppls,2389
practice,2390
prada,2391
pradaa,2392
pray,2393
prayer,2394
praying,2395
pre,2396
pregnant,2397
prepare,2398
pres,2399
preseason,2400
presented,2401
president,2402
press,2403
pressure,2404
presume,2405
pretty,2406
preview,2407
previous,2408
price,2409
priceless,2410
prices,2411
primark,2412
princess,2413
principles,2414
print,2415
printer,2416
pro,2417
prob,2418
probably,2419
problem,2420
problems,2421
probs,2422
proceeds,2423
prod,2424
product,2425
products,2426
profesh,2427
professional,2428
professors,2429
profile,2430
program,2431
programs,2432
progressive,2433
project,2434
prolly,2435
promise,2436
properly,2437
properties,2438
protection,2439
proud,2440
proudly,2441
provided,2442
providing,2443
prudence,2444
ps,2445
psn,2446
psparsedonedigit,2447
psvita,2448
psyched,2449
ptparsedonedigit,2450
pts,2451
pudding,2452
pukes,2453
pull,2454
puma,2455
pumped,2456
punch,2457
punk,2458
purchase,2459
purchased,2460
purchases,2461
purdue,2462
pure,2463
purple,2464
purse,2465
putting,2466
puzzle,2467
qanda,2468
qpr,2469
qualified,2470
quality,2471
quarantine,2472
queen,2473
questionoftheday,2474
questions,2475
quickly,2476
quinn,2477
quite,2478
quiz,2479
race,2480
racers,2481
rachel,2482
rack,2483
radio,2484
radioooooooo,2485
rain,2486
raindeers,2487
rainy,2488
raising,2489
ran,2490
ranked,2491
rant,2492
rap,2493
rapper,2494
rapter,2495
raul,2496
rbc,2497
read,2498
reader,2499
reading,2500
ready,2501
real,2502
realigning,2503
reality,2504
realize,2505
realized,2506
really,2507
realy,2508
reason,2509
reasons,2510
received,2511
reciprocate,2512
recommend,2513
recommendation,2514
red,2515
redvelvet,2516
reformatted,2517
refs,2518
registered,2519
registering,2520
regret,2521
regrets,2522
rehearsallyfe,2523
reinlove,2524
reinstall,2525
reinstalling,2526
relationship,2527
relax,2528
relaxin,2529
release,2530
released,2531
releasing,2532
reliable,2533
religious,2534
relying,2535
remains,2536
remember,2537
remembering,2538
remind,2539
reminds,2540
remix,2541
remote,2542
removed,2543
remy,2544
rendering,2545
renewal,2546
renewed,2547
renewing,2548
rentign,2549
replica,2550
reply,2551
report,2552
reported,2553
reportedly,2554
represent,2555
repulsive,2556
request,2557
rescue,2558
researching,2559
reservations,2560
resort,2561
respect,2562
respond,2563
response,2564
rest,2565
restoration,2566
retailers,2567
retire,2568
return,2569
returning,2570
retweet,2571
reversible,2572
revision,2573
revolves,2574
rhapsody,2575
rhythms,2576
rich,2577
richard,2578
rick,2579
rid,2580
ride,2581
riders,2582
ridiculousness,2583
rife,2584
right,2585
rights,2586
rihanna,2587
ring,2588
riots,2589
ripped,2590
risf,2591
ritz,2592
river,2593
road,2594
roads,2595
rock,2596
rockband,2597
rocked,2598
rockem,2599
rockin,2600
rocko,2601
rocks,2602
rod,2603
rode,2604
role,2605
rolex,2606
roll,2607
roller,2608
rollin,2609
romance,2610
rome,2611
roof,2612
rookie,2613
room,2614
roomie,2615
roomies,2616
roommate,2617
rooms,2618
root,2619
rope,2620
rose,2621
routine,2622
row,2623
rparsedonedigit,2624
rrb,2625
rt,2626
rub,2627
rubbn,2628
rude,2629
ruin,2630
ruining,2631
rule,2632
rules,2633
run,2634
runied,2635
running,2636
ryach,2637
sac,2638
sad,2639
saddens,2640
safe,2641
safely,2642
said,2643
saints,2644
salad,2645
sale,2646
sales,2647
salif,2648
salle,2649
saltwater,2650
samantha,2651
samsung,2652
samsungsmarttv,2653
samsungsupport,2654
samuel,2655
sandals,2656
sandra,2657
santa,2658
satisfying,2659
saturday,2660
sauder,2661
save,2662
saved,2663
saw,2664
say,2665
sayin,2666
says,2667
sbsca,2668
scale,2669
scams,2670
scared,2671
scarf,2672
scedules,2673
schedule,2674
school,2675
science,2676
scooby,2677
scored,2678
scores,2679
scorpio,2680
scotland,2681
scream,2682
screaming,2683
screen,2684
screw,2685
screwed,2686
scruf,2687
sean,2688
search,2689
seashells,2690
season,2691
seattle,2692
second,2693
seconds,2694
secure,2695
security,2696
seedless,2697
seeing,2698
seen,2699
seeya,2700
selfish,2701
sell,2702
selling,2703
sellouts,2704
semester,2705
semi,2706
send,2707
sending,2708
september,2709
sequence,2710
series,2711
seriously,2712
seriouslyy,2713
serve,2714
server,2715
service,2716
session,2717
set,2718
settings,2719
settling,2720
severely,2721
sexiest,2722
sexy,2723
sh,2724
shabby,2725
shades,2726
shame,2727
shants,2728
shape,2729
shaqs,2730
share,2731
sharp,2732
sharpies,2733
shave,2734
shees,2735
sheesh,2736
shes,2737
shifter,2738
shiny,2739
shipping,2740
shirt,2741
shirts,2742
shit,2743
shithead,2744
shitting,2745
sho,2746
shock,2747
shoddy,2748
shoe,2749
shoes,2750
shoetweets,2751
shoot,2752
shootin,2753
shootout,2754
shop,2755
shopping,2756
shorts,2757
shorty,2758
shot,2759
shots,2760
shouldn,2761
shout,2762
shouting,2763
showed,2764
shower,2765
showing,2766
showroom,2767
shows,2768
shox,2769
shred,2770
shut,2771
shutter,2772
shutting,2773
shytt,2774
sia,2775
sic,2776
sick,2777
sickkkkkkk,2778
siding,2779
sigh,2780
sign,2781
signed,2782
signs,2783
sike,2784
silent,2785
silly,2786
silver,2787
sim,2788
simon,2789
sims,2790
sing,2791
singers,2792
singin,2793
singing,2794
single,2795
sir,2796
sister,2797
sisters,2798
sittin,2799
sitting,2800
size,2801
skateboards,2802
skin,2803
skip,2804
skips,2805
sky,2806
skype,2807
sleep,2808
sleeping,2809
sleepy,2810
sleeves,2811
slipping,2812
slow,2813
small,2814
smart,2815
smarty,2816
smashed,2817
smell,2818
smellslikecack,2819
smh,2820
smile,2821
smooth,2822
snapback,2823
snatching,2824
sneak,2825
sneakers,2826
sneaks,2827
snell,2828
snoring,2829
snot,2830
snowday,2831
soaking,2832
sobay,2833
sobber,2834
social,2835
socks,2836
soexcited,2837
softball,2838
software,2839
sold,2840
solid,2841
somebodytoldyouwrong,2842
somemore,2843
somethin,2844
sometimesyouhaveto,2845
son,2846
song,2847
songs,2848
sony,2849
soo,2850
soon,2851
sooo,2852
soooo,2853
sooooo,2854
soooooo,2855
sooooooooooo,2856
soooooooooooo,2857
sopumped,2858
sorry,2859
sort,2860
sorta,2861
sought,2862
soul,2863
sound,2864
sounds,2865
soup,2866
south,2867
spain,2868
spam,2869
spammed,2870
spamming,2871
spanish,2872
sparsedonedigit,2873
sparsedtwodigits,2874
spaziale,2875
speak,2876
speakers,2877
spears,2878
special,2879
speech,2880
speed,2881
spell,2882
spelling,2883
spend,2884
spent,2885
spidey,2886
spike,2887
spirits,2888
spite,2889
splurged,2890
spoils,2891
spongebob,2892
sponsored,2893
sponsoring,2894
sports,2895
spots,2896
spray,2897
spreading,2898
springfever,2899
squeeze,2900
st,2901
stab,2902
stadium,2903
staff,2904
stalking,2905
stamps,2906
stand,2907
standin,2908
standing,2909
standwithpp,2910
starbucks,2911
staring,2912
starsky,2913
start,2914
started,2915
startin,2916
starting,2917
starts,2918
starving,2919
state,2920
statefarmwasnttthere,2921
statement,2922
states,2923
station,2924
stay,2925
stayed,2926
staying,2927
steak,2928
steal,2929
steeple,2930
stella,2931
step,2932
steps,2933
stereotype,2934
steve,2935
stick,2936
stillworks,2937
stinkin,2938
stinks,2939
stoked,2940
stole,2941
stolen,2942
stomach,2943
stoned,2944
stop,2945
stopped,2946
store,2947
stores,2948
storm,2949
story,2950
straighner,2951
strategicvoteparsedtwodigits,2952
strawberries,2953
street,2954
stressed,2955
stressful,2956
stressing,2957
strong,2958
struck,2959
strumpit,2960
stuck,2961
student,2962
students,2963
studio,2964
study,2965
studying,2966
studylink,2967
stuff,2968
stuffy,2969
stunning,2970
stunt,2971
stuntdoublecircus,2972
stupid,2973
stupidly,2974
style,2975
styles,2976
su,2977
subscription,2978
success,2979
suck,2980
sucked,2981
sucker,2982
sucks,2983
sudden,2984
suffer,2985
sultans,2986
sum,2987
sumbody,2988
summer,2989
summertime,2990
summit,2991
sun,2992
sunday,2993
sundayfunday,2994
sunny,2995
sunshine,2996
super,2997
superb,2998
supervisor,2999
support,3000
sure,3001
surprise,3002
surprised,3003
surprises,3004
surry,3005
suxx,3006
swag,3007
swear,3008
sweatpants,3009
sweatshop,3010
sweep,3011
sweet,3012
sweetest,3013
sweetiez,3014
sweetparsedtwodigitsbday,3015
swift,3016
switch,3017
swype,3018
sydney,3019
sync,3020
syracuse,3021
systems,3022
tab,3023
taco,3024
tad,3025
taken,3026
takes,3027
takin,3028
taking,3029
tale,3030
talented,3031
talk,3032
talking,3033
talkshitgethit,3034
tammi,3035
tan,3036
target,3037
taste,3038
tasting,3039
tattoo,3040
taurus,3041
taxi,3042
tbqf,3043
tca,3044
tea,3045
teach,3046
teacher,3047
teaches,3048
team,3049
teamceltics,3050
teamgod,3051
teamladiphat,3052
teams,3053
tears,3054
tech,3055
techdays,3056
tee,3057
teeth,3058
tell,3059
telling,3060
tells,3061
tempo,3062
terry,3063
test,3064
texas,3065
text,3066
texts,3067
tg,3068
th,3069
tha,3070
thailand,3071
thank,3072
thankgod,3073
thanks,3074
thankz,3075
thanx,3076
thatgrapejuice,3077
thats,3078
thayounghustlaz,3079
theapprentice,3080
theater,3081
theatre,3082
thegame,3083
thejoshdiogo,3084
thelasttimeichecked,3085
therapy,3086
theres,3087
thesis,3088
thesteffiekayy,3089
thevoice,3090
theylookfuckedup,3091
thierselfs,3092
thing,3093
things,3094
thingsthatshouldbebanned,3095
thingy,3096
think,3097
thinked,3098
thinking,3099
thirst,3100
thirsty,3101
thirteenth,3102
thismuch,3103
thiswasinmydrafts,3104
thiz,3105
thnk,3106
thnx,3107
tho,3108
thou,3109
thought,3110
thro,3111
throught,3112
thrown,3113
tht,3114
thug,3115
thumbs,3116
thunder,3117
thxz,3118
ticket,3119
tickets,3120
tides,3121
tie,3122
tight,3123
till,3124
tim,3125
time,3126
timeline,3127
times,3128
tint,3129
tired,3130
tires,3131
tmrw,3132
tnt,3133
today,3134
todays,3135
told,3136
tommm,3137
tomorrow,3138
tonight,3139
tons,3140
tooeazy_parsedonedigit,3141
took,3142
tools,3143
toothache,3144
topic,3145
topoftheworld,3146
tops,3147
toronto,3148
torture,3149
totally,3150
tote,3151
tots,3152
touchpad,3153
town,3154
toy,3155
tracks,3156
tracksuit,3157
traffic,3158
tragedy,3159
trail,3160
train,3161
trainers,3162
training,3163
trampoline,3164
translator,3165
travel,3166
treat,3167
treated,3168
trees,3169
trending,3170
trhumanist,3171
tried,3172
trip,3173
trips,3174
true,3175
trueblood,3176
trust,3177
trusting,3178
truth,3179
try,3180
tryin,3181
tryina,3182
trying,3183
trynna,3184
tsk,3185
tuesdays,3186
tuition,3187
tune,3188
turfs,3189
turkey,3190
turn,3191
turned,3192
turns,3193
turtles,3194
tv,3195
tvguide,3196
tweeple,3197
tweeps,3198
tweet,3199
tweeted,3200
tweetiepies,3201
tweety,3202
twice,3203
twitpic,3204
twitter,3205
twitters,3206
twype,3207
tyler,3208
typing,3209
ubc,3210
ublewit,3211
ucla,3212
uga,3213
uggghhhh,3214
ugghh,3215
ugh,3216
ughh,3217
ughhh,3218
ugly,3219
uh,3220
uhgggg,3221
uhungry,3222
um,3223
understand,3224
understanding,3225
unexpected,3226
unfort,3227
unfortunate,3228
unfortunately,3229
uni,3230
unidentical,3231
uniforms,3232
unique,3233
unite,3234
united,3235
universal,3236
universe,3237
unlimited,3238
upcoming,3239
update,3240
upgrading,3241
uploading,3242
upmost,3243
upp,3244
upparsedonedigit,3245
ups,3246
upset,3247
uqly,3248
ur,3249
urgh,3250
usa,3251
use,3252
used,3253
useful,3254
useless,3255
user,3256
usiku,3257
using,3258
utc,3259
utterly,3260
vaca,3261
vacation,3262
vaio,3263
valentine,3264
valerie,3265
van,3266
vanilla,3267
vapor,3268
vd,3269
ve,3270
vegas,3271
verified,3272
verizon,3273
version,3274
vibes,3275
vibrant,3276
vick,3277
victorious,3278
vid,3279
video,3280
videos,3281
view,3282
viewed,3283
vile,3284
vino,3285
vintage,3286
vip,3287
virtualization,3288
vision,3289
visit,3290
visuallyastounding,3291
vita,3292
vma,3293
vodka,3294
voice,3295
voices,3296
voila,3297
volume,3298
vote,3299
voted,3300
votes,3301
voting,3302
vows,3303
vparsedonedigit,3304
vs,3305
vuitton,3306
waaaaaayyyy,3307
wachin,3308
wack,3309
wade,3310
wahoo,3311
wait,3312
waitin,3313
waiting,3314
waka,3315
wakemeupwhen,3316
walk,3317
walkin,3318
walking,3319
wallet,3320
walls,3321
wanna,3322
want,3323
wanted,3324
wants,3325
warm,3326
warner,3327
warranty,3328
wash,3329
wasn,3330
waste,3331
wasted,3332
wat,3333
watch,3334
watched,3335
watches,3336
watchin,3337
watching,3338
water,3339
watermelon,3340
wave,3341
way,3342
wayne,3343
ways,3344
wcws,3345
weak,3346
wear,3347
wearin,3348
wearing,3349
weather,3350
web,3351
website,3352
webtv,3353
wed,3354
wedding,3355
wednesday,3356
wee,3357
week,3358
weekend,3359
weekends,3360
weeks,3361
weezy,3362
weight,3363
weird,3364
welcome,3365
welfare,3366
welovemaster,3367
wen,3368
wendys,3369
went,3370
weren,3371
west,3372
western,3373
westminster,3374
wet,3375
whale,3376
whathappenedtorealmovies,3377
whats,3378
whelp,3379
whip,3380
white,3381
whitegirl,3382
whittle,3383
whoop,3384
whore,3385
whyaretheyspeakingspanish,3386
whyy,3387
wi,3388
wifey,3389
wii,3390
wiiware,3391
wild,3392
wildcats,3393
win,3394
window,3395
windows,3396
wine,3397
winner,3398
winning,3399
wins,3400
winslet,3401
winter,3402
wired,3403
wisconsin,3404
wise,3405
wish,3406
wishing,3407
wit,3408
witnessed,3409
wk,3410
woman,3411
women,3412
womens,3413
won,3414
wonder,3415
wonderful,3416
wonders,3417
wont,3418
woo,3419
wooh,3420
woohoo,3421
wool,3422
wooohhooo,3423
woooo,3424
woot,3425
word,3426
words,3427
work,3428
worked,3429
workers,3430
workin,3431
working,3432
works,3433
workshop,3434
world,3435
worlds,3436
worldwide,3437
worried,3438
worse,3439
worst,3440
worstmovieever,3441
worstshoesever,3442
worth,3443
worthless,3444
wouldn,3445
wow,3446
wowww,3447
wpcla,3448
write,3449
writing,3450
wrong,3451
wrote,3452
wtchn,3453
wtf,3454
wth,3455
wuv,3456
x_x,3457
xbox,3458
xd,3459
xfactor,3460
xo,3461
xoxo,3462
xp,3463
xparsedtwodigits,3464
xperia,3465
xx,3466
xxxx,3467
ya,3468
yaas,3469
yahoo,3470
yall,3471
yay,3472
yayayayayayyay,3473
yayy,3474
yea,3475
yeaa,3476
yeah,3477
yeahhh,3478
yeahright,3479
year,3480
years,3481
yell,3482
yer,3483
yes,3484
yessir,3485
yessss,3486
yesterday,3487
yikes,3488
yo,3489
yogurt,3490
yoh,3491
youbetcha,3492
youcantdateme,3493
young,3494
younger,3495
youre,3496
youtube,3497
youuuuu,3498
yr,3499
yrs,3500
yum,3501
yummm,3502
yummy,3503
yuummy,3504
zaventem,3505
zaytoven,3506
zelda,3507
zilleville,3508
zone,3509
zoo,3510
zoom,3511
zouch,3512
zuckerberg,3513
zwaard,3514
