_com,0
aa,1
aaages,2
aber,3
abilities,4
abingdon,5
able,6
abort,7
aborted,8
abount,9
abouts,10
abroad,11
absence,12
absolute,13
absolutely,14
absolutley,15
abstaining,16
abuse,17
abysmal,18
ac,19
academy,20
accepted,21
access,22
accessories,23
accident,24
accobatic,25
according,26
account,27
accumulated,28
accurate,29
ache,30
acheivable,31
aches,32
achieve,33
achievement,34
achievemnets,35
achiever,36
achieving,37
achievment,38
achilees,39
achilles,40
aching,41
achive,42
ackworth,43
act,44
acted,45
action,46
actual,47
actually,48
adam,49
adapting,50
add,51
adding,52
addition,53
address,54
adds,55
adhering,56
adidas,57
adizero,58
adjust,59
adjusting,60
admin,61
admire,62
admit,63
admitted,64
adn,65
adolescents,66
adrift,67
advance,68
advantage,69
advantages,70
adventure,71
advert,72
advice,73
advise,74
advised,75
ady,76
aerobic,77
affair,78
affiliated,79
afford,80
affy,81
afraid,82
afternoon,83
age,84
aged,85
agenda,86
ages,87
aggravated,88
aggression,89
aggressive,90
aggro,91
ago,92
agony,93
agree,94
agt,95
ah,96
aha,97
ahead,98
ahhh,99
ahhhh,100
ahve,101
aid,102
aids,103
ailments,104
aim,105
aiming,106
aint,107
air,108
airport,109
aka,110
alan,111
alanm,112
albeit,113
alcohol,114
alex,115
allegedly,116
alley,117
allocated,118
allow,119
allowed,120
allowing,121
allows,122
allstar,123
alnwick,124
alongside,125
alot,126
alp,127
alps,128
alternate,129
alty,130
amateur,131
amazed,132
amazing,133
ambitions,134
ambulance,135
amsterdam,136
amused,137
anaemia,138
anal,139
analysis,140
andrew,141
andy,142
angelic,143
angle,144
angry,145
aniversary,146
ankle,147
ankles,148
anna,149
annajo,150
annoyed,151
annoyingly,152
answer,153
answers,154
ant,155
anthony,156
anti,157
anticipation,158
anticlockwise,159
antics,160
antsy,161
anxiety,162
anybody,163
anymore,164
aol,165
aparsedonedigit,166
aparsedtwodigitsk,167
apart,168
apartment,169
aplenty,170
apologies,171
apology,172
appalling,173
apparent,174
apparently,175
appealing,176
appear,177
appearance,178
appeared,179
appears,180
applicant,181
application,182
appointment,183
appreciate,184
appreciated,185
approach,186
approaching,187
appropriate,188
approx,189
april,190
aquired,191
arabs,192
arbroath,193
arch,194
area,195
aren,196
argie,197
argos,198
argued,199
argument,200
arm,201
arms,202
armstrong,203
arrange,204
arranged,205
arrangments,206
arround,207
arse,208
arsed,209
arsenal,210
artful,211
article,212
arts,213
asap,214
ashamed,215
ashley,216
ask,217
asked,218
askern,219
asking,220
asleep,221
aspirant,222
aspiring,223
ass,224
assistant,225
associated,226
association,227
assumed,228
assuming,229
astride,230
athlete,231
athletic,232
atmosphere,233
attachment,234
attack,235
attacks,236
attempt,237
attended,238
attention,239
attitude,240
august,241
aunt,242
australia,243
autism,244
automatically,245
autumn,246
av,247
available,248
ave,249
average,250
averaged,251
averaging,252
avghr,253
avoid,254
avoiding,255
awaits,256
awake,257
award,258
awards,259
away,260
awayday,261
awe,262
awesome,263
awful,264
awreness,265
ay,266
babble,267
babies,268
baby,269
bac,270
backslash,271
backwards,272
bacon,273
bad,274
badly,275
badminton,276
bag,277
bagels,278
bagged,279
bags,280
bah,281
baking,282
balance,283
ball,284
ballot,285
ballots,286
balls,287
banana,288
bandstand,289
bang,290
bank,291
banks,292
banksie,293
banners,294
banter,295
bar,296
barclays,297
barefoot,298
barely,299
bargain,300
barley,301
barman,302
barnes,303
barred,304
barriers,305
base,306
based,307
baseline,308
bashful,309
basically,310
basics,311
basis,312
bat,313
batfink,314
bath,315
bathroom,316
baths,317
battered,318
batteries,319
battersey,320
battle,321
batw,322
bay,323
bb,324
bbq,325
bd,326
beach,327
beachy,328
beaming,329
beans,330
beanz,331
bear,332
bearable,333
bearing,334
beat,335
beaten,336
beats,337
beauties,338
beautiful,339
beav,340
beckham,341
bed,342
beders,343
beer,344
beers,345
began,346
beginning,347
begins,348
begrudge,349
begs,350
behave,351
behaving,352
bej,353
belated,354
beleive,355
belfast,356
believe,357
belive,358
belt,359
bempton,360
bend,361
bending,362
bene,363
benefit,364
bent,365
benyo,366
beqqueathed,367
bequeath,368
bequeathed,369
berkhamsted,370
berlin,371
bernard,372
best,373
bet,374
better,375
beverley,376
bex,377
bfb,378
bicton,379
bid,380
biddies,381
big,382
bigger,383
biggest,384
biggies,385
bigotted,386
bike,387
billie,388
bin,389
bingham,390
birdcage,391
birmingham,392
birthday,393
birthdays,394
bishop,395
bit,396
bits,397
bizarre,398
bl,399
black,400
blackberry,401
blackheath,402
blackmail,403
blackpool,404
blah,405
blame,406
blast,407
blasted,408
blasting,409
bleeding,410
bleeped,411
bless,412
blessed,413
blessing,414
blessings,415
blew,416
blimey,417
bling,418
blinkin,419
bliss,420
blister,421
blisters,422
blizzard,423
block,424
blocks,425
blokes,426
blood,427
bloody,428
blooming,429
blousey,430
blow,431
blowing,432
blown,433
blue,434
blues,435
blxxdy,436
bm,437
bmi,438
boat,439
bob,440
bobble,441
bobby,442
bod,443
bodes,444
body,445
bog,446
boggy,447
bogs,448
boing,449
bold,450
bollox,451
bond,452
bonfire,453
bonkers,454
boo,455
book,456
booked,457
booking,458
books,459
boost,460
booster,461
boots,462
bootsie,463
booze,464
bore,465
bored,466
boris,467
born,468
borrow,469
boss,470
boston,471
bother,472
bothered,473
bothering,474
bottle,475
bottleof,476
bottles,477
bottling,478
bought,479
bounce,480
bound,481
boundary,482
bounding,483
bourton,484
bout,485
bovvered,486
bow,487
bowi,488
bowl,489
bowland,490
boxes,491
boxing,492
boy,493
boyfriend,494
boys,495
bparsedonedigit,496
br,497
brad,498
brain,499
brake,500
bramley,501
branch,502
bras,503
brasher,504
brat,505
brave,506
braver,507
brazilian,508
bread,509
break,510
breakfast,511
breaks,512
breakthrough,513
breast,514
breath,515
breathe,516
breezing,517
brendan,518
brian,519
bricks,520
brid,521
bridge,522
bridges,523
brief,524
briefcase,525
bright,526
brighton,527
brilliant,528
bring,529
bringing,530
brings,531
bristol,532
britain,533
british,534
brizzle,535
broadly,536
broke,537
broken,538
brolly,539
bronze,540
brook,541
brookwood,542
brother,543
brought,544
brownie,545
brownies,546
brownish,547
btw,548
bubbly,549
buck,550
bucket,551
buena,552
buff,553
bug,554
bugger,555
build,556
builder,557
building,558
built,559
bulk,560
bull,561
bullying,562
bum,563
bummer,564
bumps,565
bumpy,566
bunch,567
bunged,568
bunny,569
burn,570
burnt,571
burst,572
bursting,573
burtonwood,574
bus,575
bush,576
bushed,577
bushey,578
bushy,579
business,580
bust,581
buster,582
busy,583
butcher,584
buti,585
butt,586
butter,587
butterfly,588
buttie,589
buttons,590
butty,591
buy,592
buying,593
buys,594
buzzing,595
bw,596
byfleet,597
bypass,598
cab,599
cabbie,600
cactus,601
cadence,602
cake,603
cal,604
calcium,605
calculation,606
calculator,607
calculators,608
calf,609
calfs,610
calls,611
calm,612
calmed,613
calories,614
calves,615
camaraderie,616
camden,617
came,618
camera,619
cameron,620
camping,621
camps,622
campsite,623
canada,624
canal,625
canary,626
cancelled,627
cancer,628
cannt,629
canteen,630
cap,631
cape,632
caps,633
capsule,634
captain,635
car,636
caramel,637
carb,638
carbo,639
carbohydrate,640
cardiff,641
care,642
career,643
careful,644
careless,645
caribbean,646
carlise,647
carnival,648
caro,649
carole,650
carp,651
carriageway,652
carried,653
carry,654
carrying,655
cars,656
cartiledge,657
cartwheels,658
cas,659
case,660
cases,661
cashed,662
castle,663
casual,664
catch,665
catching,666
category,667
caught,668
cause,669
caused,670
causing,671
cautious,672
caz,673
cba,674
cc,675
ccnba,676
ccoming,677
cd,678
ceal,679
ceilidh,680
ceiling,681
celeb,682
celebrate,683
celebrating,684
celebrations,685
centred,686
cereal,687
certain,688
certainly,689
certificate,690
certified,691
cew,692
cg,693
chains,694
challenge,695
challenged,696
champagne,697
champers,698
championchip,699
championship,700
champs,701
chance,702
change,703
changed,704
changes,705
changing,706
chap,707
character,708
charge,709
charges,710
charitable,711
charities,712
charity,713
charle,714
charlie,715
charlton,716
charter,717
chasing,718
chat,719
chatty,720
chav,721
cheadle,722
cheap,723
cheapskates,724
cheat,725
check,726
checked,727
checking,728
cheeks,729
cheeky,730
cheer,731
cheers,732
chelsea,733
cheque,734
cheques,735
chest,736
chi,737
chichester,738
chicken,739
chieftain,740
children,741
chilly,742
chin,743
chip,744
chips,745
choc,746
chocolate,747
choked,748
chomping,749
chondroitin,750
choose,751
chris,752
christchurch,753
christmas,754
chuff,755
chuffed,756
chum,757
chunk,758
chunks,759
church,760
cinders,761
city,762
cj,763
cl,764
claire,765
clairster,766
clan,767
clare,768
clarendon,769
clash,770
class,771
classy,772
cleadon,773
clear,774
cleared,775
clearly,776
clears,777
click,778
cliffs,779
climb,780
climbed,781
climber,782
climbing,783
clipped,784
clock,785
clocked,786
close,787
closer,788
closest,789
clothes,790
clothing,791
clouds,792
club,793
clubbing,794
clubmate,795
clubmates,796
clue,797
cm,798
coach,799
coached,800
coaches,801
coaching,802
coal,803
coast,804
cockrell,805
codliver,806
coffee,807
cofident,808
cognitive,809
colchester,810
cold,811
colds,812
collapsed,813
colleague,814
collect,815
colon,816
colour,817
column,818
com,819
combination,820
combined,821
combining,822
come,823
comes,824
comfortable,825
comfortably,826
comic,827
comig,828
coming,829
comment,830
commented,831
comments,832
commiserations,833
commitments,834
committed,835
common,836
communication,837
community,838
compact,839
company,840
compare,841
compared,842
compensate,843
compete,844
competence,845
competing,846
competition,847
competitive,848
competitors,849
complain,850
complaining,851
complete,852
completed,853
completely,854
completing,855
completion,856
computer,857
comunication,858
concentrate,859
concentrated,860
concern,861
concerned,862
conclusion,863
conclusions,864
concluson,865
conditioned,866
conditions,867
conducive,868
conference,869
confess,870
confidence,871
confident,872
confirm,873
confirmation,874
confirmations,875
confirming,876
confused,877
congestion,878
congleton,879
congrats,880
congratulations,881
conjured,882
conkers,883
connected,884
consciously,885
consecutive,886
consider,887
considerably,888
considered,889
considering,890
consistency,891
consistent,892
consolation,893
constant,894
consumed,895
consuming,896
contact,897
contacts,898
content,899
continue,900
continued,901
contributed,902
contributes,903
contribution,904
control,905
controlled,906
convenient,907
conversation,908
convinced,909
cooke,910
cooked,911
cookie,912
cookies,913
cooking,914
cool,915
cooler,916
cop,917
cope,918
copenhagen,919
copy,920
core,921
corner,922
coro,923
coronium,924
correct,925
corredor,926
corridor,927
cos,928
cost,929
costume,930
costumer,931
cosy,932
cough,933
cougie,934
couldgo,935
couldn,936
count,937
counting,938
country,939
countryside,940
county,941
couple,942
courage,943
course,944
court,945
courtesy,946
cover,947
coverage,948
covered,949
covers,950
cow,951
cowboy,952
cowhill,953
coxy,954
coz,955
cp,956
crab,957
crack,958
crackered,959
cracking,960
cramp,961
cramped,962
cranberry,963
crap,964
crapping,965
crashed,966
crashing,967
crawl,968
crawled,969
crazed,970
crazy,971
cream,972
creating,973
creature,974
credit,975
creme,976
cricket,977
crikey,978
crippled,979
critters,980
crocked,981
cross,982
crossed,983
crossing,984
crouch,985
crowd,986
crowds,987
crucial,988
cruel,989
cruising,990
crumbs,991
crunch,992
crutch,993
crxp,994
cube,995
cubes,996
cubs,997
culminating,998
cunning,999
cup,1000
current,1001
currently,1002
currrent,1003
curry,1004
curse,1005
cushion,1006
customer,1007
cut,1008
cwy,1009
cycle,1010
cycling,1011
cyclist,1012
dachshund,1013
dad,1014
daddy,1015
daily,1016
dalya,1017
damage,1018
damaged,1019
damn,1020
dampened,1021
dan,1022
dangerous,1023
daniel,1024
danny,1025
dark,1026
darlington,1027
darren,1028
dartford,1029
dartmoor,1030
dash,1031
date,1032
dates,1033
daughter,1034
daughters,1035
dave,1036
david,1037
day,1038
daylight,1039
days,1040
daz,1041
dazpd,1042
dd,1043
dead,1044
deadline,1045
deaf,1046
deal,1047
dear,1048
death,1049
debate,1050
debbo,1051
debenhams,1052
debs,1053
debster,1054
debstir,1055
dec,1056
decadent,1057
december,1058
decent,1059
decide,1060
decided,1061
decision,1062
decisions,1063
decreasing,1064
dedicated,1065
deep,1066
deeply,1067
def,1068
defect,1069
defer,1070
deffo,1071
definately,1072
definitely,1073
definitive,1074
defo,1075
degeneration,1076
degrees,1077
dehydrated,1078
delete,1079
delia,1080
delighted,1081
delivery,1082
delusional,1083
deminished,1084
demob,1085
demonstrated,1086
denied,1087
dense,1088
deny,1089
depending,1090
depends,1091
deposit,1092
depth,1093
descent,1094
describing,1095
description,1096
deserve,1097
deserved,1098
designed,1099
desk,1100
desp,1101
despair,1102
desperate,1103
despite,1104
destiny,1105
details,1106
determined,1107
devastated,1108
devon,1109
dfd,1110
dg,1111
diagnosed,1112
diana,1113
diary,1114
did,1115
didds,1116
diddy,1117
didn,1118
didnt,1119
dids,1120
die,1121
died,1122
diet,1123
difference,1124
differences,1125
different,1126
difficult,1127
difficulties,1128
digging,1129
dilemma,1130
diminished,1131
dinner,1132
dip,1133
diplomatic,1134
dipped,1135
dips,1136
direct,1137
direction,1138
directly,1139
director,1140
dirty,1141
disabilities,1142
disapointed,1143
disappointed,1144
disappointment,1145
discarded,1146
discharged,1147
discipline,1148
disclose,1149
discount,1150
discussibg,1151
discussions,1152
disgracing,1153
disguise,1154
disgusted,1155
dish,1156
dishes,1157
displayed,1158
disposal,1159
distance,1160
distances,1161
distress,1162
district,1163
ditch,1164
divulge,1165
diy,1166
dn,1167
docks,1168
doctor,1169
dod,1170
doddle,1171
dodging,1172
dodgy,1173
doe,1174
does,1175
doesn,1176
dog,1177
dogs,1178
doing,1179
don,1180
donate,1181
donating,1182
donation,1183
dont,1184
donut,1185
doodle,1186
doom,1187
dooper,1188
door,1189
doors,1190
dor,1191
dorigo,1192
dork,1193
dot,1194
double,1195
doubled,1196
doubt,1197
doubts,1198
dover,1199
downhill,1200
downlands,1201
downs,1202
downside,1203
downstairs,1204
dozen,1205
dragged,1206
dragging,1207
dramatically,1208
dread,1209
dreading,1210
dream,1211
dreampt,1212
dreams,1213
dreary,1214
drenched,1215
dress,1216
drewton,1217
drier,1218
drill,1219
drink,1220
drinking,1221
drinks,1222
drive,1223
drives,1224
drk,1225
drogo,1226
drool,1227
drop,1228
dropped,1229
dropping,1230
drops,1231
drown,1232
dry,1233
ds,1234
dual,1235
dublin,1236
duck,1237
dull,1238
dump,1239
dumpling,1240
duncan,1241
dunk,1242
dunno,1243
duration,1244
dusseldorf,1245
dust,1246
dustin,1247
dvd,1248
dwarfed,1249
dy,1250
dyslexia,1251
eager,1252
ealing,1253
ear,1254
earlier,1255
early,1256
earned,1257
ears,1258
earth,1259
ease,1260
easier,1261
easiest,1262
easily,1263
east,1264
eastenders,1265
easter,1266
eastham,1267
eastleigh,1268
easy,1269
eat,1270
eaten,1271
eating,1272
eb,1273
ebbs,1274
echo,1275
economist,1276
ecparsedonedigit,1277
ed,1278
edb,1279
eddie,1280
edge,1281
edges,1282
edinburgh,1283
edith,1284
eek,1285
effect,1286
effective,1287
effects,1288
efficacy,1289
effort,1290
efforts,1291
efort,1292
egged,1293
eggs,1294
eh,1295
ehrwise,1296
eleanor,1297
eliminate,1298
eliminating,1299
elite,1300
elixir,1301
elusive,1302
em,1303
email,1304
emailed,1305
emailing,1306
embankment,1307
embarassing,1308
embra,1309
emergency,1310
emigrating,1311
emigration,1312
emily,1313
emma,1314
emotional,1315
emphasis,1316
enabled,1317
encounter,1318
encourage,1319
encouraged,1320
encouragement,1321
encouraging,1322
end,1323
ended,1324
endless,1325
ends,1326
endurance,1327
endured,1328
energy,1329
england,1330
enjoy,1331
enjoyable,1332
enjoyed,1333
enjoying,1334
enjoys,1335
enormously,1336
enter,1337
entered,1338
entering,1339
enters,1340
enticingly,1341
entirely,1342
entires,1343
entrants,1344
entries,1345
entry,1346
envelope,1347
epping,1348
eps,1349
equal,1350
equity,1351
equivalent,1352
er,1353
err,1354
error,1355
errors,1356
escape,1357
escaped,1358
esle,1359
esp,1360
especially,1361
essay,1362
essential,1363
essex,1364
estate,1365
estimated,1366
et,1367
eternally,1368
euph,1369
euros,1370
eve,1371
evelyn,1372
evening,1373
event,1374
eventful,1375
events,1376
eventually,1377
everest,1378
everybody,1379
everyones,1380
evidence,1381
evryone,1382
ex,1383
exactly,1384
exagerating,1385
exam,1386
example,1387
exams,1388
excel,1389
excellant,1390
excellent,1391
exception,1392
excited,1393
excitement,1394
exciting,1395
excluding,1396
excuse,1397
exercise,1398
exercises,1399
exersion,1400
exertion,1401
exhasted,1402
exhausted,1403
exhibiting,1404
exhuasted,1405
exist,1406
expecct,1407
expected,1408
expecting,1409
expects,1410
expensive,1411
experience,1412
experienced,1413
experiences,1414
experiment,1415
explains,1416
expletives,1417
exploits,1418
expo,1419
extended,1420
extensions,1421
extra,1422
eye,1423
eyed,1424
eynsham,1425
fab,1426
fabric,1427
fabulous,1428
face,1429
facilities,1430
fact,1431
fail,1432
failed,1433
fails,1434
failure,1435
fainting,1436
fair,1437
fairing,1438
fairly,1439
fairs,1440
fairy,1441
faith,1442
fall,1443
fallback,1444
falling,1445
fame,1446
families,1447
family,1448
fan,1449
fancied,1450
fancy,1451
fanfare,1452
fans,1453
fantacised,1454
fantastic,1455
far,1456
farmed,1457
fartlek,1458
fast,1459
faster,1460
fastest,1461
fat,1462
fatbutfit,1463
fate,1464
fault,1465
fave,1466
favour,1467
favourite,1468
favourites,1469
fb,1470
fdone,1471
fear,1472
featured,1473
feb,1474
fed,1475
fee,1476
feed,1477
feedback,1478
feel,1479
feeling,1480
feels,1481
feelt,1482
feet,1483
fell,1484
fella,1485
fellow,1486
felt,1487
female,1488
fenn,1489
ferry,1490
festering,1491
fetch,1492
fewer,1493
ff,1494
fgfa,1495
fi,1496
fiddly,1497
fidgety,1498
field,1499
fields,1500
fife,1501
fight,1502
figs,1503
figure,1504
figured,1505
files,1506
filled,1507
final,1508
finally,1509
finding,1510
fine,1511
finger,1512
fingers,1513
finish,1514
finished,1515
finishing,1516
finishs,1517
finsihed,1518
fires,1519
fish,1520
fisrt,1521
fit,1522
fitness,1523
fitter,1524
fitting,1525
fix,1526
fizz,1527
fkg,1528
flab,1529
flag,1530
flakes,1531
flamboro,1532
flapjack,1533
flash,1534
flat,1535
flats,1536
fleece,1537
fleet,1538
flexible,1539
flight,1540
flights,1541
flm,1542
flmers,1543
flmparsedtwodigits,1544
flora,1545
florida,1546
flows,1547
flu,1548
fluctuating,1549
fluid,1550
fly,1551
flyer,1552
flying,1553
fnick,1554
focus,1555
focussed,1556
folks,1557
follow,1558
followed,1559
following,1560
fond,1561
food,1562
foot,1563
football,1564
force,1565
forced,1566
forecast,1567
forest,1568
forests,1569
forget,1570
forgetting,1571
forgive,1572
forgot,1573
fork,1574
form,1575
formula,1576
fortnight,1577
fortuna,1578
fortunately,1579
fortune,1580
forum,1581
forumites,1582
forums,1583
forward,1584
forwards,1585
fought,1586
foundation,1587
fox,1588
foz,1589
fp,1590
france,1591
freak,1592
fred,1593
free,1594
freebies,1595
freezing,1596
frenchies,1597
frenchmen,1598
fresh,1599
freshness,1600
fretting,1601
fri,1602
friday,1603
fridays,1604
fridge,1605
friend,1606
friendly,1607
friends,1608
friendship,1609
frightened,1610
frosty,1611
frozen,1612
frubes,1613
frustrated,1614
frustrating,1615
frys,1616
fuel,1617
fulfill,1618
fully,1619
fun,1620
fund,1621
funeral,1622
funky,1623
funny,1624
furthest,1625
future,1626
fw,1627
fwiw,1628
gadgets,1629
gagging,1630
gain,1631
gale,1632
gales,1633
gals,1634
game,1635
games,1636
gamesmanship,1637
gang,1638
gap,1639
gaps,1640
garden,1641
garmin,1642
gathering,1643
gatton,1644
gave,1645
gazza,1646
gb,1647
gc,1648
gd,1649
gdave,1650
gear,1651
gel,1652
gels,1653
general,1654
generally,1655
generous,1656
genetically,1657
gentle,1658
gently,1659
geoff,1660
geordie,1661
george,1662
georgias,1663
germs,1664
gerroff,1665
gets,1666
gettin,1667
getting,1668
gf,1669
gfa,1670
gfparsedtwodigits,1671
gg,1672
gif,1673
gift,1674
giles,1675
gilzean,1676
gin,1677
ginger,1678
girl,1679
girlfriend,1680
girlies,1681
girls,1682
girly,1683
git,1684
given,1685
gives,1686
giving,1687
giz,1688
glad,1689
glance,1690
glasgow,1691
glass,1692
glasses,1693
glitzy,1694
gloom,1695
glory,1696
gloves,1697
glucosamine,1698
glue,1699
glute,1700
glycogen,1701
gm,1702
gnr,1703
goal,1704
goalkeeper,1705
gobbling,1706
gobi,1707
god,1708
godsend,1709
goes,1710
goin,1711
going,1712
gold,1713
golden,1714
golf,1715
gone,1716
gonna,1717
good,1718
goodnight,1719
goody,1720
google,1721
goose,1722
goslo,1723
gossip,1724
got,1725
gotta,1726
gotten,1727
goup,1728
gps,1729
gr,1730
gradient,1731
gradually,1732
gram,1733
grandad,1734
grandparent,1735
grandson,1736
grandstand,1737
granny,1738
grapes,1739
graph,1740
grass,1741
grateful,1742
gratitude,1743
gratton,1744
grattons,1745
grave,1746
gravis,1747
gravy,1748
great,1749
greater,1750
greatest,1751
green,1752
greetings,1753
greg,1754
gremlins,1755
grief,1756
grim,1757
grin,1758
grinstead,1759
grion,1760
grip,1761
gritted,1762
grobelaar,1763
ground,1764
grounds,1765
group,1766
groups,1767
grow,1768
grrrrr,1769
grump,1770
grylls,1771
gt,1772
guarantee,1773
guaranteed,1774
guarentee,1775
guess,1776
guessing,1777
guilty,1778
guiness,1779
gun,1780
gusting,1781
gutted,1782
gutter,1783
guy,1784
guys,1785
gweedore,1786
gym,1787
ha,1788
hadn,1789
haha,1790
hail,1791
hainault,1792
hairdresser,1793
hal,1794
half,1795
halhigdon,1796
halifax,1797
hallo,1798
halt,1799
haltemprice,1800
halving,1801
ham,1802
hamburg,1803
hammer,1804
hampstead,1805
hamstring,1806
hana,1807
hand,1808
hands,1809
handwritting,1810
handy,1811
hang,1812
hanging,1813
hangover,1814
hangovers,1815
happen,1816
happened,1817
happening,1818
happenings,1819
happens,1820
happiness,1821
happy,1822
hard,1823
harder,1824
hardest,1825
hardly,1826
harlow,1827
harpy,1828
harry,1829
harvel,1830
harvest,1831
hasn,1832
hassle,1833
hastings,1834
hat,1835
hate,1836
haunches,1837
haven,1838
having,1839
havn,1840
hawk,1841
haytor,1842
hazelnuts,1843
head,1844
heading,1845
headphones,1846
healing,1847
health,1848
healthy,1849
hear,1850
heard,1851
hearing,1852
heart,1853
heat,1854
heated,1855
heath,1856
heavier,1857
heavy,1858
heck,1859
heckled,1860
hee,1861
heel,1862
height,1863
held,1864
hell,1865
heller,1866
hellip,1867
hello,1868
hellooo,1869
helloooooooo,1870
help,1871
helped,1872
helpful,1873
helping,1874
helps,1875
hen,1876
hertfordshire,1877
herts,1878
hey,1879
hh,1880
hi,1881
hic,1882
higdon,1883
high,1884
highams,1885
higher,1886
highest,1887
highlight,1888
higo,1889
hilarious,1890
hill,1891
hills,1892
hilly,1893
hillyi,1894
hinder,1895
hip,1896
hippo,1897
hires,1898
history,1899
hit,1900
hiya,1901
hm,1902
hmm,1903
hmmm,1904
hmmmm,1905
hmmmmm,1906
hmmmph,1907
hms,1908
ho,1909
hobble,1910
hobling,1911
hogmonster,1912
hogweed,1913
hol,1914
hold,1915
holding,1916
holds,1917
holiday,1918
holly,1919
hollywood,1920
hols,1921
home,1922
honest,1923
honestly,1924
honey,1925
hong,1926
honoured,1927
hood,1928
hoops,1929
hoorah,1930
hope,1931
hopeful,1932
hopefully,1933
hoping,1934
hopkinton,1935
hopping,1936
horizons,1937
horrendously,1938
horrible,1939
horse,1940
horses,1941
hospital,1942
host,1943
hostel,1944
hot,1945
hotel,1946
hour,1947
hours,1948
house,1949
hove,1950
howard,1951
howards,1952
howdy,1953
howler,1954
hr,1955
hrm,1956
hrow,1957
hrr,1958
hrs,1959
hs,1960
hsbc,1961
ht,1962
htm,1963
html,1964
htp,1965
http,1966
hubbies,1967
hubby,1968
huge,1969
hughes,1970
hugs,1971
hull,1972
humid,1973
hummm,1974
humpless,1975
hunchbacked,1976
hundreds,1977
hung,1978
hunting,1979
hurrah,1980
hurray,1981
hurry,1982
hurt,1983
hurting,1984
hurts,1985
husband,1986
hybrid,1987
hyde,1988
hydrate,1989
hythe,1990
ian,1991
ibuprofen,1992
ice,1993
icey,1994
icing,1995
idea,1996
ideal,1997
ideally,1998
ideas,1999
identify,2000
idiot,2001
ill,2002
illness,2003
im,2004
images,2005
imagine,2006
imagined,2007
imelds,2008
imho,2009
immediately,2010
immersion,2011
impart,2012
impatient,2013
impeccable,2014
implies,2015
important,2016
impossible,2017
impressed,2018
impressive,2019
improve,2020
improved,2021
improvement,2022
improving,2023
incarnation,2024
incase,2025
incentive,2026
incident,2027
inclines,2028
include,2029
included,2030
includes,2031
including,2032
inclusion,2033
incoherant,2034
increased,2035
increasing,2036
increasingly,2037
incredible,2038
incredibly,2039
indifferent,2040
indoor,2041
induced,2042
infection,2043
infestation,2044
inflam,2045
inflammation,2046
inflammatories,2047
influence,2048
info,2049
inforces,2050
information,2051
ing,2052
initial,2053
injured,2054
injuries,2055
injury,2056
innocently,2057
innocents,2058
inside,2059
insoles,2060
inspiration,2061
inspirational,2062
inspire,2063
inspired,2064
inspiring,2065
instead,2066
instills,2067
instructed,2068
instructions,2069
intake,2070
intend,2071
intended,2072
intensity,2073
intention,2074
inter,2075
intercounties,2076
interested,2077
interesting,2078
intermeweb,2079
intermittent,2080
international,2081
internet,2082
interval,2083
intervals,2084
interview,2085
intrigued,2086
intro,2087
introduce,2088
introducing,2089
invented,2090
invested,2091
invisible,2092
involve,2093
involved,2094
iphone,2095
ireland,2096
iron,2097
ironman,2098
irons,2099
irresistable,2100
irritating,2101
ish,2102
isle,2103
isn,2104
isotonic,2105
issue,2106
issues,2107
italian,2108
italy,2109
itc,2110
itching,2111
iv,2112
ive,2113
jacket,2114
jackets,2115
jam,2116
jamaica,2117
james,2118
jamesk,2119
jamie,2120
jan,2121
jane,2122
janeeparsedonedigit,2123
january,2124
jap,2125
jar,2126
jarred,2127
jason,2128
jbs,2129
jbss,2130
jd,2131
jealous,2132
jej,2133
jelly,2134
jellybabe,2135
jezza,2136
jim,2137
jj,2138
job,2139
jobs,2140
joby,2141
jock,2142
joe,2143
jog,2144
jogged,2145
jogger,2146
joggers,2147
jogs,2148
john,2149
johns,2150
join,2151
joined,2152
joining,2153
joint,2154
joints,2155
joke,2156
jokes,2157
jon,2158
jonahparsedonedigit,2159
jools,2160
journey,2161
journeys,2162
joy,2163
jpg,2164
jpvd,2165
jr,2166
judderman,2167
judging,2168
juice,2169
jules,2170
julie,2171
july,2172
jump,2173
jumping,2174
jumps,2175
june,2176
junior,2177
just,2178
justifiably,2179
justified,2180
kannouchi,2181
karen,2182
katepie,2183
katie,2184
katrina,2185
kattysparke,2186
katypie,2187
kbown,2188
keen,2189
keeping,2190
keeps,2191
ken,2192
kent,2193
kenyan,2194
kept,2195
kerb,2196
keryn,2197
key,2198
keyneshm,2199
khalid,2200
kick,2201
kicked,2202
kid,2203
kidding,2204
kidney,2205
kids,2206
kill,2207
killed,2208
killer,2209
kind,2210
kinda,2211
kinder,2212
kindly,2213
kingley,2214
kingston,2215
kinsey,2216
kip,2217
kirsty,2218
kissing,2219
kit,2220
kitchen,2221
kite,2222
kk,2223
km,2224
knackered,2225
knee,2226
kneecap,2227
knees,2228
knew,2229
knickers,2230
knock,2231
knocked,2232
knoe,2233
know,2234
knowing,2235
knowledge,2236
known,2237
knows,2238
kong,2239
kp,2240
kparsedonedigit,2241
kramer,2242
kwilter,2243
la,2244
labour,2245
lack,2246
ladders,2247
ladies,2248
lads,2249
lady,2250
laid,2251
laminating,2252
lance,2253
land,2254
landed,2255
lane,2256
lap,2257
lapper,2258
laps,2259
laptop,2260
larder,2261
larff,2262
large,2263
larger,2264
lass,2265
lasted,2266
lasting,2267
lata,2268
late,2269
lately,2270
later,2271
latest,2272
laugh,2273
laughs,2274
law,2275
lay,2276
layers,2277
lazy,2278
lbs,2279
ld,2280
lead,2281
leaders,2282
leadership,2283
leading,2284
league,2285
leagues,2286
learn,2287
learning,2288
learnt,2289
leave,2290
leaves,2291
leaving,2292
led,2293
leeds,2294
left,2295
leg,2296
legends,2297
leggings,2298
legislate,2299
legless,2300
legs,2301
leicester,2302
leith,2303
lend,2304
length,2305
lengths,2306
leotard,2307
lep,2308
let,2309
letchworth,2310
lets,2311
letter,2312
letters,2313
letting,2314
level,2315
levels,2316
lf,2317
lfm,2318
licence,2319
lid,2320
life,2321
lifetime,2322
lift,2323
ligament,2324
light,2325
like,2326
liked,2327
likely,2328
likelyhood,2329
likes,2330
likewise,2331
limited,2332
limper,2333
lincolnshire,2334
line,2335
lined,2336
lines,2337
lining,2338
link,2339
linked,2340
links,2341
lip,2342
lips,2343
lisbon,2344
lise,2345
list,2346
listen,2347
listings,2348
lite,2349
literally,2350
litres,2351
little,2352
littlemiss,2353
live,2354
lived,2355
liverpool,2356
lives,2357
living,2358
livvy,2359
lizzyb,2360
ll,2361
llbe,2362
lll,2363
lm,2364
load,2365
loaded,2366
loading,2367
loads,2368
local,2369
locally,2370
location,2371
loch,2372
log,2373
logbook,2374
logging,2375
logic,2376
logo,2377
lol,2378
london,2379
long,2380
longer,2381
longest,2382
loo,2383
look,2384
looked,2385
looking,2386
looks,2387
loon,2388
loop,2389
loose,2390
loosened,2391
loparsedtwodigits,2392
lor,2393
lord,2394
lorenzo,2395
lose,2396
losing,2397
lost,2398
lot,2399
lotiion,2400
lots,2401
lounge,2402
love,2403
loved,2404
lovely,2405
loving,2406
low,2407
lower,2408
lr,2409
ls,2410
lsd,2411
lsr,2412
lsrs,2413
lt,2414
ltsa,2415
lucazade,2416
lucinda,2417
luck,2418
luckily,2419
lucky,2420
lucozade,2421
lucy,2422
lumps,2423
lunch,2424
lunches,2425
lunchtime,2426
lung,2427
lurgy,2428
lurk,2429
lurking,2430
luton,2431
luxembourg,2432
luxury,2433
lwparsedonedigit,2434
lycra,2435
lyndy,2436
macc,2437
machine,2438
machines,2439
macmillan,2440
macs,2441
mad,2442
mag,2443
magic,2444
magnesium,2445
mail,2446
mailed,2447
main,2448
mainly,2449
maintain,2450
maintained,2451
major,2452
majority,2453
make,2454
maker,2455
makes,2456
making,2457
malarky,2458
male,2459
males,2460
mall,2461
malt,2462
man,2463
manage,2464
managed,2465
management,2466
manager,2467
managing,2468
mands,2469
mankind,2470
mantra,2471
mantras,2472
map,2473
maps,2474
mara,2475
marafuns,2476
maras,2477
marathon,2478
marathoners,2479
marathons,2480
march,2481
marcus,2482
marders,2483
margin,2484
marigold,2485
mark,2486
marker,2487
markers,2488
market,2489
marl,2490
marmite,2491
marparsedtwodigitsindex,2492
marshall,2493
marshalling,2494
marshals,2495
martial,2496
martin,2497
mashed,2498
massage,2499
massive,2500
massively,2501
masters,2502
match,2503
mate,2504
material,2505
maternity,2506
mates,2507
matie,2508
matt,2509
matter,2510
matttherat,2511
max,2512
maxine,2513
maybe,2514
maylarch,2515
mayo,2516
mayor,2517
maze,2518
mb,2519
mc,2520
mcallister,2521
mcmillanrunning,2522
mcrae,2523
meal,2524
mean,2525
meaning,2526
means,2527
meant,2528
measures,2529
med,2530
medal,2531
medals,2532
medical,2533
medium,2534
meerkat,2535
meet,2536
meeting,2537
meg,2538
mega,2539
meldy,2540
melt,2541
members,2542
memory,2543
men,2544
mend,2545
meningitis,2546
mens,2547
mental,2548
mentally,2549
mention,2550
mentioned,2551
menu,2552
merchandise,2553
mercy,2554
merely,2555
merrier,2556
mess,2557
message,2558
metcheck,2559
methinks,2560
method,2561
metres,2562
mhr,2563
miami,2564
mib,2565
mick,2566
micktherunner,2567
mid,2568
midday,2569
middle,2570
midlands,2571
midnight,2572
midweek,2573
mighty,2574
mike,2575
mikeb,2576
milage,2577
milan,2578
mildly,2579
mile,2580
mileage,2581
mileometer,2582
mileparsedtwodigits,2583
miler,2584
milers,2585
miles,2586
miling,2587
milk,2588
milton,2589
min,2590
mind,2591
minging,2592
mini,2593
minimal,2594
minkey,2595
minkin,2596
minni,2597
minor,2598
mins,2599
minunte,2600
minus,2601
minute,2602
minutes,2603
mis,2604
miserable,2605
miss,2606
missed,2607
missing,2608
mission,2609
mist,2610
mistake,2611
mistakes,2612
mistype,2613
mix,2614
mixed,2615
mizuno,2616
mk,2617
ml,2618
mm,2619
mmm,2620
mn,2621
mnay,2622
mo,2623
mobile,2624
mode,2625
model,2626
modes,2627
modest,2628
moggie,2629
mokina,2630
moment,2631
moments,2632
momentum,2633
mon,2634
monday,2635
mondays,2636
money,2637
monique,2638
monitor,2639
month,2640
monthly,2641
months,2642
monument,2643
mood,2644
moonlight,2645
moral,2646
morale,2647
morecambe,2648
morn,2649
mornibg,2650
mornin,2651
morning,2652
mornings,2653
morons,2654
mortals,2655
mother,2656
motion,2657
motivated,2658
motor,2659
mountain,2660
mouse,2661
mouth,2662
moved,2663
moving,2664
mp,2665
mparsedonedigit,2666
mparsedtwodigits,2667
mph,2668
mpparsedonedigit,2669
mpw,2670
mr,2671
mrs,2672
mrsc,2673
mt,2674
mtr,2675
mud,2676
mudchute,2677
muddy,2678
muff,2679
muffins,2680
mug,2681
multi,2682
multiple,2683
multiples,2684
mum,2685
munter,2686
murderers,2687
muscle,2688
mush,2689
music,2690
mutter,2691
muttering,2692
mvparsedtwodigits,2693
mwah,2694
mwcmf,2695
myasthenia,2696
mystery,2697
nah,2698
nail,2699
nailed,2700
nails,2701
nam,2702
narrowly,2703
natalie,2704
national,2705
nationals,2706
natural,2707
naturally,2708
naughty,2709
ndash,2710
ndereba,2711
near,2712
nearer,2713
nearest,2714
nearing,2715
nearly,2716
necessary,2717
need,2718
needed,2719
needing,2720
needs,2721
negative,2722
negotiate,2723
nelly,2724
nemo,2725
nepal,2726
nerves,2727
nervous,2728
ness,2729
net,2730
neural,2731
nevermind,2732
new,2733
newark,2734
newbies,2735
news,2736
nf,2737
nhs,2738
nice,2739
nicely,2740
nicer,2741
nicest,2742
nick,2743
nickm,2744
nicky,2745
niggle,2746
niggles,2747
nigh,2748
night,2749
nightmare,2750
nights,2751
nikelondon,2752
nikster,2753
nimbus,2754
nipple,2755
nipples,2756
nippy,2757
nissed,2758
njord,2759
nl,2760
nmparsedonedigit,2761
nn,2762
noise,2763
nolan,2764
non,2765
noooooooooooooooooooooooooooooooooooooooooooooooooooooooooooooooo,2766
nooooooooooooooooooooooooooooooooooooooooooooooooooooooooooooooooooooooooooooo,2767
nooooooooooooooooooooooooooooooooooooooooooooooooooooooooooooooooooooooooooooooooooooooooooooooooooooooooooooooooooooooooooooo,2768
nope,2769
normal,2770
normally,2771
normski,2772
north,2773
northern,2774
nose,2775
nostalgic,2776
note,2777
notebook,2778
notes,2779
noticed,2780
notification,2781
notifications,2782
november,2783
novice,2784
novotel,2785
nowt,2786
nt,2787
nts,2788
numb,2789
numbed,2790
number,2791
numbers,2792
nurofen,2793
nurse,2794
nutrition,2795
nutter,2796
ny,2797
nyc,2798
nytol,2799
nz,2800
oakley,2801
oakly,2802
objectives,2803
obliged,2804
obscene,2805
observations,2806
obstacles,2807
obviously,2808
occasion,2809
occasional,2810
occasionally,2811
occasions,2812
occured,2813
oceans,2814
ock,2815
oct,2816
october,2817
odd,2818
oddly,2819
ode,2820
odeon,2821
ofcourse,2822
offer,2823
offered,2824
offering,2825
office,2826
official,2827
officially,2828
oh,2829
ohamd,2830
oiks,2831
oil,2832
ok,2833
okay,2834
ol,2835
old,2836
older,2837
olympic,2838
om,2839
omahd,2840
omegod,2841
omen,2842
ometer,2843
omg,2844
ones,2845
online,2846
onwards,2847
onyl,2848
oo,2849
ooh,2850
ooo,2851
oooh,2852
oooooh,2853
ooops,2854
oops,2855
op,2856
open,2857
opened,2858
opening,2859
operating,2860
opinion,2861
opporutunities,2862
opposed,2863
opposite,2864
opposition,2865
opted,2866
option,2867
options,2868
orange,2869
order,2870
ordered,2871
org,2872
organisation,2873
organise,2874
organised,2875
organising,2876
organizing,2877
orient,2878
original,2879
orthotic,2880
osd,2881
osmotherley,2882
ot,2883
ouch,2884
outfit,2885
outing,2886
outlet,2887
outlook,2888
outside,2889
outstanding,2890
ovaltine,2891
ovder,2892
overall,2893
overdo,2894
overdoing,2895
overdone,2896
overhead,2897
overstretched,2898
overtired,2899
overtook,2900
overtrained,2901
owe,2902
owner,2903
owners,2904
owt,2905
ox,2906
oxford,2907
ozy,2908
ozzy,2909
pace,2910
paced,2911
pacemaker,2912
pacer,2913
pacers,2914
paces,2915
pacing,2916
pack,2917
packed,2918
packs,2919
padams,2920
paddington,2921
paddock,2922
page,2923
pages,2924
paid,2925
pain,2926
painful,2927
painfull,2928
painless,2929
pains,2930
paint,2931
pair,2932
pairs,2933
paltry,2934
panic,2935
panties,2936
panting,2937
paper,2938
paranoid,2939
parentcraft,2940
parents,2941
paris,2942
park,2943
parking,2944
parks,2945
parly,2946
parseddigits,2947
parseddigitsish,2948
parseddigitsk,2949
parseddigitsm,2950
parseddigitsmi,2951
parseddigitsmiles,2952
parseddigitsmph,2953
parseddigitsth,2954
parsedfivedigits,2955
parsedfourdigits,2956
parsedfourdigitsm,2957
parsedonedigit,2958
parsedonedigitam,2959
parsedonedigites,2960
parsedonedigitft,2961
parsedonedigitgram,2962
parsedonedigith,2963
parsedonedigithparsedtwodigits,2964
parsedonedigithr,2965
parsedonedigithrs,2966
parsedonedigitish,2967
parsedonedigitk,2968
parsedonedigitlb,2969
parsedonedigitlbs,2970
parsedonedigitm,2971
parsedonedigitmin,2972
parsedonedigitmins,2973
parsedonedigitmm,2974
parsedonedigitmms,2975
parsedonedigitmph,2976
parsedonedigitnd,2977
parsedonedigitpm,2978
parsedonedigitrd,2979
parsedonedigitsecs,2980
parsedonedigitst,2981
parsedonedigitth,2982
parsedonedigitx,2983
parsedsixdigits,2984
parsedthreedigits,2985
parsedthreedigitsbpm,2986
parsedthreedigitsm,2987
parsedthreedigitsml,2988
parsedthreedigitss,2989
parsedthreedigitsyards,2990
parsedtime,2991
parsedtwodigits,2992
parsedtwodigitsam,2993
parsedtwodigitshrs,2994
parsedtwodigitsish,2995
parsedtwodigitsk,2996
parsedtwodigitskb,2997
parsedtwodigitskm,2998
parsedtwodigitsks,2999
parsedtwodigitsm,3000
parsedtwodigitsmi,3001
parsedtwodigitsmile,3002
parsedtwodigitsmiler,3003
parsedtwodigitsmiles,3004
parsedtwodigitsmin,3005
parsedtwodigitsmins,3006
parsedtwodigitsmm,3007
parsedtwodigitsmnths,3008
parsedtwodigitsmparseddigitss,3009
parsedtwodigitsmpw,3010
parsedtwodigitsp,3011
parsedtwodigitspm,3012
parsedtwodigitsrd,3013
parsedtwodigitss,3014
parsedtwodigitssecs,3015
parsedtwodigitsst,3016
parsedtwodigitsth,3017
parsedtwodigitsxparsedthreedigits,3018
partial,3019
participants,3020
particular,3021
particularly,3022
partner,3023
parts,3024
party,3025
passed,3026
passing,3027
past,3028
pasta,3029
paste,3030
pat,3031
patch,3032
path,3033
pathetic,3034
paths,3035
paul,3036
paula,3037
pavement,3038
pavements,3039
pavey,3040
paving,3041
pay,3042
paying,3043
payment,3044
payments,3045
pb,3046
pbs,3047
pc,3048
peak,3049
peaked,3050
peaks,3051
peaky,3052
peanut,3053
pearce,3054
pee,3055
peeekay,3056
peel,3057
peeled,3058
peeps,3059
peev,3060
pelt,3061
pen,3062
penny,3063
penquin,3064
pens,3065
people,3066
perceived,3067
perfect,3068
perfection,3069
perfectly,3070
performance,3071
performances,3072
period,3073
permanent,3074
permitting,3075
person,3076
personally,3077
perspective,3078
persuade,3079
perusing,3080
peter,3081
petrol,3082
pets,3083
pf,3084
ph,3085
phase,3086
phenomenal,3087
phew,3088
phil,3089
philpub,3090
phoenix,3091
phone,3092
photo,3093
photos,3094
phsycological,3095
physical,3096
physically,3097
physio,3098
pick,3099
picked,3100
picking,3101
picnic,3102
pics,3103
picture,3104
pie,3105
piece,3106
pig,3107
pilates,3108
pilgrimage,3109
pills,3110
pimlico,3111
pink,3112
pinks,3113
pinpoint,3114
pints,3115
pip,3116
pit,3117
pitch,3118
pits,3119
pity,3120
pixels,3121
pizza,3122
pizzaman,3123
pj,3124
place,3125
placed,3126
places,3127
plan,3128
planned,3129
planning,3130
plans,3131
plasters,3132
plate,3133
plateau,3134
play,3135
played,3136
player,3137
players,3138
playing,3139
plays,3140
pleasant,3141
pleased,3142
pleasing,3143
pleaze,3144
plenty,3145
plod,3146
plodder,3147
plodding,3148
ploding,3149
plometrics,3150
plumetted,3151
plus,3152
plyometrics,3153
pm,3154
pmp,3155
podds,3156
point,3157
pointed,3158
pointing,3159
points,3160
poland,3161
polar,3162
police,3163
poo,3164
pool,3165
poor,3166
poorly,3167
pop,3168
poparsedonedigit,3169
popped,3170
popping,3171
poppy,3172
pops,3173
popular,3174
porcus,3175
porridge,3176
port,3177
position,3178
positive,3179
poss,3180
possible,3181
possibly,3182
post,3183
posted,3184
posting,3185
postings,3186
posts,3187
potential,3188
potter,3189
pound,3190
pounding,3191
pounds,3192
pouring,3193
powerful,3194
poxy,3195
ppb,3196
practical,3197
practicioner,3198
practise,3199
practising,3200
prague,3201
pram,3202
pray,3203
prayers,3204
pre,3205
precedents,3206
precisions,3207
predict,3208
predicted,3209
predicting,3210
prefer,3211
preferably,3212
preferring,3213
prep,3214
preparation,3215
prepare,3216
prepared,3217
present,3218
pressure,3219
presumably,3220
presumptious,3221
pretend,3222
pretty,3223
prevent,3224
previous,3225
previously,3226
price,3227
priceless,3228
pricy,3229
primrose,3230
principle,3231
principles,3232
pringles,3233
print,3234
printed,3235
prior,3236
priority,3237
private,3238
prize,3239
prizes,3240
prob,3241
probably,3242
problem,3243
problems,3244
proceeds,3245
process,3246
proclaiming,3247
productive,3248
profiting,3249
profound,3250
programmes,3251
progress,3252
progressed,3253
progressive,3254
progressivly,3255
projecting,3256
promise,3257
promptly,3258
proof,3259
proper,3260
properly,3261
prospect,3262
proud,3263
pround,3264
prove,3265
proved,3266
proven,3267
provide,3268
provided,3269
provides,3270
providing,3271
provision,3272
provisional,3273
ps,3274
pseudo,3275
psi,3276
psychological,3277
pub,3278
public,3279
publicly,3280
puff,3281
puffing,3282
puffy,3283
pug,3284
pugs,3285
pulled,3286
puma,3287
pun,3288
punching,3289
punctuation,3290
punishment,3291
purchased,3292
purely,3293
purpose,3294
purposes,3295
push,3296
pusher,3297
pushes,3298
pushing,3299
puts,3300
putting,3301
pw,3302
qparsedonedigit,3303
quacks,3304
quad,3305
quads,3306
qualified,3307
qualify,3308
qualifying,3309
quality,3310
quarter,3311
quays,3312
quentin,3313
query,3314
question,3315
questions,3316
queue,3317
queueing,3318
quick,3319
quicker,3320
quickle,3321
quickly,3322
quid,3323
quids,3324
quiet,3325
quietly,3326
quite,3327
rabbit,3328
race,3329
raced,3330
racers,3331
races,3332
rach,3333
racing,3334
railway,3335
rain,3336
raining,3337
rainy,3338
raise,3339
raised,3340
raising,3341
raks,3342
ramble,3343
rambling,3344
ramp,3345
ran,3346
range,3347
rapists,3348
rate,3349
rated,3350
rattle,3351
ravenscourt,3352
rb,3353
reach,3354
reached,3355
reaching,3356
reaction,3357
read,3358
reading,3359
readings,3360
reads,3361
ready,3362
real,3363
realise,3364
realised,3365
realising,3366
realistically,3367
reality,3368
reall,3369
really,3370
reason,3371
reasonably,3372
reasons,3373
reassured,3374
rec,3375
recall,3376
recce,3377
receive,3378
received,3379
recent,3380
recently,3381
recieve,3382
reckon,3383
reckoned,3384
recognise,3385
recommend,3386
recommended,3387
record,3388
records,3389
recorn,3390
recount,3391
recoup,3392
recover,3393
recovered,3394
recoveries,3395
recovering,3396
recovery,3397
recreational,3398
recuperate,3399
red,3400
reds,3401
reduce,3402
reduced,3403
refered,3404
refereeing,3405
referring,3406
reflect,3407
reflective,3408
refreshed,3409
refueling,3410
refuelling,3411
regarding,3412
regardless,3413
regards,3414
regents,3415
regimen,3416
register,3417
registered,3418
registration,3419
regretted,3420
regroup,3421
regular,3422
rehearse,3423
rehydrate,3424
rehydrtaion,3425
reins,3426
rejection,3427
rejections,3428
relates,3429
relative,3430
relatives,3431
relax,3432
relaxed,3433
relaxing,3434
relay,3435
relays,3436
relect,3437
relents,3438
religious,3439
relying,3440
remain,3441
remaining,3442
remains,3443
remarkable,3444
remedial,3445
remedy,3446
remember,3447
reminds,3448
removed,3449
removing,3450
rep,3451
repair,3452
repaired,3453
repeated,3454
replied,3455
replies,3456
reply,3457
report,3458
reports,3459
reps,3460
require,3461
required,3462
resembled,3463
reserved,3464
reserves,3465
resident,3466
resistance,3467
respect,3468
responded,3469
responses,3470
responsibility,3471
rest,3472
rested,3473
restless,3474
restraint,3475
result,3476
results,3477
retail,3478
retain,3479
retire,3480
retirement,3481
return,3482
returned,3483
revelation,3484
revenge,3485
reverse,3486
revised,3487
reward,3488
rewarded,3489
rfg,3490
rfj,3491
rfl,3492
rh,3493
rhayader,3494
rhm,3495
rice,3496
rich,3497
richard,3498
richmond,3499
rick,3500
rid,3501
ride,3502
rides,3503
ridiculous,3504
riding,3505
rife,3506
right,3507
rightly,3508
rigorously,3509
ring,3510
ringing,3511
rings,3512
rio,3513
rioja,3514
risk,3515
rival,3516
rivals,3517
river,3518
rk,3519
rm,3520
road,3521
roads,3522
rob,3523
robin,3524
robinsonesque,3525
rochelle,3526
rock,3527
rocket,3528
rocking,3529
roll,3530
rollick,3531
roma,3532
romantic,3533
ronnie,3534
roo,3535
roobarb,3536
roobarbs,3537
roobs,3538
room,3539
rooms,3540
rooting,3541
rossendale,3542
rotation,3543
rotterdam,3544
rough,3545
roughly,3546
round,3547
roundhay,3548
route,3549
routes,3550
row,3551
rowan,3552
rowing,3553
rub,3554
rubber,3555
rubbish,3556
rue,3557
rugby,3558
ruin,3559
ruined,3560
ruislip,3561
rule,3562
rules,3563
run,3564
runner,3565
runners,3566
running,3567
runny,3568
runs,3569
ruscr,3570
rush,3571
rushing,3572
rw,3573
rwc,3574
rythym,3575
sad,3576
saddle,3577
sadly,3578
safc,3579
safe,3580
safely,3581
safety,3582
said,3583
sailed,3584
sailing,3585
sainsbury,3586
sainsburys,3587
salad,3588
salt,3589
samba,3590
samples,3591
sandra,3592
sandstorms,3593
sandwich,3594
sandwiches,3595
sanis,3596
sanps,3597
santa,3598
sapping,3599
saqib,3600
sarah,3601
sat,3602
satisfied,3603
saturday,3604
saturdays,3605
sauce,3606
savage,3607
saving,3608
saw,3609
say,3610
saying,3611
says,3612
sb,3613
sbf,3614
scale,3615
scare,3616
scared,3617
scarf,3618
scarily,3619
scary,3620
scene,3621
scenery,3622
sceptical,3623
schedule,3624
schedules,3625
scheme,3626
schiphol,3627
school,3628
sciatica,3629
score,3630
scorpions,3631
scotland,3632
scott,3633
screen,3634
screwed,3635
scrubs,3636
scrumptious,3637
sea,3638
searching,3639
season,3640
seasons,3641
seat,3642
second,3643
secondary,3644
secondly,3645
seconds,3646
secs,3647
section,3648
sections,3649
securing,3650
seeing,3651
seeking,3652
seemingly,3653
seen,3654
seize,3655
seizing,3656
selbs,3657
selby,3658
self,3659
sell,3660
sellotape,3661
semi,3662
semis,3663
send,3664
sending,3665
sense,3666
sensible,3667
sensitive,3668
sent,3669
separate,3670
sept,3671
september,3672
seren,3673
seriously,3674
service,3675
serviced,3676
services,3677
session,3678
sessions,3679
set,3680
sets,3681
settings,3682
settle,3683
settled,3684
seven,3685
severe,3686
sewerby,3687
sezz,3688
sf,3689
shades,3690
shall,3691
shame,3692
shape,3693
share,3694
sharp,3695
sharpener,3696
sharpeners,3697
sharper,3698
sharply,3699
shattered,3700
sheep,3701
sheet,3702
shelter,3703
sheltered,3704
shields,3705
shift,3706
shifting,3707
shifts,3708
shimmering,3709
shimmied,3710
shimms,3711
shimmy,3712
shin,3713
shins,3714
shiraz,3715
shirl,3716
shirt,3717
shirts,3718
sho,3719
shocker,3720
shoe,3721
shoes,3722
shona,3723
shoot,3724
shooting,3725
shop,3726
shopkeeper,3727
shopping,3728
shops,3729
short,3730
shorter,3731
shortly,3732
shorts,3733
shoukld,3734
shoulder,3735
shouldn,3736
shouldnt,3737
shout,3738
showboat,3739
showed,3740
shower,3741
showered,3742
showerstuff,3743
shows,3744
shparsedonedigitte,3745
shuffled,3746
shuffler,3747
shut,3748
shy,3749
si,3750
sick,3751
sign,3752
signals,3753
signed,3754
significant,3755
signing,3756
silence,3757
silly,3758
silver,3759
silverstone,3760
similar,3761
similarity,3762
simple,3763
simply,3764
singapore,3765
single,3766
sink,3767
sir,3768
sis,3769
sister,3770
sit,3771
site,3772
sitting,3773
situated,3774
size,3775
sized,3776
sj,3777
skating,3778
skidding,3779
skills,3780
skinny,3781
skip,3782
skipper,3783
skirt,3784
sky,3785
skye,3786
slacker,3787
slaps,3788
sleep,3789
sleeping,3790
sleepy,3791
sleet,3792
sleeve,3793
slept,3794
slight,3795
slightly,3796
slighty,3797
slip,3798
slipped,3799
slow,3800
slowed,3801
slowely,3802
slower,3803
slowest,3804
slowly,3805
sm,3806
small,3807
smaller,3808
smarter,3809
smell,3810
smelling,3811
smiffie,3812
smile,3813
smilin,3814
smiling,3815
smith,3816
smoke,3817
smoothie,3818
snail,3819
snakes,3820
sneak,3821
sneaking,3822
sneeky,3823
sneezing,3824
sniffle,3825
sniffles,3826
snoopy,3827
snooze,3828
snow,3829
soak,3830
soaked,3831
soapbox,3832
social,3833
sock,3834
socks,3835
sods,3836
sofa,3837
soft,3838
solely,3839
somebody,3840
somethin,3841
somewhat,3842
son,3843
soon,3844
sooooo,3845
sooooooooo,3846
sore,3847
sores,3848
sorry,3849
sort,3850
sorted,3851
sound,3852
sounded,3853
sounds,3854
source,3855
south,3856
southerns,3857
sox,3858
spams,3859
spannerbparsedonedigittchbumfface,3860
spans,3861
spare,3862
spasming,3863
speak,3864
special,3865
spectactularly,3866
spectacularly,3867
spectate,3868
spectating,3869
speed,3870
speediest,3871
speedwork,3872
speedy,3873
spelling,3874
spelt,3875
spend,3876
spending,3877
spent,3878
spied,3879
spill,3880
split,3881
splits,3882
spoke,3883
spoken,3884
sponsor,3885
sponsored,3886
sponsorship,3887
spoon,3888
sport,3889
sporting,3890
sportive,3891
sports,3892
spot,3893
spotted,3894
spray,3895
spread,3896
spreadsheet,3897
sprightly,3898
spring,3899
springbok,3900
sprint,3901
sprinted,3902
sprinting,3903
sprints,3904
sprouts,3905
spur,3906
spurs,3907
sq,3908
squad,3909
squash,3910
squeak,3911
squint,3912
ss,3913
ssing,3914
sswfw,3915
st,3916
stability,3917
stacks,3918
stadium,3919
staff,3920
stage,3921
stages,3922
stairs,3923
stalls,3924
stamina,3925
stamped,3926
stand,3927
standard,3928
standards,3929
stands,3930
star,3931
stare,3932
starp,3933
start,3934
started,3935
starting,3936
starts,3937
state,3938
statement,3939
static,3940
stating,3941
station,3942
stations,3943
statistics,3944
stats,3945
status,3946
stay,3947
stayed,3948
staying,3949
stays,3950
steadily,3951
steady,3952
steak,3953
steam,3954
steaming,3955
steep,3956
step,3957
stepped,3958
steve,3959
stick,3960
sticking,3961
stickless,3962
sticks,3963
sticky,3964
stiff,3965
stiffer,3966
stinker,3967
stinking,3968
stint,3969
stir,3970
stocks,3971
stoke,3972
stoker,3973
stomach,3974
stone,3975
stonking,3976
stop,3977
stoped,3978
stopped,3979
stopping,3980
stoppit,3981
stops,3982
stopwatch,3983
stored,3984
stores,3985
stories,3986
stormed,3987
story,3988
stourbridge,3989
straigh,3990
straight,3991
strange,3992
strategies,3993
strategy,3994
stratford,3995
streaks,3996
street,3997
streetlights,3998
strength,3999
strengthen,4000
stress,4001
stretch,4002
stretched,4003
stretches,4004
stretching,4005
strictly,4006
stride,4007
strides,4008
strips,4009
stroke,4010
strong,4011
stronger,4012
strongly,4013
structure,4014
struggle,4015
struggled,4016
struggling,4017
stuck,4018
stuff,4019
stupid,4020
stupidly,4021
style,4022
stylish,4023
sub,4024
subconcious,4025
subconsciously,4026
subject,4027
subjects,4028
submerging,4029
subscriber,4030
substituted,4031
success,4032
successful,4033
suck,4034
sucker,4035
suddenly,4036
sue,4037
suffer,4038
sufferers,4039
sugestions,4040
suggest,4041
suggested,4042
suggesting,4043
suggestion,4044
suggestions,4045
suit,4046
suited,4047
suits,4048
sulk,4049
sullivan,4050
summary,4051
summer,4052
sun,4053
sunday,4054
sundays,4055
sunderland,4056
sunny,4057
super,4058
superb,4059
superdebbo,4060
superstitious,4061
suposed,4062
supper,4063
supple,4064
supplements,4065
supply,4066
support,4067
supporter,4068
supporters,4069
supporting,4070
suppose,4071
supposed,4072
supposedly,4073
supreme,4074
sure,4075
surely,4076
surface,4077
surfaces,4078
surges,4079
suriving,4080
surprise,4081
surprised,4082
surprisingly,4083
surrey,4084
surrounding,4085
survive,4086
survived,4087
surviving,4088
susan,4089
susie,4090
susiebee,4091
suspect,4092
suspicious,4093
sussex,4094
sustinence,4095
sutts,4096
sw,4097
swallow,4098
swam,4099
swanny,4100
swayer,4101
sweary,4102
sweat,4103
sweating,4104
sweaty,4105
swedwr,4106
sweet,4107
sweeter,4108
sweetest,4109
sweets,4110
swerve,4111
swim,4112
swimming,4113
swims,4114
switch,4115
switching,4116
sydney,4117
sympathize,4118
sympathy,4119
symptoms,4120
table,4121
tablets,4122
tackling,4123
tactics,4124
tad,4125
tails,4126
takeaway,4127
taken,4128
takes,4129
taking,4130
talent,4131
tales,4132
talk,4133
talking,4134
tall,4135
tallbird,4136
tank,4137
tape,4138
taper,4139
tapering,4140
target,4141
targeted,4142
targeting,4143
targets,4144
tarkers,4145
tarmac,4146
tarpaulin,4147
task,4148
tasks,4149
taste,4150
tatts,4151
tauts,4152
tavern,4153
taxes,4154
taxi,4155
taz,4156
tb,4157
tea,4158
team,4159
teams,4160
technical,4161
tee,4162
teenage,4163
teeshirt,4164
teeth,4165
teh,4166
telephone,4167
tell,4168
telling,4169
tells,4170
telly,4171
temp,4172
temperatures,4173
temperorary,4174
tempo,4175
temporary,4176
tempted,4177
tempting,4178
tend,4179
tended,4180
tendency,4181
tender,4182
tendonitis,4183
tendonosis,4184
tennis,4185
tens,4186
tent,4187
ter,4188
term,4189
terms,4190
test,4191
testicles,4192
testing,4193
tests,4194
text,4195
tf,4196
tfparsedonedigit,4197
thames,4198
thanet,4199
thank,4200
thankful,4201
thanks,4202
thats,4203
theatre,4204
themarathon,4205
theory,4206
therapist,4207
theraputic,4208
therapy,4209
thereabouts,4210
theread,4211
theres,4212
thermals,4213
thigh,4214
thing,4215
things,4216
think,4217
thinking,4218
thinks,4219
thinning,4220
thistle,4221
tho,4222
thomas,4223
thoroughly,4224
thou,4225
thought,4226
thoughts,4227
thread,4228
threads,4229
threshold,4230
throbb,4231
throw,4232
throwaway,4233
throwing,4234
thrown,4235
thu,4236
thurs,4237
thursday,4238
tibial,4239
tick,4240
ticker,4241
tickets,4242
ticking,4243
tied,4244
tight,4245
tighten,4246
tightness,4247
tights,4248
til,4249
till,4250
tillyp,4251
time,4252
timely,4253
times,4254
timex,4255
timing,4256
tin,4257
tinge,4258
tinkerbelle,4259
tiny,4260
tip,4261
tipping,4262
tipptop,4263
tips,4264
tipsy,4265
tired,4266
tiredness,4267
tissue,4268
tl,4269
tm,4270
tmap,4271
tmr,4272
toastman,4273
toasty,4274
today,4275
toddies,4276
toe,4277
toenail,4278
toenails,4279
toes,4280
toilet,4281
toilets,4282
told,4283
tolerance,4284
tom,4285
tommorow,4286
tommorrow,4287
tomorrow,4288
tonight,4289
tonk,4290
tony,4291
took,4292
tool,4293
toooo,4294
tooooo,4295
tooooooo,4296
tootie,4297
tootling,4298
topics,4299
topped,4300
topping,4301
tops,4302
topsec,4303
torn,4304
total,4305
totally,4306
totm,4307
tottenham,4308
tottering,4309
touch,4310
tough,4311
toughener,4312
toughest,4313
toulouse,4314
tourism,4315
towars,4316
towells,4317
tower,4318
town,4319
towners,4320
toyed,4321
tr,4322
tracey,4323
track,4324
tracking,4325
trafalgar,4326
traffic,4327
trail,4328
trailplus,4329
trails,4330
train,4331
trained,4332
trainers,4333
trainign,4334
training,4335
trainning,4336
trains,4337
traning,4338
transport,4339
travel,4340
travelling,4341
treading,4342
treadmill,4343
treadmills,4344
tready,4345
treat,4346
treated,4347
treddie,4348
treddy,4349
treehouse,4350
trees,4351
trendline,4352
trendy,4353
tri,4354
trial,4355
triathlon,4356
triathlons,4357
trick,4358
tricks,4359
tricky,4360
tried,4361
tries,4362
trimpell,4363
trin,4364
trinity,4365
trip,4366
triple,4367
tripped,4368
trochanter,4369
trollers,4370
trophy,4371
trot,4372
trouble,4373
troubled,4374
trouty,4375
trucking,4376
true,4377
truely,4378
truleigh,4379
truly,4380
trumpets,4381
trunk,4382
trust,4383
truthful,4384
try,4385
trying,4386
ts,4387
tsb,4388
tt,4389
ttl,4390
ttt,4391
tu,4392
tub,4393
tube,4394
tues,4395
tuesday,4396
tumbridge,4397
tuning,4398
tunnels,4399
tunturi,4400
turkey,4401
turn,4402
turned,4403
turning,4404
turnout,4405
turns,4406
tutu,4407
tv,4408
tw,4409
twice,4410
twigged,4411
twist,4412
twixt,4413
type,4414
types,4415
typical,4416
typically,4417
typo,4418
tyres,4419
uess,4420
ufrc,4421
uk,4422
ukathletics,4423
ultimate,4424
ultra,4425
ultrasound,4426
um,4427
umb,4428
umbongo,4429
unacceptable,4430
unbearable,4431
unbelievably,4432
unchanged,4433
uncle,4434
uncomfortable,4435
understand,4436
understandable,4437
understatements,4438
understood,4439
underwear,4440
undeserving,4441
undulating,4442
uneven,4443
unexpectly,4444
unfinished,4445
unfit,4446
unfortunately,4447
unhappy,4448
unimpressed,4449
unique,4450
unit,4451
united,4452
unknown,4453
unless,4454
unlike,4455
unlikely,4456
unlucky,4457
unmbrella,4458
unrealistic,4459
unreliable,4460
unsuccessful,4461
unsure,4462
unsurprising,4463
unto,4464
update,4465
updated,4466
updates,4467
updating,4468
uphill,4469
upped,4470
upright,4471
ups,4472
upset,4473
upwards,4474
urban,4475
ure,4476
url,4477
urwfrc,4478
use,4479
used,4480
useful,4481
using,4482
usual,4483
usually,4484
ususally,4485
vale,4486
valentine,4487
value,4488
valuxian,4489
valve,4490
vanished,4491
varies,4492
various,4493
vasaline,4494
vaseline,4495
vb,4496
ve,4497
vegetarians,4498
veggies,4499
vengeance,4500
venom,4501
venomous,4502
venue,4503
verdict,4504
verge,4505
versus,4506
vest,4507
vet,4508
veteran,4509
veyr,4510
vflm,4511
victory,4512
video,4513
vienna,4514
view,4515
viffer,4516
viola,4517
virgin,4518
virus,4519
viruses,4520
visit,4521
visited,4522
visiting,4523
visits,4524
vital,4525
vitamin,4526
vitamins,4527
viz,4528
voice,4529
void,4530
voila,4531
volume,4532
vote,4533
voucher,4534
vrap,4535
vs,4536
wabo,4537
waddling,4538
wafting,4539
wages,4540
wagon,4541
wahey,4542
wait,4543
waiting,4544
wake,4545
waldorf,4546
wales,4547
walk,4548
walked,4549
walking,4550
walks,4551
wall,4552
wandering,4553
wanders,4554
wanna,4555
want,4556
wanted,4557
wanting,4558
wants,4559
ward,4560
wardi,4561
warm,4562
warmer,4563
warming,4564
warning,4565
warrior,4566
wars,4567
wasn,4568
wasps,4569
wasted,4570
wasters,4571
wasting,4572
watch,4573
watched,4574
watches,4575
watching,4576
water,4577
watered,4578
waterloo,4579
waters,4580
waterstop,4581
watford,4582
wating,4583
wave,4584
waves,4585
way,4586
ways,4587
wc,4588
weak,4589
weakness,4590
wealth,4591
wear,4592
wearing,4593
weather,4594
web,4595
website,4596
wed,4597
wedding,4598
wednesday,4599
wednesdays,4600
weds,4601
wee,4602
week,4603
weekday,4604
weekend,4605
weekends,4606
weekly,4607
weeknights,4608
weeks,4609
weetabix,4610
weigh,4611
weighs,4612
weight,4613
weights,4614
weird,4615
welcombe,4616
welcome,4617
welcomes,4618
welcoming,4619
wells,4620
wembley,4621
went,4622
weren,4623
west,4624
westminster,4625
wet,4626
wetsuit,4627
wey,4628
whadisay,4629
wharf,4630
whats,4631
whatsoever,4632
wheelchair,4633
wheldrake,4634
whereabouts,4635
whiled,4636
whilst,4637
whisky,4638
whispered,4639
whitby,4640
white,4641
whopping,4642
wi,4643
wicked,4644
wife,4645
wifes,4646
wiff,4647
willy,4648
wilton,4649
wimbledon,4650
wimped,4651
win,4652
wind,4653
windermere,4654
window,4655
windows,4656
windsor,4657
windsurfing,4658
windy,4659
wine,4660
wings,4661
winner,4662
winning,4663
wins,4664
winter,4665
wiped,4666
wise,4667
wish,4668
wished,4669
wishes,4670
wit,4671
wobbly,4672
woke,4673
woking,4674
wokingham,4675
woman,4676
womble,4677
women,4678
won,4679
wonder,4680
wondered,4681
wonderful,4682
wondering,4683
wonders,4684
wont,4685
wood,4686
wooden,4687
woods,4688
woodwork,4689
woohoo,4690
wooing,4691
woony,4692
word,4693
words,4694
wore,4695
work,4696
worked,4697
working,4698
workload,4699
workout,4700
workouts,4701
works,4702
world,4703
worldpay,4704
worms,4705
wormwood,4706
worried,4707
worries,4708
worry,4709
worrying,4710
worse,4711
worsened,4712
worst,4713
worth,4714
worthwhile,4715
worthy,4716
wotsit,4717
wouldn,4718
wound,4719
wow,4720
wp,4721
wreck,4722
wrecked,4723
wristwatch,4724
write,4725
writing,4726
written,4727
wrong,4728
wrote,4729
ws,4730
wt,4731
wtf,4732
wtgy,4733
wu,4734
ww,4735
www,4736
xc,4737
xfr,4738
xmas,4739
xparsedonedigit,4740
xpost,4741
xtrrea,4742
xv,4743
xx,4744
xxx,4745
ya,4746
yachts,4747
yah,4748
yards,4749
yateley,4750
yay,4751
yeah,4752
year,4753
yeara,4754
years,4755
yellow,4756
yep,4757
yer,4758
yes,4759
yesterday,4760
yesterdays,4761
yeterdays,4762
yikes,4763
yipee,4764
yoghurts,4765
yogs,4766
yomping,4767
york,4768
yorks,4769
youll,4770
younger,4771
youself,4772
youth,4773
youths,4774
yu,4775
yuck,4776
yuk,4777
yum,4778
ywould,4779
zimchick,4780
zimmers,4781
zinc,4782
zone,4783
