__,0
___,1
____,2
_psparsedonedigit_,3
aaand,4
aaron,5
aau,6
ab,7
able,8
absolutely,9
absurd,10
abt,11
abusing,12
abyone,13
acceptable,14
acceptace,15
acceptance,16
account,17
achievement,18
achievements,19
act,20
acting,21
actingg,22
action,23
actors,24
acts,25
actually,26
addicted,27
addidas,28
adding,29
adds,30
adele,31
adidas,32
adizero,33
admire,34
admit,35
adore,36
ads,37
adult,38
adulthood,39
adventvega,40
advert,41
af,42
afk,43
afraid,44
afternoon,45
againagain,46
againnnn,47
age,48
agent,49
ages,50
aggghhhhhhhhh,51
aggravated,52
ago,53
agree,54
agreed,55
ah,56
ahead,57
ahh,58
ahhh,59
ahhhhh,60
ahhhhhhhhhhhhhhhhhhhhh,61
aid,62
ain,63
aint,64
air,65
airing,66
airmax,67
airport,68
aisha,69
aka,70
al,71
alberta,72
album,73
albuquerque,74
alcohol,75
alexandre,76
alicia,77
alihartzell,78
allnighter,79
allowed,80
allpowerful,81
almunia,82
alpha,83
alrdy,84
alskdjalksdjaklsjdaklsjdlkasjdlkjasdlkasdjlkasjdalskdjlaskdj,85
alwayswinning,86
amaze,87
amazing,88
amazinng,89
ambassador,90
america,91
americans,92
amigonnabeokay,93
amp,94
anal,95
anatole,96
andrews,97
android,98
ankle,99
anniv,100
announcements,101
annoy,102
annoyed,103
annoying,104
anotherheadache,105
answer,106
answered,107
answers,108
antm,109
antonio,110
anymore,111
anythingg,112
anyversary,113
anyways,114
anywayz,115
apa_style,116
aparsedonedigit,117
apllo,118
app,119
apparently,120
apple,121
application,122
appreciate,123
appreciated,124
appt,125
april,126
aqua,127
aquarius,128
arby,129
argh,130
armour,131
arms,132
arrested,133
arrivals,134
arrived,135
arriving,136
arroooo,137
arrrghhh,138
arsehole,139
arsenal,140
asap,141
asf,142
ashby,143
ashcroft,144
ashishh,145
ashley,146
ashworth,147
ask,148
asked,149
asks,150
asparagus,151
ass,152
assignments,153
assist,154
asx,155
asz,156
ate,157
athlete,158
athletes,159
atlanta,160
atlantic,161
atm,162
atpesummit,163
attached,164
attempting,165
attended,166
attitude,167
attraction,168
attractive,169
aubin,170
auction,171
audi,172
audio,173
august,174
aunt,175
auntee,176
austin,177
australia,178
av,179
aw,180
awake,181
award,182
awards,183
away,184
awesome,185
awesomeness,186
awesomest,187
awful,188
awhhbabies,189
awkward,190
aww,191
awww,192
axed,193
ayy,194
az,195
azz,196
babe,197
babies,198
baby,199
backs,200
bad,201
bae,202
bag,203
bags,204
baha,205
bahama,206
baked,207
bakersfield,208
bakery,209
ball,210
ballet,211
baltimore,212
baltimoregp,213
bananas,214
band,215
bangs,216
bankers,217
bar,218
barbie,219
barcelona,220
bare,221
barley,222
barn,223
barry,224
bars,225
barton,226
baseball,227
based,228
basic,229
basics,230
bass,231
bastards,232
bathed,233
batteries,234
battery,235
battle,236
baylidonaldson,237
bbms,238
bbq,239
bc,240
bday,241
beach,242
beardie,243
beat,244
beats,245
beautiful,246
bebeee,247
because_it,248
bed,249
bedd,250
beg,251
begin,252
beginnersluck,253
bein,254
beinsinglesucks,255
bel,256
belated,257
belieber,258
beliefs,259
believe,260
bell,261
bella,262
belt,263
bench,264
benchmark,265
benoit,266
bernandez,267
best,268
bestfriend,269
bestfriends,270
bestnightever,271
bet,272
betchesluvthis,273
betta,274
better,275
better_,276
beyonce,277
beyoncé,278
bff,279
bid,280
bieber,281
big,282
biggest,283
bigggg,284
bigmove,285
bike,286
biker,287
bikini,288
bikinis,289
bing,290
bint,291
birds,292
birthday,293
birthdayy,294
bish,295
bit,296
bitch,297
bitches,298
bitchtryagain,299
bites,300
bk,301
black,302
blackberries,303
blah,304
blame,305
blatant,306
bless,307
blessed,308
blessen,309
blessing,310
blew,311
bliss,312
blocked,313
blocks,314
blondes,315
bloody,316
blow,317
blown,318
blue,319
bluesfest,320
body,321
bogart,322
bohemian,323
boise,324
bomb,325
bonus,326
boo,327
book,328
booked,329
bookswithalettermissing,330
boomer,331
boonaa,332
boost,333
boot,334
boots,335
booty,336
bored,337
boredwholedaynow,338
boring,339
borrow,340
bosses,341
bother,342
bothered,343
bottle,344
bottles,345
bought,346
bourbon,347
bout,348
bowl,349
bowling,350
bowral,351
box,352
boxing,353
boy,354
boys,355
boyz,356
bra,357
brace,358
braided,359
braincells,360
brainstorm,361
bran,362
brand,363
brandon,364
bravia,365
break,366
breakfast,367
breaking,368
breath,369
bree,370
breeze,371
breezy,372
brekkie,373
brekky,374
bricks,375
bride,376
bridge,377
bright,378
brighter,379
brighton,380
brilliance,381
bring,382
bringing,383
brisket,384
britney,385
bro,386
broke,387
broken,388
bronx,389
brooke,390
brother,391
brown,392
brownies,393
bruce,394
brush,395
brussels,396
bs,397
bsnl,398
bt,399
btw,400
bucks,401
budget,402
building,403
built,404
bullock,405
bulls,406
bullshit,407
bump,408
bumsuck,409
bunch,410
burn,411
burnt,412
burr,413
bus,414
business,415
busted,416
busy,417
butimgettingthemanywaysfuckit,418
butts,419
buy,420
buyibg,421
buying,422
buys,423
buzz,424
bye,425
byebyesummer,426
bytch,427
cab,428
cadburys,429
caddykim,430
cake,431
calculates,432
calendars,433
called,434
calling,435
calls,436
cam,437
came,438
cameo,439
camera,440
cameraoxford,441
camp,442
campus,443
canada,444
canadafail,445
canadians,446
cannes,447
cape,448
captivate,449
car,450
carbon,451
card,452
cardiff,453
cardigan,454
cardio,455
care,456
cares,457
carolyn,458
carry,459
carter,460
carver,461
case,462
cash,463
cashback,464
casj,465
cast,466
castle,467
cat,468
catch,469
catching,470
cats,471
catwomanbytchz,472
caught,473
cause,474
cbeebies,475
cd,476
cdnjoke,477
cdnpoli,478
celebrate,479
celebrating,480
celebrity,481
celebs,482
celtics,483
centennial,484
center,485
centre,486
cents,487
cereal,488
certificate,489
cfl,490
chains,491
challenge,492
chance,493
chandler,494
chanel,495
change,496
changer,497
chapters,498
character,499
charge,500
charity,501
chart,502
check,503
checked,504
checking,505
cheese,506
cheryl,507
chesterunisummerball,508
chevy,509
chic,510
chicago,511
chicagomanual,512
chick,513
chicken,514
children,515
chill,516
chillin,517
chips,518
chocolate,519
chocolatecravingfail,520
choice,521
chokes,522
chokeyes,523
chose,524
chosen,525
chris,526
christ,527
christmas,528
chromeo,529
chuffed,530
church,531
ciggs,532
cilla,533
circumstances,534
ciric,535
cisco,536
citation,537
cities,538
city,539
civilization,540
cking,541
clashes,542
class,543
classes,544
classic,545
classy,546
cle,547
clef,548
client,549
clients,550
close,551
closer,552
closet,553
clothes,554
cloud,555
clouds,556
club,557
coach,558
coaches,559
coasters,560
coco,561
coding,562
coffee,563
coke,564
cold,565
cole,566
colinratushniak,567
collaboration,568
collar,569
collect,570
collecting,571
collection,572
colleg,573
college,574
cologne,575
color,576
colorado,577
com,578
combat,579
combine,580
combo,581
come,582
comedy,583
comes,584
comfy,585
comin,586
coming,587
commentator,588
comments,589
commercial,590
comming,591
commit,592
communicate,593
community,594
comp,595
company,596
compare,597
compared,598
comparison,599
compete,600
competition,601
competitors,602
complaining,603
complete,604
completely,605
compliments,606
comprehensive,607
computer,608
computing,609
conference,610
confidence,611
confused,612
congrats,613
congratulates,614
congratulations,615
congress,616
connect,617
connection,618
connell,619
consideration,620
consoles,621
cont,622
contains,623
content,624
continue,625
continues,626
contour,627
contract,628
control,629
controller,630
convenient,631
convertible,632
convey,633
convincing,634
convo,635
cook,636
cool,637
cooler,638
cooling,639
coooool,640
cop,641
copy,642
copyright,643
corgi,644
corgis,645
corner,646
corolla,647
corporations,648
corvette,649
costs,650
couldn,651
count,652
counterfeit,653
country,654
couple,655
course,656
courtesy,657
cousin,658
covecrest,659
covered,660
cowell,661
coworker,662
coz,663
crackers,664
cramps,665
crap,666
crappy,667
crashed,668
crazy,669
crazyasshit,670
cream,671
creamy,672
created,673
creating,674
credit,675
creep,676
creeped,677
crew,678
crewneck,679
criminal,680
cringe,681
crosby,682
crossing,683
crown,684
cru,685
crunchy,686
crush,687
ctfxc,688
cultural,689
cunt,690
cup,691
cups,692
curly,693
current,694
currys,695
curve,696
cus,697
customer,698
customers,699
customized,700
cut,701
cute,702
cutest,703
cutie,704
cuz,705
cyber,706
cycling,707
cyprus,708
da,709
dachstar,710
dad,711
daddies,712
daddy,713
dads,714
dalaman,715
dallas,716
dam,717
dame,718
damien,719
dammit,720
damn,721
damnit,722
damnn,723
danced,724
dancemoms,725
dances,726
dancing,727
dang,728
danger,729
dangerous,730
daniel,731
dare,732
dark,733
darling,734
dat,735
date,736
dats,737
daughter,738
dave,739
david,740
davis,741
dawgs,742
dawn,743
day,744
days,745
dayz,746
dc,747
dcfabb,748
dd,749
ddddd,750
dead,751
deal,752
dear,753
dearfuturehusband,754
death,755
deathh,756
debuts,757
decade,758
decades,759
decemeber,760
decided,761
decides,762
decision,763
decisions,764
deck,765
dedicate,766
deep,767
def,768
definite,769
definitely,770
deizydoesit,771
delete,772
deleting,773
delivered,774
delivering,775
dell,776
dellstreak,777
dem,778
demo,779
demon,780
deny,781
deposition,782
depressed,783
depression,784
derrick,785
design,786
desktop,787
despise,788
dessert,789
destiny,790
destroyswaggerville,791
destruction,792
desvers,793
details,794
determined,795
detroit,796
devastated,797
developing,798
devices,799
diamond,800
dictionary,801
did,802
didn,803
didnt,804
die,805
died,806
difficult,807
dig,808
diners,809
ding,810
dinner,811
dinosaurs,812
direction,813
directly,814
dirt,815
dirtbiking,816
dirty,817
dirtybitch,818
dis,819
disappointed,820
disconnected,821
discontent,822
discontinued,823
diseaz,824
disgusted,825
disgusting,826
disgustingg,827
dislike,828
disliking,829
dissapointed,830
disturbed,831
ditching,832
dive,833
divine,834
diz,835
dj,836
dk,837
dkny,838
dm,839
dmb,840
dmca,841
doctors,842
does,843
doesn,844
doesnt,845
dog,846
dogs,847
doing,848
dollar,849
dollars,850
dolphin,851
don,852
dong,853
donkey,854
dont,855
dontknowhowilivedwithoutit,856
donuts,857
doo,858
doodlejump,859
door,860
dope,861
dora,862
dots,863
double,864
douche,865
downloaded,866
downloadin,867
downstairs,868
downtown,869
drag,870
dragu,871
drake,872
drama,873
drawing,874
dream,875
dreamed,876
dress,877
drew,878
dri,879
drinks,880
drive,881
driving,882
droid,883
drop,884
dropped,885
drove,886
drs,887
drunk,888
drunken,889
dry,890
ds,891
dublin,892
ducks,893
dude,894
dull,895
dum,896
dumb,897
dump,898
dun,899
dunks,900
dusted,901
duty,902
dwts,903
dying,904
eachother,905
eagles,906
ear,907
early,908
earned,909
earth,910
easier,911
easily,912
easilyentertained,913
eat,914
eating,915
eats,916
ebay,917
eclipse,918
economical,919
ect,920
ed,921
edward,922
effective,923
effectively,924
efficient,925
effort,926
ego,927
eightyville,928
el,929
eleavator,930
elected,931
elegant,932
elevator,933
em,934
email,935
embarrassed,936
embarrassing,937
emerged,938
emotionally,939
emotions,940
employed,941
employee,942
end,943
ended,944
energy,945
english,946
engrish,947
enjoy,948
enjoyed,949
enjoyin,950
enjoying,951
enormous,952
enter,953
entered,954
entertainment,955
entire,956
entitled,957
enuff,958
eparsedonedigit,959
eparsedonedigitongparsedonedigit,960
epic,961
episode,962
eric,963
ericsson,964
eshop,965
especially,966
essay,967
estate,968
etsykids,969
eurgh,970
euros,971
eve,972
evening,973
evenings,974
event,975
eventful,976
events,977
everybody,978
everyday,979
everygirl,980
everyparsedonedigit,981
everythiiiing,982
everytime,983
evil,984
ex,985
exactly,986
exam,987
excell,988
excellent,989
excited,990
exciting,991
exclusive,992
executive,993
exhausted,994
exhausting,995
exhibit,996
exist,997
exparsedthreedigitsslb,998
expect,999
expensive,1000
expertise,1001
experts,1002
explorer,1003
express,1004
extremely,1005
exxxxxxxxxxxxcited,1006
eye,1007
eyes,1008
ezurbanvibe,1009
fa,1010
fab,1011
fabb,1012
fabulous,1013
facbook,1014
face,1015
facebook,1016
faces,1017
fact,1018
factor,1019
fading,1020
fage,1021
fail,1022
fair,1023
fairly,1024
fake,1025
fall,1026
fallen,1027
fam,1028
family,1029
famous,1030
fan,1031
fans,1032
fantastic,1033
fantasticfest,1034
far,1035
fares,1036
farty,1037
fashion,1038
fast,1039
fastest,1040
fat,1041
father,1042
fault,1043
fav,1044
favorite,1045
fb,1046
fbr,1047
fcukin,1048
feather,1049
featured,1050
fed,1051
federal,1052
fedex,1053
feel,1054
feeling,1055
feels,1056
feet,1057
fell,1058
felt,1059
females,1060
fendi,1061
festival,1062
fev,1063
fever,1064
ff,1065
ffc,1066
ffffff,1067
ffs,1068
fi,1069
fiat,1070
fiber,1071
fieldtrip,1072
fight,1073
figure,1074
figured,1075
filled,1076
film,1077
filming,1078
fin,1079
final,1080
finale,1081
finally,1082
finals,1083
finances,1084
finding,1085
fine,1086
finished,1087
finna,1088
fish,1089
fishin,1090
fishing,1091
fist,1092
fit,1093
fitness,1094
fkn,1095
flags,1096
flash,1097
flauge,1098
flava,1099
flex,1100
flick,1101
flies,1102
flight,1103
flip,1104
flipping,1105
flocka,1106
floor,1107
flop,1108
flops,1109
florida,1110
flow,1111
flu,1112
fml,1113
focal,1114
focus,1115
folks,1116
follow,1117
followback,1118
followers,1119
following,1120
followme,1121
fone,1122
food,1123
foodstamps,1124
fools,1125
foosball,1126
foot,1127
football,1128
footlocker,1129
ford,1130
foreigners,1131
forever,1132
forget,1133
forgiven,1134
forgot,1135
forgotten,1136
fort,1137
forward,1138
founding,1139
foward,1140
fox,1141
franco,1142
freaken,1143
freaking,1144
free,1145
freezer,1146
french,1147
fresh,1148
fresher,1149
friday,1150
frie,1151
fried,1152
friend,1153
friendly,1154
friends,1155
friggin,1156
frm,1157
frowns,1158
froyo,1159
froze,1160
frustrated,1161
frustration,1162
fry,1163
ft,1164
fu,1165
fuck,1166
fuckbing,1167
fucked,1168
fuckin,1169
fucking,1170
fuckoff,1171
fuckthem,1172
fuckyousummit,1173
fuel,1174
fuk,1175
fully,1176
fun,1177
funding,1178
funeral,1179
funn,1180
funnelicious,1181
funny,1182
funparsedthreedigits,1183
future,1184
fuzzy,1185
fxcking,1186
gaga,1187
gala,1188
galaxy,1189
galileo,1190
game,1191
gameon,1192
gamerface,1193
games,1194
gamestop,1195
gangsta,1196
garage,1197
gators,1198
gave,1199
gaveuponhim,1200
gay,1201
gayy,1202
gayyyyy,1203
gbc,1204
gd,1205
geared,1206
gelato,1207
general,1208
genius,1209
genre,1210
genuine,1211
georgia,1212
getalife,1213
geting,1214
gets,1215
getsonmynerves,1216
gettin,1217
getting,1218
gettn,1219
ghetto,1220
gift,1221
gifts,1222
gig,1223
giggle,1224
gingrich,1225
giraffe,1226
girl,1227
girlfriend,1228
girlies,1229
girls,1230
gives,1231
giving,1232
glad,1233
glasses,1234
glee,1235
glen,1236
glorious,1237
glory,1238
gloves,1239
goa,1240
goal,1241
goals,1242
god,1243
godblessbullies,1244
goddamn,1245
goes,1246
goin,1247
going,1248
gojackets,1249
gojesus,1250
gon,1251
gonb,1252
gone,1253
gonna,1254
goo,1255
good,1256
goodgame,1257
goodness,1258
goodnight,1259
goodwill,1260
goofd,1261
google,1262
gorgeous,1263
got,1264
gotta,1265
gotti,1266
gourmet,1267
grab,1268
grace,1269
graduated,1270
graph,1271
grateful,1272
gravity,1273
gray,1274
grease,1275
great,1276
greatday,1277
greater,1278
greatest,1279
greatestgadgets,1280
greatfull,1281
greek,1282
gritting,1283
grounds,1284
grow,1285
grown,1286
grrr,1287
grrrr,1288
grrrrr,1289
grrrrrr,1290
grrrrrrrrrrrr,1291
gt,1292
gteparsedonedigit,1293
guaranteed,1294
guards,1295
gucci,1296
gud,1297
guess,1298
guessing,1299
guessssszz,1300
guests,1301
guilty,1302
gunna,1303
gunners,1304
gutted,1305
guy,1306
guys,1307
gym,1308
ha,1309
haaay,1310
haaha,1311
hack,1312
hacks,1313
hadn,1314
haha,1315
hahaha,1316
hahahahaha,1317
hahahahahahaha,1318
hair,1319
half,1320
halfway,1321
hall,1322
halo,1323
hancock,1324
hand,1325
handle,1326
hands,1327
handycam,1328
hangin,1329
hanging,1330
hankito,1331
happen,1332
happened,1333
happening,1334
happens,1335
happier,1336
happiest,1337
happpy,1338
happy,1339
happytweet,1340
harary,1341
hard,1342
harder,1343
hardest,1344
hardtime,1345
harrisburg,1346
harry,1347
hart,1348
harvey,1349
hasn,1350
hate,1351
haunted,1352
haven,1353
havent,1354
having,1355
hawaiian,1356
hawk,1357
hcr,1358
hd,1359
head,1360
headache,1361
heading,1362
headlamp,1363
headphones,1364
heads,1365
healthy,1366
hear,1367
heard,1368
hearing,1369
heart,1370
heartfelt,1371
heat,1372
heated,1373
heater,1374
heathrowe,1375
heaven,1376
heavily,1377
hees,1378
hehehe,1379
helicopter,1380
hell,1381
hella,1382
hellaclean,1383
helllooooooo,1384
hello,1385
help,1386
heritage,1387
hero,1388
herooo,1389
herr,1390
hey,1391
hi,1392
hiding,1393
high,1394
highlights,1395
hilarious,1396
hills,1397
hilton,1398
hint,1399
hipstamatic,1400
history,1401
hit,1402
hitting,1403
hmmm,1404
hobby,1405
hockey,1406
hoe,1407
hoff,1408
hold,1409
holiday,1410
hollywood,1411
holy,1412
hom,1413
home,1414
homework,1415
homie,1416
homo,1417
honestly,1418
hoodnight,1419
hookah,1420
hoops,1421
hooray,1422
hoosier,1423
hope,1424
hopefully,1425
hopes,1426
hoping,1427
horny,1428
horrible,1429
horribly,1430
horrid,1431
hospital,1432
host,1433
hostel,1434
hot,1435
hotel,1436
hotmail,1437
hott,1438
hour,1439
hours,1440
house,1441
howard,1442
hse,1443
htc,1444
http,1445
huge,1446
hugo,1447
huh,1448
hump,1449
humphrey,1450
hungry,1451
hunting,1452
huntsville,1453
hurricane,1454
hurrryyy,1455
hurry,1456
hurt,1457
hurts,1458
husband,1459
hut,1460
hypertension,1461
hypocrite,1462
icahn,1463
icanhonestlysay,1464
ice,1465
id,1466
idc,1467
idea,1468
ideas,1469
identity,1470
idiot,1471
idk,1472
idmas,1473
ieparsedonedigit,1474
ife,1475
ignorant,1476
ihatenewtwitter,1477
ii,1478
iits,1479
ikea,1480
ikr,1481
ill,1482
ilove,1483
iloveyou,1484
im,1485
ima,1486
imac,1487
imitation,1488
imma,1489
immense,1490
impossible,1491
impressed,1492
impression,1493
inappropriatefuneralsongs,1494
incarnation,1495
inclined,1496
incompetent,1497
inconvenient,1498
indies,1499
industry,1500
indycar,1501
infected,1502
inferior,1503
info,1504
information,1505
infuse,1506
injections,1507
injunction,1508
inkredible_k_,1509
inlove,1510
inn,1511
innovation,1512
insane,1513
insanicast,1514
inside,1515
insightful,1516
insoles,1517
inspired,1518
inspiring,1519
instead,1520
instinct,1521
instructions,1522
intense,1523
interesting,1524
intern,1525
internap,1526
internet,1527
internets,1528
invitation,1529
invitational,1530
invite,1531
invited,1532
involved,1533
iowa,1534
ipad,1535
iphone,1536
ipod,1537
ips,1538
iregret,1539
irritated,1540
island,1541
isn,1542
isnt,1543
isolation,1544
issue,1545
issues,1546
itage,1547
itellyou,1548
ithinkweredonehere,1549
itouch,1550
itunes,1551
iwannago,1552
iwannagodney,1553
iwin,1554
iwontgrowup,1555
iyiyi,1556
iz,1557
jabs,1558
jack,1559
jacket,1560
jah,1561
jail,1562
james,1563
jamin,1564
jaminn,1565
janet,1566
jazz,1567
jazziisstilldumb,1568
jazzmines,1569
jeans,1570
jedward,1571
jeggings,1572
jennette,1573
jerks,1574
jerseys,1575
jerzday,1576
jesus,1577
jetsuite,1578
jhb,1579
jingle,1580
jit,1581
joan,1582
job,1583
joey,1584
johnny,1585
joke,1586
jokes,1587
jordan,1588
joyous,1589
jr,1590
july,1591
jump,1592
jus,1593
juss,1594
just,1595
justify,1596
justin,1597
justsaying,1598
kalli,1599
kanye,1600
kardashian,1601
kardashians,1602
karmasabitch,1603
kat,1604
kate,1605
kathy,1606
katie,1607
kbshow,1608
keeping,1609
ken,1610
kentucky,1611
kevin,1612
key,1613
keyboard,1614
keys,1615
kfc,1616
khadse,1617
khaki,1618
kia,1619
kicc,1620
kick,1621
kicked,1622
kid,1623
kids,1624
kies,1625
kill,1626
killed,1627
killer,1628
killing,1629
kim,1630
kind,1631
kinda,1632
kinderbueno,1633
kinect,1634
king,1635
kink,1636
kiss,1637
kitchen,1638
kits,1639
knew,1640
know,1641
known,1642
knows,1643
knw,1644
kreayshawn,1645
kris,1646
kristen,1647
krystal,1648
kudostoyou,1649
kumaran,1650
kute,1651
kwai,1652
kyiv,1653
la,1654
lab,1655
labor,1656
labs,1657
labtops,1658
ladies,1659
lady,1660
ladycisca,1661
ladygaga,1662
lakers,1663
lakeshow,1664
lame,1665
landlord,1666
landlordhell,1667
langports,1668
laoada,1669
lap,1670
laptop,1671
laptops,1672
large,1673
larry,1674
las,1675
lashes,1676
lasr,1677
lastnight,1678
late,1679
lately,1680
later,1681
latin,1682
latonya,1683
laugh,1684
laughed,1685
launch,1686
launched,1687
laundry,1688
laura,1689
laurgro,1690
lauristons,1691
law,1692
lawrence,1693
lay,1694
layin,1695
laying,1696
layla,1697
lazier,1698
lazy,1699
leaders,1700
leadershipsafariparsedonedigitkparsedtwodigits,1701
leak,1702
leaks,1703
learn,1704
learnt,1705
leave,1706
leaving,1707
lebron,1708
lecturing,1709
left,1710
legally,1711
legend,1712
legit,1713
leisure,1714
lemans,1715
lemars,1716
let,1717
lets,1718
letter,1719
letting,1720
lewis,1721
lex,1722
libra,1723
library,1724
libs,1725
lie,1726
liee,1727
life,1728
lifecomesatyoufast,1729
lifesaver,1730
lift,1731
light,1732
lights,1733
lightyears,1734
liike,1735
like,1736
liked,1737
likeeee,1738
likes,1739
liking,1740
lil,1741
line,1742
lines,1743
ling,1744
linkedin,1745
liquor,1746
listen,1747
listened,1748
listeners,1749
listening,1750
listings,1751
literally,1752
little,1753
liv,1754
live,1755
liverpool,1756
living,1757
ll,1758
lli,1759
lloyd,1760
lmao,1761
lmfao,1762
lmfaoo,1763
lmfaooo,1764
loafers,1765
local,1766
lock,1767
locked,1768
lofty,1769
log,1770
logic,1771
lol,1772
lolz,1773
london,1774
londonriots,1775
lonely,1776
long,1777
longdayahead,1778
longer,1779
look,1780
looked,1781
lookin,1782
looking,1783
looks,1784
looove,1785
lose,1786
losin,1787
losing,1788
lost,1789
lot,1790
lots,1791
loui,1792
louie,1793
louis,1794
lounge,1795
love,1796
lovechicago,1797
loved,1798
lovee,1799
loveeee,1800
lovely,1801
lovemyjob,1802
loveoutletmalls,1803
loves,1804
lovethem,1805
lovin,1806
loving,1807
lovvvvve,1808
low,1809
lowepro,1810
lower,1811
loyal,1812
lp,1813
lt,1814
lts,1815
luca,1816
lucas,1817
lucky,1818
luger,1819
lunch,1820
lungs,1821
luv,1822
luvs,1823
lyin,1824
ma,1825
mac,1826
macbook,1827
machine,1828
macklemore,1829
mad,1830
madmatts,1831
maestro,1832
mag,1833
magic,1834
mags,1835
mah,1836
maid,1837
mail,1838
main,1839
maintain,1840
make,1841
makes,1842
makeup,1843
makeupbymario,1844
makin,1845
making,1846
mall,1847
mam,1848
man,1849
manage,1850
mane,1851
manga,1852
manhattan,1853
mansion,1854
manuel,1855
maps,1856
marathon,1857
marching,1858
marietta,1859
marilyn,1860
mariners,1861
mark,1862
market,1863
marketing,1864
marketingacademy,1865
marks,1866
maro,1867
marshmellows,1868
martini,1869
marty,1870
maryland,1871
masgana,1872
mason,1873
mass,1874
massage,1875
match,1876
material,1877
math,1878
matter,1879
mature,1880
max,1881
maxes,1882
maxin,1883
maybe,1884
mayhem,1885
maynor,1886
mayor,1887
mazing,1888
mbfw,1889
mccartney,1890
mcdonalds,1891
mcflurry,1892
mcfly,1893
mdr,1894
meadows,1895
mean,1896
meaning,1897
means,1898
mechanical,1899
media,1900
mediocrity,1901
meet,1902
meeting,1903
meetings,1904
melody,1905
member,1906
members,1907
memorable,1908
memory,1909
memphisfact,1910
men,1911
menchies,1912
menlyn,1913
mental,1914
mentoring,1915
merchandising,1916
merry,1917
messages,1918
messed,1919
messenger,1920
met,1921
mfs,1922
mgmt,1923
mi,1924
michaelmyersatd,1925
michellebachmann,1926
microsoft,1927
microwave,1928
middle,1929
middlefingerseverywhere,1930
midnight,1931
migraines,1932
migrainessuck,1933
mii,1934
mike,1935
mile,1936
milk,1937
milky,1938
million,1939
mind,1940
miner,1941
mines,1942
mini,1943
mins,1944
minute,1945
minuteclinic,1946
minutes,1947
mis,1948
miss,1949
missed,1950
missin,1951
missing,1952
missthatshow,1953
mistake,1954
mistakes,1955
mmm,1956
mmmmm,1957
mmmmmm,1958
mobile,1959
mobileme,1960
model,1961
moderate,1962
mohammed,1963
mom,1964
moment,1965
momma,1966
mommasboy,1967
moms,1968
mon,1969
monday,1970
mondays,1971
money,1972
monin,1973
monster,1974
montage,1975
month,1976
months,1977
mood,1978
moods,1979
moon,1980
morethanwordart,1981
moretweetsaboutfood,1982
morning,1983
mornings,1984
morons,1985
mothafuckas,1986
mother,1987
mothers,1988
motivation,1989
moved,1990
movie,1991
moving,1992
mr,1993
ms,1994
msc,1995
msp,1996
mtg,1997
mtl,1998
mtv,1999
muchappreciatedinfo,2000
mucho,2001
mucus,2002
multi,2003
mum,2004
muppets,2005
murderdrome,2006
murray,2007
murs,2008
museo,2009
music,2010
musical,2011
mustache,2012
mustaches,2013
mutt,2014
mvp,2015
mwema,2016
mylilkitchenlab,2017
mynichols,2018
na,2019
nails,2020
nakutamani,2021
named,2022
nancy,2023
nap,2024
nasally,2025
nashville,2026
nasty,2027
natalie,2028
nation,2029
nations,2030
naturally,2031
nature,2032
navi,2033
nawl,2034
nazi,2035
nbd,2036
ncaasoftball,2037
nd,2038
neat,2039
necklace,2040
need,2041
needed,2042
needs,2043
neighbor,2044
nemesis,2045
nerve,2046
netbook,2047
netflix,2048
network,2049
networks,2050
neva,2051
nevea,2052
neverfails,2053
nevertrust,2054
new,2055
newalltimelow,2056
news,2057
newt,2058
nexuss,2059
nf,2060
nice,2061
nicer,2062
nick,2063
nickelodeon,2064
nicki,2065
nicks,2066
nicky,2067
nickyruddparsedtwodigits,2068
nigga,2069
niggas,2070
niggaz,2071
night,2072
nighters,2073
nightmares,2074
nights,2075
nightttttt,2076
nike,2077
nikes,2078
nikita,2079
nikki,2080
nintendo,2081
niqqas,2082
nite,2083
njoy,2084
nodeadlinestoday,2085
nofatgirls,2086
noir,2087
nominate,2088
nomination,2089
non,2090
nonebesideyou,2091
noooooo,2092
nordy,2093
normal,2094
northeast,2095
nose,2096
notcool,2097
notgraceful,2098
nothin,2099
notice,2100
noticing,2101
notify,2102
nova,2103
novels,2104
np,2105
nparsedonedigitg,2106
nparsedthreedigits,2107
number,2108
numbers,2109
ny,2110
nyan,2111
nyc,2112
nycearthquakeparsedfourdigits,2113
nz,2114
o_o,2115
o_parsedonedigit,2116
obama,2117
obsessed,2118
obviously,2119
odd,2120
oddparents,2121
odvy,2122
offered,2123
offering,2124
offers,2125
office,2126
officeparsedthreedigits,2127
official,2128
officially,2129
oft,2130
oh,2131
ohcarolina,2132
ohh,2133
ohjoy,2134
ohkay,2135
ok,2136
okay,2137
okayy,2138
ol,2139
old,2140
oldbridge,2141
older,2142
olly,2143
olot,2144
olympian,2145
omg,2146
omgyouteen,2147
omnia,2148
onam,2149
ones,2150
online,2151
onsomniactic,2152
oof,2153
ooo,2154
oooh,2155
ooooooo,2156
opening,2157
opera,2158
opinions,2159
opportunities,2160
optimism,2161
ordered,2162
oregon,2163
oreo,2164
oreos,2165
original,2166
orland,2167
orlando,2168
os,2169
oth,2170
ottawa,2171
ouo,2172
outdoors,2173
outlet,2174
outrage,2175
outside,2176
outstretched,2177
outta,2178
oval,2179
ovens,2180
overall,2181
overc,2182
overcome,2183
overcomers,2184
overdosed,2185
overflows,2186
owner,2187
owns,2188
oy,2189
packed,2190
packing,2191
pad,2192
page,2193
paid,2194
pain,2195
paint,2196
pair,2197
palmer,2198
pants,2199
pantssss,2200
pao,2201
papa,2202
paparazzie,2203
paper,2204
papers,2205
parenthood,2206
parents,2207
paris,2208
park,2209
parking,2210
parseddigits,2211
parseddigitshrs,2212
parseddigitss,2213
parseddigitsth,2214
parsedfivedigits,2215
parsedfivedigitsth,2216
parsedfourdigits,2217
parsedonedigit,2218
parsedonedigitam,2219
parsedonedigitday,2220
parsedonedigitds,2221
parsedonedigiter,2222
parsedonedigitg,2223
parsedonedigitgot,2224
parsedonedigitgs,2225
parsedonedigitk,2226
parsedonedigitmi,2227
parsedonedigitmp,2228
parsedonedigitnite,2229
parsedonedigitpay,2230
parsedonedigitrd,2231
parsedonedigitst,2232
parsedonedigitth,2233
parsedonedigitx,2234
parsedsixdigits,2235
parsedthreedigits,2236
parsedthreedigitsb,2237
parsedtime,2238
parsedtwodigits,2239
parsedtwodigitsmphunder,2240
parsedtwodigitspeopleidmarry,2241
parsedtwodigitsth,2242
parsedtwodigitsthjinnieday,2243
parsedtwodigitsyr,2244
participants,2245
partner,2246
partners,2247
parts,2248
party,2249
passed,2250
passes,2251
passing,2252
passwords,2253
past,2254
paste,2255
patent,2256
patience,2257
patient,2258
pattom,2259
pauly,2260
pay,2261
pbs,2262
pda,2263
peak,2264
pee,2265
pencils,2266
people,2267
perez,2268
perfect,2269
performing,2270
permission,2271
person,2272
personable,2273
personal,2274
personality,2275
petsitting,2276
phase,2277
phat,2278
phd,2279
phew,2280
phone,2281
photo,2282
physical,2283
physically,2284
pic,2285
picasso,2286
pick,2287
picked,2288
pics,2289
picture,2290
pictures,2291
pie,2292
piece,2293
pieces,2294
pifco,2295
pig,2296
pike,2297
pile,2298
pipeline,2299
piss,2300
pissed,2301
pisses,2302
pissin,2303
pizza,2304
place,2305
places,2306
plan,2307
planned,2308
planning,2309
plans,2310
play,2311
playa,2312
played,2313
player,2314
playing,2315
plays,2316
pledge,2317
pls,2318
plus,2319
plzzzzz,2320
pmcq,2321
pnc,2322
point,2323
pointless,2324
points,2325
political,2326
polka,2327
poll,2328
pooped,2329
poor,2330
popular,2331
portal,2332
ported,2333
positive,2334
possibly,2335
post,2336
posted,2337
posters,2338
posting,2339
potatoes,2340
potential,2341
potter,2342
pow,2343
power,2344
powerpoint,2345
ppl,2346
ppls,2347
practice,2348
prada,2349
pradaa,2350
pradas,2351
pray,2352
prayer,2353
praying,2354
pre,2355
pregnant,2356
prepare,2357
pres,2358
preseason,2359
presented,2360
president,2361
press,2362
pressure,2363
presume,2364
pretty,2365
preview,2366
previous,2367
price,2368
priceless,2369
prices,2370
primark,2371
princess,2372
principles,2373
print,2374
printer,2375
pro,2376
probably,2377
problem,2378
problems,2379
probs,2380
proceeds,2381
process,2382
prod,2383
product,2384
products,2385
profesh,2386
professional,2387
professors,2388
profile,2389
program,2390
programs,2391
progressive,2392
project,2393
prolly,2394
promise,2395
promotions,2396
properly,2397
properties,2398
protection,2399
proud,2400
proudly,2401
provided,2402
providing,2403
prudence,2404
ps,2405
psn,2406
psparsedonedigit,2407
psyched,2408
pts,2409
pudding,2410
pukes,2411
pull,2412
puma,2413
pumped,2414
punch,2415
purchase,2416
purchased,2417
purchases,2418
purdue,2419
pure,2420
purple,2421
purse,2422
push,2423
putting,2424
puzzle,2425
qanda,2426
qpr,2427
qualified,2428
quality,2429
quarantine,2430
queen,2431
queenslanders,2432
questionoftheday,2433
questions,2434
quickly,2435
quinn,2436
quite,2437
quiz,2438
race,2439
racers,2440
rachel,2441
rack,2442
radio,2443
radioooooooo,2444
rain,2445
raindeers,2446
rainy,2447
raising,2448
ran,2449
rank,2450
ranked,2451
rant,2452
rap,2453
rapper,2454
rapter,2455
raul,2456
rbc,2457
read,2458
reader,2459
reading,2460
ready,2461
real,2462
realigning,2463
reality,2464
realize,2465
realized,2466
really,2467
reason,2468
reasons,2469
received,2470
receiving,2471
receptionist,2472
reciprocate,2473
recommend,2474
recommendation,2475
recommending,2476
red,2477
redvelvet,2478
reformatted,2479
refs,2480
refused,2481
registered,2482
registering,2483
regret,2484
regrets,2485
rehearsallyfe,2486
reinlove,2487
reinstall,2488
reinstalling,2489
relationship,2490
relax,2491
relaxin,2492
release,2493
released,2494
releasing,2495
reliable,2496
religious,2497
relying,2498
remains,2499
remember,2500
remembering,2501
remind,2502
reminds,2503
remix,2504
remote,2505
removed,2506
remy,2507
rendering,2508
renewal,2509
renewed,2510
renewing,2511
rentign,2512
replica,2513
reply,2514
report,2515
reported,2516
reportedly,2517
represent,2518
repulsive,2519
request,2520
rescheduled,2521
rescue,2522
researching,2523
reservations,2524
resort,2525
respect,2526
respond,2527
response,2528
restoration,2529
retailers,2530
retire,2531
return,2532
returning,2533
retweet,2534
revision,2535
rhapsody,2536
rhythms,2537
rich,2538
richard,2539
rick,2540
rid,2541
ride,2542
riders,2543
ridiculousness,2544
rife,2545
right,2546
rights,2547
rihanna,2548
ring,2549
riots,2550
ripped,2551
risf,2552
ritz,2553
river,2554
road,2555
roads,2556
rock,2557
rockband,2558
rocked,2559
rockem,2560
rockin,2561
rocko,2562
rocks,2563
rod,2564
rode,2565
role,2566
rolex,2567
roll,2568
roller,2569
romance,2570
rome,2571
roof,2572
room,2573
roomies,2574
roommate,2575
rooms,2576
root,2577
rope,2578
rose,2579
ross,2580
routine,2581
row,2582
rparsedonedigit,2583
rrb,2584
rt,2585
rub,2586
rubbn,2587
rude,2588
ruin,2589
ruining,2590
rule,2591
rules,2592
run,2593
runied,2594
running,2595
ryach,2596
sac,2597
sad,2598
saddens,2599
safe,2600
safely,2601
said,2602
saints,2603
salad,2604
sale,2605
sales,2606
salif,2607
saltwater,2608
samantha,2609
samelson,2610
samsung,2611
samsungsmarttv,2612
samsungsupport,2613
samuel,2614
sandals,2615
sandra,2616
santa,2617
satisfying,2618
saturday,2619
sauder,2620
save,2621
saved,2622
saw,2623
say,2624
sayin,2625
saying,2626
says,2627
scale,2628
scams,2629
scared,2630
scarf,2631
scedules,2632
schedule,2633
scholarship,2634
school,2635
science,2636
scooby,2637
scored,2638
scores,2639
scorpio,2640
scotland,2641
scottish,2642
scratch,2643
scream,2644
screen,2645
screw,2646
screwed,2647
scruf,2648
search,2649
seashells,2650
season,2651
second,2652
seconds,2653
secure,2654
security,2655
seedless,2656
seeing,2657
seen,2658
seeya,2659
selfish,2660
sell,2661
selling,2662
sellouts,2663
semester,2664
semi,2665
send,2666
sending,2667
sent,2668
september,2669
sequence,2670
series,2671
seriously,2672
seriouslyy,2673
serve,2674
service,2675
set,2676
settling,2677
severely,2678
sexiest,2679
sexy,2680
sh,2681
shabby,2682
shades,2683
shall,2684
shame,2685
shants,2686
shape,2687
shaqs,2688
share,2689
sharp,2690
sharpies,2691
shave,2692
shees,2693
sheesh,2694
shes,2695
shifter,2696
shiny,2697
shipping,2698
shirt,2699
shirts,2700
shit,2701
shithead,2702
shitting,2703
sho,2704
shock,2705
shoddy,2706
shoe,2707
shoes,2708
shoetweets,2709
shoot,2710
shootin,2711
shootout,2712
shop,2713
shopping,2714
shorts,2715
shorty,2716
shot,2717
shots,2718
shouldn,2719
shout,2720
shouting,2721
showed,2722
shower,2723
showing,2724
showroom,2725
shows,2726
shox,2727
shred,2728
shut,2729
shutter,2730
shutting,2731
shytt,2732
sia,2733
sic,2734
sick,2735
sickkkkkkk,2736
siding,2737
sigh,2738
sign,2739
signed,2740
sike,2741
silent,2742
silly,2743
silver,2744
sim,2745
simon,2746
sims,2747
sing,2748
singers,2749
singin,2750
singing,2751
single,2752
sir,2753
sister,2754
sisters,2755
sittin,2756
sitting,2757
size,2758
skateboards,2759
skin,2760
skinnythoughts,2761
skip,2762
skips,2763
sky,2764
skype,2765
sleep,2766
sleeping,2767
sleepy,2768
sleeves,2769
slipping,2770
slow,2771
small,2772
smart,2773
smashed,2774
smdh,2775
smell,2776
smh,2777
smile,2778
smith,2779
smooth,2780
snapback,2781
snatching,2782
sneak,2783
sneakers,2784
snell,2785
snoring,2786
snot,2787
snowball,2788
snowday,2789
soaking,2790
sobay,2791
sobber,2792
social,2793
socks,2794
soexcited,2795
softball,2796
software,2797
sold,2798
solid,2799
somemore,2800
somethin,2801
son,2802
song,2803
songs,2804
sony,2805
soo,2806
soon,2807
sooo,2808
soooo,2809
sooooo,2810
soooooo,2811
sooooooooooo,2812
soooooooooooo,2813
sort,2814
sorta,2815
sought,2816
soul,2817
sound,2818
sounds,2819
soup,2820
space,2821
spain,2822
spam,2823
spammed,2824
spamming,2825
sparsedonedigit,2826
sparsedtwodigits,2827
spaziale,2828
speak,2829
speakers,2830
spears,2831
special,2832
speech,2833
speed,2834
spell,2835
spelling,2836
spend,2837
spent,2838
spidey,2839
spike,2840
spirits,2841
spite,2842
spoils,2843
spongebob,2844
sponsored,2845
sponsoring,2846
spotlite,2847
spots,2848
spray,2849
springfever,2850
squeeze,2851
st,2852
stab,2853
stadium,2854
staff,2855
stairs,2856
stalking,2857
stamps,2858
stand,2859
standing,2860
standwithpp,2861
starbucks,2862
staring,2863
start,2864
started,2865
startin,2866
starting,2867
starts,2868
starving,2869
state,2870
statefarmwasnttthere,2871
states,2872
station,2873
stay,2874
stayed,2875
staying,2876
steak,2877
steal,2878
steeple,2879
stella,2880
step,2881
steps,2882
stereotype,2883
steve,2884
stick,2885
stillworks,2886
stink,2887
stinkin,2888
stinks,2889
stockist,2890
stoked,2891
stole,2892
stolen,2893
stomach,2894
stoned,2895
stop,2896
stopped,2897
store,2898
stores,2899
story,2900
straighner,2901
strategicvoteparsedtwodigits,2902
strawberries,2903
street,2904
stressed,2905
stressful,2906
stressing,2907
strong,2908
strumpit,2909
strung,2910
stuck,2911
student,2912
students,2913
studio,2914
study,2915
studying,2916
studylink,2917
stuff,2918
stuffy,2919
stunning,2920
stunt,2921
stuntdoublecircus,2922
stupid,2923
stupidly,2924
style,2925
styles,2926
su,2927
subscription,2928
success,2929
suck,2930
sucked,2931
sucker,2932
sucks,2933
sudden,2934
suffer,2935
suites,2936
sultans,2937
sum,2938
sumbody,2939
summer,2940
summertime,2941
summit,2942
sun,2943
sunday,2944
sundayfunday,2945
sunny,2946
sunshine,2947
super,2948
superb,2949
supervisor,2950
support,2951
sure,2952
surprise,2953
surprised,2954
surprises,2955
surry,2956
suxx,2957
swag,2958
swear,2959
sweatpants,2960
sweats,2961
sweatshop,2962
sweep,2963
sweet,2964
sweetest,2965
sweetiez,2966
swift,2967
switch,2968
swype,2969
sydney,2970
sync,2971
syracuse,2972
systems,2973
tab,2974
taco,2975
tad,2976
taken,2977
takes,2978
takin,2979
taking,2980
tale,2981
talented,2982
talk,2983
talking,2984
talkshitgethit,2985
tammi,2986
tan,2987
tanya,2988
target,2989
taste,2990
tasting,2991
tattoo,2992
taurus,2993
taxi,2994
tbqf,2995
tca,2996
tea,2997
teach,2998
teacher,2999
teaches,3000
team,3001
teamceltics,3002
teamgod,3003
teamilluminati,3004
teamladiphat,3005
teams,3006
tears,3007
tech,3008
techdays,3009
tee,3010
teeth,3011
tell,3012
tellin,3013
telling,3014
tells,3015
tempo,3016
terry,3017
test,3018
texas,3019
text,3020
texts,3021
tf,3022
tg,3023
th,3024
tha,3025
thailand,3026
thank,3027
thankgod,3028
thanks,3029
thankz,3030
thanx,3031
thats,3032
theapprentice,3033
theater,3034
theatre,3035
thefuck,3036
thegame,3037
thejoshdiogo,3038
thelasttimeichecked,3039
therapy,3040
thesis,3041
thesteffiekayy,3042
thevoice,3043
theylookfuckedup,3044
thierselfs,3045
thing,3046
things,3047
thingsthatshouldbebanned,3048
thingy,3049
think,3050
thinked,3051
thinking,3052
thinks,3053
thirst,3054
thirsty,3055
thismuch,3056
thiz,3057
thnk,3058
thnx,3059
tho,3060
thou,3061
thought,3062
thro,3063
thrown,3064
tht,3065
thug,3066
thumbs,3067
thunder,3068
thxz,3069
ticket,3070
tickets,3071
tides,3072
tie,3073
tight,3074
till,3075
tim,3076
time,3077
timeline,3078
times,3079
tint,3080
tired,3081
tires,3082
tmrw,3083
today,3084
todays,3085
told,3086
tolerance,3087
tommm,3088
tomorrow,3089
tomorrowwww,3090
tonight,3091
tons,3092
tooeazy_parsedonedigit,3093
took,3094
tool,3095
toothache,3096
topoftheworld,3097
tops,3098
toronto,3099
torture,3100
totally,3101
tote,3102
tots,3103
touchpad,3104
town,3105
tracks,3106
tracksuit,3107
tragedy,3108
trail,3109
train,3110
trainers,3111
training,3112
trampoline,3113
trash,3114
travel,3115
treat,3116
treated,3117
trhumanist,3118
tried,3119
trip,3120
trips,3121
true,3122
trust,3123
trusting,3124
truth,3125
try,3126
tryin,3127
tryina,3128
trying,3129
tryna,3130
trynna,3131
tshirt,3132
tsk,3133
tuesdays,3134
tuition,3135
tune,3136
turfs,3137
turkey,3138
turn,3139
turns,3140
tv,3141
tvguide,3142
tweeple,3143
tweeps,3144
tweet,3145
tweetiepies,3146
tweety,3147
twice,3148
twitpic,3149
twitter,3150
twitters,3151
twype,3152
tx,3153
tyler,3154
typing,3155
ubc,3156
ublewit,3157
ucla,3158
uga,3159
ugghh,3160
ugh,3161
ughh,3162
ughhh,3163
ugly,3164
uh,3165
uhgggg,3166
uhungry,3167
uk,3168
um,3169
understand,3170
unexpected,3171
unfort,3172
unfortunate,3173
unfortunately,3174
uni,3175
unidentical,3176
uniforms,3177
unique,3178
unite,3179
united,3180
universe,3181
unlimited,3182
upcoming,3183
update,3184
upgrading,3185
uploading,3186
upmost,3187
upp,3188
upparsedonedigit,3189
ups,3190
upset,3191
uqly,3192
ur,3193
urgh,3194
usa,3195
use,3196
used,3197
useful,3198
useless,3199
user,3200
usiku,3201
using,3202
utc,3203
utterly,3204
vaca,3205
vacation,3206
vaio,3207
valentine,3208
van,3209
vanilla,3210
vapor,3211
ve,3212
vegas,3213
verified,3214
verizon,3215
version,3216
vibes,3217
vibrant,3218
victorious,3219
vid,3220
video,3221
videos,3222
view,3223
viewed,3224
vile,3225
vintage,3226
vip,3227
virtualization,3228
vision,3229
visit,3230
visuallyastounding,3231
vita,3232
vma,3233
vodka,3234
voice,3235
voices,3236
voila,3237
volume,3238
vote,3239
voted,3240
votes,3241
voting,3242
vows,3243
vs,3244
vuitton,3245
vwbug,3246
waaaaaayyyy,3247
wachin,3248
wade,3249
wahoo,3250
wait,3251
waitin,3252
waiting,3253
waka,3254
wakemeupwhen,3255
waking,3256
walk,3257
walkin,3258
walking,3259
wallet,3260
wanna,3261
want,3262
wanted,3263
wants,3264
warm,3265
wash,3266
washed,3267
wasn,3268
wasnt,3269
waste,3270
wasted,3271
wat,3272
watch,3273
watched,3274
watchin,3275
watching,3276
water,3277
watermelon,3278
wave,3279
way,3280
wayne,3281
ways,3282
wcws,3283
weak,3284
wear,3285
wearin,3286
wearing,3287
weather,3288
web,3289
webbie,3290
website,3291
webtv,3292
wed,3293
wedding,3294
wednesday,3295
wee,3296
week,3297
weekend,3298
weekends,3299
weeks,3300
weight,3301
weird,3302
welcome,3303
welfare,3304
welovemaster,3305
wen,3306
wendys,3307
went,3308
weren,3309
west,3310
western,3311
westminster,3312
wet,3313
whale,3314
whathappenedtorealmovies,3315
whelp,3316
whip,3317
white,3318
whitegirl,3319
whittle,3320
whoop,3321
whore,3322
whyaretheyspeakingspanish,3323
whyy,3324
wi,3325
wife,3326
wifey,3327
wii,3328
wiiware,3329
wild,3330
wildcats,3331
willo,3332
win,3333
window,3334
windows,3335
wine,3336
winning,3337
wins,3338
winslet,3339
winter,3340
wired,3341
wireless,3342
wisconsin,3343
wish,3344
wishing,3345
wit,3346
witnessed,3347
wk,3348
woman,3349
women,3350
womens,3351
won,3352
wonder,3353
wonderful,3354
wont,3355
woo,3356
woofwoofwoof,3357
wooh,3358
woohoo,3359
wool,3360
wooohhooo,3361
woot,3362
word,3363
words,3364
work,3365
worked,3366
workers,3367
workin,3368
working,3369
workout,3370
works,3371
workshop,3372
world,3373
worldwide,3374
worse,3375
worst,3376
worstmovieever,3377
worstshoesever,3378
worth,3379
worthless,3380
wouldn,3381
wouldnt,3382
wow,3383
wowww,3384
wpcla,3385
write,3386
writing,3387
wrong,3388
wrote,3389
wtchn,3390
wtf,3391
wuv,3392
xbox,3393
xd,3394
xfactor,3395
xmas,3396
xo,3397
xoxo,3398
xp,3399
xparsedtwodigits,3400
xperia,3401
xx,3402
xxxx,3403
ya,3404
yaas,3405
yaay,3406
yahoo,3407
yall,3408
yay,3409
yayayayayayyay,3410
yayy,3411
yea,3412
yeaa,3413
yeah,3414
yeahright,3415
year,3416
years,3417
yell,3418
yer,3419
yes,3420
yessir,3421
yesss,3422
yessss,3423
yesterday,3424
yeyeeee,3425
yikes,3426
yo,3427
yogurt,3428
yoh,3429
youbetcha,3430
youcantdateme,3431
young,3432
younger,3433
youtube,3434
youuuuu,3435
yr,3436
yrs,3437
yu,3438
yum,3439
yummm,3440
yummy,3441
yup,3442
yuummy,3443
zaventem,3444
zaytoven,3445
zelda,3446
zilleville,3447
zone,3448
zoo,3449
zoom,3450
zouch,3451
zuckerberg,3452
zumba,3453
