__,0
___,1
____,2
_psparsedonedigit_,3
aaand,4
aaron,5
aau,6
ab,7
ability,8
able,9
absolute,10
absolutely,11
absurd,12
abt,13
abusing,14
abyone,15
acceptable,16
acceptace,17
acceptance,18
account,19
achievement,20
achievements,21
act,22
acting,23
actingg,24
action,25
actors,26
acts,27
actually,28
addict,29
addicted,30
addidas,31
adding,32
adds,33
adele,34
adidas,35
adizero,36
admire,37
admit,38
adore,39
adult,40
adulthood,41
adventvega,42
advert,43
af,44
afk,45
afraid,46
afternoon,47
againagain,48
againnnn,49
age,50
ages,51
aggravated,52
ago,53
agree,54
agreed,55
ah,56
ahead,57
ahh,58
ahhh,59
ahhhhhhhhhhhhhhhhhhhhh,60
aid,61
ain,62
aint,63
air,64
airing,65
airport,66
aisha,67
aka,68
al,69
alberta,70
album,71
alcohol,72
alexandre,73
alexxx,74
alicia,75
alihartzell,76
allnighter,77
allowed,78
allpowerful,79
almunia,80
alpha,81
alrdy,82
alskdjalksdjaklsjdaklsjdlkasjdlkjasdlkasdjlkasjdalskdjlaskdj,83
alwayswinning,84
amaze,85
amazing,86
amazinng,87
ambassador,88
america,89
americans,90
amigonnabeokay,91
amp,92
anal,93
anatole,94
andrews,95
android,96
ankle,97
annette,98
anniv,99
announce,100
announcements,101
annoy,102
annoyed,103
annoying,104
anotherheadache,105
answer,106
answered,107
answers,108
anticpation,109
antm,110
anymore,111
anythingg,112
anyversary,113
anyways,114
anywayz,115
apa_style,116
aparsedonedigit,117
apllo,118
app,119
apparently,120
apple,121
application,122
appreciate,123
appreciated,124
approximately,125
april,126
apt,127
aqua,128
arby,129
arcade,130
argh,131
arguing,132
armour,133
arms,134
arrivals,135
arrived,136
arriving,137
arroooo,138
arrrghhh,139
arsehole,140
arsenal,141
asap,142
asf,143
ashamed,144
ashby,145
ashcroft,146
ashishh,147
ashley,148
ashworth,149
ask,150
asked,151
asks,152
asleep,153
ass,154
assignments,155
assist,156
asx,157
asz,158
ate,159
athlete,160
atlanta,161
atlantic,162
atm,163
atpesummit,164
attached,165
attempting,166
attended,167
attitude,168
attraction,169
attractive,170
aubin,171
auction,172
audi,173
audio,174
aunt,175
auntee,176
austin,177
australia,178
av,179
aw,180
awake,181
award,182
awards,183
away,184
awesome,185
awesomest,186
awful,187
awhhbabies,188
awkward,189
awsome,190
awww,191
axed,192
ayy,193
az,194
azn,195
azure,196
azz,197
babe,198
babies,199
baby,200
bad,201
bae,202
bag,203
bags,204
baha,205
bahama,206
bakery,207
ball,208
ballet,209
baltimore,210
baltimoregp,211
bananas,212
band,213
bands,214
bangs,215
bankers,216
bar,217
barbie,218
barcelona,219
bare,220
barley,221
barn,222
barry,223
bars,224
barton,225
baseball,226
based,227
basic,228
basics,229
bastards,230
bathed,231
batteries,232
battery,233
battle,234
baylidonaldson,235
bbms,236
bbq,237
bc,238
bday,239
beach,240
beardie,241
beat,242
beats,243
beautiful,244
because_it,245
bed,246
bedd,247
beer,248
beg,249
beginnersluck,250
bein,251
beinsinglesucks,252
bel,253
belated,254
belieber,255
beliefs,256
believe,257
bell,258
belt,259
bench,260
benoit,261
bernandez,262
best,263
bestfriend,264
bestnightever,265
bet,266
betchesluvthis,267
betta,268
better,269
better_,270
beyonce,271
bf,272
bff,273
bid,274
bieber,275
big,276
bigbooty,277
biggest,278
bigggg,279
bigmove,280
bike,281
biker,282
bikini,283
bikinis,284
bing,285
bint,286
birds,287
birthday,288
birthdayy,289
bish,290
bit,291
bitch,292
bitches,293
bitchtryagain,294
bites,295
bizspark,296
bk,297
black,298
blah,299
blame,300
blatant,301
bless,302
blessed,303
blessen,304
blessing,305
blew,306
bliev,307
blinkers,308
bliss,309
block,310
blocked,311
blocks,312
blondes,313
bloody,314
blow,315
blue,316
blurghhhhh,317
bmg,318
body,319
bogart,320
bomb,321
bonus,322
boo,323
book,324
booked,325
bookswithalettermissing,326
boomer,327
boonaa,328
boost,329
boot,330
boots,331
booty,332
bored,333
boredwholedaynow,334
boring,335
borrow,336
bosses,337
bother,338
bothered,339
bottle,340
bottles,341
bought,342
bourbon,343
bout,344
bowl,345
bowling,346
bowral,347
box,348
boxing,349
boy,350
boys,351
boyz,352
bra,353
brace,354
brag,355
braided,356
braincells,357
brand,358
brandon,359
brandy,360
brave,361
bravia,362
break,363
breakfast,364
breath,365
breeze,366
breezy,367
brekkie,368
brekky,369
bricks,370
bride,371
bridge,372
bright,373
brighter,374
brighton,375
brilliance,376
brilliant,377
bring,378
bringing,379
brisket,380
britney,381
bro,382
broke,383
broken,384
bronx,385
broo,386
brooke,387
brought,388
brown,389
brownies,390
bruce,391
brush,392
brussels,393
bs,394
bsnl,395
bt,396
btw,397
bucks,398
budget,399
building,400
built,401
bullock,402
bulls,403
bullshit,404
bump,405
bumsuck,406
bun,407
bunch,408
burn,409
burnt,410
burr,411
bus,412
business,413
busy,414
butimgettingthemanywaysfuckit,415
butt,416
butts,417
buy,418
buyibg,419
buying,420
buys,421
buzz,422
bye,423
bytch,424
cab,425
caddykim,426
cake,427
calculates,428
calendars,429
called,430
calling,431
cam,432
came,433
cameo,434
camera,435
cameraoxford,436
camp,437
campaign,438
campus,439
canada,440
canadafail,441
canadians,442
candy,443
cape,444
captivate,445
car,446
carbon,447
card,448
cardiff,449
cardigan,450
care,451
cares,452
carry,453
carter,454
carver,455
case,456
cash,457
cashback,458
casj,459
casper,460
cast,461
castle,462
cat,463
catch,464
catching,465
catwomanbytchz,466
caught,467
cause,468
cbeebies,469
cd,470
cdnjoke,471
cdnpoli,472
celebrate,473
celebrating,474
celebrity,475
celebs,476
celtics,477
centennial,478
center,479
centre,480
cents,481
century,482
cereal,483
cfl,484
chains,485
challenge,486
chance,487
chandler,488
chanel,489
change,490
changer,491
chapters,492
character,493
charge,494
charity,495
chart,496
cheapo,497
check,498
checking,499
cheryl,500
chesterunisummerball,501
chevy,502
chic,503
chicago,504
chicagomanual,505
chick,506
chicken,507
children,508
chill,509
chillin,510
chips,511
chocolate,512
chokes,513
chokeyes,514
chose,515
chosen,516
chris,517
christ,518
christmas,519
chromeo,520
chuffed,521
church,522
ciggs,523
cilla,524
circumstances,525
ciric,526
cisco,527
citation,528
cities,529
city,530
civilization,531
cking,532
clashes,533
class,534
classes,535
classic,536
classy,537
cle,538
client,539
clients,540
close,541
closer,542
closet,543
clothes,544
cloud,545
clouds,546
club,547
coach,548
coaches,549
coast,550
coasters,551
coco,552
code,553
coding,554
cody,555
coffee,556
coke,557
cold,558
cole,559
colinratushniak,560
collar,561
collect,562
collecting,563
collection,564
colleg,565
college,566
color,567
colorado,568
colors,569
com,570
comb,571
combat,572
combine,573
combo,574
come,575
comedy,576
comfy,577
comin,578
coming,579
commentator,580
comments,581
commercial,582
comming,583
commit,584
communicate,585
community,586
comp,587
company,588
compare,589
compared,590
comparison,591
compete,592
competition,593
complaining,594
complete,595
completely,596
complex,597
compliments,598
comprehensive,599
computer,600
computing,601
conclusion,602
conditions,603
conference,604
confidence,605
confused,606
congrats,607
congratulates,608
congratulations,609
congress,610
connect,611
connection,612
consideration,613
consoles,614
cont,615
contains,616
content,617
continue,618
continues,619
contour,620
contract,621
contracted,622
control,623
controller,624
convenient,625
convertible,626
convey,627
convincing,628
cook,629
cool,630
cooler,631
coooool,632
cop,633
copy,634
copyright,635
corgi,636
corgis,637
corner,638
corolla,639
corporations,640
corvette,641
cos,642
costs,643
cotton,644
couldn,645
count,646
counterfeit,647
counting,648
country,649
couple,650
course,651
courted,652
courtesy,653
cousin,654
covecrest,655
covered,656
coverseyes,657
cowell,658
coworker,659
coz,660
cramps,661
crap,662
crappy,663
crashed,664
crazy,665
crazyasshit,666
cream,667
created,668
creating,669
creative,670
credit,671
creeped,672
creeps,673
crewneck,674
cried,675
criminal,676
cringe,677
crosby,678
cross,679
crossing,680
crown,681
cru,682
crush,683
cultural,684
cup,685
cups,686
curly,687
current,688
currys,689
curve,690
cus,691
customer,692
customized,693
cut,694
cute,695
cutest,696
cutie,697
cuz,698
cyber,699
cyprus,700
da,701
dachstar,702
dad,703
daddies,704
daddy,705
dads,706
dalaman,707
dallas,708
dam,709
damage,710
dame,711
dammit,712
damn,713
damnit,714
damnn,715
damnnnn,716
danced,717
dancemoms,718
dances,719
dancing,720
dang,721
danger,722
dangerous,723
daniel,724
dare,725
dark,726
dat,727
date,728
dats,729
daughter,730
dave,731
david,732
davis,733
dawgs,734
day,735
days,736
dayz,737
db,738
dc,739
dcfabb,740
ddddd,741
dead,742
deal,743
dear,744
dearfuturehusband,745
death,746
deathh,747
debuts,748
decades,749
decemeber,750
decided,751
decides,752
decision,753
decisions,754
deck,755
deep,756
def,757
definately,758
definite,759
definitely,760
deizydoesit,761
delete,762
deleting,763
delighted,764
delivered,765
delivering,766
dell,767
dellstreak,768
dem,769
demo,770
dentist,771
deposition,772
depressed,773
depression,774
derrick,775
deserved,776
design,777
desktop,778
despise,779
dessert,780
destiny,781
destroyswaggerville,782
destruction,783
desvers,784
details,785
detective,786
determined,787
detroit,788
devastated,789
developing,790
devices,791
diamond,792
did,793
didn,794
didnt,795
die,796
died,797
difference,798
difficult,799
dig,800
diners,801
ding,802
dinner,803
direction,804
dirt,805
dirtbiking,806
dirty,807
dirtybitch,808
dis,809
disappointed,810
discontent,811
discontinued,812
diseaz,813
disgusted,814
disgusting,815
disgustingg,816
dislike,817
dissapointed,818
disturbed,819
ditching,820
dive,821
divine,822
diz,823
dj,824
dm,825
dmb,826
dmca,827
dnt,828
doctors,829
does,830
doesn,831
doesnt,832
dog,833
dogs,834
doing,835
dollar,836
dollars,837
dolphin,838
don,839
dong,840
donkey,841
dont,842
dontknowhowilivedwithoutit,843
donuts,844
doo,845
doodlejump,846
door,847
dope,848
dora,849
dots,850
double,851
doubletree,852
douche,853
doula,854
downloaded,855
downloadin,856
downstairs,857
downtown,858
draft,859
drag,860
dragu,861
drake,862
drama,863
drawing,864
dream,865
dreamcar,866
dreamed,867
dreams,868
dress,869
dri,870
drink,871
drinks,872
drive,873
driving,874
droid,875
drop,876
dropped,877
drove,878
drs,879
drunk,880
drunken,881
dry,882
ds,883
dublin,884
ducks,885
dude,886
dull,887
dum,888
dumb,889
dump,890
dun,891
dunks,892
dusted,893
duty,894
dwts,895
dying,896
eachother,897
eagles,898
ear,899
earbuds,900
early,901
earned,902
earth,903
easier,904
easily,905
easilyentertained,906
easter,907
eat,908
eaten,909
eatin,910
eating,911
eats,912
ebay,913
eclipse,914
economical,915
ect,916
ed,917
effective,918
effectively,919
efficient,920
effort,921
ego,922
eightyville,923
el,924
eleavator,925
elegant,926
elevator,927
em,928
email,929
embarrassing,930
emerged,931
emi,932
emotionally,933
emotions,934
employed,935
employee,936
end,937
ended,938
energy,939
engine,940
english,941
engrish,942
enjoy,943
enjoyed,944
enjoyin,945
enjoying,946
enormous,947
enter,948
entered,949
entertaining,950
entertainment,951
entire,952
entitled,953
enuff,954
eparsedonedigit,955
eparsedonedigitongparsedonedigit,956
epic,957
episode,958
eric,959
ericson,960
ericsson,961
eshop,962
especially,963
essay,964
etsy,965
etsykids,966
eurgh,967
euros,968
eve,969
evening,970
evenings,971
event,972
eventful,973
events,974
everrr,975
everybody,976
everygirl,977
everyparsedonedigit,978
everytime,979
evil,980
evileye,981
ex,982
exam,983
excell,984
excellent,985
excited,986
exciting,987
exclusive,988
executive,989
exhausted,990
exhausting,991
exicited,992
exist,993
exparsedthreedigitsslb,994
expect,995
expected,996
expensive,997
expertise,998
experts,999
explorer,1000
explorers,1001
express,1002
extremely,1003
exxxxxxxxxxxxcited,1004
eye,1005
eyes,1006
ezurbanvibe,1007
fa,1008
fab,1009
fabb,1010
fabulous,1011
facbook,1012
face,1013
facebook,1014
faces,1015
fack,1016
fact,1017
factor,1018
fading,1019
fagbag,1020
fail,1021
fair,1022
fairly,1023
fake,1024
fall,1025
fallen,1026
falling,1027
fam,1028
family,1029
famous,1030
fan,1031
fans,1032
fantastic,1033
fantasticfest,1034
far,1035
fares,1036
farty,1037
fashion,1038
fast,1039
fastandfurious,1040
fastest,1041
fatale,1042
father,1043
fault,1044
fave,1045
favorite,1046
fb,1047
fbr,1048
fcukin,1049
feather,1050
featured,1051
fed,1052
federal,1053
fedex,1054
feel,1055
feeling,1056
feels,1057
feet,1058
fell,1059
felt,1060
females,1061
femme,1062
fendi,1063
festival,1064
fev,1065
fever,1066
ff,1067
ffc,1068
ffffff,1069
ffs,1070
fi,1071
fieldtrip,1072
fight,1073
figure,1074
figured,1075
filled,1076
film,1077
filming,1078
fin,1079
final,1080
finale,1081
finally,1082
finals,1083
finances,1084
finding,1085
fine,1086
finish,1087
finished,1088
finna,1089
fish,1090
fishin,1091
fishing,1092
fist,1093
fit,1094
fitness,1095
fkn,1096
flags,1097
flash,1098
flauge,1099
flex,1100
flick,1101
flies,1102
flight,1103
flip,1104
flipping,1105
flocka,1106
floor,1107
flop,1108
flops,1109
florida,1110
flow,1111
flu,1112
fml,1113
foams,1114
focal,1115
focus,1116
folks,1117
follow,1118
followback,1119
followers,1120
followfriday,1121
following,1122
followme,1123
fone,1124
food,1125
foosball,1126
foot,1127
football,1128
foreigners,1129
forever,1130
forget,1131
forgiven,1132
forgot,1133
forgotten,1134
fort,1135
forward,1136
foul,1137
founding,1138
foward,1139
fox,1140
franco,1141
frands,1142
frateran,1143
freaken,1144
freaking,1145
free,1146
freestyle,1147
freezer,1148
french,1149
fresh,1150
fresher,1151
friday,1152
frie,1153
fried,1154
friend,1155
friendly,1156
friends,1157
friggin,1158
frigid,1159
frm,1160
froyo,1161
froze,1162
frustrated,1163
frustration,1164
fry,1165
ft,1166
fu,1167
fuck,1168
fuckbing,1169
fucked,1170
fucken,1171
fuckin,1172
fucking,1173
fuckoff,1174
fuckthem,1175
fuel,1176
fuk,1177
fully,1178
fun,1179
funding,1180
fundraising,1181
funeral,1182
funn,1183
funnelicious,1184
funny,1185
funparsedthreedigits,1186
future,1187
fuzzy,1188
fxcking,1189
gaga,1190
gala,1191
galaxy,1192
galileo,1193
game,1194
gameon,1195
gamerface,1196
games,1197
gamestop,1198
gangsta,1199
garage,1200
gators,1201
gave,1202
gaveuponhim,1203
gay,1204
gayy,1205
gayyyyy,1206
gbc,1207
gd,1208
geared,1209
general,1210
genius,1211
genre,1212
gentleman,1213
genuine,1214
georgia,1215
getalife,1216
geting,1217
gets,1218
getsonmynerves,1219
gettin,1220
getting,1221
gettn,1222
ghetto,1223
gift,1224
gifts,1225
gig,1226
giggle,1227
gingrich,1228
giraffe,1229
girl,1230
girlfriend,1231
girlies,1232
girls,1233
gives,1234
giving,1235
glad,1236
glasses,1237
glee,1238
glen,1239
glorious,1240
glory,1241
gloves,1242
goa,1243
goal,1244
goals,1245
goblue,1246
god,1247
godblessbullies,1248
goddamn,1249
goes,1250
goin,1251
going,1252
gojackets,1253
gold,1254
gon,1255
gone,1256
gonna,1257
goo,1258
good,1259
goodbyes,1260
goodgame,1261
goodness,1262
goodnight,1263
goodwill,1264
goofd,1265
google,1266
gorgeous,1267
got,1268
gotta,1269
gotti,1270
gourmet,1271
gps,1272
grab,1273
grace,1274
gracieglam,1275
graduated,1276
grafiks,1277
graph,1278
grateful,1279
gravity,1280
gray,1281
grease,1282
great,1283
greatday,1284
greater,1285
greatest,1286
greatestgadgets,1287
greatfull,1288
green,1289
grounds,1290
grow,1291
grown,1292
grparsedonedigit,1293
grrr,1294
grrrr,1295
grrrrr,1296
grrrrrr,1297
grrrrrrrrrrrr,1298
gt,1299
gteparsedonedigit,1300
guaranteed,1301
guards,1302
gucci,1303
gud,1304
guess,1305
guessing,1306
guessssszz,1307
guests,1308
guilty,1309
gum,1310
gunna,1311
gunners,1312
gutted,1313
guy,1314
guys,1315
gym,1316
ha,1317
haaay,1318
haaha,1319
hack,1320
hadn,1321
haha,1322
hahaha,1323
hahahahaha,1324
hahahahahahaha,1325
hair,1326
half,1327
halfrim,1328
halfway,1329
hall,1330
halo,1331
hamilton,1332
hancock,1333
hand,1334
handle,1335
hands,1336
hang,1337
hangin,1338
hanging,1339
hankito,1340
happen,1341
happened,1342
happening,1343
happens,1344
happier,1345
happiest,1346
happpy,1347
happy,1348
hard,1349
harder,1350
hardest,1351
hardtime,1352
harrisburg,1353
harry,1354
hart,1355
harvey,1356
hate,1357
haunted,1358
haven,1359
having,1360
hawaiian,1361
hawk,1362
hcr,1363
hd,1364
head,1365
headache,1366
heading,1367
headlamp,1368
headphones,1369
heads,1370
healthy,1371
hear,1372
heard,1373
hearing,1374
heart,1375
heartfelt,1376
heat,1377
heater,1378
heathrowe,1379
heaven,1380
heavily,1381
heels,1382
hees,1383
hehehe,1384
helicopter,1385
hell,1386
hella,1387
hellaclean,1388
hello,1389
help,1390
heritage,1391
hero,1392
heroine,1393
herooo,1394
herr,1395
hey,1396
hi,1397
hiding,1398
high,1399
highlanders,1400
highlights,1401
hilarious,1402
hill,1403
hills,1404
hilton,1405
hint,1406
hipstamatic,1407
history,1408
hit,1409
hmmm,1410
hobby,1411
hockey,1412
hoe,1413
hoff,1414
hold,1415
holiday,1416
holy,1417
hom,1418
home,1419
homie,1420
homo,1421
honestly,1422
honey,1423
hoodnight,1424
hookah,1425
hoop,1426
hoops,1427
hooray,1428
hoosier,1429
hope,1430
hopefully,1431
hopes,1432
hoping,1433
horny,1434
horrible,1435
horribly,1436
horrid,1437
hospital,1438
host,1439
hostel,1440
hot,1441
hotel,1442
hotels,1443
hotmail,1444
hott,1445
hour,1446
hours,1447
house,1448
howard,1449
hse,1450
htc,1451
http,1452
huge,1453
hugo,1454
huh,1455
hump,1456
humphrey,1457
hungry,1458
hunting,1459
huntsville,1460
hurricane,1461
hurrryyy,1462
hurry,1463
hurt,1464
hurts,1465
husband,1466
hut,1467
hutch,1468
hype,1469
hypertension,1470
hypocrite,1471
icahn,1472
icanhonestlysay,1473
ice,1474
idc,1475
idea,1476
ideas,1477
identity,1478
idiot,1479
idk,1480
idmas,1481
ignorant,1482
ihatenewtwitter,1483
ii,1484
iits,1485
ikea,1486
ikr,1487
ill,1488
ilove,1489
iloveyou,1490
im,1491
ima,1492
imitation,1493
imma,1494
immense,1495
impossible,1496
impression,1497
inappropriatefuneralsongs,1498
incarnation,1499
inclined,1500
incompetent,1501
inconsiderate,1502
inconvenient,1503
indies,1504
industry,1505
indycar,1506
infected,1507
infection,1508
inferior,1509
info,1510
information,1511
infuse,1512
injections,1513
injunction,1514
inkredible_k_,1515
inlove,1516
innovation,1517
insane,1518
insanicast,1519
inside,1520
insightful,1521
insoles,1522
inspired,1523
inspiring,1524
instead,1525
instinct,1526
instructions,1527
intense,1528
interesting,1529
intern,1530
internap,1531
internet,1532
internets,1533
invitation,1534
invitational,1535
invite,1536
invited,1537
involved,1538
iowa,1539
iphone,1540
ipod,1541
ips,1542
iregret,1543
irritated,1544
island,1545
isn,1546
isnt,1547
isolation,1548
issue,1549
issues,1550
itage,1551
itellyou,1552
ithinkweredonehere,1553
itouch,1554
itunes,1555
iwannago,1556
iwannagodney,1557
iwantmybed,1558
iwin,1559
iwontgrowup,1560
iyiyi,1561
iz,1562
jabs,1563
jack,1564
jacket,1565
jah,1566
james,1567
jamin,1568
jaminn,1569
janet,1570
jazziisstilldumb,1571
jazzmines,1572
jedward,1573
jerks,1574
jerseys,1575
jerzday,1576
jesus,1577
jetsuite,1578
jhb,1579
jingle,1580
joan,1581
job,1582
joey,1583
johnny,1584
joke,1585
jokes,1586
jordan,1587
joyous,1588
jr,1589
july,1590
jump,1591
jus,1592
juss,1593
just,1594
justify,1595
justsaying,1596
kalli,1597
kanye,1598
kardashians,1599
karmasabitch,1600
kat,1601
kathy,1602
katie,1603
kbshow,1604
keeping,1605
kelly,1606
ken,1607
kentucky,1608
kevin,1609
key,1610
keyboard,1611
keys,1612
kfc,1613
khadse,1614
khaki,1615
kia,1616
kicc,1617
kick,1618
kicked,1619
kicking,1620
kicks,1621
kids,1622
kies,1623
kill,1624
killah,1625
killed,1626
killian,1627
killing,1628
kind,1629
kinda,1630
kinderbueno,1631
kinect,1632
king,1633
kingsley,1634
kink,1635
kiss,1636
kitchen,1637
kits,1638
kjeanbyrne,1639
knew,1640
know,1641
known,1642
knows,1643
kreayshawn,1644
kris,1645
kristen,1646
krystal,1647
kudostoyou,1648
kumaran,1649
kute,1650
kwai,1651
kyiv,1652
la,1653
lab,1654
labor,1655
labs,1656
ladies,1657
lady,1658
ladycisca,1659
ladygaga,1660
lakers,1661
lakeshow,1662
lame,1663
landlord,1664
langports,1665
laoada,1666
lap,1667
laptop,1668
large,1669
larry,1670
las,1671
lashes,1672
lasr,1673
lasted,1674
lastnight,1675
late,1676
lately,1677
later,1678
latin,1679
latonya,1680
laugh,1681
laughed,1682
launch,1683
laundry,1684
laura,1685
laurgro,1686
lauristons,1687
law,1688
lawrence,1689
lay,1690
layin,1691
laying,1692
lazier,1693
lazy,1694
leadershipsafariparsedonedigitkparsedtwodigits,1695
leak,1696
learn,1697
learnt,1698
leave,1699
leaving,1700
lebron,1701
lecture,1702
lecturing,1703
left,1704
legally,1705
legend,1706
legit,1707
leisure,1708
lemans,1709
lemars,1710
let,1711
lets,1712
letter,1713
letting,1714
lewis,1715
lex,1716
libra,1717
library,1718
lie,1719
liee,1720
life,1721
lifecomesatyoufast,1722
lifesaver,1723
lift,1724
light,1725
lights,1726
lightyears,1727
liike,1728
like,1729
liked,1730
likeeee,1731
likes,1732
liking,1733
lil,1734
line,1735
ling,1736
linkedin,1737
liquor,1738
lismore,1739
listen,1740
listened,1741
listeners,1742
listening,1743
listings,1744
literally,1745
little,1746
liv,1747
live,1748
liverpool,1749
living,1750
ll,1751
lli,1752
lmao,1753
lmfao,1754
lmfaoo,1755
loafers,1756
local,1757
lock,1758
locked,1759
lofty,1760
log,1761
logic,1762
lol,1763
lolz,1764
london,1765
londonriots,1766
lonely,1767
long,1768
longdayahead,1769
longer,1770
look,1771
looked,1772
lookin,1773
looking,1774
looks,1775
loooool,1776
looove,1777
lose,1778
losin,1779
losing,1780
lost,1781
lot,1782
lots,1783
loui,1784
louie,1785
louis,1786
lounge,1787
love,1788
lovechicago,1789
loved,1790
lovee,1791
loveeee,1792
lovely,1793
lovemyjob,1794
lover,1795
loves,1796
lovethem,1797
lovin,1798
loving,1799
lovvvvve,1800
low,1801
lowepro,1802
lower,1803
loyal,1804
lp,1805
lt,1806
lts,1807
luca,1808
luck,1809
lucky,1810
luger,1811
lunch,1812
lunchtime,1813
lungs,1814
luv,1815
lyin,1816
ma,1817
mac,1818
macbook,1819
machine,1820
macklemore,1821
mad,1822
maddens,1823
madmatts,1824
maestro,1825
mag,1826
magic,1827
mags,1828
maid,1829
mail,1830
maintain,1831
make,1832
makes,1833
makeup,1834
makeyourself,1835
makin,1836
making,1837
mall,1838
mam,1839
mama,1840
man,1841
manage,1842
mane,1843
manga,1844
mansion,1845
manuel,1846
maps,1847
marathon,1848
marathong,1849
marching,1850
marietta,1851
marilyn,1852
mariners,1853
mario,1854
mark,1855
market,1856
marketing,1857
marketingacademy,1858
marks,1859
maro,1860
marshmellows,1861
martin,1862
martini,1863
marty,1864
maryland,1865
masgana,1866
mason,1867
mass,1868
massage,1869
match,1870
material,1871
materializes,1872
mates,1873
math,1874
matter,1875
mature,1876
max,1877
maxin,1878
maybe,1879
mayhem,1880
maynor,1881
mayor,1882
mazing,1883
mbfw,1884
mccartney,1885
mcdonalds,1886
mcflurry,1887
mcfly,1888
mdr,1889
meadows,1890
mean,1891
meaning,1892
means,1893
mechanical,1894
media,1895
mediocrity,1896
meebo,1897
meet,1898
meeting,1899
meetings,1900
melody,1901
melted,1902
members,1903
memorable,1904
memory,1905
memphisfact,1906
men,1907
menchies,1908
menlyn,1909
mentor,1910
mentoring,1911
merchandising,1912
merry,1913
messed,1914
met,1915
metroid,1916
mfs,1917
mgmt,1918
mi,1919
miami,1920
michael,1921
michaelmyersatd,1922
microsoft,1923
microwave,1924
middle,1925
middlefingerseverywhere,1926
midget,1927
midnight,1928
midwest,1929
migraines,1930
migrainessuck,1931
mii,1932
mike,1933
mile,1934
miles,1935
milk,1936
milky,1937
million,1938
min,1939
mind,1940
miner,1941
mines,1942
mini,1943
mins,1944
minute,1945
minuteclinic,1946
minutes,1947
mis,1948
miss,1949
missed,1950
missin,1951
missing,1952
missthatshow,1953
mistake,1954
mistakes,1955
mmm,1956
mmmmm,1957
mmmmmm,1958
mobile,1959
mohammed,1960
mom,1961
moment,1962
momma,1963
mommasboy,1964
moms,1965
mon,1966
monday,1967
money,1968
monin,1969
monster,1970
montage,1971
month,1972
months,1973
mood,1974
moods,1975
moon,1976
morethanwordart,1977
morgan,1978
morgannnnnnnnn,1979
morning,1980
mornings,1981
morons,1982
mothafuckas,1983
mother,1984
mothers,1985
moths,1986
motivation,1987
mountain,1988
moved,1989
movie,1990
moving,1991
mr,1992
mrmeatnuggets,1993
ms,1994
msc,1995
msp,1996
msuic,1997
mtg,1998
mtl,1999
muchappreciatedinfo,2000
mucus,2001
multi,2002
mum,2003
murderdrome,2004
murray,2005
murs,2006
museo,2007
music,2008
musical,2009
mustache,2010
mvp,2011
mwema,2012
mylilkitchenlab,2013
na,2014
nails,2015
nakutamani,2016
named,2017
nando,2018
nap,2019
nasally,2020
nashville,2021
nasty,2022
natalie,2023
nation,2024
nations,2025
naturally,2026
nature,2027
nauseous,2028
navi,2029
nawl,2030
nazi,2031
nbd,2032
ncaasoftball,2033
nd,2034
neat,2035
need,2036
needed,2037
needs,2038
neighbor,2039
neighborhood,2040
neighbors,2041
nemesis,2042
nerve,2043
nes,2044
netbook,2045
netflix,2046
network,2047
networks,2048
neva,2049
nevea,2050
neverfails,2051
nevertrust,2052
new,2053
newalltimelow,2054
news,2055
newt,2056
nexuss,2057
nf,2058
ngp,2059
nice,2060
nicer,2061
niche,2062
nick,2063
nickelodeon,2064
nicki,2065
nicks,2066
nicky,2067
nickyruddparsedtwodigits,2068
nigga,2069
niggas,2070
night,2071
nighters,2072
nightmares,2073
nights,2074
nightttttt,2075
nike,2076
nikes,2077
nikita,2078
nikki,2079
ninja,2080
nintendo,2081
niqqas,2082
nite,2083
njoy,2084
nodeadlinestoday,2085
nofatgirls,2086
noir,2087
nola,2088
nomination,2089
non,2090
nonebesideyou,2091
nordy,2092
normal,2093
northeast,2094
nose,2095
notcool,2096
notgraceful,2097
nothin,2098
notice,2099
noticing,2100
notify,2101
novels,2102
np,2103
nparsedonedigitg,2104
nparsedthreedigits,2105
nuff,2106
numbers,2107
nvidia,2108
ny,2109
nyan,2110
nyc,2111
nycearthquakeparsedfourdigits,2112
nz,2113
o_o,2114
o_parsedonedigit,2115
obama,2116
obsessed,2117
obviously,2118
oct,2119
odd,2120
oddparents,2121
odvy,2122
offered,2123
offering,2124
offers,2125
office,2126
officeparsedthreedigits,2127
official,2128
officially,2129
oft,2130
oh,2131
ohcarolina,2132
ohjoy,2133
ohkay,2134
ok,2135
okay,2136
okayy,2137
ol,2138
old,2139
older,2140
olly,2141
olot,2142
olympian,2143
omg,2144
omgyouteen,2145
omnia,2146
onam,2147
oneofthealltimegreats,2148
ones,2149
online,2150
onsomniactic,2151
oof,2152
ooo,2153
oooh,2154
ooooooo,2155
open,2156
opening,2157
opera,2158
opinions,2159
opportunities,2160
optiek,2161
optimism,2162
order,2163
ordered,2164
ordinace,2165
oregon,2166
oreo,2167
oreos,2168
original,2169
orland,2170
orlando,2171
os,2172
oth,2173
ottawa,2174
outdoors,2175
outfit,2176
outlet,2177
outrage,2178
outside,2179
outstretched,2180
outta,2181
oval,2182
ovens,2183
overall,2184
overc,2185
overcome,2186
overcomers,2187
overdosed,2188
overflows,2189
owner,2190
owns,2191
oy,2192
packed,2193
packing,2194
pad,2195
page,2196
paid,2197
pain,2198
paint,2199
pair,2200
palm,2201
palmer,2202
pantssss,2203
pao,2204
papa,2205
paparazzie,2206
parenthood,2207
parents,2208
paris,2209
park,2210
parking,2211
parseddigits,2212
parseddigitshrs,2213
parseddigitss,2214
parsedfivedigits,2215
parsedfivedigitsth,2216
parsedfourdigits,2217
parsedonedigit,2218
parsedonedigitam,2219
parsedonedigitday,2220
parsedonedigitds,2221
parsedonedigiter,2222
parsedonedigitg,2223
parsedonedigitgot,2224
parsedonedigitgs,2225
parsedonedigitk,2226
parsedonedigitmi,2227
parsedonedigitmp,2228
parsedonedigitnd,2229
parsedonedigitnite,2230
parsedonedigitpay,2231
parsedonedigitrd,2232
parsedonedigitst,2233
parsedonedigittoparsedtwodigits,2234
parsedonedigitx,2235
parsedsixdigits,2236
parsedthreedigits,2237
parsedthreedigitsb,2238
parsedtime,2239
parsedtwodigits,2240
parsedtwodigitsk,2241
parsedtwodigitsmphunder,2242
parsedtwodigitsth,2243
parsedtwodigitsthjinnieday,2244
parsedtwodigitsyr,2245
participants,2246
partner,2247
parts,2248
party,2249
passed,2250
passes,2251
passing,2252
passwords,2253
past,2254
pasta,2255
paste,2256
patent,2257
patience,2258
patient,2259
pattom,2260
pauly,2261
pay,2262
pbs,2263
pc,2264
pda,2265
peak,2266
pee,2267
pencils,2268
penn,2269
people,2270
perez,2271
perfect,2272
perform,2273
permission,2274
person,2275
personable,2276
personal,2277
personality,2278
persuing,2279
petsitting,2280
pfffft,2281
phase,2282
phat,2283
phd,2284
phew,2285
phone,2286
photo,2287
photographing,2288
physical,2289
physically,2290
pic,2291
picasso,2292
pick,2293
picked,2294
pics,2295
picture,2296
pictures,2297
pie,2298
piece,2299
pieces,2300
pierreopperman,2301
piers,2302
pifco,2303
pig,2304
pike,2305
pile,2306
pipeline,2307
piss,2308
pissed,2309
pisses,2310
pissin,2311
pizza,2312
place,2313
places,2314
plan,2315
planned,2316
planning,2317
plans,2318
platform,2319
play,2320
playa,2321
played,2322
playing,2323
plays,2324
pleased,2325
pls,2326
plus,2327
plzzzzz,2328
pmcq,2329
pnc,2330
point,2331
pointless,2332
points,2333
political,2334
polka,2335
poll,2336
pool,2337
poor,2338
popular,2339
portal,2340
ported,2341
positive,2342
possession,2343
possible,2344
possibly,2345
post,2346
posted,2347
posters,2348
posting,2349
potatoes,2350
potential,2351
potter,2352
pouch,2353
pow,2354
power,2355
powerpoint,2356
ppcclassroom,2357
ppl,2358
ppls,2359
practice,2360
prada,2361
pradaa,2362
pradas,2363
pray,2364
prayer,2365
praying,2366
pre,2367
pregnant,2368
prepare,2369
pres,2370
preseason,2371
presented,2372
press,2373
presume,2374
pretty,2375
preview,2376
previous,2377
price,2378
priceless,2379
prices,2380
primark,2381
princess,2382
principles,2383
print,2384
pro,2385
prob,2386
problem,2387
problems,2388
probs,2389
proceeds,2390
process,2391
prod,2392
product,2393
products,2394
profesh,2395
professional,2396
professors,2397
profile,2398
program,2399
programs,2400
progressive,2401
project,2402
prolly,2403
promise,2404
promotions,2405
properly,2406
properties,2407
protection,2408
proud,2409
proudly,2410
provided,2411
providing,2412
prudence,2413
ps,2414
psn,2415
psparsedonedigit,2416
psvita,2417
psyched,2418
ptparsedonedigit,2419
pts,2420
pudding,2421
pukes,2422
puma,2423
pumped,2424
punch,2425
punk,2426
purchased,2427
purchases,2428
purdue,2429
pure,2430
purple,2431
purse,2432
push,2433
putting,2434
puzzle,2435
qpr,2436
quality,2437
quarantine,2438
queen,2439
queenslanders,2440
questionoftheday,2441
questions,2442
quickly,2443
quinn,2444
quite,2445
quiz,2446
race,2447
racers,2448
rachel,2449
rack,2450
radio,2451
radioooooooo,2452
rain,2453
raindeers,2454
rainy,2455
raising,2456
ran,2457
rank,2458
ranked,2459
rant,2460
rap,2461
rapper,2462
rapter,2463
raul,2464
rbc,2465
read,2466
reader,2467
reading,2468
ready,2469
real,2470
realigning,2471
reality,2472
realize,2473
really,2474
realy,2475
reason,2476
reasons,2477
received,2478
receiving,2479
receptionist,2480
reciprocate,2481
recommend,2482
recommendation,2483
recommending,2484
red,2485
redvelvet,2486
reformatted,2487
refs,2488
refused,2489
registered,2490
registering,2491
regret,2492
regrets,2493
rehearsallyfe,2494
reinlove,2495
reinstall,2496
reinstalling,2497
relationship,2498
relax,2499
relaxin,2500
release,2501
released,2502
releasing,2503
reliable,2504
religious,2505
relying,2506
remains,2507
remember,2508
remembering,2509
remind,2510
reminds,2511
remix,2512
remote,2513
removed,2514
rendering,2515
renewal,2516
renewed,2517
renewing,2518
rentign,2519
replica,2520
report,2521
reported,2522
reportedly,2523
represent,2524
repulsive,2525
request,2526
rescheduled,2527
rescue,2528
researching,2529
reservations,2530
resort,2531
respect,2532
respond,2533
response,2534
rest,2535
restoration,2536
retailers,2537
retire,2538
return,2539
returning,2540
reversible,2541
revision,2542
revolves,2543
rhythms,2544
rich,2545
rick,2546
rid,2547
ride,2548
riders,2549
ridiculousness,2550
rife,2551
right,2552
rights,2553
rihanna,2554
ring,2555
riots,2556
ripped,2557
risf,2558
ritz,2559
river,2560
road,2561
roads,2562
rock,2563
rockband,2564
rocked,2565
rockem,2566
rockin,2567
rocko,2568
rocks,2569
rod,2570
rode,2571
role,2572
rolex,2573
roller,2574
rollin,2575
romance,2576
rookie,2577
room,2578
roomie,2579
roomies,2580
roommate,2581
rooms,2582
root,2583
rope,2584
rose,2585
ross,2586
routine,2587
row,2588
rparsedonedigit,2589
rrb,2590
rt,2591
rub,2592
rubbn,2593
rude,2594
ruin,2595
ruining,2596
rule,2597
rules,2598
run,2599
runied,2600
running,2601
ryach,2602
sac,2603
sad,2604
safe,2605
safely,2606
said,2607
saints,2608
salad,2609
sale,2610
sales,2611
salif,2612
salle,2613
saltwater,2614
samelson,2615
samsung,2616
samsungsupport,2617
sandals,2618
sandra,2619
santa,2620
satisfying,2621
saturday,2622
sauder,2623
save,2624
saved,2625
saw,2626
say,2627
sayin,2628
saying,2629
says,2630
sbsca,2631
scale,2632
scams,2633
scared,2634
scarf,2635
scedules,2636
schedule,2637
scholarship,2638
school,2639
science,2640
scooby,2641
scored,2642
scores,2643
scorpio,2644
scotland,2645
scottish,2646
scratch,2647
scream,2648
screaming,2649
screen,2650
screw,2651
screwed,2652
scruf,2653
sean,2654
search,2655
seashells,2656
season,2657
seattle,2658
second,2659
secure,2660
security,2661
seedless,2662
seeing,2663
seen,2664
seeya,2665
selfish,2666
sell,2667
selling,2668
sellouts,2669
semester,2670
semi,2671
send,2672
sending,2673
sent,2674
september,2675
sequence,2676
series,2677
seriously,2678
seriouslyy,2679
server,2680
service,2681
session,2682
set,2683
settings,2684
settling,2685
severely,2686
sexiest,2687
sexy,2688
sh,2689
shabby,2690
shades,2691
shall,2692
shame,2693
shants,2694
shape,2695
shaqs,2696
share,2697
sharpies,2698
shave,2699
shees,2700
sheesh,2701
shes,2702
shifter,2703
shiny,2704
shipping,2705
shirt,2706
shirts,2707
shit,2708
shithead,2709
shitting,2710
sho,2711
shock,2712
shoddy,2713
shoe,2714
shoes,2715
shoetweets,2716
shoot,2717
shootin,2718
shootout,2719
shop,2720
shopping,2721
shorts,2722
shorty,2723
shot,2724
shots,2725
shouldn,2726
shout,2727
shouting,2728
showed,2729
shower,2730
showing,2731
showroom,2732
shows,2733
shox,2734
shut,2735
shutter,2736
shutting,2737
shytt,2738
sia,2739
sic,2740
sick,2741
sickkkkkkk,2742
siding,2743
sigh,2744
sign,2745
signed,2746
signs,2747
sike,2748
silent,2749
silly,2750
silver,2751
sim,2752
simon,2753
sims,2754
sing,2755
singers,2756
singing,2757
single,2758
sir,2759
sister,2760
sisters,2761
sittin,2762
sitting,2763
size,2764
skateboards,2765
skin,2766
skinnythoughts,2767
skip,2768
skips,2769
sky,2770
skype,2771
sleep,2772
sleeping,2773
sleepy,2774
slow,2775
smart,2776
smarty,2777
smashed,2778
smdh,2779
smell,2780
smellslikecack,2781
smh,2782
smile,2783
smith,2784
smooth,2785
snapback,2786
snatching,2787
sneak,2788
sneakers,2789
sneaks,2790
snell,2791
snoring,2792
snot,2793
snowball,2794
snowday,2795
soaking,2796
sobay,2797
social,2798
socks,2799
soexcited,2800
softball,2801
software,2802
sold,2803
solid,2804
somebodytoldyouwrong,2805
somemore,2806
somethin,2807
sometimesyouhaveto,2808
son,2809
song,2810
songs,2811
sony,2812
soo,2813
soon,2814
sooo,2815
soooo,2816
sooooo,2817
soooooo,2818
sooooooooooo,2819
soooooooooooo,2820
sopumped,2821
sorry,2822
sort,2823
sorta,2824
sought,2825
soul,2826
sound,2827
sounds,2828
south,2829
space,2830
spain,2831
spam,2832
spamming,2833
spanish,2834
sparsedonedigit,2835
sparsedtwodigits,2836
speak,2837
speakers,2838
spears,2839
special,2840
speed,2841
spelling,2842
spend,2843
spent,2844
spike,2845
spirits,2846
spite,2847
splurged,2848
spoils,2849
spongebob,2850
sponsored,2851
sponsoring,2852
sports,2853
spotlite,2854
spots,2855
spray,2856
spreading,2857
springfever,2858
st,2859
stab,2860
stadium,2861
staff,2862
stairs,2863
stamps,2864
stand,2865
standin,2866
standing,2867
standwithpp,2868
starbucks,2869
staring,2870
starsky,2871
start,2872
started,2873
starting,2874
starts,2875
starving,2876
statefarmwasnttthere,2877
statement,2878
states,2879
station,2880
stay,2881
staying,2882
steak,2883
steal,2884
steeple,2885
stella,2886
step,2887
steps,2888
stereotype,2889
steve,2890
stick,2891
stillworks,2892
stink,2893
stinkin,2894
stinks,2895
stockist,2896
stoked,2897
stole,2898
stolen,2899
stomach,2900
stoned,2901
stop,2902
stopped,2903
store,2904
stores,2905
storm,2906
story,2907
straighner,2908
strategicvoteparsedtwodigits,2909
strawberries,2910
street,2911
stressed,2912
stressful,2913
stressing,2914
strong,2915
struck,2916
strumpit,2917
strung,2918
stuck,2919
student,2920
students,2921
study,2922
studying,2923
studylink,2924
stuff,2925
stunt,2926
stupid,2927
stupidly,2928
style,2929
styles,2930
su,2931
subscription,2932
success,2933
suck,2934
sucked,2935
sucker,2936
sucks,2937
suffer,2938
suites,2939
sultans,2940
sumbody,2941
summer,2942
summertime,2943
summit,2944
sun,2945
sunday,2946
sundayfunday,2947
sunny,2948
sunshine,2949
super,2950
superb,2951
supervisor,2952
support,2953
sure,2954
surprise,2955
surprised,2956
surprises,2957
surry,2958
suxx,2959
swear,2960
sweatpants,2961
sweats,2962
sweatshop,2963
sweep,2964
sweet,2965
sweetest,2966
sweetiez,2967
sweetparsedtwodigitsbday,2968
swift,2969
switch,2970
swype,2971
sydney,2972
sync,2973
syracuse,2974
systems,2975
tab,2976
taco,2977
tad,2978
taken,2979
takes,2980
takin,2981
taking,2982
tale,2983
talented,2984
talk,2985
talking,2986
talkshitgethit,2987
tammi,2988
tan,2989
tanya,2990
target,2991
taste,2992
tasting,2993
tattoo,2994
taurus,2995
taxi,2996
tbqf,2997
tea,2998
teach,2999
teacher,3000
teaches,3001
team,3002
teamceltics,3003
teamgod,3004
teamilluminati,3005
teamladiphat,3006
teams,3007
tears,3008
tech,3009
techdays,3010
tee,3011
teeth,3012
tell,3013
tellin,3014
telling,3015
tells,3016
tempo,3017
test,3018
texas,3019
text,3020
texts,3021
tf,3022
tg,3023
th,3024
tha,3025
thailand,3026
thank,3027
thankgod,3028
thanks,3029
thanx,3030
thatgrapejuice,3031
thats,3032
thayounghustlaz,3033
theapprentice,3034
theater,3035
theatre,3036
thefuck,3037
thegame,3038
thejoshdiogo,3039
thelasttimeichecked,3040
therapy,3041
theres,3042
thesis,3043
thesteffiekayy,3044
thevoice,3045
theylookfuckedup,3046
thierselfs,3047
thing,3048
things,3049
thingsthatshouldbebanned,3050
thingy,3051
think,3052
thinked,3053
thinking,3054
thinks,3055
thirst,3056
thirsty,3057
thirteenth,3058
thismuch,3059
thiswasinmydrafts,3060
thiz,3061
thnk,3062
thnx,3063
tho,3064
thou,3065
thought,3066
thro,3067
throught,3068
thrown,3069
tht,3070
thug,3071
thumbs,3072
thunder,3073
ticket,3074
tickets,3075
tides,3076
tie,3077
tight,3078
till,3079
tim,3080
time,3081
timeline,3082
times,3083
tint,3084
tired,3085
tires,3086
tmrw,3087
tnt,3088
today,3089
todays,3090
told,3091
tolerance,3092
tommm,3093
tomorrow,3094
tomorrowwww,3095
tonight,3096
tons,3097
tooeazy_parsedonedigit,3098
took,3099
tool,3100
tools,3101
toothache,3102
topic,3103
topoftheworld,3104
tops,3105
toronto,3106
torture,3107
totally,3108
tote,3109
tots,3110
touchpad,3111
town,3112
toy,3113
tracks,3114
tracksuit,3115
traffic,3116
trail,3117
train,3118
trainers,3119
training,3120
trampoline,3121
translator,3122
trash,3123
treat,3124
treated,3125
trees,3126
trending,3127
trhumanist,3128
tried,3129
trip,3130
trips,3131
true,3132
trueblood,3133
trust,3134
trusting,3135
truth,3136
try,3137
tryin,3138
tryina,3139
trying,3140
tryna,3141
tshirt,3142
tsk,3143
tuesdays,3144
tune,3145
turfs,3146
turkey,3147
turn,3148
turned,3149
turns,3150
turtles,3151
tv,3152
tvguide,3153
tweeple,3154
tweeps,3155
tweet,3156
tweeted,3157
tweetiepies,3158
tweety,3159
twice,3160
twitpic,3161
twitter,3162
twitters,3163
twype,3164
tx,3165
tyler,3166
ubc,3167
ublewit,3168
ucla,3169
uggghhhh,3170
ugghh,3171
ugh,3172
ughh,3173
ughhh,3174
ugly,3175
uh,3176
uhgggg,3177
uhungry,3178
uk,3179
understand,3180
understanding,3181
unexpected,3182
unfort,3183
unfortunately,3184
unidentical,3185
uniforms,3186
unique,3187
united,3188
universal,3189
universe,3190
unlimited,3191
upcoming,3192
update,3193
uploading,3194
upp,3195
upparsedonedigit,3196
ups,3197
upset,3198
uqly,3199
ur,3200
urgh,3201
usa,3202
use,3203
used,3204
useless,3205
user,3206
usiku,3207
using,3208
utc,3209
utterly,3210
vaca,3211
vacation,3212
vaio,3213
valentine,3214
valerie,3215
van,3216
vanilla,3217
vapor,3218
vd,3219
ve,3220
vegas,3221
verified,3222
verizon,3223
version,3224
vibes,3225
vibrant,3226
vick,3227
victorious,3228
vid,3229
video,3230
videos,3231
view,3232
viewed,3233
vino,3234
vintage,3235
virtualization,3236
vision,3237
visit,3238
visuallyastounding,3239
vita,3240
vma,3241
vodka,3242
voice,3243
voices,3244
voila,3245
volume,3246
vote,3247
voted,3248
votes,3249
voting,3250
vows,3251
vparsedonedigit,3252
vs,3253
vuitton,3254
vwbug,3255
waaaaaayyyy,3256
wachin,3257
wack,3258
wade,3259
wahoo,3260
wait,3261
waitin,3262
waiting,3263
waka,3264
wakemeupwhen,3265
waking,3266
walk,3267
walkin,3268
walking,3269
wallet,3270
walls,3271
wanna,3272
want,3273
wanted,3274
wants,3275
warm,3276
warner,3277
warranty,3278
wash,3279
washed,3280
wasn,3281
wasnt,3282
waste,3283
wasted,3284
watch,3285
watched,3286
watches,3287
watchin,3288
watching,3289
water,3290
watermelon,3291
wave,3292
way,3293
wayne,3294
ways,3295
wcws,3296
weak,3297
wear,3298
wearin,3299
wearing,3300
weather,3301
web,3302
webbie,3303
website,3304
webtv,3305
wed,3306
wedding,3307
wednesday,3308
wee,3309
week,3310
weekend,3311
weekends,3312
weeks,3313
weezy,3314
weight,3315
weird,3316
welcome,3317
welfare,3318
welovemaster,3319
wen,3320
wendys,3321
went,3322
weren,3323
west,3324
westminster,3325
wet,3326
whale,3327
whathappenedtorealmovies,3328
whats,3329
whelp,3330
whip,3331
white,3332
whittle,3333
whoop,3334
whore,3335
whyaretheyspeakingspanish,3336
whyy,3337
wi,3338
wife,3339
wifey,3340
wii,3341
wiiware,3342
wild,3343
wildcats,3344
willo,3345
win,3346
window,3347
windows,3348
wine,3349
winner,3350
winning,3351
wins,3352
winter,3353
wired,3354
wireless,3355
wisconsin,3356
wise,3357
wish,3358
wishing,3359
wit,3360
witnessed,3361
wk,3362
woman,3363
women,3364
won,3365
wonder,3366
wonderful,3367
wonders,3368
wont,3369
woo,3370
woofwoofwoof,3371
wooh,3372
woohoo,3373
wooohhooo,3374
woooo,3375
woot,3376
word,3377
words,3378
work,3379
worked,3380
workers,3381
workin,3382
working,3383
workout,3384
works,3385
workshop,3386
world,3387
worlds,3388
worldwide,3389
worried,3390
worst,3391
worstmovieever,3392
worstshoesever,3393
worth,3394
worthless,3395
wouldn,3396
wouldnt,3397
wow,3398
wowww,3399
wpcla,3400
write,3401
writing,3402
wrong,3403
wrote,3404
wtchn,3405
wtf,3406
wth,3407
wuv,3408
x_x,3409
xbox,3410
xd,3411
xfactor,3412
xmas,3413
xo,3414
xoxo,3415
xp,3416
xparsedtwodigits,3417
xperia,3418
xx,3419
xxxx,3420
yaas,3421
yaay,3422
yahoo,3423
yall,3424
yay,3425
yayayayayayyay,3426
yayy,3427
yea,3428
yeah,3429
yeahhh,3430
year,3431
years,3432
yell,3433
yer,3434
yes,3435
yessir,3436
yesss,3437
yessss,3438
yesterday,3439
yeyeeee,3440
yikes,3441
yo,3442
yoh,3443
youbetcha,3444
youcantdateme,3445
young,3446
youre,3447
youtube,3448
youuuuu,3449
yr,3450
yrs,3451
yu,3452
yum,3453
yummm,3454
yummy,3455
yup,3456
yuummy,3457
zaventem,3458
zaytoven,3459
zelda,3460
zilleville,3461
zoo,3462
zoom,3463
zouch,3464
zuckerberg,3465
zumba,3466
zwaard,3467
