__parsedonedigit,0
abortion,1
absolutely,2
accannis,3
access,4
accident,5
according,6
aching,7
actually,8
ad,9
adam,10
addiction,11
addictive,12
adidas,13
administration,14
adobe,15
ads,16
advice,17
africa,18
afternoon,19
agency,20
ago,21
ah,22
ahead,23
ahh,24
ahhgot,25
ahhh,26
aig,27
ain,28
al,29
ala,30
allen,31
alot,32
alpha,33
alto,34
amandabittner,35
amazing,36
amazon,37
ambcharlesfield,38
american,39
amp,40
amphitheatre,41
ampr,42
ampt,43
android,44
angry,45
animations,46
annagoss,47
annamartinparsedthreedigits,48
announcement,49
annoying,50
answers,51
anti,52
anymore,53
anyways,54
apart,55
apartment,56
apatow,57
api,58
apologies,59
app,60
appear,61
apple,62
applied,63
appreciate,64
apps,65
appt,66
arab,67
arabs,68
aren,69
arg,70
argghhhh,71
arrival,72
article,73
aruj,74
arunbasillal,75
asherroth,76
asked,77
ass,78
asses,79
assesment,80
assholes,81
ate,82
atebits,83
athlete,84
atil,85
att,86
audiobook,87
authors,88
available,89
avoided,90
awaiting,91
award,92
awesome,93
aww,94
bad,95
bags,96
bailout,97
ball,98
ballcom,99
balls,100
bank,101
bankruptcy,102
barack,103
barbara,104
barraged,105
basketball,106
bastards,107
bathroom,108
bay,109
bball,110
bccwt,111
beast,112
bedroom,113
believe,114
best,115
beta,116
better,117
bflay,118
big,119
bike,120
billions,121
bing,122
bio,123
biology,124
bipart,125
bit,126
bitch,127
bitin,128
bitly,129
bitten,130
bitter,131
biz,132
blah,133
blech,134
blink,135
blknpreciousparsedonedigit,136
blocked,137
blondebroad,138
blood,139
bloomingdale,140
blow,141
blows,142
board,143
boarding,144
bob,145
bobby,146
bonjour,147
bonuses,148
boo,149
book,150
books,151
boortz,152
booz,153
boss,154
bought,155
boyle,156
boys,157
bparsedtwodigitspx,158
breakers,159
bringing,160
brings,161
broken,162
broskiii,163
browser,164
bt,165
btw,166
bud,167
buffering,168
buffet,169
buildin,170
bullshit,171
bummer,172
bumming,173
bunch,174
burger,175
burn,176
burning,177
bush,178
butt,179
buy,180
buzz,181
buzzupcom,182
bye,183
cable,184
calculus,185
calling,186
calls,187
came,188
campaign,189
canon,190
car,191
card,192
cars,193
cartons,194
case,195
caseymercier,196
cash,197
cast,198
catch,199
cause,200
causin,201
cavs,202
cbs,203
cease,204
cell,205
changed,206
changing,207
channels,208
character,209
charade,210
charity,211
chart,212
cheap,213
cheaper,214
check,215
cheering,216
cheney,217
chick,218
chicken,219
childs,220
china,221
chose,222
chrysler,223
church,224
citi,225
civil,226
ck,227
cking,228
clashmore,229
class,230
client,231
cligs,232
clinton,233
close,234
closer,235
club,236
cnn,237
coca,238
coda,239
cola,240
cold,241
colin,242
collaboration,243
collapse,244
college,245
comcast,246
come,247
comedian,248
comes,249
coming,250
commencement,251
commercial,252
commercials,253
commerical,254
compared,255
complaining,256
completely,257
computer,258
concord,259
conducted,260
conference,261
confirmed,262
connection,263
connections,264
consequences,265
conservatism,266
contact,267
continual,268
contract,269
cook,270
cookbook,271
cool,272
correspondents,273
couldn,274
countries,275
country,276
course,277
cox,278
cparsedonedigithpp,279
cracka,280
crap,281
crashing,282
crazy,283
create,284
created,285
creates,286
criticalpath,287
crlane,288
crush,289
csparsedonedigit,290
cthagod,291
culprits,292
cunt,293
cup,294
current,295
curses,296
curve,297
customer,298
cut,299
cute,300
cuz,301
cwongparsedtwodigits,302
dad,303
dame,304
damn,305
dan,306
danny,307
dannygokey,308
date,309
dave,310
day,311
daybankrupt,312
days,313
dbroos,314
dead,315
dear,316
dearest,317
debates,318
debt,319
decided,320
deep,321
default,322
definitely,323
defsounds,324
degrees,325
deleting,326
demos,327
dentist,328
dentistwho,329
designplay,330
desire,331
desperation,332
destroy,333
developer,334
device,335
devil,336
dick,337
did,338
didn,339
didnt,340
die,341
died,342
dies,343
different,344
dihg,345
dime,346
dinner,347
disaster,348
discomort,349
dishonest,350
dislike,351
dissapointed,352
division,353
djyq,354
dnc,355
docs,356
does,357
doesn,358
doing,359
dommm,360
don,361
dont,362
dood,363
doom,364
douchebaggery,365
downloading,366
dparsedtwodigits,367
dr,368
draw,369
drink,370
drive,371
drop,372
dropped,373
drove,374
dslreports,375
dude,376
dumber,377
dump,378
duo,379
dvr,380
dvyers,381
dwight,382
dx,383
dzmparsedonedigitt,384
ea,385
eagle,386
east,387
eat,388
economy,389
ed,390
editing,391
editor,392
edogparsedfourdigits,393
effing,394
eggs,395
eh,396
ehfa,397
election,398
elkhorn,399
em,400
employees,401
end,402
enjoy,403
enjoyable,404
enuf,405
environment,406
eorfv,407
epic,408
epkrparsedonedigitb,409
ereader,410
espn,411
espnjus,412
et,413
european,414
evelynbyrne,415
evening,416
everyday,417
evr,418
exam,419
excited,420
execs,421
expectations,422
expensive,423
experience,424
explain,425
explode,426
eye,427
f__k,428
fabulous,429
facebook,430
factory,431
fail,432
fair,433
faithbabywear,434
fake,435
fan,436
fantastic,437
far,438
fashion,439
fast,440
fault,441
fav,442
favorite,443
fb,444
feature,445
federer,446
feed,447
feel,448
feels,449
festival,450
field,451
fifa,452
fighting,453
fil,454
file,455
files,456
finally,457
finals,458
financial,459
finewhat,460
finished,461
firmly,462
fish,463
fix,464
flay,465
flies,466
flight,467
flywire,468
fml,469
follow,470
font,471
food,472
forced,473
forever,474
forward,475
foxnews,476
fraggleparsedthreedigits,477
francisco,478
freakin,479
freaking,480
freaky,481
fred,482
fredwilson,483
free,484
fricken,485
friday,486
friend,487
fuck,488
fucked,489
fucking,490
fun,491
funding,492
funfun,493
funny,494
furious,495
furkin,496
fuzz,497
fuzzball,498
fwixcom,499
game,500
gave,501
geldof,502
general,503
generation,504
genius,505
gets,506
getting,507
gift,508
giggling,509
girl,510
given,511
glad,512
gladwell,513
gm,514
goddam,515
going,516
gokey,517
goldpanda,518
gone,519
gonna,520
good,521
goodby,522
google,523
googleio,524
goooood,525
gop,526
got,527
government,528
govt,529
gparsedonedigit,530
graduate,531
graphics,532
grateful,533
great,534
greater,535
green,536
grill,537
grr,538
gt,539
gt_,540
gta,541
guantanamo,542
guess,543
guessjust,544
guy,545
guys,546
haha,547
hahaha,548
half,549
hamilton,550
handout,551
happens,552
happy,553
harassed,554
hardly,555
hate,556
haven,557
having,558
hd,559
hear,560
heard,561
heck,562
hell,563
hello,564
helloleonie,565
help,566
helpful,567
hempz,568
hero,569
hey,570
hhrs,571
hi,572
high,573
higher,574
highlights,575
highly,576
hilarious,577
hilariouslmao,578
hill,579
hills,580
history,581
hitting,582
holders,583
holiday,584
home,585
homegrown,586
homepowell,587
hometown,588
honda,589
honor,590
horde,591
hour,592
hours,593
house,594
howard,595
howdavidbeatsgoliath,596
hr,597
html,598
htmlfiveappspotcom,599
http,600
hubby,601
huge,602
human,603
hungry,604
hurricane,605
hurt,606
hurts,607
hyzl,608
icecream,609
icgjparsedonedigit,610
id,611
idea,612
idiot,613
idiots,614
idol,615
iheartseverus,616
ill,617
im,618
ima,619
impatiently,620
implode,621
improvement,622
ims,623
imxum,624
including,625
incredibly,626
india,627
indian,628
inevitable,629
infected,630
information,631
informative,632
inkscape,633
innovation,634
insane,635
insects,636
inside,637
inspired,638
install,639
instead,640
inter,641
interesting,642
internet,643
internets,644
invented,645
ioparsedfourdigits,646
iphone,647
iran,648
irancraziness,649
iranelection,650
isgd,651
isn,652
itchy,653
itwill,654
jacked,655
james,656
jdreiss,657
jessverr,658
jktweet,659
jlshack,660
join,661
joining,662
jokes,663
jonduenas,664
jquery,665
jqueryspokenforjs,666
judd,667
julesrenner,668
junk,669
just,670
kaplan,671
karizmakaze,672
karoli,673
karrisfoxy,674
kathleen,675
katydids,676
kendra,677
kennedy,678
keynote,679
khalidparsedfourdigits,680
kick,681
kids,682
kill,683
kimblet,684
kinda,685
kindle,686
kindleparsedonedigit,687
kirstiealley,688
kitchen,689
klunky,690
know,691
kobe,692
korea,693
kparsedonedigityk,694
kswedberg,695
ktmeq,696
lack,697
ladies,698
laker,699
lakers,700
lam,701
lambda,702
lambert,703
late,704
later,705
latex,706
lawnmowing,707
layoffs,708
le,709
leading,710
learning,711
lebron,712
lebronsh,713
led,714
lee,715
left,716
legalgeekery,717
lehman,718
let,719
lewis,720
lied,721
life,722
lifes,723
lift,724
light,725
like,726
liked,727
limit,728
limitations,729
line,730
link,731
linux,732
listening,733
literally,734
little,735
live,736
lived,737
ll,738
lmao,739
load,740
loan,741
lol,742
long,743
loo,744
look,745
looked,746
looking,747
looks,748
loooong,749
loooooooovvvvvveee,750
lost,751
lots,752
louparsedthreedigits,753
love,754
loved,755
loves,756
lovin,757
loving,758
lparsedonedigitgy,759
lt,760
ltparsedonedigit,761
lucky,762
ludajuice,763
luke,764
lulswparsedonedigit,765
lunch,766
lyx,767
mac,768
make,769
makes,770
making,771
malcolm,772
man,773
mandela,774
map,775
market,776
marketing,777
marry,778
martinez,779
mashable,780
mate,781
math,782
matthewcyan,783
maybe,784
mbjthegreat,785
mcdonalds,786
meal,787
mean,788
means,789
meet,790
meeting,791
melo,792
memorial,793
mentioned,794
mesa,795
met,796
mets,797
michael,798
mid,799
mikefish,800
military,801
milrockee,802
mins,803
minutes,804
miserable,805
miss,806
mistake,807
mitzs,808
mkii,809
mlucparsedtwodigits,810
mmbarnhill,811
mmmkatz,812
mmmmmfamily,813
model,814
modems,815
monday,816
money,817
monkeys,818
monsta,819
month,820
montreal,821
morindparsedtwodigits,822
mosquito,823
mostvaluablepuppets,824
motors,825
movie,826
movies,827
moving,828
mr,829
mtvcom,830
muchasmuertes,831
muppet,832
murdering,833
museum,834
music,835
mustang,836
nails,837
named,838
nancy,839
nap,840
natural,841
nba,842
nbccom,843
ncaa,844
neal,845
need,846
needed,847
needs,848
nehsl,849
nelson,850
nenuah,851
nerd,852
nerdy,853
net,854
new,855
news,856
newswow,857
nice,858
nicer,859
niggas,860
night,861
nightmare,862
nike,863
nikon,864
nin,865
non,866
nooooooo,867
normally,868
north,869
note,870
noticed,871
notre,872
np,873
nrparsedonedigitnparseddigits,874
nuclear,875
nuggets,876
nuggetssss,877
number,878
nuts,879
ny,880
obama,881
obamabidenpelosi,882
obsession,883
obviously,884
offense,885
office,886
oh,887
ohhdee,888
ok,889
old,890
omg,891
omgg,892
online,893
ooooh,894
oooooooh,895
oparsedonedigitd,896
open,897
operators,898
options,899
orli,900
outliers,901
outs,902
outta,903
ovation,904
owned,905
pages,906
pain,907
palin,908
palo,909
parseddigits,910
parsedfivedigits,911
parsedfourdigits,912
parsedonedigit,913
parsedonedigitcparseddigitsuj,914
parsedonedigitcuig,915
parsedonedigitd,916
parsedonedigitdaymosquitos,917
parsedonedigitgezi,918
parsedonedigitgs,919
parsedonedigithr,920
parsedonedigitjwshv,921
parsedonedigitmoro,922
parsedonedigitnsnr,923
parsedonedigitpm,924
parsedonedigitrd,925
parsedonedigitst,926
parsedonedigitueb,927
parsedonedigitupwparsedonedigitp,928
parsedonedigitzlff,929
parsedsixdigits,930
parsedthreedigits,931
parsedtwodigits,932
parsedtwodigitscal,933
parsedtwodigitsd,934
parsedtwodigitsepah,935
parsedtwodigitsjparsedonedigitd,936
parsedtwodigitsk,937
parsedtwodigitsshi,938
parsedtwodigitstparsedonedigitnr,939
partners,940
party,941
passionmodel,942
pastrami,943
pay,944
pcyxjparsedonedigit,945
pdhur,946
pdubyad,947
pelosi,948
people,949
peppers,950
perfect,951
person,952
personalityhe,953
pg,954
pgparsedonedigitlt,955
philip,956
phoenix,957
phone,958
phones,959
phoneughh,960
phyremanparsedonedigit,961
physical,962
pic,963
picking,964
picks,965
pictures,966
pills,967
pingfm,968
pink,969
pissed,970
pittstock,971
place,972
places,973
plan,974
plane,975
planning,976
plans,977
plant,978
planted,979
platform,980
played,981
players,982
playoffs,983
pleasant,984
pmillzz,985
pockets,986
point,987
pointing,988
ponzi,989
popular,990
popularity,991
porn,992
powell,993
powerful,994
pparsedonedigit,995
pparsedonedigituparseddigitsh,996
prayers,997
president,998
presser,999
pretenious,1000
pretenses,1001
prettiest,1002
pretty,1003
price,1004
prlvqu,1005
prob,1006
probably,1007
problems,1008
profits,1009
program,1010
promotions,1011
propre,1012
proudly,1013
provided,1014
prs,1015
psychemedia,1016
public,1017
puppet,1018
putting,1019
pyt,1020
python,1021
quaint,1022
quality,1023
quanttrader,1024
quite,1025
rachel,1026
radio,1027
rantsandraves,1028
raped,1029
rating,1030
read,1031
reading,1032
ready,1033
real,1034
realized,1035
realizing,1036
really,1037
receipes,1038
receivers,1039
recently,1040
recommend,1041
recorded,1042
recorder,1043
recovering,1044
reference,1045
regret,1046
related,1047
relief,1048
repeatedly,1049
reps,1050
republican,1051
researchers,1052
result,1053
resume,1054
retiring,1055
review,1056
rhino,1057
rich,1058
rid,1059
riddance,1060
ride,1061
right,1062
road,1063
robin,1064
robynlyn,1065
rock,1066
rocked,1067
rocks,1068
roger,1069
roll,1070
roomies,1071
rt,1072
runner,1073
running,1074
sad,1075
safari,1076
safeway,1077
said,1078
san,1079
sarah,1080
satisfying,1081
saturday,1082
saw,1083
say,1084
saying,1085
scams,1086
scandal,1087
scarey,1088
scary,1089
schemers,1090
school,1091
science,1092
scratch,1093
screams,1094
screw,1095
screwed,1096
search,1097
searches,1098
season,1099
sebulous,1100
seeing,1101
seen,1102
sekseemess,1103
select,1104
sell,1105
sens,1106
sent,1107
seriously,1108
served,1109
service,1110
services,1111
servicethey,1112
session,1113
sethdaggett,1114
shade,1115
shame,1116
shaunwoo,1117
sheer,1118
sheridanmarfil,1119
sherri,1120
shirts,1121
shit,1122
shitty,1123
shopping,1124
shoreline,1125
shorter,1126
shout,1127
shows,1128
shrop,1129
shut,1130
sick,1131
siding,1132
sign,1133
signal,1134
silverstein,1135
singapore,1136
siratomofbones,1137
sitcom,1138
site,1139
sitting,1140
situation,1141
sketchbug,1142
skin,1143
sklososky,1144
slate,1145
slave,1146
sleep,1147
slide,1148
slightest,1149
slogan,1150
slow,1151
slowlythey,1152
small,1153
smartchickpdx,1154
smells,1155
smh,1156
snap,1157
snappy,1158
snurlcom,1159
sochiparsedonedigit,1160
social,1161
solid,1162
son,1163
sony,1164
sooo,1165
soooo,1166
sorry,1167
south,1168
soyvparsedonedigit,1169
sparsedthreedigitsj,1170
speech,1171
speed,1172
spinach,1173
spinuzzi,1174
sport,1175
sports,1176
sportsguyparsedtwodigits,1177
spot,1178
springsingfiend,1179
srsly,1180
stacks,1181
standing,1182
stanford,1183
star,1184
start,1185
started,1186
starting,1187
stay,1188
stealing,1189
steep,1190
stellargirl,1191
stick,1192
stimulus,1193
stinkin,1194
stop,1195
stopped,1196
studing,1197
studying,1198
stuff,1199
stupid,1200
style,1201
suck,1202
sucks,1203
sum,1204
summer,1205
summize,1206
super,1207
superslow,1208
support,1209
supporting,1210
supposed,1211
surgerywishing,1212
surprised,1213
survey,1214
survive,1215
susan,1216
svcs,1217
sweet,1218
switch,1219
taking,1220
talk,1221
tamasha,1222
tbh,1223
tcot,1224
tea,1225
teach,1226
tell,1227
tells,1228
tempted,1229
tennis,1230
terrifying,1231
terror,1232
terrysimpson,1233
test,1234
tests,1235
tethering,1236
texnparsedonedigitrds,1237
text,1238
thank,1239
thanks,1240
the_real_usher,1241
thing,1242
things,1243
think,1244
thinks,1245
thought,1246
throttles,1247
thursday,1248
tickets,1249
time,1250
timeout,1251
times,1252
tinyurlcom,1253
tipping,1254
tired,1255
tlot,1256
today,1257
told,1258
tomorrow,1259
tones,1260
tonight,1261
tonite,1262
tonyhawk,1263
took,1264
tool,1265
tooth,1266
torture,1267
totally,1268
tour,1269
toy,1270
training,1271
translator,1272
tree,1273
trek,1274
trend,1275
trial,1276
tribunals,1277
tricking,1278
tricks,1279
tried,1280
trim,1281
trip,1282
troubleeeee,1283
true,1284
truly,1285
try,1286
tsunami,1287
ttiv,1288
turmoil,1289
turns,1290
tv,1291
tw,1292
tweets,1293
twice,1294
twippin,1295
twitpiccom,1296
twitter,1297
twtadcom,1298
twurlnl,1299
txt,1300
uaw,1301
ugh,1302
ugly,1303
ui,1304
uk,1305
ummm,1306
underestimated,1307
understand,1308
unfold,1309
unfortunate,1310
unhelpful,1311
united,1312
universal,1313
university,1314
unlimited,1315
update,1316
upgrade,1317
upset,1318
upside,1319
uscsportsparsedtwodigits,1320
use,1321
useless,1322
using,1323
vastly,1324
ve,1325
vehicle,1326
verizon,1327
verse,1328
video,1329
videos,1330
vincentxparsedtwodigitsx,1331
vios,1332
viral,1333
visa,1334
vitamin,1335
vkerkez,1336
voice,1337
vote,1338
vparsedonedigitfhg,1339
vprpt,1340
vs,1341
wait,1342
walking,1343
want,1344
wants,1345
warner,1346
warranty,1347
warren,1348
wasn,1349
waste,1350
wasted,1351
waster,1352
wat,1353
watch,1354
watched,1355
watchin,1356
watching,1357
water,1358
wave,1359
way,1360
webdesign,1361
week,1362
weekend,1363
went,1364
weren,1365
wftb,1366
white,1367
whitstyles,1368
whoop,1369
whoopi,1370
wieden,1371
wikipedia,1372
williams,1373
win,1374
windows,1375
winer,1376
winner,1377
winners,1378
wish,1379
wolfram,1380
wolverine,1381
won,1382
wonder,1383
wonderful,1384
wondering,1385
woot,1386
word,1387
wordwhizkid,1388
work,1389
worked,1390
working,1391
world,1392
worse,1393
worst,1394
worth,1395
wouldn,1396
wow,1397
wrist,1398
writers,1399
wrong,1400
wtf,1401
wtfffff,1402
wthi,1403
wwdc,1404
wwwgoodbysilversteincom,1405
wwwmacpeepscom,1406
wwwmsnbcmsncom,1407
wwwnbccom,1408
wwwparsedtwodigitswolframalphacom,1409
wysiwyg,1410
xcparsedonedigitcparseddigits,1411
ya,1412
yahoo,1413
yankees,1414
yarnthing,1415
yay,1416
yea,1417
yeah,1418
yeahhhhhhhhh,1419
years,1420
yearsgreat,1421
yeeeee,1422
yes,1423
yesterday,1424
yo,1425
york,1426
youtube,1427
yr,1428
yummmmmy,1429
zealots,1430
zero,1431
zomg,1432
zydrunas,1433
