__,0
___,1
____,2
______________,3
_ibertaddigital,4
_xmas_carroll,5
aaargh,6
abandoned,7
able,8
about,9
aboutthatlife,10
above,11
absolutely,12
abt,13
acceptable,14
access,15
accessibility,16
accessing,17
accompanying,18
according,19
account,20
accounts,21
acct,22
accused,23
action,24
activating,25
acts,26
actually,27
ad,28
add,29
addict,30
addicted,31
adding,32
address,33
addthis,34
adiman_,35
admirably,36
admit,37
admitting,38
adobe,39
adopted,40
adopterness,41
advanced,42
advertisements,43
advertising,44
adweek,45
adwords,46
affair,47
affects,48
afmparsedonedigitvsmm,49
after,50
again,51
against,52
agency,53
ages,54
aggregates,55
aggressive,56
agree,57
agvparsedtwodigitsznj,58
ah,59
ahead,60
ahhfuckitsguss,61
aijysfho,62
ailing,63
ain,64
aint,65
ainteeentrippin,66
air,67
airdrop,68
aka,69
ala,70
alamo,71
alarm,72
alarms,73
albatross,74
albertmalparsedtwodigits,75
album,76
albums,77
alead,78
alert,79
alexlindsay,80
alexmufferi,81
alive,82
all,83
alleged,84
allow,85
allowing,86
almost,87
alone,88
along,89
alongside,90
already,91
alright,92
also,93
always,94
am,95
amandbrar,96
amazing,97
amazon,98
ammmylewis,99
amongst,100
amount,101
amp,102
amused,103
an,104
analytics,105
anas_monaffal,106
and,107
android,108
androidbeam,109
androidicecreamsandwich,110
androidparsedonedigit,111
andshuttingdownru,112
andshuttingdownrunningprograms,113
angrybirds,114
angst,115
announced,116
announcement,117
annoyed,118
annoying,119
another,120
anothericloudfail,121
answer,122
anti,123
antitrust,124
anup_pillai,125
any,126
anyday,127
anymore,128
anyone,129
anything,130
anyway,131
aparsedonedigitonparsedonedigitiaa,132
aparsedthreedigitstgparsedonedigitl,133
aparsedtwodigitsy,134
apologize,135
apology,136
app,137
apparently,138
appear,139
apperature,140
apple,141
applecanada,142
appledomination,143
appletv,144
appleupdates,145
apply,146
appointment,147
appreciated,148
appropriately,149
apps,150
appsense,151
appstore,152
apptment,153
apt,154
arc,155
architecture,156
are,157
aren,158
argument,159
ari,160
around,161
arrived,162
arrives,163
arrogance,164
arrogant,165
art,166
article,167
articles,168
artist,169
as,170
asap,171
ashercfo,172
aside,173
ask,174
asked,175
ass,176
asses,177
assessment,178
assimparsedtwodigits,179
asus,180
at,181
ate,182
athen,183
att,184
attacks,185
attempts,186
attending,187
attributed,188
audio,189
august,190
australia,191
authorization,192
authorize,193
authorizing,194
automatically,195
autosavesucks,196
av,197
available,198
ave,199
avslparsedonedigitygu,200
avtar,201
awaited,202
away,203
awesome,204
awful,205
awkward,206
awsome,207
axlparsedonedigitkparseddigitsgs,208
ay,209
azeeparsedonedigitvparseddigits,210
azrael,211
azure,212
baby,213
babygeeks,214
back,215
backchannel,216
background,217
backside,218
backup,219
backwards,220
bad,221
baffles,222
bag,223
ball,224
ballmer,225
ban,226
bandwidth,227
bar,228
bars,229
base,230
based,231
bastards,232
batteries,233
battery,234
batting,235
battle,236
bbm,237
bc,238
be,239
beam,240
beat,241
beating,242
beats,243
beautiful,244
because,245
becuz,246
bed,247
been,248
before,249
beginning,250
behatreen,251
behind,252
being,253
believe,254
bell,255
bellevue,256
beneficial,257
benefits,258
benrubery,259
best,260
bestbuy,261
bestpantsten,262
beta,263
betaparsedonedigit,264
better,265
between,266
betweensundays,267
beware,268
beyond,269
bff,270
bg,271
bgotzjparsedonedigitk,272
bgr,273
bi,274
big,275
bigbrother,276
bigdealdawson,277
biggest,278
bigmama,279
bigtrouble,280
bill,281
billgates,282
billion,283
biltmore,284
bind,285
bing,286
bird,287
bisquiat,288
bit,289
bitch,290
bitching,291
bite,292
biz,293
bkadparsedfourdigits,294
blackberry,295
blackouts,296
blame,297
blameitontheiphone,298
blames,299
blaring,300
blast,301
blatant,302
blaze,303
blend,304
bless,305
blessed,306
blew,307
blhhgopo,308
blocked,309
blog,310
bloody,311
bloomberg,312
blowing,313
blown,314
blue,315
blues,316
bmann,317
bode,318
body,319
bofh,320
bonkoif,321
bonobo,322
boo,323
book,324
bookcase,325
booked,326
bookmarks,327
books,328
boost,329
boot,330
booted,331
borders,332
bored,333
boring,334
both,335
bottlenecks,336
bottom,337
bought,338
bound,339
bout,340
box,341
boy,342
boycotting,343
bparsedonedigit,344
bpfkydparsedonedigito,345
bppjwncp,346
bqmuhxkk,347
braille,348
brain,349
brand,350
brands,351
bravo,352
break,353
breaking,354
briancrockerjr,355
brianmincey,356
brick,357
bricked,358
brightness,359
briliant,360
brilliant,361
bring,362
bringing,363
bro,364
broke,365
broken,366
brother,367
browse,368
browsers,369
browserwars,370
bs,371
bsd,372
bud,373
buffalo,374
bug,375
build,376
building,377
buildingwindowsparsedonedigit,378
builds,379
buildwindowsparsedonedigit,380
built,381
builtin,382
bulletproof,383
bullshit,384
bullying,385
bummer,386
bump,387
burkepatch,388
burn,389
bus,390
business,391
businesses,392
businessuplift,393
busy,394
but,395
buttery,396
button,397
buttons,398
buy,399
buying,400
by,401
bye,402
bznyparsedtwodigitsnn,403
cable,404
calendar,405
call,406
called,407
calling,408
calls,409
came,410
camera,411
camper,412
campus,413
can,414
canada,415
canadait,416
cannot,417
canon,418
cans,419
cant,420
cap,421
capabilities,422
capacity,423
car,424
caracteres,425
card,426
cards,427
cardsapp,428
care,429
careers,430
carltonparsedthreedigits,431
carrier,432
carriers,433
carrying,434
carrypad,435
carsonfratus,436
cartoon,437
case,438
cash,439
catastrophe,440
catastrophically,441
catchy,442
caught,443
cause,444
causes,445
cbm,446
cc,447
centre,448
ceo,449
ceremoniously,450
certain,451
certification,452
chadleaman,453
champ,454
chance,455
change,456
changed,457
changer,458
changes,459
chao,460
chaos,461
charge,462
charger,463
charging,464
charity,465
charlesarthur,466
chascouponmom,467
cheap,468
check,469
checkboxes,470
cheer,471
chief,472
child,473
china,474
chipsets,475
choice,476
choices,477
chosen,478
chris,479
chrome,480
chu,481
chucktodd,482
circustk,483
cisco,484
cjjparsedtwodigitsvparsedonedigiti,485
cjonncvk,486
cjwallaceparsedtwodigits,487
clarence,488
class,489
clean,490
cleaned,491
clear,492
cli,493
click,494
clicking,495
clocks,496
closed,497
closely,498
closer,499
closing,500
cloud,501
clouds,502
cloudy,503
clue,504
cnet,505
cnt,506
co,507
coach,508
coast,509
coated,510
code,511
codename,512
coldplay,513
collaborated,514
colleague,515
collection,516
collects,517
college,518
colour,519
combination,520
combine,521
combo,522
come,523
comes,524
coming,525
commands,526
comments,527
commercial,528
committed,529
communications,530
community,531
comp,532
compact,533
companies,534
company,535
compares,536
comparing,537
compatibility,538
compatible,539
compelling,540
competitive,541
compilation,542
complain,543
complete,544
completely,545
compose,546
composite,547
computer,548
concept,549
concerned,550
concluded,551
conditions,552
conference,553
configure,554
confused,555
confusin,556
confusing,557
congratulations,558
connect,559
connected,560
connecting,561
connection,562
considering,563
console,564
consolidation,565
consumer,566
cont,567
contact,568
contacts,569
contender,570
content,571
continuing,572
contracts,573
control,574
convenient,575
conversation,576
conversations,577
converting,578
coo,579
cool,580
coollike,581
copy,582
coqclbparsedonedigitr,583
cord,584
corporate,585
corporation,586
correct,587
correction,588
cost,589
could,590
couldn,591
couple,592
courtesy,593
covent,594
covers,595
coworker,596
cparsedtwodigitssnizt,597
crack,598
cracked,599
crankywithnophone,600
crap,601
crappy,602
crash,603
crashes,604
crashing,605
craving,606
crazy,607
cream,608
create,609
creating,610
creative,611
creepy,612
critical,613
criticise,614
cropping,615
crowd,616
crparsedonedigitaparseddigitskparsedonedigitu,617
crushed,618
cs,619
csaefrhc,620
ctp,621
cu,622
curate,623
curious,624
current,625
currently,626
curse,627
customer,628
customers,629
cute,630
cutting,631
cuz,632
cxovkparsedonedigitww,633
cyanogenmod,634
da,635
dad,636
dailydealchat,637
dalmaer,638
dam,639
damage,640
damaged,641
dammit,642
damn,643
dancemoms,644
dariuszporowski,645
dark,646
darkness,647
data,648
dates,649
daughter,650
davidegori,651
day,652
dayparsedthreedigits,653
days,654
db,655
dbbwsdpx,656
dead,657
deal,658
dealing,659
deals,660
dear,661
death,662
deb_lavoy,663
debt,664
debut,665
decades,666
decent,667
decide,668
decides,669
decision,670
decline,671
declined,672
declining,673
def,674
definitely,675
delay,676
delegates,677
delete,678
deleted,679
delicious,680
deliver,681
delivered,682
delivering,683
dell,684
demo,685
demonstration,686
dennisritchie,687
dependent,688
depreciate,689
derryxowners,690
design,691
designed,692
designs,693
desire,694
desired,695
desktop,696
desperatehousewives,697
destroying,698
detailed,699
details,700
detection,701
dev,702
developer,703
developers,704
device,705
devices,706
dezz,707
deár,708
dff,709
dhilipsiva,710
dick,711
dicks,712
dictation,713
did,714
didn,715
die,716
died,717
difference,718
different,719
difficult,720
difficulties,721
digging,722
digit,723
digital,724
dilation,725
dine,726
direct,727
directions,728
directly,729
dis,730
disabling,731
disappear,732
disappointed,733
disappointing,734
disappointment,735
disaster,736
discu,737
discussion,738
disruptions,739
dissent,740
distractions,741
distrust,742
ditch,743
djspparsedonedigitgparseddigitsb,744
dlparsedonedigitcrczy,745
do,746
docs,747
document,748
dodgy,749
does,750
doesn,751
doesnt,752
dohdenmg,753
doing,754
dollar,755
dollars,756
domain,757
don,758
done,759
dont,760
dontbemadatmebecause,761
door,762
doorstep,763
dose,764
dosent,765
dostupan,766
dotnet,767
double,768
doubt,769
doug_newton,770
down,771
downgrade,772
download,773
downloaded,774
downloads,775
dparsedonedigiteejhbt,776
dparsedonedigitvjlparsedonedigitsi,777
drain,778
drakes,779
drawlin,780
dream,781
dreams,782
drewbezanson,783
drink,784
driving,785
droid,786
drop,787
dropbox,788
dropped,789
drops,790
drying,791
dst,792
dubbe,793
due,794
duet,795
duff,796
dumb,797
dump,798
duped,799
duplicates,800
duplicating,801
durable,802
during,803
dvroegop,804
dxxklubp,805
dying,806
dynamics,807
each,808
ear,809
earbuds,810
early,811
earned,812
ears,813
earth,814
easier,815
easter,816
eating,817
ebook,818
eboyee,819
eclipsed,820
economics,821
ectparsedonedigitfyia,822
ed,823
edbott,824
edchat,825
edge,826
editing,827
editor,828
edswoxoc,829
education,830
effect,831
efficient,832
eggs,833
either,834
ejunkie,835
elcheicon,836
electability,837
electric,838
electricsoup,839
elegance,840
elop,841
else,842
em,843
email,844
emails,845
emphasis,846
employability,847
employee,848
employees,849
empty,850
emptythreats,851
enabled,852
encourage,853
encrypt,854
end,855
endless,856
enemies,857
engadget,858
engages,859
engine,860
engt,861
enhance,862
enjoy,863
enjoying,864
enough,865
enrages,866
entering,867
enterprise,868
entertaining,869
entrepreneurs,870
eorosstx,871
eparsedonedigituhkaparsedonedigitf,872
epicfail,873
equal,874
equipment,875
equivalent,876
ericgreenspan,877
erp,878
error,879
errors,880
especially,881
essential,882
etc,883
ethiopian,884
evangelist,885
even,886
event,887
events,888
ever,889
everettcoldwell,890
everson,891
every,892
everyone,893
everything,894
everytime,895
evil,896
evo,897
excel,898
excellent,899
except,900
exchg,901
excited,902
exciting,903
exclaims,904
exclusive,905
excuse,906
executive,907
executives,908
exercise,909
exhibit,910
exorcist,911
expanded,912
expected,913
expensive,914
expensivepaperweight,915
experience,916
explain,917
explaining,918
explains,919
explorer,920
express,921
extend,922
extent,923
extremists,924
eye,925
eyelash,926
ezjczltparsedonedigit,927
face,928
facebook,929
faceboook,930
facetime,931
facial,932
facialunlock,933
fact,934
faculty,935
fad,936
fail,937
failed,938
failing,939
fails,940
faith,941
fall,942
fallen,943
falling,944
false,945
family,946
fan,947
fancy,948
fantastic,949
fantasy,950
far,951
farreal,952
fast,953
faster,954
fat,955
fault,956
favorite,957
fawkin,958
fb,959
fcucks,960
feature,961
featured,962
features,963
fed,964
federal,965
feeding,966
feel,967
feeling,968
fellows,969
few,970
fiction,971
figure,972
figured,973
figures,974
fiioapkt,975
file,976
files,977
finally,978
finance,979
financial,980
find,981
fine,982
finest,983
fingers,984
fingerscrossed,985
finish,986
finland,987
firefox,988
first,989
fitiparsedonedigitzia,990
five,991
fix,992
fixation,993
fixed,994
fixes,995
fixing,996
fixit,997
flash,998
flashcard,999
flat,1000
flawless,1001
floridamike,1002
fm,1003
fml,1004
fmzfwgyv,1005
focus,1006
fold,1007
folder,1008
folders,1009
folks,1010
follow,1011
followers,1012
followlimitisgay,1013
followme,1014
font,1015
football,1016
for,1017
force,1018
forced,1019
forces,1020
ford,1021
forever,1022
forget,1023
forgettin,1024
format,1025
former,1026
forstall,1027
forsure,1028
forth,1029
forward,1030
fotografia,1031
foundation,1032
four,1033
fparsedonedigitaztiad,1034
fparsedonedigithwanparsedonedigitq,1035
frame,1036
framework,1037
fran_mac_,1038
freaking,1039
free,1040
freedom,1041
freeze,1042
freezes,1043
french,1044
fresh,1045
friends,1046
friendship,1047
friggin,1048
from,1049
froze,1050
frozen,1051
fruits,1052
frustrated,1053
frustration,1054
fsf,1055
ftw,1056
fu,1057
fuck,1058
fucked,1059
fuckin,1060
fucking,1061
fuckingpissed,1062
fuckingshinez,1063
fucknwithfatty,1064
fucks,1065
fuh,1066
full,1067
fun,1068
functions,1069
funds,1070
funny,1071
future,1072
futuristic,1073
fuzzball,1074
fwm,1075
fxck,1076
fxhomehitfilm,1077
fytcyegparsedonedigit,1078
gah,1079
galaxy,1080
galaxynexus,1081
gallery,1082
game,1083
gamerchikparsedtwodigits,1084
gamers,1085
games,1086
gaming,1087
ganna,1088
garbage,1089
garden,1090
garmin,1091
garr_williams,1092
gate,1093
gates,1094
gatos,1095
gave,1096
gay,1097
gb,1098
gcyparsedonedigitiphn,1099
gdcurry,1100
gear,1101
geek,1102
gem,1103
gen,1104
generator,1105
genius,1106
geniusbar,1107
geolocation,1108
german,1109
get,1110
getglue,1111
gets,1112
gettin,1113
getting,1114
gf,1115
ghost,1116
giant,1117
giants,1118
gigs,1119
girlfriend,1120
girlies,1121
give,1122
gives,1123
givin,1124
giving,1125
gjiuparsedonedigitzzparsedonedigit,1126
gklxmuiparsedonedigit,1127
gkparsedonedigityjtfy,1128
glad,1129
glass,1130
global,1131
globe,1132
gm,1133
gmail,1134
gmsgxcqparsedonedigit,1135
gnu,1136
gnyparsedonedigitgparsedtwodigitsb,1137
go,1138
god,1139
gods,1140
goes,1141
going,1142
gone,1143
gonna,1144
good,1145
goodbye,1146
goof,1147
googland,1148
google,1149
googlemusic,1150
googleplus,1151
googleresearch,1152
googles,1153
got,1154
gotta,1155
gotten,1156
gov,1157
gparsedonedigitelvrvj,1158
gpo,1159
gr,1160
grab,1161
grandma,1162
graphic,1163
grass,1164
gratis,1165
greader,1166
great,1167
greatly,1168
greatsuccess,1169
greedy,1170
greener,1171
greenwich,1172
gregulatorparsedonedigit,1173
ground,1174
gt,1175
gtqdvfxo,1176
guardian,1177
guardiantech,1178
guess,1179
gui,1180
guide,1181
guy,1182
guys,1183
gwokoceg,1184
ha,1185
hack,1186
hacked,1187
had,1188
hah,1189
haha,1190
hairline,1191
half,1192
hand,1193
handle,1194
handled,1195
hands,1196
handy,1197
hangouts,1198
happen,1199
happened,1200
happens,1201
happier,1202
happy,1203
happyplace,1204
hard,1205
harder,1206
hardware,1207
has,1208
hashtags,1209
hasn,1210
hate,1211
hated,1212
hater,1213
have,1214
haven,1215
havin,1216
having,1217
hay,1218
hbogo,1219
hckjxzparsedonedigitk,1220
hd,1221
hdmi,1222
hdv,1223
he,1224
headache,1225
headed,1226
headings,1227
headphones,1228
health,1229
hear,1230
heard,1231
heck,1232
hell,1233
hella,1234
hello,1235
help,1236
helped,1237
helps,1238
helsinki,1239
her,1240
herahussain,1241
here,1242
hero,1243
hey,1244
hfwpbmyparsedonedigit,1245
hide,1246
high,1247
highlight,1248
highscoolmemories,1249
hilarious,1250
him,1251
hindi,1252
hire,1253
his,1254
history,1255
hit,1256
hjparsedonedigitqlocparsedonedigit,1257
hk,1258
hmmm,1259
hmmmm,1260
hobparsedtwodigitshbo,1261
hockey,1262
hold,1263
holodeck,1264
holodesk,1265
home,1266
honeka,1267
honest,1268
hong,1269
honored,1270
hooked,1271
hookup,1272
hope,1273
hopefully,1274
hoping,1275
horizontal,1276
hosting,1277
hot,1278
hotel,1279
hotspots,1280
hour,1281
hourly,1282
hours,1283
houston,1284
how,1285
however,1286
hp,1287
hrs,1288
ht,1289
htc,1290
htmlparsedonedigit,1291
http,1292
https,1293
hubby,1294
huge,1295
huh,1296
humor,1297
humpt,1298
hungry,1299
hurry,1300
hurting,1301
hut,1302
hypo,1303
hypocritical,1304
håper,1305
iancollinsuk,1306
ibm,1307
ical,1308
ice,1309
icecream,1310
icecreamsandwich,1311
icecreamsandwichfail,1312
icloud,1313
icon,1314
ics,1315
id,1316
idea,1317
ideas,1318
idisk,1319
idk,1320
idontunderstand,1321
ie,1322
ieparsedonedigit,1323
if,1324
ifollowback,1325
igiveup,1326
ijparsedonedigitxydpparsedonedigit,1327
ijustine,1328
iknparsedthreedigitsze,1329
ill,1330
illustrating,1331
iloveyou,1332
im,1333
imac,1334
image,1335
images,1336
imamac,1337
imessage,1338
imightbewrong,1339
imitation,1340
immad_immad,1341
immediate,1342
immobile,1343
imo,1344
impact,1345
importance,1346
impossible,1347
impressed,1348
impressions,1349
impressive,1350
improve,1351
improvements,1352
in,1353
inbox,1354
inbuilt,1355
incapable,1356
include,1357
included,1358
includes,1359
incompatible,1360
inconvenienced,1361
incredible,1362
india,1363
indian,1364
indians,1365
individual,1366
ineedthosepictures,1367
ineedtoupdate,1368
inept,1369
inferno,1370
infinite,1371
infinitywebinar,1372
info,1373
infofail,1374
information,1375
informationweek,1376
injunction,1377
inline,1378
innovation,1379
innovations,1380
innovators,1381
inparsedonedigit,1382
input,1383
insane,1384
inside,1385
inspire,1386
inspired,1387
instagram,1388
install,1389
installed,1390
installing,1391
instant,1392
instantfollowback,1393
instantly,1394
instead,1395
insurance,1396
integrate,1397
integrated,1398
integrating,1399
intel,1400
intensifies,1401
interesing,1402
interest,1403
interested,1404
interesting,1405
interests,1406
interface,1407
interference,1408
internet,1409
interoperability,1410
intervals,1411
into,1412
introduce,1413
introduced,1414
introduces,1415
introducing,1416
introduction,1417
invented,1418
invention,1419
inventor,1420
invested,1421
investigate,1422
investments,1423
ioparsedonedigit,1424
ios,1425
iosparsedonedigit,1426
iosparsedonedigitatemydingo,1427
iosparsedonedigitdowngrade,1428
ip,1429
ipad,1430
ipadparsedonedigit,1431
ipads,1432
iparsedonedigits,1433
iparsedonedigitsparseddigits,1434
iphone,1435
iphoneparsedonedigit,1436
iphoneparsedonedigits,1437
iphones,1438
ipod,1439
ipodparsedonedigits,1440
is,1441
isb,1442
iscream,1443
ishit,1444
isn,1445
isnt,1446
isorry,1447
issue,1448
issues,1449
it,1450
italianjoya,1451
itdklrry,1452
item,1453
items,1454
itnews_au,1455
itouch,1456
itouchparsedonedigit,1457
its,1458
itstolate,1459
itunes,1460
itunesmatch,1461
itunesmusic,1462
iuyparsedonedigitdfparsedonedigits,1463
izhparsedonedigitkaiu,1464
izoparsedonedigitwunt,1465
jackasses,1466
jacked,1467
jailbroken,1468
jajajajajajaj,1469
jamaicanidler,1470
james,1471
japan,1472
jatfvfpm,1473
jdougyj,1474
jean,1475
jeffbullas,1476
jessecablek,1477
jewelzparsedfourdigits,1478
jhdtykcv,1479
jimmcniel,1480
jinnhvwz,1481
jkotcrmb,1482
jkotcrmbstephen,1483
jldavid,1484
joannejacobs,1485
job,1486
jobs,1487
joebelfiore,1488
joelburns,1489
joelplane,1490
john,1491
join,1492
jolieesharmeda,1493
jolly,1494
jonparsedonedigitlakers,1495
jonsibley,1496
jowyang,1497
jparsedonedigitftieng,1498
jparsedthreedigitszfpo,1499
jsqparsedtwodigitsnuq,1500
jumpin,1501
junk,1502
jure,1503
jus,1504
just,1505
justsaying,1506
jzmvbdnm,1507
karljuhlke,1508
katebetts,1509
kdtdparsedonedigitzre,1510
keep,1511
keeping,1512
keeps,1513
keepthedesktop,1514
kenyaopendoor,1515
kevin,1516
key,1517
keyboard,1518
keyboards,1519
keys,1520
kgnrbvgp,1521
kick,1522
kicked,1523
kidding,1524
kids,1525
kill,1526
killed,1527
killing,1528
kimaris,1529
kind,1530
kindahow,1531
kinect,1532
king,1533
kjkzparsedtwodigitszy,1534
kjparsedonedigitpjvkh,1535
knew,1536
knizparsedthreedigitss,1537
know,1538
known,1539
knows,1540
kong,1541
kostatsetsekas,1542
kudos,1543
kursed,1544
kushkittyparsedthreedigits,1545
kxboqskj,1546
kyliemessier,1547
kymbersanden,1548
la,1549
lack,1550
lacks,1551
lag,1552
lager,1553
laggin,1554
laid,1555
lame,1556
land,1557
languages,1558
laptop,1559
laser,1560
last,1561
lasted,1562
late,1563
later,1564
latest,1565
laughable,1566
launch,1567
launches,1568
launchfail,1569
launching,1570
laundering,1571
law,1572
laws,1573
laying,1574
layout,1575
lcmediahouse,1576
lcxaparsedonedigitqparseddigitsp,1577
ldparsedonedigitiparsedthreedigitsx,1578
lead,1579
leading,1580
lean,1581
leap,1582
learn,1583
learned,1584
learning,1585
least,1586
leave,1587
leaves,1588
leaving,1589
lecture,1590
left,1591
leopard,1592
less,1593
lesson,1594
let,1595
letdown,1596
lets,1597
letting,1598
lfparsedtwodigitszkuz,1599
lgfw,1600
liciaparsedfourdigits,1601
lies,1602
life,1603
lifted,1604
light,1605
like,1606
likes,1607
liking,1608
lil,1609
limit,1610
line,1611
linkedin,1612
linux,1613
lion,1614
lisa,1615
lisa_marieparsedfourdigits,1616
list,1617
listening,1618
listing,1619
literally,1620
little,1621
live,1622
lives,1623
living,1624
ljpgvzjt,1625
lk,1626
ll,1627
llslrxfm,1628
lmao,1629
lmfao,1630
load,1631
loathe,1632
lobby,1633
local,1634
locate,1635
located,1636
location,1637
lock,1638
logged,1639
logicparsedfourdigits,1640
login,1641
lol,1642
lolol,1643
lonely,1644
long,1645
longer,1646
look,1647
looking,1648
looks,1649
loop,1650
loose,1651
lords,1652
los,1653
lose,1654
losing,1655
loss,1656
lost,1657
lot,1658
lots,1659
love,1660
loved,1661
lovee,1662
loveguru_b,1663
lovemyiphone,1664
loves,1665
lovin,1666
loving,1667
low,1668
loyalty,1669
lparsedonedigitmtmparsedonedigitig,1670
lparsedonedigitrsxparsedonedigityf,1671
lparsedtwodigitsowqre,1672
lt,1673
lucky_parsedonedigit_have,1674
lunch,1675
lwjpparsedonedigitgiu,1676
lwtpxejo,1677
ly,1678
lync,1679
ma,1680
mac,1681
macbook,1682
machine,1683
mack,1684
macosc,1685
macworld,1686
mad,1687
made,1688
madness,1689
magazine,1690
magic,1691
magical,1692
magically,1693
mail,1694
mainey_maine,1695
maintenance,1696
major,1697
majorfail,1698
make,1699
makemeproud,1700
makes,1701
making,1702
mall,1703
man,1704
manage,1705
managed,1706
management,1707
mandarin,1708
manelfmartinez,1709
mango,1710
manually,1711
many,1712
maoqaplh,1713
map,1714
march,1715
marcoarment,1716
mariospr,1717
market,1718
marketing,1719
markstuver,1720
mashable,1721
matthewgphy,1722
mattmarcheski,1723
maximize,1724
may,1725
mayati,1726
maybe,1727
mb,1728
mbl,1729
mcp,1730
mcwparsedtwodigitsvtg,1731
mczparsedonedigitrsdf,1732
mdqhbparsedonedigitxparseddigits,1733
me,1734
mean,1735
means,1736
meant,1737
media,1738
medical,1739
meego,1740
mega,1741
meghankel,1742
melaleucathewellnesscompany,1743
melts,1744
mention,1745
mentions,1746
mentor,1747
merchandising,1748
message,1749
messages,1750
messed,1751
messy,1752
metro,1753
microsoft,1754
microsoftstores,1755
middle,1756
midnight,1757
might,1758
mightily,1759
mikeferri,1760
miley,1761
mileycyrus,1762
millenia,1763
million,1764
millions,1765
mimecastsa,1766
min,1767
mind,1768
mine,1769
mins,1770
minute,1771
minutes,1772
miss,1773
missed,1774
missing,1775
mission,1776
mixedchikparsedtwodigits,1777
mixer,1778
mmm,1779
mmmm,1780
mnparsedonedigitnova,1781
mnparsedtwodigitsrparsedonedigitvc,1782
mo,1783
mobile,1784
mobileburn,1785
mobileme,1786
mode,1787
model,1788
models,1789
modify,1790
mohamedg,1791
mole,1792
mom,1793
moment,1794
monday,1795
monkeys,1796
monopolistic,1797
monopoly,1798
month,1799
months,1800
mood,1801
more,1802
morning,1803
moron,1804
most,1805
mothafuckin,1806
motorola,1807
mountainview,1808
mouse,1809
move,1810
movies,1811
moving,1812
mp,1813
mr,1814
mr_lister,1815
mrgareth,1816
mrtonysays,1817
ms,1818
msftresearch,1819
msg,1820
msparsedtwodigits,1821
mstapoutbarbie,1822
mswxparsedonedigiteoparsedonedigit,1823
mtsparsedtwodigits,1824
mtuparsedonedigittgxparsedonedigit,1825
much,1826
muchhh,1827
muh,1828
mulling,1829
multiple,1830
music,1831
must,1832
mute,1833
muuwbgpn,1834
mv,1835
my,1836
myself,1837
nagoulparsedonedigit,1838
nam,1839
name,1840
names,1841
nansen,1842
nationalgeographic,1843
native,1844
nauseous,1845
navigation,1846
naw,1847
nbparsedonedigitdhlsg,1848
ndk,1849
nearest,1850
nearly,1851
neat,1852
neck,1853
need,1854
needed,1855
needless,1856
needparsedonedigits,1857
needs,1858
negative,1859
nejbye,1860
neowin,1861
nerdboner,1862
nerdiness,1863
nervous,1864
net,1865
netbooks,1866
netscape,1867
network,1868
networkin,1869
never,1870
new,1871
newest,1872
news,1873
newsstand,1874
newstand,1875
newton,1876
next,1877
nexus,1878
nexusprime,1879
nfl,1880
nice,1881
nicholiparsedtwodigits,1882
nicki,1883
nickthefnicon,1884
nicolebanyots,1885
night,1886
nightmares,1887
nirvana,1888
no,1889
nobueno,1890
nohelp,1891
nokia,1892
non,1893
none,1894
nonstop,1895
noowwwwww,1896
nopatience,1897
nor,1898
noreply,1899
not,1900
notcool,1901
note,1902
notes,1903
nothing,1904
notifications,1905
notified,1906
notifies,1907
notjustaboutthephone,1908
notresponding,1909
nov,1910
novatyler,1911
novell,1912
november,1913
now,1914
nowicanspendevenmoretimeonmyphone,1915
nparsedonedigit,1916
nparsedonedigitcpuparsedonedigitvj,1917
nsaisrip,1918
nshlfiux,1919
number,1920
numbering,1921
numbers,1922
nuther,1923
nuts,1924
ny,1925
nytimes,1926
nz,1927
obnoxious,1928
obsessions,1929
occur,1930
oeurmtlx,1931
oezkparsedonedigitivparsedonedigit,1932
of,1933
off,1934
offer,1935
offering,1936
offers,1937
office,1938
official,1939
officially,1940
offing,1941
offline,1942
ofhparsedonedigitptag,1943
often,1944
oh,1945
ohnonotagain,1946
ok,1947
okay,1948
old,1949
older,1950
omfg,1951
omg,1952
omnitouch,1953
omnomnomnom,1954
on,1955
once,1956
ondxwper,1957
one,1958
ones,1959
online,1960
only,1961
onto,1962
oparsedonedigit,1963
open,1964
opening,1965
opens,1966
opensource,1967
operating,1968
opinions,1969
opportunities,1970
opportunity,1971
option,1972
or,1973
orbital,1974
order,1975
ordered,1976
organic,1977
orging,1978
original,1979
os,1980
osx,1981
other,1982
others,1983
ouch,1984
ouparsedonedigitkparsedtwodigitsge,1985
our,1986
out,1987
outdated,1988
outlaws,1989
outlook,1990
outside,1991
over,1992
overall,1993
overcapacity,1994
own,1995
owner,1996
owns,1997
oyszmjvi,1998
pad,1999
page,2000
pages,2001
paging_dr_a,2002
paid,2003
pain,2004
painful,2005
painfully,2006
palmface,2007
panasonic,2008
panorama,2009
panoramas,2010
panoramic,2011
parents,2012
parivar,2013
parker,2014
parseddigits,2015
parseddigitsk,2016
parseddigitsnd,2017
parseddigitsst,2018
parseddigitsyrs,2019
parsedfivedigits,2020
parsedfourdigits,2021
parsedfourdigitsp,2022
parsedonedigit,2023
parsedonedigitaja,2024
parsedonedigitb,2025
parsedonedigitbn,2026
parsedonedigitbwtparsedonedigitwparseddigitsz,2027
parsedonedigitbwxjadg,2028
parsedonedigitchan,2029
parsedonedigitd,2030
parsedonedigitdays,2031
parsedonedigitexbnqjy,2032
parsedonedigitfhparsedonedigitdfgj,2033
parsedonedigitfmjxtmm,2034
parsedonedigitg,2035
parsedonedigitgjqvewn,2036
parsedonedigitgs,2037
parsedonedigitgupparsedonedigitacz,2038
parsedonedigithr,2039
parsedonedigithrs,2040
parsedonedigithvbcparsedonedigitbm,2041
parsedonedigitibobnrh,2042
parsedonedigitijkparsedonedigitvbparsedonedigit,2043
parsedonedigitlike,2044
parsedonedigitnd,2045
parsedonedigitnhuyfeh,2046
parsedonedigitoensvgparsedonedigit,2047
parsedonedigitokparsedonedigitxcow,2048
parsedonedigitphhparsedonedigitjbparsedonedigit,2049
parsedonedigitpkparsedonedigitetparsedonedigitr,2050
parsedonedigitpm,2051
parsedonedigitqmgparsedonedigitira,2052
parsedonedigitquyparsedonedigituou,2053
parsedonedigitrkochzr,2054
parsedonedigits,2055
parsedonedigitsesvwwm,2056
parsedonedigitsjnparsedonedigitbzz,2057
parsedonedigitss,2058
parsedonedigitst,2059
parsedonedigitsunni,2060
parsedonedigitth,2061
parsedonedigituhparsedonedigitaparseddigitsvt,2062
parsedonedigituxawkwf,2063
parsedonedigitvsaszyt,2064
parsedonedigitwhhmakparsedonedigit,2065
parsedonedigitwvparsedtwodigitsoparsedonedigitv,2066
parsedonedigitx,2067
parsedonedigitxddxnparsedonedigitw,2068
parsedonedigityparseddigitsasparsedonedigitzz,2069
parsedonedigityvjmhnq,2070
parsedonedigitywvbeparsedonedigitz,2071
parsedonedigitzcqparsedtwodigitssf,2072
parsedthreedigits,2073
parsedthreedigitsdaysofgratefulness,2074
parsedthreedigitsklkfh,2075
parsedtwodigits,2076
parsedtwodigitsbit,2077
parsedtwodigitsdyonxz,2078
parsedtwodigitsgajsgi,2079
parsedtwodigitsgb,2080
parsedtwodigitshrs,2081
parsedtwodigitsighgic,2082
parsedtwodigitsjwparsedonedigitzparseddigitsc,2083
parsedtwodigitsk,2084
parsedtwodigitsmb,2085
parsedtwodigitsoglika,2086
parsedtwodigitsohflyparsedonedigit,2087
parsedtwodigitstwitterpeopleiwouldliketomeet,2088
parsedtwodigitswkioxc,2089
parsedtwodigitsyrparsedtwodigitswl,2090
part,2091
participated,2092
particularly,2093
parts,2094
party,2095
pass,2096
password,2097
past,2098
patent,2099
paulens,2100
pavilions,2101
pay,2102
paying,2103
paypal,2104
pc,2105
pcam,2106
pcmjon,2107
pdbfparsedonedigithparseddigitsf,2108
pdf,2109
people,2110
per,2111
perfect,2112
perfectly,2113
perform,2114
performance,2115
perhaps,2116
perils,2117
period,2118
perpetual,2119
person,2120
personal,2121
personalization,2122
petty,2123
ph,2124
philanthropy,2125
philipgrey,2126
philliprowntree,2127
philosophy,2128
phoenixswinger,2129
phone,2130
phonedog_aaron,2131
phones,2132
photo,2133
photograherseye,2134
photography,2135
photos,2136
photosharing,2137
phxguyparsedtwodigits,2138
pick,2139
picking,2140
picture,2141
pictures,2142
piece,2143
pile,2144
pinch,2145
pink,2146
pins,2147
piracy,2148
pissed,2149
pissing,2150
place,2151
plan,2152
planet,2153
planned,2154
plans,2155
plate,2156
platform,2157
platforms,2158
play,2159
playbooks,2160
played,2161
players,2162
playful,2163
playing,2164
playlist,2165
playlists,2166
please,2167
pleased,2168
pleasure,2169
plot,2170
pls,2171
pltitgei,2172
plus,2173
plz,2174
pmphillips,2175
pocketlint,2176
podcast,2177
podcasts,2178
point,2179
points,2180
poised,2181
policy,2182
polish,2183
politely,2184
politicians,2185
pondering,2186
poole,2187
poor,2188
pop,2189
popular,2190
ported,2191
portland,2192
positive,2193
positives,2194
post,2195
power,2196
powered,2197
powerpivot,2198
powerpoint,2199
pparsedonedigitj,2200
pparsedonedigitmparseddigitsxvaz,2201
pparsedtwodigitsehduq,2202
ppl,2203
pqparsedtwodigitsgrra,2204
practices,2205
praying,2206
prctices,2207
pre,2208
preaching,2209
prefer,2210
premise,2211
preorder,2212
preordered,2213
present,2214
presentation,2215
presentations,2216
presents,2217
press,2218
prettier,2219
pretty,2220
prettynesz,2221
preventing,2222
preview,2223
price,2224
priceless,2225
prime,2226
princessofchina,2227
printed,2228
privacy,2229
prjusto,2230
pro,2231
probably,2232
problem,2233
problems,2234
probono,2235
process,2236
processor,2237
procrastination,2238
produce,2239
produck,2240
product,2241
productive,2242
productivity,2243
products,2244
profile,2245
profitering,2246
program,2247
programs,2248
progressive,2249
project,2250
prolly,2251
promise,2252
promised,2253
promising,2254
promoallday,2255
prone,2256
propaganda,2257
proper,2258
properly,2259
props,2260
protect,2261
protection,2262
proves,2263
provided,2264
providing,2265
proving,2266
ps,2267
psfk,2268
psn,2269
psujgparsedonedigitpn,2270
public,2271
publicly,2272
puck,2273
pujyvparsedonedigitcparseddigits,2274
pull,2275
pulls,2276
purchase,2277
purchased,2278
purchasing,2279
purpose,2280
push,2281
put,2282
putting,2283
pytparsedonedigitvkrp,2284
qa,2285
qamjparsedonedigitmer,2286
qbgxxjmm,2287
qmwjtvnk,2288
qparsedonedigitkecparsedonedigit,2289
qparsedonedigitqleokz,2290
qpgxle,2291
qrcode,2292
quality,2293
question,2294
quick,2295
quickly,2296
quickresponse,2297
quite,2298
qvparsedonedigitmparseddigitsunparsedonedigit,2299
racketeering,2300
rad_software,2301
radlerc,2302
radparsedonedigitwdsw,2303
rafts,2304
raining,2305
raise,2306
ralphbin,2307
ram,2308
ranch,2309
randomly,2310
rapidly,2311
rauerrtf,2312
razr,2313
rcve,2314
re,2315
reaaly,2316
reaching,2317
reaction,2318
read,2319
readable,2320
reader,2321
readinglists,2322
ready,2323
real,2324
realestate,2325
realise,2326
realized,2327
really,2328
reappeared,2329
reason,2330
reasons,2331
rebuild,2332
receipt,2333
received,2334
recently,2335
recognition,2336
recover,2337
recovered,2338
recruit,2339
red,2340
reddeersteph,2341
redesigned,2342
redmond,2343
refurbed,2344
refurbished,2345
regent,2346
region,2347
register,2348
registered,2349
registration,2350
regular,2351
relaxing,2352
release,2353
released,2354
releasepartyguide,2355
releases,2356
reliable,2357
remember,2358
remind,2359
reminder,2360
reminders,2361
removable,2362
removing,2363
remparsedonedigit,2364
rename,2365
renatmin,2366
render,2367
rep,2368
repair,2369
replace,2370
replaced,2371
replaceit,2372
replacement,2373
replacing,2374
replied,2375
replies,2376
report,2377
reported,2378
reporting,2379
reports,2380
represent,2381
reprisk,2382
request,2383
required,2384
requires,2385
research,2386
resellars,2387
reservation,2388
reserve,2389
resolution,2390
resolve,2391
resources,2392
respect,2393
respectmaswagg,2394
response,2395
responsive,2396
rest,2397
restore,2398
restored,2399
restoring,2400
restrictions,2401
results,2402
retail,2403
retarded,2404
retrieve,2405
return,2406
returning,2407
retweeted,2408
retweets,2409
revealed,2410
revenue,2411
reverting,2412
review,2413
revolution,2414
rgbhhuqp,2415
rice,2416
richer,2417
rickysinghpt,2418
ridic,2419
right,2420
rihanna,2421
rim,2422
rimm,2423
ring,2424
ringing,2425
rip,2426
rise,2427
rite,2428
ritenow,2429
rkparsedonedigitkphss,2430
rly,2431
rmiparsedonedigitosmi,2432
robert_terpstra,2433
roboto,2434
rogerweir,2435
roll,2436
roolz,2437
room,2438
rooting,2439
rossmistry,2440
rot,2441
row,2442
roycind,2443
rparsedonedigithnettu,2444
rparsedonedigitjujsbr,2445
rparsedtwodigits,2446
rt,2447
rtdzjqparsedonedigitu,2448
rts,2449
ruining,2450
rule,2451
run,2452
running,2453
runtime,2454
rww,2455
rxwdparsedonedigitsnparsedonedigit,2456
rygurl,2457
rzucfejc,2458
sad,2459
sadmac,2460
safari,2461
safe,2462
safety,2463
sage,2464
said,2465
sake,2466
sale,2467
sales,2468
salesforce,2469
salmonella,2470
samay,2471
same,2472
samsumg,2473
samsung,2474
samsunggalaxynexus,2475
samsungmobileca,2476
samsungnexus,2477
sander_koers,2478
sandwich,2479
santa,2480
santorum,2481
sap,2482
saptha,2483
sarahhhhhparsedthreedigits,2484
save,2485
saved,2486
saw,2487
sawyerhartman,2488
say,2489
saying,2490
says,2491
sbs,2492
sbsparsedfourdigits,2493
scalability,2494
scares,2495
schaumburg,2496
schedule,2497
schestowitz,2498
school,2499
science,2500
science_alex,2501
scientist,2502
scores,2503
scottdugas,2504
scream,2505
screen,2506
screened,2507
screenshot,2508
screenshots,2509
screw,2510
screwed,2511
screwing,2512
scroll,2513
scrolling,2514
sd,2515
sdk,2516
sdparsedtwodigits,2517
seamlessly,2518
sean,2519
search,2520
searches,2521
searching,2522
sebascoulombe,2523
second,2524
section,2525
secure,2526
see,2527
seeing,2528
seeks,2529
seem,2530
seemed,2531
seemingly,2532
seems,2533
seen,2534
select,2535
self,2536
sell,2537
selling,2538
sells,2539
selop,2540
semilshah,2541
send,2542
sending,2543
sense,2544
sent,2545
seo,2546
september,2547
sequence,2548
seriously,2549
served,2550
server,2551
servers,2552
serves,2553
service,2554
services,2555
sesamestreet,2556
set,2557
setting,2558
settings,2559
sgn,2560
shagorikah,2561
share,2562
sharepoint,2563
sharing,2564
shaydiddy,2565
she,2566
shhhh,2567
shifted,2568
ship,2569
shipping,2570
shit,2571
shitt,2572
shitty,2573
shlft,2574
shoot,2575
shore,2576
shoukd,2577
should,2578
show,2579
showed,2580
showin,2581
showing,2582
shows,2583
shuffle,2584
shutter,2585
sick,2586
side,2587
sigh,2588
sign,2589
signal,2590
signs,2591
signups,2592
silly,2593
silverlight,2594
similar,2595
simple,2596
simplifies,2597
simply,2598
sinanaral,2599
since,2600
singaporean,2601
siri,2602
siriwho,2603
sit,2604
site,2605
sites,2606
sith,2607
sitting,2608
six,2609
skandalasgp,2610
skills,2611
skin,2612
skype,2613
slacking,2614
sledgehammer,2615
sleep,2616
slegit,2617
slick,2618
slide,2619
slightly,2620
slipping,2621
sloppy,2622
slow,2623
slower,2624
slowly,2625
slows,2626
sm,2627
smalfunctioningagain,2628
small,2629
smallvictory,2630
smart,2631
smarterphone,2632
smartest,2633
smartkeitai,2634
smartphone,2635
smashed,2636
smau,2637
smm,2638
smooth,2639
sms,2640
snippy,2641
snlparsedtwodigitsemparsedonedigit,2642
snow,2643
so,2644
socia,2645
social,2646
socialmedia,2647
software,2648
solution,2649
solutions,2650
solve,2651
some,2652
somehow,2653
someone,2654
someparsedonedigit,2655
something,2656
sometimes,2657
song,2658
songs,2659
sony,2660
soon,2661
sooo,2662
soooo,2663
soparsedonedigitwparseddigitsspn,2664
sorri,2665
sorry,2666
sorude,2667
sought,2668
sound,2669
sounds,2670
source,2671
sources,2672
space,2673
spacecanard,2674
spaces,2675
spam,2676
spanish,2677
sparsedonedigit,2678
speakers,2679
speaking,2680
speech,2681
speed,2682
spell,2683
spend,2684
spending,2685
spiral,2686
spoiled,2687
spoke,2688
spongebob,2689
sponsors,2690
spontaneously,2691
sports,2692
spparsedfourdigits,2693
sprint,2694
spying,2695
sqlserver,2696
sqneparsedonedigitilb,2697
srbmparsedonedigitvparseddigitsk,2698
stable,2699
stacks,2700
staff,2701
stage,2702
stalking,2703
stand,2704
standards,2705
star,2706
start,2707
started,2708
starting,2709
starts,2710
states,2711
station,2712
steeloparsedthreedigits,2713
step,2714
steps,2715
steve,2716
steveballmer,2717
steveballmet,2718
stevejobs,2719
stewart,2720
stick,2721
sticking,2722
sticky,2723
still,2724
stink,2725
stolen,2726
stop,2727
storage,2728
store,2729
stores,2730
stories,2731
story,2732
straight,2733
strangest,2734
strategy,2735
street,2736
stressed,2737
stuck,2738
students,2739
studies,2740
study,2741
studying,2742
studyingwhilstmotivated,2743
stuff,2744
stumped,2745
stupid,2746
style,2747
stylus,2748
submitted,2749
subscriptions,2750
subtweeting,2751
suburbs,2752
succeed,2753
succesfully,2754
success,2755
such,2756
suck,2757
suckers,2758
sucking,2759
sucks,2760
suddenly,2761
suffering,2762
sugar,2763
suggested,2764
suing,2765
summer,2766
sums,2767
sun,2768
sunday,2769
super,2770
superior,2771
superphone,2772
support,2773
supports,2774
sure,2775
surely,2776
surface,2777
surprised,2778
surprises,2779
susanfelicity,2780
suspecting,2781
sux,2782
swaag,2783
swallow,2784
sware,2785
swear,2786
sweatshops,2787
sweet,2788
switch,2789
switched,2790
switching,2791
swpats,2792
swype,2793
sydney,2794
sync,2795
synching,2796
syncing,2797
syncronize,2798
syncs,2799
sysadmin,2800
system,2801
systems,2802
tablet,2803
tablets,2804
take,2805
taken,2806
takes,2807
taking,2808
talk,2809
talking,2810
target,2811
tasparsedfivedigits,2812
taste,2813
taught,2814
tbnyxparsedonedigitpparseddigits,2815
tcn,2816
tcot,2817
team,2818
teamed,2819
teamfollowback,2820
teamo,2821
teams,2822
tear,2823
teasing,2824
tech,2825
techedafrica,2826
techfest,2827
techflash,2828
technical,2829
technological,2830
technologies,2831
technology,2832
techsupport,2833
techy,2834
teehee,2835
telegraph,2836
tell,2837
telling,2838
tellme,2839
tells,2840
terminal,2841
terms,2842
terrible,2843
test,2844
tests,2845
text,2846
texts,2847
tha,2848
than,2849
thank,2850
thankful,2851
thankfully,2852
thanks,2853
thanksfornothing,2854
thankyou,2855
that,2856
thats,2857
thattechguyparsedtwodigits,2858
the,2859
theft,2860
thegadgetshow,2861
their,2862
thelittleappkid,2863
them,2864
themarketaire,2865
theme,2866
themes,2867
then,2868
there,2869
theresamarosy,2870
these,2871
they,2872
thievingbastards,2873
thing,2874
things,2875
thingsweallhate,2876
thingswealllove,2877
think,2878
thinking,2879
thinks,2880
third,2881
this,2882
thnx,2883
tho,2884
thomas,2885
thorough,2886
those,2887
though,2888
thought,2889
thoughtful,2890
thoughts,2891
threat,2892
threaten,2893
three,2894
throat,2895
through,2896
throw,2897
throws,2898
thumbs,2899
thunderbird,2900
thunderbolt,2901
thx,2902
thxx,2903
tiger,2904
til,2905
time,2906
timed,2907
timeline,2908
times,2909
timewarnercable,2910
timing,2911
tint,2912
tipped,2913
tired,2914
tita_ramos,2915
titanic,2916
tl,2917
tmw,2918
to,2919
today,2920
together,2921
told,2922
toledo,2923
tomcolontonio,2924
tomkeene,2925
tommylee,2926
tomorrow,2927
tone,2928
tones,2929
tonight,2930
tonite,2931
tons,2932
too,2933
took,2934
tool,2935
tools,2936
top,2937
toparsedonedigitne,2938
tossing,2939
total,2940
totally,2941
touch,2942
touchscreen,2943
tour,2944
toy,2945
toys,2946
tragic,2947
training,2948
transferred,2949
trash,2950
treyhobparsedtwodigits,2951
tri,2952
trial,2953
tribute,2954
tried,2955
tries,2956
trip,2957
triple,2958
triplingo,2959
trisha_ps,2960
trivia,2961
trojan,2962
tron,2963
tronman,2964
trouble,2965
truly,2966
try,2967
trying,2968
tsql,2969
tt,2970
tuesday,2971
tunes,2972
turn,2973
turned,2974
turning,2975
turns,2976
tv,2977
twaeudbp,2978
twalve,2979
tweet,2980
tweeted,2981
tweeter,2982
tweeting,2983
tweets,2984
twitter,2985
twitterapp,2986
twitterer,2987
twitternation,2988
twitters,2989
twitterswag,2990
two,2991
tx,2992
txts,2993
ty,2994
type,2995
typing,2996
uaqrxtnk,2997
uber,2998
uch,2999
ugh,3000
ughh,3001
ugly,3002
uh,3003
ui,3004
uiparsedonedigitadparsedonedigitfj,3005
uiparsedonedigitloezx,3006
ukwokbgd,3007
ultimate,3008
um,3009
umber,3010
umd,3011
umparsedthreedigitsjfh,3012
unable,3013
unbelievable,3014
unborn,3015
under,3016
undergo,3017
underrated,3018
understand,3019
underwhelming,3020
undo,3021
unexpected,3022
unfair,3023
unhappy,3024
unified,3025
unless,3026
unlike,3027
unlock,3028
unlocking,3029
unmindful,3030
unproductive,3031
unquality,3032
unreal,3033
until,3034
unveil,3035
unveiled,3036
unwanted,3037
up,3038
upcoming,3039
update,3040
updated,3041
updater,3042
updates,3043
updating,3044
upgrade,3045
upgraded,3046
upgrades,3047
upgrading,3048
uphill,3049
upload,3050
ups,3051
upset,3052
ur,3053
url,3054
urxjixce,3055
us,3056
usage,3057
use,3058
used,3059
useful,3060
useless,3061
user,3062
users,3063
uses,3064
using,3065
usual,3066
utilities,3067
utter,3068
utterly,3069
uweyalkb,3070
ux,3071
values,3072
vancouver,3073
vanillalatte_xd,3074
vattam,3075
ve,3076
vegas,3077
venturebeat,3078
verizon,3079
verizonwireless,3080
vers,3081
version,3082
vertical,3083
very,3084
via,3085
victim,3086
victims,3087
video,3088
views,3089
vinodrad,3090
violated,3091
viparsedonedigithtjrr,3092
virtual,3093
visigoth,3094
visit,3095
vista,3096
visual,3097
vjparsedonedigitjpktm,3098
vjrssfyn,3099
vkvparsedonedigittbcj,3100
voice,3101
voicecontrol,3102
voices,3103
volume,3104
voparsedthreedigitsmrz,3105
vpqoyxwa,3106
vs,3107
vslive,3108
vtybqiparsedtwodigits,3109
vulnerability,3110
vuwgyxparsedonedigitn,3111
vvparsedonedigitltkyp,3112
waaaaay,3113
waddya,3114
wait,3115
waited,3116
waiting,3117
walk,3118
walled,3119
wallet,3120
wallpaper,3121
wanna,3122
want,3123
wanted,3124
wanting,3125
wants,3126
war,3127
warm,3128
warning,3129
warranty,3130
wars,3131
was,3132
wash,3133
wasn,3134
wasted,3135
wasting,3136
watch,3137
watchdog,3138
watched,3139
watching,3140
water,3141
wave,3142
way,3143
waynp,3144
we,3145
web,3146
webcamps,3147
webgl,3148
webos,3149
webpage,3150
webpronews,3151
website,3152
wedpbcpx,3153
week,3154
weekend,3155
weirdhttp,3156
weirdo,3157
welcome,3158
welcomeskype,3159
well,3160
wellisparsedtwodigits,3161
went,3162
were,3163
west,3164
wfrzkysn,3165
whaddupwitdat,3166
whale,3167
what,3168
whatchu,3169
when,3170
whenever,3171
where,3172
which,3173
while,3174
white,3175
who,3176
whoever,3177
whole,3178
whoops,3179
whore,3180
whores,3181
whoring,3182
why,3183
widget,3184
widgets,3185
wife,3186
wifi,3187
will,3188
william,3189
wilth,3190
win,3191
windows,3192
windowsparsedonedigit,3193
windowsparsedonedigitmobile,3194
windowsphone,3195
windowsphoneparsedonedigit,3196
winning,3197
winparsedonedigit,3198
winrt,3199
wiped,3200
wireless,3201
wisconsin_mommy,3202
wise,3203
wish,3204
wit,3205
witchcraft,3206
with,3207
without,3208
wmp,3209
wo,3210
won,3211
wonder,3212
wondering,3213
wont,3214
wooden,3215
woods,3216
word,3217
words,3218
work,3219
worked,3220
workers,3221
workflow,3222
workflows,3223
working,3224
works,3225
workshop,3226
workstation,3227
world,3228
worldwide,3229
worried,3230
worries,3231
worse,3232
worst,3233
worstupdateever,3234
worth,3235
would,3236
wouldn,3237
wounded,3238
wow,3239
wowww,3240
wparsedonedigitocrbpm,3241
wparsedthreedigitsbfsparsedonedigit,3242
wpdesignteam,3243
wpparsedonedigit,3244
wps,3245
wpt,3246
wristpad,3247
write,3248
wrong,3249
wtf,3250
wth,3251
wtjparsedonedigitogdo,3252
wuparsedonedigitbfiparsedonedigith,3253
wuppy,3254
wvzprbci,3255
wxbcparsedonedigituuw,3256
xbl,3257
xbox,3258
xboxlive,3259
xcuntnuggetx,3260
xero,3261
xghoevparsedonedigitk,3262
xliparsedonedigitbrparsedtwodigits,3263
xolrauey,3264
xparsedonedigitqzexparsedonedigitf,3265
xparsedonedigitywfnsv,3266
xsjgifop,3267
xtzmpsmt,3268
xvparsedonedigitqparseddigitsgfi,3269
xx,3270
yahoo,3271
yapping,3272
yashasjoshi,3273
yea,3274
yeah,3275
yeahh,3276
year,3277
years,3278
yeh,3279
yellow,3280
yellowgate,3281
yep,3282
yes,3283
yessss,3284
yesterday,3285
yet,3286
ykchtuparsedonedigith,3287
ykqipparsedonedigitnk,3288
yo,3289
yootfktm,3290
you,3291
your,3292
yourdaysarenumbered,3293
yours,3294
yourself,3295
youtube,3296
youuuuuuuuuuuu,3297
yparsedonedigit,3298
yr,3299
yrckqeis,3300
yrs,3301
yummy,3302
yumyumyum,3303
yup,3304
yuvalz,3305
yyparsedonedigithnrbq,3306
yzhcdgfp,3307
zacksiezmagraff,3308
zappos,3309
zbltzparsedonedigitmw,3310
zero,3311
zgbkparsedonedigitxnk,3312
zixfaparsedtwodigitsn,3313
zknparsedonedigitbuparsedonedigitr,3314
zndpparsedonedigitvrparsedonedigit,3315
zombiebomber,3316
zoom,3317
zparsedonedigitbbjparsedonedigitxu,3318
zparsedonedigitidoniparsedonedigit,3319
zparsedonedigitjwlqvu,3320
zrqoewxi,3321
zune,3322
zxparsedonedigitpwparsedonedigitgt,3323
zzcparsedonedigitbeparsedonedigitw,3324
zzkparsedonedigitftii,3325
你好,3326
透過,3327
