administration,0
americanair,1
amopã,2
angry,3
annoying,4
antlers,5
apple,6
appointment,7
aren,8
asking,9
athlete,10
atitsfinest,11
average,12
aw,13
badgers,14
badmoon,15
bag,16
barbara,17
barileia,18
beauparsedonedigitu,19
beautiful,20
belive,21
bennytheejet,22
best,23
bestie,24
better,25
bikini,26
birthday,27
bit,28
blargh,29
bobelieves,30
boner,31
bout,32
boys,33
brits,34
called,35
campuses,36
careful,37
cause,38
cbalramulc,39
cbi,40
cc,41
changes,42
channel,43
chill,44
chocolate,45
city,46
civic,47
code,48
colorado,49
come,50
condescending,51
connect,52
contestâ,53
conventees,54
convention,55
cool,56
cools,57
course,58
cousins,59
crap,60
creek,61
culture,62
currently,63
daniel,64
danwoshere,65
dawson,66
day,67
dc,68
dead,69
degrees,70
delays,71
dentist,72
devil,73
dimwitted,74
dishesðÿ,75
disney,76
doesn,77
doing,78
don,79
downton,80
drama,81
dress,82
drive,83
drove,84
duty,85
e__strobel,86
eaten,87
eelwparsedtwodigitszparsedonedigityparseddigits,88
eh,89
encourage,90
end,91
enjoying,92
especially,93
everybody,94
example,95
excited,96
experience,97
family,98
fangirl,99
fantastic,100
fantasy,101
feel,102
fi,103
fight,104
final,105
fireworks,106
fish,107
fishing,108
flawless,109
flight,110
flinging,111
followed,112
fooled,113
foot,114
football,115
forbid,116
forced,117
ford,118
free,119
freedom,120
freezers,121
friday,122
friend,123
friends,124
fusion,125
game,126
gave,127
gets,128
glad,129
god,130
going,131
good,132
goodness,133
gotigers,134
gotobedguys,135
gov,136
government,137
great,138
gregabbott_tx,139
gt,140
guess,141
guys,142
haha,143
half,144
hand,145
hands,146
having,147
heartwarming,148
heaven,149
hell,150
home,151
hong,152
horrendous,153
horrible,154
hotspot,155
hours,156
http,157
huh,158
humidity,159
hunt,160
hurry,161
ib,162
idea,163
indianapolis,164
indirectly,165
ineedanap,166
inkabinkabonk,167
insert,168
inside,169
inspirationâ,170
iphone,171
ishouldhaveflownsouthwest,172
islam,173
islamic,174
islamophobic,175
isp,176
iytahxqvyh,177
jdtips,178
jealous,179
jew,180
job,181
john,182
joke,183
juanybeats,184
julianburnside,185
just,186
kind,187
know,188
kong,189
kpnwebcare,190
lemme,191
leo,192
let,193
life,194
lifeee,195
like,196
live,197
loaded,198
logging,199
lol,200
lone,201
long,202
longer,203
looking,204
looks,205
lot,206
love,207
loveeeeeeeee,208
lovely,209
lparsedonedigitohparsedtwodigitspqhe,210
lunchboxheroparsedtwodigits,211
make,212
makes,213
maps,214
mcganntstopmenow,215
media,216
merican,217
minorities,218
minorits,219
missed,220
mistake,221
mkbhd,222
modem,223
mom,224
morning,225
mother,226
movies,227
nba,228
need,229
needs,230
nicerack,231
night,232
nights,233
non,234
notreally,235
nsa,236
obama,237
obamaspeech,238
occupyhongkong,239
ok,240
omg,241
oven,242
parseddigits,243
parsedonedigit,244
parsedonedigitam,245
parsedonedigitrd,246
parsedonedigitxgrparsedonedigitkqrlo,247
parsedtwodigits,248
partyanimals,249
past,250
pay,251
people,252
perfect,253
persons,254
pgeonsparsedonedigitafparsedonedigit,255
philbyparsedfourdigits,256
pirates,257
pissed,258
pixar,259
play,260
played,261
politibunny,262
porsche,263
potus,264
pounded,265
predictive,266
pregnancy,267
pretty,268
protestors,269
pumice,270
putting,271
qotd,272
questions_faith,273
ramp,274
rape,275
raw,276
real,277
really,278
remind,279
renolds_reigh,280
renovation,281
respecter,282
retire,283
ridiculous,284
right,285
rights,286
rihanna,287
robbed,288
roomie,289
roommategoals,290
router,291
run,292
ryleebolinsky,293
ryleeshay,294
salon,295
santa,296
sarahinthesenparsedonedigit,297
sarcasm,298
sarcasme,299
sarcasmo,300
sarcasmout,301
sarcasmsaturdays,302
savemefromthisboredom,303
saying,304
scattermemvar,305
scene,306
sea,307
seeing,308
selfie,309
sends,310
sense,311
september,312
seriously,313
sexy,314
shelby_maue,315
shouting,316
sink,317
sister,318
sit,319
sittinrightnexttoher,320
situations,321
skin,322
sleeping,323
sleepova,324
sleepðÿ,325
slut,326
smile,327
smoke,328
snap,329
sold,330
song,331
sons,332
speaker,333
start,334
started,335
steel,336
store,337
story,338
straight,339
stream,340
stressed,341
subtlety,342
suck,343
sunburn,344
superstar,345
sure,346
talk,347
talking,348
tater,349
tattoos,350
teach,351
teenage,352
teens,353
tell,354
term,355
texts,356
thank,357
thanks,358
thatsoriginal,359
theists,360
thing,361
think,362
thursday,363
times,364
timesnow,365
today,366
tomorrow,367
tomorrparsedthreedigits,368
tookthewordsoutmymouth,369
totally,370
tots,371
trash,372
trashy,373
tray,374
trying,375
twitch,376
ucalgarycase,377
understand,378
upset,379
using,380
ve,381
views,382
violent,383
waiting,384
wants,385
wash,386
watch,387
watching,388
way,389
wear,390
whatta,391
wi,392
wijimparsedthreedigits,393
witness,394
woke,395
wolf,396
women,397
wonderful,398
wooow,399
worked,400
working,401
works,402
world,403
worry,404
wsj,405
xbox,406
xojparsedonedigitjkjcparsedtwodigits,407
xuxvamparsedonedigitsml,408
ya,409
yay,410
yeah,411
yes,412
yesterday,413
young,414
ðÿ,415
šðÿ,416
