abilities,0
ability,1
able,2
abroad,3
absolute,4
absolutely,5
abuse,6
abused,7
ac,8
accentuates,9
accept,10
acceptable,11
accepted,12
accepts,13
access,14
accesses,15
accessibility,16
accessible,17
accessing,18
accessories,19
accessory,20
accident,21
accidentally,22
accidently,23
accidents,24
accomplished,25
according,26
accordingly,27
account,28
accually,29
accurate,30
achieve,31
achieved,32
achievement,33
acparsedonedigit,34
act,35
action,36
actions,37
activate,38
activated,39
acts,40
actual,41
actually,42
ad,43
adapter,44
adapters,45
add,46
added,47
addict,48
addition,49
additional,50
additionally,51
address,52
addresses,53
adds,54
adequate,55
adequately,56
adjust,57
adjusted,58
adjustment,59
adjustments,60
adminstrative,61
admit,62
admitted,63
adobe,64
adoo,65
adparsedfourdigits,66
adparsedfourdigitsw,67
advance,68
advanced,69
advancing,70
advantage,71
advantages,72
advertised,73
advertises,74
advice,75
advise,76
advised,77
af,78
affect,79
affecting,80
afflicted,81
afford,82
affordability,83
affordable,84
africa,85
aftermarket,86
age,87
aggrivation,88
ago,89
agree,90
ahead,91
aid,92
aids,93
aiff,94
aight,95
ailing,96
aim,97
ain,98
air,99
aires,100
alarm,101
alarmed,102
albeit,103
album,104
albums,105
algorithms,106
alias,107
alkaline,108
allow,109
allowed,110
allowing,111
allows,112
alltogether,113
alludes,114
alot,115
alphabetical,116
alphebetical,117
alsmost,118
alter,119
altered,120
alternate,121
alternative,122
aluminum,123
amateur,124
amatuer,125
amaze,126
amazed,127
amazement,128
amazing,129
amazon,130
amg,131
amp,132
amusing,133
analog,134
anchor,135
angeles,136
angle,137
annie,138
announced,139
annoy,140
annoying,141
answer,142
answered,143
answering,144
answers,145
anticipate,146
antyhing,147
anybody,148
anytime,149
anyways,150
apart,151
apartment,152
aperature,153
aperture,154
apex,155
apexdigital,156
apexdigitalinc,157
app,158
apparent,159
apparently,160
appealing,161
appear,162
appearance,163
appeared,164
appearing,165
appears,166
apple,167
appliance,168
application,169
applications,170
applied,171
applies,172
applying,173
appreciate,174
appreciated,175
appropriate,176
approved,177
approximately,178
apps,179
aps,180
archos,181
archrival,182
area,183
areas,184
aren,185
arises,186
arm,187
army,188
array,189
arrived,190
arrogant,191
art,192
articulated,193
artist,194
artists,195
asap,196
asia,197
ask,198
asked,199
asking,200
asks,201
aspects,202
assembled,203
assist,204
associated,205
assume,206
assumed,207
assurance,208
assured,209
asthetic,210
asthetics,211
astonishingly,212
astounding,213
attach,214
attached,215
attachment,216
attempted,217
attempting,218
attempts,219
attend,220
attended,221
attention,222
attractable,223
attracted,224
attractive,225
au,226
audible,227
audigy,228
audio,229
audiophile,230
auditorium,231
authorized,232
auto,233
autofocus,234
autofocussing,235
automatic,236
automatically,237
automation,238
automode,239
avail,240
available,241
availible,242
average,243
avi,244
avoid,245
awaesome,246
aware,247
away,248
awe,249
aweful,250
awesome,251
awful,252
awkward,253
awsome,254
baby,255
bach,256
backed,257
background,258
backgrounds,259
backlight,260
backlit,261
backup,262
bad,263
bag,264
balance,265
band,266
bands,267
bang,268
banged,269
bar,270
barely,271
bargain,272
barrel,273
bars,274
bart,275
base,276
based,277
bashing,278
basic,279
basically,280
basicly,281
basis,282
bass,283
batteries,284
batterly,285
battery,286
bbb,287
beast,288
beat,289
beatiful,290
beats,291
beautiful,292
becames,293
becuase,294
bed,295
bedroom,296
beef,297
beefo,298
beeps,299
beetle,300
began,301
begiining,302
beginner,303
beginners,304
beginning,305
begins,306
behavior,307
believe,308
belive,309
belkin,310
belongs,311
belt,312
bending,313
beneficial,314
benefit,315
benifit,316
best,317
better,318
beunos,319
bevy,320
beware,321
big,322
bigger,323
biggest,324
biggie,325
biking,326
billing,327
bin,328
birthday,329
bit,330
bitten,331
black,332
blamed,333
blanks,334
blast,335
blaster,336
blazing,337
bleeding,338
blessing,339
blind,340
blip,341
blocked,342
blocking,343
bloom,344
blowing,345
blown,346
blows,347
blue,348
bluetooth,349
blunt,350
blurry,351
board,352
boasts,353
boat,354
body,355
bones,356
bonus,357
book,358
booklet,359
bookmark,360
bookmarks,361
books,362
boost,363
boosting,364
boot,365
bootleg,366
borderuer,367
bore,368
bored,369
boredom,370
born,371
borrow,372
borrowed,373
boss,374
bother,375
bothered,376
bought,377
bounce,378
bounced,379
box,380
boxy,381
bracket,382
brag,383
brags,384
brainer,385
brand,386
branded,387
brands,388
brazil,389
break,390
breakdown,391
breaker,392
breaks,393
breath,394
breathtaking,395
breeze,396
brick,397
brief,398
bright,399
brightly,400
brightness,401
brilliance,402
brilliant,403
bring,404
broke,405
broken,406
broker,407
brothers,408
brought,409
browser,410
browsing,411
bruce,412
bruvah,413
btw,414
buck,415
bucks,416
budged,417
budget,418
buffs,419
bug,420
buget,421
build,422
buildings,423
built,424
bulging,425
bulky,426
bull,427
bullet,428
bummer,429
bumpy,430
bunch,431
bundled,432
buried,433
burn,434
burner,435
burning,436
business,437
busy,438
butt,439
button,440
buttons,441
buy,442
buyer,443
buyers,444
buying,445
buys,446
buzz,447
buzzing,448
cable,449
cables,450
cage,451
cake,452
calendar,453
called,454
caller,455
calling,456
calls,457
camcorder,458
came,459
camea,460
camedia,461
camera,462
cameras,463
campaign,464
camper,465
cancel,466
cancelled,467
candles,468
candy,469
canned,470
cannon,471
canon,472
canonized,473
cans,474
cap,475
capabilities,476
capability,477
capacity,478
capadabilty,479
capitalist,480
capture,481
captures,482
car,483
card,484
cards,485
care,486
careful,487
carefully,488
cares,489
carl,490
carpet,491
carribean,492
carrier,493
carriers,494
carries,495
carry,496
carrying,497
case,498
cases,499
cash,500
casing,501
cassette,502
cast,503
catalog,504
catch,505
categories,506
categorizes,507
category,508
cause,509
caused,510
causes,511
caution,512
cautious,513
cavity,514
cd,515
cddb,516
cdds,517
cdma,518
cds,519
ceases,520
ceiling,521
cell,522
cellar,523
cellphone,524
cellphones,525
center,526
centimeters,527
cents,528
century,529
certain,530
certainly,531
certificate,532
cf,533
chair,534
challenging,535
chance,536
changable,537
change,538
changeable,539
changed,540
changes,541
changing,542
chapter,543
charge,544
charged,545
charger,546
charges,547
charging,548
charm,549
chat,550
cheap,551
cheaper,552
cheapest,553
cheaply,554
check,555
checked,556
checking,557
cheerful,558
cheesiest,559
cheesy,560
chess,561
chic,562
chicago,563
chie,564
child,565
childhood,566
chinese,567
chip,568
choice,569
choices,570
choose,571
choosing,572
chords,573
chose,574
christmas,575
chucked,576
church,577
cingular,578
circulation,579
claim,580
claiming,581
claims,582
clarity,583
class,584
classic,585
classical,586
classifed,587
classifications,588
classified,589
classify,590
clean,591
cleaned,592
cleaning,593
clear,594
clearly,595
clerk,596
click,597
clicking,598
clicks,599
clip,600
clips,601
clock,602
close,603
closed,604
closely,605
closer,606
closest,607
club,608
clue,609
clumsy,610
clunky,611
clutter,612
coastal,613
coat,614
coax,615
cocking,616
code,617
codes,618
collaborating,619
collection,620
college,621
color,622
coloration,623
colorimetry,624
colors,625
com,626
comaptible,627
combination,628
combined,629
combines,630
combo,631
combos,632
come,633
comes,634
comfortable,635
comfortably,636
coming,637
commander,638
commands,639
comment,640
comments,641
common,642
communications,643
commutes,644
compact,645
compactflash,646
compained,647
companies,648
company,649
comparable,650
compare,651
compared,652
comparing,653
comparison,654
compatibility,655
compatible,656
compelled,657
compensate,658
competence,659
competition,660
competitors,661
compilation,662
complain,663
complained,664
complaining,665
complains,666
complaint,667
complaints,668
complete,669
completely,670
completion,671
complex,672
complicated,673
component,674
compose,675
composite,676
compression,677
compromises,678
computer,679
computers,680
concealed,681
concentrate,682
concern,683
concerned,684
concert,685
concerts,686
concluding,687
condition,688
conditions,689
conducive,690
confidence,691
configurable,692
configured,693
confirm,694
confused,695
confusing,696
conjunction,697
connect,698
connected,699
connecting,700
connection,701
connections,702
connectivity,703
connector,704
connetions,705
cons,706
consider,707
considerable,708
consideration,709
considered,710
considering,711
consistantly,712
consistent,713
consistently,714
constant,715
constantly,716
constituants,717
constructed,718
construction,719
consumer,720
consumers,721
consuming,722
contact,723
contacted,724
contacting,725
contained,726
contains,727
contenders,728
contents,729
continue,730
continued,731
continues,732
continuing,733
continuous,734
contorting,735
contour,736
contours,737
contract,738
contractor,739
contrary,740
contrast,741
control,742
controlling,743
controls,744
contructed,745
convenience,746
conveniences,747
convenient,748
conveniently,749
conversions,750
convert,751
converter,752
converts,753
convinced,754
cool,755
coolpix,756
coolpixparsedfourdigits,757
copied,758
copies,759
copy,760
copying,761
cord,762
corectly,763
corner,764
corners,765
corporate,766
correct,767
corrected,768
correction,769
correctly,770
correspond,771
corrrupted,772
corrupt,773
cost,774
costs,775
couch,776
couldn,777
count,778
counter,779
countertop,780
counting,781
countless,782
countries,783
country,784
couple,785
coupons,786
course,787
cover,788
coverage,789
covered,790
covers,791
coveted,792
cparsedfourdigitsz,793
crack,794
crafted,795
craftmanship,796
cranky,797
crap,798
crapped,799
crappiness,800
crappy,801
craps,802
craptacular,803
crash,804
crashed,805
crashes,806
crashing,807
crazy,808
crazycellphone,809
create,810
created,811
creating,812
creation,813
creative,814
credit,815
criteria,816
criticize,817
critter,818
crop,819
cross,820
crossing,821
cruising,822
crummy,823
crush,824
csd,825
csr,826
ct,827
cube,828
cubic,829
cumbersome,830
currency,831
current,832
currently,833
currrently,834
curve,835
cust,836
custom,837
customer,838
customers,839
customerservice,840
customizable,841
customization,842
customize,843
cut,844
cute,845
cuz,846
cuzin,847
cvds,848
cycle,849
cycles,850
dad,851
damage,852
damaged,853
damned,854
dampening,855
dangerous,856
dare,857
dark,858
darker,859
darn,860
data,861
database,862
date,863
day,864
daylight,865
days,866
dazzling,867
dcs,868
deactivate,869
dead,870
deadline,871
deafults,872
deal,873
dealing,874
deals,875
debit,876
decade,877
december,878
decent,879
decibles,880
decide,881
decided,882
deciding,883
decision,884
deck,885
dedicated,886
default,887
defaulted,888
defaults,889
defeats,890
defective,891
defects,892
deficiencies,893
deficient,894
definately,895
defined,896
definitely,897
degrees,898
delay,899
delays,900
delete,901
deleting,902
delicate,903
deliver,904
delivered,905
delivers,906
delivery,907
dell,908
demand,909
demands,910
den,911
denial,912
dense,913
density,914
dent,915
department,916
dependable,917
depending,918
depends,919
depressed,920
depressing,921
depressingly,922
dept,923
depth,924
described,925
describing,926
description,927
descussion,928
deserves,929
design,930
designed,931
designing,932
desire,933
desk,934
despite,935
destroy,936
destroyed,937
destructed,938
details,939
detectable,940
detecting,941
determined,942
detract,943
detracts,944
devastated,945
developed,946
developing,947
development,948
develops,949
device,950
devices,951
diagnose,952
dial,953
dialing,954
dialogue,955
did,956
didn,957
didnt,958
die,959
died,960
dies,961
difference,962
different,963
difficult,964
difficulties,965
difficulty,966
diggin,967
digi,968
digicam,969
digicams,970
digital,971
dim,972
dimage,973
dimished,974
diopter,975
direct,976
direction,977
directions,978
directly,979
directory,980
dirty,981
dis,982
disadvantages,983
disapointed,984
disappeared,985
disappointed,986
disappointing,987
disappointment,988
disc,989
discontinued,990
discount,991
discoutinous,992
discover,993
discovered,994
discovering,995
discovery,996
discs,997
disgusted,998
disipointed,999
disk,1000
disks,1001
disney,1002
display,1003
displayed,1004
displaying,1005
displays,1006
disposable,1007
dissapears,1008
dissapointed,1009
dissapointment,1010
dissapointments,1011
dissappointed,1012
dissuade,1013
distance,1014
distorted,1015
distortion,1016
distorts,1017
distraction,1018
divided,1019
division,1020
divx,1021
dock,1022
docking,1023
document,1024
documentation,1025
documented,1026
documents,1027
does,1028
doesn,1029
doesnt,1030
dogs,1031
doing,1032
dollar,1033
dollars,1034
don,1035
donkey,1036
donno,1037
dont,1038
door,1039
double,1040
doubler,1041
doubles,1042
doubt,1043
doubts,1044
downer,1045
downladed,1046
download,1047
downloadable,1048
downloaded,1049
downloading,1050
downloads,1051
downside,1052
dozen,1053
dozens,1054
dparsedthreedigitss,1055
dpreview,1056
dpreviews,1057
drag,1058
dragging,1059
drains,1060
drastically,1061
drawback,1062
drawbacks,1063
drawer,1064
dream,1065
drive,1066
driver,1067
drivers,1068
drives,1069
driving,1070
drop,1071
dropped,1072
dropping,1073
drops,1074
drove,1075
dry,1076
dsc,1077
dsf,1078
dual,1079
ducking,1080
duh,1081
dull,1082
dumb,1083
dummy,1084
dumps,1085
duper,1086
duplicate,1087
duplicates,1088
durability,1089
durable,1090
duration,1091
dust,1092
dutch,1093
dvd,1094
dvds,1095
dying,1096
dynamic,1097
eamil,1098
ear,1099
earbuds,1100
earlier,1101
early,1102
earphone,1103
earphones,1104
earpice,1105
earpiece,1106
ears,1107
ease,1108
easier,1109
easiest,1110
easily,1111
east,1112
easy,1113
eat,1114
eax,1115
ebay,1116
eclectic,1117
ect,1118
edge,1119
edges,1120
edit,1121
editing,1122
effect,1123
effective,1124
effort,1125
eh,1126
eject,1127
el,1128
elderly,1129
electricity,1130
electronic,1131
electronics,1132
elegant,1133
eliminate,1134
eliminated,1135
elments,1136
elph,1137
elphs,1138
elses,1139
elusive,1140
em,1141
email,1142
emailed,1143
emailing,1144
emails,1145
embarassing,1146
embarrassed,1147
emergency,1148
employees,1149
emplyees,1150
en,1151
enable,1152
enabled,1153
enables,1154
enabling,1155
enclose,1156
enclosed,1157
encode,1158
encoded,1159
encodes,1160
encounter,1161
encountered,1162
end,1163
ended,1164
ends,1165
engage,1166
engine,1167
engineer,1168
engineered,1169
engineering,1170
engorged,1171
enhancement,1172
enhancing,1173
enjoy,1174
enjoyed,1175
enjoying,1176
enjoys,1177
enlarge,1178
enlarging,1179
enormous,1180
enought,1181
ensure,1182
ensuring,1183
enter,1184
entering,1185
enthusiast,1186
enthusiastic,1187
enthusiastically,1188
entire,1189
entries,1190
entry,1191
envied,1192
environment,1193
environmental,1194
environments,1195
environs,1196
eos,1197
eq,1198
equal,1199
equalizer,1200
equally,1201
equilizer,1202
equipment,1203
equipped,1204
equivalent,1205
er,1206
ergonomical,1207
ergonomics,1208
ericsson,1209
error,1210
errors,1211
erros,1212
especially,1213
estate,1214
estimate,1215
ethernet,1216
euphoria,1217
europe,1218
european,1219
evaluated,1220
evaulate,1221
evening,1222
event,1223
eventhough,1224
eventually,1225
eventualy,1226
everythig,1227
everytime,1228
evolve,1229
ex,1230
exactly,1231
example,1232
exceeded,1233
exceedingly,1234
excel,1235
excellent,1236
excels,1237
exception,1238
exceptional,1239
excessive,1240
exchange,1241
excited,1242
exclusively,1243
excuse,1244
exhaustive,1245
exhibited,1246
exhustive,1247
existent,1248
existing,1249
expecct,1250
expect,1251
expectation,1252
expectations,1253
expected,1254
expecting,1255
expedited,1256
expense,1257
expensive,1258
experience,1259
experienced,1260
experimented,1261
experimenting,1262
experince,1263
expert,1264
expired,1265
expires,1266
explain,1267
explained,1268
explored,1269
explorer,1270
exposed,1271
exposure,1272
exposures,1273
extemely,1274
extended,1275
extension,1276
extensive,1277
extensively,1278
external,1279
extra,1280
extraneous,1281
extras,1282
extreme,1283
extremely,1284
eye,1285
eyed,1286
eyes,1287
eyesight,1288
fabulous,1289
face,1290
faceplate,1291
faceplates,1292
fact,1293
factor,1294
factore,1295
factoring,1296
factors,1297
factory,1298
faded,1299
fahrenheit,1300
fail,1301
failed,1302
failing,1303
fails,1304
failure,1305
fair,1306
fairly,1307
fairness,1308
faithfully,1309
fall,1310
falling,1311
falls,1312
false,1313
familiar,1314
family,1315
familyplan,1316
famous,1317
fan,1318
fanatic,1319
fans,1320
fantasic,1321
fantastic,1322
fantasy,1323
far,1324
fashioned,1325
fast,1326
faster,1327
father,1328
fault,1329
faulty,1330
fav,1331
favor,1332
favorite,1333
fax,1334
fe,1335
fear,1336
feature,1337
features,1338
february,1339
feedback,1340
feel,1341
feeling,1342
feelings,1343
feels,1344
feet,1345
fell,1346
fellow,1347
felt,1348
fiddling,1349
field,1350
fields,1351
fifty,1352
figure,1353
figured,1354
figuring,1355
file,1356
filecount,1357
filenames,1358
files,1359
fileviewer,1360
filled,1361
filling,1362
fillmore,1363
film,1364
filters,1365
final,1366
finally,1367
finder,1368
finding,1369
fine,1370
finest,1371
finger,1372
fingers,1373
fingertips,1374
finish,1375
finished,1376
firewire,1377
firmware,1378
fisher,1379
fist,1380
fit,1381
fits,1382
fix,1383
fixed,1384
fixes,1385
fixing,1386
fizzled,1387
fkor,1388
flagship,1389
flaky,1390
flash,1391
flashes,1392
flashing,1393
flashy,1394
flat,1395
flaw,1396
flawed,1397
flawless,1398
flawlessly,1399
flaws,1400
flew,1401
flexibility,1402
flexible,1403
flight,1404
flimsy,1405
flip,1406
flips,1407
flowers,1408
fluid,1409
fly,1410
flyball,1411
flywheel,1412
fm,1413
focal,1414
focus,1415
focused,1416
focusing,1417
focussing,1418
folder,1419
folders,1420
folks,1421
follow,1422
followed,1423
following,1424
fool,1425
foot,1426
force,1427
forced,1428
forests,1429
forever,1430
forewarned,1431
forget,1432
forgo,1433
forgot,1434
forgotten,1435
form,1436
format,1437
formats,1438
formatted,1439
formatting,1440
forth,1441
fortunately,1442
fortune,1443
forward,1444
fourth,1445
fparsedonedigit,1446
fparsedthreedigits,1447
fraction,1448
fragile,1449
frame,1450
frames,1451
free,1452
freeway,1453
freeze,1454
freezes,1455
freezing,1456
frend,1457
frequent,1458
frequently,1459
fried,1460
friend,1461
friendlier,1462
friendly,1463
friends,1464
fringing,1465
froze,1466
frozen,1467
frustrated,1468
frustrating,1469
frustration,1470
ft,1471
fully,1472
fumble,1473
fun,1474
func,1475
function,1476
functional,1477
functionality,1478
functions,1479
furher,1480
fussy,1481
future,1482
gadgets,1483
gain,1484
gaining,1485
gains,1486
gallery,1487
game,1488
games,1489
gap,1490
garbage,1491
garbling,1492
gave,1493
gb,1494
gear,1495
geared,1496
geeky,1497
gem,1498
general,1499
generally,1500
generate,1501
generated,1502
generation,1503
generations,1504
genre,1505
genres,1506
gentlest,1507
german,1508
gets,1509
getting,1510
ghz,1511
gift,1512
gig,1513
gigabyte,1514
gigabytes,1515
gigs,1516
girlfriend,1517
given,1518
gives,1519
giving,1520
gizmo,1521
glad,1522
glaring,1523
glass,1524
glaze,1525
glinting,1526
glitch,1527
glitches,1528
glitters,1529
glove,1530
glow,1531
glowing,1532
god,1533
goddam,1534
goddaughter,1535
goes,1536
going,1537
gold,1538
golden,1539
goldstar,1540
gone,1541
good,1542
goodluck,1543
goodness,1544
goofy,1545
google,1546
gorgeous,1547
got,1548
goth,1549
gotted,1550
gotten,1551
gparsedonedigit,1552
gprs,1553
grab,1554
gracenotes,1555
grade,1556
grain,1557
grainy,1558
grand,1559
grandma,1560
granted,1561
graphic,1562
graphics,1563
gravitated,1564
gray,1565
great,1566
greater,1567
greatest,1568
green,1569
grieps,1570
grip,1571
gripe,1572
groovy,1573
group,1574
groups,1575
grow,1576
gsm,1577
gsmparsedthreedigits,1578
guarantee,1579
guess,1580
guessing,1581
guides,1582
gut,1583
guy,1584
gym,1585
habit,1586
hacks,1587
hadn,1588
haggard,1589
half,1590
halfway,1591
hall,1592
hand,1593
handbag,1594
handle,1595
handles,1596
hands,1597
handsets,1598
handy,1599
hang,1600
hanging,1601
hangs,1602
happen,1603
happened,1604
happens,1605
happier,1606
happily,1607
happy,1608
hard,1609
harddisk,1610
harddrive,1611
harder,1612
hardly,1613
hardware,1614
harm,1615
harsh,1616
hasn,1617
hassle,1618
hate,1619
hated,1620
hates,1621
haul,1622
haven,1623
havent,1624
having,1625
haze,1626
hazy,1627
hazzles,1628
hd,1629
hdd,1630
hddparsedthreedigits,1631
hdtv,1632
head,1633
headache,1634
headaches,1635
headed,1636
headfone,1637
heading,1638
headphone,1639
headphones,1640
heads,1641
headset,1642
health,1643
hear,1644
heard,1645
hearing,1646
heart,1647
heartedly,1648
heaven,1649
heavier,1650
heaviest,1651
heavily,1652
heavy,1653
heck,1654
heft,1655
held,1656
hell,1657
hellishly,1658
help,1659
helped,1660
helpful,1661
helps,1662
hendrix,1663
heres,1664
hesitant,1665
hesitate,1666
hesitation,1667
hey,1668
hi,1669
hick,1670
hides,1671
high,1672
higher,1673
highest,1674
highlight,1675
highlights,1676
highly,1677
hinderance,1678
hint,1679
hip,1680
hipster,1681
history,1682
hit,1683
hitch,1684
hits,1685
hitting,1686
ho,1687
hold,1688
holding,1689
holds,1690
hole,1691
holiday,1692
home,1693
homework,1694
honestly,1695
hook,1696
hooked,1697
hoome,1698
hooray,1699
hope,1700
hopefully,1701
hoping,1702
horoscopes,1703
horrendous,1704
horrible,1705
hot,1706
hour,1707
hours,1708
house,1709
http,1710
huge,1711
hum,1712
hundreds,1713
hunter,1714
hurdles,1715
hurry,1716
hurt,1717
husband,1718
hype,1719
hyped,1720
ibm,1721
ibook,1722
ice,1723
icing,1724
iconoclast,1725
id,1726
idea,1727
ideal,1728
ideas,1729
identical,1730
identify,1731
identifying,1732
idiot,1733
idparsedonedigit,1734
idparsedonedigitvparseddigits,1735
ignore,1736
ignored,1737
iguazu,1738
ihp,1739
ii,1740
ill,1741
illiterate,1742
illogical,1743
illuminates,1744
im,1745
image,1746
images,1747
imagine,1748
imaging,1749
imho,1750
immaterial,1751
immediately,1752
immense,1753
imo,1754
impatient,1755
import,1756
important,1757
impossible,1758
impress,1759
impressed,1760
impression,1761
impressive,1762
improve,1763
improved,1764
improvement,1765
improves,1766
inbuilt,1767
inches,1768
incident,1769
inclined,1770
include,1771
included,1772
includes,1773
including,1774
inconveniences,1775
inconvenient,1776
incorrect,1777
increadably,1778
increased,1779
incredible,1780
incredibly,1781
indestructibility,1782
indicate,1783
indicated,1784
indicator,1785
indirect,1786
indistinguishable,1787
individualized,1788
individually,1789
indoor,1790
inept,1791
inexpensive,1792
inferior,1793
info,1794
information,1795
infrared,1796
infuriating,1797
inherent,1798
initial,1799
initially,1800
innovative,1801
inoperable,1802
inordinate,1803
input,1804
insanely,1805
insert,1806
inserted,1807
inserting,1808
inside,1809
insisted,1810
insisting,1811
inspection,1812
inspired,1813
instability,1814
install,1815
installation,1816
installed,1817
installing,1818
installs,1819
instance,1820
instances,1821
instant,1822
instantly,1823
instead,1824
instruction,1825
instructions,1826
instruments,1827
instuctions,1828
insure,1829
integrated,1830
integrates,1831
intend,1832
intended,1833
intense,1834
intent,1835
interaction,1836
interacts,1837
interested,1838
interesting,1839
interface,1840
interfacing,1841
interference,1842
interlace,1843
internal,1844
international,1845
internationally,1846
internet,1847
interruption,1848
intimidated,1849
intrested,1850
introduce,1851
intuitive,1852
invest,1853
investigating,1854
investing,1855
investment,1856
involved,1857
involves,1858
iphoto,1859
ipod,1860
ipodders,1861
ipods,1862
ipodsdirtysecret,1863
ir,1864
irda,1865
iriver,1866
irivers,1867
irriation,1868
isacc,1869
isn,1870
isnt,1871
iso,1872
isolated,1873
issue,1874
issues,1875
italian,1876
item,1877
items,1878
ithave,1879
itunes,1880
ive,1881
jack,1882
jacks,1883
jan,1884
january,1885
java,1886
jazz,1887
jet,1888
jimi,1889
jme,1890
job,1891
joe,1892
jog,1893
jogger,1894
jogging,1895
join,1896
joined,1897
joke,1898
jones,1899
journey,1900
jpeg,1901
jpegs,1902
judgement,1903
juice,1904
jukebox,1905
jukeboxed,1906
jukeboxes,1907
jukeboxparsedonedigit,1908
july,1909
jumping,1910
junk,1911
junky,1912
just,1913
justify,1914
karma,1915
karoake,1916
kbps,1917
keen,1918
keepers,1919
keeping,1920
keeps,1921
kenny,1922
kept,1923
key,1924
keychain,1925
keying,1926
keypad,1927
keys,1928
kicks,1929
kid,1930
kids,1931
kill,1932
killer,1933
kind,1934
kingston,1935
kit,1936
kitchen,1937
kits,1938
knew,1939
knife,1940
knob,1941
knobs,1942
knock,1943
knocked,1944
knockoff,1945
know,1946
knowing,1947
knowledge,1948
known,1949
knows,1950
kodak,1951
kpbs,1952
kudos,1953
lab,1954
labled,1955
labor,1956
labs,1957
lack,1958
lacking,1959
lacks,1960
lag,1961
laid,1962
lame,1963
landed,1964
languages,1965
lap,1966
laptop,1967
large,1968
larger,1969
lasted,1970
lasting,1971
lastly,1972
lasts,1973
latch,1974
late,1975
later,1976
latest,1977
latitude,1978
launched,1979
laundry,1980
lawsuit,1981
layer,1982
layout,1983
lcd,1984
lead,1985
leading,1986
learn,1987
learned,1988
learning,1989
lease,1990
leather,1991
leave,1992
leaving,1993
lebovitz,1994
led,1995
left,1996
leg,1997
legit,1998
leica,1999
lemon,2000
len,2001
length,2002
lengthy,2003
lens,2004
lense,2005
lenses,2006
lesson,2007
let,2008
lets,2009
level,2010
levels,2011
lever,2012
lexar,2013
li,2014
library,2015
lie,2016
life,2017
lifted,2018
light,2019
lighter,2020
lighting,2021
lightingfast,2022
lightly,2023
lightweight,2024
like,2025
liked,2026
likely,2027
likes,2028
liking,2029
likings,2030
lil,2031
limit,2032
limitations,2033
limited,2034
limits,2035
line,2036
linked,2037
lip,2038
lips,2039
list,2040
listed,2041
listen,2042
listened,2043
listener,2044
listening,2045
listing,2046
listings,2047
lists,2048
lit,2049
literally,2050
literature,2051
lithium,2052
little,2053
live,2054
ll,2055
lmost,2056
load,2057
loaded,2058
loading,2059
loads,2060
local,2061
locally,2062
locate,2063
located,2064
locating,2065
location,2066
locations,2067
lock,2068
locked,2069
locking,2070
locks,2071
log,2072
logged,2073
logically,2074
lol,2075
lonely,2076
long,2077
longer,2078
longevity,2079
look,2080
looked,2081
looking,2082
looks,2083
loose,2084
los,2085
lose,2086
losing,2087
loss,2088
lost,2089
lot,2090
lots,2091
lotus,2092
loud,2093
lousy,2094
love,2095
loved,2096
lovers,2097
loves,2098
loving,2099
low,2100
lower,2101
lowest,2102
lparsedfourdigits,2103
lttle,2104
luck,2105
lucky,2106
lug,2107
lugging,2108
lumix,2109
lump,2110
luxury,2111
lying,2112
mac,2113
machine,2114
machinery,2115
machines,2116
macro,2117
mad,2118
magazine,2119
magazines,2120
mail,2121
mailing,2122
mails,2123
main,2124
mainly,2125
maintain,2126
maintains,2127
major,2128
majority,2129
make,2130
maker,2131
makes,2132
making,2133
man,2134
manage,2135
managed,2136
manager,2137
managing,2138
manipulate,2139
manner,2140
manual,2141
manually,2142
manufacturer,2143
manufacturing,2144
march,2145
marked,2146
market,2147
marketing,2148
markup,2149
martian,2150
marvel,2151
mass,2152
massive,2153
mastered,2154
mastering,2155
match,2156
material,2157
math,2158
matter,2159
matters,2160
mature,2161
max,2162
maximum,2163
maybe,2164
mayybe,2165
mb,2166
mbyte,2167
mean,2168
meaning,2169
means,2170
meant,2171
measly,2172
measure,2173
mechanically,2174
mechanics,2175
mechanism,2176
media,2177
mediaplay,2178
mediaplayer,2179
mediasource,2180
medical,2181
mediocre,2182
medium,2183
meet,2184
meets,2185
mega,2186
megabyte,2187
megapixel,2188
megapixels,2189
megatones,2190
memories,2191
memory,2192
men,2193
mention,2194
mentioned,2195
mentions,2196
menu,2197
menus,2198
merchant,2199
mess,2200
message,2201
messages,2202
messaging,2203
messed,2204
messing,2205
met,2206
metal,2207
metallic,2208
meter,2209
metering,2210
method,2211
metrics,2212
metz,2213
mhz,2214
microdrive,2215
microseconds,2216
microsoft,2217
mid,2218
middle,2219
midi,2220
mighty,2221
miles,2222
mind,2223
mini,2224
minilux,2225
minimal,2226
minimize,2227
minolta,2228
minor,2229
mins,2230
minus,2231
minute,2232
minutes,2233
minutest,2234
mirror,2235
misfortune,2236
miss,2237
missed,2238
missing,2239
mistake,2240
mix,2241
mixed,2242
mixing,2243
mls,2244
mm,2245
mms,2246
mo,2247
mobile,2248
mode,2249
model,2250
models,2251
modem,2252
moderate,2253
moderately,2254
modern,2255
modes,2256
modify,2257
module,2258
mom,2259
moment,2260
moments,2261
mon,2262
money,2263
monitor,2264
monster,2265
monstrosity,2266
month,2267
months,2268
moon,2269
moot,2270
morning,2271
mortar,2272
motivate,2273
motor,2274
motorola,2275
motorolla,2276
mountain,2277
mounted,2278
moveable,2279
movement,2280
movie,2281
movies,2282
moving,2283
mp,2284
mparsedonedigitu,2285
mpeg,2286
mpegparsedonedigit,2287
mpparsedonedigit,2288
mpparsedonedigits,2289
ms,2290
multi,2291
multidisk,2292
multiformat,2293
multilple,2294
multimedia,2295
multiple,2296
multitude,2297
murals,2298
murphy,2299
music,2300
musicmatch,2301
muvo,2302
myriad,2303
nah,2304
names,2305
napster,2306
narrowed,2307
nations,2308
natural,2309
naturally,2310
navigate,2311
navigating,2312
navigation,2313
navigational,2314
navigator,2315
navigion,2316
naysayers,2317
near,2318
nearly,2319
neat,2320
neccessary,2321
necessarily,2322
necessary,2323
neck,2324
need,2325
needed,2326
needless,2327
needs,2328
negative,2329
negatives,2330
nemo,2331
net,2332
network,2333
neutral,2334
new,2335
newer,2336
newly,2337
nice,2338
nicely,2339
nicer,2340
nicest,2341
nicities,2342
nifty,2343
night,2344
nightmare,2345
nikon,2346
nikons,2347
nirvana,2348
nits,2349
nod,2350
noise,2351
noiseless,2352
noises,2353
nokia,2354
nokiausa,2355
nomad,2356
nomadness,2357
non,2358
nonetheless,2359
nonexistant,2360
nonexistent,2361
nonflip,2362
nonresponsive,2363
normal,2364
normalization,2365
notch,2366
note,2367
notebook,2368
noted,2369
notes,2370
notice,2371
noticeable,2372
noticeably,2373
noticed,2374
noting,2375
notmad,2376
november,2377
novice,2378
nparsedtwodigits,2379
nparsedtwodigitss,2380
ntsc,2381
number,2382
numbering,2383
numbers,2384
numerous,2385
nuts,2386
nx,2387
objections,2388
objective,2389
objects,2390
obscured,2391
obscures,2392
observed,2393
obstruct,2394
obstructed,2395
obstructs,2396
obtain,2397
obtainable,2398
obtaining,2399
obvious,2400
obviously,2401
occaisions,2402
occasion,2403
occasional,2404
occasionally,2405
occasions,2406
occludes,2407
occur,2408
occurrences,2409
occurs,2410
odd,2411
oddities,2412
offensive,2413
offer,2414
offered,2415
offering,2416
offers,2417
office,2418
offsets,2419
oh,2420
ok,2421
okay,2422
old,2423
older,2424
olympus,2425
ones,2426
onfull,2427
online,2428
onscreen,2429
ooh,2430
open,2431
opened,2432
opening,2433
operate,2434
operates,2435
operating,2436
operation,2437
operator,2438
operators,2439
opinion,2440
opinions,2441
opposed,2442
oppressed,2443
opted,2444
optic,2445
optical,2446
optics,2447
option,2448
optional,2449
options,2450
orange,2451
orchestra,2452
order,2453
ordered,2454
ordering,2455
organization,2456
organizational,2457
organize,2458
organized,2459
organizer,2460
organizing,2461
oriented,2462
original,2463
originally,2464
orignal,2465
os,2466
ot,2467
otherdigicam,2468
ounces,2469
outdoor,2470
outdoors,2471
outfitters,2472
outlet,2473
outlook,2474
outnumber,2475
outperform,2476
outperforms,2477
output,2478
outputs,2479
outs,2480
outstanding,2481
outtakes,2482
outweighed,2483
outweighs,2484
overall,2485
overilluminated,2486
overloaded,2487
overlook,2488
overly,2489
overrides,2490
overseas,2491
overused,2492
overview,2493
overwriting,2494
owned,2495
owner,2496
owners,2497
owning,2498
oz,2499
pace,2500
pack,2501
package,2502
packaged,2503
packed,2504
packing,2505
packs,2506
page,2507
pages,2508
paid,2509
painless,2510
paintball,2511
pair,2512
pairs,2513
pal,2514
pales,2515
palm,2516
paltry,2517
panasonic,2518
panel,2519
panoramic,2520
pants,2521
paper,2522
paperweight,2523
par,2524
parallax,2525
parent,2526
parents,2527
parseddigits,2528
parseddigitsgb,2529
parseddigitsmb,2530
parseddigitsmp,2531
parseddigitsx,2532
parsedfivedigits,2533
parsedfourdigits,2534
parsedfourdigitsc,2535
parsedfourdigitss,2536
parsedfourdigitsx,2537
parsedfourdigitsxparseddigits,2538
parsedonedigit,2539
parsedonedigita,2540
parsedonedigitapexgo,2541
parsedonedigitft,2542
parsedonedigitgb,2543
parsedonedigitgz,2544
parsedonedigitk,2545
parsedonedigitlb,2546
parsedonedigitm,2547
parsedonedigitmb,2548
parsedonedigitmp,2549
parsedonedigitnd,2550
parsedonedigitrd,2551
parsedonedigits,2552
parsedonedigitst,2553
parsedonedigitth,2554
parsedonedigitx,2555
parsedonedigitxparseddigits,2556
parsedonedigitxparsedtwodigits,2557
parsedthreedigits,2558
parsedthreedigitsbps,2559
parsedthreedigitskb,2560
parsedthreedigitskbps,2561
parsedthreedigitskbs,2562
parsedthreedigitskps,2563
parsedthreedigitsmb,2564
parsedthreedigitsmeg,2565
parsedthreedigitsv,2566
parsedtwodigits,2567
parsedtwodigitscl,2568
parsedtwodigitsdb,2569
parsedtwodigitsg,2570
parsedtwodigitsgb,2571
parsedtwodigitshrs,2572
parsedtwodigitsin,2573
parsedtwodigitsk,2574
parsedtwodigitsmb,2575
parsedtwodigitsmm,2576
parsedtwodigitsst,2577
parsedtwodigitsth,2578
parsedtwodigitsusd,2579
parsedtwodigitsx,2580
partially,2581
particular,2582
particularly,2583
parties,2584
parts,2585
party,2586
pass,2587
past,2588
patches,2589
patience,2590
patient,2591
pause,2592
pay,2593
paying,2594
pb,2595
pc,2596
pda,2597
pdf,2598
peace,2599
peers,2600
peice,2601
penny,2602
pentium,2603
people,2604
percent,2605
perceptible,2606
perfect,2607
perfectly,2608
perform,2609
performance,2610
performer,2611
performs,2612
period,2613
peripheral,2614
permanently,2615
person,2616
persona,2617
personal,2618
personally,2619
personnel,2620
perspective,2621
pet,2622
phenomenon,2623
philips,2624
phone,2625
phonebook,2626
phones,2627
photo,2628
photograph,2629
photographer,2630
photographers,2631
photographic,2632
photographs,2633
photography,2634
photorealistic,2635
photos,2636
photoshop,2637
photosuite,2638
physical,2639
pic,2640
picasa,2641
pick,2642
picked,2643
picking,2644
pickup,2645
picky,2646
pics,2647
picture,2648
pictured,2649
pictures,2650
pie,2651
piece,2652
pieces,2653
pig,2654
piggy,2655
pillowside,2656
pim,2657
pin,2658
pinch,2659
pioneer,2660
pirates,2661
pitch,2662
pitched,2663
pitiful,2664
pix,2665
pixel,2666
pixels,2667
place,2668
placed,2669
places,2670
placing,2671
plain,2672
plan,2673
plane,2674
planes,2675
planning,2676
plans,2677
plastic,2678
plasticky,2679
plate,2680
play,2681
playback,2682
played,2683
player,2684
players,2685
playing,2686
playlist,2687
playlists,2688
plays,2689
pleaded,2690
pleased,2691
pleasing,2692
plenty,2693
plopping,2694
plug,2695
plugged,2696
plunge,2697
plus,2698
plusses,2699
pocket,2700
pockets,2701
pod,2702
point,2703
pointed,2704
points,2705
poly,2706
polymer,2707
polyphonic,2708
poor,2709
poorly,2710
pop,2711
poping,2712
popped,2713
popping,2714
pops,2715
popular,2716
populate,2717
port,2718
portability,2719
portable,2720
portraits,2721
pose,2722
position,2723
positive,2724
positives,2725
possibilities,2726
possible,2727
possibly,2728
post,2729
postage,2730
posted,2731
posters,2732
posts,2733
potential,2734
potentially,2735
power,2736
powered,2737
powerful,2738
powerhouse,2739
powering,2740
powershot,2741
pparsedonedigit,2742
practically,2743
practices,2744
praise,2745
pre,2746
predecessor,2747
predict,2748
prefer,2749
preference,2750
preferred,2751
premanent,2752
premium,2753
prepared,2754
present,2755
presents,2756
presets,2757
press,2758
pressed,2759
pressing,2760
pressure,2761
prettier,2762
pretty,2763
prev,2764
prevent,2765
preview,2766
previews,2767
previous,2768
previously,2769
price,2770
priced,2771
prices,2772
pricey,2773
pricing,2774
primarily,2775
primary,2776
prime,2777
print,2778
printed,2779
printer,2780
printing,2781
prints,2782
prior,2783
priority,2784
pro,2785
prob,2786
probability,2787
probably,2788
problem,2789
problems,2790
probram,2791
proceeded,2792
process,2793
processed,2794
processing,2795
produce,2796
produced,2797
produces,2798
product,2799
production,2800
products,2801
profession,2802
professional,2803
professionally,2804
profile,2805
progam,2806
program,2807
programming,2808
programs,2809
progress,2810
progressive,2811
promised,2812
promotion,2813
promps,2814
prompt,2815
prompting,2816
prone,2817
proof,2818
proper,2819
properly,2820
propietary,2821
pros,2822
protect,2823
protection,2824
protective,2825
prove,2826
proven,2827
proverbial,2828
provide,2829
provided,2830
provider,2831
provides,2832
providing,2833
pry,2834
ps,2835
pseudo,2836
psparsedonedigit,2837
psychidelic,2838
public,2839
pull,2840
pulled,2841
pulling,2842
pulls,2843
pup,2844
purchase,2845
purchased,2846
purchasing,2847
pure,2848
purple,2849
purpose,2850
purposes,2851
purse,2852
push,2853
pushed,2854
pushing,2855
puts,2856
puzzles,2857
quad,2858
qualities,2859
quality,2860
queried,2861
question,2862
questioned,2863
questions,2864
quibble,2865
quick,2866
quicker,2867
quickly,2868
quiet,2869
quieter,2870
quirks,2871
quirky,2872
quit,2873
quite,2874
qulaity,2875
quote,2876
ra,2877
rack,2878
rad,2879
radio,2880
rag,2881
raise,2882
ral,2883
ram,2884
ran,2885
random,2886
range,2887
rank,2888
rap,2889
rapid,2890
rapidly,2891
rare,2892
rarely,2893
rate,2894
rated,2895
rates,2896
rating,2897
ratio,2898
raw,2899
razor,2900
rca,2901
reach,2902
read,2903
readable,2904
reader,2905
readers,2906
readily,2907
reading,2908
ready,2909
real,2910
realation,2911
reality,2912
realize,2913
realized,2914
really,2915
reason,2916
reasonable,2917
reasonably,2918
reasons,2919
rebate,2920
rebates,2921
reboot,2922
rebooted,2923
reccomend,2924
receipt,2925
receive,2926
received,2927
receiver,2928
receivers,2929
receives,2930
receiving,2931
recent,2932
recently,2933
reception,2934
rechargable,2935
recharge,2936
rechargeable,2937
rechargebles,2938
recharged,2939
recharger,2940
recharges,2941
recharging,2942
recogmend,2943
recognition,2944
recognize,2945
recognized,2946
recognizes,2947
recognizing,2948
recomend,2949
recommend,2950
recommendation,2951
recommendations,2952
recommended,2953
recomment,2954
record,2955
recorder,2956
recording,2957
records,2958
recored,2959
recover,2960
recovery,2961
recreate,2962
recycling,2963
red,2964
redchairsoftware,2965
redeye,2966
redhat,2967
rediscovering,2968
redwood,2969
reeves,2970
referred,2971
reflected,2972
reflects,2973
refund,2974
refunded,2975
refunds,2976
refuse,2977
refused,2978
refuses,2979
regard,2980
regarding,2981
regards,2982
register,2983
registered,2984
regret,2985
regrets,2986
regretted,2987
regular,2988
reinstalled,2989
reiterate,2990
rejected,2991
relative,2992
relatively,2993
relax,2994
release,2995
released,2996
releases,2997
relevant,2998
reliability,2999
reliable,3000
reliance,3001
reloaded,3002
rely,3003
remain,3004
remainder,3005
remaining,3006
remember,3007
remixes,3008
remorse,3009
remote,3010
remotes,3011
removable,3012
remove,3013
removed,3014
removing,3015
rename,3016
renaming,3017
rendered,3018
rendering,3019
rent,3020
rental,3021
rented,3022
rep,3023
repaing,3024
repair,3025
repairs,3026
repeat,3027
repeated,3028
repeatedly,3029
replacable,3030
replace,3031
replaceable,3032
replaced,3033
replacement,3034
replacing,3035
repleace,3036
replies,3037
replug,3038
reply,3039
replying,3040
report,3041
reported,3042
reports,3043
repost,3044
representative,3045
represents,3046
reproduced,3047
reps,3048
reputation,3049
requesting,3050
require,3051
required,3052
requirements,3053
requires,3054
res,3055
rescue,3056
research,3057
researched,3058
resellers,3059
resent,3060
reservations,3061
reset,3062
resilience,3063
resol,3064
resolution,3065
resolutions,3066
resolve,3067
resolved,3068
resolves,3069
reson,3070
resort,3071
respect,3072
respond,3073
responded,3074
responding,3075
response,3076
responsible,3077
responsive,3078
rest,3079
resting,3080
restless,3081
result,3082
resulted,3083
resulting,3084
results,3085
retail,3086
retailers,3087
retraction,3088
return,3089
returned,3090
returning,3091
returns,3092
revamp,3093
reveals,3094
reveiws,3095
reversed,3096
review,3097
reviewed,3098
reviewer,3099
reviewers,3100
reviews,3101
revised,3102
revive,3103
rewind,3104
rice,3105
rich,3106
ricksters,3107
rid,3108
ridculously,3109
rides,3110
ridicule,3111
ridiculous,3112
right,3113
ring,3114
ringer,3115
ringing,3116
rings,3117
ringtones,3118
rio,3119
riovolt,3120
rip,3121
ripped,3122
ripper,3123
ripping,3124
rips,3125
rma,3126
road,3127
roaming,3128
robust,3129
rock,3130
rockbox,3131
rocks,3132
rolls,3133
rom,3134
roof,3135
room,3136
rotates,3137
rotation,3138
roughly,3139
round,3140
routinely,3141
rs,3142
rubber,3143
rugged,3144
ruggedly,3145
ruin,3146
ruined,3147
ruining,3148
ruins,3149
rule,3150
run,3151
runner,3152
running,3153
runs,3154
rw,3155
saavy,3156
sacrifice,3157
sad,3158
sadoun,3159
said,3160
sais,3161
sale,3162
sales,3163
salesperson,3164
sample,3165
samsung,3166
sandisk,3167
satellite,3168
satisfaction,3169
satisfactorily,3170
satisfactory,3171
satisfied,3172
saturated,3173
saturation,3174
saturday,3175
saturdays,3176
save,3177
saved,3178
saver,3179
saves,3180
saving,3181
savour,3182
saw,3183
say,3184
saying,3185
says,3186
sca,3187
scan,3188
scans,3189
scary,3190
scene,3191
scenes,3192
school,3193
science,3194
scored,3195
scouting,3196
scoying,3197
scratch,3198
scratched,3199
scratches,3200
screen,3201
screens,3202
screensaver,3203
screensavers,3204
screw,3205
screwed,3206
screwing,3207
scroll,3208
scrolling,3209
scrollwheel,3210
se,3211
seach,3212
seamless,3213
search,3214
searched,3215
searches,3216
searching,3217
season,3218
seated,3219
sec,3220
second,3221
seconds,3222
section,3223
secure,3224
seeing,3225
seek,3226
seeking,3227
seen,3228
seldom,3229
select,3230
selectable,3231
selected,3232
selecting,3233
selection,3234
selections,3235
selectively,3236
selects,3237
self,3238
sell,3239
seller,3240
selling,3241
sells,3242
semi,3243
send,3244
sending,3245
sends,3246
sennheiser,3247
sense,3248
sensibilities,3249
sensitive,3250
sensitivity,3251
sensor,3252
sent,3253
sep,3254
separate,3255
separately,3256
seperated,3257
seperately,3258
sepia,3259
series,3260
seriously,3261
seriousness,3262
serve,3263
server,3264
serves,3265
service,3266
services,3267
servicing,3268
set,3269
sets,3270
setting,3271
settings,3272
settle,3273
settled,3274
settling,3275
setup,3276
sexy,3277
shack,3278
shade,3279
shadow,3280
shadows,3281
shake,3282
shakes,3283
shaking,3284
shaky,3285
shame,3286
shape,3287
share,3288
sharing,3289
sharp,3290
sharpening,3291
sharper,3292
sharpness,3293
sheer,3294
sheesh,3295
shelf,3296
shelling,3297
shelves,3298
shifting,3299
shine,3300
shining,3301
shiny,3302
ship,3303
shipped,3304
shipping,3305
ships,3306
shirt,3307
shocked,3308
shoe,3309
shoot,3310
shooting,3311
shoots,3312
shop,3313
shopped,3314
short,3315
shortcoming,3316
shortcomings,3317
shortly,3318
shot,3319
shots,3320
shouldn,3321
showed,3322
showing,3323
shown,3324
shows,3325
shudder,3326
shuffle,3327
shuns,3328
shut,3329
shutter,3330
shutting,3331
shuttle,3332
sick,3333
sides,3334
siemens,3335
sigh,3336
sign,3337
signal,3338
signals,3339
signed,3340
significant,3341
silent,3342
silver,3343
sim,3344
similar,3345
similarily,3346
simm,3347
simple,3348
simpler,3349
simplest,3350
simpletech,3351
simply,3352
sinc,3353
single,3354
sister,3355
sit,3356
site,3357
sites,3358
sitting,3359
situation,3360
situations,3361
size,3362
sized,3363
sizing,3364
skill,3365
skills,3366
skimped,3367
skip,3368
skipping,3369
skips,3370
slave,3371
slayer,3372
sleek,3373
slick,3374
slideshows,3375
sliding,3376
slightest,3377
slightly,3378
sligtly,3379
slim,3380
slip,3381
slots,3382
slow,3383
slower,3384
slowing,3385
slowly,3386
slparsedtwodigits,3387
slr,3388
slrs,3389
small,3390
smaller,3391
smallest,3392
smart,3393
smell,3394
smooth,3395
smoothly,3396
snap,3397
snapped,3398
snapping,3399
sniffer,3400
snooze,3401
snow,3402
snug,3403
snuggly,3404
software,3405
sold,3406
soldiers,3407
solely,3408
solid,3409
solidly,3410
solution,3411
solve,3412
solved,3413
somewhat,3414
song,3415
songs,3416
sony,3417
soom,3418
soon,3419
sooner,3420
sooooo,3421
sophisticated,3422
sorry,3423
sort,3424
sorta,3425
sorted,3426
sorting,3427
sorts,3428
sound,3429
soundcard,3430
sounded,3431
sounding,3432
sounds,3433
source,3434
sources,3435
south,3436
sp,3437
space,3438
spaced,3439
span,3440
sparklers,3441
sparsedthreedigits,3442
sparsedtwodigits,3443
speaker,3444
speakerphone,3445
speakers,3446
speakphone,3447
special,3448
specific,3449
specifically,3450
specified,3451
specify,3452
specs,3453
spectacular,3454
speculation,3455
speed,3456
speeding,3457
speedlite,3458
speeds,3459
spend,3460
spending,3461
spent,3462
spin,3463
spins,3464
splitter,3465
splurge,3466
spoke,3467
sporadic,3468
sports,3469
spot,3470
spots,3471
spotted,3472
spring,3473
springsteen,3474
sprint,3475
squarer,3476
squashed,3477
squeeze,3478
srs,3479
stability,3480
stack,3481
stacks,3482
stage,3483
staggering,3484
stainless,3485
stains,3486
stamp,3487
stand,3488
standard,3489
standards,3490
standby,3491
standing,3492
stands,3493
star,3494
stare,3495
stars,3496
start,3497
started,3498
starter,3499
starting,3500
starts,3501
state,3502
states,3503
static,3504
stations,3505
stats,3506
stay,3507
stayed,3508
staying,3509
steadily,3510
steady,3511
steel,3512
steep,3513
stem,3514
stems,3515
step,3516
steps,3517
stereo,3518
stevesdigicams,3519
stick,3520
sticks,3521
sticky,3522
stil,3523
stinks,3524
stitch,3525
stitching,3526
stn,3527
stock,3528
stolen,3529
stone,3530
stop,3531
stopaction,3532
stoppage,3533
stopped,3534
stopping,3535
stoppped,3536
stopwatch,3537
storage,3538
store,3539
stored,3540
stores,3541
story,3542
straight,3543
strange,3544
strap,3545
stravinsky,3546
stream,3547
street,3548
strength,3549
strengths,3550
stress,3551
strictly,3552
strike,3553
strikes,3554
strong,3555
strongly,3556
structurally,3557
structure,3558
structured,3559
stuck,3560
stucked,3561
stucks,3562
stucture,3563
stuff,3564
stuffff,3565
stumbling,3566
stunned,3567
stunning,3568
stupid,3569
sturdy,3570
style,3571
stylish,3572
sub,3573
subcategory,3574
subfolders,3575
subject,3576
subjects,3577
subnotebook,3578
subs,3579
subscriber,3580
subsequent,3581
subsidizes,3582
substandard,3583
substitute,3584
suburbs,3585
subway,3586
success,3587
successfully,3588
succession,3589
suck,3590
sucka,3591
sucks,3592
suffers,3593
suggest,3594
suggested,3595
suggesting,3596
suggestion,3597
suing,3598
suit,3599
suite,3600
summarize,3601
summary,3602
summation,3603
summer,3604
sun,3605
sunset,3606
super,3607
superb,3608
superior,3609
supplied,3610
supplier,3611
supply,3612
support,3613
supported,3614
supporting,3615
supports,3616
supposed,3617
suprisingly,3618
sure,3619
surely,3620
surf,3621
surface,3622
surfing,3623
suroundings,3624
surpassed,3625
surpasses,3626
surprise,3627
surprised,3628
surprising,3629
surprisingly,3630
surreal,3631
survey,3632
survive,3633
suspect,3634
svcd,3635
svcds,3636
swap,3637
swear,3638
sweet,3639
swiss,3640
switch,3641
switched,3642
switches,3643
switching,3644
symbols,3645
symphony,3646
sync,3647
synchronization,3648
synopsis,3649
tab,3650
tabbed,3651
tad,3652
tag,3653
tagged,3654
tagging,3655
tags,3656
taken,3657
takes,3658
taking,3659
tale,3660
talk,3661
talked,3662
talking,3663
talks,3664
tapes,3665
target,3666
task,3667
tax,3668
teach,3669
teamed,3670
teases,3671
tech,3672
techie,3673
technical,3674
technician,3675
technologies,3676
technology,3677
tedious,3678
teen,3679
teeny,3680
teh,3681
telephone,3682
telephoto,3683
television,3684
tell,3685
telling,3686
telll,3687
tells,3688
temporary,3689
tend,3690
terms,3691
terrible,3692
terribly,3693
terrific,3694
test,3695
tested,3696
testing,3697
text,3698
thank,3699
thankfully,3700
thanks,3701
thats,3702
theater,3703
theirs,3704
theres,3705
theyve,3706
thier,3707
thing,3708
things,3709
thingy,3710
think,3711
thinking,3712
thinks,3713
tho,3714
thought,3715
thousands,3716
thrash,3717
thrilled,3718
throw,3719
thumb,3720
thumbdrive,3721
thumbs,3722
thusfar,3723
tid,3724
tiff,3725
tightly,3726
tigt,3727
till,3728
tilted,3729
time,3730
timely,3731
times,3732
tinker,3733
tiny,3734
tip,3735
tips,3736
tire,3737
title,3738
titles,3739
tmobile,3740
tmobiles,3741
today,3742
toggle,3743
told,3744
tom,3745
tomorrow,3746
ton,3747
tonal,3748
tones,3749
tons,3750
took,3751
tool,3752
topnotch,3753
toshiba,3754
total,3755
totally,3756
touch,3757
touched,3758
touchpad,3759
touchups,3760
tough,3761
toy,3762
tparsedthreedigits,3763
tparsedthreedigitsi,3764
track,3765
tracking,3766
tracks,3767
trade,3768
tradeoff,3769
tragic,3770
train,3771
transer,3772
transfer,3773
transfered,3774
transfering,3775
transferred,3776
transferring,3777
transfers,3778
transmitter,3779
transmitters,3780
transport,3781
trash,3782
travel,3783
traveling,3784
travelled,3785
travelling,3786
travesty,3787
tray,3788
tremendous,3789
trendy,3790
treo,3791
tri,3792
trial,3793
tricky,3794
tried,3795
tries,3796
trigger,3797
trilliums,3798
trip,3799
tripod,3800
trips,3801
trouble,3802
troubleshooting,3803
truck,3804
true,3805
truly,3806
trumps,3807
trust,3808
trusted,3809
try,3810
trying,3811
tune,3812
tunecast,3813
tuner,3814
tunes,3815
turn,3816
turnaround,3817
turned,3818
turning,3819
turns,3820
tv,3821
tvs,3822
tw,3823
tweaking,3824
tweakings,3825
twice,3826
twist,3827
txt,3828
type,3829
types,3830
typically,3831
ugly,3832
ui,3833
ultimate,3834
ultimately,3835
ultra,3836
umm,3837
unable,3838
unacceptably,3839
unaccustomed,3840
unavailable,3841
unbearable,3842
unbeatable,3843
unbelievably,3844
uncertain,3845
unchangeable,3846
uncluttered,3847
uncomfortable,3848
uncritical,3849
undeliverable,3850
underestimate,3851
underside,3852
understand,3853
understood,3854
undone,3855
undoubtedly,3856
uneasy,3857
unequivocably,3858
uneven,3859
unfilled,3860
unfortunately,3861
unforutnately,3862
unhappy,3863
unhelpful,3864
uninstalled,3865
unique,3866
unit,3867
units,3868
universal,3869
universally,3870
unknown,3871
unless,3872
unlike,3873
unlimited,3874
unlisted,3875
unlock,3876
unlocked,3877
unlucky,3878
unmatched,3879
unnecessary,3880
unplayable,3881
unpleasant,3882
unplugging,3883
unpredictable,3884
unproven,3885
unreservedly,3886
unsatisfactory,3887
unspecified,3888
unsteady,3889
unusable,3890
unwrapped,3891
update,3892
updated,3893
updates,3894
updating,3895
upgrade,3896
upgraded,3897
upgrading,3898
upload,3899
uploaded,3900
uploading,3901
uploads,3902
ups,3903
upstanding,3904
upto,3905
ur,3906
urban,3907
urgent,3908
url,3909
usa,3910
usability,3911
usage,3912
usb,3913
use,3914
useable,3915
used,3916
useful,3917
useless,3918
user,3919
users,3920
uses,3921
using,3922
usual,3923
usually,3924
utilized,3925
utilizes,3926
utterly,3927
vacation,3928
vacationing,3929
valid,3930
valuable,3931
value,3932
vanished,3933
variable,3934
variables,3935
variation,3936
variations,3937
variety,3938
various,3939
vastly,3940
vbr,3941
vcd,3942
vcds,3943
vcr,3944
ve,3945
vectis,3946
vegas,3947
vendor,3948
verdict,3949
verify,3950
verizon,3951
versatile,3952
version,3953
versions,3954
versus,3955
veteran,3956
veterans,3957
viable,3958
vibrant,3959
vibrate,3960
vibration,3961
video,3962
videos,3963
view,3964
viewable,3965
viewfinder,3966
viewing,3967
views,3968
viking,3969
virtually,3970
visa,3971
visable,3972
visceral,3973
visibility,3974
visible,3975
visiting,3976
visual,3977
visuals,3978
vivid,3979
vob,3980
voice,3981
voids,3982
volkswagen,3983
volume,3984
voucher,3985
vs,3986
wait,3987
waited,3988
waiting,3989
wake,3990
waking,3991
walk,3992
walkman,3993
wall,3994
wallet,3995
wallpaper,3996
wallpapers,3997
walls,3998
want,3999
wanted,4000
wanting,4001
wants,4002
wap,4003
wardrobe,4004
warned,4005
warning,4006
warrant,4007
warranty,4008
warrenty,4009
wary,4010
wash,4011
washed,4012
washing,4013
wasn,4014
wasnt,4015
waste,4016
wasted,4017
wat,4018
watch,4019
watching,4020
wave,4021
way,4022
ways,4023
wazoo,4024
wc,4025
weak,4026
weaknesses,4027
wears,4028
weather,4029
web,4030
website,4031
websites,4032
week,4033
weekdays,4034
weekend,4035
weekm,4036
weeks,4037
weigh,4038
weighs,4039
weight,4040
weighty,4041
weird,4042
weirdest,4043
went,4044
weren,4045
whatsoever,4046
whe,4047
wheel,4048
whichever,4049
whihc,4050
whirl,4051
white,4052
whoa,4053
wicked,4054
wide,4055
widely,4056
wife,4057
wildlife,4058
wildly,4059
willing,4060
willingness,4061
win,4062
winamp,4063
wind,4064
window,4065
windows,4066
winner,4067
winning,4068
winparsedtwodigits,4069
winter,4070
winxp,4071
wiped,4072
wireless,4073
wires,4074
wise,4075
wish,4076
wma,4077
wolla,4078
women,4079
won,4080
wonder,4081
wonderful,4082
wondering,4083
wont,4084
word,4085
words,4086
work,4087
workaround,4088
worked,4089
workin,4090
working,4091
works,4092
workstation,4093
world,4094
worldphone,4095
worried,4096
worse,4097
worst,4098
worth,4099
worthwhile,4100
worthwile,4101
wouldn,4102
wouldnt,4103
wound,4104
wow,4105
wowable,4106
wrist,4107
write,4108
writing,4109
written,4110
wrong,4111
wrote,4112
wwhhhrrr,4113
www,4114
xacto,4115
xp,4116
xparsedthreedigits,4117
xparsedtwodigits,4118
xtra,4119
ya,4120
yeah,4121
year,4122
years,4123
yes,4124
yield,4125
yielded,4126
yo,4127
youd,4128
youre,4129
yoursound,4130
youve,4131
yup,4132
zeiss,4133
zen,4134
zenith,4135
zennx,4136
zens,4137
zero,4138
zillion,4139
zip,4140
zone,4141
zones,4142
zoom,4143
zoomed,4144
zooming,4145
zooms,4146
zx,4147
