abandoned,0
ability,1
able,2
about,3
above,4
abroad,5
abrogated,6
absolute,7
absolutely,8
absurd,9
abundance,10
abuse,11
abuses,12
accept,13
acceptable,14
acceptance,15
accepted,16
access,17
accident,18
accidentally,19
accidents,20
acclimatized,21
accomplishment,22
according,23
account,24
accountable,25
accrued,26
accumulation,27
accuracy,28
accurate,29
accusations,30
accusing,31
accutane,32
achieving,33
acid,34
acidparsedonedigit,35
acknowledges,36
acorn,37
across,38
act,39
acting,40
action,41
actions,42
active,43
activist,44
activities,45
activity,46
actor,47
acts,48
actual,49
actuality,50
actuall,51
actually,52
ad,53
adapt,54
adapted,55
add,56
adding,57
addition,58
additional,59
additionally,60
address,61
addressed,62
addresses,63
adequately,64
adhd,65
adjustable,66
adjustments,67
admin,68
administered,69
administration,70
administrative,71
admires,72
admission,73
admitted,74
adobe,75
adopt,76
ads,77
advanced,78
advancing,79
advantage,80
advertising,81
aeroflop,82
aeroflot,83
affairs,84
affected,85
afford,86
affordable,87
afghanistan,88
afp,89
afraid,90
africa,91
after,92
afterlife,93
ag,94
again,95
against,96
age,97
aged,98
agencies,99
agency,100
agenda,101
agendas,102
agents,103
ages,104
aggressive,105
agm,106
ago,107
agree,108
agreed,109
agreeing,110
agriculture,111
ahaha,112
ahh,113
ahhhhhhhhhhhhhhhhhhhhhhhhhhhhhhhhhhhhhhhhhhhhhhhhhhhhh,114
aid,115
aids,116
aim,117
air,118
airplane,119
aka,120
al,121
alaska,122
alcohol,123
ales,124
alex,125
alexx,126
alittle,127
all,128
alliance,129
allies,130
allow,131
allowed,132
allowing,133
allows,134
almost,135
alone,136
along,137
alot,138
already,139
also,140
alternate,141
alternative,142
although,143
always,144
am,145
amazes,146
amazing,147
amazingly,148
ambulances,149
amendment,150
america,151
american,152
americans,153
ammunition,154
amount,155
amp,156
amtrak,157
an,158
ana,159
analogies,160
analysis,161
analyst,162
analyzed,163
ancient,164
and,165
andrew,166
android,167
angeles,168
anger,169
angle,170
animal,171
animals,172
ankle,173
annoyances,174
annoying,175
annul,176
anon,177
another,178
answer,179
answering,180
anti,181
antiquated,182
antiwar,183
any,184
anymore,185
anyone,186
anything,187
anytime,188
anyway,189
anywhere,190
aparsedtwodigits,191
apart,192
aphrodite,193
apocalypse,194
apologize,195
apology,196
apostrophe,197
app,198
appalled,199
apparently,200
appeal,201
appear,202
appearance,203
appears,204
applauded,205
apple,206
applications,207
applied,208
apply,209
appreciate,210
approach,211
approaching,212
appropriately,213
approval,214
apps,215
april,216
aprobation,217
apt,218
arabia,219
arabians,220
archie,221
architechts,222
are,223
area,224
aren,225
argue,226
arguing,227
argument,228
arise,229
arlington,230
arms,231
around,232
array,233
arrested,234
arrestee,235
arresting,236
arrow,237
article,238
articles,239
artificial,240
artificially,241
as,242
asap,243
ascii,244
ashamed,245
ashcroft,246
aside,247
ask,248
asks,249
asm,250
aspen,251
ass,252
assaulting,253
assembly,254
assertion,255
assessments,256
assets,257
associate,258
associated,259
association,260
assume,261
assuming,262
asterisked,263
asthma,264
astley,265
at,266
athlete,267
athletic,268
atm,269
atmospheric,270
atom,271
atomic,272
attached,273
attack,274
attacked,275
attacking,276
attacks,277
attatched,278
attempt,279
attending,280
attention,281
attic,282
aud,283
audience,284
aus,285
australia,286
australian,287
authentication,288
author,289
authorities,290
authority,291
authorized,292
authorizes,293
auto,294
automatically,295
automation,296
av,297
available,298
average,299
aviator,300
avoid,301
avoidance,302
avoided,303
avowed,304
award,305
awards,306
aware,307
away,308
awesome,309
awesoome,310
awwwwww,311
ayway,312
az,313
babe,314
baby,315
back,316
background,317
backs,318
backwards,319
bacon,320
bacteria,321
bad,322
bag,323
bags,324
bail,325
bailout,326
bailouts,327
baiting,328
bale,329
balk,330
ball,331
balloon,332
balls,333
ballz,334
ban,335
bands,336
bandwagon,337
bandwidth,338
bank,339
bankers,340
banking,341
banks,342
banned,343
banner,344
banning,345
bans,346
bar,347
barely,348
bargain,349
baron,350
barracks,351
barrel,352
base,353
baseball,354
based,355
basement,356
basic,357
basically,358
basics,359
basis,360
bastard,361
bastardizing,362
batshit,363
batteries,364
battery,365
battle,366
battlestar,367
bbc,368
be,369
beach,370
beam,371
bear,372
beat,373
beatings,374
beautiful,375
became,376
because,377
become,378
becomes,379
bed,380
beds,381
been,382
beenthe,383
beer,384
beers,385
beethoven,386
before,387
beg,388
begin,389
behaves,390
behavior,391
behind,392
beholden,393
being,394
beings,395
belief,396
believability,397
believe,398
believes,399
bell,400
belly,401
below,402
belt,403
belts,404
bench,405
benefits,406
benifits,407
benign,408
benjamin,409
bent,410
benz,411
besides,412
best,413
bested,414
bestiality,415
bet,416
beta,417
betcha,418
bethesda,419
better,420
between,421
beyond,422
bible,423
biden,424
biff,425
big,426
bigger,427
biggest,428
bill,429
billion,430
billions,431
bills,432
binary,433
bird,434
birds,435
bisexual,436
bit,437
bitch,438
bitching,439
bite,440
bittorent,441
bj,442
black,443
blackface,444
blacklabelsar,445
blame,446
blamed,447
blamefor,448
blames,449
blanks,450
blast,451
blemish,452
blessed,453
blew,454
blind,455
blinded,456
blindly,457
bliss,458
bll,459
blog,460
blogpost,461
blogs,462
blogspam,463
bloom,464
blow,465
blowhards,466
blue,467
bluemotion,468
board,469
boat,470
boating,471
boatload,472
bobby,473
bodies,474
body,475
bogus,476
bollocks,477
bollywood,478
bomb,479
bombing,480
bombula,481
boner,482
bong,483
bonus,484
book,485
bookmarked,486
border,487
bored,488
borg,489
born,490
borne,491
boss,492
both,493
bother,494
bothered,495
bottle,496
bought,497
bounds,498
bovine,499
bowtie,500
box,501
boy,502
bparsedtwodigitsc,503
bparsedtwodigitsm,504
brad,505
brain,506
brains,507
brake,508
brandon,509
brave,510
braves,511
bravo,512
break,513
breaking,514
breakthroughs,515
breeding,516
brewers,517
bribe,518
brick,519
briefcase,520
briefly,521
bright,522
bring,523
bringing,524
broke,525
broken,526
bros,527
brother,528
brothers,529
browser,530
browsers,531
brute,532
bs,533
bubble,534
bubbles,535
buchanan,536
bucks,537
budget,538
buggers,539
build,540
builder,541
builders,542
building,543
buildings,544
built,545
bull,546
bullets,547
bullshit,548
bunch,549
bundle,550
bunker,551
bureau,552
buried,553
buries,554
burn,555
burning,556
burried,557
burrito,558
burrying,559
bury,560
bush,561
business,562
businesses,563
businessman,564
bust,565
busted,566
but,567
butt,568
butts,569
buy,570
buyers,571
buying,572
by,573
bypass,574
ca,575
cabinet,576
cafeteria,577
cage,578
cages,579
cahoots,580
cali,581
calibrated,582
california,583
call,584
called,585
calls,586
cambodia,587
camcorder,588
came,589
camel,590
camera,591
caminiti,592
camps,593
can,594
canada,595
canals,596
cancel,597
cancer,598
candles,599
cannabis,600
cannot,601
canseco,602
cant,603
cap,604
capable,605
capitalism,606
capitalization,607
caps,608
captain,609
capture,610
captured,611
car,612
carbon,613
carcinogens,614
card,615
care,616
careful,617
cares,618
carmen,619
carnival,620
carry,621
carrying,622
cars,623
cartridge,624
case,625
cases,626
cash,627
cashparsedonedigitgold,628
casual,629
cat,630
catalog,631
catastrophic,632
catch,633
catchup,634
catechism,635
categorically,636
category,637
catering,638
catholic,639
cats,640
caught,641
cause,642
caused,643
causes,644
causing,645
ce,646
celebrity,647
cell,648
cellphones,649
cemetery,650
census,651
cent,652
center,653
centers,654
centigrade,655
centrist,656
cents,657
century,658
ceo,659
certain,660
certainly,661
certainty,662
certifiable,663
certified,664
chad,665
chain,666
chair,667
chairman,668
challenging,669
champion,670
chance,671
chances,672
change,673
changed,674
changes,675
changing,676
channels,677
character,678
characteristic,679
charge,680
charged,681
charger,682
chargers,683
charges,684
chastise,685
cheap,686
cheaper,687
cheating,688
check,689
checker,690
cheer,691
cheers,692
chemical,693
cheney,694
chernobyl,695
cherry,696
chew,697
chicago,698
chickens,699
chief,700
child,701
children,702
chimps,703
china,704
chinese,705
choice,706
choose,707
christ,708
christian,709
christianity,710
christians,711
christmas,712
chuck,713
church,714
churches,715
cia,716
circumstances,717
citations,718
cite,719
cites,720
cities,721
citizen,722
citizens,723
city,724
civil,725
civilians,726
claim,727
claimed,728
claiming,729
claptrap,730
class,731
classes,732
classic,733
classify,734
claus,735
clause,736
clean,737
cleaned,738
clear,739
clearly,740
clever,741
click,742
clicks,743
client,744
clients,745
climate,746
climber,747
clinical,748
clinton,749
close,750
closed,751
closing,752
clothes,753
cloths,754
cloud,755
clown,756
clownhall,757
clowns,758
club,759
clutters,760
co,761
coal,762
coalition,763
cocaine,764
cockcroft,765
cockmeats,766
cocks,767
cocksuckers,768
code,769
codes,770
cofee,771
coffee,772
coherent,773
coincidence,774
coke,775
cokehead,776
colar,777
cold,778
collapse,779
collect,780
collection,781
college,782
colleges,783
com,784
combinations,785
comcast,786
come,787
comedy,788
comes,789
comfort,790
comforting,791
comic,792
coming,793
comment,794
commentary,795
commented,796
commenting,797
comments,798
commercial,799
commercials,800
commit,801
committed,802
commodity,803
common,804
communicate,805
communist,806
communists,807
communities,808
community,809
companies,810
company,811
comparable,812
compared,813
comparison,814
compass,815
compassion,816
compensate,817
compete,818
competent,819
competitive,820
compile,821
compiles,822
complaining,823
complains,824
complaints,825
complete,826
completely,827
compliance,828
complicating,829
composed,830
composite,831
comprehension,832
comprised,833
compromise,834
computer,835
concept,836
concerned,837
concerns,838
conclusion,839
conclusive,840
condemning,841
condition,842
conditions,843
conduct,844
conducting,845
confidence,846
configuration,847
confirmed,848
confirms,849
confiscated,850
conflict,851
confused,852
confusing,853
congratulations,854
congregate,855
congregation,856
congress,857
conjuring,858
connected,859
connections,860
connects,861
consensus,862
consequences,863
conservative,864
conservatives,865
consider,866
considerable,867
considered,868
considering,869
considers,870
consistently,871
console,872
conspiracy,873
constant,874
constituents,875
constitutes,876
constitution,877
constitutional,878
constitutionality,879
construct,880
constructing,881
construction,882
consumer,883
consumption,884
contact,885
contained,886
containing,887
content,888
contests,889
context,890
continue,891
continues,892
contracts,893
contradictory,894
contrary,895
contribute,896
contributes,897
contribution,898
control,899
controlled,900
controller,901
controlling,902
controversial,903
controversy,904
conveniently,905
convert,906
converted,907
convicted,908
conviction,909
convictions,910
cool,911
cooler,912
coordination,913
cop,914
coparsedonedigit,915
copies,916
cops,917
copulating,918
copy,919
copying,920
copyright,921
copyrighted,922
corel,923
cornerstone,924
corollary,925
corporate,926
corporates,927
corporations,928
correct,929
corrected,930
correctly,931
corrupt,932
corruption,933
corwin,934
cost,935
costs,936
costume,937
couch,938
could,939
couldn,940
counsel,941
counterparts,942
countries,943
country,944
counts,945
county,946
couple,947
coupling,948
coupon,949
course,950
courses,951
court,952
courtesy,953
cover,954
coverage,955
covers,956
craft,957
crap,958
crash,959
crashing,960
crazy,961
cream,962
create,963
created,964
creating,965
creative,966
creativity,967
creatures,968
credibility,969
credit,970
creditor,971
credits,972
creed,973
crime,974
crimes,975
criminal,976
criminals,977
criticize,978
critics,979
crook,980
cross,981
crowd,982
crucifixion,983
cruelty,984
crying,985
cuba,986
cue,987
culprits,988
cult,989
culture,990
cunts,991
cup,992
curb,993
cure,994
currency,995
current,996
currently,997
curry,998
curse,999
curtain,1000
curtis,1001
curve,1002
custom,1003
cut,1004
cute,1005
cuts,1006
cycle,1007
cycles,1008
cyprots,1009
daft,1010
dagger,1011
daily,1012
dal,1013
damage,1014
damn,1015
damned,1016
dance,1017
dangerous,1018
darcine,1019
dark,1020
darkshroud,1021
darth,1022
darwinism,1023
data,1024
datum,1025
david,1026
day,1027
days,1028
dc,1029
dea,1030
dead,1031
deadpan,1032
deaf,1033
deal,1034
dealers,1035
deals,1036
dear,1037
death,1038
deaths,1039
debate,1040
debated,1041
debt,1042
december,1043
decent,1044
decided,1045
decimate,1046
decision,1047
decisions,1048
declare,1049
declared,1050
declined,1051
decrease,1052
deduct,1053
deep,1054
deeper,1055
default,1056
defective,1057
defense,1058
deficit,1059
deficits,1060
defined,1061
definitely,1062
deformities,1063
defunct,1064
degree,1065
degrees,1066
delete,1067
deliberately,1068
deliver,1069
dell,1070
dem,1071
demand,1072
demanding,1073
demands,1074
demint,1075
democracy,1076
democrat,1077
democratic,1078
democrats,1079
demoed,1080
dems,1081
denied,1082
denier,1083
denis,1084
dep,1085
department,1086
departments,1087
depends,1088
deployment,1089
depravity,1090
depreciation,1091
depressed,1092
depression,1093
deprogrammed,1094
described,1095
deserves,1096
deserving,1097
design,1098
desire,1099
desires,1100
desks,1101
desperate,1102
despite,1103
destroy,1104
destroyed,1105
destruction,1106
detail,1107
detective,1108
determined,1109
detour,1110
detroit,1111
devalue,1112
developer,1113
developing,1114
development,1115
device,1116
devices,1117
devious,1118
devoted,1119
dhs,1120
diagnosed,1121
dialing,1122
dick,1123
dickhead,1124
dickwad,1125
did,1126
didn,1127
didnt,1128
die,1129
difference,1130
different,1131
difficult,1132
difficulties,1133
dig,1134
digg,1135
digger,1136
diggers,1137
digging,1138
diggs,1139
digital,1140
dimona,1141
dinosaur,1142
direction,1143
directly,1144
directors,1145
directory,1146
dirty,1147
disability,1148
disabled,1149
disagree,1150
disappear,1151
disappeared,1152
disappointed,1153
discipline,1154
disclosing,1155
discourse,1156
discovered,1157
discrimination,1158
discriminatory,1159
discuss,1160
discussed,1161
discussion,1162
disease,1163
diseases,1164
disgusting,1165
disordered,1166
disorders,1167
disputes,1168
disqualification,1169
dissident,1170
distracted,1171
distribute,1172
distributed,1173
distributes,1174
distribution,1175
disturbing,1176
diverging,1177
diversity,1178
divinity,1179
division,1180
dns,1181
do,1182
doable,1183
doccasionally,1184
doccers,1185
doctor,1186
doctors,1187
doctrine,1188
document,1189
documentaries,1190
documentary,1191
documented,1192
does,1193
doesn,1194
dog,1195
dogs,1196
doing,1197
doings,1198
dollar,1199
dollars,1200
doma,1201
domain,1202
domains,1203
domestic,1204
domesticated,1205
don,1206
done,1207
dont,1208
doom,1209
door,1210
doors,1211
doosh,1212
dope,1213
doses,1214
double,1215
doubt,1216
douche,1217
douchebag,1218
dough,1219
down,1220
downey,1221
download,1222
downloading,1223
downloads,1224
dozen,1225
dp,1226
dr,1227
dragon,1228
draino,1229
drastic,1230
draw,1231
drawer,1232
dream,1233
dress,1234
drink,1235
drinker,1236
drinking,1237
drinks,1238
drive,1239
drivel,1240
driver,1241
drivers,1242
drives,1243
driving,1244
drm,1245
drool,1246
drop,1247
dropped,1248
dropping,1249
drug,1250
drugs,1251
drumroll,1252
drunk,1253
dry,1254
dtv,1255
duct,1256
dude,1257
due,1258
dugg,1259
dugout,1260
dumb,1261
dumber,1262
dumbs,1263
dump,1264
dunno,1265
duplicate,1266
duplicates,1267
during,1268
dust,1269
duty,1270
dvd,1271
dwindling,1272
dying,1273
each,1274
early,1275
earmark,1276
earned,1277
earnings,1278
earth,1279
ease,1280
easier,1281
easily,1282
east,1283
easy,1284
eat,1285
ebonics,1286
ebook,1287
echelons,1288
economic,1289
economics,1290
economists,1291
economy,1292
ecstasy,1293
ed,1294
edit,1295
editor,1296
editorial,1297
edmonds,1298
educated,1299
education,1300
eeepc,1301
effect,1302
effective,1303
effects,1304
efficiency,1305
effort,1306
efforts,1307
eg,1308
egypt,1309
ehhhhh,1310
eight,1311
either,1312
elderly,1313
elected,1314
election,1315
electric,1316
electrical,1317
elementary,1318
eliminating,1319
ellis,1320
else,1321
em,1322
email,1323
embargo,1324
embarrass,1325
embarrassment,1326
embarrassments,1327
emergency,1328
eminem,1329
emissions,1330
emmanuel,1331
emotional,1332
employed,1333
employees,1334
employers,1335
employment,1336
encarta,1337
encounter,1338
encourage,1339
encourages,1340
end,1341
ending,1342
endorsed,1343
ends,1344
energy,1345
enforced,1346
enforcement,1347
engaged,1348
engine,1349
engineering,1350
engineeringaficionado,1351
england,1352
english,1353
enjoy,1354
enjoyed,1355
enough,1356
enron,1357
ensure,1358
enthusiasm,1359
entire,1360
entirely,1361
entirety,1362
entrenched,1363
entrpeneur,1364
enviro,1365
environment,1366
ep,1367
epic,1368
episode,1369
equal,1370
equally,1371
equals,1372
equation,1373
equipment,1374
equivalent,1375
er,1376
erase,1377
ericsccparsedonedigitdemocrats,1378
erode,1379
errands,1380
errors,1381
escape,1382
especially,1383
essence,1384
established,1385
estimate,1386
et,1387
etc,1388
ethanol,1389
ethics,1390
ethnic,1391
etiquette,1392
europeans,1393
evaporate,1394
evasion,1395
even,1396
event,1397
events,1398
eventually,1399
ever,1400
every,1401
everybody,1402
everyone,1403
everything,1404
evidence,1405
evidently,1406
evil,1407
evolution,1408
ex,1409
exact,1410
exactly,1411
examined,1412
example,1413
examples,1414
excellent,1415
except,1416
excesses,1417
excessive,1418
excuse,1419
execs,1420
executable,1421
execute,1422
executive,1423
executives,1424
exercise,1425
exhausted,1426
exhibitions,1427
exist,1428
existed,1429
existing,1430
exists,1431
exorbitant,1432
expect,1433
expectations,1434
expected,1435
expecting,1436
expense,1437
expenses,1438
expensive,1439
experience,1440
experiments,1441
explains,1442
explanation,1443
exploded,1444
explodes,1445
export,1446
exposed,1447
exposes,1448
express,1449
extended,1450
exterminated,1451
extinct,1452
extra,1453
extras,1454
extreme,1455
extremely,1456
extremes,1457
eye,1458
eyes,1459
fa,1460
face,1461
facebook,1462
facepalm,1463
faces,1464
facilities,1465
facility,1466
fact,1467
factor,1468
factors,1469
facts,1470
fag,1471
faggot,1472
fags,1473
fail,1474
failed,1475
failing,1476
failure,1477
fair,1478
fairly,1479
fake,1480
fallacy,1481
falls,1482
false,1483
families,1484
family,1485
fan,1486
fanboy,1487
fancy,1488
fannie,1489
fans,1490
fantastic,1491
fantasy,1492
fantatics,1493
fap,1494
fapping,1495
far,1496
fares,1497
farfromperfectx,1498
farm,1499
farms,1500
fast,1501
faster,1502
fastest,1503
fat,1504
fatest,1505
fathers,1506
fault,1507
faults,1508
fauna,1509
faux,1510
favor,1511
favorites,1512
favour,1513
favoured,1514
fbi,1515
fear,1516
fears,1517
feasible,1518
feature,1519
features,1520
featuring,1521
feb,1522
fed,1523
federal,1524
fedex,1525
feed,1526
feeds,1527
feel,1528
feeling,1529
feels,1530
feet,1531
felines,1532
fella,1533
fellow,1534
felon,1535
felonies,1536
felt,1537
fema,1538
female,1539
females,1540
fertility,1541
fertilization,1542
few,1543
fewer,1544
ff,1545
fffffsssorry,1546
ffs,1547
fiction,1548
field,1549
fight,1550
fighters,1551
fighting,1552
fights,1553
figure,1554
figured,1555
figuring,1556
file,1557
files,1558
filetype,1559
filing,1560
fill,1561
filled,1562
fillion,1563
film,1564
filter,1565
filters,1566
final,1567
finally,1568
finances,1569
financial,1570
find,1571
finding,1572
fine,1573
fing,1574
finger,1575
finish,1576
fire,1577
firearm,1578
firearms,1579
firefox,1580
fires,1581
firetrucks,1582
firm,1583
firms,1584
first,1585
fiscal,1586
fish,1587
fist,1588
five,1589
fix,1590
fixed,1591
fl,1592
flash,1593
flashing,1594
flattery,1595
flavored,1596
flood,1597
flooded,1598
floods,1599
floor,1600
floppy,1601
flowers,1602
fly,1603
flying,1604
folks,1605
follow,1606
following,1607
food,1608
fool,1609
foolish,1610
foolishly,1611
foolishness,1612
fools,1613
football,1614
footprint,1615
for,1616
force,1617
forced,1618
forces,1619
forcing,1620
ford,1621
forecefully,1622
forehead,1623
foreign,1624
forensic,1625
forest,1626
forever,1627
forfeit,1628
forget,1629
forgive,1630
form,1631
formatted,1632
former,1633
fortunately,1634
forward,1635
fossil,1636
fought,1637
foul,1638
found,1639
founding,1640
four,1641
fox,1642
foxit,1643
fp,1644
fparsedonedigit,1645
frame,1646
franklin,1647
fraud,1648
freak,1649
freakin,1650
freddie,1651
free,1652
freedom,1653
frequently,1654
freudian,1655
fridayparsedfourdigits,1656
friend,1657
friends,1658
from,1659
front,1660
frontpage,1661
frost,1662
frowns,1663
fta,1664
ftp,1665
fu,1666
fuck,1667
fucked,1668
fuckin,1669
fucking,1670
fucktard,1671
fuel,1672
fuels,1673
fulfill,1674
full,1675
fully,1676
fun,1677
function,1678
functioning,1679
functions,1680
fundamental,1681
funding,1682
funds,1683
fungieparsedonedigit,1684
funnier,1685
funny,1686
furious,1687
furnish,1688
further,1689
fusion,1690
future,1691
futuregen,1692
futuristic,1693
fuuuuuuuuuuuuuuuuuuuuuuuuuuuuuuuckwatch,1694
fuzzy,1695
fæces,1696
gaiden,1697
gain,1698
gained,1699
gains,1700
galactica,1701
galaxy,1702
gallon,1703
gamble,1704
game,1705
games,1706
gamevee,1707
gaming,1708
ganged,1709
gaqua,1710
gas,1711
gate,1712
gave,1713
gay,1714
gbvista,1715
gdp,1716
gear,1717
gee,1718
geeze,1719
general,1720
generally,1721
generated,1722
generation,1723
genitalia,1724
genitals,1725
genius,1726
genuine,1727
geo,1728
geoblocking,1729
german,1730
germans,1731
germany,1732
gestapo,1733
get,1734
gets,1735
getting,1736
getup,1737
giants,1738
gift,1739
gifts,1740
gin,1741
girl,1742
girls,1743
give,1744
given,1745
gives,1746
giving,1747
glad,1748
glitz,1749
global,1750
globe,1751
glove,1752
gm,1753
gmail,1754
go,1755
goal,1756
goat,1757
goatee,1758
god,1759
goddamn,1760
godwin,1761
goes,1762
goggles,1763
goin,1764
going,1765
gold,1766
golden,1767
goldmine,1768
gone,1769
gonna,1770
good,1771
goods,1772
google,1773
gop,1774
gorilla,1775
got,1776
gotta,1777
governed,1778
government,1779
gpparsedonedigitx,1780
grabber,1781
grades,1782
graduate,1783
grammar,1784
grand,1785
grandparents,1786
grandstanding,1787
granny,1788
grant,1789
granted,1790
grants,1791
graphic,1792
grasp,1793
grateful,1794
great,1795
greatest,1796
greed,1797
green,1798
gregg,1799
grievance,1800
gross,1801
ground,1802
group,1803
groups,1804
grow,1805
growing,1806
grows,1807
gsp,1808
guess,1809
guilty,1810
guitar,1811
gulag,1812
gump,1813
gun,1814
guns,1815
guy,1816
guys,1817
ha,1818
habit,1819
hack,1820
hacks,1821
had,1822
hah,1823
haha,1824
hahah,1825
hahahahaha,1826
hahahahi,1827
hailed,1828
haircut,1829
half,1830
hamas,1831
hammer,1832
hand,1833
handed,1834
handicapped,1835
handing,1836
handle,1837
handles,1838
handling,1839
hang,1840
hannah,1841
happen,1842
happened,1843
happening,1844
happens,1845
happily,1846
happiness,1847
happy,1848
harbinger,1849
harbor,1850
harboring,1851
hard,1852
harder,1853
hardly,1854
hardware,1855
harmful,1856
harmless,1857
harness,1858
has,1859
hasn,1860
hat,1861
hate,1862
hated,1863
hatred,1864
have,1865
haven,1866
havent,1867
having,1868
hazard,1869
he,1870
head,1871
headed,1872
headline,1873
headquarters,1874
heads,1875
headshot,1876
health,1877
healthcare,1878
healthier,1879
healthy,1880
heaps,1881
hear,1882
heard,1883
hearing,1884
hears,1885
heart,1886
heath,1887
heavy,1888
heck,1889
hedge,1890
hefty,1891
heheh,1892
height,1893
held,1894
helicopter,1895
hell,1896
hello,1897
helluva,1898
helmsley,1899
help,1900
helpful,1901
helping,1902
her,1903
herbs,1904
here,1905
hero,1906
heroes,1907
heroin,1908
herpes,1909
hers,1910
hes,1911
hey,1912
hezbollah,1913
hi,1914
hidden,1915
hide,1916
high,1917
higher,1918
highest,1919
highlights,1920
highly,1921
hijab,1922
hilarious,1923
hilariously,1924
hill,1925
him,1926
himself,1927
hint,1928
hiring,1929
his,1930
history,1931
hit,1932
hitler,1933
hitters,1934
hmm,1935
hmmm,1936
hmo,1937
hmos,1938
hold,1939
holder,1940
holding,1941
hole,1942
holes,1943
hollywood,1944
holocaust,1945
holy,1946
home,1947
homeland,1948
homeless,1949
homers,1950
homerun,1951
hominem,1952
homosexual,1953
homosexuality,1954
homosexuals,1955
honest,1956
honestly,1957
honesty,1958
honey,1959
honored,1960
hooker,1961
hooray,1962
hoot,1963
hope,1964
hopeless,1965
hoping,1966
horizon,1967
horizontal,1968
horizontally,1969
horrible,1970
horrific,1971
horror,1972
hospital,1973
host,1974
hot,1975
hotel,1976
hottest,1977
hour,1978
hours,1979
house,1980
houses,1981
housing,1982
houstonpress,1983
how,1984
howard,1985
however,1986
htc,1987
htpc,1988
hubris,1989
huffington,1990
huffingtonpost,1991
huge,1992
human,1993
humanitarian,1994
humanity,1995
hummers,1996
humor,1997
humorous,1998
hundred,1999
hundreds,2000
hungry,2001
hunt,2002
hunter,2003
hurricane,2004
hurried,2005
hurts,2006
husband,2007
hybrid,2008
hybrids,2009
hydro,2010
hype,2011
hypocrisy,2012
hysterical,2013
iajdsiofajsuparsedtwodigitsiparsedfivedigits,2014
iasoparsedfourdigits,2015
icbms,2016
ice,2017
iceberg,2018
icon,2019
idea,2020
ideal,2021
ideals,2022
ideas,2023
ideology,2024
idiot,2025
idiotic,2026
idiots,2027
ie,2028
if,2029
ifpa,2030
ignorance,2031
ignore,2032
ignored,2033
ignoring,2034
ii,2035
illegal,2036
illinois,2037
illness,2038
illnesses,2039
illogical,2040
im,2041
imagery,2042
images,2043
imaginary,2044
imagine,2045
imbalance,2046
imho,2047
immortal,2048
immune,2049
immunity,2050
impact,2051
impared,2052
impending,2053
implanting,2054
implemented,2055
import,2056
important,2057
impose,2058
imposed,2059
impossible,2060
impressive,2061
improve,2062
improvement,2063
improvements,2064
improving,2065
in,2066
inaccuracy,2067
inaccurate,2068
inch,2069
inciting,2070
inclination,2071
include,2072
included,2073
includes,2074
including,2075
incoherent,2076
income,2077
incoming,2078
inconvenienced,2079
incorrect,2080
increase,2081
increased,2082
increases,2083
increasing,2084
increasingly,2085
incredible,2086
incredibly,2087
incumbents,2088
indeed,2089
indefinitely,2090
independence,2091
independent,2092
indian,2093
indication,2094
individual,2095
individuals,2096
inducing,2097
industrial,2098
industry,2099
infection,2100
infections,2101
inflation,2102
influence,2103
influences,2104
info,2105
information,2106
informative,2107
informed,2108
infrastructure,2109
infringe,2110
ing,2111
inherit,2112
inhofe,2113
initiative,2114
initiatives,2115
injure,2116
injured,2117
injury,2118
innnovators,2119
innocent,2120
innovation,2121
innovative,2122
input,2123
insane,2124
insecure,2125
insecurities,2126
insignificant,2127
insignificantly,2128
inspections,2129
inspiring,2130
install,2131
installation,2132
installations,2133
installing,2134
installment,2135
instant,2136
instantly,2137
instead,2138
instinct,2139
institute,2140
institutes,2141
institution,2142
institutions,2143
instruction,2144
insult,2145
insurance,2146
int,2147
integrate,2148
intelligence,2149
intelligent,2150
intelligentsia,2151
intend,2152
intended,2153
intense,2154
intensity,2155
interdependent,2156
interest,2157
interested,2158
interesting,2159
internal,2160
internet,2161
internets,2162
intervention,2163
interventionist,2164
interview,2165
into,2166
intoxicated,2167
intrepidia,2168
intrinsic,2169
intro,2170
introduced,2171
introduction,2172
invade,2173
invaluable,2174
invented,2175
invest,2176
investigate,2177
investigated,2178
investigating,2179
investigation,2180
investigations,2181
investment,2182
invoked,2183
involved,2184
involvement,2185
involves,2186
iparsedthreedigits,2187
iphone,2188
ipod,2189
ipvparsedonedigit,2190
iran,2191
iranain,2192
iranian,2193
ironic,2194
irrational,2195
irrelevant,2196
irrelevent,2197
irresponsible,2198
irvine,2199
is,2200
ish,2201
islam,2202
island,2203
isn,2204
isnt,2205
isolate,2206
israel,2207
issue,2208
isyeah,2209
it,2210
its,2211
itself,2212
ivy,2213
ixam,2214
ixquick,2215
jack,2216
jackals,2217
jackass,2218
jail,2219
jakarta,2220
january,2221
japan,2222
japanese,2223
jason,2224
jealous,2225
jefferson,2226
jenkees,2227
jessica,2228
jesus,2229
jesusneverexisted,2230
jews,2231
jfc,2232
jimmy,2233
jinandjuice,2234
job,2235
jobs,2236
john,2237
join,2238
joined,2239
joke,2240
jokes,2241
jolly,2242
jon,2243
joomla,2244
journalist,2245
journalists,2246
jr,2247
judge,2248
judging,2249
jump,2250
june,2251
junior,2252
junk,2253
jury,2254
just,2255
justice,2256
justices,2257
justification,2258
justify,2259
justifying,2260
juvenile,2261
kabbalah,2262
kanye,2263
karl,2264
kate,2265
katt,2266
kde,2267
keep,2268
keepers,2269
keeps,2270
keg,2271
kegs,2272
ken,2273
kennedy,2274
kenneth,2275
kenyans,2276
kept,2277
kerrigore,2278
ketchup,2279
kevin,2280
key,2281
keyboard,2282
keynesianism,2283
keys,2284
kicked,2285
kicks,2286
kid,2287
kidd,2288
kidding,2289
kids,2290
kiiiiiinda,2291
kill,2292
killed,2293
killer,2294
killing,2295
killings,2296
kills,2297
kilo,2298
kimmel,2299
kind,2300
kinda,2301
kindergarten,2302
kindle,2303
kinds,2304
kingdom,2305
kinseyincanada,2306
kkk,2307
knew,2308
knock,2309
knocked,2310
know,2311
knowing,2312
knowingly,2313
knowledge,2314
known,2315
knows,2316
kool,2317
koranimals,2318
korea,2319
kotaku,2320
krause,2321
krazy,2322
kroeger,2323
krugman,2324
kung,2325
kyl,2326
lab,2327
label,2328
labor,2329
labyrinth,2330
laced,2331
lack,2332
laffer,2333
laid,2334
lake,2335
lamb,2336
lame,2337
land,2338
language,2339
languages,2340
lantern,2341
lap,2342
large,2343
largely,2344
largest,2345
larry,2346
lasers,2347
last,2348
lastly,2349
late,2350
lately,2351
later,2352
laugh,2353
laughable,2354
laughing,2355
laughter,2356
launched,2357
law,2358
lawmakers,2359
lawn,2360
laws,2361
lawyers,2362
lay,2363
layer,2364
laying,2365
ld,2366
leach,2367
leaches,2368
lead,2369
leaders,2370
leadership,2371
league,2372
leaps,2373
learn,2374
learned,2375
lease,2376
leash,2377
least,2378
leave,2379
leaves,2380
leaving,2381
ledger,2382
leed,2383
leeds,2384
leet,2385
left,2386
lefties,2387
leftist,2388
leftists,2389
leftost,2390
legal,2391
legalization,2392
legalize,2393
legalized,2394
legalizing,2395
legally,2396
legislation,2397
legislative,2398
legit,2399
lego,2400
legs,2401
lemur,2402
lenders,2403
lends,2404
leona,2405
leopard,2406
lesbians,2407
less,2408
lessons,2409
lest,2410
let,2411
lets,2412
letter,2413
letting,2414
level,2415
levels,2416
lgbt,2417
li,2418
liar,2419
libel,2420
liberal,2421
liberation,2422
liberties,2423
libraries,2424
libs,2425
libtards,2426
licencing,2427
license,2428
licensed,2429
lie,2430
lies,2431
life,2432
lifehacker,2433
light,2434
like,2435
likely,2436
likes,2437
lil,2438
limited,2439
limits,2440
limo,2441
lincoln,2442
line,2443
lines,2444
link,2445
linked,2446
links,2447
list,2448
listen,2449
listened,2450
listening,2451
lists,2452
literally,2453
literate,2454
little,2455
live,2456
lives,2457
living,2458
ll,2459
load,2460
loan,2461
loans,2462
local,2463
localization,2464
locally,2465
locked,2466
log,2467
logic,2468
logo,2469
logon,2470
lol,2471
lold,2472
lolwatdammit,2473
long,2474
longer,2475
longstanding,2476
look,2477
looked,2478
looking,2479
looks,2480
lookup,2481
lookups,2482
loose,2483
looses,2484
lord,2485
los,2486
lose,2487
loser,2488
loses,2489
losing,2490
loss,2491
losses,2492
lost,2493
lot,2494
lots,2495
lousy,2496
love,2497
loved,2498
lovelyness,2499
loves,2500
low,2501
lowcountry,2502
lower,2503
lowered,2504
lowering,2505
loyola,2506
luck,2507
lucky,2508
lucy,2509
lump,2510
lunch,2511
lures,2512
lying,2513
lyrics,2514
mac,2515
macbook,2516
macbooks,2517
machine,2518
machines,2519
macintosh,2520
made,2521
madness,2522
mae,2523
magnificent,2524
mah,2525
mail,2526
maimed,2527
main,2528
maine,2529
mainstream,2530
maintenance,2531
major,2532
majority,2533
make,2534
makers,2535
makes,2536
making,2537
malaria,2538
malfunctioning,2539
malls,2540
man,2541
managed,2542
management,2543
mandated,2544
mandates,2545
mandatory,2546
maniac,2547
manifesto,2548
manipulating,2549
mans,2550
mantra,2551
manual,2552
manufacture,2553
manufacturers,2554
manufacturing,2555
many,2556
marching,2557
marcia,2558
marginal,2559
marginalizing,2560
margins,2561
marijuana,2562
mario,2563
market,2564
marketing,2565
marq,2566
marriage,2567
marriages,2568
married,2569
marry,2570
marshalls,2571
martinez,2572
marxists,2573
maryland,2574
mash,2575
mass,2576
massively,2577
master,2578
match,2579
mate,2580
material,2581
matter,2582
matters,2583
mattoon,2584
maximum,2585
may,2586
maybe,2587
mayer,2588
mayor,2589
mba,2590
mcmansions,2591
me,2592
mead,2593
meager,2594
mean,2595
meanie,2596
means,2597
meant,2598
measurement,2599
mechanical,2600
media,2601
medicaid,2602
medical,2603
medicare,2604
medication,2605
medications,2606
medicine,2607
meds,2608
meet,2609
meh,2610
mel,2611
melbourne,2612
meltdown,2613
members,2614
membership,2615
memorable,2616
memories,2617
memorization,2618
men,2619
mental,2620
mentality,2621
mentally,2622
mention,2623
mentioned,2624
merch,2625
merely,2626
mesmerizing,2627
mess,2628
message,2629
messed,2630
messiuh,2631
metal,2632
meth,2633
methanol,2634
methods,2635
mets,2636
mexican,2637
mexico,2638
michael,2639
microbiology,2640
microcosim,2641
microorganism,2642
microsecond,2643
microsoft,2644
mid,2645
middle,2646
might,2647
mighty,2648
mike,2649
miknarf,2650
mile,2651
mileage,2652
military,2653
milk,2654
million,2655
millionaire,2656
mind,2657
minded,2658
mine,2659
minerals,2660
miners,2661
minimal,2662
minimizes,2663
minimum,2664
minnesota,2665
minor,2666
minority,2667
minute,2668
minutes,2669
miracle,2670
mirrored,2671
misleading,2672
misrepresenting,2673
miss,2674
missed,2675
missing,2676
mission,2677
mistake,2678
mix,2679
mmm,2680
moan,2681
moans,2682
mob,2683
mobile,2684
model,2685
modern,2686
modernization,2687
molester,2688
mom,2689
moment,2690
moms,2691
money,2692
mongers,2693
monitor,2694
monkeybusiness,2695
monster,2696
montana,2697
month,2698
months,2699
mootools,2700
moral,2701
morality,2702
morally,2703
morals,2704
more,2705
moreso,2706
mormon,2707
morning,2708
moron,2709
morons,2710
mortgage,2711
mortgages,2712
most,2713
mostly,2714
mother,2715
motherf,2716
motherfuckers,2717
mothers,2718
motion,2719
motivation,2720
motivations,2721
motive,2722
motofone,2723
motorola,2724
mouths,2725
move,2726
moved,2727
movement,2728
moveon,2729
movie,2730
movies,2731
moving,2732
mowe,2733
mozart,2734
mpaa,2735
mpparsedonedigit,2736
mpparsedonedigits,2737
mpxparsedthreedigits,2738
mrbabyman,2739
ms,2740
muahahahahaha,2741
much,2742
muck,2743
mucking,2744
mud,2745
muhammad,2746
munchies,2747
muppets,2748
murder,2749
murdered,2750
murderous,2751
music,2752
muslim,2753
muslims,2754
must,2755
mvc,2756
mweather,2757
my,2758
mypc,2759
myself,2760
mystery,2761
mytown,2762
nah,2763
nailed,2764
naive,2765
name,2766
named,2767
namely,2768
nancy,2769
narcotics,2770
nasa,2771
nathan,2772
nation,2773
national,2774
nationalization,2775
nationalized,2776
natives,2777
natural,2778
naturally,2779
nature,2780
nazi,2781
near,2782
nearly,2783
necessarily,2784
necessary,2785
need,2786
needed,2787
needs,2788
neely,2789
negate,2790
negative,2791
negligible,2792
neighborhood,2793
neighborhoods,2794
neighbors,2795
neither,2796
neo,2797
nes,2798
net,2799
netted,2800
network,2801
networks,2802
never,2803
new,2804
news,2805
newses,2806
newspapers,2807
newsworthy,2808
next,2809
nice,2810
nicely,2811
niconiconico,2812
nietzsche,2813
night,2814
nightmare,2815
ninja,2816
nintendo,2817
nite,2818
no,2819
nobel,2820
noble,2821
nobodies,2822
nobody,2823
nodes,2824
nodparsedtwodigits,2825
noise,2826
nokia,2827
nominees,2828
non,2829
nonconformist,2830
none,2831
noob,2832
nooooo,2833
noooooo,2834
nope,2835
nor,2836
normal,2837
normally,2838
north,2839
northeast,2840
northwatuppa,2841
norton,2842
nose,2843
not,2844
note,2845
nothing,2846
nothingness,2847
nothings,2848
notice,2849
notting,2850
noumuon,2851
noun,2852
november,2853
now,2854
nowhere,2855
noxious,2856
nparsedthreedigits,2857
nsw,2858
ntfs,2859
nuclear,2860
nuke,2861
number,2862
numbers,2863
nut,2864
nutcases,2865
nvidia,2866
nwo,2867
o_o,2868
oak,2869
oaksterdam,2870
oath,2871
obam,2872
obama,2873
object,2874
objectively,2875
obligation,2876
obligatory,2877
obscure,2878
obsolete,2879
obvious,2880
obviously,2881
occasional,2882
occupation,2883
occur,2884
occurred,2885
ocean,2886
oceanic,2887
of,2888
off,2889
offending,2890
offensive,2891
offer,2892
office,2893
officer,2894
officers,2895
officials,2896
often,2897
oh,2898
ohshi,2899
oifdasparsedonedigitifasparsedthreedigits,2900
oil,2901
ok,2902
okay,2903
oklahoma,2904
old,2905
on,2906
once,2907
one,2908
ones,2909
online,2910
only,2911
onlywire,2912
onto,2913
ooh,2914
ooooooohhhhhhh,2915
op,2916
opelz,2917
open,2918
opened,2919
opens,2920
opera,2921
operating,2922
opinion,2923
opponents,2924
opportunity,2925
oppose,2926
opposed,2927
opposing,2928
oppurtunity,2929
oprah,2930
opt,2931
opted,2932
optimal,2933
option,2934
options,2935
or,2936
orange,2937
order,2938
oregon,2939
oregonian,2940
org,2941
organization,2942
orientation,2943
original,2944
os,2945
osama,2946
oscar,2947
osx,2948
ot,2949
other,2950
others,2951
otherwise,2952
oui,2953
our,2954
ours,2955
ourselves,2956
out,2957
outcry,2958
outer,2959
outright,2960
outrun,2961
outside,2962
over,2963
overall,2964
overhaul,2965
overload,2966
overpowered,2967
overpriced,2968
overreaction,2969
overthrow,2970
overtime,2971
overused,2972
owl,2973
own,2974
owner,2975
owners,2976
owning,2977
owns,2978
pack,2979
package,2980
packed,2981
packet,2982
packing,2983
page,2984
pages,2985
paid,2986
paint,2987
pair,2988
palestinians,2989
palin,2990
palmero,2991
palooza,2992
panda,2993
pandas,2994
pandering,2995
pandora,2996
pants,2997
paper,2998
paperwork,2999
par,3000
parachute,3001
paragraph,3002
parallel,3003
parent,3004
parents,3005
park,3006
parole,3007
parseddigits,3008
parseddigitsdparsedonedigitc,3009
parseddigitsebc,3010
parseddigitsjkasdaopd,3011
parsedfivedigits,3012
parsedfourdigits,3013
parsedfourdigitsathlon,3014
parsedfourdigitsoijdf,3015
parsedfourdigitswho,3016
parsedonedigit,3017
parsedonedigitchan,3018
parsedonedigitcparseddigitsa,3019
parsedonedigitd,3020
parsedonedigitdfparsedonedigit,3021
parsedonedigitebparsedonedigit,3022
parsedonedigitgw,3023
parsedonedigitst,3024
parsedonedigitth,3025
parsedonedigitx,3026
parsedthreedigits,3027
parsedthreedigitsd,3028
parsedthreedigitsk,3029
parsedthreedigitslbs,3030
parsedthreedigitsmpg,3031
parsedtime,3032
parsedtwodigits,3033
parsedtwodigitsaparsedonedigit,3034
parsedtwodigitsgb,3035
parsedtwodigitsgrand,3036
parsedtwodigitsk,3037
parsedtwodigitsmillion,3038
parsedtwodigitss,3039
part,3040
particular,3041
particularly,3042
parties,3043
partisan,3044
partner,3045
partners,3046
parts,3047
party,3048
pass,3049
passed,3050
passenger,3051
passes,3052
past,3053
pasteurization,3054
patent,3055
patently,3056
path,3057
pathetic,3058
patrick,3059
patriot,3060
patterns,3061
paul,3062
pawn,3063
pay,3064
payment,3065
payments,3066
pays,3067
pc,3068
pcp,3069
peace,3070
peaceful,3071
peaches,3072
pearl,3073
pedantic,3074
pedobears,3075
pedophiles,3076
peers,3077
pelosi,3078
penalizes,3079
penalty,3080
penance,3081
penises,3082
people,3083
per,3084
percent,3085
percentage,3086
percentages,3087
perception,3088
perfect,3089
perfectly,3090
performed,3091
perhaps,3092
periods,3093
permanence,3094
permissible,3095
permissions,3096
perpetuates,3097
person,3098
persona,3099
personal,3100
personality,3101
personally,3102
persons,3103
pesticides,3104
pet,3105
peter,3106
pets,3107
pgood,3108
ph,3109
pharma,3110
pharmaceutical,3111
phelps,3112
phenomena,3113
phone,3114
phones,3115
photo,3116
photos,3117
phrase,3118
physical,3119
physically,3120
pic,3121
picard,3122
pick,3123
picked,3124
picker,3125
pics,3126
picture,3127
pie,3128
piece,3129
pieces,3130
pile,3131
pills,3132
pinch,3133
pink,3134
pint,3135
pipe,3136
pirate,3137
pissed,3138
pissing,3139
pit,3140
pitching,3141
pitt,3142
place,3143
placement,3144
placing,3145
plain,3146
plan,3147
plane,3148
planet,3149
planets,3150
planning,3151
plant,3152
plants,3153
platform,3154
platformers,3155
play,3156
played,3157
player,3158
players,3159
playing,3160
pleaded,3161
please,3162
plenty,3163
plug,3164
plural,3165
plurality,3166
plus,3167
pm,3168
pnac,3169
pocket,3170
pocketbook,3171
pockets,3172
point,3173
points,3174
poison,3175
poisoning,3176
poisonous,3177
poitier,3178
pole,3179
poles,3180
police,3181
policies,3182
policy,3183
political,3184
politically,3185
politicians,3186
politiciansgo,3187
politics,3188
ponzi,3189
poor,3190
poorer,3191
pop,3192
pope,3193
popular,3194
population,3195
pork,3196
porn,3197
pornography,3198
portion,3199
position,3200
positions,3201
possession,3202
possessive,3203
possible,3204
possibly,3205
post,3206
posted,3207
poster,3208
posters,3209
posting,3210
postponed,3211
pot,3212
potentially,3213
potheads,3214
pounds,3215
power,3216
powerful,3217
powerplant,3218
pox,3219
ppl,3220
practical,3221
practice,3222
practiced,3223
practicing,3224
praise,3225
praying,3226
pre,3227
preaching,3228
precedent,3229
precisely,3230
predators,3231
predicting,3232
preference,3233
pregnant,3234
preinstalled,3235
premise,3236
premiums,3237
preparation,3238
presence,3239
present,3240
presidency,3241
president,3242
press,3243
presses,3244
presumably,3245
pretend,3246
pretends,3247
pretty,3248
prevent,3249
prevention,3250
previous,3251
price,3252
prices,3253
prick,3254
priest,3255
primarily,3256
principles,3257
print,3258
printing,3259
prior,3260
priority,3261
prison,3262
prisoner,3263
prisoners,3264
prisons,3265
privacy,3266
private,3267
privately,3268
privilege,3269
prize,3270
pro,3271
probability,3272
probably,3273
probed,3274
problem,3275
problems,3276
probs,3277
procedures,3278
process,3279
procreate,3280
produce,3281
produced,3282
producer,3283
product,3284
production,3285
productive,3286
products,3287
professional,3288
professionally,3289
professors,3290
profit,3291
profitactually,3292
profiteer,3293
program,3294
programs,3295
projects,3296
prominent,3297
promise,3298
promised,3299
promotes,3300
promoting,3301
promotion,3302
promptly,3303
proof,3304
prop,3305
propaganda,3306
propeller,3307
proper,3308
properly,3309
properties,3310
property,3311
prophet,3312
proponents,3313
proportion,3314
proposed,3315
props,3316
prosecution,3317
prosecutions,3318
prosecutors,3319
prostitue,3320
prostitute,3321
protect,3322
protecting,3323
protectionism,3324
protectionist,3325
protein,3326
prove,3327
proved,3328
proven,3329
provide,3330
provided,3331
providing,3332
provision,3333
provisions,3334
proxies,3335
proxy,3336
ps,3337
psa,3338
pseudo,3339
psn,3340
psst,3341
psuedo,3342
psych,3343
psychiatric,3344
psychiatrist,3345
psycho,3346
psychological,3347
psychopathic,3348
public,3349
publicity,3350
publicly,3351
publishing,3352
pudge,3353
pull,3354
pulled,3355
pulling,3356
pundits,3357
punishment,3358
purchases,3359
purse,3360
pursued,3361
pursuits,3362
push,3363
pushed,3364
pussy,3365
pussys,3366
put,3367
puts,3368
putting,3369
puzzle,3370
pv,3371
pyramid,3372
qld,3373
qm,3374
quakeholio,3375
quality,3376
quantities,3377
quantity,3378
quantum,3379
question,3380
questioned,3381
questioning,3382
questions,3383
quick,3384
quiet,3385
quit,3386
quite,3387
quote,3388
quoted,3389
qwest,3390
rabbit,3391
race,3392
racism,3393
racist,3394
radiative,3395
radical,3396
radicals,3397
raffled,3398
rafikichi,3399
raging,3400
rahm,3401
raids,3402
rail,3403
raise,3404
raised,3405
raising,3406
rajim,3407
ram,3408
ramen,3409
rampant,3410
ranch,3411
random,3412
range,3413
ranging,3414
ranked,3415
ranking,3416
rant,3417
ranting,3418
rape,3419
rapidly,3420
rarely,3421
rate,3422
rates,3423
rather,3424
rating,3425
rational,3426
raving,3427
ray,3428
razor,3429
re,3430
reaction,3431
reactor,3432
read,3433
readable,3434
reader,3435
reading,3436
readjust,3437
ready,3438
real,3439
realise,3440
reality,3441
realize,3442
realized,3443
realizing,3444
really,3445
reason,3446
reasonable,3447
reasonably,3448
reasons,3449
recall,3450
receive,3451
received,3452
receives,3453
receiving,3454
recent,3455
recently,3456
recession,3457
recipe,3458
recognize,3459
record,3460
recording,3461
records,3462
recover,3463
recovery,3464
red,3465
redeye,3466
reduce,3467
reduction,3468
reference,3469
refers,3470
refreshing,3471
refused,3472
refuses,3473
regard,3474
regarding,3475
regardless,3476
regimes,3477
region,3478
regret,3479
regular,3480
regularly,3481
rehabilitation,3482
reilly,3483
reinstate,3484
reinvestment,3485
rejected,3486
related,3487
relationship,3488
release,3489
released,3490
releases,3491
relevant,3492
relics,3493
religion,3494
religions,3495
religious,3496
reloading,3497
relying,3498
remained,3499
remains,3500
remaking,3501
remember,3502
reminded,3503
reminds,3504
remorse,3505
removal,3506
remove,3507
removed,3508
render,3509
rendition,3510
renegotiate,3511
renovate,3512
renovating,3513
renovation,3514
renovations,3515
rent,3516
repair,3517
repayment,3518
repeal,3519
repealed,3520
repeat,3521
repeatedly,3522
replace,3523
replenished,3524
reported,3525
reporters,3526
reports,3527
repost,3528
represent,3529
representation,3530
represents,3531
reproach,3532
reptilians,3533
republic,3534
republican,3535
republicans,3536
republicrats,3537
republithug,3538
requests,3539
require,3540
required,3541
requires,3542
rescue,3543
research,3544
reserve,3545
resign,3546
resin,3547
resort,3548
resource,3549
resources,3550
respect,3551
response,3552
responsibility,3553
responsible,3554
rest,3555
restoration,3556
restoring,3557
restriction,3558
restrictions,3559
result,3560
results,3561
retard,3562
retarded,3563
retire,3564
retrace,3565
return,3566
returned,3567
revealing,3568
revenge,3569
revenues,3570
reverse,3571
reviever,3572
review,3573
reviewer,3574
reviews,3575
revolt,3576
revolution,3577
rewarding,3578
riaa,3579
rib,3580
rich,3581
rick,3582
rid,3583
ride,3584
ridiculous,3585
rifle,3586
rifles,3587
rig,3588
right,3589
rights,3590
riled,3591
rino,3592
rinse,3593
ripp,3594
rips,3595
rise,3596
risks,3597
river,3598
roaches,3599
road,3600
roar,3601
robbots,3602
robbottodays,3603
robert,3604
robocop,3605
robots,3606
robs,3607
rochester,3608
rock,3609
rocks,3610
rocky,3611
rodriguez,3612
roid,3613
ron,3614
ronald,3615
room,3616
root,3617
rope,3618
rose,3619
rotate,3620
roughly,3621
round,3622
roundup,3623
rove,3624
royalties,3625
rss,3626
rufies,3627
rugburn,3628
ruined,3629
rule,3630
rulers,3631
rules,3632
run,3633
runners,3634
running,3635
rural,3636
rush,3637
rushycontin,3638
rustproofing,3639
ruth,3640
sacrifice,3641
sad,3642
sadly,3643
safari,3644
safe,3645
safely,3646
safety,3647
sahfaaari,3648
said,3649
sake,3650
salaries,3651
sales,3652
salt,3653
same,3654
sand,3655
sandiego,3656
santa,3657
saps,3658
sarc,3659
sarcasm,3660
sarcasmi,3661
sarcastic,3662
sat,3663
satellite,3664
satisfied,3665
satisfy,3666
saudi,3667
save,3668
saving,3669
saw,3670
say,3671
sayglobal,3672
saying,3673
sayings,3674
says,3675
scale,3676
scam,3677
scandal,3678
scarce,3679
scares,3680
scenario,3681
scene,3682
sceptical,3683
scheme,3684
schiff,3685
scholar,3686
school,3687
schoolgirl,3688
schoolgirls,3689
schools,3690
schwarzy,3691
science,3692
scientifically,3693
scientists,3694
scientology,3695
scott,3696
scratching,3697
screen,3698
screw,3699
screwed,3700
scroll,3701
scumbag,3702
sea,3703
search,3704
searched,3705
seat,3706
seated,3707
sec,3708
secessionist,3709
second,3710
secondly,3711
seconds,3712
secrecy,3713
secret,3714
secretary,3715
secrets,3716
sectarian,3717
section,3718
sector,3719
secure,3720
secured,3721
security,3722
see,3723
seeing,3724
seem,3725
seemed,3726
seems,3727
seen,3728
seinfeld,3729
seized,3730
selected,3731
selection,3732
self,3733
selfish,3734
sell,3735
sellers,3736
selling,3737
sells,3738
semi,3739
sen,3740
senate,3741
send,3742
senior,3743
sense,3744
sensible,3745
sensitivity,3746
sentence,3747
sentencing,3748
sentience,3749
seoul,3750
serendipitous,3751
serious,3752
seriously,3753
served,3754
server,3755
servers,3756
service,3757
services,3758
set,3759
setting,3760
settings,3761
seven,3762
seventy,3763
several,3764
severe,3765
sewer,3766
sex,3767
sexual,3768
sexually,3769
sexy,3770
shacknews,3771
shadows,3772
shady,3773
shall,3774
sham,3775
shame,3776
shaq,3777
share,3778
shared,3779
shareholders,3780
sharers,3781
shares,3782
sharks,3783
sharp,3784
sharpton,3785
she,3786
sheep,3787
sheesh,3788
sheik,3789
sheriff,3790
shi,3791
shift,3792
shiny,3793
ship,3794
shit,3795
shitty,3796
shock,3797
shocking,3798
shooting,3799
shoots,3800
shops,3801
short,3802
shortfall,3803
shot,3804
shotgun,3805
should,3806
shoulders,3807
shouldn,3808
shout,3809
shouted,3810
shouts,3811
shove,3812
shoved,3813
show,3814
showed,3815
showing,3816
shows,3817
shparsedonedigitts,3818
shrek,3819
shugashack,3820
shut,3821
shuttle,3822
sibel,3823
sick,3824
sickness,3825
sickthoughts,3826
side,3827
sides,3828
sideswiped,3829
sighted,3830
sign,3831
signed,3832
significance,3833
significant,3834
silence,3835
silk,3836
silly,3837
silver,3838
silverlight,3839
similar,3840
simple,3841
simply,3842
simpson,3843
simpsons,3844
since,3845
sincerely,3846
singing,3847
single,3848
singular,3849
sink,3850
sir,3851
sirius,3852
site,3853
sites,3854
six,3855
skeptical,3856
skews,3857
skill,3858
skirt,3859
skittlesusamarket,3860
slammed,3861
slap,3862
slaughters,3863
slave,3864
slavery,3865
sleek,3866
sleep,3867
sleeves,3868
slept,3869
slice,3870
slideshows,3871
slightest,3872
slinging,3873
slip,3874
slipped,3875
slow,3876
small,3877
smallest,3878
smallpox,3879
smashing,3880
smells,3881
smile,3882
smithsonian,3883
smoke,3884
smoked,3885
smoking,3886
snake,3887
snakes,3888
snap,3889
sniper,3890
snoobish,3891
snoopy,3892
so,3893
soccer,3894
social,3895
socialblade,3896
socialism,3897
socially,3898
society,3899
sociopath,3900
socks,3901
sodade,3902
software,3903
solar,3904
sold,3905
soldiers,3906
solid,3907
solution,3908
solved,3909
some,3910
somebody,3911
somehow,3912
someone,3913
someplace,3914
somethin,3915
something,3916
sometimes,3917
somewhat,3918
somewhere,3919
sone,3920
song,3921
songs,3922
sony,3923
soon,3924
sooni,3925
sooo,3926
soooo,3927
sore,3928
sorry,3929
sort,3930
sorts,3931
sosa,3932
soul,3933
sound,3934
sounds,3935
soundtrack,3936
source,3937
sourced,3938
sources,3939
south,3940
southern,3941
soviet,3942
sowell,3943
space,3944
spam,3945
spamming,3946
spar,3947
sparing,3948
spc,3949
speak,3950
speaking,3951
speaks,3952
special,3953
specialized,3954
species,3955
specif,3956
specific,3957
specifically,3958
spectre,3959
speech,3960
speed,3961
speedo,3962
spell,3963
spend,3964
spending,3965
spends,3966
spendulous,3967
spent,3968
spewing,3969
spikes,3970
spiral,3971
spite,3972
splains,3973
splicing,3974
split,3975
splitting,3976
spoiled,3977
spoils,3978
spoofed,3979
sport,3980
spread,3981
spreading,3982
spyware,3983
sqeaking,3984
squad,3985
square,3986
squealing,3987
squeezing,3988
squirrel,3989
st,3990
stadiums,3991
staff,3992
stage,3993
stagflation,3994
stand,3995
standard,3996
standards,3997
standing,3998
standpoint,3999
stands,4000
stapp,4001
star,4002
stare,4003
start,4004
started,4005
starting,4006
starts,4007
starve,4008
starving,4009
stashed,4010
state,4011
stated,4012
statement,4013
statements,4014
staters,4015
states,4016
station,4017
statistically,4018
status,4019
stay,4020
stays,4021
stds,4022
steal,4023
stealing,4024
stearns,4025
steel,4026
steger,4027
step,4028
steps,4029
stereotype,4030
stern,4031
steve,4032
steven,4033
stfu,4034
stick,4035
sticking,4036
stifled,4037
still,4038
stimulates,4039
stimulative,4040
stimulus,4041
stinger,4042
stock,4043
stoner,4044
stones,4045
stoning,4046
stood,4047
stop,4048
stopped,4049
store,4050
storeowner,4051
stores,4052
stories,4053
story,4054
straight,4055
strains,4056
strange,4057
strap,4058
straps,4059
streaming,4060
street,4061
streetaddress,4062
streets,4063
strength,4064
stressed,4065
strictly,4066
strike,4067
strikeouts,4068
string,4069
stripper,4070
strippers,4071
strong,4072
stronger,4073
strparsedonedigitfehe,4074
structure,4075
struggling,4076
stuck,4077
student,4078
students,4079
studied,4080
studies,4081
study,4082
stuff,4083
stupid,4084
stupidest,4085
style,4086
subconscious,4087
subject,4088
subjugation,4089
submission,4090
submissions,4091
submit,4092
submitted,4093
subsidies,4094
subsidise,4095
subsidy,4096
substance,4097
substantial,4098
substitute,4099
subsumed,4100
subterranean,4101
subtleties,4102
success,4103
successful,4104
such,4105
suck,4106
sucked,4107
sucking,4108
sucks,4109
sudden,4110
suddenly,4111
sue,4112
sues,4113
suffer,4114
suffered,4115
suggest,4116
suggests,4117
suicidal,4118
suicide,4119
suleman,4120
sulphur,4121
sum,4122
summed,4123
summer,4124
sumo,4125
super,4126
superior,4127
supply,4128
support,4129
supported,4130
supporter,4131
supporters,4132
supports,4133
suppose,4134
supposed,4135
supposedly,4136
suppress,4137
sure,4138
surely,4139
surfaces,4140
surfstang,4141
surpass,4142
surprise,4143
surprised,4144
surprises,4145
surrender,4146
surrounded,4147
surveying,4148
suspense,4149
swap,4150
swat,4151
swear,4152
sweat,4153
swig,4154
swim,4155
swollen,4156
symbol,4157
sync,4158
system,4159
systems,4160
tab,4161
table,4162
tactics,4163
take,4164
taken,4165
takes,4166
taking,4167
talent,4168
taliban,4169
talk,4170
talked,4171
talking,4172
talks,4173
tank,4174
tanning,4175
tanukiparsedonedigiteven,4176
tape,4177
tapes,4178
target,4179
targets,4180
tasteless,4181
taught,4182
tax,4183
taxation,4184
taxes,4185
taxpayers,4186
tbh,4187
teachers,4188
teaches,4189
teaching,4190
teams,4191
technique,4192
technology,4193
techs,4194
teh,4195
tekhpoynt,4196
television,4197
tell,4198
tellin,4199
telling,4200
tells,4201
temperatures,4202
tempered,4203
temporarily,4204
temporary,4205
tend,4206
tendencies,4207
tends,4208
tens,4209
term,4210
terminal,4211
terms,4212
terrible,4213
terroist,4214
terrorist,4215
test,4216
testimony,4217
tests,4218
texas,4219
text,4220
texting,4221
tham,4222
than,4223
thank,4224
thanks,4225
thanparsedfourdigits,4226
thanx,4227
that,4228
thats,4229
thc,4230
the,4231
theater,4232
theaters,4233
theft,4234
their,4235
theirs,4236
them,4237
theme,4238
themselves,4239
then,4240
theory,4241
therapy,4242
there,4243
therefor,4244
therefore,4245
theres,4246
these,4247
thet,4248
they,4249
theyll,4250
thier,4251
thing,4252
things,4253
think,4254
thinking,4255
thinks,4256
third,4257
thirds,4258
thirsty,4259
this,4260
thomas,4261
those,4262
though,4263
thought,4264
thoughts,4265
thousand,4266
thousands,4267
thread,4268
threat,4269
threatened,4270
threatening,4271
threatens,4272
three,4273
threesome,4274
through,4275
throughout,4276
throw,4277
throwing,4278
thrown,4279
thunder,4280
thunderbird,4281
tibetans,4282
ticket,4283
tickets,4284
tie,4285
tier,4286
tiger,4287
tigers,4288
tight,4289
tilt,4290
time,4291
times,4292
tip,4293
tired,4294
titanic,4295
title,4296
to,4297
tobacco,4298
today,4299
together,4300
toilet,4301
told,4302
tolerate,4303
tomorrow,4304
tone,4305
tonnes,4306
too,4307
took,4308
tool,4309
top,4310
tor,4311
torn,4312
torrent,4313
torture,4314
torturing,4315
totally,4316
touched,4317
touching,4318
tough,4319
toward,4320
town,4321
toys,4322
tpb,4323
trace,4324
traced,4325
track,4326
trade,4327
trading,4328
traditional,4329
traditionally,4330
traffic,4331
tragic,4332
trailer,4333
trained,4334
training,4335
trains,4336
trans,4337
transition,4338
translated,4339
transportation,4340
transsexual,4341
trap,4342
travesty,4343
treasury,4344
treat,4345
treatment,4346
treatments,4347
treaty,4348
trend,4349
trendy,4350
trentadue,4351
trial,4352
trials,4353
tried,4354
tries,4355
trillion,4356
trolling,4357
trolls,4358
troop,4359
troops,4360
tropic,4361
trouble,4362
troubling,4363
trough,4364
truck,4365
true,4366
truly,4367
trunk,4368
trust,4369
trusted,4370
truth,4371
truths,4372
try,4373
trying,4374
tubatechno,4375
tucker,4376
tune,4377
turbines,4378
turd,4379
turf,4380
turk,4381
turn,4382
turned,4383
turns,4384
tv,4385
twelve,4386
twice,4387
twisted,4388
twisting,4389
twitter,4390
two,4391
type,4392
types,4393
typical,4394
typing,4395
tyrants,4396
ugh,4397
ugly,4398
uhbama,4399
uhhh,4400
uk,4401
ultimately,4402
um,4403
umm,4404
un,4405
unbelievable,4406
unclaimed,4407
undead,4408
under,4409
undercover,4410
underestimate,4411
undergrad,4412
understand,4413
understandable,4414
understanding,4415
understood,4416
underway,4417
undistorted,4418
undoubtedly,4419
unemployed,4420
unfortunately,4421
unhappy,4422
unhealthy,4423
uni,4424
uniform,4425
unintended,4426
union,4427
unipolar,4428
unique,4429
unite,4430
united,4431
universal,4432
universe,4433
university,4434
unjust,4435
unknown,4436
unless,4437
unlike,4438
unlucky,4439
unmannedmissionhope,4440
unreasonable,4441
unrelatedgold,4442
unstated,4443
untie,4444
until,4445
up,4446
update,4447
updates,4448
upgrade,4449
upgraded,4450
upgrading,4451
upheld,4452
uploading,4453
upon,4454
upper,4455
ups,4456
upscale,4457
uptick,4458
urban,4459
urge,4460
us,4461
usa,4462
usage,4463
use,4464
used,4465
useful,4466
useless,4467
user,4468
users,4469
uses,4470
using,4471
usps,4472
usual,4473
usually,4474
utilizing,4475
utorrent,4476
utterly,4477
vaccines,4478
vader,4479
vagina,4480
vague,4481
valentine,4482
valid,4483
value,4484
valued,4485
values,4486
vampires,4487
vandalism,4488
variety,4489
vase,4490
vast,4491
ve,4492
vegas,4493
vehicle,4494
vehicles,4495
vending,4496
venomous,4497
verb,4498
verizon,4499
verses,4500
version,4501
versus,4502
very,4503
vespertine,4504
veterans,4505
vhs,4506
via,4507
vibrant,4508
vibrating,4509
vicious,4510
victim,4511
victims,4512
victoria,4513
victory,4514
video,4515
view,4516
viewer,4517
viewing,4518
vinegar,4519
violence,4520
violent,4521
virtual,4522
virtually,4523
virus,4524
visit,4525
visiting,4526
vista,4527
vitriolandangst,4528
vitro,4529
voice,4530
volt,4531
volunteering,4532
vote,4533
voted,4534
voters,4535
voyeur,4536
vw,4537
vying,4538
wade,4539
wait,4540
waited,4541
waiting,4542
wake,4543
walked,4544
walking,4545
walks,4546
wall,4547
walls,4548
walmart,4549
wanna,4550
wannabes,4551
want,4552
wanted,4553
wanting,4554
wants,4555
war,4556
warming,4557
warning,4558
warrant,4559
warrants,4560
wars,4561
was,4562
washington,4563
wasn,4564
waste,4565
wasted,4566
watch,4567
watched,4568
watchin,4569
watching,4570
watchmen,4571
water,4572
watermelons,4573
watershed,4574
wave,4575
way,4576
ways,4577
wazoo,4578
we,4579
weak,4580
wealth,4581
weapons,4582
wear,4583
wears,4584
weather,4585
web,4586
webdesigners,4587
webkit,4588
website,4589
websites,4590
wee,4591
weed,4592
week,4593
weekend,4594
weeks,4595
weight,4596
weinbergnot,4597
weird,4598
welcome,4599
welcoming,4600
welfare,4601
well,4602
went,4603
were,4604
weren,4605
whacks,4606
what,4607
whatever,4608
whats,4609
whatwe,4610
wheels,4611
when,4612
whenever,4613
where,4614
whether,4615
which,4616
while,4617
whilst,4618
whiners,4619
whining,4620
whip,4621
whipped,4622
white,4623
who,4624
whoever,4625
whole,4626
whomever,4627
whose,4628
why,4629
whyve,4630
wicked,4631
wide,4632
widely,4633
wife,4634
wifi,4635
wii,4636
wikipedia,4637
wild,4638
wildland,4639
wildlife,4640
will,4641
williams,4642
willing,4643
win,4644
wind,4645
window,4646
windows,4647
windowsuntil,4648
windy,4649
wine,4650
winge,4651
wings,4652
winmo,4653
winner,4654
winning,4655
winslet,4656
wipe,4657
wiretapping,4658
wise,4659
wish,4660
wishing,4661
witch,4662
with,4663
withholds,4664
within,4665
withot,4666
without,4667
withstand,4668
wives,4669
woh,4670
wolfowitz,4671
woman,4672
women,4673
won,4674
wonder,4675
wonderful,4676
wondering,4677
wont,4678
woo,4679
wood,4680
woods,4681
woodsoh,4682
woodsparsedonedigit,4683
woooooo,4684
woot,4685
word,4686
wording,4687
words,4688
wore,4689
work,4690
worked,4691
working,4692
workplace,4693
works,4694
world,4695
worlds,4696
worried,4697
worries,4698
worrisome,4699
worry,4700
worse,4701
worship,4702
worst,4703
worth,4704
worthless,4705
worthy,4706
would,4707
wouldn,4708
wounds,4709
wow,4710
woz,4711
wparsedonedigit,4712
wrist,4713
write,4714
writer,4715
writers,4716
writers_guild_of,4717
written,4718
wrong,4719
wsads,4720
wtf,4721
wussy,4722
wwe,4723
xbox,4724
xdsorry,4725
xkcd,4726
xm,4727
xp,4728
xparsedonedigit,4729
xparsedthreedigits,4730
xvid,4731
xvparsedfourdigits,4732
ya,4733
yahoo,4734
yahtzee,4735
yankees,4736
yapping,4737
yay,4738
yeah,4739
year,4740
years,4741
yeast,4742
yeeeeeahhhh,4743
yelling,4744
yelp,4745
yen,4746
yep,4747
yes,4748
yessss,4749
yet,4750
york,4751
you,4752
young,4753
your,4754
yours,4755
yourself,4756
youth,4757
yummy,4758
zero,4759
zog,4760
zombie,4761
zombies,4762
zoned,4763
zoo,4764
