ability,0
able,1
about,2
above,3
abroad,4
abrogated,5
absolute,6
absolutely,7
absurd,8
abundance,9
abuse,10
abused,11
accept,12
acceptable,13
acceptance,14
accepted,15
accident,16
accidentally,17
accidents,18
acclimatized,19
accomplishment,20
according,21
account,22
accountable,23
accrued,24
accumulation,25
accuracy,26
accurate,27
accusations,28
accusing,29
achieving,30
acid,31
acidparsedonedigit,32
acknowledges,33
across,34
act,35
acting,36
action,37
actions,38
activated,39
active,40
activist,41
activity,42
actor,43
acts,44
actual,45
actuality,46
actuall,47
actually,48
ad,49
adapt,50
adapted,51
add,52
added,53
addition,54
additional,55
additionally,56
address,57
addressed,58
addresses,59
adequately,60
adhd,61
adjustable,62
adjustments,63
administered,64
administration,65
admires,66
admission,67
admitted,68
adobe,69
adopt,70
ads,71
advance,72
advancing,73
advantage,74
advertising,75
aeroflop,76
aeroflot,77
affect,78
affected,79
afford,80
affordable,81
afghanistan,82
afp,83
afraid,84
africa,85
after,86
afterlife,87
afternoon,88
ag,89
again,90
against,91
age,92
aged,93
agenda,94
agendas,95
agents,96
ages,97
aggressive,98
agm,99
ago,100
agree,101
agreed,102
agreeing,103
ahaha,104
ahhhhhhhhhhhhhhhhhhhhhhhhhhhhhhhhhhhhhhhhhhhhhhhhhhhhh,105
aid,106
aids,107
air,108
airplane,109
aka,110
al,111
alaska,112
album,113
alcohol,114
alert,115
ales,116
alexx,117
all,118
alliance,119
allied,120
allies,121
allow,122
allowed,123
allows,124
almost,125
alone,126
along,127
alot,128
already,129
also,130
alternative,131
although,132
always,133
am,134
amazes,135
amazing,136
amazingly,137
ambulances,138
amendment,139
america,140
american,141
americans,142
ammunition,143
amnesty,144
amount,145
amp,146
an,147
ana,148
analogies,149
analysis,150
analyst,151
analyzed,152
ancient,153
and,154
andrew,155
android,156
angeles,157
anger,158
angle,159
animal,160
animals,161
ankle,162
annoying,163
annul,164
anon,165
another,166
answer,167
answering,168
anti,169
antiquated,170
antiwar,171
any,172
anymore,173
anyone,174
anything,175
anytime,176
anyway,177
anywhere,178
aparsedtwodigits,179
apart,180
aphrodite,181
apocalypse,182
apologize,183
apology,184
apostrophe,185
app,186
appalled,187
apparently,188
appeal,189
appear,190
appearance,191
appears,192
appetite,193
applauded,194
apple,195
applications,196
applied,197
apply,198
approach,199
approaching,200
appropriately,201
approval,202
apps,203
april,204
aprobation,205
apt,206
arab,207
arabia,208
arabians,209
archie,210
architechts,211
are,212
area,213
aren,214
arguing,215
argument,216
arise,217
arizona,218
arms,219
around,220
array,221
arrested,222
arrow,223
article,224
articles,225
artificially,226
artsy,227
as,228
asap,229
ascii,230
ashamed,231
ashcroft,232
aside,233
ask,234
asks,235
asm,236
aspen,237
ass,238
assaulting,239
assembly,240
assertion,241
assessments,242
assets,243
assholes,244
associate,245
associated,246
association,247
assume,248
assuming,249
assure,250
asthma,251
astley,252
astounds,253
at,254
athlete,255
athletic,256
atm,257
atom,258
attached,259
attack,260
attacked,261
attacking,262
attacks,263
attatched,264
attempt,265
attending,266
attention,267
attic,268
aud,269
audience,270
aus,271
australia,272
australian,273
authentication,274
author,275
authorities,276
authority,277
authors,278
auto,279
automatically,280
av,281
available,282
average,283
aviator,284
avoid,285
avoided,286
avowed,287
award,288
awards,289
aware,290
away,291
awesome,292
awesoome,293
awkward,294
awol,295
awwwwww,296
ayway,297
az,298
babe,299
baby,300
back,301
background,302
backs,303
backwards,304
bacon,305
bacteria,306
bad,307
badass,308
badly,309
bag,310
bags,311
bail,312
bailout,313
bailouts,314
baiting,315
balances,316
bale,317
balk,318
ball,319
balls,320
ballz,321
ban,322
bands,323
bandwagon,324
bandwidth,325
bank,326
bankers,327
banking,328
banks,329
banned,330
banning,331
bans,332
bar,333
barbarians,334
barely,335
bargain,336
baron,337
barracks,338
barrel,339
barry,340
base,341
baseball,342
based,343
basement,344
basic,345
basically,346
basics,347
basis,348
bastard,349
bastardizing,350
batshit,351
batteries,352
battery,353
battle,354
battlestar,355
bbc,356
be,357
beach,358
beam,359
bear,360
beat,361
beatings,362
became,363
because,364
become,365
becomes,366
becoming,367
bed,368
beds,369
been,370
beenthe,371
beer,372
beers,373
beethoven,374
before,375
beg,376
begets,377
begin,378
begining,379
behave,380
behaves,381
behavior,382
behind,383
beholden,384
being,385
beings,386
belief,387
believability,388
believe,389
believes,390
bell,391
belly,392
below,393
belt,394
belts,395
bench,396
benefits,397
benifits,398
benign,399
benjamin,400
bent,401
benz,402
besides,403
best,404
bested,405
bestiality,406
bet,407
beta,408
betcha,409
better,410
between,411
beyond,412
bible,413
biden,414
bidgtls,415
big,416
bigger,417
biggest,418
bill,419
billion,420
billions,421
bills,422
binary,423
bird,424
birds,425
bisexual,426
bit,427
bitch,428
bitching,429
bite,430
bj,431
black,432
blackface,433
blame,434
blamed,435
blamefor,436
blames,437
bleed,438
blemish,439
blessed,440
blew,441
blind,442
blinded,443
blindly,444
bliss,445
bll,446
blog,447
blogpost,448
blogs,449
blogspam,450
bloom,451
blowhards,452
blue,453
bluemotion,454
blurred,455
board,456
boat,457
boating,458
boatload,459
bobby,460
bodies,461
body,462
bogus,463
bollocks,464
bollywood,465
bomb,466
bombing,467
boner,468
bong,469
bonus,470
book,471
bookmarked,472
books,473
border,474
bored,475
borg,476
born,477
boss,478
bosworth,479
both,480
bother,481
bothered,482
bought,483
bounce,484
bounds,485
bovine,486
bowtie,487
box,488
boy,489
bparsedtwodigitsc,490
bparsedtwodigitsm,491
brad,492
bragged,493
brain,494
brave,495
braves,496
bravo,497
break,498
breaking,499
breaks,500
breakthroughs,501
breeding,502
brewers,503
bribe,504
brick,505
briefcase,506
briefly,507
bright,508
bring,509
bringing,510
brings,511
broke,512
broken,513
brother,514
brothers,515
browser,516
browsers,517
brute,518
bs,519
btw,520
bubble,521
bubbles,522
bucks,523
budget,524
buffet,525
bug,526
build,527
builder,528
builders,529
building,530
built,531
bullets,532
bullshit,533
bum,534
bumble,535
bunch,536
bundle,537
bunker,538
buried,539
buries,540
burn,541
burning,542
burried,543
burrito,544
burrying,545
bury,546
bush,547
business,548
businesses,549
businessman,550
bust,551
busted,552
but,553
butt,554
butts,555
buy,556
buyers,557
buying,558
by,559
bypass,560
ca,561
cabinet,562
cafeteria,563
cage,564
cahoots,565
cali,566
calibrated,567
california,568
call,569
called,570
calls,571
cambodia,572
camcorder,573
came,574
camel,575
camera,576
caminiti,577
camp,578
campaign,579
camps,580
can,581
cancel,582
cancer,583
cannabis,584
cannot,585
canseco,586
cant,587
cap,588
capable,589
capitalism,590
capitalization,591
caps,592
captain,593
car,594
carbon,595
card,596
cardinals,597
care,598
career,599
careful,600
cares,601
carmen,602
carnival,603
carry,604
carrying,605
cars,606
cartridge,607
case,608
cases,609
cash,610
cashparsedonedigitgold,611
cat,612
catastrophic,613
catch,614
catchup,615
catechism,616
categorically,617
category,618
catholic,619
cats,620
caught,621
cause,622
caused,623
causes,624
causing,625
ce,626
celebrity,627
cell,628
cellphones,629
census,630
cent,631
centigrade,632
centrist,633
cents,634
century,635
certain,636
certainly,637
certainty,638
certifiable,639
certified,640
chad,641
chain,642
chair,643
chairman,644
challenging,645
champion,646
chance,647
chances,648
change,649
changes,650
changing,651
channels,652
character,653
characteristic,654
charge,655
charged,656
charger,657
chargers,658
charges,659
chastise,660
cheap,661
cheaper,662
cheated,663
cheaters,664
cheating,665
check,666
checker,667
cheer,668
cheers,669
chemical,670
chemically,671
cheney,672
chernobyl,673
chew,674
chicago,675
chickens,676
chief,677
child,678
childish,679
children,680
chimp,681
chimps,682
chinese,683
choice,684
choose,685
chosen,686
christ,687
christian,688
christianity,689
christians,690
christmas,691
christopher,692
church,693
churches,694
cia,695
circumstances,696
citations,697
cite,698
cities,699
citizen,700
citizens,701
city,702
civil,703
civilians,704
claim,705
claimed,706
claiming,707
class,708
classes,709
classic,710
classify,711
claus,712
clause,713
clean,714
cleaned,715
clear,716
clearly,717
clever,718
click,719
clicks,720
client,721
clients,722
climate,723
clinical,724
clinton,725
close,726
closed,727
closing,728
clothes,729
cloud,730
clown,731
clowns,732
club,733
clump,734
co,735
coal,736
coalition,737
cocaine,738
cockcroft,739
cockmeats,740
cocks,741
cocksuckers,742
code,743
codes,744
cofee,745
coffee,746
coherent,747
coincidence,748
coke,749
cokehead,750
colar,751
cold,752
collapse,753
collect,754
collection,755
college,756
colombiano,757
com,758
combinations,759
comcast,760
come,761
comedy,762
comes,763
comfort,764
comforting,765
comic,766
coming,767
comment,768
commentary,769
commented,770
commenting,771
comments,772
commercials,773
commericals,774
commit,775
commodity,776
common,777
communicate,778
communist,779
communists,780
communities,781
community,782
companies,783
company,784
comparable,785
compared,786
comparison,787
compass,788
compassion,789
compensate,790
compete,791
competent,792
competition,793
competitive,794
compile,795
compiles,796
complain,797
complaining,798
complains,799
complaints,800
complete,801
completely,802
compliance,803
complicated,804
complicating,805
composed,806
composite,807
comprehend,808
comprehension,809
comprised,810
compromise,811
compromised,812
computer,813
concept,814
concerned,815
concerning,816
conclusion,817
conclusive,818
condemning,819
condition,820
conditions,821
conduct,822
confederate,823
confidence,824
confident,825
configuration,826
confirmed,827
confirms,828
confiscated,829
conflict,830
confused,831
confusing,832
congratulations,833
congregate,834
congregation,835
congress,836
conjuring,837
connections,838
connects,839
consensus,840
consequence,841
consequences,842
conservative,843
conservatives,844
consider,845
considerable,846
considered,847
considering,848
considers,849
consistently,850
console,851
conspiracy,852
constant,853
constituents,854
constitutes,855
constitution,856
constitutionality,857
construction,858
consumer,859
consumption,860
contact,861
contained,862
containing,863
content,864
contests,865
context,866
continually,867
continue,868
continues,869
contracts,870
contradictory,871
contribute,872
contributes,873
contribution,874
control,875
controlled,876
controlling,877
controversial,878
controversy,879
conveniently,880
convert,881
converted,882
convicted,883
conviction,884
convictions,885
cool,886
cooler,887
coordination,888
cop,889
coparsedonedigit,890
copies,891
cops,892
copulating,893
copy,894
copying,895
copyright,896
copyrighted,897
copywritten,898
corel,899
cornerstone,900
corporate,901
corporates,902
corporations,903
correct,904
corrected,905
correctly,906
corrupt,907
corruption,908
corwin,909
cost,910
costs,911
costume,912
couch,913
could,914
couldn,915
counsel,916
counterparts,917
countries,918
country,919
county,920
couple,921
coupling,922
course,923
courses,924
court,925
courtesy,926
cover,927
coverage,928
covers,929
cowsay,930
crack,931
cracked,932
craft,933
crap,934
crash,935
crashing,936
crate,937
crazy,938
cream,939
create,940
created,941
creating,942
creative,943
creatures,944
credit,945
creditor,946
credits,947
creed,948
crime,949
crimes,950
criminal,951
criminals,952
criticize,953
critics,954
crook,955
cross,956
crowd,957
crucifixion,958
cruelty,959
cry,960
crying,961
cuba,962
cue,963
culprits,964
cult,965
cultural,966
culture,967
cunts,968
cup,969
curb,970
cure,971
curing,972
currency,973
current,974
currently,975
curse,976
curtain,977
curtis,978
curve,979
custom,980
cut,981
cute,982
cuts,983
cycle,984
cycles,985
cyprots,986
daft,987
dagger,988
daily,989
dal,990
damage,991
damn,992
damned,993
dance,994
dangerous,995
darcine,996
dark,997
darkshroud,998
darth,999
darwinism,1000
daschle,1001
data,1002
david,1003
day,1004
days,1005
dc,1006
dea,1007
dead,1008
deadpan,1009
deaf,1010
deal,1011
dealers,1012
deals,1013
dear,1014
death,1015
deaths,1016
debate,1017
debated,1018
debt,1019
december,1020
decent,1021
decide,1022
decided,1023
decision,1024
decisions,1025
declare,1026
declared,1027
decrease,1028
deduct,1029
deep,1030
deeper,1031
default,1032
defective,1033
defendent,1034
defense,1035
deficit,1036
deficits,1037
defined,1038
definitely,1039
deformities,1040
defunct,1041
degree,1042
degrees,1043
delete,1044
deliberately,1045
deliver,1046
dell,1047
dem,1048
demand,1049
demanding,1050
demands,1051
demint,1052
democracy,1053
democrat,1054
democratic,1055
democrats,1056
demoed,1057
dems,1058
denied,1059
denier,1060
denis,1061
department,1062
departments,1063
depends,1064
deployment,1065
depravity,1066
depreciation,1067
depressed,1068
depression,1069
deprogrammed,1070
described,1071
deserves,1072
deserving,1073
design,1074
desirable,1075
desire,1076
desires,1077
desks,1078
desperate,1079
desperately,1080
despite,1081
destroy,1082
destroyed,1083
destroying,1084
destruction,1085
detail,1086
detective,1087
determined,1088
detour,1089
detroit,1090
devalue,1091
developer,1092
developing,1093
development,1094
device,1095
devices,1096
devised,1097
devoted,1098
dhs,1099
diagnosed,1100
dialing,1101
dick,1102
dickhead,1103
did,1104
didn,1105
didnt,1106
die,1107
difference,1108
different,1109
difficult,1110
difficulties,1111
dig,1112
digg,1113
digger,1114
diggers,1115
digging,1116
diggs,1117
digital,1118
diminutive,1119
dimona,1120
dinosaur,1121
directed,1122
directly,1123
directors,1124
directory,1125
dirty,1126
disabled,1127
disagree,1128
disappear,1129
disappeared,1130
disappointed,1131
discipline,1132
disclosing,1133
discourse,1134
discover,1135
discovered,1136
discrimination,1137
discriminatory,1138
discuss,1139
discussed,1140
discussion,1141
disease,1142
diseases,1143
disgrace,1144
disgusting,1145
disordered,1146
disorders,1147
displayed,1148
disputes,1149
disqualification,1150
disregard,1151
distracted,1152
distribute,1153
distributed,1154
distributes,1155
distribution,1156
disturbing,1157
diverging,1158
diversity,1159
divinity,1160
division,1161
dns,1162
do,1163
doable,1164
doccasionally,1165
doccers,1166
doctor,1167
doctors,1168
doctrine,1169
document,1170
documentaries,1171
documentary,1172
documented,1173
does,1174
doesn,1175
dog,1176
dogs,1177
doing,1178
doings,1179
dollar,1180
dollars,1181
doma,1182
domain,1183
domains,1184
domestic,1185
domesticated,1186
domination,1187
don,1188
done,1189
dont,1190
doom,1191
door,1192
doors,1193
doosh,1194
dope,1195
doses,1196
double,1197
doubt,1198
douche,1199
douchebag,1200
dough,1201
down,1202
downey,1203
download,1204
downloading,1205
downloads,1206
dozen,1207
dp,1208
dragon,1209
drastic,1210
draw,1211
drawer,1212
dream,1213
dress,1214
drink,1215
drinker,1216
drinking,1217
drive,1218
drivel,1219
driven,1220
driver,1221
drivers,1222
drives,1223
driving,1224
drm,1225
drool,1226
drop,1227
dropped,1228
dropping,1229
drug,1230
drugs,1231
drunk,1232
dry,1233
ds,1234
duct,1235
dude,1236
due,1237
dugg,1238
dugout,1239
dumb,1240
dumber,1241
dumbs,1242
dumbya,1243
dump,1244
dunno,1245
duplicate,1246
duplicates,1247
during,1248
dust,1249
duty,1250
dvd,1251
dwindling,1252
dying,1253
each,1254
eager,1255
earc,1256
early,1257
earned,1258
earnings,1259
earth,1260
ease,1261
easier,1262
easily,1263
east,1264
easy,1265
eat,1266
ebonics,1267
ebook,1268
ebooks,1269
echelons,1270
eclectic,1271
economic,1272
economics,1273
economists,1274
economy,1275
ecstasy,1276
ed,1277
edit,1278
editor,1279
editorial,1280
edmonds,1281
educated,1282
education,1283
eeepc,1284
effect,1285
effective,1286
effort,1287
efforts,1288
eg,1289
ego,1290
egypt,1291
ehhhhh,1292
eight,1293
either,1294
elderly,1295
elected,1296
election,1297
electric,1298
electrical,1299
electronic,1300
elementary,1301
eligible,1302
ellis,1303
else,1304
em,1305
email,1306
embargo,1307
embarrass,1308
embarrassment,1309
embarrassments,1310
emergency,1311
eminem,1312
emissions,1313
emmanuel,1314
emotional,1315
employed,1316
employees,1317
employers,1318
employment,1319
empty,1320
encarta,1321
encounter,1322
encourage,1323
encourages,1324
end,1325
ending,1326
endorsed,1327
ends,1328
energy,1329
enforced,1330
enforcement,1331
engaged,1332
engine,1333
engineering,1334
engineeringaficionado,1335
england,1336
english,1337
enhanced,1338
enhancement,1339
enjoy,1340
enjoyed,1341
enough,1342
enron,1343
ensure,1344
enthusiasm,1345
entire,1346
entirely,1347
entirety,1348
entrpeneur,1349
enviro,1350
environment,1351
ep,1352
epic,1353
episode,1354
equal,1355
equally,1356
equals,1357
equation,1358
equipment,1359
equivalent,1360
er,1361
erase,1362
ericsccparsedonedigitdemocrats,1363
erode,1364
errands,1365
errors,1366
escape,1367
especially,1368
essence,1369
essentially,1370
established,1371
estimate,1372
et,1373
etc,1374
ethanol,1375
ethics,1376
ethnic,1377
etiquette,1378
europeans,1379
evaporate,1380
evasion,1381
even,1382
event,1383
events,1384
eventually,1385
ever,1386
every,1387
everyone,1388
everything,1389
everywhere,1390
evidence,1391
evidently,1392
evil,1393
evolution,1394
ex,1395
exact,1396
exacting,1397
exactly,1398
examined,1399
example,1400
examples,1401
excellent,1402
except,1403
exceptional,1404
excesses,1405
excessive,1406
excuse,1407
execs,1408
execute,1409
executive,1410
executives,1411
exercise,1412
exhausted,1413
exhibitions,1414
exist,1415
existed,1416
existing,1417
exists,1418
exorbitant,1419
expect,1420
expectations,1421
expected,1422
expecting,1423
expense,1424
expenses,1425
expensive,1426
experience,1427
experiments,1428
explain,1429
explains,1430
explanation,1431
exploded,1432
explodes,1433
export,1434
exposed,1435
exposes,1436
express,1437
extended,1438
exterminated,1439
extinct,1440
extra,1441
extras,1442
extreme,1443
extremely,1444
extremes,1445
eye,1446
eyes,1447
fa,1448
face,1449
facebook,1450
faces,1451
facilities,1452
facility,1453
fact,1454
factor,1455
factors,1456
facts,1457
factually,1458
fag,1459
faggot,1460
fags,1461
fail,1462
failed,1463
failing,1464
fails,1465
failure,1466
fair,1467
fairly,1468
fake,1469
fallacy,1470
falls,1471
false,1472
families,1473
family,1474
fanboy,1475
fancy,1476
fannie,1477
fans,1478
fantastic,1479
fantasy,1480
fap,1481
fapping,1482
far,1483
farms,1484
fashion,1485
fast,1486
fastball,1487
faster,1488
fastest,1489
fat,1490
fatest,1491
fathers,1492
fatigue,1493
fault,1494
faults,1495
fauna,1496
favor,1497
favorite,1498
favorites,1499
favour,1500
favoured,1501
fear,1502
fears,1503
feasible,1504
feature,1505
features,1506
featuring,1507
fed,1508
federal,1509
fedex,1510
feed,1511
feeds,1512
feel,1513
feeling,1514
feels,1515
feet,1516
felines,1517
fella,1518
fellow,1519
felon,1520
felonies,1521
felt,1522
fema,1523
female,1524
females,1525
fertility,1526
fertilization,1527
few,1528
fewer,1529
ff,1530
fffffsssorry,1531
ffs,1532
fiction,1533
field,1534
fight,1535
fighters,1536
fighting,1537
figure,1538
figured,1539
file,1540
files,1541
filetype,1542
filing,1543
fill,1544
filled,1545
fillion,1546
film,1547
filter,1548
filters,1549
final,1550
finally,1551
finances,1552
financial,1553
find,1554
finding,1555
fine,1556
fing,1557
finish,1558
fire,1559
firearm,1560
firearms,1561
firebugs,1562
firefox,1563
fires,1564
firetrucks,1565
firm,1566
firms,1567
first,1568
fiscal,1569
fist,1570
fix,1571
fixed,1572
fl,1573
flash,1574
flattery,1575
flavored,1576
flood,1577
flooded,1578
floods,1579
floor,1580
floppy,1581
flowers,1582
fly,1583
flyballs,1584
flying,1585
focus,1586
folks,1587
follow,1588
following,1589
food,1590
fool,1591
foolish,1592
foolishly,1593
foolishness,1594
fools,1595
football,1596
footprint,1597
for,1598
force,1599
forced,1600
forces,1601
ford,1602
forecefully,1603
foreign,1604
forensic,1605
forest,1606
forever,1607
forfeit,1608
forget,1609
forgive,1610
forklift,1611
forks,1612
form,1613
format,1614
formats,1615
formatted,1616
former,1617
fortunately,1618
forums,1619
forward,1620
fossil,1621
fought,1622
foul,1623
found,1624
founding,1625
four,1626
fox,1627
fp,1628
fparsedonedigit,1629
frame,1630
franklin,1631
fraud,1632
freak,1633
freakin,1634
freddie,1635
free,1636
freedom,1637
freely,1638
frequently,1639
freudian,1640
friend,1641
friends,1642
from,1643
front,1644
frontpage,1645
frost,1646
frowns,1647
fta,1648
ftp,1649
fu,1650
fuck,1651
fucked,1652
fuckin,1653
fucking,1654
fucktard,1655
fuel,1656
fuels,1657
fulfill,1658
full,1659
fully,1660
fun,1661
function,1662
functioning,1663
functions,1664
fundamental,1665
funding,1666
funds,1667
fungi,1668
fungieparsedonedigit,1669
funnier,1670
funny,1671
furious,1672
further,1673
fusion,1674
future,1675
futuristic,1676
fuuuuuuuuuuuuuuuuuuuuuuuuuuuuuuuckwatch,1677
fuzzy,1678
fæces,1679
gain,1680
gained,1681
gains,1682
galactica,1683
gallon,1684
gamble,1685
game,1686
games,1687
gamevee,1688
gaming,1689
ganged,1690
gaqua,1691
gas,1692
gate,1693
gates,1694
gather,1695
gave,1696
gay,1697
gbvista,1698
gdp,1699
gear,1700
gee,1701
geek,1702
general,1703
generalizing,1704
generally,1705
generated,1706
generation,1707
genitalia,1708
genitals,1709
genius,1710
genuine,1711
geo,1712
geoblocking,1713
german,1714
germans,1715
germany,1716
gestapo,1717
get,1718
gets,1719
getting,1720
getup,1721
giants,1722
gifts,1723
gin,1724
girl,1725
girls,1726
give,1727
given,1728
gives,1729
giving,1730
glad,1731
glasses,1732
global,1733
globe,1734
glowing,1735
gm,1736
gmail,1737
gneural,1738
go,1739
goat,1740
goatee,1741
god,1742
goddamn,1743
goes,1744
goggles,1745
goin,1746
going,1747
gold,1748
golden,1749
gone,1750
gonna,1751
good,1752
goods,1753
google,1754
gop,1755
gorilla,1756
got,1757
gotta,1758
governed,1759
government,1760
gpparsedonedigitx,1761
grabber,1762
grad,1763
grades,1764
graduate,1765
grammar,1766
grand,1767
grandparents,1768
grandstanding,1769
granny,1770
grant,1771
granted,1772
grants,1773
grasp,1774
great,1775
greatest,1776
greed,1777
greedy,1778
green,1779
greeter,1780
gregg,1781
grievance,1782
gross,1783
ground,1784
group,1785
groups,1786
grow,1787
growing,1788
grown,1789
grows,1790
gsp,1791
guard,1792
guess,1793
guilty,1794
guitar,1795
gump,1796
gun,1797
guns,1798
guy,1799
guys,1800
ha,1801
habit,1802
hack,1803
hackers,1804
hacks,1805
had,1806
hah,1807
haha,1808
hahah,1809
hahahahaha,1810
hahahahi,1811
haircut,1812
half,1813
hall,1814
hamas,1815
hammer,1816
hand,1817
handed,1818
handicapped,1819
handing,1820
handle,1821
handling,1822
hang,1823
hannah,1824
happen,1825
happened,1826
happening,1827
happens,1828
happiness,1829
happy,1830
harbor,1831
harboring,1832
hard,1833
harder,1834
hardly,1835
hardware,1836
harmful,1837
harmless,1838
harness,1839
harrison,1840
harvard,1841
has,1842
hasn,1843
hat,1844
hate,1845
hated,1846
hatred,1847
have,1848
haven,1849
havent,1850
having,1851
hazard,1852
he,1853
head,1854
headed,1855
headline,1856
heads,1857
headshot,1858
health,1859
healthcare,1860
healthier,1861
healthy,1862
heaps,1863
hear,1864
heard,1865
hears,1866
heart,1867
heath,1868
heavy,1869
heck,1870
hedge,1871
hefty,1872
heheh,1873
height,1874
held,1875
helicopter,1876
hell,1877
hello,1878
helluva,1879
helmsley,1880
help,1881
helping,1882
her,1883
herbs,1884
here,1885
hero,1886
heroes,1887
heroin,1888
herpes,1889
hers,1890
hes,1891
hey,1892
hezbollah,1893
hi,1894
hidden,1895
hide,1896
high,1897
higher,1898
highest,1899
highlights,1900
highly,1901
hijab,1902
hilarious,1903
hilariously,1904
hill,1905
him,1906
himself,1907
hint,1908
hippocratic,1909
hiring,1910
his,1911
history,1912
hit,1913
hitler,1914
hitters,1915
hmm,1916
hmmm,1917
hmo,1918
hmos,1919
hold,1920
holder,1921
holding,1922
hole,1923
holes,1924
hollywood,1925
holocaust,1926
holy,1927
home,1928
homeless,1929
homers,1930
homerun,1931
hominem,1932
homosexual,1933
homosexuality,1934
homosexuals,1935
honest,1936
honestly,1937
honesty,1938
honey,1939
honored,1940
hook,1941
hooker,1942
hoopla,1943
hooray,1944
hoot,1945
hope,1946
hopeless,1947
hoping,1948
horizon,1949
horizontal,1950
horizontally,1951
horrible,1952
horrific,1953
horror,1954
hospital,1955
hot,1956
hottest,1957
hour,1958
hours,1959
house,1960
houses,1961
housing,1962
houstonpress,1963
how,1964
howard,1965
however,1966
htc,1967
htpc,1968
hubris,1969
huffington,1970
huge,1971
human,1972
humanity,1973
hummers,1974
humor,1975
humorous,1976
hundred,1977
hundreds,1978
hungry,1979
hunt,1980
hunter,1981
hurricane,1982
hurried,1983
hurt,1984
hurts,1985
husband,1986
hybrid,1987
hybrids,1988
hydro,1989
hype,1990
hypocrisy,1991
hysterical,1992
iajdsiofajsuparsedtwodigitsiparsedfivedigits,1993
ianal,1994
iasoparsedfourdigits,1995
icbms,1996
ice,1997
iceberg,1998
icon,1999
idea,2000
ideal,2001
ideals,2002
ideas,2003
identity,2004
ideology,2005
idiot,2006
idiotic,2007
idiots,2008
ie,2009
if,2010
ifpa,2011
ignorance,2012
ignore,2013
ignored,2014
ignoring,2015
ii,2016
ilk,2017
illegal,2018
illness,2019
illnesses,2020
illogical,2021
im,2022
image,2023
imagery,2024
images,2025
imagine,2026
imbalance,2027
imho,2028
immigrants,2029
immortal,2030
immune,2031
immunity,2032
impact,2033
impared,2034
impartial,2035
impending,2036
implanting,2037
implement,2038
implemented,2039
important,2040
impose,2041
imposed,2042
impossible,2043
impressive,2044
improve,2045
improvements,2046
improving,2047
in,2048
inaccuracy,2049
inaccurate,2050
inch,2051
inciting,2052
inclination,2053
include,2054
included,2055
includes,2056
including,2057
incoherent,2058
income,2059
incoming,2060
incorrect,2061
increase,2062
increased,2063
increases,2064
increasing,2065
incredible,2066
incredibly,2067
incumbents,2068
indeed,2069
indefinitely,2070
independence,2071
independent,2072
indian,2073
indians,2074
indication,2075
individual,2076
individuals,2077
induces,2078
industrial,2079
industry,2080
ineligible,2081
infamous,2082
infection,2083
infections,2084
influence,2085
influences,2086
info,2087
information,2088
informative,2089
informed,2090
infrastructure,2091
infringe,2092
ing,2093
inhaling,2094
inherit,2095
inhofe,2096
initiative,2097
injure,2098
injured,2099
injury,2100
innings,2101
innnovators,2102
innocent,2103
innovation,2104
innovative,2105
input,2106
insane,2107
insecurities,2108
insignificant,2109
insignificantly,2110
insinuation,2111
inspections,2112
install,2113
installation,2114
installing,2115
installment,2116
instant,2117
instantly,2118
instead,2119
instinct,2120
institutions,2121
instruction,2122
insult,2123
insurance,2124
int,2125
integrate,2126
intelligence,2127
intelligent,2128
intelligentsia,2129
intend,2130
intense,2131
intensity,2132
interception,2133
interest,2134
interesting,2135
internal,2136
internet,2137
internets,2138
interpretation,2139
intervention,2140
interventionist,2141
into,2142
intoxicated,2143
intrepidia,2144
intrinsic,2145
intro,2146
introduced,2147
introduction,2148
invade,2149
invaluable,2150
invented,2151
invest,2152
investigate,2153
investigated,2154
investigating,2155
investigation,2156
investment,2157
invisible,2158
invoked,2159
involved,2160
involvement,2161
involves,2162
iparsedthreedigits,2163
iphone,2164
ipod,2165
ipvparsedonedigit,2166
iq,2167
iran,2168
iranain,2169
iranian,2170
irish,2171
ironic,2172
irrational,2173
irrelevant,2174
irrelevent,2175
irresponsible,2176
irvine,2177
is,2178
ish,2179
islam,2180
islamic,2181
island,2182
isn,2183
isnt,2184
isolate,2185
isps,2186
israel,2187
issue,2188
isyeah,2189
it,2190
its,2191
itself,2192
ivy,2193
ixam,2194
ixquick,2195
jack,2196
jackals,2197
jacket,2198
jail,2199
jakarta,2200
january,2201
japan,2202
japanese,2203
jason,2204
jealous,2205
jefferson,2206
jessica,2207
jesus,2208
jesusneverexisted,2209
jewish,2210
jews,2211
jfc,2212
jimmy,2213
jinandjuice,2214
job,2215
jobs,2216
jogging,2217
john,2218
join,2219
joined,2220
joke,2221
jokes,2222
jon,2223
joomla,2224
journalist,2225
journalists,2226
jr,2227
judge,2228
judging,2229
jumbo,2230
jump,2231
june,2232
junior,2233
junk,2234
jury,2235
just,2236
justice,2237
justices,2238
justification,2239
justify,2240
justifying,2241
juvenile,2242
kabbalah,2243
kanye,2244
karl,2245
kate,2246
katt,2247
kde,2248
keep,2249
keepers,2250
keeps,2251
keg,2252
kegs,2253
ken,2254
kenneth,2255
kenyans,2256
kept,2257
kerrigore,2258
ketchup,2259
kevin,2260
key,2261
keyboard,2262
keynesianism,2263
keys,2264
kick,2265
kicked,2266
kid,2267
kidd,2268
kidding,2269
kids,2270
kill,2271
killed,2272
killing,2273
killings,2274
kills,2275
kilo,2276
kimmel,2277
kind,2278
kinda,2279
kindergarten,2280
kindle,2281
kinds,2282
kingdom,2283
kinseyincanada,2284
kkk,2285
knew,2286
knock,2287
knocked,2288
know,2289
knowing,2290
knowingly,2291
knowledge,2292
known,2293
knows,2294
kool,2295
koranimals,2296
korea,2297
kotaku,2298
krause,2299
krazy,2300
kroeger,2301
krugman,2302
kung,2303
kyl,2304
lab,2305
labor,2306
labyrinth,2307
laced,2308
lack,2309
laid,2310
lake,2311
lamb,2312
lame,2313
land,2314
language,2315
languages,2316
lantern,2317
lap,2318
large,2319
largely,2320
largest,2321
larry,2322
lasers,2323
last,2324
late,2325
lately,2326
later,2327
laugh,2328
laughable,2329
laughing,2330
laughter,2331
launched,2332
laundry,2333
law,2334
lawmakers,2335
lawn,2336
laws,2337
lawyers,2338
lay,2339
layer,2340
layoff,2341
ld,2342
leach,2343
leaches,2344
lead,2345
leaders,2346
leadership,2347
league,2348
leaked,2349
leaps,2350
learn,2351
learned,2352
leash,2353
least,2354
leave,2355
leaves,2356
leaving,2357
ledger,2358
leed,2359
leeds,2360
leet,2361
left,2362
lefties,2363
leftist,2364
leftists,2365
leftost,2366
legal,2367
legalization,2368
legalize,2369
legalized,2370
legalizing,2371
legally,2372
legislation,2373
legislative,2374
legit,2375
lego,2376
legs,2377
lemur,2378
lenders,2379
lends,2380
leona,2381
leopard,2382
lesbians,2383
less,2384
lessons,2385
lest,2386
let,2387
lets,2388
letting,2389
level,2390
levels,2391
lgbt,2392
li,2393
liar,2394
libel,2395
liberal,2396
liberties,2397
libs,2398
libtards,2399
licencing,2400
license,2401
licensed,2402
lie,2403
lies,2404
life,2405
lifehacker,2406
lift,2407
light,2408
like,2409
likely,2410
likeness,2411
likes,2412
lil,2413
limited,2414
limits,2415
limo,2416
lincoln,2417
line,2418
lines,2419
link,2420
linked,2421
links,2422
list,2423
listen,2424
listened,2425
listening,2426
lists,2427
literal,2428
literally,2429
little,2430
live,2431
lives,2432
living,2433
ll,2434
load,2435
loan,2436
loans,2437
local,2438
locally,2439
locked,2440
log,2441
logic,2442
logo,2443
logon,2444
lol,2445
lold,2446
lolwatdammit,2447
long,2448
longer,2449
longstanding,2450
look,2451
looked,2452
looking,2453
looks,2454
lookup,2455
lookups,2456
looses,2457
lord,2458
los,2459
lose,2460
loser,2461
losing,2462
loss,2463
losses,2464
lost,2465
lot,2466
lots,2467
lousy,2468
love,2469
loved,2470
loveless,2471
lovelyness,2472
loves,2473
low,2474
lowcountry,2475
lower,2476
lowering,2477
loyola,2478
luck,2479
lucky,2480
lucy,2481
lump,2482
lunch,2483
lying,2484
lyrics,2485
mac,2486
macbook,2487
macbooks,2488
machine,2489
machines,2490
macintosh,2491
made,2492
madness,2493
mae,2494
mah,2495
mail,2496
maimed,2497
main,2498
maine,2499
mainstream,2500
maintenance,2501
major,2502
majoring,2503
majority,2504
make,2505
makers,2506
makes,2507
making,2508
malaria,2509
male,2510
malfunctioning,2511
malls,2512
man,2513
managed,2514
mandated,2515
mandates,2516
mandatory,2517
maniac,2518
manifesto,2519
manipulating,2520
mans,2521
mantra,2522
manufacture,2523
manufacturers,2524
many,2525
marcia,2526
marginalizing,2527
marijuana,2528
market,2529
marketing,2530
marq,2531
marriage,2532
marriages,2533
married,2534
marry,2535
martinez,2536
marxism,2537
marxists,2538
mash,2539
mass,2540
massively,2541
master,2542
match,2543
mate,2544
material,2545
math,2546
matter,2547
matters,2548
maximum,2549
may,2550
maybe,2551
mayer,2552
mayor,2553
mba,2554
mccain,2555
mcdonalds,2556
mcmansions,2557
me,2558
mead,2559
meager,2560
mean,2561
meanie,2562
means,2563
meant,2564
measurement,2565
mechanical,2566
media,2567
medicaid,2568
medical,2569
medicare,2570
medication,2571
medications,2572
medicine,2573
meds,2574
meet,2575
meh,2576
mel,2577
melbourne,2578
meltdown,2579
members,2580
membership,2581
meme,2582
memorable,2583
memories,2584
memorization,2585
men,2586
mental,2587
mentality,2588
mentally,2589
mention,2590
mentioned,2591
merch,2592
merdieselnail,2593
merely,2594
mesmerizing,2595
mess,2596
message,2597
messed,2598
messiuh,2599
metal,2600
meth,2601
methanol,2602
method,2603
methods,2604
mets,2605
mexico,2606
michael,2607
microbiology,2608
microcosim,2609
microorganism,2610
microsecond,2611
microsoft,2612
mid,2613
middle,2614
might,2615
mighty,2616
mike,2617
miknarf,2618
mile,2619
mileage,2620
military,2621
milk,2622
million,2623
millionaire,2624
millions,2625
mind,2626
minded,2627
mine,2628
minerals,2629
miners,2630
mini,2631
minimal,2632
minimizes,2633
minimum,2634
minnesota,2635
minor,2636
minority,2637
minute,2638
minutes,2639
mirrored,2640
miserable,2641
misguided,2642
misinterpret,2643
misleading,2644
misrepresenting,2645
miss,2646
missed,2647
missing,2648
mission,2649
mistake,2650
mistaken,2651
mmm,2652
moan,2653
moans,2654
mob,2655
mobile,2656
model,2657
modernization,2658
molester,2659
mom,2660
moment,2661
moms,2662
monarchy,2663
money,2664
mongers,2665
monitor,2666
monkeybusiness,2667
monster,2668
montana,2669
month,2670
months,2671
mootools,2672
moral,2673
morality,2674
morally,2675
morals,2676
more,2677
moreso,2678
morning,2679
moron,2680
morons,2681
mortgage,2682
mortgages,2683
most,2684
mostly,2685
mother,2686
motherf,2687
motherfuckers,2688
mothers,2689
motion,2690
motivations,2691
motofone,2692
motorola,2693
mouths,2694
move,2695
moved,2696
movement,2697
moveon,2698
movie,2699
movies,2700
moving,2701
mowe,2702
mozart,2703
mpaa,2704
mpparsedonedigit,2705
mpparsedonedigits,2706
mpxparsedthreedigits,2707
mrbabyman,2708
ms,2709
muahahahahaha,2710
much,2711
muck,2712
mucking,2713
muhammad,2714
mumbai,2715
mumbo,2716
munchies,2717
muppets,2718
murder,2719
murdered,2720
murderous,2721
music,2722
muslim,2723
muslims,2724
must,2725
mvc,2726
mweather,2727
my,2728
mypc,2729
myself,2730
mystery,2731
mytown,2732
nah,2733
nail,2734
name,2735
named,2736
namely,2737
nancy,2738
narcotics,2739
nathan,2740
nation,2741
national,2742
nationalist,2743
nationalization,2744
nationhood,2745
nations,2746
natives,2747
natural,2748
naturally,2749
nature,2750
nazi,2751
nearly,2752
necessarily,2753
necessary,2754
need,2755
needed,2756
needs,2757
negate,2758
negative,2759
negligible,2760
neighborhood,2761
neighborhoods,2762
neighbors,2763
neither,2764
neo,2765
net,2766
netted,2767
network,2768
networks,2769
never,2770
new,2771
news,2772
newses,2773
newspapers,2774
newsworthy,2775
next,2776
ng,2777
nice,2778
nicely,2779
niconiconico,2780
nietzsche,2781
night,2782
nightmare,2783
nine,2784
ninja,2785
nintendo,2786
nite,2787
no,2788
nobel,2789
noble,2790
nobody,2791
nodes,2792
nodparsedtwodigits,2793
noise,2794
nokia,2795
non,2796
nonconformist,2797
none,2798
noob,2799
nooooo,2800
noooooo,2801
nope,2802
nor,2803
normal,2804
normally,2805
north,2806
northeast,2807
northwatuppa,2808
norton,2809
nose,2810
not,2811
note,2812
nothing,2813
nothingness,2814
notice,2815
notting,2816
noumuon,2817
noun,2818
novels,2819
november,2820
now,2821
nowhere,2822
noxious,2823
nparsedthreedigits,2824
nsw,2825
ntfs,2826
nuclear,2827
nuke,2828
number,2829
numbers,2830
nut,2831
nutcases,2832
nuts,2833
nvidia,2834
nwo,2835
o_o,2836
o_parsedonedigit,2837
oak,2838
oaksterdam,2839
oath,2840
obam,2841
obama,2842
object,2843
objectively,2844
obligation,2845
obligatory,2846
obscure,2847
obvious,2848
obviously,2849
occasional,2850
occupation,2851
occurred,2852
ocean,2853
of,2854
off,2855
offending,2856
offensive,2857
offer,2858
office,2859
officers,2860
official,2861
often,2862
oh,2863
ohshi,2864
oifdasparsedonedigitifasparsedthreedigits,2865
oil,2866
ok,2867
okay,2868
oklahoma,2869
old,2870
on,2871
once,2872
one,2873
ones,2874
online,2875
only,2876
onlywire,2877
onto,2878
ooh,2879
ooooooohhhhhhh,2880
op,2881
opelz,2882
open,2883
opened,2884
opens,2885
opera,2886
operating,2887
opinion,2888
opportunity,2889
oppose,2890
opposed,2891
opposing,2892
oprah,2893
opt,2894
opted,2895
optimally,2896
option,2897
options,2898
or,2899
orange,2900
order,2901
ordinary,2902
oregon,2903
oregonian,2904
org,2905
orientation,2906
original,2907
os,2908
osama,2909
oscar,2910
osx,2911
ot,2912
other,2913
others,2914
otherwise,2915
oui,2916
our,2917
ours,2918
ourselves,2919
out,2920
outcome,2921
outcry,2922
outright,2923
outside,2924
over,2925
overall,2926
overhaul,2927
overkill,2928
overload,2929
overpowered,2930
overreaction,2931
overthrow,2932
overtime,2933
overused,2934
owl,2935
own,2936
owner,2937
owners,2938
owning,2939
owns,2940
pack,2941
package,2942
packaging,2943
packed,2944
packet,2945
packing,2946
padded,2947
page,2948
pages,2949
paid,2950
pair,2951
palin,2952
palmero,2953
palooza,2954
panda,2955
pandas,2956
pandering,2957
pandora,2958
pants,2959
paper,2960
paperwork,2961
par,2962
parachute,2963
paragraph,2964
parallel,2965
parent,2966
parents,2967
park,2968
parole,2969
parseddigits,2970
parseddigitsdparsedonedigitc,2971
parseddigitsebc,2972
parseddigitsjkasdaopd,2973
parsedfivedigits,2974
parsedfourdigits,2975
parsedfourdigitsathlon,2976
parsedfourdigitsoijdf,2977
parsedfourdigitswho,2978
parsedonedigit,2979
parsedonedigitchan,2980
parsedonedigitcparseddigitsa,2981
parsedonedigitd,2982
parsedonedigitdfparsedonedigit,2983
parsedonedigitebparsedonedigit,2984
parsedonedigitgw,2985
parsedonedigitst,2986
parsedonedigitth,2987
parsedonedigitx,2988
parsedthreedigits,2989
parsedthreedigitsd,2990
parsedthreedigitsk,2991
parsedthreedigitskz,2992
parsedthreedigitslbs,2993
parsedtime,2994
parsedtwodigits,2995
parsedtwodigitsaparsedonedigit,2996
parsedtwodigitsgb,2997
parsedtwodigitsgrand,2998
parsedtwodigitsk,2999
parsedtwodigitsmillion,3000
parsedtwodigitss,3001
part,3002
particular,3003
particularly,3004
parties,3005
partisan,3006
partner,3007
partners,3008
parts,3009
party,3010
pass,3011
passed,3012
passenger,3013
passes,3014
passwindow,3015
password,3016
past,3017
pasteurization,3018
patently,3019
path,3020
pathetic,3021
patrick,3022
patriot,3023
patterns,3024
paul,3025
pawn,3026
pay,3027
paygrade,3028
payment,3029
payments,3030
pays,3031
pc,3032
pcp,3033
peace,3034
peaceful,3035
peaches,3036
pearl,3037
pedobears,3038
pedophiles,3039
peds,3040
peers,3041
pelosi,3042
pelt,3043
penalizes,3044
penalty,3045
penance,3046
penises,3047
people,3048
per,3049
percent,3050
percentages,3051
perception,3052
perfect,3053
perfectly,3054
performed,3055
perhaps,3056
periods,3057
permanence,3058
permissible,3059
permissions,3060
perpetuates,3061
person,3062
persona,3063
personal,3064
personality,3065
personally,3066
persons,3067
perversity,3068
pet,3069
peter,3070
pets,3071
pgood,3072
ph,3073
pharma,3074
pharmaceutical,3075
phelps,3076
phone,3077
phones,3078
photo,3079
photos,3080
phrase,3081
physical,3082
physically,3083
pic,3084
picard,3085
picked,3086
picker,3087
pics,3088
picture,3089
pie,3090
piece,3091
pieces,3092
pills,3093
pilot,3094
pink,3095
pint,3096
pipe,3097
pirate,3098
pissed,3099
pissing,3100
pistol,3101
pitcher,3102
pitchers,3103
pitches,3104
pitching,3105
pitt,3106
place,3107
placement,3108
plain,3109
plan,3110
plane,3111
planet,3112
planets,3113
planning,3114
plant,3115
plants,3116
platform,3117
play,3118
played,3119
player,3120
players,3121
playing,3122
pleaded,3123
please,3124
plenty,3125
plug,3126
plural,3127
plurality,3128
plus,3129
pm,3130
pnac,3131
pocket,3132
pocketbook,3133
pockets,3134
point,3135
points,3136
poison,3137
poisoning,3138
poitier,3139
pole,3140
poles,3141
police,3142
policy,3143
political,3144
politically,3145
politicians,3146
politiciansgo,3147
politics,3148
ponzi,3149
poor,3150
poorer,3151
pop,3152
popular,3153
population,3154
pork,3155
porn,3156
pornography,3157
portion,3158
position,3159
positions,3160
possession,3161
possessive,3162
possible,3163
possibly,3164
post,3165
posted,3166
poster,3167
posting,3168
postponed,3169
pot,3170
potentially,3171
potheads,3172
pounds,3173
power,3174
powerful,3175
pox,3176
ppl,3177
practical,3178
practice,3179
practiced,3180
practicing,3181
praying,3182
pre,3183
preaching,3184
precedent,3185
precisely,3186
predicting,3187
preference,3188
preferential,3189
pregnant,3190
preinstalled,3191
premise,3192
premiums,3193
preparation,3194
present,3195
presented,3196
preserve,3197
presidency,3198
president,3199
press,3200
presses,3201
pretend,3202
pretends,3203
pretty,3204
prevent,3205
previous,3206
price,3207
prices,3208
prick,3209
priest,3210
primarily,3211
principles,3212
print,3213
printed,3214
printing,3215
prior,3216
priority,3217
prison,3218
prisoners,3219
prisons,3220
privacy,3221
private,3222
privately,3223
privilege,3224
prize,3225
pro,3226
probably,3227
probed,3228
problem,3229
problems,3230
probs,3231
procedures,3232
process,3233
procreate,3234
produce,3235
produced,3236
producer,3237
product,3238
production,3239
productive,3240
products,3241
professional,3242
professionally,3243
professors,3244
profit,3245
profitable,3246
profitactually,3247
profiteer,3248
program,3249
programs,3250
progress,3251
project,3252
projects,3253
prominent,3254
promise,3255
promised,3256
promotes,3257
promoting,3258
promotion,3259
proof,3260
prop,3261
propaganda,3262
propeller,3263
proper,3264
properly,3265
properties,3266
property,3267
prophet,3268
proponents,3269
proportion,3270
proposed,3271
props,3272
prosecution,3273
prosecutors,3274
prostitue,3275
prostitute,3276
protect,3277
protecting,3278
protectionism,3279
protein,3280
prove,3281
proved,3282
proven,3283
provide,3284
provided,3285
providing,3286
provision,3287
provisions,3288
proxies,3289
proxy,3290
ps,3291
psa,3292
pseudo,3293
psn,3294
psst,3295
psych,3296
psychiatric,3297
psychiatrist,3298
psycho,3299
psychological,3300
public,3301
publicity,3302
publicly,3303
pubs,3304
pudge,3305
pull,3306
pulled,3307
pulling,3308
punch,3309
pundits,3310
punished,3311
punishment,3312
purchases,3313
pure,3314
purse,3315
pursued,3316
pursuits,3317
push,3318
pushed,3319
pussy,3320
put,3321
puts,3322
putting,3323
puzzle,3324
pv,3325
pyramid,3326
qld,3327
qm,3328
quakeholio,3329
quality,3330
quantities,3331
quantity,3332
quantum,3333
question,3334
questioned,3335
questioning,3336
questions,3337
quick,3338
quiet,3339
quit,3340
quite,3341
quote,3342
quoted,3343
qwest,3344
rabbit,3345
race,3346
racism,3347
racist,3348
radical,3349
raffled,3350
rafikichi,3351
raging,3352
rahm,3353
raids,3354
raise,3355
raised,3356
raising,3357
rajim,3358
ram,3359
ramen,3360
rampant,3361
ranch,3362
random,3363
range,3364
ranging,3365
ranked,3366
ranking,3367
rant,3368
ranting,3369
rape,3370
rapidly,3371
rarely,3372
rate,3373
rates,3374
rather,3375
rating,3376
rational,3377
raving,3378
ray,3379
re,3380
reaction,3381
reactor,3382
read,3383
readable,3384
readers,3385
reading,3386
readjust,3387
ready,3388
real,3389
realise,3390
reality,3391
realize,3392
realized,3393
really,3394
reason,3395
reasonable,3396
reasonably,3397
reasons,3398
recall,3399
receive,3400
received,3401
receives,3402
receiving,3403
recent,3404
recently,3405
recession,3406
recipe,3407
recognise,3408
recognize,3409
record,3410
recorded,3411
recording,3412
records,3413
recover,3414
recovery,3415
red,3416
redeye,3417
reduce,3418
reduction,3419
reeve,3420
reference,3421
refers,3422
reflected,3423
refreshing,3424
refused,3425
regard,3426
regarding,3427
regardless,3428
regimes,3429
region,3430
regret,3431
regular,3432
regularly,3433
regulation,3434
rehabilitation,3435
reilly,3436
reinstate,3437
reinvestment,3438
rejected,3439
related,3440
relationship,3441
relatively,3442
release,3443
released,3444
releases,3445
relegated,3446
relevant,3447
relics,3448
relief,3449
religion,3450
religions,3451
religious,3452
reloading,3453
relying,3454
remains,3455
remaking,3456
remember,3457
reminded,3458
reminds,3459
remorse,3460
removal,3461
remove,3462
removed,3463
render,3464
rendition,3465
renegotiate,3466
renovate,3467
renovation,3468
renovations,3469
rent,3470
repair,3471
repayment,3472
repeal,3473
repealed,3474
repeat,3475
repeatedly,3476
replace,3477
replenished,3478
reports,3479
represent,3480
representation,3481
represents,3482
reproach,3483
reptilians,3484
republic,3485
republican,3486
republicans,3487
republicrats,3488
republithug,3489
requests,3490
require,3491
required,3492
requires,3493
rescue,3494
research,3495
reserve,3496
reserved,3497
resign,3498
resin,3499
resource,3500
resources,3501
respect,3502
responding,3503
response,3504
responsibility,3505
responsible,3506
rest,3507
restriction,3508
restrictions,3509
result,3510
results,3511
retarded,3512
retire,3513
retrace,3514
retribution,3515
return,3516
returned,3517
revealing,3518
revenge,3519
reverse,3520
reversing,3521
reviever,3522
review,3523
reviewer,3524
reviews,3525
revolt,3526
revolution,3527
rewarding,3528
riaa,3529
rib,3530
rich,3531
rick,3532
rid,3533
ridden,3534
ride,3535
ridiculous,3536
rifle,3537
rifles,3538
rig,3539
right,3540
rights,3541
rino,3542
rinse,3543
ripp,3544
rips,3545
rise,3546
risks,3547
rivals,3548
river,3549
roaches,3550
road,3551
roar,3552
robert,3553
robocop,3554
robotfindskitten,3555
robots,3556
robs,3557
rochester,3558
rock,3559
rocks,3560
rocky,3561
rodriguez,3562
roid,3563
role,3564
roll,3565
romance,3566
ron,3567
room,3568
root,3569
rope,3570
rose,3571
roughly,3572
roundup,3573
rove,3574
royalties,3575
rss,3576
rugburn,3577
ruined,3578
rule,3579
rulers,3580
rules,3581
run,3582
running,3583
runs,3584
rural,3585
rush,3586
russian,3587
rustproofing,3588
ruth,3589
ryan,3590
sacrifice,3591
sad,3592
sadly,3593
safari,3594
safe,3595
safely,3596
sahfaaari,3597
said,3598
sake,3599
salaries,3600
sales,3601
salt,3602
same,3603
sand,3604
sandiego,3605
santa,3606
saps,3607
sarc,3608
sarcasm,3609
sarcasmi,3610
sarcastic,3611
satellite,3612
satisfied,3613
satisfy,3614
saudi,3615
save,3616
saving,3617
saw,3618
say,3619
sayglobal,3620
saying,3621
sayings,3622
says,3623
scale,3624
scam,3625
scandal,3626
scandinavia,3627
scarce,3628
scares,3629
scenario,3630
scene,3631
sceptical,3632
scheme,3633
schiff,3634
school,3635
schoolgirl,3636
schoolgirls,3637
schools,3638
schwarzy,3639
science,3640
scientifically,3641
scientists,3642
scientology,3643
scott,3644
scratching,3645
screen,3646
screw,3647
screwed,3648
scroll,3649
scumbag,3650
sea,3651
search,3652
searched,3653
season,3654
seat,3655
seated,3656
secessionist,3657
second,3658
secondly,3659
seconds,3660
secrecy,3661
secret,3662
secretary,3663
secrets,3664
sect,3665
sectarian,3666
section,3667
sector,3668
secure,3669
secured,3670
security,3671
see,3672
seeing,3673
seem,3674
seemed,3675
seems,3676
seen,3677
seinfeld,3678
seized,3679
selected,3680
selection,3681
self,3682
selfish,3683
sell,3684
sellers,3685
selling,3686
semi,3687
sen,3688
senate,3689
send,3690
senior,3691
sense,3692
sensible,3693
sensitivity,3694
sentence,3695
sentencing,3696
sentience,3697
seoul,3698
serendipitous,3699
serious,3700
seriously,3701
served,3702
server,3703
servers,3704
service,3705
services,3706
set,3707
setting,3708
settings,3709
seven,3710
seventy,3711
several,3712
severe,3713
sex,3714
sexual,3715
sexually,3716
sexy,3717
sh,3718
shacknews,3719
shadows,3720
shady,3721
shall,3722
sham,3723
shame,3724
shaq,3725
share,3726
shared,3727
shareholders,3728
sharers,3729
shares,3730
sharing,3731
sharks,3732
sharpton,3733
she,3734
sheep,3735
sheesh,3736
sheik,3737
sheriff,3738
shi,3739
shift,3740
shiny,3741
ship,3742
shit,3743
shitty,3744
shock,3745
shocking,3746
shoot,3747
shooting,3748
shoots,3749
shops,3750
short,3751
shortfall,3752
shot,3753
shotgun,3754
should,3755
shoulders,3756
shouldn,3757
shout,3758
shouted,3759
shouts,3760
shove,3761
shoved,3762
show,3763
showing,3764
shows,3765
shparsedonedigitts,3766
shrek,3767
shugashack,3768
shut,3769
shuttle,3770
sibel,3771
sick,3772
sickness,3773
sickthoughts,3774
side,3775
sides,3776
sideswiped,3777
sift,3778
sighted,3779
sign,3780
signed,3781
significance,3782
significant,3783
significantly,3784
silence,3785
silk,3786
silly,3787
silver,3788
silverlight,3789
similar,3790
simple,3791
simply,3792
simpson,3793
simpsons,3794
since,3795
singing,3796
single,3797
singular,3798
sink,3799
sir,3800
sirius,3801
site,3802
sites,3803
six,3804
size,3805
skeptical,3806
skews,3807
skill,3808
skirt,3809
skittlesusamarket,3810
slammed,3811
slap,3812
slaughters,3813
slave,3814
slavery,3815
sleek,3816
sleep,3817
sleeves,3818
slept,3819
slice,3820
slideshows,3821
slightest,3822
slip,3823
slow,3824
slumdog,3825
slums,3826
small,3827
smallest,3828
smallpox,3829
smart,3830
smile,3831
smoke,3832
smoked,3833
smoking,3834
snake,3835
snakes,3836
snap,3837
sniper,3838
snobby,3839
snoobish,3840
snoopy,3841
so,3842
soccer,3843
social,3844
socialblade,3845
socialist,3846
society,3847
sodade,3848
software,3849
solar,3850
sold,3851
soldiers,3852
solid,3853
solution,3854
solved,3855
some,3856
somebody,3857
somehow,3858
someone,3859
somethin,3860
something,3861
sometimes,3862
somewhat,3863
sone,3864
song,3865
songs,3866
sony,3867
soon,3868
sooner,3869
sooni,3870
sooo,3871
soooo,3872
sorry,3873
sort,3874
sorts,3875
sosa,3876
soul,3877
sound,3878
sounds,3879
soundtrack,3880
source,3881
sourced,3882
sources,3883
south,3884
southern,3885
soviet,3886
space,3887
spamming,3888
spar,3889
sparing,3890
speak,3891
speaking,3892
speaks,3893
special,3894
specialized,3895
species,3896
specif,3897
specific,3898
specifically,3899
spectre,3900
speech,3901
speed,3902
speedo,3903
spell,3904
spend,3905
spending,3906
spends,3907
spendulous,3908
spent,3909
spewing,3910
spiral,3911
spite,3912
splains,3913
splicing,3914
split,3915
splitting,3916
spoiled,3917
spoiler,3918
spoils,3919
spoofed,3920
sport,3921
spread,3922
spreading,3923
sqeaking,3924
squad,3925
square,3926
squealing,3927
squeezing,3928
st,3929
stadiums,3930
staff,3931
stage,3932
stagflation,3933
stand,3934
standard,3935
standards,3936
standing,3937
standpoint,3938
stands,3939
stapp,3940
star,3941
stare,3942
start,3943
started,3944
starting,3945
starts,3946
starve,3947
starving,3948
stashed,3949
state,3950
stated,3951
statement,3952
statements,3953
staters,3954
states,3955
static,3956
station,3957
statistically,3958
status,3959
stay,3960
stays,3961
stds,3962
steal,3963
stealing,3964
stearns,3965
steel,3966
steger,3967
step,3968
stereotype,3969
stern,3970
steve,3971
steven,3972
stfu,3973
stick,3974
sticking,3975
stifled,3976
still,3977
stimulates,3978
stimulative,3979
stimulus,3980
stinger,3981
stock,3982
stoner,3983
stones,3984
stoning,3985
stood,3986
stop,3987
stopped,3988
store,3989
stored,3990
storeowner,3991
stores,3992
stories,3993
story,3994
straight,3995
strains,3996
strange,3997
strap,3998
straps,3999
streaming,4000
street,4001
streetaddress,4002
streets,4003
strength,4004
stressed,4005
strictly,4006
strike,4007
strikeouts,4008
strikes,4009
string,4010
stripper,4011
strippers,4012
strong,4013
stronger,4014
strparsedonedigitfehe,4015
structure,4016
struggling,4017
stuck,4018
student,4019
students,4020
studied,4021
studies,4022
study,4023
stuff,4024
stupid,4025
style,4026
subconscious,4027
subject,4028
subjugation,4029
submission,4030
submissions,4031
submit,4032
submitted,4033
subs,4034
subsidies,4035
subsidise,4036
substance,4037
substantial,4038
substantially,4039
substitute,4040
subsumed,4041
subterranean,4042
subtleties,4043
subway,4044
success,4045
successful,4046
such,4047
suck,4048
sucked,4049
sucks,4050
sudden,4051
suddenly,4052
sue,4053
sues,4054
suffer,4055
suggest,4056
suggestion,4057
suggests,4058
suicidal,4059
suicide,4060
sulphur,4061
sum,4062
summed,4063
sumo,4064
super,4065
superior,4066
superman,4067
supply,4068
support,4069
supported,4070
supporter,4071
supporters,4072
supports,4073
suppose,4074
supposed,4075
supposedly,4076
suppress,4077
sure,4078
surfaces,4079
surfstang,4080
surpass,4081
surprise,4082
surprised,4083
surprises,4084
surrender,4085
surrounded,4086
surveying,4087
suspect,4088
suspense,4089
swap,4090
swat,4091
swear,4092
sweat,4093
swig,4094
swim,4095
swinging,4096
swollen,4097
symbol,4098
sync,4099
system,4100
systems,4101
tab,4102
table,4103
tactics,4104
take,4105
taken,4106
takes,4107
taking,4108
tale,4109
talent,4110
taliban,4111
talk,4112
talked,4113
talking,4114
talks,4115
tank,4116
tanning,4117
tape,4118
tapes,4119
target,4120
targets,4121
tasteless,4122
taught,4123
tax,4124
taxes,4125
taxpayers,4126
tbh,4127
teachers,4128
teaches,4129
teaching,4130
teams,4131
technique,4132
technology,4133
techs,4134
teh,4135
tekhpoynt,4136
television,4137
tell,4138
tellin,4139
telling,4140
tells,4141
temperatures,4142
temporarily,4143
temporary,4144
tend,4145
tendencies,4146
tends,4147
tens,4148
term,4149
terminal,4150
terms,4151
terrible,4152
terroist,4153
terrorism,4154
test,4155
testimony,4156
tests,4157
texas,4158
text,4159
texting,4160
than,4161
thank,4162
thanks,4163
thanparsedfourdigits,4164
thanx,4165
that,4166
thats,4167
thc,4168
the,4169
theater,4170
theaters,4171
their,4172
theirs,4173
them,4174
theme,4175
themselves,4176
then,4177
theory,4178
therapy,4179
there,4180
therefor,4181
therefore,4182
theres,4183
these,4184
thet,4185
they,4186
theyll,4187
thier,4188
thing,4189
things,4190
think,4191
thinking,4192
thinks,4193
third,4194
thirds,4195
thirsty,4196
this,4197
thomas,4198
thorazine,4199
those,4200
though,4201
thought,4202
thoughts,4203
thousand,4204
thousands,4205
thread,4206
threat,4207
threatened,4208
threatening,4209
threatens,4210
three,4211
threesome,4212
through,4213
throughout,4214
throw,4215
throwing,4216
thrown,4217
thunder,4218
thunderbird,4219
thus,4220
tibetans,4221
ticket,4222
tickets,4223
tie,4224
tier,4225
tiger,4226
tight,4227
tilt,4228
time,4229
times,4230
timing,4231
tip,4232
titanic,4233
title,4234
to,4235
tobacco,4236
today,4237
together,4238
toilet,4239
told,4240
tolerate,4241
tomorrow,4242
tone,4243
tonnes,4244
too,4245
took,4246
tool,4247
top,4248
tor,4249
torn,4250
torrent,4251
torture,4252
torturing,4253
totally,4254
touchdown,4255
touched,4256
touching,4257
tough,4258
toward,4259
town,4260
tpb,4261
trace,4262
traced,4263
track,4264
tractors,4265
trade,4266
trading,4267
traditional,4268
traditionally,4269
traffic,4270
tragic,4271
trailer,4272
training,4273
trans,4274
transportation,4275
transsexual,4276
trap,4277
trappings,4278
trash,4279
travesty,4280
treasury,4281
treat,4282
treated,4283
treatment,4284
treatments,4285
treaty,4286
trend,4287
trendy,4288
trentadue,4289
trial,4290
trials,4291
tried,4292
tries,4293
trillion,4294
trolling,4295
trolls,4296
troop,4297
troops,4298
tropic,4299
trouble,4300
troubling,4301
trough,4302
truck,4303
true,4304
truly,4305
trust,4306
trusted,4307
truth,4308
truths,4309
try,4310
trying,4311
ts,4312
tty,4313
tubatechno,4314
tucker,4315
tune,4316
turbines,4317
turd,4318
turf,4319
turk,4320
turn,4321
turned,4322
turning,4323
turns,4324
tv,4325
twice,4326
twisted,4327
twisting,4328
twitter,4329
two,4330
type,4331
types,4332
typical,4333
typing,4334
tyrants,4335
ugh,4336
ugly,4337
uhbama,4338
uhhh,4339
uk,4340
ultimately,4341
um,4342
umm,4343
un,4344
unclaimed,4345
undead,4346
under,4347
undercover,4348
underestimate,4349
undergrad,4350
undermines,4351
understand,4352
understandable,4353
understanding,4354
understood,4355
underway,4356
undistorted,4357
undoubtedly,4358
unemployed,4359
unfortunately,4360
unhappy,4361
unhealthy,4362
uni,4363
uniform,4364
unintended,4365
union,4366
unipolar,4367
unique,4368
unite,4369
united,4370
universal,4371
university,4372
unjust,4373
unknown,4374
unless,4375
unlike,4376
unlucky,4377
unmannedmissionhope,4378
unreasonable,4379
unstated,4380
untie,4381
until,4382
up,4383
update,4384
updates,4385
upgraded,4386
upgrading,4387
upheld,4388
uphill,4389
uploading,4390
upon,4391
upper,4392
ups,4393
upscale,4394
uptick,4395
us,4396
usa,4397
usage,4398
use,4399
used,4400
useful,4401
useless,4402
user,4403
username,4404
users,4405
uses,4406
using,4407
usps,4408
usual,4409
usually,4410
utilizing,4411
utorrent,4412
utterly,4413
vacation,4414
vaccines,4415
vader,4416
vagina,4417
vague,4418
valentine,4419
valid,4420
value,4421
valued,4422
values,4423
vampires,4424
vandalism,4425
variety,4426
vase,4427
vast,4428
vastly,4429
ve,4430
vegas,4431
vehicle,4432
vehicles,4433
velocity,4434
vending,4435
venomous,4436
verb,4437
verses,4438
version,4439
versus,4440
very,4441
vhs,4442
via,4443
vibrating,4444
vicious,4445
victim,4446
victims,4447
victoria,4448
victory,4449
video,4450
view,4451
viewer,4452
viewing,4453
vigor,4454
vinegar,4455
violence,4456
violent,4457
virtual,4458
virtually,4459
virus,4460
visible,4461
visit,4462
visiting,4463
vista,4464
vitriolandangst,4465
vitro,4466
voice,4467
volt,4468
volunteering,4469
vote,4470
voted,4471
voters,4472
voyeur,4473
vw,4474
vying,4475
wait,4476
waited,4477
waiting,4478
wake,4479
walk,4480
walked,4481
walking,4482
walks,4483
wall,4484
wallpaper,4485
walls,4486
walmart,4487
wanna,4488
wannabes,4489
want,4490
wanted,4491
wanting,4492
wants,4493
war,4494
warming,4495
warning,4496
warrant,4497
warrants,4498
wars,4499
was,4500
washington,4501
wasn,4502
waste,4503
wasted,4504
wasting,4505
watch,4506
watched,4507
watchin,4508
watching,4509
watchmen,4510
water,4511
watermelons,4512
wave,4513
way,4514
ways,4515
wazoo,4516
we,4517
weak,4518
wealth,4519
weapons,4520
wear,4521
wears,4522
weather,4523
web,4524
webdesigners,4525
webkit,4526
webscriptions,4527
website,4528
websites,4529
wee,4530
weed,4531
week,4532
weekend,4533
weeks,4534
weighing,4535
weight,4536
weinbergnot,4537
weird,4538
welcome,4539
welcoming,4540
well,4541
went,4542
were,4543
weren,4544
west,4545
western,4546
whaaa,4547
whaaaa,4548
whacks,4549
what,4550
whatever,4551
whats,4552
whatsoever,4553
wheels,4554
when,4555
whenever,4556
where,4557
whether,4558
which,4559
while,4560
whilst,4561
whiners,4562
whining,4563
whip,4564
whipped,4565
white,4566
whiteness,4567
who,4568
whoever,4569
whole,4570
whose,4571
why,4572
whyve,4573
wicked,4574
wide,4575
widely,4576
wife,4577
wifi,4578
wii,4579
wiki,4580
wikipedia,4581
wild,4582
will,4583
williams,4584
willing,4585
win,4586
wind,4587
winded,4588
window,4589
windows,4590
windy,4591
wine,4592
winge,4593
wings,4594
winmo,4595
winner,4596
winning,4597
winslet,4598
wipe,4599
wiretapping,4600
wise,4601
wish,4602
wishing,4603
witch,4604
with,4605
withdrew,4606
withholds,4607
within,4608
without,4609
withstand,4610
wives,4611
woh,4612
wolfowitz,4613
woman,4614
women,4615
won,4616
wonder,4617
wonderful,4618
wondering,4619
wont,4620
woods,4621
woodsoh,4622
woodsparsedonedigit,4623
woooooo,4624
woot,4625
word,4626
wording,4627
words,4628
wore,4629
work,4630
worked,4631
working,4632
works,4633
world,4634
worlds,4635
worried,4636
worries,4637
worrisome,4638
worry,4639
worse,4640
worship,4641
worst,4642
worth,4643
worthless,4644
worthy,4645
would,4646
wouldn,4647
wounds,4648
wow,4649
woz,4650
wparsedonedigit,4651
wrist,4652
write,4653
writer,4654
writers,4655
writers_guild_of,4656
written,4657
wrong,4658
wsads,4659
wtf,4660
wussy,4661
wwe,4662
xbox,4663
xdsorry,4664
xkcd,4665
xm,4666
xp,4667
xparsedonedigit,4668
xparsedthreedigits,4669
xvid,4670
xvparsedfourdigits,4671
ya,4672
yahoo,4673
yankees,4674
yapping,4675
yay,4676
yeah,4677
year,4678
years,4679
yeast,4680
yelling,4681
yelp,4682
yen,4683
yep,4684
yes,4685
yessss,4686
yesterday,4687
yet,4688
york,4689
you,4690
young,4691
your,4692
youre,4693
yourself,4694
yummy,4695
zendezparsedonedigit,4696
zero,4697
zip,4698
zipline,4699
zog,4700
zombie,4701
zombies,4702
zoned,4703
zoo,4704
