ability,0
able,1
about,2
abreu,3
absence,4
absolutely,5
absurd,6
accepted,7
accidents,8
across,9
act,10
action,11
activist,12
acts,13
actual,14
actually,15
acute,16
adapts,17
added,18
addiction,19
address,20
addresses,21
adhere,22
ado,23
advancement,24
advantage,25
advocate,26
affairs,27
affordable,28
afghanistan,29
after,30
again,31
against,32
age,33
ago,34
agony,35
agree,36
agricultural,37
aime,38
akyol,39
al,40
alien,41
alive,42
all,43
allen,44
alleviate,45
allow,46
allowing,47
allows,48
almost,49
alone,50
along,51
alongg,52
also,53
alternative,54
although,55
always,56
am,57
amazing,58
american,59
americans,60
amount,61
amounts,62
amp,63
an,64
analogy,65
analyze,66
and,67
ann,68
another,69
answer,70
answers,71
antonio,72
any,73
anyone,74
anything,75
apes,76
apocalypse,77
appears,78
applaud,79
appropriate,80
apretiate,81
architect,82
are,83
area,84
areas,85
aren,86
argument,87
ariely,88
army,89
around,90
arrive,91
art,92
arthritis,93
articulated,94
artist,95
as,96
aside,97
ask,98
aspect,99
ass,100
assertion,101
assistance,102
astute,103
at,104
atoms,105
att,106
attached,107
attempt,108
attendant,109
attitude,110
authentic,111
autonomy,112
avoided,113
avoids,114
awaken,115
aware,116
away,117
awe,118
awesome,119
awhile,120
baby,121
back,122
bad,123
bajo,124
barber,125
barely,126
based,127
basic,128
be,129
beautiful,130
became,131
because,132
become,133
becomes,134
beef,135
been,136
before,137
begging,138
begins,139
behavior,140
behavioral,141
behaviours,142
beijing,143
being,144
beings,145
belief,146
beliefs,147
believe,148
bell,149
belongs,150
benifit,151
best,152
better,153
between,154
beyond,155
bias,156
bible,157
big,158
bigg,159
biggest,160
bill,161
billions,162
binding,163
biodiversity,164
bit,165
bits,166
bjorn,167
blackmore,168
blanket,169
bless,170
blessing,171
blind,172
blocking,173
blog,174
blogspot,175
bodies,176
body,177
book,178
bored,179
born,180
bosses,181
bostrom,182
bothered,183
boundaries,184
brain,185
brains,186
briefly,187
bright,188
brilliant,189
bringing,190
brutal,191
brutally,192
build,193
burdoning,194
business,195
businesses,196
but,197
buy,198
buying,199
by,200
calculation,201
california,202
call,203
came,204
campaign,205
campbell,206
can,207
cancer,208
candle,209
cannon,210
canot,211
capital,212
car,213
carbon,214
carr,215
carry,216
catch,217
cause,218
causing,219
cello,220
century,221
cfr,222
chair,223
change,224
changed,225
changing,226
cheat,227
check,228
chery,229
children,230
childrenn,231
chinese,232
choice,233
chris,234
christians,235
christina,236
chronic,237
cierta,238
circumstances,239
city,240
civil,241
claim,242
clarified,243
clases,244
clasism,245
class,246
classes,247
clear,248
climate,249
clinical,250
close,251
closely,252
clothing,253
clue,254
clumsy,255
co,256
cohesion,257
colbert,258
collapse,259
com,260
come,261
comes,262
comforts,263
comical,264
command,265
comment,266
commenting,267
commercially,268
common,269
communication,270
communities,271
community,272
companions,273
compare,274
compensation,275
compete,276
complain,277
complejas,278
complete,279
completely,280
complex,281
comprehend,282
computer,283
conceded,284
concept,285
concert,286
concluded,287
conclusion,288
conclusions,289
condition,290
conducted,291
confirm,292
confirmation,293
confusion,294
connected,295
connection,296
conscience,297
consciousness,298
conservatives,299
consider,300
considered,301
consistently,302
conspiracy,303
constantly,304
construct,305
continue,306
contradiction,307
contradictions,308
contribute,309
control,310
cooked,311
cool,312
copied,313
core,314
corpus,315
corrupt,316
corruption,317
costo,318
costs,319
could,320
counter,321
countles,322
countries,323
country,324
countrymen,325
couple,326
course,327
covert,328
craftsman,329
create,330
created,331
creating,332
creations,333
creative,334
creator,335
creators,336
cringe,337
crops,338
crosses,339
cual,340
cuba,341
curiosity,342
current,343
customers,344
dabs,345
dad,346
damage,347
damaging,348
dan,349
dancers,350
dancing,351
dangers,352
daniel,353
dare,354
data,355
dave,356
david,357
davos,358
dawkins,359
day,360
dd,361
de,362
dead,363
deaf,364
deal,365
dear,366
death,367
debate,368
december,369
decent,370
decision,371
decrease,372
deed,373
deeper,374
default,375
definitely,376
degenerative,377
deliver,378
demanded,379
demean,380
democratic,381
denied,382
depressed,383
deprived,384
derivatives,385
descent,386
descisions,387
describe,388
descriptions,389
design,390
designed,391
despite,392
determination,393
detroit,394
devastating,395
develop,396
development,397
device,398
dewan,399
dictate,400
did,401
died,402
diet,403
dietary,404
different,405
differentiation,406
differently,407
differing,408
digital,409
dilution,410
dims,411
dinero,412
direction,413
discipline,414
discourse,415
discovered,416
discs,417
discuss,418
discussed,419
discusses,420
diseases,421
disgraceful,422
disprove,423
disturbing,424
do,425
does,426
doesn,427
doing,428
dollar,429
dollars,430
dominating,431
don,432
done,433
down,434
drive,435
driving,436
dubious,437
due,438
dumbing,439
dumped,440
duplicates,441
dutch,442
each,443
eacute,444
earlier,445
ears,446
easier,447
easy,448
eat,449
eccentricities,450
echo,451
economic,452
economist,453
educate,454
educated,455
education,456
effectively,457
effectiveness,458
efficiency,459
efficient,460
efforts,461
either,462
elderly,463
elephant,464
eliminated,465
elites,466
eloquent,467
embargo,468
embrace,469
emiliano,470
emotion,471
emotional,472
empathy,473
empowering,474
en,475
encourage,476
encouraged,477
end,478
endorse,479
ends,480
energy,481
engine,482
enough,483
enslavement,484
ensure,485
enterprise,486
environment,487
environmental,488
epic,489
epistemology,490
equally,491
equate,492
equipment,493
ero,494
es,495
escazos,496
eso,497
especially,498
est,499
este,500
etc,501
eternity,502
ethical,503
euclidean,504
euphoria,505
europe,506
even,507
event,508
events,509
eventually,510
ever,511
every,512
everyone,513
everything,514
evil,515
evolution,516
evolutionist,517
evolutionn,518
evolved,519
evqparsedonedigitwnvtcparsedonedigitm,520
example,521
examples,522
excellence,523
excellent,524
exchanging,525
excited,526
exercise,527
existed,528
existen,529
existence,530
expansiveness,531
experience,532
experiences,533
experiencing,534
experiment,535
experinces,536
explains,537
explored,538
express,539
expressed,540
extra,541
extraordinary,542
extremely,543
face,544
fact,545
facts,546
fail,547
faiths,548
fall,549
fallacies,550
fallen,551
falsifiable,552
family,553
famous,554
fancy,555
fantastic,556
far,557
fascinating,558
fat,559
father,560
fatter,561
fault,562
fears,563
feature,564
features,565
feed,566
feel,567
feeling,568
feldman,569
felix,570
felt,571
femininity,572
feminist,573
fertility,574
few,575
fight,576
final,577
finally,578
find,579
finding,580
findings,581
fine,582
finite,583
first,584
fit,585
fix,586
floating,587
flu,588
fluctuations,589
focus,590
focused,591
focusing,592
follow,593
followed,594
following,595
food,596
footprint,597
for,598
force,599
forever,600
forgets,601
form,602
forma,603
formed,604
fortification,605
forward,606
fossil,607
found,608
free,609
freedom,610
friends,611
from,612
frustrations,613
fuels,614
full,615
functional,616
fundamentalisms,617
fundamentals,618
further,619
future,620
gallon,621
garbage,622
gas,623
gasoline,624
gauge,625
gay,626
generates,627
generation,628
genius,629
geof,630
geometry,631
germans,632
get,633
getting,634
gilbert,635
gilgamesh,636
girl,637
give,638
given,639
gives,640
giving,641
global,642
globall,643
glorified,644
glue,645
gm,646
go,647
god,648
goglemapsapi,649
going,650
gold,651
good,652
goodness,653
goree,654
got,655
gotten,656
governing,657
government,658
governments,659
gps,660
grand,661
great,662
greater,663
greatest,664
green,665
gregariousness,666
grew,667
grips,668
grow,669
gt,670
guarantee,671
guess,672
guide,673
guitar,674
guy,675
guys,676
had,677
hagovers,678
haidt,679
hall,680
hand,681
handcuffed,682
handicapped,683
handling,684
happen,685
happening,686
happiness,687
happy,688
hapy,689
hard,690
has,691
hate,692
hated,693
have,694
haven,695
having,696
he,697
heading,698
headlines,699
heads,700
healthy,701
heart,702
heed,703
helip,704
hell,705
help,706
helped,707
helping,708
her,709
here,710
hero,711
hidden,712
high,713
highly,714
hilarious,715
him,716
hip,717
his,718
historical,719
history,720
hit,721
hold,722
honest,723
hook,724
hope,725
hopefully,726
horrible,727
horrifying,728
hours,729
house,730
how,731
however,732
html,733
htp,734
huge,735
human,736
humane,737
humanity,738
humble,739
humor,740
hunting,741
ib,742
idea,743
ideals,744
ideas,745
ideological,746
ideologues,747
if,748
ignorance,749
ignore,750
ignoringg,751
ii,752
illusion,753
imersive,754
impact,755
implica,756
implications,757
impolite,758
importantly,759
impossible,760
in,761
inaccessible,762
incidences,763
included,764
includes,765
incomes,766
incomprehensible,767
incorporation,768
increase,769
indeed,770
indexes,771
india,772
industry,773
inevitable,774
infinite,775
info,776
information,777
informed,778
informs,779
ingang,780
ingenious,781
ingrained,782
inhabits,783
injustice,784
innovation,785
insanity,786
inside,787
inspire,788
inspiring,789
instead,790
institutionalised,791
intelligent,792
intention,793
intentionalityy,794
interacting,795
interaction,796
interactions,797
interactive,798
interconnected,799
interesteding,800
interesting,801
international,802
internet,803
interpreted,804
interview,805
interviews,806
into,807
introduce,808
introduction,809
introdues,810
introverted,811
intrusion,812
intuitive,813
invade,814
inventor,815
investigation,816
invited,817
involves,818
iq,819
iraqi,820
irrational,821
is,822
islam,823
islamicc,824
island,825
isn,826
isnt,827
isolating,828
israel,829
issue,830
issues,831
issuing,832
it,833
its,834
iwould,835
japan,836
japanese,837
jil,838
job,839
join,840
jon,841
jones,842
jos,843
just,844
kaba,845
keep,846
ken,847
killing,848
kind,849
klein,850
knew,851
knocked,852
know,853
knowledge,854
knows,855
korea,856
lacking,857
large,858
las,859
last,860
lastly,861
lastt,862
latching,863
late,864
law,865
ldquo,866
leacture,867
lead,868
leads,869
learn,870
learned,871
learning,872
least,873
lecture,874
lee,875
leeuwenhoek,876
left,877
legalized,878
legitimal,879
legitimize,880
less,881
level,882
licenses,883
lie,884
lies,885
life,886
lifestyle,887
light,888
lights,889
like,890
likely,891
lint,892
list,893
listening,894
little,895
live,896
lived,897
lives,898
living,899
lo,900
local,901
lol,902
lone,903
long,904
longer,905
look,906
looking,907
looks,908
losing,909
loss,910
lost,911
lot,912
lots,913
love,914
machine,915
macroevolution,916
made,917
magic,918
magnetic,919
maher,920
main,921
mainstream,922
maintain,923
major,924
majority,925
make,926
makes,927
making,928
man,929
managing,930
manipulate,931
manipulation,932
mankind,933
manufacture,934
many,935
map,936
marketer,937
marvelling,938
masculinity,939
masses,940
materials,941
math,942
may,943
mdash,944
me,945
mean,946
meaning,947
means,948
meant,949
measured,950
mechanisms,951
media,952
medicinal,953
medicine,954
meetings,955
memes,956
memetics,957
men,958
mention,959
mentioned,960
mentioning,961
mentions,962
mere,963
message,964
met,965
methodical,966
mexican,967
mgvkvkmbrparsedonedigita,968
microbes,969
microsoft,970
micrososft,971
microwave,972
might,973
mild,974
mileage,975
military,976
mind,977
minds,978
mini,979
minimal,980
mirror,981
misandry,982
misled,983
misrepresented,984
missed,985
mit,986
model,987
modern,988
moment,989
money,990
monkeys,991
moon,992
moral,993
morality,994
more,995
mosher,996
most,997
mostly,998
mother,999
motivations,1000
moved,1001
movie,1002
moving,1003
mpparsedonedigit,1004
mr,1005
much,1006
muchas,1007
muhamed,1008
murderer,1009
mushroom,1010
mushrooms,1011
music,1012
muslims,1013
must,1014
mustafe,1015
my,1016
mycelium,1017
myself,1018
mystical,1019
myth,1020
name,1021
nanking,1022
nation,1023
natural,1024
nature,1025
need,1026
needed,1027
needs,1028
negative,1029
neighbors,1030
network,1031
neuroscience,1032
never,1033
new,1034
newly,1035
newnham,1036
news,1037
newspapers,1038
nice,1039
nick,1040
nightmares,1041
no,1042
noah,1043
nobody,1044
not,1045
note,1046
notes,1047
now,1048
nuclear,1049
number,1050
numbers,1051
nutrient,1052
nz,1053
obedience,1054
objects,1055
observation,1056
observer,1057
obvious,1058
obviously,1059
occupation,1060
ocean,1061
of,1062
off,1063
offended,1064
offer,1065
officer,1066
often,1067
oh,1068
ohio,1069
oil,1070
oils,1071
old,1072
on,1073
one,1074
ones,1075
only,1076
onto,1077
open,1078
openly,1079
operate,1080
opinion,1081
opposite,1082
oppression,1083
option,1084
or,1085
orbital,1086
order,1087
organizations,1088
orientado,1089
other,1090
others,1091
otherwise,1092
our,1093
ourselves,1094
out,1095
outcome,1096
outlets,1097
over,1098
overwhelm,1099
own,1100
owned,1101
pace,1102
pacifier,1103
page,1104
pain,1105
pandemic,1106
par,1107
paradigm,1108
paradox,1109
paraphrasing,1110
parody,1111
parsedfourdigits,1112
parsedonedigit,1113
parsedonedigitd,1114
parsedthreedigits,1115
parsedthreedigitsp,1116
parsedtwodigits,1117
parsedtwodigitsth,1118
part,1119
partially,1120
particles,1121
partner,1122
passed,1123
passion,1124
passionate,1125
path,1126
paths,1127
patience,1128
payback,1129
paying,1130
pc,1131
peace,1132
pedophiles,1133
peeve,1134
pensamos,1135
people,1136
peoples,1137
percussivee,1138
perfect,1139
perfectly,1140
performance,1141
perhaps,1142
periods,1143
permissible,1144
permiten,1145
permits,1146
person,1147
personally,1148
perversion,1149
pet,1150
philosophy,1151
phone,1152
phrase,1153
picking,1154
piece,1155
pillars,1156
pink,1157
pinker,1158
plagued,1159
plain,1160
plant,1161
plants,1162
plastic,1163
plastics,1164
play,1165
player,1166
player_embeded,1167
playing,1168
please,1169
point,1170
pointed,1171
pointless,1172
points,1173
polarize,1174
police,1175
political,1176
pontification,1177
poor,1178
portal,1179
porter,1180
poses,1181
positive,1182
possible,1183
possibly,1184
post,1185
postsecret,1186
povertyy,1187
power,1188
powers,1189
preaching,1190
precise,1191
predictablyy,1192
pregnant,1193
presented,1194
pressing,1195
pretty,1196
prevent,1197
pricing,1198
pride,1199
principles,1200
priorities,1201
privacy,1202
privilege,1203
pro,1204
probably,1205
probing,1206
problem,1207
problema,1208
problems,1209
proceed,1210
process,1211
produce,1212
produces,1213
products,1214
professionals,1215
professor,1216
profit,1217
profitable,1218
profits,1219
prognostications,1220
program,1221
progress,1222
project,1223
projects,1224
promise,1225
promote,1226
properties,1227
prophet,1228
proportion,1229
proportionate,1230
protect,1231
prove,1232
proved,1233
proven,1234
provide,1235
providers,1236
providing,1237
provoking,1238
ps,1239
psychology,1240
public,1241
publish,1242
purity,1243
purpose,1244
put,1245
puzzle,1246
quality,1247
quantity,1248
que,1249
question,1250
quiet,1251
quit,1252
quite,1253
quo,1254
race,1255
radio,1256
rahul,1257
raise,1258
rapid,1259
rapt,1260
rarely,1261
rate,1262
rather,1263
ratio,1264
ravaged,1265
rdquo,1266
re,1267
reach,1268
reached,1269
reactions,1270
read,1271
ready,1272
real,1273
reality,1274
realize,1275
really,1276
reap,1277
reasearch,1278
reason,1279
received,1280
recently,1281
recognize,1282
recommendations,1283
recursos,1284
recycling,1285
reduction,1286
referring,1287
refers,1288
regardless,1289
regards,1290
reign,1291
reject,1292
relative,1293
reliable,1294
reliance,1295
religion,1296
religions,1297
religious,1298
remember,1299
reminds,1300
reminiscence,1301
report,1302
reproducible,1303
requesting,1304
requirements,1305
reserved,1306
residents,1307
resilience,1308
resource,1309
resources,1310
responses,1311
responsibility,1312
rest,1313
resultados,1314
return,1315
revealed,1316
revelation,1317
revenue,1318
revolution,1319
rich,1320
richard,1321
rifles,1322
right,1323
righteous,1324
rigid,1325
rigorous,1326
ring,1327
risk,1328
robinson,1329
role,1330
room,1331
root,1332
roots,1333
routs,1334
rsquo,1335
ruling,1336
run,1337
running,1338
sacrifice,1339
sad,1340
sadam,1341
sadlyy,1342
safe,1343
said,1344
salary,1345
sale,1346
same,1347
satelites,1348
saturday,1349
saves,1350
saw,1351
say,1352
saying,1353
scale,1354
scenarios,1355
schedule,1356
schizophrenia,1357
school,1358
science,1359
scientific,1360
scientist,1361
screwed,1362
screwing,1363
sea,1364
search,1365
searches,1366
seasonal,1367
secret,1368
secrete,1369
security,1370
see,1371
seem,1372
seemingly,1373
seems,1374
seen,1375
sees,1376
selection,1377
self,1378
selling,1379
sending,1380
sense,1381
senses,1382
sensing,1383
sentence,1384
seriously,1385
set,1386
setting,1387
several,1388
shamelessly,1389
share,1390
shared,1391
shares,1392
sharing,1393
she,1394
short,1395
shortened,1396
should,1397
show,1398
shown,1399
shows,1400
shrine,1401
shrouded,1402
shut,1403
sichuan,1404
sickened,1405
sicker,1406
siempre,1407
significance,1408
significant,1409
similar,1410
similares,1411
simples,1412
simply,1413
sin,1414
since,1415
single,1416
sir,1417
sit,1418
size,1419
sky,1420
slavery,1421
sleep,1422
sleepy,1423
small,1424
smart,1425
smile,1426
smiled,1427
smolin,1428
sniping,1429
snufed,1430
so,1431
social,1432
societal,1433
society,1434
software,1435
solar,1436
sole,1437
soluciones,1438
solving,1439
some,1440
someone,1441
something,1442
sometimes,1443
son,1444
sorry,1445
sort,1446
sought,1447
sound,1448
sounds,1449
source,1450
sowing,1451
spare,1452
speak,1453
speaker,1454
specific,1455
specter,1456
speech,1457
spent,1458
spiderman,1459
spike,1460
spirituality,1461
sponsers,1462
spread,1463
springtime,1464
squeezing,1465
ss,1466
stability,1467
staffs,1468
stage,1469
stand,1470
standard,1471
start,1472
started,1473
starts,1474
state,1475
stated,1476
stations,1477
statistics,1478
status,1479
staying,1480
step,1481
stephen,1482
stereotype,1483
steroids,1484
steve,1485
stewart,1486
sticky,1487
still,1488
stimulus,1489
stole,1490
stop,1491
stopped,1492
stories,1493
stranger,1494
street,1495
stressing,1496
stringss,1497
stronger,1498
struck,1499
structure,1500
structures,1501
student,1502
students,1503
studied,1504
study,1505
stuff,1506
stuffs,1507
stumble,1508
style,1509
styrofoam,1510
subject,1511
substitutes,1512
success,1513
successfully,1514
succumbing,1515
such,1516
suck,1517
suffering,1518
suggest,1519
suggests,1520
suicided,1521
support,1522
suppose,1523
supposed,1524
sure,1525
surprising,1526
surprisingly,1527
surroundings,1528
susan,1529
suspect,1530
swept,1531
synthesizer,1532
system,1533
sytems,1534
taboo,1535
tack,1536
take,1537
taking,1538
talented,1539
taliban,1540
talk,1541
talking,1542
tank,1543
teach,1544
teacher,1545
teachers,1546
teaching,1547
tearing,1548
techniques,1549
technology,1550
ted,1551
telecom,1552
tell,1553
term,1554
tern,1555
terrorism,1556
testimony,1557
thailand,1558
than,1559
thank,1560
thanks,1561
that,1562
thats,1563
the,1564
their,1565
them,1566
themselves,1567
then,1568
theories,1569
theory,1570
there,1571
thereby,1572
these,1573
they,1574
thing,1575
things,1576
think,1577
thinking,1578
third,1579
this,1580
thomas,1581
those,1582
though,1583
thought,1584
thoughtful,1585
threads,1586
threat,1587
threatening,1588
three,1589
thrive,1590
through,1591
tiempo,1592
time,1593
timely,1594
times,1595
title,1596
tj,1597
to,1598
today,1599
toe,1600
told,1601
tonic,1602
tonight,1603
too,1604
tools,1605
top,1606
topic,1607
totally,1608
touched,1609
touches,1610
touching,1611
tragic,1612
transcendence,1613
transcript,1614
transfer,1615
transformations,1616
transition,1617
translated,1618
trials,1619
triumph,1620
truce,1621
true,1622
truly,1623
truth,1624
try,1625
trying,1626
tube,1627
turn,1628
tv,1629
two,1630
type,1631
tyrannyy,1632
un,1633
unable,1634
unbelivable,1635
under,1636
understand,1637
understanding,1638
understands,1639
understatment,1640
undo,1641
undone,1642
unhappy,1643
unison,1644
universe,1645
until,1646
unusual,1647
up,1648
us,1649
use,1650
used,1651
useful,1652
uses,1653
vagina,1654
valid,1655
valuable,1656
value,1657
values,1658
various,1659
vast,1660
ve,1661
veces,1662
vehicles,1663
vemos,1664
ver,1665
version,1666
very,1667
via,1668
vibrations,1669
video,1670
viewed,1671
viewing,1672
viewpoint,1673
viewpoints,1674
violent,1675
virgin,1676
virtual,1677
virtualized,1678
vision,1679
visit,1680
vlc,1681
voice,1682
vortex,1683
vulnerability,1684
wait,1685
walker,1686
walking,1687
walt,1688
wang,1689
wans,1690
want,1691
wanted,1692
wants,1693
war,1694
warming,1695
warped,1696
was,1697
waste,1698
watch,1699
watched,1700
watching,1701
water,1702
waves,1703
way,1704
we,1705
weakness,1706
weapons,1707
webb,1708
weekday,1709
wek,1710
well,1711
wellington,1712
were,1713
what,1714
whatever,1715
whatsoever,1716
whel,1717
when,1718
where,1719
which,1720
while,1721
who,1722
whole,1723
whom,1724
whose,1725
why,1726
wi,1727
will,1728
wind,1729
wire,1730
wish,1731
with,1732
without,1733
women,1734
wonder,1735
wonderful,1736
woody,1737
word,1738
words,1739
work,1740
worked,1741
workers,1742
works,1743
world,1744
worldwide,1745
worth,1746
worthy,1747
would,1748
wouldn,1749
wow,1750
writers,1751
written,1752
wrong,1753
wrought,1754
xd,1755
year,1756
years,1757
yes,1758
yet,1759
you,1760
young,1761
youngsters,1762
your,1763
yours,1764
youtube,1765
ystating,1766
