ability,0
able,1
about,2
absence,3
absolutely,4
absurd,5
accepted,6
accidents,7
across,8
act,9
action,10
activist,11
acts,12
actual,13
actually,14
acute,15
adapts,16
added,17
addiction,18
address,19
addresses,20
adhere,21
ado,22
advancement,23
advantage,24
advocate,25
affairs,26
affordable,27
afghanistan,28
afraid,29
after,30
again,31
against,32
age,33
ago,34
agony,35
agree,36
agricultural,37
aime,38
akyol,39
al,40
alien,41
alive,42
all,43
allen,44
alleviate,45
allow,46
allows,47
almost,48
alone,49
along,50
alongg,51
also,52
alternative,53
although,54
always,55
am,56
amazing,57
american,58
americans,59
amount,60
amounts,61
amp,62
an,63
analogy,64
analyze,65
and,66
ann,67
another,68
answer,69
answers,70
any,71
anyone,72
anything,73
apes,74
apocalypse,75
appears,76
applaud,77
appreciate,78
appropriate,79
apretiate,80
architect,81
are,82
area,83
areas,84
aren,85
argument,86
ariely,87
army,88
around,89
art,90
arthritis,91
articulated,92
artist,93
as,94
aside,95
ask,96
aspect,97
ass,98
assertion,99
assistance,100
astute,101
at,102
atoms,103
att,104
attached,105
attempt,106
attendance,107
attendant,108
attitude,109
authentic,110
authors,111
autonomy,112
avoided,113
avoids,114
awaken,115
aware,116
away,117
awe,118
awesome,119
awhile,120
baby,121
back,122
background,123
bad,124
bajo,125
band,126
barber,127
barely,128
based,129
basic,130
bathroom,131
be,132
beautiful,133
became,134
because,135
become,136
beef,137
been,138
before,139
begging,140
begins,141
behavior,142
behavioral,143
behaviours,144
beijing,145
being,146
beings,147
belief,148
beliefs,149
believe,150
bell,151
benifit,152
best,153
better,154
between,155
beyond,156
bias,157
bible,158
big,159
bigg,160
biggest,161
bill,162
billions,163
binding,164
biodiversity,165
bit,166
bits,167
bjorn,168
blackmore,169
blanket,170
bless,171
blessing,172
blind,173
blocking,174
blog,175
bodies,176
body,177
book,178
bored,179
bosses,180
bostrom,181
bothered,182
boundaries,183
boundary,184
brain,185
brains,186
branch,187
bright,188
brilliant,189
bringing,190
brutal,191
brutally,192
build,193
burdoning,194
business,195
businesses,196
but,197
buy,198
buying,199
by,200
calculation,201
california,202
call,203
came,204
campaign,205
campbell,206
can,207
cancer,208
candle,209
cannon,210
canot,211
capital,212
car,213
carbon,214
carr,215
carry,216
cash,217
catch,218
cause,219
causing,220
cello,221
century,222
cfr,223
chair,224
change,225
changed,226
changing,227
cheat,228
check,229
chery,230
children,231
childrenn,232
china,233
chinese,234
choice,235
chris,236
christians,237
christina,238
chronic,239
cierta,240
circles,241
circumstances,242
city,243
civil,244
claim,245
clarified,246
clases,247
clasism,248
class,249
classes,250
clear,251
climate,252
clinical,253
close,254
closely,255
clothing,256
clue,257
clumsy,258
co,259
cohesion,260
colbert,261
collapse,262
com,263
come,264
comes,265
comforts,266
command,267
comment,268
commenting,269
commercially,270
common,271
communication,272
communities,273
companions,274
compare,275
compass,276
compensation,277
compete,278
complain,279
complejas,280
complete,281
completely,282
complex,283
comprehend,284
computer,285
conceded,286
concept,287
concert,288
concluded,289
conclusion,290
conclusions,291
condition,292
conducted,293
confirmation,294
connected,295
connection,296
conscience,297
consciousness,298
conservatives,299
consider,300
considered,301
consistently,302
conspiracy,303
constantly,304
construct,305
continue,306
contradiction,307
contribute,308
contribution,309
control,310
controlling,311
cooked,312
cool,313
copied,314
coping,315
core,316
corpus,317
corrupt,318
corruption,319
costo,320
costs,321
could,322
countles,323
countries,324
country,325
countrymen,326
couple,327
course,328
covert,329
craftsman,330
create,331
created,332
creating,333
creations,334
creative,335
creator,336
creators,337
cringe,338
critical,339
crosses,340
cual,341
cuba,342
cup,343
curiosity,344
current,345
customers,346
dabs,347
dad,348
damage,349
damaging,350
dan,351
dancers,352
dancing,353
dangers,354
daniel,355
data,356
dave,357
david,358
davos,359
dawkins,360
dd,361
de,362
dead,363
deaf,364
deal,365
dear,366
death,367
debate,368
decades,369
december,370
decent,371
decides,372
decision,373
decrease,374
deed,375
deeper,376
default,377
definitely,378
degenerative,379
delicate,380
deliver,381
demanded,382
demanding,383
demean,384
democratic,385
denied,386
depress,387
depressed,388
deprived,389
derivatives,390
descent,391
describe,392
descriptions,393
deserved,394
deserves,395
design,396
despite,397
determination,398
detroit,399
devastating,400
develop,401
developed,402
development,403
device,404
devoted,405
dewan,406
dictate,407
did,408
died,409
diet,410
dietary,411
different,412
differentiation,413
differently,414
differing,415
digital,416
dilution,417
dims,418
dinero,419
direction,420
disabled,421
disagree,422
discipline,423
discourse,424
discovered,425
discs,426
discuss,427
discussed,428
discusses,429
diseases,430
disgraceful,431
dismissive,432
disprove,433
distinguishing,434
distraction,435
disturbing,436
do,437
does,438
doesn,439
doing,440
dollar,441
dollars,442
dominating,443
don,444
done,445
down,446
drastically,447
drink,448
drive,449
driving,450
dubious,451
due,452
dumbing,453
dumped,454
duplicates,455
duration,456
during,457
dutch,458
each,459
earlier,460
ears,461
easier,462
easy,463
eat,464
eccentricities,465
echo,466
economic,467
economist,468
educate,469
educated,470
education,471
effectively,472
effectiveness,473
efficiency,474
efficient,475
efficiently,476
efforts,477
either,478
elderly,479
elephant,480
eliminated,481
elites,482
eloquent,483
embargo,484
embrace,485
emotion,486
emotional,487
empathy,488
emphatically,489
empowering,490
en,491
encourage,492
encouraged,493
end,494
endorse,495
ends,496
energy,497
engagement,498
engine,499
enough,500
enslavement,501
ensure,502
enterprise,503
environment,504
environmental,505
epic,506
epistemology,507
equally,508
equate,509
equipment,510
ero,511
es,512
escazos,513
eso,514
especially,515
est,516
este,517
etc,518
eternity,519
ethical,520
euclidean,521
euphoria,522
europe,523
even,524
event,525
events,526
eventually,527
ever,528
every,529
everyone,530
everything,531
evil,532
evolution,533
evolutionist,534
evolutionn,535
evolved,536
evqparsedonedigitwnvtcparsedonedigitm,537
examples,538
excellence,539
excellent,540
exchanging,541
excited,542
exercise,543
existed,544
existen,545
expansiveness,546
experience,547
experiences,548
experiencing,549
experiment,550
experinces,551
explains,552
explored,553
express,554
expressed,555
extra,556
extraordinary,557
extremely,558
face,559
fact,560
facts,561
fail,562
faiths,563
fall,564
fallen,565
falsifiable,566
family,567
famous,568
fancy,569
fantastic,570
far,571
fascinating,572
fat,573
father,574
fatter,575
fear,576
fears,577
feature,578
features,579
feed,580
feel,581
feeling,582
feldman,583
felix,584
felt,585
femininity,586
feminist,587
fertility,588
few,589
fiction,590
fight,591
fill,592
finally,593
find,594
finding,595
findings,596
fine,597
finite,598
first,599
fit,600
fix,601
floating,602
flu,603
fluctuations,604
focus,605
focused,606
focusing,607
follow,608
followed,609
following,610
food,611
footprint,612
for,613
force,614
forever,615
forgets,616
form,617
forma,618
formed,619
fortification,620
forward,621
fossil,622
found,623
free,624
freedom,625
friends,626
frightened,627
from,628
frustrations,629
fuels,630
full,631
fun,632
functional,633
functions,634
fundamentalisms,635
fundamentals,636
further,637
future,638
gallon,639
garbage,640
gas,641
gasoline,642
gauge,643
gay,644
generally,645
generates,646
generation,647
genius,648
geof,649
geometry,650
germans,651
get,652
getting,653
gilbert,654
gilgamesh,655
girl,656
girls,657
give,658
given,659
giving,660
global,661
globall,662
glorified,663
glue,664
go,665
god,666
going,667
gold,668
good,669
goodness,670
goree,671
got,672
gotten,673
governing,674
government,675
governments,676
gps,677
grand,678
great,679
greatest,680
green,681
gregariousness,682
grew,683
grips,684
grow,685
growing,686
gt,687
guarantee,688
guess,689
guide,690
guitar,691
guy,692
guys,693
had,694
hagovers,695
hall,696
hand,697
handcuffed,698
handicapped,699
handling,700
hans,701
happen,702
happening,703
happiness,704
happy,705
hapy,706
hard,707
harder,708
has,709
hate,710
hated,711
have,712
haven,713
having,714
he,715
headlines,716
heads,717
health,718
healthy,719
heart,720
heaven,721
heed,722
helip,723
hell,724
help,725
helped,726
helping,727
her,728
here,729
hero,730
hidden,731
high,732
highly,733
hilarious,734
him,735
hip,736
his,737
historical,738
history,739
hit,740
hold,741
holes,742
hollywood,743
honest,744
hook,745
hope,746
hopefully,747
horizons,748
horrible,749
horrifying,750
hours,751
house,752
how,753
however,754
htp,755
huge,756
human,757
humane,758
humanity,759
humble,760
humor,761
hunting,762
ib,763
idea,764
ideals,765
ideological,766
ideologues,767
if,768
ignorance,769
ignore,770
ignoringg,771
ii,772
illusion,773
imersive,774
impact,775
implica,776
implications,777
impolite,778
importantly,779
impossible,780
in,781
inaccessible,782
incapable,783
incidences,784
included,785
incomes,786
incomprehensible,787
incorporation,788
increase,789
indeed,790
independence,791
indexes,792
india,793
industry,794
inevitable,795
infinite,796
info,797
information,798
informed,799
informs,800
ingang,801
ingenious,802
ingrained,803
inhabits,804
initiated,805
injustice,806
innovation,807
insanity,808
inside,809
inspire,810
inspiring,811
instead,812
institutionalised,813
intelligent,814
intention,815
intentionalityy,816
interacting,817
interaction,818
interactions,819
interactive,820
interconnected,821
interesteding,822
interesting,823
international,824
internet,825
interpreted,826
interview,827
interviews,828
into,829
introduce,830
introduction,831
introdues,832
intrusion,833
invade,834
inventor,835
investigation,836
invited,837
involves,838
iq,839
iraqi,840
irrational,841
irritated,842
is,843
islam,844
islamicc,845
island,846
isn,847
isnt,848
isolating,849
israel,850
issue,851
issues,852
issuing,853
it,854
its,855
iwould,856
japan,857
japanese,858
job,859
join,860
jon,861
journalist,862
just,863
kaba,864
keep,865
killing,866
kind,867
klein,868
knew,869
knocked,870
know,871
knowledge,872
knows,873
korea,874
lacking,875
large,876
las,877
last,878
lastly,879
lastt,880
late,881
law,882
ldquo,883
leacture,884
lead,885
leads,886
learn,887
learned,888
learning,889
least,890
lecture,891
lee,892
leeuwenhoek,893
left,894
legalized,895
legitimize,896
less,897
level,898
licenses,899
lie,900
lies,901
life,902
lifestyle,903
light,904
lights,905
like,906
listening,907
little,908
live,909
lived,910
lives,911
living,912
ljbmauparsedonedigitjc,913
lo,914
local,915
lol,916
lone,917
long,918
longer,919
look,920
looking,921
looks,922
losing,923
loss,924
lost,925
lot,926
lots,927
love,928
machine,929
macroevolution,930
made,931
magic,932
magnetic,933
maher,934
main,935
mainstream,936
maintain,937
major,938
majority,939
make,940
makes,941
making,942
man,943
managing,944
maneuver,945
manipulate,946
manipulation,947
mankind,948
manufacture,949
many,950
mao,951
marketer,952
marvelling,953
masculinity,954
masses,955
materials,956
math,957
may,958
mdash,959
me,960
mean,961
meaning,962
means,963
meant,964
measured,965
mechanisms,966
media,967
medicinal,968
medicine,969
meetings,970
memes,971
memetics,972
men,973
mention,974
mentioned,975
mentioning,976
mentions,977
mere,978
merely,979
message,980
met,981
metaphor,982
methodical,983
mgvkvkmbrparsedonedigita,984
microbes,985
micrososft,986
microwave,987
might,988
mild,989
mileage,990
military,991
mind,992
minds,993
mini,994
minimal,995
mirror,996
misandry,997
misled,998
misrepresented,999
missed,1000
mit,1001
model,1002
modern,1003
moment,1004
money,1005
mongering,1006
monkeys,1007
moon,1008
moral,1009
morality,1010
more,1011
mosher,1012
most,1013
mostly,1014
mother,1015
motivations,1016
moved,1017
movie,1018
moving,1019
mpparsedonedigit,1020
mr,1021
much,1022
muchas,1023
muhamed,1024
murderer,1025
mushroom,1026
mushrooms,1027
music,1028
muslims,1029
must,1030
mustafe,1031
my,1032
mycelium,1033
myself,1034
mystical,1035
myth,1036
name,1037
nanking,1038
nation,1039
natural,1040
nature,1041
need,1042
needed,1043
needs,1044
negative,1045
neighbors,1046
network,1047
neuroscience,1048
never,1049
new,1050
newly,1051
newnham,1052
news,1053
newspapers,1054
nice,1055
nick,1056
nightmares,1057
no,1058
noah,1059
nobody,1060
nonsense,1061
not,1062
note,1063
notes,1064
now,1065
nuclear,1066
number,1067
numbers,1068
nutrient,1069
nz,1070
obedience,1071
objects,1072
observation,1073
observer,1074
obvious,1075
obviously,1076
occupation,1077
ocean,1078
of,1079
off,1080
offended,1081
offer,1082
officer,1083
often,1084
oh,1085
ohio,1086
oil,1087
oils,1088
old,1089
on,1090
one,1091
ones,1092
only,1093
open,1094
openly,1095
operate,1096
opposite,1097
oppression,1098
option,1099
or,1100
orbital,1101
order,1102
organizations,1103
orientado,1104
other,1105
others,1106
otherwise,1107
our,1108
ourselves,1109
out,1110
outcome,1111
outlets,1112
over,1113
overwhelm,1114
own,1115
owned,1116
pace,1117
pacifier,1118
page,1119
pain,1120
pandemic,1121
par,1122
paradigm,1123
paradox,1124
paraplegic,1125
parody,1126
parsedfourdigits,1127
parsedonedigit,1128
parsedonedigitd,1129
parsedthreedigits,1130
parsedthreedigitsp,1131
parsedtwodigits,1132
parsedtwodigitsth,1133
part,1134
partially,1135
particles,1136
partner,1137
party,1138
passed,1139
passion,1140
passionate,1141
paths,1142
patience,1143
payback,1144
paying,1145
pc,1146
peace,1147
peeve,1148
pensamos,1149
people,1150
peoples,1151
perceptions,1152
percussivee,1153
perfect,1154
perfectly,1155
performance,1156
perhaps,1157
periods,1158
permissible,1159
permiten,1160
permits,1161
person,1162
personally,1163
perversion,1164
pet,1165
philosophy,1166
phone,1167
phrase,1168
picking,1169
piece,1170
pillars,1171
pink,1172
pinker,1173
plagued,1174
plain,1175
plant,1176
plants,1177
plastic,1178
plastics,1179
play,1180
player,1181
player_embeded,1182
please,1183
point,1184
pointed,1185
pointless,1186
points,1187
poke,1188
polarize,1189
police,1190
political,1191
politicians,1192
pontification,1193
poor,1194
pop,1195
position,1196
possible,1197
possibly,1198
post,1199
postsecret,1200
povertyy,1201
power,1202
powers,1203
preaching,1204
precise,1205
predictablyy,1206
pregnant,1207
presented,1208
pressing,1209
pretty,1210
prevent,1211
pricing,1212
principles,1213
prior,1214
priorities,1215
privacy,1216
pro,1217
probably,1218
probing,1219
problem,1220
problema,1221
problems,1222
proceed,1223
process,1224
produce,1225
produces,1226
products,1227
professional,1228
professionals,1229
professor,1230
profit,1231
profitable,1232
profits,1233
prognostications,1234
program,1235
progress,1236
project,1237
projects,1238
promise,1239
promote,1240
properties,1241
prophet,1242
proportion,1243
proportionate,1244
protect,1245
prove,1246
proved,1247
proven,1248
providers,1249
providing,1250
provoking,1251
ps,1252
public,1253
publish,1254
purity,1255
purpose,1256
put,1257
puzzle,1258
quality,1259
quantity,1260
que,1261
question,1262
quit,1263
quite,1264
race,1265
radio,1266
rahul,1267
raise,1268
rapid,1269
rapt,1270
rarely,1271
rate,1272
rather,1273
ratio,1274
ravaged,1275
rdquo,1276
re,1277
reach,1278
reached,1279
reactions,1280
read,1281
ready,1282
real,1283
reality,1284
realize,1285
really,1286
reap,1287
reasearch,1288
reason,1289
received,1290
recently,1291
recognize,1292
recommendations,1293
recursos,1294
recycling,1295
reduction,1296
referring,1297
refers,1298
regain,1299
regards,1300
reign,1301
reject,1302
rejoined,1303
relative,1304
reliable,1305
reliance,1306
religion,1307
religions,1308
religious,1309
remember,1310
reminds,1311
reminiscence,1312
repetoire,1313
report,1314
reproducible,1315
requesting,1316
required,1317
requirements,1318
residents,1319
resilience,1320
resource,1321
resources,1322
responses,1323
responsibility,1324
rest,1325
restrictive,1326
resultados,1327
results,1328
return,1329
revealed,1330
revelation,1331
revenue,1332
revolution,1333
rich,1334
richard,1335
rifles,1336
right,1337
rigid,1338
rigorous,1339
ring,1340
risk,1341
rock,1342
role,1343
room,1344
root,1345
roots,1346
rosling,1347
routs,1348
rsquo,1349
ruling,1350
run,1351
running,1352
sacrifice,1353
sad,1354
sadam,1355
sadlyy,1356
said,1357
salary,1358
sale,1359
same,1360
satelites,1361
saturday,1362
saw,1363
say,1364
saying,1365
scale,1366
scenarios,1367
schedule,1368
school,1369
science,1370
scientific,1371
scientist,1372
scientists,1373
screwed,1374
screwing,1375
sea,1376
search,1377
searches,1378
searching,1379
seasonal,1380
secret,1381
secrete,1382
security,1383
see,1384
seee,1385
seem,1386
seemingly,1387
seems,1388
seen,1389
sees,1390
selection,1391
self,1392
selling,1393
sending,1394
sense,1395
senses,1396
sensing,1397
sentence,1398
seriously,1399
set,1400
setting,1401
several,1402
shamelessly,1403
share,1404
shared,1405
shares,1406
sharing,1407
she,1408
short,1409
shortened,1410
should,1411
show,1412
shown,1413
shows,1414
shrine,1415
shrouded,1416
sichuan,1417
sickened,1418
sicker,1419
siempre,1420
significance,1421
significant,1422
similar,1423
similares,1424
simples,1425
simply,1426
sin,1427
since,1428
sing,1429
single,1430
sit,1431
size,1432
sky,1433
slavery,1434
sleep,1435
sleepy,1436
small,1437
smart,1438
smile,1439
smiled,1440
smolin,1441
smug,1442
sniping,1443
snufed,1444
so,1445
social,1446
societal,1447
society,1448
software,1449
solar,1450
sole,1451
soluciones,1452
solving,1453
some,1454
someone,1455
something,1456
sometimes,1457
son,1458
sorry,1459
sort,1460
sought,1461
soul,1462
sound,1463
sounded,1464
sounds,1465
source,1466
sowing,1467
spare,1468
speak,1469
speaker,1470
speaks,1471
specific,1472
specter,1473
speech,1474
spending,1475
spent,1476
spiderman,1477
spirituality,1478
sponsers,1479
spread,1480
springtime,1481
squeezing,1482
ss,1483
staffs,1484
stage,1485
stand,1486
standard,1487
start,1488
started,1489
starts,1490
state,1491
stated,1492
stations,1493
statistics,1494
status,1495
staying,1496
step,1497
stephen,1498
stereotype,1499
steroids,1500
stewart,1501
sticky,1502
stifling,1503
still,1504
stimulus,1505
stop,1506
stopped,1507
stories,1508
stranger,1509
stream,1510
street,1511
stressing,1512
stringss,1513
stronger,1514
struck,1515
structure,1516
structures,1517
student,1518
students,1519
study,1520
stuff,1521
stuffs,1522
stumble,1523
style,1524
styrofoam,1525
subject,1526
substitutes,1527
success,1528
succumbing,1529
such,1530
suck,1531
suffering,1532
suggest,1533
suggests,1534
suicided,1535
support,1536
suppose,1537
supposed,1538
sure,1539
surprising,1540
surprisingly,1541
surroundings,1542
susan,1543
suspect,1544
swept,1545
synthesizer,1546
system,1547
sytems,1548
tabarok,1549
taboo,1550
tack,1551
take,1552
taking,1553
talented,1554
taliban,1555
talk,1556
talking,1557
talks,1558
tampon,1559
tank,1560
teach,1561
teacher,1562
teachers,1563
teaching,1564
tearing,1565
techniques,1566
technology,1567
ted,1568
telecom,1569
tell,1570
term,1571
tern,1572
terrorism,1573
test,1574
thailand,1575
than,1576
thank,1577
thanks,1578
that,1579
thats,1580
the,1581
their,1582
them,1583
themselves,1584
then,1585
theories,1586
theory,1587
there,1588
thereby,1589
these,1590
they,1591
thing,1592
things,1593
think,1594
thinking,1595
third,1596
this,1597
thomas,1598
those,1599
though,1600
thought,1601
thousands,1602
threads,1603
threatening,1604
three,1605
threw,1606
thrive,1607
through,1608
tiempo,1609
time,1610
timely,1611
times,1612
tj,1613
to,1614
today,1615
toe,1616
told,1617
tonic,1618
tonight,1619
too,1620
tools,1621
top,1622
topic,1623
totally,1624
touch,1625
touched,1626
touches,1627
touching,1628
toward,1629
transcendence,1630
transcript,1631
transfer,1632
transformations,1633
transition,1634
translated,1635
trials,1636
triumph,1637
truce,1638
true,1639
truly,1640
truth,1641
try,1642
trying,1643
tube,1644
tunes,1645
turn,1646
tv,1647
two,1648
type,1649
tyrannyy,1650
ultimate,1651
un,1652
unable,1653
unbelivable,1654
under,1655
understand,1656
understanding,1657
understatment,1658
undo,1659
undone,1660
unhappy,1661
unison,1662
universe,1663
until,1664
unusual,1665
unveiled,1666
up,1667
us,1668
use,1669
used,1670
useful,1671
uses,1672
vagina,1673
valuable,1674
value,1675
values,1676
various,1677
vast,1678
ve,1679
veces,1680
vehicles,1681
vemos,1682
ver,1683
version,1684
very,1685
via,1686
vibrations,1687
video,1688
viewed,1689
viewing,1690
viewpoint,1691
viewpoints,1692
violent,1693
virgin,1694
virtual,1695
virtualized,1696
vision,1697
visit,1698
vlc,1699
vocalist,1700
vocally,1701
voice,1702
vortex,1703
vulnerability,1704
wait,1705
walker,1706
walking,1707
walt,1708
wang,1709
wans,1710
want,1711
wanted,1712
wants,1713
war,1714
warming,1715
warped,1716
was,1717
waste,1718
watch,1719
watched,1720
watching,1721
water,1722
waves,1723
way,1724
we,1725
weakness,1726
weapons,1727
webb,1728
weekday,1729
wek,1730
well,1731
wellington,1732
were,1733
what,1734
whatever,1735
whatsoever,1736
whel,1737
when,1738
where,1739
which,1740
while,1741
who,1742
whole,1743
whom,1744
whose,1745
why,1746
wi,1747
will,1748
wind,1749
wire,1750
wish,1751
with,1752
without,1753
women,1754
wonder,1755
wonderful,1756
woody,1757
word,1758
words,1759
work,1760
worked,1761
workers,1762
works,1763
world,1764
worldwide,1765
worth,1766
worthy,1767
would,1768
wouldn,1769
wow,1770
write,1771
writers,1772
writing,1773
written,1774
wrong,1775
wrought,1776
xd,1777
year,1778
years,1779
yet,1780
you,1781
young,1782
youngsters,1783
your,1784
yours,1785
youtube,1786
ystating,1787
