aaa,0
aac,1
abilities,2
ability,3
able,4
about,5
above,6
abroad,7
absolute,8
absolutely,9
abuse,10
abused,11
ac,12
accentuates,13
accept,14
acceptable,15
accepted,16
accepts,17
access,18
accessibility,19
accessible,20
accessing,21
accessories,22
accessory,23
accident,24
accidentally,25
accidently,26
accidents,27
accomplished,28
according,29
accordingly,30
account,31
accually,32
accurate,33
achieve,34
achievement,35
acparsedonedigit,36
across,37
act,38
action,39
actions,40
activated,41
acts,42
actual,43
actually,44
ad,45
adapter,46
adapters,47
add,48
added,49
addict,50
addition,51
additional,52
additionally,53
address,54
addresses,55
adds,56
adequate,57
adequately,58
adjust,59
adjustability,60
adjusted,61
adjustment,62
adjustments,63
adminstrative,64
admit,65
admitted,66
adobe,67
adoo,68
adparsedfourdigits,69
adparsedfourdigitsw,70
adparsedthreedigits,71
advance,72
advanced,73
advancing,74
advantage,75
advantages,76
advertised,77
advertisement,78
advertises,79
advertising,80
advice,81
advise,82
advised,83
af,84
aff,85
affect,86
affecting,87
afflicted,88
afford,89
affordability,90
affordable,91
affordably,92
africa,93
after,94
aftermarket,95
again,96
against,97
age,98
aggrivation,99
ago,100
agree,101
ahead,102
ahwile,103
aid,104
aids,105
aiff,106
ailing,107
aim,108
air,109
aires,110
alarm,111
alarmed,112
albeit,113
album,114
albums,115
algorithms,116
alhthough,117
alias,118
aligned,119
all,120
allow,121
allowed,122
allowing,123
allows,124
alltogether,125
alludes,126
almost,127
alone,128
along,129
alot,130
alphabetical,131
alphebetical,132
already,133
alsmost,134
also,135
alter,136
altered,137
alternate,138
alternative,139
although,140
aluminum,141
always,142
am,143
amateur,144
amatuer,145
amaze,146
amazed,147
amazement,148
amazing,149
amazon,150
american,151
amg,152
among,153
amongst,154
amount,155
amp,156
ample,157
an,158
analog,159
and,160
angeles,161
angle,162
angles,163
annie,164
announced,165
annoy,166
annoyances,167
annoyed,168
annoying,169
another,170
anser,171
answer,172
answered,173
answering,174
answers,175
anticipate,176
any,177
anybody,178
anyhow,179
anyone,180
anything,181
anytime,182
anyway,183
anyways,184
anywhere,185
aol,186
apart,187
apartment,188
aperature,189
aperture,190
apex,191
apexdigialinc,192
apexdigital,193
apexdigitalinc,194
app,195
apparent,196
apparently,197
appealing,198
appear,199
appearance,200
appears,201
apple,202
appliance,203
application,204
applications,205
applied,206
applies,207
applying,208
appointments,209
appreciate,210
appreciated,211
appropriate,212
approved,213
approximately,214
apps,215
aps,216
archos,217
archrival,218
are,219
area,220
areas,221
aren,222
arent,223
arguably,224
arm,225
army,226
around,227
arrangement,228
array,229
arrived,230
arrogant,231
art,232
articulated,233
artist,234
artists,235
as,236
asap,237
asia,238
aside,239
ask,240
asked,241
asking,242
asks,243
asp,244
aspects,245
assembled,246
assign,247
assist,248
associated,249
assume,250
assumed,251
assurance,252
assured,253
asthetic,254
asthetics,255
astounding,256
at,257
attach,258
attached,259
attachement,260
attachment,261
attempted,262
attempting,263
attempts,264
attend,265
attendant,266
attended,267
attention,268
attractable,269
attracted,270
attractive,271
au,272
audible,273
audigy,274
audio,275
audiophile,276
auditorium,277
august,278
authorized,279
auto,280
autofocus,281
autofocuses,282
autofocussing,283
automatic,284
automatically,285
automation,286
automode,287
avail,288
available,289
availible,290
average,291
averaging,292
avi,293
avoid,294
avoided,295
awaesome,296
aware,297
away,298
awe,299
awesome,300
awful,301
awkward,302
awsome,303
baby,304
back,305
backed,306
background,307
backgrounds,308
backlight,309
backlit,310
backup,311
backyard,312
bad,313
bag,314
bait,315
balance,316
band,317
bang,318
banged,319
bar,320
barely,321
bargain,322
barrel,323
bars,324
bart,325
base,326
based,327
bashing,328
basic,329
basically,330
basicly,331
basis,332
basketball,333
bass,334
batches,335
batteries,336
batterly,337
battery,338
bbb,339
be,340
beach,341
beast,342
beat,343
beatiful,344
beats,345
beautiful,346
became,347
becames,348
because,349
become,350
becomes,351
becoming,352
becuase,353
bed,354
bedroom,355
beef,356
beefo,357
been,358
beer,359
beetle,360
before,361
beforehand,362
began,363
begin,364
beginner,365
beginners,366
beginning,367
begins,368
behavior,369
behind,370
being,371
believe,372
belive,373
belkin,374
bell,375
bells,376
belongs,377
below,378
belt,379
bending,380
beneficial,381
benefit,382
benifit,383
beside,384
besides,385
best,386
bet,387
better,388
between,389
beunos,390
bevy,391
beware,392
beyond,393
bias,394
big,395
bigger,396
biggest,397
biggie,398
biking,399
bill,400
billing,401
bin,402
birthday,403
bit,404
bitten,405
bitter,406
black,407
blamed,408
blanks,409
blast,410
blaster,411
blazing,412
bleeding,413
blessing,414
blind,415
blip,416
blocked,417
blocking,418
bloom,419
blowing,420
blown,421
blows,422
blue,423
bluetooth,424
blunt,425
blurriness,426
blurry,427
boasts,428
boat,429
body,430
bones,431
bonus,432
book,433
booklet,434
bookmark,435
bookmarks,436
books,437
boost,438
boosting,439
bootleg,440
borderuer,441
bore,442
bored,443
boredom,444
born,445
borrow,446
borrowed,447
boss,448
both,449
bother,450
bothered,451
bottom,452
bought,453
bounce,454
bounced,455
box,456
boxy,457
boy,458
boyfriend,459
bracket,460
brag,461
brags,462
brainer,463
brand,464
branded,465
brands,466
brass,467
brazil,468
break,469
breakdown,470
breaks,471
breath,472
breathtaking,473
breeze,474
brick,475
brief,476
bright,477
brightly,478
brightness,479
brilliance,480
brilliant,481
brillient,482
bring,483
brisk,484
broke,485
broken,486
broker,487
brother,488
brothers,489
brought,490
browser,491
browsing,492
bruce,493
bruvah,494
btw,495
buck,496
bucks,497
budged,498
budget,499
buffs,500
bug,501
buget,502
build,503
building,504
buildings,505
built,506
bulging,507
bulky,508
bull,509
bullet,510
bummer,511
bumpy,512
bunch,513
bundled,514
buried,515
burn,516
burned,517
burner,518
burning,519
burns,520
burries,521
bus,522
business,523
busy,524
but,525
butt,526
button,527
buttons,528
buy,529
buyer,530
buyers,531
buying,532
buys,533
buzz,534
buzzing,535
by,536
cabinet,537
cable,538
cables,539
cage,540
cake,541
calendar,542
call,543
called,544
caller,545
calling,546
calls,547
camcorder,548
came,549
camea,550
camedia,551
camera,552
cameras,553
campaign,554
camper,555
can,556
cancel,557
candles,558
candy,559
canned,560
cannon,561
cannot,562
canon,563
cans,564
cant,565
cap,566
capabilities,567
capability,568
capable,569
capacity,570
capitalist,571
capture,572
captures,573
car,574
card,575
cards,576
care,577
careful,578
carefully,579
cares,580
carl,581
carpet,582
carrier,583
carriers,584
carries,585
carry,586
carrying,587
case,588
cases,589
cash,590
casing,591
cassette,592
cast,593
catalog,594
catch,595
categories,596
categorizes,597
category,598
cause,599
caused,600
causes,601
causing,602
caution,603
cautious,604
cavity,605
cd,606
cddb,607
cdds,608
cdma,609
cdr,610
cdrw,611
cds,612
ceases,613
ceiling,614
cell,615
cellphone,616
cent,617
center,618
centimeters,619
cents,620
century,621
certain,622
certificate,623
cf,624
chair,625
challenge,626
challenging,627
champagne,628
chance,629
chances,630
changable,631
change,632
changeable,633
changed,634
changes,635
changing,636
chapter,637
charge,638
charged,639
charger,640
charges,641
charging,642
charm,643
cheap,644
cheaper,645
cheapest,646
cheasy,647
check,648
checked,649
checking,650
cheep,651
cheerful,652
cheesiest,653
cheesy,654
chess,655
chic,656
chicago,657
children,658
chinese,659
chip,660
choice,661
choices,662
choose,663
choosing,664
chords,665
chose,666
chosing,667
christmas,668
chrome,669
chucked,670
church,671
cinch,672
cincinnati,673
cingular,674
circles,675
circulation,676
cite,677
claim,678
claiming,679
claims,680
clarity,681
class,682
classic,683
classical,684
classifed,685
classifications,686
classified,687
classify,688
clean,689
cleaned,690
clear,691
clearly,692
clerk,693
click,694
clicking,695
clicks,696
clip,697
clips,698
clock,699
close,700
closed,701
closely,702
closer,703
closest,704
clue,705
clumsy,706
clunky,707
clutter,708
coastal,709
coating,710
coax,711
cocking,712
code,713
codes,714
collaborating,715
collection,716
collections,717
college,718
collisions,719
color,720
coloration,721
colorimetry,722
colors,723
com,724
comaptible,725
combination,726
combined,727
combines,728
combo,729
combos,730
come,731
comes,732
comfortable,733
comfortably,734
comfy,735
coming,736
commander,737
commands,738
comment,739
comments,740
common,741
commonly,742
commutes,743
compact,744
compactflash,745
companies,746
company,747
comparable,748
compare,749
compared,750
comparing,751
comparison,752
compartment,753
compatability,754
compatibility,755
compatible,756
compelled,757
compensate,758
competence,759
competition,760
competitor,761
competitors,762
compilation,763
complain,764
complained,765
complaining,766
complains,767
complaint,768
complaints,769
complete,770
completely,771
completion,772
complex,773
complicated,774
component,775
compose,776
composite,777
compression,778
compromise,779
compromises,780
computer,781
computers,782
con,783
concealed,784
concentrate,785
concern,786
concerned,787
concert,788
concerts,789
concluded,790
concludes,791
conclusion,792
condition,793
conditions,794
conducive,795
confidence,796
configurable,797
configure,798
configured,799
confused,800
confusing,801
conjunction,802
connect,803
connected,804
connecting,805
connection,806
connections,807
connectivity,808
connector,809
connetions,810
cons,811
consider,812
considerable,813
consideration,814
considered,815
considering,816
consistantly,817
consistent,818
consistently,819
constant,820
constantly,821
constituants,822
constructed,823
construction,824
consumer,825
consumers,826
consuming,827
contact,828
contacted,829
contacting,830
contacts,831
contenders,832
content,833
continue,834
continued,835
continues,836
continuing,837
continuous,838
continuously,839
contorting,840
contour,841
contours,842
contract,843
contractor,844
contrary,845
contrast,846
control,847
controlling,848
controls,849
contructed,850
convenience,851
conveniences,852
convenient,853
conveniently,854
conversions,855
convert,856
converter,857
converting,858
converts,859
convinced,860
cool,861
coolest,862
coolpix,863
coolpixparsedfourdigits,864
coomes,865
copied,866
copies,867
copy,868
cord,869
corectly,870
corner,871
corners,872
corporate,873
correct,874
corrected,875
correction,876
correctly,877
correspond,878
corrrupted,879
corrupt,880
cost,881
costs,882
couch,883
could,884
couldn,885
count,886
counter,887
countertop,888
counting,889
countless,890
countries,891
country,892
couple,893
coupons,894
course,895
courtesy,896
cover,897
coverage,898
covered,899
covers,900
coveted,901
cparsedfourdigitsz,902
crack,903
craftmanship,904
cramp,905
cranky,906
crap,907
crapped,908
crappiness,909
crappy,910
craps,911
craptacular,912
crash,913
crashed,914
crashes,915
crashing,916
crazy,917
create,918
created,919
creates,920
creating,921
creation,922
creative,923
credit,924
cried,925
crisp,926
criticize,927
criticsm,928
critter,929
crop,930
crossing,931
crowded,932
cruising,933
crummy,934
csr,935
ct,936
cubic,937
cumbersome,938
currency,939
current,940
currently,941
currrently,942
curve,943
curvy,944
cust,945
custom,946
customer,947
customers,948
customerservice,949
customizable,950
customization,951
customize,952
cut,953
cute,954
cuzin,955
cvds,956
cycle,957
cycles,958
dad,959
damage,960
damaged,961
damned,962
dampening,963
dandy,964
dangerous,965
dare,966
dark,967
darker,968
darn,969
data,970
database,971
date,972
day,973
daylight,974
days,975
dazzling,976
dcs,977
ddparsedonedigit,978
deactivate,979
dead,980
deadline,981
deafults,982
deal,983
dealing,984
debit,985
decade,986
december,987
decent,988
decibles,989
decide,990
decided,991
deciding,992
decision,993
deck,994
dedicated,995
default,996
defaulted,997
defaults,998
defeats,999
defective,1000
defectively,1001
defects,1002
deficient,1003
definately,1004
defined,1005
definitely,1006
degrees,1007
delay,1008
delays,1009
delete,1010
deleted,1011
deleting,1012
delicate,1013
delighted,1014
deliver,1015
delivered,1016
delivers,1017
delivery,1018
dell,1019
demand,1020
demands,1021
den,1022
denial,1023
dennis,1024
dense,1025
density,1026
dent,1027
department,1028
dependable,1029
depending,1030
depends,1031
depressed,1032
depressing,1033
depressingly,1034
dept,1035
depth,1036
describe,1037
describing,1038
description,1039
descussion,1040
deserves,1041
design,1042
designed,1043
designing,1044
desire,1045
desk,1046
despite,1047
destroy,1048
destroyed,1049
destructed,1050
detachable,1051
detail,1052
details,1053
detectable,1054
detecting,1055
determine,1056
determined,1057
detract,1058
detracts,1059
detroit,1060
devastated,1061
developed,1062
developing,1063
development,1064
develops,1065
device,1066
devices,1067
diagnos,1068
diagnose,1069
dial,1070
dialing,1071
dialogue,1072
did,1073
didn,1074
didnt,1075
die,1076
died,1077
dies,1078
difference,1079
differences,1080
different,1081
differential,1082
differing,1083
difficult,1084
difficulties,1085
difficulty,1086
diggin,1087
digi,1088
digicam,1089
digicams,1090
digital,1091
dim,1092
dimage,1093
dimished,1094
diopter,1095
direct,1096
direction,1097
directions,1098
directly,1099
directory,1100
dirty,1101
dis,1102
disable,1103
disadvantages,1104
disapointed,1105
disappeared,1106
disappoint,1107
disappointed,1108
disappointing,1109
disappointment,1110
disc,1111
discount,1112
discoutinous,1113
discover,1114
discovered,1115
discovering,1116
discovery,1117
discs,1118
disdain,1119
disgusted,1120
disipointed,1121
disk,1122
disks,1123
dislikes,1124
disney,1125
display,1126
displayed,1127
displaying,1128
displays,1129
disposable,1130
dissapears,1131
dissapointed,1132
dissapointment,1133
dissapointments,1134
dissappointed,1135
dissatisified,1136
dissuade,1137
distance,1138
distorted,1139
distortion,1140
distraction,1141
disturbance,1142
disturbing,1143
ditties,1144
divided,1145
division,1146
divx,1147
do,1148
dock,1149
docking,1150
document,1151
documentation,1152
documented,1153
documents,1154
does,1155
doesn,1156
doesnt,1157
dog,1158
dogs,1159
doing,1160
dollar,1161
dollars,1162
dominant,1163
don,1164
done,1165
donkey,1166
donno,1167
dont,1168
door,1169
double,1170
doubler,1171
doubles,1172
doubt,1173
doubts,1174
down,1175
downer,1176
downfall,1177
downladed,1178
download,1179
downloadable,1180
downloaded,1181
downloading,1182
downloads,1183
downside,1184
dozen,1185
dozens,1186
dparsedthreedigitss,1187
dpreview,1188
dpreviews,1189
drag,1190
dragging,1191
drain,1192
drains,1193
drastically,1194
drawback,1195
drawbacks,1196
drawer,1197
dream,1198
drive,1199
driver,1200
drivers,1201
drives,1202
driving,1203
drop,1204
dropped,1205
dropping,1206
drops,1207
drove,1208
dry,1209
dsc,1210
dsf,1211
dts,1212
du,1213
dual,1214
ducking,1215
due,1216
dull,1217
dumb,1218
dummy,1219
dumps,1220
duper,1221
duplicate,1222
duplicates,1223
durability,1224
durable,1225
duration,1226
during,1227
dust,1228
dutch,1229
dvd,1230
dvdr,1231
dvdrw,1232
dvds,1233
dye,1234
dying,1235
dynamic,1236
each,1237
eamil,1238
ear,1239
earbuds,1240
earlier,1241
early,1242
earnest,1243
earphone,1244
earphones,1245
earpice,1246
earpiece,1247
ears,1248
ease,1249
easier,1250
easiest,1251
easily,1252
east,1253
easy,1254
eat,1255
eax,1256
ebay,1257
eclectic,1258
ect,1259
edge,1260
edges,1261
edit,1262
editing,1263
effect,1264
effective,1265
effort,1266
eg,1267
eh,1268
either,1269
eject,1270
elderly,1271
electricity,1272
electronic,1273
electronics,1274
elegant,1275
eliminate,1276
eliminated,1277
elments,1278
elph,1279
elphs,1280
else,1281
elses,1282
elsewhere,1283
elusive,1284
em,1285
email,1286
emailed,1287
emailing,1288
emails,1289
embarassing,1290
embarrassed,1291
embedded,1292
employees,1293
enable,1294
enabled,1295
enables,1296
enabling,1297
enclose,1298
enclosed,1299
encode,1300
encoded,1301
encoding,1302
encounter,1303
encountered,1304
end,1305
ended,1306
endless,1307
endlessly,1308
ends,1309
engage,1310
engery,1311
engine,1312
engineer,1313
engineered,1314
engineering,1315
english,1316
engorged,1317
enhancement,1318
enhancing,1319
enjoy,1320
enjoyed,1321
enjoying,1322
enjoyment,1323
enjoys,1324
enlarge,1325
enlarging,1326
enormous,1327
enough,1328
enought,1329
ensure,1330
ensuring,1331
enter,1332
entering,1333
entertaining,1334
enthusiast,1335
enthusiastic,1336
enthusiastically,1337
entire,1338
entries,1339
entry,1340
envied,1341
environment,1342
environmental,1343
environments,1344
eos,1345
epinions,1346
episodes,1347
eq,1348
equal,1349
equalizer,1350
equally,1351
equipment,1352
equipped,1353
equivalent,1354
ergonomical,1355
ergonomics,1356
ericsson,1357
error,1358
errors,1359
erros,1360
especially,1361
essentially,1362
established,1363
estate,1364
estimate,1365
etc,1366
ethernet,1367
euphoria,1368
europe,1369
european,1370
evaluated,1371
evaulate,1372
even,1373
evening,1374
event,1375
eventhough,1376
eventually,1377
eventualy,1378
ever,1379
every,1380
everyone,1381
everythig,1382
everything,1383
everywhere,1384
evils,1385
evolve,1386
ex,1387
exactly,1388
exaggerated,1389
example,1390
exceeded,1391
exceedingly,1392
excel,1393
excellent,1394
except,1395
exception,1396
exceptional,1397
excessive,1398
exchange,1399
excited,1400
exclusively,1401
excuse,1402
exhaustive,1403
exhibited,1404
exhustive,1405
exist,1406
existing,1407
expecct,1408
expect,1409
expectation,1410
expectations,1411
expected,1412
expecting,1413
expedited,1414
expense,1415
expensive,1416
experience,1417
experienced,1418
experiment,1419
experimented,1420
experimenting,1421
experince,1422
expert,1423
expire,1424
expired,1425
expires,1426
explain,1427
explained,1428
explains,1429
exploit,1430
explored,1431
explorer,1432
exposed,1433
exposure,1434
exposures,1435
extemely,1436
extended,1437
extension,1438
extensive,1439
extensively,1440
external,1441
extra,1442
extraneous,1443
extras,1444
extreme,1445
extremely,1446
eye,1447
eyed,1448
eyeing,1449
eyesight,1450
ez,1451
fabulous,1452
face,1453
faceplate,1454
faceplates,1455
fact,1456
factor,1457
factoring,1458
factors,1459
factory,1460
faded,1461
fail,1462
failed,1463
failing,1464
fails,1465
failure,1466
fair,1467
fairly,1468
faithfully,1469
fall,1470
falling,1471
falls,1472
false,1473
familiar,1474
family,1475
familyplan,1476
famous,1477
fan,1478
fans,1479
fantasic,1480
fantastic,1481
fantastically,1482
fantasy,1483
far,1484
fashioned,1485
fast,1486
faster,1487
father,1488
fault,1489
faulty,1490
fav,1491
favor,1492
favorite,1493
fax,1494
fe,1495
fear,1496
feature,1497
featured,1498
features,1499
february,1500
fed,1501
feed,1502
feedback,1503
feel,1504
feeling,1505
feelings,1506
feels,1507
feet,1508
fell,1509
fellow,1510
felt,1511
fetch,1512
few,1513
fiddling,1514
field,1515
fields,1516
fifty,1517
figure,1518
figured,1519
figures,1520
file,1521
filecount,1522
filenames,1523
files,1524
fileviewer,1525
filing,1526
fill,1527
filled,1528
filling,1529
fillmore,1530
film,1531
filter,1532
filters,1533
finally,1534
find,1535
finder,1536
finding,1537
fine,1538
finer,1539
finest,1540
finger,1541
fingers,1542
finicky,1543
finish,1544
finished,1545
fire,1546
fired,1547
firewire,1548
firmware,1549
first,1550
fisher,1551
fit,1552
fits,1553
five,1554
fix,1555
fixed,1556
fixes,1557
fixing,1558
fizzled,1559
flagship,1560
flaky,1561
flash,1562
flashes,1563
flashy,1564
flat,1565
flaw,1566
flawed,1567
flawless,1568
flawlessly,1569
flaws,1570
flew,1571
flexibility,1572
flexible,1573
flight,1574
flimsy,1575
flip,1576
flowers,1577
fluid,1578
fly,1579
flyball,1580
flywheel,1581
fm,1582
focal,1583
focus,1584
focused,1585
focusing,1586
focussing,1587
folder,1588
folders,1589
folks,1590
follow,1591
followed,1592
following,1593
fool,1594
fooled,1595
foot,1596
for,1597
force,1598
forced,1599
foreign,1600
foremost,1601
forests,1602
forever,1603
forewarned,1604
forget,1605
forgo,1606
forgot,1607
forgotten,1608
form,1609
format,1610
formats,1611
formatted,1612
formatting,1613
forth,1614
fortunately,1615
fortune,1616
forward,1617
found,1618
four,1619
fparsedonedigit,1620
fparsedthreedigits,1621
fraction,1622
fragile,1623
frame,1624
free,1625
freeway,1626
freeze,1627
freezes,1628
freezing,1629
frend,1630
frequent,1631
frequently,1632
fried,1633
friend,1634
friendlier,1635
friendly,1636
friends,1637
fringing,1638
from,1639
front,1640
froze,1641
frozen,1642
frustrated,1643
frustrating,1644
frustration,1645
ft,1646
full,1647
fully,1648
fumble,1649
fun,1650
func,1651
function,1652
functional,1653
functionality,1654
functions,1655
funky,1656
funny,1657
funtion,1658
further,1659
fussy,1660
future,1661
gadget,1662
gadgets,1663
gain,1664
gaining,1665
gains,1666
gallery,1667
game,1668
games,1669
gap,1670
garbage,1671
garbling,1672
gave,1673
gb,1674
gear,1675
geared,1676
geeky,1677
gem,1678
general,1679
generally,1680
generate,1681
generated,1682
generation,1683
generations,1684
genre,1685
genres,1686
gentlest,1687
german,1688
get,1689
gets,1690
getting,1691
ghz,1692
gift,1693
gifts,1694
gig,1695
gigabyte,1696
gigabytes,1697
gigantic,1698
gigs,1699
girl,1700
girlfriend,1701
give,1702
given,1703
gives,1704
giving,1705
gizmo,1706
glad,1707
glance,1708
glaring,1709
glass,1710
glaze,1711
glinting,1712
glitches,1713
glitters,1714
globally,1715
glove,1716
glow,1717
glowing,1718
go,1719
goddam,1720
goddaughter,1721
goes,1722
going,1723
gold,1724
golden,1725
gon,1726
gone,1727
good,1728
goodness,1729
goofy,1730
google,1731
got,1732
goth,1733
gotted,1734
gotten,1735
gparsedonedigit,1736
gprs,1737
grab,1738
gracenotes,1739
grade,1740
grain,1741
grainy,1742
grand,1743
grandma,1744
grandmother,1745
granted,1746
graphics,1747
gravitated,1748
gray,1749
great,1750
greater,1751
greatest,1752
green,1753
grieps,1754
grip,1755
gripe,1756
groovy,1757
grossly,1758
group,1759
groups,1760
grow,1761
gsm,1762
gsmparsedthreedigits,1763
guarantee,1764
guess,1765
guessing,1766
guide,1767
guides,1768
gut,1769
guy,1770
gym,1771
habit,1772
hacked,1773
hacks,1774
had,1775
hadn,1776
haggard,1777
half,1778
halfway,1779
hand,1780
handbag,1781
handbags,1782
handed,1783
handle,1784
handles,1785
hands,1786
handset,1787
handsets,1788
handsfree,1789
handy,1790
hang,1791
hanging,1792
hangs,1793
happen,1794
happened,1795
happens,1796
happier,1797
happily,1798
happy,1799
hard,1800
harddisk,1801
harder,1802
hardest,1803
hardly,1804
hardware,1805
harm,1806
has,1807
hasn,1808
hasnt,1809
hassle,1810
hate,1811
hates,1812
haul,1813
have,1814
haven,1815
havent,1816
having,1817
havoc,1818
hazard,1819
hazy,1820
hazzles,1821
hd,1822
hdd,1823
hddparsedthreedigits,1824
hdtv,1825
he,1826
head,1827
headache,1828
headaches,1829
headed,1830
headfone,1831
heading,1832
headphone,1833
headphones,1834
heads,1835
headset,1836
health,1837
hear,1838
heard,1839
hearing,1840
heart,1841
heartedly,1842
heaven,1843
heavier,1844
heaviest,1845
heavily,1846
heavy,1847
heck,1848
heed,1849
heft,1850
held,1851
hell,1852
hellishly,1853
help,1854
helped,1855
helpful,1856
helps,1857
hendrix,1858
her,1859
herd,1860
here,1861
herself,1862
hesitant,1863
hesitation,1864
hey,1865
hi,1866
hick,1867
hidden,1868
hides,1869
high,1870
higher,1871
highest,1872
highlights,1873
highly,1874
him,1875
hinderance,1876
hinged,1877
hint,1878
hip,1879
hipster,1880
his,1881
hiss,1882
hissing,1883
history,1884
hit,1885
hitch,1886
hits,1887
hitting,1888
ho,1889
hobbiest,1890
hold,1891
holding,1892
holds,1893
hole,1894
holiday,1895
home,1896
homely,1897
homework,1898
honestly,1899
hook,1900
hooked,1901
hooking,1902
hoome,1903
hooray,1904
hope,1905
hoped,1906
hopefully,1907
hopes,1908
hoping,1909
horoscopes,1910
horrendous,1911
horrible,1912
horribly,1913
hot,1914
hotkey,1915
hour,1916
hours,1917
house,1918
hovewer,1919
how,1920
however,1921
hrs,1922
http,1923
huge,1924
hum,1925
hundred,1926
hundreds,1927
hurdles,1928
hurry,1929
hurt,1930
hurts,1931
husband,1932
hype,1933
hyped,1934
ibm,1935
ibook,1936
ice,1937
icing,1938
iconoclast,1939
id,1940
ide,1941
idea,1942
ideal,1943
ideas,1944
identical,1945
identified,1946
identify,1947
identifying,1948
idiot,1949
idparsedonedigit,1950
idparsedonedigitvparseddigits,1951
if,1952
ignorant,1953
ignore,1954
ignored,1955
iguazu,1956
ihp,1957
ii,1958
ill,1959
illiterate,1960
illuminates,1961
im,1962
image,1963
images,1964
imagine,1965
imaging,1966
imho,1967
immaterial,1968
immediately,1969
immense,1970
imo,1971
impatient,1972
import,1973
important,1974
imports,1975
impossible,1976
impossibly,1977
impress,1978
impressed,1979
impression,1980
impressive,1981
improve,1982
improved,1983
improvement,1984
improves,1985
in,1986
inbox,1987
inbuilt,1988
inch,1989
inches,1990
incident,1991
inclined,1992
include,1993
included,1994
includes,1995
including,1996
inconveinent,1997
inconveniences,1998
inconvenient,1999
incorrect,2000
increadably,2001
increase,2002
increased,2003
incredibe,2004
incredible,2005
incredibly,2006
indeed,2007
indestructibility,2008
indicate,2009
indicated,2010
indicator,2011
indirect,2012
indistinguishable,2013
individualized,2014
individually,2015
indoor,2016
inept,2017
inexpensive,2018
inferior,2019
infinitely,2020
info,2021
information,2022
informed,2023
infrared,2024
infuriating,2025
initial,2026
initially,2027
innovative,2028
inoperable,2029
inordinate,2030
input,2031
inputparsedonedigit,2032
insanely,2033
insert,2034
inserted,2035
insertion,2036
inside,2037
insisting,2038
inspection,2039
inspired,2040
instability,2041
install,2042
installation,2043
installed,2044
installing,2045
installs,2046
instance,2047
instances,2048
instant,2049
instantly,2050
instead,2051
instincts,2052
instruction,2053
instructions,2054
instruments,2055
insure,2056
insurmoutable,2057
integrated,2058
integrates,2059
intend,2060
intended,2061
intense,2062
intent,2063
interacts,2064
interest,2065
interested,2066
interesting,2067
interface,2068
interfacing,2069
interference,2070
interferes,2071
interlace,2072
internal,2073
international,2074
internationally,2075
internet,2076
interruption,2077
into,2078
intrested,2079
introduce,2080
intuitive,2081
invest,2082
investigating,2083
investing,2084
investment,2085
involved,2086
involves,2087
ion,2088
iphoto,2089
ipod,2090
ipodders,2091
ipods,2092
ipodsdirtysecret,2093
ir,2094
irda,2095
iriver,2096
irivers,2097
irony,2098
irriation,2099
is,2100
isacc,2101
isn,2102
isnt,2103
iso,2104
isolated,2105
issue,2106
issues,2107
it,2108
italian,2109
item,2110
items,2111
ithave,2112
its,2113
itself,2114
itunes,2115
ive,2116
jack,2117
jacks,2118
jan,2119
january,2120
java,2121
jazz,2122
jet,2123
jimi,2124
jme,2125
job,2126
jobs,2127
joe,2128
jog,2129
jogger,2130
jogging,2131
join,2132
joined,2133
joke,2134
jones,2135
jour,2136
journey,2137
jpeg,2138
jpegs,2139
jpgs,2140
judgement,2141
juice,2142
jukebox,2143
jukeboxed,2144
jukeboxes,2145
july,2146
jumping,2147
junk,2148
junky,2149
just,2150
justify,2151
jvc,2152
karma,2153
karoake,2154
kbps,2155
keen,2156
keep,2157
keepers,2158
keeping,2159
keeps,2160
kenny,2161
kentucky,2162
kept,2163
key,2164
keychain,2165
keying,2166
keypad,2167
keypads,2168
keys,2169
kicks,2170
kid,2171
kids,2172
kill,2173
killer,2174
kind,2175
kinda,2176
kingston,2177
kitchen,2178
kits,2179
knew,2180
knife,2181
knob,2182
knock,2183
knocked,2184
knockoff,2185
know,2186
knowing,2187
knowledge,2188
known,2189
knows,2190
kodak,2191
korean,2192
koreans,2193
kpbs,2194
kudos,2195
kuwait,2196
lab,2197
labled,2198
labor,2199
labs,2200
lack,2201
lacking,2202
lacks,2203
lag,2204
laid,2205
lame,2206
landed,2207
landscape,2208
language,2209
languages,2210
lap,2211
laptop,2212
large,2213
larger,2214
last,2215
lasted,2216
lasting,2217
lastly,2218
lasts,2219
latch,2220
late,2221
later,2222
latest,2223
latitude,2224
latter,2225
launched,2226
laundry,2227
layer,2228
layout,2229
lazy,2230
lcd,2231
lead,2232
leading,2233
learn,2234
learned,2235
learning,2236
lease,2237
least,2238
leather,2239
leave,2240
leaving,2241
lebovitz,2242
led,2243
left,2244
leg,2245
legendary,2246
legit,2247
legitimate,2248
leica,2249
lemon,2250
len,2251
length,2252
lengthy,2253
lens,2254
lense,2255
lenses,2256
lensmateonline,2257
less,2258
lesser,2259
lesson,2260
let,2261
lets,2262
letterbox,2263
level,2264
levels,2265
lever,2266
lexar,2267
li,2268
library,2269
lid,2270
lie,2271
life,2272
lifespan,2273
lifted,2274
light,2275
lighter,2276
lighting,2277
lightingfast,2278
lightly,2279
lightweight,2280
like,2281
liked,2282
likely,2283
likes,2284
liking,2285
likings,2286
lil,2287
limit,2288
limitations,2289
limited,2290
limits,2291
line,2292
lines,2293
link,2294
linked,2295
lip,2296
lips,2297
list,2298
listed,2299
listen,2300
listened,2301
listener,2302
listening,2303
listing,2304
listings,2305
lists,2306
lit,2307
literature,2308
lithium,2309
litium,2310
little,2311
live,2312
living,2313
ll,2314
lmost,2315
load,2316
loaded,2317
loading,2318
loads,2319
local,2320
locate,2321
located,2322
locating,2323
location,2324
locations,2325
lock,2326
locked,2327
locking,2328
locks,2329
log,2330
logged,2331
logically,2332
lol,2333
lonely,2334
long,2335
longer,2336
longest,2337
longevity,2338
look,2339
looked,2340
looking,2341
looks,2342
loose,2343
los,2344
lose,2345
losing,2346
loss,2347
lost,2348
lot,2349
lots,2350
loud,2351
lousy,2352
love,2353
loved,2354
lovers,2355
loves,2356
loving,2357
low,2358
lower,2359
lowest,2360
lparsedfourdigits,2361
lttle,2362
luck,2363
lucky,2364
lug,2365
lugging,2366
lumix,2367
lump,2368
lunch,2369
luxury,2370
lying,2371
lyra,2372
mac,2373
machine,2374
machinery,2375
machines,2376
macro,2377
macrovision,2378
mad,2379
made,2380
magazines,2381
magnesium,2382
magnification,2383
mail,2384
mailing,2385
mails,2386
main,2387
mainly,2388
major,2389
majority,2390
make,2391
maker,2392
makes,2393
making,2394
man,2395
manage,2396
managed,2397
manager,2398
managing,2399
manipulate,2400
manner,2401
manual,2402
manually,2403
manufactured,2404
manufacturer,2405
manufacturers,2406
manufacturing,2407
manuver,2408
many,2409
march,2410
marked,2411
market,2412
marketing,2413
markup,2414
marriage,2415
martian,2416
marvel,2417
mass,2418
massive,2419
mastered,2420
match,2421
material,2422
math,2423
matter,2424
matters,2425
mature,2426
matured,2427
max,2428
maximum,2429
may,2430
maybe,2431
mayybe,2432
mb,2433
mbyte,2434
me,2435
mean,2436
meaning,2437
means,2438
meant,2439
measly,2440
mechanically,2441
mechanics,2442
mechanism,2443
media,2444
mediaplay,2445
mediaplayer,2446
mediasource,2447
medical,2448
mediocre,2449
medium,2450
meet,2451
mega,2452
megabyte,2453
megapixel,2454
megapixels,2455
members,2456
memories,2457
memorized,2458
memory,2459
mention,2460
mentioned,2461
mentions,2462
menu,2463
menus,2464
merchant,2465
mess,2466
message,2467
messages,2468
messed,2469
messenger,2470
messing,2471
met,2472
meta,2473
metal,2474
metallic,2475
meter,2476
metering,2477
method,2478
methods,2479
metrics,2480
metz,2481
mhz,2482
microdrive,2483
microdrives,2484
microseconds,2485
microsoft,2486
midi,2487
might,2488
mighty,2489
miles,2490
mind,2491
mine,2492
mini,2493
minilux,2494
minimal,2495
minimize,2496
minolta,2497
minor,2498
mins,2499
minus,2500
minute,2501
minutes,2502
minutest,2503
mirror,2504
mirrors,2505
misfortune,2506
miss,2507
missed,2508
missing,2509
mistake,2510
mix,2511
mixed,2512
mixing,2513
mls,2514
mm,2515
mms,2516
mo,2517
mobile,2518
mode,2519
model,2520
models,2521
modem,2522
moderate,2523
moderately,2524
modern,2525
modes,2526
modify,2527
module,2528
mom,2529
moment,2530
moments,2531
mon,2532
money,2533
monitor,2534
monster,2535
monstrosity,2536
month,2537
months,2538
mooooooh,2539
moot,2540
more,2541
moreover,2542
morning,2543
mortar,2544
most,2545
mostly,2546
motivate,2547
motor,2548
motorola,2549
motorolla,2550
mountain,2551
mounted,2552
move,2553
moveable,2554
movement,2555
movie,2556
movies,2557
moving,2558
mp,2559
mparsedonedigitu,2560
mpeg,2561
mpegparsedonedigit,2562
mpparsedonedigit,2563
mpparsedonedigits,2564
ms,2565
mtc,2566
much,2567
multi,2568
multidisk,2569
multiformat,2570
multilple,2571
multimedia,2572
multiple,2573
multitude,2574
murals,2575
murphy,2576
music,2577
musical,2578
musicmatch,2579
must,2580
muvo,2581
my,2582
myriad,2583
myself,2584
na,2585
nah,2586
name,2587
namely,2588
names,2589
napster,2590
narrowed,2591
national,2592
nations,2593
natural,2594
naturally,2595
navigate,2596
navigating,2597
navigation,2598
navigational,2599
navigator,2600
naysayers,2601
near,2602
nearly,2603
neat,2604
neccessary,2605
necessarily,2606
necessary,2607
neck,2608
need,2609
needed,2610
needing,2611
needless,2612
needs,2613
negative,2614
negatives,2615
neither,2616
net,2617
network,2618
neutral,2619
never,2620
new,2621
newbies,2622
newer,2623
newly,2624
next,2625
nice,2626
nicely,2627
nicer,2628
nicest,2629
nicities,2630
night,2631
nightmare,2632
nikon,2633
nirvana,2634
nits,2635
no,2636
noise,2637
noiseless,2638
noises,2639
nokia,2640
nokias,2641
nokiausa,2642
nomad,2643
nomadness,2644
nomadworld,2645
non,2646
none,2647
nonetheless,2648
nonexistant,2649
nonflip,2650
nonresponsive,2651
nor,2652
normal,2653
northern,2654
not,2655
notch,2656
note,2657
notebook,2658
noted,2659
nothing,2660
notice,2661
noticeable,2662
noticeably,2663
noticed,2664
noting,2665
notmad,2666
november,2667
novice,2668
now,2669
nparsedtwodigits,2670
nparsedtwodigitss,2671
ntsc,2672
nudge,2673
number,2674
numbering,2675
numbers,2676
numbskulls,2677
numerous,2678
nuts,2679
nx,2680
objections,2681
objects,2682
obscures,2683
observed,2684
obstacle,2685
obstruct,2686
obstructed,2687
obstructs,2688
obtain,2689
obtainable,2690
obtaining,2691
obvious,2692
obviously,2693
occaisions,2694
occasion,2695
occasional,2696
occasionally,2697
occasions,2698
occludes,2699
occur,2700
occurrences,2701
occurs,2702
odd,2703
oddities,2704
of,2705
off,2706
offensive,2707
offer,2708
offered,2709
offering,2710
offers,2711
office,2712
officemax,2713
offsets,2714
often,2715
oh,2716
ok,2717
okay,2718
okayed,2719
old,2720
older,2721
olympus,2722
on,2723
once,2724
onceagain,2725
one,2726
ones,2727
onkyo,2728
online,2729
only,2730
onscreen,2731
onto,2732
ooh,2733
open,2734
opened,2735
opening,2736
operate,2737
operates,2738
operating,2739
operation,2740
operator,2741
operators,2742
opinion,2743
opinions,2744
opposed,2745
oppressed,2746
opted,2747
optic,2748
optical,2749
optics,2750
optimized,2751
option,2752
optional,2753
options,2754
or,2755
orange,2756
orchestra,2757
order,2758
ordered,2759
ordering,2760
organization,2761
organize,2762
organized,2763
organizer,2764
organizing,2765
oriented,2766
original,2767
originally,2768
os,2769
ot,2770
other,2771
otherdigicam,2772
others,2773
otherwise,2774
ounces,2775
our,2776
out,2777
outdoor,2778
outfitters,2779
outlet,2780
outlook,2781
outnumber,2782
outperforms,2783
output,2784
outputs,2785
outs,2786
outstanding,2787
outtakes,2788
outweigh,2789
outweighed,2790
outweighs,2791
over,2792
overall,2793
overloaded,2794
overlook,2795
overly,2796
overpriced,2797
overrides,2798
overseas,2799
oversight,2800
overused,2801
overview,2802
overworked,2803
overwrite,2804
own,2805
owned,2806
owner,2807
owners,2808
owning,2809
oz,2810
pace,2811
pack,2812
package,2813
packaged,2814
packed,2815
packing,2816
packs,2817
page,2818
pages,2819
paid,2820
pain,2821
painless,2822
paintball,2823
pair,2824
pairs,2825
pal,2826
pales,2827
palm,2828
paltry,2829
panasonic,2830
panasonics,2831
pancakes,2832
panel,2833
panoramic,2834
pants,2835
paper,2836
paperweight,2837
par,2838
parallax,2839
parent,2840
parents,2841
park,2842
parseddigits,2843
parseddigitsgb,2844
parseddigitsmb,2845
parseddigitsmp,2846
parseddigitsx,2847
parsedfivedigits,2848
parsedfourdigits,2849
parsedfourdigitsc,2850
parsedfourdigitss,2851
parsedfourdigitsx,2852
parsedfourdigitsxparseddigits,2853
parsedonedigit,2854
parsedonedigita,2855
parsedonedigitapexgo,2856
parsedonedigitft,2857
parsedonedigitgb,2858
parsedonedigitgz,2859
parsedonedigitk,2860
parsedonedigitlb,2861
parsedonedigitm,2862
parsedonedigitmb,2863
parsedonedigitmp,2864
parsedonedigitnd,2865
parsedonedigitrd,2866
parsedonedigits,2867
parsedonedigitst,2868
parsedonedigitth,2869
parsedonedigitx,2870
parsedonedigitxparsedtwodigits,2871
parsedthreedigits,2872
parsedthreedigitsbps,2873
parsedthreedigitskb,2874
parsedthreedigitskbps,2875
parsedthreedigitskbs,2876
parsedthreedigitsmb,2877
parsedthreedigitsmeg,2878
parsedthreedigitsv,2879
parsedtwodigits,2880
parsedtwodigitscl,2881
parsedtwodigitsdb,2882
parsedtwodigitsg,2883
parsedtwodigitsgb,2884
parsedtwodigitshrs,2885
parsedtwodigitsin,2886
parsedtwodigitsk,2887
parsedtwodigitsmb,2888
parsedtwodigitsmm,2889
parsedtwodigitsst,2890
parsedtwodigitsth,2891
parsedtwodigitsusd,2892
parsedtwodigitsx,2893
part,2894
partially,2895
particular,2896
particularly,2897
parties,2898
parts,2899
party,2900
pass,2901
past,2902
patches,2903
patience,2904
patient,2905
pause,2906
pay,2907
paying,2908
pb,2909
pc,2910
pcs,2911
pda,2912
pdf,2913
peace,2914
peers,2915
peice,2916
penny,2917
pentium,2918
people,2919
per,2920
percent,2921
perceptible,2922
perfect,2923
perfection,2924
perfectly,2925
perform,2926
performance,2927
performer,2928
performs,2929
perhaps,2930
period,2931
peripheral,2932
permanently,2933
person,2934
persona,2935
personal,2936
personally,2937
personnel,2938
perspective,2939
phenomenon,2940
philips,2941
phone,2942
phonebook,2943
phones,2944
photo,2945
photograph,2946
photographer,2947
photographers,2948
photographic,2949
photographs,2950
photography,2951
photorealistic,2952
photos,2953
photoshop,2954
photostich,2955
photosuite,2956
physical,2957
pic,2958
picasa,2959
pick,2960
picked,2961
picking,2962
pickup,2963
pics,2964
picture,2965
pictured,2966
picturers,2967
pictures,2968
pie,2969
piece,2970
pieces,2971
pig,2972
piggy,2973
pillowside,2974
pim,2975
pin,2976
pinch,2977
pioneer,2978
pitch,2979
pitched,2980
pitiful,2981
pix,2982
pixel,2983
pixels,2984
place,2985
placed,2986
places,2987
plain,2988
plan,2989
plane,2990
planes,2991
planning,2992
plans,2993
plastic,2994
plasticky,2995
plate,2996
play,2997
playback,2998
played,2999
player,3000
players,3001
playing,3002
playlist,3003
playlists,3004
plays,3005
pleaded,3006
please,3007
pleased,3008
pleasing,3009
plenty,3010
plopping,3011
plug,3012
plugged,3013
plunge,3014
plus,3015
plusses,3016
pocket,3017
pockets,3018
pod,3019
point,3020
pointed,3021
points,3022
policy,3023
polymer,3024
polymorphic,3025
polyphonic,3026
poor,3027
poorly,3028
pop,3029
poping,3030
popped,3031
popping,3032
pops,3033
popular,3034
populate,3035
port,3036
portable,3037
portrait,3038
portraits,3039
pos,3040
poser,3041
position,3042
positions,3043
positive,3044
positives,3045
possibilities,3046
possible,3047
possibly,3048
post,3049
postage,3050
posted,3051
posters,3052
posts,3053
potential,3054
potentially,3055
pouch,3056
power,3057
powered,3058
powerful,3059
powerhouse,3060
powering,3061
powershot,3062
practically,3063
practice,3064
practices,3065
praise,3066
pre,3067
predecessor,3068
predict,3069
prefer,3070
preference,3071
preferences,3072
preferred,3073
premanent,3074
premium,3075
prepaid,3076
prepared,3077
present,3078
presents,3079
presets,3080
press,3081
pressed,3082
pressing,3083
pressure,3084
prettier,3085
pretty,3086
prev,3087
prevent,3088
preview,3089
previews,3090
previous,3091
previously,3092
price,3093
priced,3094
prices,3095
pricey,3096
pricing,3097
primarily,3098
primary,3099
prime,3100
print,3101
printed,3102
printer,3103
printing,3104
prints,3105
prior,3106
priority,3107
pro,3108
prob,3109
probably,3110
problem,3111
problems,3112
probly,3113
probram,3114
proceeded,3115
process,3116
processed,3117
processing,3118
produce,3119
produced,3120
produces,3121
product,3122
production,3123
products,3124
profession,3125
professional,3126
professionally,3127
profile,3128
progam,3129
program,3130
programming,3131
programs,3132
progress,3133
progressive,3134
promised,3135
promps,3136
prompt,3137
promptly,3138
prone,3139
proof,3140
proper,3141
properly,3142
propietary,3143
proprietary,3144
pros,3145
prospective,3146
protect,3147
protection,3148
protective,3149
protector,3150
protects,3151
prove,3152
proven,3153
proverbial,3154
provide,3155
provided,3156
provider,3157
provides,3158
providing,3159
pry,3160
ps,3161
pseudo,3162
psparsedonedigit,3163
psychidelic,3164
public,3165
pull,3166
pulled,3167
pulling,3168
pulls,3169
pup,3170
puppies,3171
purchase,3172
purchased,3173
purchasing,3174
pure,3175
purple,3176
purpose,3177
purposes,3178
push,3179
pushed,3180
pushing,3181
put,3182
puts,3183
puzzles,3184
quad,3185
qualities,3186
quality,3187
quarter,3188
queried,3189
question,3190
questioned,3191
questions,3192
quibble,3193
quick,3194
quicker,3195
quickly,3196
quicky,3197
quiet,3198
quieter,3199
quietly,3200
quirks,3201
quirky,3202
quit,3203
quite,3204
qulaity,3205
quote,3206
ra,3207
rack,3208
rad,3209
radio,3210
raise,3211
ral,3212
ram,3213
ran,3214
random,3215
range,3216
rank,3217
rapid,3218
rapidly,3219
rare,3220
rarely,3221
rate,3222
rated,3223
rates,3224
rather,3225
rating,3226
ratio,3227
raw,3228
razor,3229
rca,3230
re,3231
reach,3232
reachable,3233
read,3234
readable,3235
reader,3236
readers,3237
readily,3238
reading,3239
reads,3240
ready,3241
real,3242
realation,3243
realistic,3244
reality,3245
realize,3246
realized,3247
realizes,3248
really,3249
rear,3250
reason,3251
reasonable,3252
reasonably,3253
reasons,3254
rebate,3255
rebates,3256
reboot,3257
rebooted,3258
rec,3259
recall,3260
receipt,3261
receive,3262
received,3263
receiver,3264
receivers,3265
receives,3266
receiving,3267
recent,3268
recently,3269
reception,3270
rechargable,3271
recharge,3272
rechargeable,3273
recharged,3274
recharger,3275
recharges,3276
recharging,3277
rechargings,3278
recieved,3279
recogmend,3280
recognize,3281
recognized,3282
recognizes,3283
recognizing,3284
recomend,3285
recommend,3286
recommendation,3287
recommendations,3288
recommended,3289
recomment,3290
record,3291
recorder,3292
recording,3293
records,3294
recored,3295
recreate,3296
rectangular,3297
recycling,3298
red,3299
redchair,3300
redeye,3301
redhat,3302
redwood,3303
refer,3304
referred,3305
reflected,3306
reflects,3307
refreshing,3308
refund,3309
refunded,3310
refunds,3311
refuse,3312
refused,3313
refuses,3314
regard,3315
regards,3316
region,3317
regional,3318
register,3319
registered,3320
regret,3321
regrets,3322
regular,3323
rejected,3324
relation,3325
relatively,3326
relax,3327
release,3328
released,3329
releases,3330
releasing,3331
relevant,3332
reliability,3333
reliable,3334
reliance,3335
relies,3336
reloaded,3337
rely,3338
remain,3339
remainder,3340
remaining,3341
remarkable,3342
remember,3343
reminded,3344
remixes,3345
remorse,3346
remote,3347
remotes,3348
removable,3349
remove,3350
removed,3351
rename,3352
renaming,3353
rendered,3354
rendering,3355
renewal,3356
rent,3357
rental,3358
rented,3359
rep,3360
repaing,3361
repair,3362
repairs,3363
repeat,3364
repeated,3365
repeatedly,3366
replacable,3367
replace,3368
replaceable,3369
replaced,3370
replacement,3371
replaces,3372
replacing,3373
repleace,3374
replies,3375
replug,3376
reply,3377
replying,3378
report,3379
reported,3380
reports,3381
repost,3382
representative,3383
represents,3384
reproduced,3385
reps,3386
reputable,3387
reputation,3388
requested,3389
requesting,3390
require,3391
required,3392
requirements,3393
requires,3394
res,3395
rescue,3396
research,3397
researched,3398
researching,3399
resellers,3400
resent,3401
reservations,3402
reset,3403
resilience,3404
resol,3405
resolution,3406
resolutions,3407
resolve,3408
resolves,3409
reson,3410
resources,3411
respect,3412
respected,3413
respond,3414
responded,3415
response,3416
responses,3417
responsible,3418
responsive,3419
rest,3420
resting,3421
result,3422
resulted,3423
resulting,3424
results,3425
retail,3426
retailer,3427
retailers,3428
retention,3429
retraction,3430
return,3431
returned,3432
returning,3433
returns,3434
revamp,3435
reveiws,3436
reversed,3437
review,3438
reviewed,3439
reviewer,3440
reviewers,3441
reviews,3442
revised,3443
revive,3444
rewind,3445
rice,3446
rich,3447
ricksters,3448
rid,3449
ridculously,3450
rides,3451
ridges,3452
ridicule,3453
ridiculous,3454
right,3455
ring,3456
ringer,3457
ringing,3458
rings,3459
ringtones,3460
rio,3461
riovolt,3462
rip,3463
ripped,3464
ripper,3465
ripping,3466
rips,3467
risk,3468
rma,3469
road,3470
roam,3471
roaming,3472
robust,3473
rock,3474
rocks,3475
rolls,3476
rom,3477
roof,3478
room,3479
rooms,3480
rotates,3481
rotation,3482
roughly,3483
round,3484
route,3485
routinely,3486
roxxorz,3487
rs,3488
rubber,3489
rugged,3490
ruggedly,3491
ruin,3492
ruining,3493
ruins,3494
rule,3495
run,3496
runner,3497
running,3498
runs,3499
rush,3500
rv,3501
rw,3502
saavy,3503
sacrifice,3504
sad,3505
sadoun,3506
said,3507
sais,3508
sale,3509
sales,3510
salesperson,3511
same,3512
sample,3513
samsung,3514
sandisk,3515
sanyo,3516
satellite,3517
satisfaction,3518
satisfactory,3519
satisfied,3520
saturated,3521
saturday,3522
saturdays,3523
save,3524
saved,3525
saver,3526
saves,3527
saving,3528
savour,3529
saw,3530
say,3531
saying,3532
says,3533
sca,3534
scan,3535
scanned,3536
scans,3537
scary,3538
scene,3539
scenes,3540
schemes,3541
school,3542
science,3543
scored,3544
scouting,3545
scoying,3546
scratch,3547
scratched,3548
scratches,3549
screen,3550
screens,3551
screensaver,3552
screensavers,3553
screwed,3554
screwing,3555
scroll,3556
scrolling,3557
scrollwheel,3558
se,3559
seach,3560
seamless,3561
search,3562
searched,3563
searches,3564
searching,3565
season,3566
seated,3567
sec,3568
second,3569
seconds,3570
section,3571
secure,3572
see,3573
seeing,3574
seek,3575
seeking,3576
seem,3577
seemed,3578
seems,3579
seen,3580
seldom,3581
select,3582
selectable,3583
selected,3584
selection,3585
selections,3586
selectively,3587
selects,3588
self,3589
sell,3590
seller,3591
selling,3592
sells,3593
semi,3594
send,3595
sending,3596
sends,3597
sense,3598
sensibilities,3599
sensitive,3600
sensitivity,3601
sensor,3602
sent,3603
sep,3604
separate,3605
separated,3606
separately,3607
seperated,3608
seperately,3609
series,3610
serious,3611
seriously,3612
seriousness,3613
serve,3614
server,3615
serves,3616
service,3617
services,3618
servicing,3619
set,3620
sets,3621
setting,3622
settings,3623
settled,3624
settling,3625
setup,3626
several,3627
sexy,3628
sh,3629
shade,3630
shadow,3631
shadows,3632
shake,3633
shaking,3634
shaky,3635
shame,3636
shape,3637
shapes,3638
share,3639
sharing,3640
sharp,3641
sharper,3642
sharpness,3643
she,3644
sheer,3645
shelf,3646
shelling,3647
shelves,3648
shifting,3649
shine,3650
shines,3651
shining,3652
shiny,3653
ship,3654
shipped,3655
shipping,3656
ships,3657
shock,3658
shocked,3659
shoddy,3660
shoe,3661
shoot,3662
shooting,3663
shoots,3664
shop,3665
shopped,3666
shopping,3667
short,3668
shortcoming,3669
shortcomings,3670
shortcut,3671
shot,3672
shots,3673
should,3674
shoulder,3675
shouldn,3676
show,3677
showing,3678
shown,3679
shows,3680
shudder,3681
shuffle,3682
shut,3683
shutter,3684
shutting,3685
shuttle,3686
sick,3687
side,3688
sides,3689
siemens,3690
sigh,3691
sign,3692
signal,3693
signals,3694
signed,3695
significant,3696
significantly,3697
silent,3698
silver,3699
silverish,3700
sim,3701
similar,3702
similarily,3703
simm,3704
simple,3705
simpler,3706
simplest,3707
simpletech,3708
simply,3709
sinc,3710
since,3711
single,3712
sister,3713
sit,3714
site,3715
sites,3716
sitting,3717
situation,3718
situational,3719
situations,3720
six,3721
size,3722
sized,3723
skill,3724
skills,3725
skimped,3726
skip,3727
skipping,3728
skips,3729
slave,3730
sleek,3731
sleep,3732
slice,3733
slick,3734
slideshows,3735
sliding,3736
slightly,3737
sligtly,3738
slim,3739
slip,3740
slots,3741
slow,3742
slower,3743
slowing,3744
slowly,3745
slparsedtwodigits,3746
slr,3747
slrs,3748
small,3749
smaller,3750
smallest,3751
smart,3752
smell,3753
smoke,3754
smooth,3755
smoothly,3756
snap,3757
snapped,3758
snapping,3759
sniffer,3760
snooze,3761
snow,3762
snug,3763
snuggly,3764
so,3765
socks,3766
software,3767
sold,3768
soldiers,3769
solely,3770
solid,3771
solidly,3772
solution,3773
solved,3774
some,3775
somehow,3776
someone,3777
something,3778
somethings,3779
sometime,3780
sometimes,3781
somewhat,3782
somewhere,3783
song,3784
songs,3785
sony,3786
sonys,3787
soom,3788
soon,3789
sooner,3790
sooooo,3791
sophisticated,3792
sorry,3793
sort,3794
sorta,3795
sorting,3796
sorts,3797
sound,3798
soundblaster,3799
soundcard,3800
sounded,3801
sounding,3802
sounds,3803
source,3804
sources,3805
south,3806
sp,3807
space,3808
spaced,3809
spam,3810
span,3811
spare,3812
sparklers,3813
sparsedthreedigits,3814
sparsedtwodigits,3815
speak,3816
speaker,3817
speakerphone,3818
speakers,3819
speakphone,3820
special,3821
specific,3822
specifically,3823
specified,3824
specs,3825
spectacular,3826
speculation,3827
speed,3828
speeding,3829
speedlite,3830
speeds,3831
spend,3832
spending,3833
spent,3834
spills,3835
spin,3836
splitter,3837
splurge,3838
spoke,3839
sporadic,3840
sports,3841
spot,3842
spots,3843
spotted,3844
springsteen,3845
sprint,3846
squarer,3847
squashed,3848
squeeze,3849
srs,3850
stability,3851
stable,3852
stack,3853
stage,3854
staggering,3855
stainless,3856
stains,3857
stamp,3858
stand,3859
standard,3860
standards,3861
standby,3862
standing,3863
stands,3864
star,3865
stare,3866
stars,3867
start,3868
started,3869
starter,3870
starting,3871
starts,3872
state,3873
states,3874
static,3875
station,3876
stations,3877
stats,3878
stay,3879
stayed,3880
staying,3881
stays,3882
steadily,3883
steady,3884
steal,3885
steel,3886
steep,3887
stem,3888
stems,3889
step,3890
steps,3891
stereo,3892
stevesdigicams,3893
stiching,3894
stick,3895
sticks,3896
sticky,3897
stil,3898
still,3899
stink,3900
stinks,3901
stitch,3902
stitching,3903
stn,3904
stock,3905
stolen,3906
stone,3907
stop,3908
stopaction,3909
stoppage,3910
stopped,3911
stopping,3912
stoppped,3913
stopwatch,3914
storage,3915
store,3916
stored,3917
stores,3918
story,3919
straight,3920
strange,3921
strap,3922
stream,3923
street,3924
strength,3925
strengths,3926
stress,3927
stretch,3928
stretches,3929
strictly,3930
strike,3931
strikes,3932
strong,3933
structurally,3934
structure,3935
structured,3936
stuck,3937
stucked,3938
stucks,3939
stucture,3940
study,3941
stuff,3942
stuffff,3943
stuffs,3944
stunned,3945
stunning,3946
sturdy,3947
style,3948
styling,3949
stylish,3950
sub,3951
subcategory,3952
subfolders,3953
subject,3954
subjects,3955
subnotebook,3956
subs,3957
subscriber,3958
subsequent,3959
subsidizes,3960
substance,3961
substandard,3962
substitute,3963
subtle,3964
suburbs,3965
subway,3966
success,3967
successfully,3968
succession,3969
such,3970
suck,3971
sucka,3972
suckers,3973
sucks,3974
suddenly,3975
suffers,3976
suggest,3977
suggested,3978
suggesting,3979
suggestion,3980
suing,3981
suit,3982
suite,3983
summarize,3984
summary,3985
summation,3986
summer,3987
sun,3988
sunset,3989
super,3990
superb,3991
superfluous,3992
superior,3993
supplied,3994
supplier,3995
supply,3996
support,3997
supported,3998
supports,3999
suppose,4000
supposed,4001
suprised,4002
suprisingly,4003
sure,4004
surely,4005
surf,4006
surface,4007
surfing,4008
suroundings,4009
surpassed,4010
surpasses,4011
surprise,4012
surprised,4013
surprising,4014
surprisingly,4015
surreal,4016
survey,4017
survive,4018
suspect,4019
svcd,4020
svcds,4021
swap,4022
swear,4023
sweet,4024
swiss,4025
switch,4026
switched,4027
switches,4028
switching,4029
symbols,4030
symphony,4031
sync,4032
synchronization,4033
synchronized,4034
synchronizing,4035
syncing,4036
synopsis,4037
system,4038
tab,4039
tabbed,4040
table,4041
tad,4042
tag,4043
tagged,4044
tagging,4045
tags,4046
take,4047
taken,4048
takes,4049
taking,4050
tale,4051
talk,4052
talked,4053
talkers,4054
talking,4055
talks,4056
tank,4057
task,4058
tax,4059
teach,4060
teamed,4061
teases,4062
tech,4063
techie,4064
technical,4065
technician,4066
technologies,4067
technology,4068
tedious,4069
teen,4070
teeny,4071
teh,4072
telephone,4073
telephoto,4074
television,4075
tell,4076
telling,4077
telll,4078
tells,4079
tempi,4080
temporary,4081
tend,4082
term,4083
terms,4084
terrible,4085
terribly,4086
terrific,4087
test,4088
tested,4089
testing,4090
text,4091
than,4092
thank,4093
thankfully,4094
thanks,4095
that,4096
thats,4097
the,4098
theater,4099
their,4100
theirs,4101
them,4102
themselves,4103
then,4104
there,4105
therefore,4106
theres,4107
these,4108
they,4109
theyve,4110
thicker,4111
thier,4112
thin,4113
thing,4114
things,4115
thingy,4116
think,4117
thinking,4118
thinks,4119
third,4120
this,4121
tho,4122
those,4123
though,4124
thought,4125
thousands,4126
three,4127
thrilled,4128
through,4129
throw,4130
thrown,4131
thumb,4132
thumbdrive,4133
thumbs,4134
thus,4135
thusfar,4136
ti,4137
tid,4138
tiff,4139
tightly,4140
tigt,4141
till,4142
tilt,4143
tilted,4144
time,4145
timely,4146
timers,4147
times,4148
tinker,4149
tiny,4150
tip,4151
tips,4152
tire,4153
title,4154
titles,4155
tmobile,4156
tmobiles,4157
to,4158
today,4159
together,4160
toggle,4161
told,4162
toll,4163
tom,4164
tomorrow,4165
ton,4166
tonal,4167
tone,4168
tones,4169
tons,4170
too,4171
took,4172
tool,4173
top,4174
topnotch,4175
tops,4176
torture,4177
toshiba,4178
toshibas,4179
tossed,4180
total,4181
totally,4182
touch,4183
touched,4184
touchpad,4185
touchups,4186
tough,4187
towards,4188
toy,4189
tparsedthreedigits,4190
tparsedthreedigitsi,4191
track,4192
tracking,4193
tracks,4194
trade,4195
tradeoff,4196
traditional,4197
tragic,4198
train,4199
transer,4200
transfer,4201
transfered,4202
transferes,4203
transfering,4204
transferred,4205
transferring,4206
transfers,4207
transmitter,4208
transmitters,4209
transport,4210
trash,4211
travel,4212
traveling,4213
travelled,4214
travelling,4215
travesty,4216
tray,4217
treat,4218
tree,4219
tremendous,4220
trendy,4221
tri,4222
trial,4223
tricky,4224
tried,4225
tries,4226
trigger,4227
trilliums,4228
trip,4229
tripod,4230
trips,4231
trouble,4232
troubles,4233
troubleshooting,4234
troublesome,4235
truck,4236
true,4237
truly,4238
trumps,4239
trunk,4240
trust,4241
trusted,4242
try,4243
trying,4244
tune,4245
tunecast,4246
tuner,4247
tunes,4248
tungsten,4249
turn,4250
turnaround,4251
turned,4252
turning,4253
turns,4254
tv,4255
tvs,4256
tw,4257
twain,4258
tweaking,4259
tweakings,4260
twenty,4261
twice,4262
twist,4263
two,4264
txt,4265
type,4266
types,4267
typical,4268
typically,4269
typifies,4270
ugly,4271
ui,4272
uk,4273
ultimate,4274
ultimately,4275
ultra,4276
umm,4277
unable,4278
unacceptably,4279
unaccustomed,4280
unbeatable,4281
unbelievably,4282
unchangeable,4283
uncomfortable,4284
uncomplicated,4285
unconventional,4286
uncreative,4287
uncritical,4288
undeliverable,4289
under,4290
underestimate,4291
underrated,4292
understand,4293
understandable,4294
understood,4295
underutilized,4296
undone,4297
undoubtedly,4298
uneasy,4299
unequivocably,4300
uneven,4301
unfilled,4302
unfortunately,4303
unforutnately,4304
unhelpful,4305
unique,4306
unit,4307
units,4308
univ,4309
universal,4310
universally,4311
unknown,4312
unless,4313
unlike,4314
unlimited,4315
unlisted,4316
unlock,4317
unlocked,4318
unlucky,4319
unmatched,4320
unnecessary,4321
unnerving,4322
unnoticed,4323
unplayable,4324
unpleasant,4325
unpredictable,4326
unreservedly,4327
unsatisfactory,4328
unspecified,4329
unsteady,4330
until,4331
unusable,4332
unwrapped,4333
up,4334
update,4335
updated,4336
updates,4337
updating,4338
upgrade,4339
upgraded,4340
upgrading,4341
upload,4342
uploaded,4343
uploading,4344
uploads,4345
upon,4346
upper,4347
ups,4348
upto,4349
ur,4350
urban,4351
urgent,4352
url,4353
us,4354
usa,4355
usability,4356
usage,4357
usb,4358
use,4359
useable,4360
used,4361
useful,4362
useless,4363
user,4364
users,4365
uses,4366
using,4367
usual,4368
usually,4369
utility,4370
utilized,4371
utilizes,4372
utterly,4373
uv,4374
vacation,4375
vacationing,4376
valid,4377
valuable,4378
value,4379
vanished,4380
variable,4381
variation,4382
variations,4383
variety,4384
various,4385
vary,4386
varying,4387
vast,4388
vastly,4389
vcd,4390
vcds,4391
vcr,4392
ve,4393
vectis,4394
vegas,4395
vendor,4396
verify,4397
verizon,4398
versa,4399
versatile,4400
version,4401
versions,4402
versus,4403
very,4404
veteran,4405
veterans,4406
via,4407
viable,4408
vibrant,4409
vibrate,4410
vibration,4411
vice,4412
video,4413
videos,4414
view,4415
viewable,4416
viewed,4417
viewfinder,4418
viewing,4419
views,4420
viking,4421
virtually,4422
visa,4423
visable,4424
visceral,4425
visible,4426
visiting,4427
visual,4428
visuals,4429
vivid,4430
vmparsedfourdigits,4431
vob,4432
voice,4433
voids,4434
volkswagen,4435
volume,4436
voucher,4437
vs,4438
wait,4439
waiting,4440
wake,4441
waking,4442
walk,4443
walkman,4444
wall,4445
wallet,4446
wallpaper,4447
wallpapers,4448
walls,4449
walmart,4450
wan,4451
want,4452
wanted,4453
wanting,4454
wants,4455
wap,4456
wardrobe,4457
warn,4458
warned,4459
warning,4460
warnings,4461
warranty,4462
warrenty,4463
warrranty,4464
wary,4465
was,4466
wash,4467
washed,4468
washing,4469
wasn,4470
wasnt,4471
wast,4472
waste,4473
wasted,4474
wat,4475
watch,4476
watched,4477
watching,4478
wave,4479
way,4480
ways,4481
we,4482
weak,4483
weaknesses,4484
wear,4485
weather,4486
web,4487
website,4488
websites,4489
week,4490
weekdays,4491
weekend,4492
weekm,4493
weeks,4494
weigh,4495
weighed,4496
weighs,4497
weight,4498
weighty,4499
weird,4500
weirdest,4501
well,4502
went,4503
were,4504
weren,4505
what,4506
whatever,4507
whatsoever,4508
whe,4509
wheel,4510
when,4511
whenever,4512
where,4513
whereas,4514
wherever,4515
whether,4516
which,4517
whichever,4518
whihc,4519
while,4520
whine,4521
whirl,4522
whistles,4523
white,4524
who,4525
whoa,4526
whole,4527
whom,4528
why,4529
wicked,4530
wide,4531
widely,4532
widescreen,4533
wife,4534
wildlife,4535
wildly,4536
will,4537
willing,4538
willingness,4539
win,4540
winamp,4541
wind,4542
window,4543
windows,4544
winner,4545
winning,4546
winparsedtwodigits,4547
winter,4548
winxp,4549
wipe,4550
wiped,4551
wipes,4552
wireless,4553
wires,4554
wise,4555
wish,4556
with,4557
within,4558
without,4559
wma,4560
wolla,4561
won,4562
wonder,4563
wonderful,4564
wont,4565
word,4566
words,4567
work,4568
workaround,4569
worked,4570
workin,4571
working,4572
works,4573
workstation,4574
world,4575
worldphone,4576
worried,4577
worrying,4578
worse,4579
worst,4580
worth,4581
worthwhile,4582
worthwile,4583
woth,4584
would,4585
wouldn,4586
wouldnt,4587
wow,4588
wrist,4589
write,4590
writing,4591
written,4592
wrong,4593
wrote,4594
www,4595
xacto,4596
xmass,4597
xp,4598
xparsedthreedigits,4599
xparsedtwodigits,4600
xtra,4601
ya,4602
yeah,4603
year,4604
years,4605
yells,4606
yep,4607
yes,4608
yesterday,4609
yet,4610
yield,4611
yielded,4612
yo,4613
you,4614
youd,4615
your,4616
youre,4617
yours,4618
yourself,4619
yoursound,4620
youve,4621
zeiss,4622
zen,4623
zennx,4624
zens,4625
zero,4626
zillion,4627
zip,4628
zone,4629
zones,4630
zoom,4631
zooming,4632
zooms,4633
zx,4634
