__,0
aaah,1
aand,2
aasim,3
abba,4
abducted,5
abielle,6
ability,7
abiogenic,8
able,9
abrams,10
abs,11
absinthe,12
absolute,13
absolutely,14
absolution,15
absurd,16
abuja,17
abused,18
abvd,19
ac,20
academia,21
academicians,22
academy,23
accent,24
accept,25
acceptable,26
acceptance,27
accident,28
according,29
account,30
accounts,31
accoustic,32
accross,33
accurate,34
achievement,35
achieving,36
aching,37
acid,38
acocunt,39
acorn,40
acoustic,41
acrylic,42
act,43
acted,44
actin,45
acting,46
action,47
activation,48
actor,49
actors,50
actual,51
actually,52
actualy,53
ad,54
adam,55
adaption,56
aday,57
add,58
added,59
addicted,60
addictive,61
adding,62
addition,63
addons,64
address,65
adds,66
addy,67
adhesive,68
administration,69
admire,70
admit,71
admitt,72
admittedly,73
adoption,74
adorable,75
adorablee,76
adoration,77
adrian,78
ads,79
advanced,80
adversarial,81
advertise,82
advertised,83
advertising,84
advertisment,85
adverts,86
advice,87
advisor,88
adwords,89
ae,90
afew,91
affairs,92
affecting,93
affects,94
afford,95
afore,96
afraid,97
african,98
afterprom,99
afterward,100
age,101
aged,102
agents,103
ages,104
aggree,105
agian,106
agm,107
ago,108
agony,109
agree,110
agreed,111
agw,112
ah,113
ahaha,114
ahahahhahahah,115
ahart,116
ahead,117
ahh,118
ahhh,119
ahmed,120
ahmedabad,121
ahmose,122
aid,123
aikido,124
ain,125
aint,126
air,127
airplanes,128
airplay,129
airport,130
airports,131
ait,132
aka,133
akward,134
al,135
alah,136
alaikum,137
alan,138
alaska,139
album,140
albums,141
albuquerque,142
alcohol,143
alekasatticparsedtwodigits,144
alex,145
algebra,146
alien,147
alienation,148
aliens,149
alike,150
alison,151
alive,152
allah,153
allied,154
allllllll,155
allow,156
allowed,157
allows,158
allstar,159
allude,160
almighty,161
alongside,162
alot,163
alpaco,164
alpine,165
alright,166
altars,167
altered,168
altitude,169
alto,170
aluminium,171
aly,172
amanda,173
amateur,174
amateurs,175
amazed,176
amazing,177
amazingly,178
amazon,179
ambien,180
ambiguously,181
amen,182
amendment,183
america,184
american,185
americans,186
amjad,187
ammo,188
amounts,189
amusement,190
amv,191
analog,192
analysis,193
analyst,194
analyzing,195
ancraophobia,196
anderson,197
andremit,198
andremitstrich,199
andres,200
andy,201
angel,202
angels,203
anger,204
angiegirlparsedfourdigits,205
angle,206
angry,207
anim,208
animal,209
animals,210
animated,211
animation,212
anime,213
ankle,214
ankward,215
anna,216
anneworld,217
annie,218
annihilating,219
anniversary,220
annotations,221
announcement,222
annoyance,223
annoyances,224
annoying,225
anon,226
anoyying,227
answer,228
answers,229
anti,230
antibiotics,231
antichrist,232
anwyn,233
anxious,234
anybody,235
anymore,236
anytbhing,237
anythingwhat,238
anyways,239
aparsedonedigit,240
apart,241
apparently,242
appeal,243
appear,244
applauds,245
apple,246
apples,247
applications,248
applied,249
apply,250
appreciate,251
appropr,252
april,253
apron,254
aqua,255
aquatictide,256
arabic,257
arabs,258
arcades,259
architecture,260
archmedies,261
area,262
aren,263
arent,264
aretha,265
argue,266
arguin,267
argument,268
arguments,269
ark,270
armaan,271
armageddon,272
arms,273
army,274
arnt,275
arrangement,276
arrested,277
arrived,278
ars,279
arse,280
art,281
arthritis,282
article,283
artist,284
artistic,285
artists,286
asalaamu,287
asap,288
asbcondotel,289
asbestos,290
ashes,291
ashman,292
asia,293
asian,294
asians,295
aside,296
ask,297
asked,298
asking,299
asks,300
asleep,301
aspect,302
ass,303
assasins,304
assed,305
assembly,306
assets,307
assett,308
assh,309
asshat,310
asshole,311
assholes,312
association,313
asss,314
assume,315
assumption,316
asswipe,317
ast,318
astle,319
aston,320
aswell,321
asylum,322
athe,323
ati,324
atkins,325
atkinson,326
atlanta,327
atmosphere,328
atni,329
attack,330
attacking,331
attacks,332
attained,333
attempt,334
attention,335
attitude,336
attitudeeraparsedfourdigits,337
attorney,338
attraction,339
auburn,340
audience,341
audio,342
audioripit,343
audishness,344
audofier,345
augustana,346
aunt,347
aunts,348
austral,349
australia,350
authenticity,351
authorities,352
autistic,353
automatic,354
automaticaly,355
autotune,356
available,357
average,358
avoid,359
avrey,360
await,361
award,362
away,363
aways,364
awe,365
aweomse,366
awesome,367
awesomely,368
awesomeness,369
awesuuummm,370
awful,371
awhile,372
awsome,373
awsomeee,374
awsomeeeeee,375
aww,376
awww,377
awwwwwww,378
axe,379
ayee,380
az,381
azamatbagatov,382
azz,383
azzhole,384
ba,385
baaaaaaaaaaaaaaad,386
babes,387
babez,388
babi,389
babies,390
baby,391
babyyou,392
babz,393
bach,394
bachelor,395
background,396
backing,397
backstabbing,398
bacon,399
bad,400
badass,401
baddest,402
badly,403
bag,404
bahrain,405
bail,406
bailey,407
bailout,408
bakc,409
baked,410
balance,411
bald,412
balddyyy,413
ball,414
ballet,415
ballin,416
ballou,417
balm,418
bama,419
band,420
bandana,421
bands,422
bangin,423
bangladeshi,424
bank,425
bankers,426
banks,427
bar,428
barack,429
barakatoh,430
barbara,431
barbell,432
barely,433
barga,434
barmy,435
barns,436
barrel,437
bars,438
base,439
based,440
bash,441
basic,442
basically,443
bass,444
bastard,445
bastards,446
bat,447
batch,448
batfly,449
batgammon,450
bath,451
bathroom,452
bathtub,453
batista,454
battery,455
battle,456
baught,457
bay,458
baybe,459
bayh,460
bb,461
bbc,462
bbw,463
bc,464
bcparsedonedigit,465
bct,466
bcus,467
bcuz,468
beach,469
beacop,470
beacuse,471
beam,472
bear,473
beard,474
bearded,475
beast,476
beastly,477
beat,478
beatboxed,479
beating,480
beatings,481
beats,482
beatuiful,483
beautiful,484
beautttyparsedtwodigits,485
beauty,486
becaus,487
beck,488
becuz,489
bed,490
beds,491
bee,492
beeching,493
beeeeeeeeeeeeeeee,494
beeeppiinnng,495
beef,496
beefiest,497
beeing,498
bees,499
befor,500
beforgotten,501
began,502
begin,503
begining,504
beginning,505
behalf,506
behen,507
bein,508
belew,509
beliefs,510
believe,511
believer,512
believing,513
belive,514
bell,515
belong,516
beloved,517
belt,518
benaughtyman,519
bench,520
benefit,521
benneli,522
bernie,523
bernstein,524
best,525
bestbangz,526
bet,527
betch,528
betr,529
better,530
betty,531
bg,532
bi,533
biased,534
bible,535
biblical,536
big,537
bigbenclocktower,538
bigger,539
biggest,540
biggie,541
bigidy,542
bigot,543
bigots,544
bigparsedtwodigits,545
billboard,546
billionaire,547
bing,548
biodegradable,549
biogenic,550
bionicdance,551
biped,552
birchmere,553
bird,554
birdieupon,555
birds,556
birnes,557
birth,558
birthday,559
bishops,560
bit,561
bitch,562
bitchin,563
bitchinnyoo,564
bizarre,565
bkuz,566
bla,567
black,568
blackberry,569
blacks,570
blackwingggys,571
blade,572
blaga,573
blahblah,574
blame,575
blames,576
blasst,577
blast,578
blatant,579
bldgs,580
bleeding,581
bleeped,582
blendtec,583
bless,584
blessed,585
blessing,586
blew,587
blinds,588
blink,589
blizzard,590
blocks,591
blog,592
bloggie,593
bloggs,594
blond,595
blonde,596
bloody,597
bloomer,598
bloooms,599
blossom,600
bloviating,601
blow,602
blowdryer,603
blown,604
blowout,605
blows,606
blue,607
blueprints,608
blues,609
bnp,610
bo,611
boards,612
boats,613
bob,614
bobby,615
bodies,616
body,617
bodybuilding,618
bohemian,619
boi,620
boiled,621
boiler,622
boils,623
bollywood,624
bomb,625
bon,626
bonds,627
bone,628
boo,629
boob,630
boobs,631
book,632
booker,633
books,634
boon,635
boondox,636
boosie,637
booski,638
boot,639
boots,640
booyah,641
border,642
bored,643
borgs,644
boring,645
born,646
borrow,647
borrowed,648
borrowing,649
boston,650
bother,651
bottle,652
bottles,653
bought,654
bouncy,655
bout,656
bow,657
bowing,658
box,659
boxer,660
boxers,661
boxes,662
boxparsedthreedigits,663
boy,664
boyfriend,665
boys,666
bp,667
brackets,668
brah,669
brain,670
brainwashed,671
brainwashing,672
brandt,673
branson,674
brat,675
brave,676
bravo,677
brawl,678
brazil,679
bread,680
break,681
breaking,682
breaks,683
breath,684
brel,685
brethren,686
brian,687
brianbmf,688
bridge,689
bridget,690
bright,691
brilliant,692
brillient,693
bring,694
bringin,695
bringing,696
brings,697
brion,698
bristol,699
britain,700
british,701
britishwarlord,702
brittany,703
bro,704
broke,705
brokencyde,706
broncos,707
brooke,708
brookers,709
broski,710
brotha,711
brother,712
brothers,713
brought,714
brow,715
brown,716
browser,717
bruce,718
bruises,719
brunch,720
brush,721
brushes,722
brutality,723
bryn,724
bs,725
bsides,726
btw,727
bubble,728
bubbles,729
buck,730
bucks,731
buddhist,732
buddy,733
buddyweedz,734
budpetersparsedtwodigits,735
bufonophobia,736
bug,737
bugmanparsedtwodigits,738
build,739
builder,740
building,741
built,742
bulbs,743
bullawaya,744
bullets,745
bullion,746
bulls,747
bullshit,748
bullshitits,749
bully,750
bumbleberry,751
bumbling,752
bunch,753
bunker,754
bunnies,755
burger,756
burn,757
burned,758
burning,759
bury,760
bus,761
bush,762
bushbot,763
bushco,764
bushisms,765
business,766
busy,767
butchered,768
buttery,769
butthole,770
button,771
buy,772
buyer,773
buying,774
buzzhonky,775
bye,776
bypass,777
byrd,778
cable,779
cake,780
calculated,781
calculation,782
california,783
called,784
calling,785
calls,786
calmness,787
calories,788
calvin,789
cam,790
cambodian,791
came,792
camera,793
cameraman,794
cameron,795
cami,796
camp,797
camps,798
campus,799
cams,800
canaderek,801
canceled,802
cancelled,803
candy,804
cane,805
cannabis,806
canucks,807
capable,808
cape,809
capital,810
capitalism,811
captain,812
captaincy,813
caption,814
captivating,815
captures,816
car,817
carafe,818
carcass,819
card,820
cardcapter,821
care,822
carefully,823
cares,824
carey,825
caring,826
carl,827
carla,828
carlos,829
carlson,830
carmalita,831
carnes,832
carr,833
carrie,834
carried,835
carriers,836
carrington,837
carringtonvilla,838
carry,839
cartoon,840
carwin,841
case,842
cases,843
cash,844
cast,845
castle,846
casual,847
cat,848
catalyst,849
catch,850
catches,851
catchy,852
cath,853
catherineparsedonedigitraw,854
catholic,855
catholics,856
cathyrawrbear,857
cats,858
cause,859
caused,860
causes,861
causing,862
cavaill,863
cavs,864
cc,865
cd,866
cds,867
cdubzhappy,868
ceasefire,869
ceck,870
cedar,871
celebrandi,872
celebrated,873
celebrates,874
celestparsedthreedigits,875
cell,876
censorship,877
censurable,878
center,879
centered,880
centers,881
central,882
cents,883
ceos,884
certain,885
certainly,886
certian,887
cesarramirezocampo,888
cessna,889
cessnas,890
cesspool,891
chad,892
chair,893
chairs,894
chakras,895
chalker,896
challenge,897
champion,898
champions,899
champs,900
chance,901
chances,902
chandra,903
change,904
changed,905
changing,906
channel,907
channer,908
chapter,909
chapters,910
character,911
characters,912
charactor,913
charge,914
charged,915
charity,916
charizard,917
charles,918
charlesischuck,919
charlie,920
charmed,921
charming,922
chat,923
cheap,924
cheat,925
cheated,926
cheating,927
cheatmanparsedtwodigits,928
check,929
checked,930
checking,931
checkout,932
cheese,933
cheeses,934
cheesy,935
cheetah,936
chem,937
chemistry,938
chemo,939
cher,940
chic,941
chick,942
chicken,943
chickens,944
chiga,945
child,946
childhood,947
children,948
chile,949
chill,950
chills,951
chimney,952
china,953
chinese,954
chip,955
chocolate,956
chocoolate,957
choice,958
choir,959
choker,960
chops,961
chord,962
choreography,963
chorus,964
chose,965
chris,966
chrismas,967
christ,968
christian,969
christmas,970
christs,971
chronometer,972
chu,973
chuck,974
chums,975
chung,976
chunk,977
church,978
cia,979
cientology,980
cincycnoteparsedthreedigits,981
cinematography,982
circular,983
cis,984
citing,985
citizen,986
citizens,987
city,988
civilian,989
civilized,990
claas,991
claim,992
claims,993
clamp,994
clapping,995
clarify,996
clarita,997
class,998
classes,999
classic,1000
classical,1001
classify,1002
classy,1003
clautucans,1004
claymores,1005
clealy,1006
clean,1007
cleaner,1008
clear,1009
clearly,1010
clehneis,1011
clever,1012
click,1013
clicker,1014
cliff,1015
climber,1016
clinton,1017
clip,1018
clips,1019
cloaked,1020
close,1021
closed,1022
clothing,1023
clown,1024
clowns,1025
club,1026
clue,1027
clutch,1028
cms,1029
coast,1030
coasts,1031
coat,1032
cobra,1033
cock,1034
cockflap,1035
cod,1036
code,1037
codes,1038
coem,1039
cogley,1040
cohm,1041
coincidence,1042
coins,1043
coise,1044
coke,1045
cold,1046
cole,1047
coll,1048
collapse,1049
collected,1050
collectibles,1051
collection,1052
collective,1053
college,1054
colmes,1055
color,1056
colorado,1057
columbia,1058
columbus,1059
com,1060
combination,1061
combine,1062
combines,1063
combo,1064
come,1065
comebacks,1066
comedian,1067
comedy,1068
coments,1069
comes,1070
comfort,1071
comfortabley,1072
comic,1073
coming,1074
commander,1075
comment,1076
commentary,1077
commentators,1078
commenting,1079
commentno,1080
comments,1081
commercial,1082
commercials,1083
commies,1084
commission,1085
commitie,1086
commodities,1087
commodore,1088
common,1089
communication,1090
communion,1091
community,1092
companies,1093
company,1094
compare,1095
compared,1096
comparing,1097
compass,1098
compete,1099
competition,1100
competitor,1101
compilation,1102
complaining,1103
complete,1104
completely,1105
complicated,1106
compliment,1107
composer,1108
compositelab,1109
compositions,1110
comprehension,1111
compress,1112
computelol,1113
computer,1114
comvention,1115
conceives,1116
concentration,1117
concept,1118
concert,1119
concerts,1120
concessions,1121
concrete,1122
condition,1123
conditions,1124
condom,1125
cone,1126
conference,1127
confidence,1128
configuration,1129
configure,1130
confufuse,1131
confused,1132
confusion,1133
congrats,1134
congratulations,1135
congregations,1136
congress,1137
conjunction,1138
conlang,1139
conlangs,1140
connect,1141
connected,1142
connection,1143
conquests,1144
conrad,1145
conscience,1146
consecration,1147
consider,1148
considered,1149
considering,1150
constantly,1151
constitution,1152
constitutional,1153
construction,1154
consultation,1155
consuming,1156
contact,1157
container,1158
containing,1159
contender,1160
contenders,1161
content,1162
contents,1163
contest,1164
continues,1165
continuous,1166
continuously,1167
contract,1168
contradicted,1169
contradictory,1170
contrastin,1171
contribute,1172
contributed,1173
control,1174
controlled,1175
convert,1176
conviction,1177
convince,1178
convincing,1179
cook,1180
cookies,1181
cooking,1182
cool,1183
cooler,1184
coool,1185
cooooooobra,1186
cooperation,1187
cop,1188
copied,1189
copy,1190
core,1191
corespondent,1192
corinth,1193
corn,1194
coronation,1195
corporations,1196
corps,1197
correct,1198
correctly,1199
corruption,1200
cortez,1201
coruscantparsedtwodigits,1202
cos,1203
cosign,1204
cosmo,1205
cost,1206
costa,1207
cough,1208
coulda,1209
couldn,1210
coulrophobia,1211
count,1212
counter,1213
countless,1214
countries,1215
country,1216
couple,1217
course,1218
court,1219
cousin,1220
cover,1221
covered,1222
covet,1223
cowardly,1224
cowboy,1225
cowell,1226
cower,1227
coz,1228
cptrelentless,1229
crack,1230
cracked,1231
cracker,1232
cracks,1233
crank,1234
crankshop,1235
crap,1236
crapped,1237
crappy,1238
crash,1239
crawl,1240
crazii,1241
crazy,1242
create,1243
created,1244
creating,1245
creation,1246
creative,1247
creativity,1248
creatures,1249
credibility,1250
credible,1251
credit,1252
credits,1253
creed,1254
creek,1255
creep,1256
creeping,1257
creepy,1258
crew,1259
crews,1260
crib,1261
cribs,1262
crilley,1263
criminal,1264
criminals,1265
cringe,1266
crispness,1267
critical,1268
croatia,1269
crogeek,1270
crooked,1271
crosby,1272
cross,1273
crossbreeding,1274
crossed,1275
crowd,1276
crowding,1277
crtic,1278
crue,1279
cruel,1280
cruise,1281
cruising,1282
crusade,1283
cruz,1284
crying,1285
crystal,1286
cub,1287
cube,1288
cucumber,1289
cuisine,1290
culinary,1291
culpability,1292
cult,1293
cultural,1294
culture,1295
cummins,1296
cunt,1297
cunts,1298
cup,1299
cups,1300
current,1301
currently,1302
curry,1303
curse,1304
curving,1305
cut,1306
cute,1307
cuteiee,1308
cuteness,1309
cutest,1310
cuz,1311
cuzin,1312
cuzzo,1313
cysts,1314
da,1315
daa,1316
dad,1317
dada,1318
daddy,1319
daith,1320
dalai,1321
damage,1322
damd,1323
dame,1324
damian,1325
dammit,1326
damn,1327
dance,1328
dancers,1329
dancin,1330
dancing,1331
dane,1332
dang,1333
danger,1334
dangerous,1335
dangerousand,1336
danggg,1337
daniells,1338
danzo,1339
danzos,1340
daparsedthreedigits,1341
dapepsinator,1342
dara,1343
dare,1344
darien,1345
dark,1346
darkalemanbr,1347
darkmount,1348
darkness,1349
darling,1350
darnell,1351
darrell,1352
darren,1353
darwin,1354
darxguy,1355
daschle,1356
dat,1357
date,1358
dates,1359
dats,1360
datwaz,1361
daughter,1362
daughtry,1363
dava,1364
dave,1365
daveeeeeeeee,1366
davey,1367
david,1368
davis,1369
davisnurse,1370
dawaa,1371
day,1372
daymyth,1373
days,1374
dayton,1375
daytona,1376
dazzle,1377
dd,1378
ddd,1379
dead,1380
deaf,1381
deal,1382
dealer,1383
dealers,1384
dealing,1385
dean,1386
dear,1387
dearest,1388
death,1389
deathofthedollar,1390
debbie,1391
debt,1392
debuff,1393
dec,1394
decades,1395
deccan,1396
decease,1397
deceitful,1398
deceivers,1399
december,1400
decency,1401
decent,1402
decide,1403
decision,1404
dedicated,1405
dedicating,1406
dedicationamazing,1407
dee,1408
deemed,1409
deep,1410
deepa,1411
deepartparsedtwodigits,1412
deeper,1413
deeply,1414
def,1415
defending,1416
defense,1417
deficiency,1418
deficit,1419
definate,1420
definately,1421
definetely,1422
definitely,1423
degrades,1424
degrading,1425
degree,1426
deidara,1427
deja,1428
delayed,1429
delete,1430
deleted,1431
deli,1432
deliberate,1433
delicious,1434
delighted,1435
delights,1436
deliver,1437
delivering,1438
delivers,1439
delta,1440
deluxe,1441
demands,1442
demasiado,1443
demeritparsedonedigit,1444
demerits,1445
demo,1446
democracy,1447
democrat,1448
democrats,1449
demographics,1450
demon,1451
demonic,1452
demorcatic,1453
demos,1454
den,1455
denards,1456
denim,1457
denounce,1458
deny,1459
department,1460
deportation,1461
deposits,1462
depot,1463
depressing,1464
depression,1465
depth,1466
deregulating,1467
derwin,1468
descended,1469
describing,1470
description,1471
deserve,1472
deserves,1473
designed,1474
designing,1475
desir,1476
desire,1477
desk,1478
despise,1479
despite,1480
desription,1481
destinies,1482
destroy,1483
destroyahparsedfourdigits,1484
destruction,1485
destructive,1486
det,1487
detached,1488
details,1489
detect,1490
determine,1491
detremental,1492
detroit,1493
dev,1494
develop,1495
develope,1496
developed,1497
developer,1498
developing,1499
development,1500
devil,1501
devin,1502
devoting,1503
devotional,1504
dew,1505
dey,1506
dez,1507
dgreat,1508
dhoni,1509
di,1510
diagnosticians,1511
dialogue,1512
diana,1513
diaries,1514
dicipline,1515
dick,1516
did,1517
diddly,1518
didint,1519
didn,1520
didnt,1521
die,1522
died,1523
diego,1524
dies,1525
diesel,1526
diet,1527
diets,1528
diferently,1529
diff,1530
difference,1531
different,1532
difficult,1533
difficulty,1534
diffrence,1535
diffrent,1536
diggers,1537
diggin,1538
digging,1539
dignity,1540
dik,1541
dilhara,1542
dill,1543
dimensions,1544
dinomand,1545
dip,1546
dipshit,1547
dire,1548
direct,1549
directed,1550
directing,1551
direction,1552
directions,1553
directly,1554
director,1555
directs,1556
dirty,1557
dis,1558
disabiblties,1559
disagreed,1560
disappearing,1561
disappoint,1562
disappointed,1563
disarmed,1564
disaster,1565
disc,1566
discard,1567
discerning,1568
disciples,1569
discourse,1570
discover,1571
discredited,1572
discussing,1573
discussion,1574
disgrace,1575
disgusting,1576
dish,1577
disk,1578
dislike,1579
disliked,1580
dislikes,1581
disney,1582
dispensaries,1583
displacement,1584
displays,1585
displeasure,1586
dissapoint,1587
distance,1588
distinctly,1589
district,1590
ditto,1591
diva,1592
divine,1593
dizaster,1594
dj,1595
djhzparsedfourdigits,1596
djwparsedfourdigits,1597
dl,1598
dmnyli,1599
dna,1600
doc,1601
docctor,1602
doctor,1603
doctorate,1604
documentary,1605
doe,1606
doer,1607
does,1608
doesn,1609
doesnt,1610
dog,1611
dogmas,1612
dogmy,1613
dogs,1614
doh,1615
doht,1616
doin,1617
doing,1618
dojo,1619
dollar,1620
dollars,1621
domin,1622
dominant,1623
dominate,1624
don,1625
donatella,1626
donna,1627
donnel,1628
dont,1629
donut,1630
door,1631
doors,1632
dope,1633
dopeness,1634
dorm,1635
dorms,1636
dos,1637
dosent,1638
dosn,1639
dot,1640
dots,1641
double,1642
doubt,1643
douche,1644
douchebag,1645
doug,1646
downer,1647
downie,1648
download,1649
downloaded,1650
downloading,1651
downrated,1652
dozens,1653
dparsedonedigite,1654
dparsedtwodigits,1655
dr,1656
draft,1657
dragged,1658
dragoons,1659
drama,1660
dramatic,1661
draw,1662
drawer,1663
drawing,1664
dre,1665
dream,1666
dreams,1667
dress,1668
dressed,1669
drewin,1670
drink,1671
drinkin,1672
drinks,1673
drip,1674
drive,1675
driven,1676
driver,1677
driving,1678
drop,1679
droping,1680
dropped,1681
drops,1682
drove,1683
drown,1684
drug,1685
drugs,1686
drum,1687
drummer,1688
drums,1689
drunk,1690
dst,1691
dualistic,1692
dub,1693
duck,1694
dude,1695
dudee,1696
dudes,1697
duel,1698
dues,1699
duggars,1700
duke,1701
dumb,1702
dumbass,1703
dumbbell,1704
dumbing,1705
duminy,1706
dun,1707
dunnow,1708
duo,1709
durand,1710
dustin,1711
duty,1712
dvd,1713
dwight,1714
dx,1715
dy,1716
dye,1717
dying,1718
dyke,1719
dynamics,1720
dynamite,1721
eaa,1722
eachother,1723
ear,1724
earl,1725
earlier,1726
early,1727
earrings,1728
ears,1729
earth,1730
earthquake,1731
easer,1732
easier,1733
easiest,1734
easily,1735
east,1736
easter,1737
easy,1738
easympparsedonedigitgrab,1739
eat,1740
eaten,1741
eating,1742
ebay,1743
ecclesparsedthreedigits,1744
eco,1745
economic,1746
economy,1747
ecoolparsedtwodigits,1748
ecosystem,1749
ecstacy,1750
ecw,1751
eddie,1752
edges,1753
edinburgh,1754
edit,1755
edited,1756
editing,1757
edition,1758
edsparsedonedigityd,1759
educate,1760
educated,1761
educational,1762
edwards,1763
eerie,1764
effect,1765
effective,1766
effects,1767
effen,1768
effort,1769
eggy,1770
ego,1771
egypt,1772
eh,1773
ehh,1774
einstein,1775
el,1776
elders,1777
elect,1778
elections,1779
electric,1780
elegant,1781
elementary,1782
elephant,1783
elevator,1784
elitekillerparsedtwodigits,1785
elitists,1786
eloquent,1787
elsworth,1788
em,1789
email,1790
eman,1791
embarrassed,1792
embarrassment,1793
embassies,1794
emblem,1795
emerl,1796
emily,1797
eminem,1798
emma,1799
emmyparsedfourdigitsw,1800
emotion,1801
emotional,1802
emotionally,1803
emotions,1804
emp,1805
emphasises,1806
empire,1807
emulating,1808
encourage,1809
encouraging,1810
end,1811
ended,1812
ending,1813
enegy,1814
energetic,1815
energy,1816
enforce,1817
engage,1818
engineer,1819
engineers,1820
england,1821
english,1822
engsub,1823
enguarde,1824
enjoy,1825
enjoyed,1826
enjoys,1827
enrique,1828
enter,1829
entered,1830
entertaining,1831
entertainment,1832
entire,1833
entitled,1834
ep,1835
epic,1836
epicly,1837
epicness,1838
episode,1839
episodes,1840
epistles,1841
equal,1842
equals,1843
equivalent,1844
era,1845
eraser,1846
erasure,1847
eric,1848
erik,1849
erikjust,1850
ernie,1851
eronstuc,1852
erotic,1853
err,1854
escape,1855
esem,1856
especially,1857
esrb,1858
esrohtv,1859
essay,1860
estimate,1861
et,1862
etanner,1863
ethen,1864
ethics,1865
ethier,1866
ettvofficial,1867
eulia,1868
euro,1869
europe,1870
europeans,1871
eva,1872
evagelineparsedtwodigits,1873
eve,1874
evening,1875
event,1876
events,1877
eventually,1878
everybody,1879
everyday,1880
everytime,1881
everywere,1882
evey,1883
evidence,1884
evil,1885
evildor,1886
eviler,1887
evolution,1888
evrything,1889
ew,1890
ex,1891
exactly,1892
exagerating,1893
example,1894
examples,1895
excel,1896
excelente,1897
excellent,1898
excessive,1899
excited,1900
exclusive,1901
execution,1902
exelent,1903
exercise,1904
exercised,1905
exercising,1906
exist,1907
existant,1908
existence,1909
exists,1910
exlent,1911
expanded,1912
expect,1913
expecting,1914
expelled,1915
expensive,1916
exper,1917
experience,1918
experienced,1919
experiences,1920
expertise,1921
explain,1922
explaining,1923
explains,1924
explanation,1925
explode,1926
exploitation,1927
expressed,1928
expressing,1929
expressions,1930
exterminated,1931
extra,1932
extraordinaire,1933
extraordinary,1934
extras,1935
extreme,1936
extremely,1937
exuberance,1938
eye,1939
eyeball,1940
eyebrows,1941
eyes,1942
fa,1943
fab,1944
fabulous,1945
face,1946
facepalm,1947
faces,1948
facesofdiabetes,1949
facetiousness,1950
facilities,1951
fackin,1952
fact,1953
factor,1954
facts,1955
fag,1956
faget,1957
faggot,1958
faggots,1959
fags,1960
fail,1961
failed,1962
fails,1963
faints,1964
fair,1965
fairground,1966
faith,1967
faithnomoreparsedfourdigits,1968
fake,1969
falcon,1970
fall,1971
fallacies,1972
fallen,1973
fallin,1974
falling,1975
falls,1976
false,1977
falssified,1978
familiar,1979
families,1980
family,1981
fan,1982
fanatic,1983
fangirl,1984
fans,1985
fantastic,1986
far,1987
farah,1988
farher,1989
farm,1990
farms,1991
farnsworth,1992
fascina,1993
fascinating,1994
fast,1995
faster,1996
fastest,1997
fat,1998
fatal,1999
fatalities,2000
fatass,2001
fate,2002
father,2003
fault,2004
fauwkin,2005
fav,2006
fave,2007
faved,2008
faves,2009
favored,2010
favorit,2011
favorite,2012
favoritealso,2013
favorites,2014
favourite,2015
fawk,2016
fawkin,2017
fear,2018
featured,2019
features,2020
fed,2021
federal,2022
fedor,2023
fedors,2024
feedback,2025
feeding,2026
feel,2027
feeling,2028
feels,2029
fel,2030
felice,2031
feline,2032
feling,2033
fell,2034
felt,2035
felton,2036
female,2037
feminist,2038
ferraris,2039
ferret,2040
fest,2041
festival,2042
festivals,2043
fever,2044
fewer,2045
fff,2046
fibromyalgia,2047
fiction,2048
field,2049
fiend,2050
fifty,2051
fight,2052
fighter,2053
fights,2054
figure,2055
file,2056
files,2057
filipino,2058
filled,2059
film,2060
filmed,2061
filmfor,2062
filming,2063
films,2064
filter,2065
filthy,2066
final,2067
finally,2068
financial,2069
finding,2070
finds,2071
fine,2072
fineeeeeee,2073
finest,2074
fingers,2075
finished,2076
finishes,2077
fintywalsh,2078
fir,2079
firebox,2080
fired,2081
firsbee,2082
fish,2083
fishbowl,2084
fishbowlinventory,2085
fished,2086
fit,2087
fits,2088
fitting,2089
fix,2090
fkin,2091
flaco,2092
flagged,2093
flagship,2094
flan,2095
flashier,2096
flat,2097
flattery,2098
flavor,2099
flavors,2100
flawed,2101
flawlessly,2102
flew,2103
flick,2104
flies,2105
flight,2106
flilipino,2107
flint,2108
flip,2109
flood,2110
floor,2111
floored,2112
florence,2113
flow,2114
flu,2115
fluoxetin,2116
fly,2117
fml,2118
fo,2119
foaming,2120
focus,2121
fog,2122
foggy,2123
foil,2124
folder,2125
folk,2126
folks,2127
follow,2128
followed,2129
followers,2130
following,2131
follows,2132
fomr,2133
font,2134
food,2135
foods,2136
fooled,2137
foot,2138
footage,2139
football,2140
footsteps,2141
footwork,2142
force,2143
foreign,2144
forever,2145
forex,2146
forge,2147
forget,2148
forging,2149
forgot,2150
forgotten,2151
form,2152
formosa,2153
forms,2154
fort,2155
forte,2156
fortuna,2157
fortunate,2158
fortune,2159
forum,2160
forward,2161
fosgate,2162
fought,2163
foulest,2164
foundation,2165
founders,2166
fountain,2167
fourth,2168
fox,2169
foxes,2170
fps,2171
fr,2172
fragrances,2173
frailer,2174
frame,2175
frames,2176
frances,2177
frank,2178
frankly,2179
fransisco,2180
frantically,2181
fraps,2182
fraze,2183
freak,2184
freakin,2185
freaking,2186
freakish,2187
fred,2188
free,2189
freedom,2190
freeks,2191
freeman,2192
freezing,2193
fresh,2194
friday,2195
friend,2196
friendly,2197
friends,2198
friggen,2199
frined,2200
fringe,2201
frisky,2202
frm,2203
fro,2204
fructose,2205
fsx,2206
ft,2207
ftw,2208
fuc,2209
fuck,2210
fucked,2211
fucken,2212
fucker,2213
fuckers,2214
fuckin,2215
fucking,2216
fucks,2217
fuel,2218
fujii,2219
fukin,2220
fuller,2221
fully,2222
fun,2223
funding,2224
funk,2225
funner,2226
funniest,2227
funny,2228
furniture,2229
furry,2230
fustration,2231
future,2232
fuuuuuuuuuuuuuuuuuuuck,2233
fuuuuuuuuuuuuuuuuuuuuuuuuuuuuuuuuuuuuuuuuuuuuuuuuuuuuuuuuuuuuuuuuuuuuuuuuuuuuuuuuuuuuuuuuuck,2234
fye,2235
gaaaah,2236
gaayy,2237
gaberial,2238
gaffer,2239
gaga,2240
gaiusscholasticus,2241
gallo,2242
game,2243
gamebox,2244
gamecube,2245
gameplay,2246
gamers,2247
games,2248
gamma,2249
gangster,2250
ganton,2251
ganzaga,2252
gap,2253
garage,2254
garbage,2255
garcia,2256
gardens,2257
gargoyleparsedonedigitbadparsedonedigitu,2258
gary,2259
gas,2260
gate,2261
gateic,2262
gather,2263
gator,2264
gators,2265
gaurd,2266
gave,2267
gay,2268
gba,2269
gcse,2270
gear,2271
gears,2272
ged,2273
geitner,2274
genders,2275
general,2276
generald,2277
generally,2278
generic,2279
genies,2280
genious,2281
genius,2282
geniuses,2283
genn,2284
genre,2285
genres,2286
gentle,2287
geologist,2288
george,2289
georgians,2290
german,2291
gets,2292
getta,2293
getting,2294
gf,2295
gh,2296
ghalis,2297
gharana,2298
ghastly,2299
ghazal,2300
ghiggling,2301
ghost,2302
ghz,2303
giant,2304
gibbons,2305
gibbs,2306
gifted,2307
gifts,2308
gig,2309
gigantic,2310
giggling,2311
gillan,2312
gillmore,2313
gilvey,2314
ginhahahahaha,2315
gir,2316
girl,2317
girls,2318
givem,2319
given,2320
gives,2321
giving,2322
glad,2323
glare,2324
glass,2325
glasses,2326
glen,2327
global,2328
glorify,2329
glory,2330
gloss,2331
glow,2332
gmo,2333
goal,2334
goals,2335
goat,2336
goatee,2337
goats,2338
god,2339
godbless,2340
goddammit,2341
goddamn,2342
godfather,2343
gods,2344
goebbels,2345
goes,2346
goin,2347
going,2348
gokey,2349
gold,2350
gols,2351
gomez,2352
gone,2353
gong,2354
gonna,2355
gonzagas,2356
goo,2357
good,2358
goodd,2359
gooder,2360
goodies,2361
goodness,2362
goods,2363
gooey,2364
goofing,2365
goog,2366
google,2367
goons,2368
goood,2369
gooody,2370
goosebumps,2371
gop,2372
gordan,2373
gorey,2374
gorgeous,2375
gospel,2376
got,2377
gotta,2378
gould,2379
gouliani,2380
gov,2381
government,2382
governmentuserparsedtwodigits,2383
govt,2384
gower,2385
gowparsedonedigit,2386
gparsedonedigit,2387
grab,2388
grace,2389
gracias,2390
gracie,2391
graciela,2392
grade,2393
grades,2394
grading,2395
gradual,2396
gram,2397
grammys,2398
grand,2399
granddaughters,2400
grandfather,2401
grandfathers,2402
grandin,2403
grandmother,2404
grandson,2405
granted,2406
grapefruit,2407
graphic,2408
graphics,2409
grasp,2410
grass,2411
grate,2412
grateful,2413
grav,2414
gre,2415
greasier,2416
great,2417
greater,2418
greatest,2419
greats,2420
greay,2421
greed,2422
greedy,2423
greek,2424
green,2425
greenpeace,2426
greenscreen,2427
greenwood,2428
greg,2429
gregory,2430
gregorydparsedtwodigits,2431
grew,2432
grey,2433
greys,2434
grill,2435
grilled,2436
grimson,2437
grin,2438
grip,2439
gristle,2440
groom,2441
groovy,2442
ground,2443
group,2444
groups,2445
grow,2446
growing,2447
grown,2448
growth,2449
gru,2450
gstting,2451
guardian,2452
guccis,2453
gud,2454
guess,2455
guest,2456
gui,2457
guide,2458
guilty,2459
guitar,2460
guitarist,2461
guitarron,2462
gun,2463
guna,2464
gundam,2465
gunmen,2466
guns,2467
gunslinger,2468
gunsparsedthreedigits,2469
gurdas,2470
gurglepuckparsedthreedigits,2471
gurls,2472
guru,2473
gust,2474
gutter,2475
guy,2476
guys,2477
gwad,2478
gwt,2479
gym,2480
gypsiegirlsdarkprinc,2481
ha,2482
habe,2483
habit,2484
hack,2485
hadley,2486
hadn,2487
hah,2488
haha,2489
hahaa,2490
hahah,2491
hahaha,2492
hahahah,2493
hahahaha,2494
hahahahah,2495
hahahahaha,2496
hahahahahahahahhahahhahhahahahhahah,2497
hahahahasmall,2498
hahahha,2499
hailparsedonedigitthevictorsbaby,2500
hair,2501
hairs,2502
haiti,2503
haji,2504
halarious,2505
half,2506
hall,2507
hallelujah,2508
halo,2509
ham,2510
hammer,2511
hammers,2512
hand,2513
handed,2514
handful,2515
handle,2516
handles,2517
hands,2518
handsome,2519
handwriting,2520
hang,2521
hannah,2522
hapend,2523
happen,2524
happend,2525
happened,2526
happeneds,2527
happening,2528
happy,2529
haramein,2530
harbhajan,2531
hard,2532
hardly,2533
hardware,2534
harlem,2535
harmonies,2536
harmony,2537
harold,2538
harsh,2539
harvest,2540
hasn,2541
hat,2542
hatch,2543
hate,2544
hated,2545
haters,2546
hatha,2547
hating,2548
hatred,2549
haul,2550
haulted,2551
haunting,2552
hav,2553
haven,2554
havent,2555
having,2556
hawaii,2557
hawking,2558
hawt,2559
hd,2560
head,2561
heading,2562
headlines,2563
headphones,2564
heal,2565
healed,2566
heals,2567
health,2568
healthier,2569
healthy,2570
hear,2571
heard,2572
hearing,2573
heart,2574
hearted,2575
hearts,2576
heaven,2577
heavenly,2578
heavily,2579
heavy,2580
hebrew,2581
heck,2582
hedge,2583
hedgefund,2584
hedges,2585
hee,2586
heeded,2587
hefty,2588
hehe,2589
height,2590
heil,2591
held,2592
helena,2593
hell,2594
hella,2595
hello,2596
hellsing,2597
helluva,2598
helmet,2599
help,2600
helped,2601
helpful,2602
helpin,2603
helping,2604
helpless,2605
helps,2606
hemostat,2607
henry,2608
hepatitis,2609
herbert,2610
herd,2611
heritage,2612
hernje,2613
hero,2614
heroes,2615
herofromthedark,2616
heroine,2617
heros,2618
herring,2619
herve,2620
hes,2621
hey,2622
heyman,2623
hgnr,2624
hi,2625
hickory,2626
hide,2627
hiff,2628
high,2629
higher,2630
highlight,2631
highlights,2632
highly,2633
highway,2634
hijack,2635
hikencparsedfourdigits,2636
hilarious,2637
hilariously,2638
hill,2639
hillarious,2640
hillary,2641
hills,2642
himmmm,2643
hinduism,2644
hinted,2645
hip,2646
hippocrates,2647
hired,2648
hislop,2649
historic,2650
history,2651
hit,2652
hitler,2653
hits,2654
hitstun,2655
hk,2656
hl,2657
hlparsedonedigit,2658
hmm,2659
hmmm,2660
hmparsedthreedigits,2661
ho,2662
hoa,2663
hobbies,2664
hobbyist,2665
hod,2666
hold,2667
holding,2668
hole,2669
holes,2670
holiness,2671
holly,2672
hollywood,2673
holy,2674
home,2675
homo,2676
homosexual,2677
homosexuality,2678
homosexuals,2679
honda,2680
honest,2681
honestly,2682
honor,2683
honored,2684
honour,2685
hood,2686
hoodie,2687
hooked,2688
hooligans,2689
hoop,2690
hop,2691
hope,2692
hopefully,2693
hoping,2694
hopkins,2695
hoply,2696
hoppin,2697
hormones,2698
horn,2699
horns,2700
horrible,2701
horse,2702
horseycutie,2703
horsymadparsedonedigit,2704
host,2705
hosted,2706
hot,2707
hotties,2708
hour,2709
hours,2710
house,2711
housemates,2712
howardmciii,2713
hp,2714
hparsedonedigit,2715
hparsedonedigitnparseddigits,2716
hpv,2717
hsi,2718
hubbard,2719
hubris,2720
huckaba,2721
hug,2722
huge,2723
hugh,2724
huh,2725
human,2726
humane,2727
humanity,2728
humanparodyparsedtwodigits,2729
humans,2730
humble,2731
humbly,2732
humility,2733
humor,2734
humour,2735
hun,2736
hunger,2737
hungry,2738
hunny,2739
hunt,2740
hunter,2741
hunting,2742
hurt,2743
hurts,2744
husband,2745
hyc,2746
hymns,2747
hyped,2748
hyper,2749
hyperinflation,2750
hypocrite,2751
hyrule,2752
hyst,2753
hysterical,2754
hysterically,2755
ian,2756
ibm,2757
ice,2758
id,2759
idc,2760
idea,2761
ideal,2762
ideas,2763
identical,2764
identify,2765
idiot,2766
idiots,2767
idk,2768
idle,2769
idling,2770
igbjklhoigi,2771
ignant,2772
ignorance,2773
ignorant,2774
ignore,2775
ignored,2776
iimoneysignsii,2777
ikungfu,2778
iliketodothat,2779
ilioparsedonedigit,2780
ill,2781
illegally,2782
illigal,2783
illim,2784
illuminati,2785
ilove,2786
iluu,2787
ilyk,2788
im,2789
image,2790
imagery,2791
images,2792
imagination,2793
imagine,2794
imartger,2795
imma,2796
immediately,2797
immersion,2798
immersive,2799
immune,2800
imo,2801
impact,2802
impeached,2803
impeachment,2804
imperial,2805
implement,2806
import,2807
importance,2808
important,2809
impossible,2810
impressed,2811
impressive,2812
impromtu,2813
improvement,2814
ina,2815
inaccurate,2816
inalienable,2817
inbred,2818
incidental,2819
incline,2820
include,2821
included,2822
including,2823
income,2824
incredible,2825
incurred,2826
independent,2827
indespensible,2828
index,2829
india,2830
indian,2831
indiana,2832
indians,2833
indication,2834
indignant,2835
industry,2836
ines,2837
infection,2838
inferior,2839
infinite,2840
infinitewhizbang,2841
inflation,2842
inflicted,2843
influencing,2844
info,2845
inform,2846
information,2847
informative,2848
informed,2849
ingnoant,2850
iniquitous,2851
injury,2852
ink,2853
inland,2854
inmates,2855
inner,2856
input,2857
inputs,2858
inquisitive,2859
insane,2860
inscription,2861
insert,2862
inside,2863
insight,2864
insomnia,2865
inspection,2866
inspiration,2867
inspired,2868
inspiring,2869
install,2870
installation,2871
installer,2872
installing,2873
installments,2874
instant,2875
instantly,2876
instead,2877
instinctive,2878
instruction,2879
instructions,2880
insurance,2881
intact,2882
integrate,2883
intel,2884
intelligence,2885
intelligent,2886
intelligently,2887
intendo,2888
intense,2889
interacted,2890
interested,2891
interesting,2892
international,2893
internationally,2894
internet,2895
interpretation,2896
interstate,2897
intervene,2898
interview,2899
interviewing,2900
interviews,2901
intro,2902
introduction,2903
introdued,2904
invaded,2905
invasion,2906
inventing,2907
invention,2908
inverter,2909
investment,2910
invite,2911
involve,2912
involved,2913
involves,2914
iouparsedonedigitawesome,2915
ipad,2916
ipl,2917
ipod,2918
ipsw,2919
irael,2920
iran,2921
iraq,2922
iraqi,2923
ireland,2924
iron,2925
ironic,2926
irony,2927
irrelevant,2928
irresistible,2929
irritating,2930
irvin,2931
ish,2932
islam,2933
islamism,2934
island,2935
isn,2936
isnt,2937
iso,2938
isolated,2939
isp,2940
israel,2941
israeli,2942
issh,2943
issue,2944
issues,2945
ist,2946
itachi,2947
italian,2948
itch,2949
itchicus,2950
itching,2951
itd,2952
ithem,2953
ithink,2954
itsdezzparsedthreedigits,2955
itt,2956
itunes,2957
ity,2958
ityou,2959
itz,2960
ive,2961
ivor,2962
iwaju,2963
iz,2964
izzi,2965
jack,2966
jackass,2967
jacked,2968
jackie,2969
jacks,2970
jackson,2971
jacq,2972
jacque,2973
jade,2974
jail,2975
jake,2976
jam,2977
james,2978
jamesjrparsedthreedigits,2979
jamming,2980
jan,2981
janay,2982
janet,2983
jannah,2984
january,2985
japan,2986
japanese,2987
jasonnhenchmenn,2988
jasraj,2989
javascript,2990
jawn,2991
jazz,2992
jb,2993
jc,2994
jealousy,2995
jeet,2996
jeez,2997
jeezecheese,2998
jeezechesse,2999
jeezejess,3000
jeezy,3001
jeezys,3002
jeffrey,3003
jehovah,3004
jerk,3005
jermain,3006
jesse,3007
jessie,3008
jesuejesus,3009
jesus,3010
jets,3011
jetsetjones,3012
jewish,3013
jfk,3014
ji,3015
jihadists,3016
jijiooze,3017
jike,3018
jim,3019
jimmy,3020
jk,3021
joanna,3022
job,3023
jobs,3024
jock,3025
jockin,3026
joel,3027
joesph,3028
joey,3029
jogger,3030
jogging,3031
johann,3032
john,3033
johndeeregatorforum,3034
johnny,3035
johns,3036
join,3037
joints,3038
jojo,3039
jojojolan,3040
joke,3041
joker,3042
jokes,3043
joking,3044
jolly,3045
jon,3046
jonathon,3047
jones,3048
jory,3049
josh,3050
joy,3051
jp,3052
jpizzyparsedfourdigits,3053
jr,3054
jst,3055
jt,3056
judging,3057
juggernaught,3058
juggernaut,3059
jugs,3060
juice,3061
julia,3062
julie,3063
julio,3064
july,3065
jumbo,3066
jump,3067
jumpcutting,3068
jumpes,3069
jumping,3070
jumps,3071
june,3072
jus,3073
just,3074
justice,3075
justin,3076
jux,3077
kain,3078
kandi,3079
kane,3080
karate,3081
karen,3082
karnt,3083
kartel,3084
karthik,3085
kate,3086
katharine,3087
kathryn,3088
katy,3089
kblankparsedtwodigits,3090
keats,3091
keen,3092
keeping,3093
keeps,3094
keepsakes,3095
kel,3096
kelly,3097
kendall,3098
kendo,3099
kendos,3100
kenjutsu,3101
kenny,3102
kenpachi,3103
kenton,3104
kenya,3105
keo,3106
kept,3107
kerry,3108
ketamine,3109
ketys,3110
kevin,3111
kewl,3112
key,3113
keyboard,3114
keyboardist,3115
keynes,3116
khan,3117
khapter,3118
khmer,3119
ki,3120
kick,3121
kickass,3122
kicked,3123
kicking,3124
kicks,3125
kid,3126
kidding,3127
kidds,3128
kids,3129
kill,3130
killed,3131
killer,3132
killing,3133
kills,3134
kim,3135
kimmm,3136
kims,3137
kind,3138
kinda,3139
kinds,3140
king,3141
kingdom,3142
kiss,3143
kit,3144
kiwaii,3145
knee,3146
kneel,3147
knew,3148
knewthat,3149
knicks,3150
kno,3151
knob,3152
knocked,3153
knocking,3154
knos,3155
know,3156
knowing,3157
knowledgable,3158
knowledge,3159
knowledgeable,3160
known,3161
knows,3162
knox,3163
kobe,3164
korean,3165
koy,3166
kraft,3167
krall,3168
kratos,3169
kripp,3170
kristol,3171
krupnik,3172
krutch,3173
ksg,3174
kudos,3175
kune,3176
kurt,3177
kurtieboyparsedonedigit,3178
kuthria,3179
kuz,3180
kylhulparsedtwodigits,3181
la,3182
labor,3183
labour,3184
lace,3185
lachje,3186
lack,3187
lacks,3188
lad,3189
ladies,3190
lady,3191
lafidi,3192
laid,3193
laired,3194
lake,3195
lakeman,3196
lama,3197
lame,3198
lamposts,3199
lancastrians,3200
lancer,3201
land,3202
landing,3203
lands,3204
landscapes,3205
lane,3206
langley,3207
language,3208
langue,3209
lanky,3210
lap,3211
lapse,3212
laptop,3213
large,3214
larouche,3215
larson,3216
lashes,3217
late,3218
lately,3219
later,3220
latest,3221
latin,3222
laugh,3223
laughed,3224
laughing,3225
launch,3226
laureen,3227
lavalley,3228
law,3229
lawerence,3230
laws,3231
lawsuit,3232
layering,3233
laying,3234
lazy,3235
lbs,3236
le,3237
lead,3238
leader,3239
leadership,3240
leading,3241
leads,3242
league,3243
leahcimparsedthreedigits,3244
leaked,3245
leap,3246
learn,3247
learned,3248
learning,3249
leather,3250
leave,3251
leaves,3252
leaving,3253
lebanese,3254
lebron,3255
lecture,3256
led,3257
ledgend,3258
lee,3259
left,3260
leftie,3261
legal,3262
legend,3263
legislation,3264
legislators,3265
legit,3266
legittt,3267
lego,3268
lekkas,3269
lemmon,3270
lemons,3271
lena,3272
lendale,3273
lending,3274
lennox,3275
les,3276
lesbain,3277
lesnar,3278
lesson,3279
lessons,3280
let,3281
lets,3282
letter,3283
letz,3284
level,3285
levels,3286
leveraged,3287
lewis,3288
liam,3289
liberals,3290
liberator,3291
libertarian,3292
librarian,3293
libraries,3294
libya,3295
lick,3296
licking,3297
lie,3298
lies,3299
life,3300
lifetime,3301
lifted,3302
light,3303
lighting,3304
lightning,3305
lights,3306
lightsaber,3307
like,3308
liked,3309
likee,3310
likely,3311
likes,3312
liking,3313
lil,3314
limbs,3315
limewire,3316
limited,3317
lindlar,3318
line,3319
lines,3320
lings,3321
link,3322
links,3323
linux,3324
lion,3325
lionels,3326
lip,3327
liquid,3328
liquitex,3329
lisbon,3330
listed,3331
listen,3332
listened,3333
listening,3334
listing,3335
lita,3336
literally,3337
literate,3338
literature,3339
lithgow,3340
litre,3341
little,3342
liv,3343
live,3344
lived,3345
liverpool,3346
lives,3347
living,3348
ll,3349
llike,3350
lloovvee,3351
lmaaaooo,3352
lmao,3353
lmaoo,3354
lmbo,3355
lmfao,3356
lnparsedfourdigits,3357
lo,3358
load,3359
loaded,3360
lobbies,3361
lobby,3362
lobo,3363
local,3364
lock,3365
locked,3366
lockerz,3367
lockyer,3368
loggins,3369
logic,3370
logo,3371
lol,3372
lolol,3373
lololololool,3374
lolthanks,3375
lolz,3376
london,3377
lone,3378
long,3379
longer,3380
longitude,3381
look,3382
looked,3383
lookin,3384
looking,3385
lookk,3386
looks,3387
lool,3388
loool,3389
loooooooong,3390
looooooooot,3391
looooooooved,3392
loop,3393
loose,3394
lorc,3395
lord,3396
lordship,3397
los,3398
lose,3399
loser,3400
losing,3401
loss,3402
losses,3403
lost,3404
lot,3405
lots,3406
lov,3407
love,3408
loved,3409
lovee,3410
loveee,3411
lovefreestuff,3412
lovely,3413
lovelydove,3414
loves,3415
lovin,3416
loving,3417
low,3418
lower,3419
lowes,3420
lowest,3421
lowo,3422
lowrider,3423
loyd,3424
lp,3425
lparsedonedigitng,3426
lsd,3427
lt,3428
ltopmodell,3429
lucazeau,3430
lucifer,3431
luck,3432
luckky,3433
lucky,3434
lunabiancaparsedtwodigits,3435
lungs,3436
luoshui,3437
luv,3438
luved,3439
luvin,3440
luxury,3441
lve,3442
lviv,3443
lvo,3444
lying,3445
lyric,3446
lyrically,3447
lyricism,3448
lyrics,3449
lytton,3450
ma,3451
maa,3452
maaaaan,3453
maam,3454
mac,3455
machiene,3456
machine,3457
mackin,3458
mad,3459
madara,3460
madaras,3461
madde,3462
madge,3463
madhubala,3464
madness,3465
madoka,3466
madrid,3467
madtown,3468
madukwu,3469
mafia,3470
maghreb,3471
magic,3472
magnet,3473
magni,3474
magnificent,3475
maha,3476
mahalo,3477
mahler,3478
main,3479
mainly,3480
mainstream,3481
maintaining,3482
maintindihan,3483
majesty,3484
majini,3485
major,3486
majority,3487
make,3488
makeing,3489
makemoneyparsedonedigitxcom,3490
maker,3491
makes,3492
makeup,3493
makin,3494
making,3495
malah,3496
male,3497
mallory,3498
malmsteen,3499
mame,3500
man,3501
manabu,3502
manage,3503
managed,3504
management,3505
manager,3506
managers,3507
manga,3508
mani,3509
manic,3510
mankind,3511
mann,3512
manual,3513
manuel,3514
map,3515
mapledork,3516
maravilloso,3517
marching,3518
marge,3519
mariachis,3520
mariah,3521
marijuana,3522
marine,3523
marines,3524
marios,3525
mariusparsedtwodigitsmay,3526
mark,3527
marked,3528
market,3529
marketed,3530
marketing,3531
markets,3532
marlon,3533
marriage,3534
married,3535
marry,3536
mars,3537
marshparsedfourdigits,3538
martegon,3539
martial,3540
martin,3541
marty,3542
martyrindia,3543
marvel,3544
marvelous,3545
maryam,3546
maryland,3547
mas,3548
masa,3549
mashaallaah,3550
mashallah,3551
mask,3552
masked,3553
masking,3554
masks,3555
masonary,3556
mass,3557
massage,3558
masses,3559
massive,3560
master,3561
masterfully,3562
masterpiece,3563
match,3564
matches,3565
mate,3566
math,3567
matt,3568
matter,3569
matters,3570
matty,3571
mature,3572
maudlin,3573
mauldin,3574
max,3575
maxima,3576
maya,3577
maybe,3578
mayo,3579
mayor,3580
mb,3581
mcangeloparsedtwodigits,3582
mcevoy,3583
mckinney,3584
mcnevan,3585
mcsame,3586
mcsorley,3587
mean,3588
meanie,3589
meaning,3590
meaningful,3591
meaningless,3592
means,3593
meant,3594
mears,3595
measure,3596
meat,3597
meaty,3598
mechanism,3599
med,3600
media,3601
medical,3602
medicine,3603
medieval,3604
meditating,3605
meds,3606
meet,3607
meeting,3608
megadrive,3609
megaman,3610
megga,3611
mel,3612
melanie,3613
melee,3614
melody,3615
melted,3616
member,3617
members,3618
memories,3619
memorize,3620
memorizing,3621
memory,3622
men,3623
ment,3624
mental,3625
mentioned,3626
mercy,3627
mere,3628
merky,3629
merry,3630
mesh,3631
mesmerizing,3632
mess,3633
message,3634
messed,3635
messes,3636
messiah,3637
messing,3638
met,3639
metal,3640
metallica,3641
metaphor,3642
metastasized,3643
methdosit,3644
method,3645
mever,3646
mewati,3647
mexicans,3648
mfer,3649
mhillparsedfourdigits,3650
mi,3651
mib,3652
mic,3653
michael,3654
michelle,3655
michigan,3656
mickbeth,3657
microwave,3658
middle,3659
midget,3660
midnight,3661
midst,3662
mighty,3663
mike,3664
mile,3665
miles,3666
miley,3667
military,3668
miller,3669
million,3670
millions,3671
mind,3672
mindboggling,3673
mindedness,3674
minds,3675
miners,3676
mini,3677
minimal,3678
minister,3679
minnesota,3680
minnie,3681
minor,3682
minority,3683
mins,3684
minute,3685
minutes,3686
miraculous,3687
miraculously,3688
mirs,3689
misconduct,3690
miserable,3691
mises,3692
misguided,3693
mishandled,3694
misinterpreted,3695
mislead,3696
misleading,3697
miss,3698
missed,3699
missing,3700
mission,3701
missyessieparsedtwodigits,3702
misterquebec,3703
mistranslated,3704
mistranslation,3705
mite,3706
mites,3707
mitre,3708
mix,3709
mixhope,3710
mixtape,3711
mixture,3712
mk,3713
mkes,3714
mm,3715
mma,3716
mmd,3717
mme,3718
mmjspots,3719
mmm,3720
mmmmmmmmmmm,3721
mobianangel,3722
mobile,3723
mobilty,3724
mocosos,3725
modaltrainsparsedfourdigits,3726
modd,3727
modded,3728
model,3729
models,3730
modern,3731
modes,3732
modified,3733
modulation,3734
module,3735
mogul,3736
molester,3737
molly,3738
molotov,3739
mom,3740
moment,3741
moments,3742
momma,3743
moms,3744
mon,3745
monday,3746
money,3747
mongering,3748
monkee,3749
monkees,3750
monkey,3751
monkeyspankparsedthreedigits,3752
monopod,3753
monsanto,3754
monsieur,3755
montana,3756
month,3757
months,3758
montreal,3759
moo,3760
moon,3761
moonlight,3762
morals,3763
morgan,3764
morning,3765
moron,3766
morse,3767
morticia,3768
mosque,3769
mosrite,3770
motehrs,3771
mother,3772
motion,3773
motley,3774
motor,3775
motordotcom,3776
motorsports,3777
mountains,3778
mouse,3779
moustache,3780
mouth,3781
movable,3782
moved,3783
movement,3784
movements,3785
movey,3786
movie,3787
movies,3788
moving,3789
moyet,3790
mozgov,3791
mparsedonedigit,3792
mpparsedonedigit,3793
mpparsedonedigits,3794
mr,3795
mrebonyman,3796
mrjuanmireles,3797
mrlagxsure,3798
mrparsedonedigitwhitey,3799
ms,3800
msellzparsedtwodigits,3801
msical,3802
msthunderroad,3803
mu,3804
muah,3805
muahaha,3806
muahhhhhhh,3807
muir,3808
mullen,3809
multiple,3810
multiuncensored,3811
mum,3812
mumbai,3813
munching,3814
mundane,3815
muppet,3816
murad,3817
murder,3818
muscle,3819
muscles,3820
music,3821
musical,3822
musically,3823
musician,3824
musicians,3825
muslims,3826
mustache,3827
musume,3828
mutants,3829
mutton,3830
muzzies,3831
mw,3832
mworldparsedonedigit,3833
mwparsedonedigit,3834
mwparsedonedigitforfreeyinfo,3835
mxc,3836
mynameispieparsedonedigit,3837
mystery,3838
myyou,3839
nadin,3840
nadu,3841
nail,3842
nailclippers,3843
naked,3844
namaste,3845
named,3846
names,3847
namibia,3848
naomixtc,3849
narration,3850
narrow,3851
nassim,3852
nasty,3853
nat,3854
nathaniel,3855
nation,3856
national,3857
native,3858
naturally,3859
nature,3860
naughty,3861
nav,3862
navy,3863
nay,3864
nayar,3865
nazi,3866
nazrin,3867
nce,3868
ncis,3869
near,3870
nearly,3871
neat,3872
nebraska,3873
necess,3874
necessary,3875
neck,3876
necklace,3877
need,3878
needed,3879
needless,3880
needs,3881
negation,3882
negative,3883
neginner,3884
neighbors,3885
neighbour,3886
neil,3887
nekoooooooooooooooooooooooooooooooooooooooooo,3888
neon,3889
nerds,3890
nervous,3891
net,3892
nether,3893
network,3894
new,3895
newestvideo,3896
news,3897
newsmedia,3898
newspapers,3899
newton,3900
nf,3901
nff,3902
nfs,3903
ng,3904
ni,3905
nice,3906
nicee,3907
niceee,3908
nicely,3909
nicer,3910
nich,3911
nichole,3912
nick,3913
nicki,3914
nickname,3915
nigga,3916
niggas,3917
nigger,3918
night,3919
nightmare,3920
nightmares,3921
niicee,3922
niiiiiiiiiiiiiiiiiiice,3923
nile,3924
nina,3925
nintendo,3926
nintendomanwill,3927
ninth,3928
nippy,3929
nique,3930
niro,3931
nita,3932
nitze,3933
nk,3934
nobles,3935
noblest,3936
noblesville,3937
noel,3938
noir,3939
nominee,3940
non,3941
nonvested,3942
noob,3943
noobed,3944
noobkillerparsedthreedigits,3945
noobs,3946
nooo,3947
nope,3948
norail,3949
nordeman,3950
norm,3951
normally,3952
norparsedthreedigitsvastparsedthreedigits,3953
norris,3954
north,3955
norweigen,3956
nosed,3957
nostalgic,3958
notdahoneyhonestly,3959
note,3960
notes,3961
nothin,3962
nothingness,3963
notice,3964
noticed,3965
noun,3966
nova,3967
novello,3968
novels,3969
november,3970
np,3971
npcs,3972
npns,3973
nrc,3974
nrm,3975
nsparsedonedigit,3976
ntrlflvr,3977
nuclear,3978
nude,3979
nudity,3980
nuff,3981
nuke,3982
nukem,3983
nult,3984
numark,3985
numb,3986
number,3987
numis,3988
nuns,3989
nurse,3990
nursing,3991
nut,3992
nutnfancy,3993
nuts,3994
nutshell,3995
nutt,3996
nw,3997
nwo,3998
ny,3999
o__o,4000
o__othe,4001
o_o,4002
obama,4003
object,4004
objectivity,4005
obnoxious,4006
obscenity,4007
observation,4008
observed,4009
obstructionists,4010
obvious,4011
obviously,4012
occasionally,4013
occurs,4014
ocean,4015
octave,4016
octive,4017
october,4018
odds,4019
ofcourse,4020
offending,4021
offense,4022
offer,4023
offering,4024
office,4025
offline,4026
offseason,4027
ofte,4028
og,4029
oh,4030
ohh,4031
ohio,4032
oho,4033
oil,4034
oily,4035
ok,4036
okaii,4037
okay,4038
ol,4039
old,4040
older,4041
oligarchy,4042
oliver,4043
om,4044
omelette,4045
omfg,4046
omg,4047
omj,4048
omni,4049
oncology,4050
ones,4051
onion,4052
online,4053
onward,4054
ook,4055
ookamishiranuiparsedonedigit,4056
ooo,4057
ooohhh,4058
oooooh,4059
op,4060
open,4061
opened,4062
opening,4063
openness,4064
operate,4065
opinion,4066
oppinion,4067
opponent,4068
opposed,4069
opposing,4070
opposite,4071
oppression,4072
ops,4073
optain,4074
optical,4075
option,4076
options,4077
oranges,4078
orbison,4079
orchestra,4080
orchestration,4081
order,4082
orders,4083
oregon,4084
org,4085
organ,4086
organization,4087
organize,4088
oriented,4089
orienteer,4090
original,4091
originalfw,4092
originally,4093
originals,4094
originated,4095
origins,4096
origionaly,4097
orininality,4098
orwellian,4099
osas,4100
oscar,4101
oshkosh,4102
osmosis,4103
oso,4104
ossetian,4105
osteoarthritis,4106
ot,4107
oth,4108
ouen,4109
ouiser,4110
ounce,4111
outcasted,4112
outcome,4113
outdoors,4114
outfit,4115
outhouses,4116
outlandish,4117
outscored,4118
outside,4119
overall,4120
overcome,4121
overhaul,4122
overlap,4123
overload,4124
overpriced,4125
overseas,4126
overwhelmed,4127
owned,4128
owners,4129
owns,4130
oxygen,4131
oxymoron,4132
oy,4133
oyu,4134
oyyy,4135
oz,4136
pa,4137
pac,4138
pacemaker,4139
pack,4140
package,4141
packed,4142
pad,4143
page,4144
pages,4145
paid,4146
paige,4147
pain,4148
painful,4149
paint,4150
paintbrush,4151
painting,4152
paints,4153
pair,4154
palaces,4155
palacios,4156
palatable,4157
palemino,4158
paleo,4159
pancakes,4160
panderer,4161
panders,4162
pandit,4163
panic,4164
pants,4165
papa,4166
paper,4167
paperclip,4168
papi,4169
para,4170
paralyzing,4171
paranoidnickandmatt,4172
paranormal,4173
pardon,4174
parents,4175
park,4176
parker,4177
parks,4178
parodies,4179
parseddigits,4180
parseddigitsmg,4181
parseddigitsst,4182
parseddigitsth,4183
parsedfivedigits,4184
parsedfourdigits,4185
parsedfourdigitss,4186
parsedonedigit,4187
parsedonedigitblackone,4188
parsedonedigitck,4189
parsedonedigitd,4190
parsedonedigitdeadspace,4191
parsedonedigitdoes,4192
parsedonedigitgs,4193
parsedonedigitlightsparsedonedigit,4194
parsedonedigitnbfmxyxparsedonedigit,4195
parsedonedigitnd,4196
parsedonedigitneparsedonedigit,4197
parsedonedigitp,4198
parsedonedigitpietroneparsedonedigit,4199
parsedonedigitprelude,4200
parsedonedigitpsi,4201
parsedonedigitrd,4202
parsedonedigitrimaparsedonedigit,4203
parsedonedigits,4204
parsedonedigitst,4205
parsedonedigitstars,4206
parsedonedigitt,4207
parsedonedigitth,4208
parsedonedigitv,4209
parsedthreedigits,4210
parsedthreedigitsfannyfart,4211
parsedthreedigitsk,4212
parsedthreedigitsshekelparsedthreedigits,4213
parsedthreedigitsth,4214
parsedthreedigitswedoparsedthreedigits,4215
parsedtime,4216
parsedtwodigits,4217
parsedtwodigitsbps,4218
parsedtwodigitsellieparsedtwodigits,4219
parsedtwodigitsgb,4220
parsedtwodigitsghz,4221
parsedtwodigitsjarmell,4222
parsedtwodigitsk,4223
parsedtwodigitslook,4224
parsedtwodigitsmb,4225
parsedtwodigitsmg,4226
parsedtwodigitsminutes,4227
parsedtwodigitss,4228
parsedtwodigitsth,4229
parsedtwodigitsw,4230
parsedtwodigitswe,4231
parsedtwodigitsyrs,4232
partially,4233
particular,4234
parties,4235
partlishly,4236
partners,4237
parts,4238
party,4239
pascal,4240
pass,4241
passed,4242
passion,4243
past,4244
paste,4245
pastor,4246
patch,4247
patched,4248
patches,4249
path,4250
pathetic,4251
patient,4252
patil,4253
patterns,4254
paul,4255
pavillion,4256
pay,4257
payers,4258
pays,4259
pbs,4260
pbsi,4261
pc,4262
peace,4263
pec,4264
pedal,4265
pedicure,4266
peed,4267
peek,4268
peep,4269
peer,4270
peice,4271
pej,4272
peme,4273
pencil,4274
pending,4275
penguin,4276
penguins,4277
pennsylvania,4278
pentecostal,4279
pentium,4280
peolple,4281
people,4282
peoples,4283
pepsi,4284
perc,4285
perceives,4286
perception,4287
perez,4288
perfect,4289
perfection,4290
perfectly,4291
performance,4292
performances,4293
performed,4294
performing,4295
period,4296
permentant,4297
permission,4298
pero,4299
person,4300
personal,4301
personality,4302
personally,4303
perspective,4304
perv,4305
pervs,4306
pesparsedonedigit,4307
pessimistic,4308
pet,4309
pete,4310
peter,4311
pgs,4312
ph,4313
phar,4314
pharell,4315
pharmacy,4316
phase,4317
phat,4318
phenomenon,4319
phil,4320
phillips,4321
philly,4322
philo,4323
philosophicparsedonedigit,4324
phoenix,4325
phone,4326
physaical,4327
physical,4328
physically,4329
physics,4330
pi,4331
piano,4332
pic,4333
pick,4334
picked,4335
pickle,4336
pickpockets,4337
pics,4338
picture,4339
pictures,4340
picturization,4341
pie,4342
piece,4343
pieces,4344
pierced,4345
piers,4346
pies,4347
pietrus,4348
pig,4349
pigments,4350
pilot,4351
pimp,4352
pimpin,4353
pin,4354
pineapple,4355
pingas,4356
pinlines,4357
pinyin,4358
pioneers,4359
piper,4360
pipes,4361
pirate,4362
pirates,4363
piscesrisingparsedfourdigits,4364
pissed,4365
pit,4366
pitiful,4367
pittiful,4368
pittsburgh,4369
pizzas,4370
place,4371
places,4372
plain,4373
plains,4374
plane,4375
planet,4376
planing,4377
planned,4378
plants,4379
platform,4380
platitudes,4381
play,4382
playback,4383
played,4384
player,4385
players,4386
playing,4387
playoff,4388
playoffs,4389
plays,4390
pleased,4391
plethora,4392
pllllz,4393
plot,4394
pls,4395
plug,4396
plus,4397
plushie,4398
plz,4399
plzzz,4400
pm,4401
pobodyparsedtwodigits,4402
pocket,4403
podcast,4404
poem,4405
poetry,4406
point,4407
pointed,4408
pointing,4409
points,4410
pokemon,4411
pokes,4412
police,4413
policecar,4414
policy,4415
polish,4416
politicians,4417
politics,4418
pollard,4419
pollinate,4420
pollinated,4421
pollute,4422
polo,4423
ponca,4424
poor,4425
pop,4426
popcorn,4427
pope,4428
pops,4429
populate,4430
populating,4431
population,4432
porno,4433
port,4434
portal,4435
porter,4436
ports,4437
pos,4438
pose,4439
posh,4440
positions,4441
positive,4442
possesed,4443
possessed,4444
possibilities,4445
possibility,4446
possible,4447
possibly,4448
possition,4449
possum,4450
post,4451
posted,4452
poster,4453
posting,4454
postingone,4455
posts,4456
potatoes,4457
potential,4458
potentials,4459
potshots,4460
pounds,4461
poured,4462
powell,4463
power,4464
powerd,4465
powerful,4466
powerpoles,4467
powers,4468
pozz,4469
pparsedonedigit,4470
ppl,4471
practically,4472
practice,4473
practicies,4474
praise,4475
praising,4476
prancing,4477
prankstertwins,4478
pray,4479
prayer,4480
praying,4481
pre,4482
preciosa,4483
precise,4484
predates,4485
predicted,4486
predictions,4487
prefer,4488
preferring,4489
prefers,4490
preform,4491
pregnant,4492
prejuidce,4493
preliminary,4494
premise,4495
premium,4496
prepare,4497
prepared,4498
present,4499
presentation,4500
presente,4501
president,4502
press,4503
prestige,4504
preteens,4505
pretending,4506
pretty,4507
prevent,4508
prey,4509
price,4510
priceless,4511
prices,4512
prick,4513
pride,4514
priest,4515
prime,4516
primitive,4517
prince,4518
princessofportk,4519
princesstard,4520
principal,4521
print,4522
prints,4523
prior,4524
priorities,4525
priparsedfourdigits,4526
prison,4527
prissy,4528
privalege,4529
private,4530
prize,4531
pro,4532
prob,4533
probably,4534
probbally,4535
proberly,4536
probert,4537
problem,4538
problems,4539
probly,4540
process,4541
procreate,4542
produced,4543
producer,4544
producing,4545
product,4546
production,4547
productive,4548
products,4549
professionals,4550
professor,4551
professsional,4552
profile,4553
profuse,4554
program,4555
programs,4556
project,4557
projects,4558
prom,4559
promotes,4560
promoting,4561
promotion,4562
pronunciation,4563
proof,4564
proofreally,4565
propaganda,4566
proper,4567
properly,4568
property,4569
prophet,4570
propose,4571
proposed,4572
props,4573
prosecuting,4574
prosperity,4575
prostititutes,4576
protect,4577
protecting,4578
protection,4579
protesting,4580
proud,4581
prouder,4582
proved,4583
proves,4584
provide,4585
proving,4586
provoke,4587
proxies,4588
prozac,4589
ps,4590
psi,4591
psst,4592
psychiatrists,4593
psychology,4594
pt,4595
puberty,4596
public,4597
publicity,4598
publicly,4599
publish,4600
puddle,4601
pull,4602
pulled,4603
pulley,4604
pulling,4605
pulsates,4606
pumped,4607
punch,4608
punched,4609
punching,4610
punctuation,4611
punishable,4612
punk,4613
punked,4614
pup,4615
puppet,4616
puppets,4617
puppy,4618
purchased,4619
purchasing,4620
pure,4621
purely,4622
puro,4623
purparsedonedigit,4624
purpose,4625
push,4626
pushing,4627
pussies,4628
pusssssssyyyyyy,4629
pussy,4630
puts,4631
putting,4632
putz,4633
pwoven,4634
pylon,4635
qingian,4636
qiu,4637
qparsedonedigit,4638
quailty,4639
qualification,4640
quality,4641
queen,4642
queenofbreyers,4643
queer,4644
questfortruthparsedtwodigits,4645
question,4646
questions,4647
quick,4648
quiet,4649
quirky,4650
quit,4651
quite,4652
quote,4653
race,4654
racers,4655
races,4656
racial,4657
racism,4658
racist,4659
rad,4660
radeo,4661
radiation,4662
radigram,4663
radio,4664
rafikcc,4665
rage,4666
rahmatullah,4667
raiceaandreiparsedtwodigits,4668
raider,4669
raids,4670
rail,4671
raining,4672
raise,4673
raised,4674
raisers,4675
rallies,4676
rally,4677
ram,4678
rambler,4679
ramblers,4680
rambo,4681
ramone,4682
ramones,4683
ran,4684
randolph,4685
random,4686
randomly,4687
range,4688
rap,4689
rape,4690
raped,4691
rapper,4692
rapping,4693
rare,4694
raspy,4695
rat,4696
rate,4697
rates,4698
rating,4699
rational,4700
ratt,4701
rattings,4702
rattle,4703
rave,4704
raven,4705
raw,4706
rawk,4707
ray,4708
rayudu,4709
raza,4710
razzfazzparsedtwodigits,4711
rb,4712
rea,4713
reaaaaally,4714
reach,4715
reaching,4716
read,4717
reader,4718
reading,4719
reads,4720
ready,4721
real,4722
reality,4723
realize,4724
realized,4725
reallllly,4726
really,4727
reallyeh,4728
reason,4729
reasons,4730
reattach,4731
rebound,4732
rebuilds,4733
recall,4734
receive,4735
received,4736
receiver,4737
receives,4738
recent,4739
recently,4740
reclaim,4741
recommend,4742
recommending,4743
reconciliation,4744
reconstruct,4745
record,4746
recording,4747
recovery,4748
red,4749
rediculas,4750
rediculous,4751
rediculously,4752
redparsedsixdigits,4753
reeeeal,4754
reefer,4755
refer,4756
references,4757
referencing,4758
refering,4759
referring,4760
reflect,4761
refreshing,4762
refuting,4763
regarded,4764
regardless,4765
regards,4766
reggie,4767
region,4768
regions,4769
register,4770
regulation,4771
regulatory,4772
reich,4773
reincarnated,4774
rejectors,4775
relate,4776
related,4777
relating,4778
relationship,4779
release,4780
released,4781
releasing,4782
relevant,4783
relief,4784
religion,4785
religious,4786
relised,4787
reload,4788
reloaded,4789
remained,4790
remaining,4791
remarkably,4792
remember,4793
remembered,4794
remembering,4795
remians,4796
remind,4797
reminds,4798
reminiscent,4799
remix,4800
remixes,4801
remove,4802
removed,4803
removes,4804
rendition,4805
repact,4806
repair,4807
repbu,4808
repeat,4809
repeatedly,4810
repeating,4811
repertoire,4812
repetition,4813
repetitive,4814
repitition,4815
replace,4816
replaced,4817
replaces,4818
reply,4819
replyin,4820
report,4821
reported,4822
reporter,4823
reports,4824
repossess,4825
represent,4826
republic,4827
republican,4828
reputation,4829
request,4830
requires,4831
requiring,4832
rescue,4833
rescuerangerparsedtwodigits,4834
research,4835
researching,4836
reserve,4837
residents,4838
resides,4839
resonance,4840
respect,4841
respectful,4842
respond,4843
responded,4844
responding,4845
responds,4846
response,4847
responses,4848
responsibility,4849
responsible,4850
rest,4851
restart,4852
restarts,4853
restaurant,4854
results,4855
retard,4856
retarded,4857
retina,4858
retire,4859
retirement,4860
retterparsedtwodigits,4861
rettot,4862
return,4863
returned,4864
returning,4865
reveals,4866
revelation,4867
revenue,4868
reverb,4869
reverse,4870
review,4871
reviews,4872
revision,4873
revisit,4874
revlon,4875
revolution,4876
rewarded,4877
rewrite,4878
rex,4879
rey,4880
rhapsody,4881
rhino,4882
rhythm,4883
rhytum,4884
ria,4885
ribs,4886
rica,4887
rich,4888
richard,4889
rick,4890
rickey,4891
rickie,4892
rid,4893
riddlers,4894
ride,4895
rider,4896
rides,4897
ridiculous,4898
riding,4899
riff,4900
right,4901
rightly,4902
rights,4903
rihanna,4904
riid,4905
ring,4906
ringing,4907
riot,4908
rip,4909
rips,4910
rising,4911
risks,4912
rite,4913
ritsu,4914
rival,4915
river,4916
rlly,4917
rly,4918
rnb,4919
roach,4920
road,4921
roads,4922
roanoke,4923
rob,4924
robalo,4925
robin,4926
robot,4927
robotcowparsedtwodigits,4928
robparseddigits,4929
rock,4930
rocked,4931
rockford,4932
rockhopper,4933
rocking,4934
rockpalast,4935
rocks,4936
rockstar,4937
rod,4938
roddie,4939
rode,4940
rodney,4941
rodzhila,4942
rofl,4943
roger,4944
rogeropie,4945
rogers,4946
rogue,4947
role,4948
roll,4949
rolled,4950
rollin,4951
rom,4952
romero,4953
ron,4954
roof,4955
rook,4956
room,4957
rooms,4958
roosevelt,4959
rosa,4960
rose,4961
rosemary,4962
rosewood,4963
rosie,4964
rot,4965
rotflmfao,4966
rottweilers,4967
rough,4968
round,4969
router,4970
routes,4971
routine,4972
row,4973
rowan,4974
roy,4975
rpg,4976
rubbish,4977
rubblekings,4978
rude,4979
rufus,4980
ruined,4981
ruins,4982
ruler,4983
rules,4984
rumble,4985
rumblefishparsedfourdigits,4986
rumle,4987
run,4988
runing,4989
running,4990
runs,4991
runway,4992
rush,4993
russia,4994
russians,4995
rwd,4996
rwj,4997
ry,4998
ryte,4999
ryuu,5000
s_s,5001
sacrificing,5002
sad,5003
sadam,5004
saddam,5005
saddest,5006
safe,5007
sahib,5008
sahit,5009
said,5010
sailer,5011
sainsburys,5012
sal,5013
sala,5014
salaam,5015
salad,5016
sale,5017
salesmen,5018
saline,5019
salt,5020
salton,5021
salty,5022
salvationists,5023
sam,5024
san,5025
sana,5026
sanders,5027
sandwiches,5028
sang,5029
sanitized,5030
sanity,5031
santa,5032
sappy,5033
saps,5034
sarah,5035
sarcasm,5036
sarcastic,5037
sarge,5038
sasori,5039
sat,5040
satan,5041
satisfactory,5042
satisfied,5043
saturday,5044
savageparsedtwodigitsever,5045
save,5046
saved,5047
savers,5048
saw,5049
sax,5050
say,5051
saying,5052
says,5053
sba,5054
sc,5055
scabies,5056
scaffolding,5057
scale,5058
scam,5059
scampering,5060
scared,5061
scarf,5062
scarry,5063
scary,5064
scenario,5065
scene,5066
scenery,5067
scenes,5068
schankparsedsixdigits,5069
schiff,5070
school,5071
schools,5072
science,5073
sciences,5074
scientist,5075
scientists,5076
scissors,5077
scores,5078
scotland,5079
scottish,5080
scotty,5081
scourge,5082
scrape,5083
scraperparsedfourdigits,5084
scratched,5085
scratches,5086
scream,5087
screamed,5088
screen,5089
screening,5090
screw,5091
screwdriver,5092
scriptures,5093
scrooge,5094
sculfor,5095
scum,5096
scumbag,5097
sd,5098
sdhc,5099
sea,5100
seal,5101
seals,5102
seam,5103
sean,5104
search,5105
searched,5106
searching,5107
season,5108
seasonal,5109
seats,5110
sec,5111
second,5112
seconds,5113
secret,5114
secretariat,5115
secretly,5116
secs,5117
section,5118
sections,5119
security,5120
sedated,5121
sedimentary,5122
seeing,5123
seeking,5124
seemingly,5125
seen,5126
sees,5127
seevstreaming,5128
selection,5129
selena,5130
self,5131
selfcan,5132
selfish,5133
sell,5134
selling,5135
sellsman,5136
semantics,5137
seminar,5138
semite,5139
semperjoshua,5140
senate,5141
senator,5142
send,5143
sending,5144
senetor,5145
senior,5146
sense,5147
senses,5148
sent,5149
sentimental,5150
sentiments,5151
separate,5152
seperate,5153
seperation,5154
september,5155
sequel,5156
sequence,5157
sequitur,5158
serenade,5159
serge,5160
series,5161
seriously,5162
serise,5163
serita,5164
sermon,5165
serve,5166
served,5167
server,5168
service,5169
set,5170
setting,5171
settled,5172
sewer,5173
sex,5174
sexxy,5175
sexy,5176
sgt,5177
shader,5178
shadowkillparsedtwodigits,5179
shaft,5180
shake,5181
shakealmighty,5182
shakey,5183
shall,5184
shampoo,5185
shamrock,5186
shane,5187
shape,5188
sharat,5189
share,5190
sharing,5191
sharingan,5192
sharingnamaste,5193
sharp,5194
shaw,5195
shawn,5196
sheep,5197
sheer,5198
sheesh,5199
shelling,5200
shelter,5201
sheppard,5202
shes,5203
shields,5204
shift,5205
shine,5206
shiny,5207
shipping,5208
shirt,5209
shisui,5210
shit,5211
shiting,5212
shits,5213
shitty,5214
shiva,5215
sho,5216
shocking,5217
shoedazzle,5218
shoes,5219
shoot,5220
shooting,5221
shopping,5222
short,5223
shorter,5224
shorts,5225
shot,5226
shotgun,5227
shots,5228
shoulder,5229
shoulders,5230
shouldn,5231
shouldnt,5232
shout,5233
shovel,5234
shovelling,5235
showed,5236
showing,5237
shown,5238
showrooms,5239
shows,5240
shreya,5241
sht,5242
shud,5243
shut,5244
shyence,5245
shyster,5246
sick,5247
sicken,5248
sickest,5249
sickkkkkkkkkkkk,5250
sickness,5251
sieg,5252
sight,5253
sign,5254
signal,5255
signature,5256
signed,5257
siguradong,5258
silent,5259
silhouette,5260
silico,5261
sill,5262
silly,5263
silver,5264
silverman,5265
similar,5266
simon,5267
simone,5268
simpering,5269
simple,5270
simples,5271
simply,5272
sin,5273
sinatra,5274
sing,5275
singapore,5276
singer,5277
singers,5278
singing,5279
single,5280
sings,5281
sip,5282
sippin,5283
sir,5284
sis,5285
sister,5286
sisters,5287
sit,5288
sitafreakparsedthreedigits,5289
sitcoms,5290
site,5291
sites,5292
sithlord,5293
sitting,5294
size,5295
skank,5296
skate,5297
skelevision,5298
sketch,5299
skillet,5300
skills,5301
skimgfk,5302
skin,5303
skinny,5304
skip,5305
skipped,5306
skool,5307
skparsedtwodigitsnzero,5308
sky,5309
skylane,5310
skyparsedthreedigits,5311
skyscraper,5312
slab,5313
slammed,5314
slamming,5315
slane,5316
slap,5317
slaughter,5318
slave,5319
slaves,5320
slay,5321
sleazy,5322
sleep,5323
sleeve,5324
sliced,5325
slick,5326
slide,5327
sliders,5328
slides,5329
slightest,5330
slightly,5331
sloshing,5332
slow,5333
slowed,5334
slowly,5335
slp,5336
smaked,5337
small,5338
smaller,5339
smallest,5340
smart,5341
smartest,5342
smarts,5343
smashes,5344
smell,5345
smelled,5346
smile,5347
smiles,5348
smiling,5349
smirks,5350
smith,5351
smoke,5352
smoking,5353
smoother,5354
snake,5355
snapped,5356
snes,5357
snider,5358
sniffer,5359
snipe,5360
sniper,5361
snogging,5362
snoop,5363
snoops,5364
snow,5365
snsd,5366
soaking,5367
sob,5368
sobel,5369
social,5370
socialism,5371
society,5372
sock,5373
soeffingwhat,5374
soft,5375
software,5376
softy,5377
soldiers,5378
solgans,5379
solid,5380
solo,5381
solomon,5382
solve,5383
som,5384
somadala,5385
somali,5386
somalia,5387
somebody,5388
someday,5389
somenthing,5390
someones,5391
someplace,5392
somersetforever,5393
somewhat,5394
someyhing,5395
son,5396
song,5397
songhgbsdajk,5398
songs,5399
sonic,5400
sonoeparsedtwodigits,5401
sonq,5402
sony,5403
soo,5404
soon,5405
sooner,5406
sooo,5407
soooo,5408
sooooooooo,5409
soprano,5410
sora,5411
sore,5412
soroitys,5413
sorry,5414
sort,5415
sorted,5416
soul,5417
souldown,5418
soulful,5419
soulja,5420
soulmate,5421
souls,5422
sound,5423
sounded,5424
sounding,5425
sounds,5426
soup,5427
source,5428
south,5429
southbank,5430
southern,5431
soviet,5432
sow,5433
sp,5434
space,5435
spacesuit,5436
spared,5437
sparked,5438
sparsedonedigitng,5439
spawn,5440
spaz,5441
speak,5442
speaker,5443
speaking,5444
speaks,5445
special,5446
specialized,5447
specials,5448
species,5449
specific,5450
speculating,5451
speech,5452
speeches,5453
speechless,5454
speed,5455
speedy,5456
spell,5457
spelled,5458
spend,5459
spending,5460
spends,5461
spent,5462
spiderman,5463
spielberg,5464
spiff,5465
spin,5466
spine,5467
spineless,5468
spinners,5469
spinoff,5470
spirit,5471
spiritual,5472
spiritually,5473
spirulina,5474
spit,5475
spitting,5476
splitting,5477
splodermaster,5478
spock,5479
spoke,5480
sponsored,5481
spooky,5482
sporks,5483
sport,5484
sports,5485
spot,5486
spots,5487
spouse,5488
spread,5489
spreading,5490
spreeso,5491
spring,5492
spurgeon,5493
square,5494
squeal,5495
squeeze,5496
squirrel,5497
srry,5498
ssatishparsedsixdigits,5499
sssoooo,5500
sssoooooo,5501
ssssooooo,5502
st,5503
stabilising,5504
staccatto,5505
staes,5506
staff,5507
stage,5508
stairs,5509
stale,5510
stamina,5511
stan,5512
stance,5513
stand,5514
standard,5515
standards,5516
standing,5517
stands,5518
stanley,5519
stannard,5520
star,5521
stararnold,5522
starcraft,5523
stare,5524
starfleet,5525
staring,5526
stars,5527
starship,5528
start,5529
started,5530
starters,5531
starting,5532
starvation,5533
stash,5534
stat,5535
state,5536
stated,5537
statement,5538
states,5539
stay,5540
stayed,5541
steadily,5542
steal,5543
steamed,5544
steel,5545
stella,5546
stem,5547
step,5548
stepfather,5549
steph,5550
stephen,5551
steps,5552
stereotype,5553
stern,5554
stetch,5555
steve,5556
stfu,5557
stick,5558
stickers,5559
stickman,5560
stiff,5561
stiglitz,5562
stil,5563
stila,5564
stimulating,5565
stinks,5566
stitch,5567
stock,5568
stocked,5569
stoked,5570
stole,5571
stolen,5572
stomach,5573
stomping,5574
stone,5575
stoopid,5576
stop,5577
stoping,5578
stopp,5579
stopped,5580
stoppin,5581
stopping,5582
stops,5583
storage,5584
store,5585
stories,5586
storm,5587
story,5588
storyline,5589
stragie,5590
straight,5591
straitjackets,5592
strange,5593
strangelove,5594
stranger,5595
strategy,5596
stray,5597
streak,5598
stream,5599
streep,5600
street,5601
streets,5602
strength,5603
strengthen,5604
strewn,5605
strike,5606
string,5607
strings,5608
stripped,5609
strobes,5610
stroke,5611
strong,5612
stronger,5613
struck,5614
structure,5615
stu,5616
stuart,5617
stubborn,5618
stuck,5619
stud,5620
student,5621
students,5622
studied,5623
studies,5624
studio,5625
study,5626
studying,5627
stuff,5628
stuffed,5629
stumbled,5630
stunning,5631
stunts,5632
stupid,5633
stupiddddd,5634
sturm,5635
stutters,5636
style,5637
styles,5638
styrofoam,5639
sub,5640
subbing,5641
subdued,5642
subhanallah,5643
subject,5644
subliminal,5645
subscribe,5646
subscribed,5647
subscribers,5648
subscribing,5649
subtitles,5650
subversely,5651
success,5652
successfully,5653
succumb,5654
suck,5655
sucked,5656
sucker,5657
suckers,5658
sucking,5659
sucks,5660
suddenly,5661
suensmith,5662
suffer,5663
suffering,5664
suffffffffffffered,5665
suffication,5666
sufficient,5667
sugar,5668
suggest,5669
suggested,5670
suggestion,5671
suicide,5672
suit,5673
sukka,5674
sulpice,5675
sum,5676
summed,5677
summer,5678
summers,5679
sums,5680
sun,5681
sunday,5682
sunderland,5683
sung,5684
sunlight,5685
sunny,5686
sunset,5687
sunshine,5688
super,5689
superb,5690
superba,5691
superhero,5692
superior,5693
superlatives,5694
supermantparsedtwodigits,5695
superstay,5696
supervisor,5697
support,5698
supporters,5699
supporting,5700
supports,5701
suppose,5702
supposed,5703
supressing,5704
suprise,5705
surah,5706
sure,5707
surely,5708
surface,5709
surfer,5710
surgeon,5711
surgery,5712
surprised,5713
surprisingly,5714
surveying,5715
surveyors,5716
surveys,5717
survival,5718
survive,5719
survived,5720
suspension,5721
sustain,5722
sustained,5723
swallow,5724
swap,5725
swastikas,5726
swear,5727
sweat,5728
sweating,5729
swedish,5730
sweeeet,5731
sweelinck,5732
sweet,5733
sweetheart,5734
sweetie,5735
sweetness,5736
sweettea,5737
swiitch,5738
swine,5739
switch,5740
switched,5741
switzerland,5742
sword,5743
swordsmanship,5744
sworn,5745
swucks,5746
sylv,5747
symbol,5748
sympathy,5749
synchronicity,5750
synonomous,5751
synthesizers,5752
synths,5753
syrup,5754
tab,5755
tabla,5756
table,5757
tables,5758
tabs,5759
tacticalaceparsedtwodigits,5760
tagalog,5761
tage,5762
tags,5763
tail,5764
taken,5765
takes,5766
taking,5767
tale,5768
talent,5769
talented,5770
talk,5771
talked,5772
talking,5773
talks,5774
talon,5775
tambarine,5776
tamil,5777
tank,5778
tanked,5779
tanner,5780
tanpura,5781
tape,5782
taped,5783
tapes,5784
tapping,5785
tapthattoast,5786
target,5787
targets,5788
task,5789
taste,5790
tastey,5791
tasty,5792
tat,5793
taught,5794
tax,5795
taxing,5796
taylor,5797
tazered,5798
tb,5799
tea,5800
teach,5801
teacher,5802
teachers,5803
teaching,5804
team,5805
teams,5806
tearing,5807
tears,5808
teased,5809
tech,5810
techno,5811
technology,5812
ted,5813
teddy,5814
teehee,5815
teen,5816
teenager,5817
teens,5818
teh,5819
tehre,5820
tehy,5821
telemarketers,5822
television,5823
tell,5824
tellers,5825
telling,5826
tells,5827
tempah,5828
tempest,5829
temple,5830
tend,5831
tenesha,5832
tenma,5833
tennant,5834
tennis,5835
tension,5836
terekhova,5837
term,5838
terms,5839
terra,5840
terri,5841
terrible,5842
terribly,5843
terrific,5844
terrifying,5845
terrorist,5846
terrorists,5847
test,5848
tested,5849
testimonies,5850
texas,5851
text,5852
th,5853
tha,5854
thaks,5855
thank,5856
thankful,5857
thanks,5858
thankyou,5859
thankz,5860
thanx,5861
thats,5862
theater,5863
theatrical,5864
thecomicbots,5865
thedenanproject,5866
theirs,5867
thekeytobeingamazing,5868
theme,5869
themed,5870
theory,5871
theosophy,5872
theparsedthreedigits,5873
ther,5874
therapist,5875
therefor,5876
theremin,5877
theres,5878
thes,5879
theshroomery,5880
thetical,5881
theultraninja,5882
thevishveshwara,5883
theyellow,5884
theyr,5885
theyre,5886
theyw,5887
thibk,5888
thicker,5889
thickness,5890
thickr,5891
thier,5892
thing,5893
things,5894
think,5895
thinking,5896
thinks,5897
thins,5898
thirty,5899
thnk,5900
thnx,5901
tho,5902
thoes,5903
thomas,5904
thong,5905
thorrisparsedtwodigits,5906
thought,5907
thousand,5908
thousandfootkrutch,5909
thousands,5910
thow,5911
thread,5912
threat,5913
threats,5914
threw,5915
thrift,5916
throat,5917
throbbing,5918
throw,5919
throwing,5920
thrown,5921
tht,5922
thts,5923
thug,5924
thumb,5925
thumbs,5926
thunmbs,5927
thurr,5928
thx,5929
ti,5930
tibet,5931
ticking,5932
tied,5933
tiger,5934
tigerdirect,5935
til,5936
till,5937
tim,5938
time,5939
timers,5940
times,5941
timethat,5942
timothyparadoxparsedonedigit,5943
timps,5944
tinactin,5945
tinea,5946
tinie,5947
tiny,5948
tinymce,5949
tios,5950
tip,5951
tips,5952
tired,5953
tit,5954
title,5955
tiva,5956
tiwary,5957
tj,5958
tlc,5959
tmrw,5960
tna,5961
tnx,5962
toad,5963
toasted,5964
tobsyparsedfourdigits,5965
today,5966
todays,5967
toffy,5968
togara,5969
tol,5970
told,5971
tolerant,5972
tom,5973
tomalak,5974
tomatoe,5975
tomatoes,5976
tommo,5977
tomorrow,5978
tone,5979
tong,5980
tonight,5981
tons,5982
tony,5983
took,5984
tool,5985
toolbar,5986
tooooooooooo,5987
tooth,5988
toothpaste,5989
topic,5990
topical,5991
torrent,5992
total,5993
totally,5994
totaly,5995
touch,5996
touched,5997
tough,5998
toughs,5999
tour,6000
touring,6001
tourney,6002
towed,6003
town,6004
townsand,6005
toxic,6006
toy,6007
toyota,6008
toys,6009
tparsedtwodigits,6010
tracc,6011
track,6012
tractor,6013
tractors,6014
trade,6015
traders,6016
traditional,6017
tragedy,6018
trailer,6019
trails,6020
train,6021
trained,6022
training,6023
trainings,6024
tranny,6025
transaction,6026
transferred,6027
transformation,6028
transitions,6029
translate,6030
trapped,6031
trash,6032
trashy,6033
travel,6034
travolta,6035
treadstone,6036
treasure,6037
treasures,6038
treasury,6039
treated,6040
treatement,6041
treating,6042
treatment,6043
treaty,6044
tree,6045
trees,6046
trek,6047
tremendae,6048
tremendous,6049
tremendously,6050
trent,6051
tresspassing,6052
trevino,6053
trevor,6054
trey,6055
treyarch,6056
triangle,6057
tribe,6058
tribute,6059
tricks,6060
tried,6061
trilogy,6062
tring,6063
trip,6064
triplets,6065
tripping,6066
trippy,6067
trips,6068
trish,6069
tron,6070
troops,6071
trouble,6072
troubles,6073
trousers,6074
tru,6075
trucks,6076
true,6077
truely,6078
truley,6079
truly,6080
trumpet,6081
trust,6082
truth,6083
try,6084
trying,6085
tthink,6086
tub,6087
tube,6088
tubes,6089
tuesday,6090
tuesdaynow,6091
tulips,6092
tun,6093
tundra,6094
tune,6095
tuned,6096
tunes,6097
tunic,6098
tuning,6099
tunred,6100
turd,6101
turiaf,6102
turks,6103
turn,6104
turnback,6105
turned,6106
turning,6107
turret,6108
tutorial,6109
tutorials,6110
tuvok,6111
tv,6112
twat,6113
twats,6114
tweaked,6115
twice,6116
twilight,6117
twin,6118
twins,6119
twist,6120
twitter,6121
tww,6122
ty,6123
tyler,6124
tyme,6125
type,6126
typical,6127
tyranny,6128
tyson,6129
uber,6130
ubuntu,6131
ufayah,6132
ugh,6133
ugly,6134
uhh,6135
uk,6136
ukraine,6137
ukulele,6138
ultra,6139
um,6140
umm,6141
una,6142
unable,6143
unbelievable,6144
uncle,6145
uncles,6146
uncomfortable,6147
unconious,6148
unconsinous,6149
uncovered,6150
undergone,6151
undergraduate,6152
underlying,6153
understand,6154
understandable,6155
understood,6156
undertaker,6157
underwear,6158
undesirable,6159
undoubtedly,6160
unemployed,6161
unforgiven,6162
unfortunately,6163
unified,6164
uninterested,6165
union,6166
unique,6167
united,6168
unitl,6169
unity,6170
uniupload,6171
universal,6172
universe,6173
university,6174
unless,6175
unlike,6176
unni,6177
uno,6178
unpredictable,6179
unprincipled,6180
unreal,6181
unreasonable,6182
unregestered,6183
unsolicited,6184
unsure,6185
unt,6186
untill,6187
unusual,6188
update,6189
updates,6190
upgrade,6191
upgraded,6192
uphold,6193
uplifting,6194
upload,6195
uploaded,6196
uploading,6197
uploads,6198
upped,6199
ups,6200
upset,6201
upside,6202
upz,6203
ur,6204
urgency,6205
url,6206
usa,6207
usapan,6208
usauly,6209
usb,6210
usc,6211
use,6212
used,6213
useful,6214
usefull,6215
useless,6216
username,6217
users,6218
uses,6219
using,6220
ust,6221
ustream,6222
usual,6223
usually,6224
utero,6225
utter,6226
uu,6227
uuuuuuuuu,6228
uuuuuuuuuuuuuuuuuuuuuuuuuuuuuuuuuuuuuuuuuuuuuuuuuuuuuuuuuuuuuuuuuuuuuuuuuuuuuuuuuuuuuuuuuuuuuuuuuuuuuuuuuuhhh,6229
va,6230
vaccines,6231
vagina,6232
valencoso,6233
vali,6234
valid,6235
validated,6236
valley,6237
vampireparsedsixdigits,6238
van,6239
vanessa,6240
vanguard,6241
vangurd,6242
vanityvideo,6243
vannoah,6244
variation,6245
various,6246
varma,6247
varunlele,6248
vary,6249
ve,6250
veg,6251
vegan,6252
veganbutterfly,6253
vegetables,6254
vegetarian,6255
vehicle,6256
veins,6257
ven,6258
vengence,6259
venus,6260
verbal,6261
verification,6262
verry,6263
versatility,6264
verse,6265
version,6266
versipack,6267
vibe,6268
vibrations,6269
vic,6270
vicky,6271
vid,6272
video,6273
videoparsedonedigitmpparsedonedigit,6274
videos,6275
vidio,6276
vids,6277
view,6278
viewable,6279
viewfilmsfree,6280
viewing,6281
viewpoint,6282
views,6283
vikasbhai,6284
village,6285
villageparsedonedigitdiot,6286
vince,6287
vinnyparsedfourdigits,6288
violation,6289
violence,6290
violent,6291
virgin,6292
visit,6293
visiting,6294
vista,6295
visuals,6296
vivrinparsedtwodigits,6297
vlkncxs,6298
vobes,6299
vocal,6300
vocally,6301
voice,6302
voices,6303
volume,6304
vomit,6305
vote,6306
voted,6307
voters,6308
vouching,6309
vparsedonedigit,6310
vs,6311
vu,6312
wa,6313
waaay,6314
waay,6315
wach,6316
wacky,6317
waffle,6318
wah,6319
wahofann,6320
waht,6321
wainwright,6322
waisting,6323
wait,6324
waiting,6325
walk,6326
walked,6327
walkin,6328
walking,6329
walkthrough,6330
walkthroughs,6331
wall,6332
wallace,6333
wallet,6334
wallnut,6335
walls,6336
wally,6337
walt,6338
wana,6339
wank,6340
wanna,6341
wannabe,6342
want,6343
wanted,6344
wants,6345
war,6346
warehouse,6347
warhammerhd,6348
warlock,6349
warmer,6350
warming,6351
warned,6352
warning,6353
warpin,6354
warrant,6355
warranty,6356
warren,6357
wars,6358
wash,6359
washer,6360
washers,6361
washie,6362
washing,6363
washington,6364
washy,6365
wasn,6366
wasnt,6367
waste,6368
wasted,6369
wasting,6370
wat,6371
watch,6372
watched,6373
watching,6374
water,6375
waters,6376
watership,6377
wateva,6378
watson,6379
waving,6380
way,6381
wayne,6382
ways,6383
wayyy,6384
waz,6385
wc,6386
wcw,6387
weak,6388
weakest,6389
wealth,6390
weapon,6391
wear,6392
wearing,6393
weather,6394
weaver,6395
web,6396
webmail,6397
webs,6398
website,6399
wee,6400
weed,6401
week,6402
weekend,6403
weeks,6404
weigh,6405
weird,6406
wel,6407
welcome,6408
wembley,6409
wen,6410
went,6411
weren,6412
werewolf,6413
wes,6414
west,6415
western,6416
westminster,6417
wet,6418
whacked,6419
whale,6420
whatifparsedfourdigits,6421
whats,6422
whatsoever,6423
wheat,6424
wheelchair,6425
whiles,6426
whilst,6427
whip,6428
whiskey,6429
whistle,6430
whistled,6431
whit,6432
white,6433
whites,6434
whoa,6435
whoaa,6436
whooo,6437
whoootttt,6438
whop,6439
whore,6440
whores,6441
whos,6442
whse,6443
wi,6444
wibbly,6445
wich,6446
wicked,6447
wide,6448
wierd,6449
wife,6450
wifi,6451
wig,6452
wiki,6453
wikipedia,6454
wil,6455
wild,6456
wildlife,6457
williams,6458
willing,6459
willvillparsedtwodigitsyes,6460
wimper,6461
win,6462
windows,6463
winemaker,6464
winnebago,6465
winner,6466
winners,6467
wins,6468
wipes,6469
wise,6470
wish,6471
wishbone,6472
wished,6473
wishie,6474
wit,6475
witch,6476
withdrawals,6477
withheld,6478
withouth,6479
witness,6480
witty,6481
wizard,6482
wk,6483
wlinparsedonedigitwparseddigits,6484
wll,6485
wls,6486
wmd,6487
wmp,6488
woah,6489
wobbling,6490
wolfmother,6491
wolfowitz,6492
wolverine,6493
wolves,6494
woman,6495
women,6496
won,6497
wonder,6498
wonderful,6499
wonderfully,6500
wondering,6501
wong,6502
wont,6503
wood,6504
woohoo,6505
woohoooooooooooooo,6506
wooo,6507
woooooow,6508
woop,6509
woot,6510
wooww,6511
wope,6512
word,6513
worded,6514
words,6515
worf,6516
work,6517
worked,6518
workers,6519
working,6520
workout,6521
works,6522
workshop,6523
world,6524
worldwide,6525
worm,6526
worried,6527
worries,6528
worry,6529
worrying,6530
worse,6531
worship,6532
worst,6533
worth,6534
worthless,6535
worthy,6536
woulda,6537
wouldent,6538
wouldn,6539
wouldnt,6540
wound,6541
wow,6542
wowser,6543
wowwwwww,6544
wp,6545
wparsedtwodigitst,6546
wrapper,6547
wrecked,6548
wrestlers,6549
wrestling,6550
wrist,6551
write,6552
writer,6553
writing,6554
written,6555
wrong,6556
wryyyyyy,6557
wtf,6558
wtfff,6559
wud,6560
wut,6561
wwe,6562
wwyw,6563
xanax,6564
xd,6565
xdman,6566
xin,6567
xle,6568
xo,6569
xoxo,6570
xp,6571
xparsedonedigit,6572
xrabiedroosterx,6573
xtinct,6574
xu,6575
xxx,6576
xxxilsexxx,6577
xxxx,6578
ya,6579
yaaay,6580
yaay,6581
yada,6582
yah,6583
yahweh,6584
yakamuci,6585
yall,6586
yamamoto,6587
yank,6588
yankee,6589
yaoi,6590
yards,6591
yaself,6592
yates,6593
yay,6594
yea,6595
yeaaaaa,6596
yeadon,6597
yeah,6598
year,6599
years,6600
yeeaaaaahhhhhh,6601
yeilds,6602
yellow,6603
yep,6604
yer,6605
yes,6606
yeshua,6607
yesterday,6608
yhew,6609
yhwh,6610
yield,6611
yike,6612
yin,6613
yippy,6614
yngwie,6615
yo,6616
yoga,6617
yogitavijay,6618
yoo,6619
yoogeun,6620
york,6621
yorkie,6622
yorkshire,6623
young,6624
youngbuckparsedthreedigits,6625
younger,6626
youngest,6627
youre,6628
youth,6629
youthful,6630
youths,6631
youtube,6632
youu,6633
youuuuu,6634
youve,6635
yr,6636
yrs,6637
yt,6638
yugioh,6639
yui,6640
yukimura,6641
yummy,6642
yung,6643
yunliucontact,6644
yup,6645
yuppie,6646
yuri,6647
zaheer,6648
zammystavez,6649
zeal,6650
zealots,6651
zeera,6652
zero,6653
zerotechskilz,6654
zevon,6655
zhang,6656
zizek,6657
zolpidem,6658
zombie,6659
zombies,6660
zusammen,6661
