aargh,0
about,1
according,2
ace,3
across,4
activist,5
after,6
against,7
ago,8
airline,9
all,10
als,11
alsicebucketchallenge,12
also,13
am,14
american,15
americans,16
amp,17
an,18
and,19
andi,20
android,21
angeles,22
another,23
app,24
apparently,25
are,26
arguably,27
arm,28
as,29
ass,30
assâ,31
at,32
atheist,33
attack,34
attacks,35
attempting,36
attitude,37
away,38
baby,39
back,40
bags,41
band,42
bangladesh,43
base,44
be,45
beautiful,46
because,47
becomes,48
bed,49
been,50
beetles,51
begins,52
being,53
benjamin,54
best,55
better,56
biggest,57
black,58
bobbijparsedfourdigits,59
borders,60
both,61
bowling,62
bradlee,63
bradley,64
bremaxwell,65
brilliance,66
brownies,67
bucket,68
bug,69
but,70
by,71
called,72
can,73
canceled,74
car,75
certainly,76
cfarrisparsedtwodigits,77
challenge,78
charge,79
cheapest,80
cheers,81
cheney,82
childish,83
clear,84
clegg,85
co,86
coincidence,87
comfort,88
commits,89
completely,90
condi,91
constantly,92
convergence,93
cooper,94
core,95
country,96
cover,97
crashed,98
critically,99
crow,100
curie,101
cut,102
davidjoachim,103
day,104
days,105
decapitating,106
dem,107
democracy,108
demolished,109
dentist,110
depose,111
did,112
died,113
directions,114
do,115
donation,116
donâ,117
door,118
down,119
drinking,120
driving,121
dropbox,122
drowning,123
eastern,124
effectively,125
election,126
ells,127
enjoy,128
epic,129
eradicate,130
ethics,131
europeans,132
exploit,133
facebook,134
fantastic,135
fascism,136
fascist,137
faster,138
few,139
field,140
fifa,141
flights,142
floods,143
fo,144
folkâ,145
for,146
forged,147
forgoes,148
forward,149
founder,150
four,151
from,152
fucking,153
full,154
funny,155
gaza,156
gej,157
genocide,158
george,159
get,160
getright,161
ggreenwald,162
girl,163
give,164
giving,165
go,166
god,167
goes,168
going,169
good,170
gop,171
got,172
government,173
grants,174
greatestâ,175
guns,176
guy,177
hackers,178
hahahaha,179
harrison,180
has,181
hashtags,182
hate,183
hates,184
have,185
hayleighmarieox,186
he,187
health,188
heart,189
heartbleed,190
heat,191
his,192
hope,193
hot,194
how,195
htsjlparsedonedigittywe,196
http,197
https,198
huffpostweird,199
ice,200
icezia,201
ichabod,202
if,203
illdrinktothat,204
illegalamnesty,205
illiteracy,206
immunity,207
in,208
indian,209
infestation,210
infested,211
injured,212
insecure,213
instead,214
interested,215
internet,216
into,217
introduce,218
invade,219
invented,220
iparsedtwodigitsnews_en,221
irony,222
ironylevelparsedfourdigits,223
ironyunlimited,224
is,225
isparsedonedigitthe,226
israel,227
it,228
its,229
jesuischarlie,230
jesus,231
jfpparsedonedigiterbozx,232
journalism,233
judge,234
judged,235
just,236
kate,237
katomart,238
keepin,239
kerry,240
keurig,241
kharkiv,242
khilafahparsedthreedigits,243
killed,244
kindle,245
king,246
kingobama,247
kparsedonedigitwparseddigitshmvjht,248
lately,249
laughing,250
leaflets,251
leaving,252
leftist,253
lesson,254
life,255
line,256
listening,257
literacy,258
lives,259
ll,260
lobby,261
longer,262
looking,263
los,264
lost,265
louisck,266
loves,267
lt,268
machine,269
make,270
malaysian,271
marie,272
marvelously,273
marvins,274
mary,275
mate,276
may,277
mean,278
meanwhile,279
meetthepress,280
memorial,281
memory,282
mexico,283
might,284
minute,285
missing,286
more,287
most,288
mother,289
mouths,290
move,291
movie,292
mr,293
much,294
murdered,295
my,296
naijanerd,297
nation,298
new,299
next,300
nick,301
noah,302
nocricket,303
not,304
nothing,305
now,306
nynnvwparsedtwodigitswy,307
obama,308
oblivion,309
odi,310
of,311
off,312
office,313
okay,314
omeisy,315
on,316
one,317
ones,318
only,319
onparsedonedigitmeal,320
oparsedonedigitgqiaarbf,321
options,322
oswald,323
otbewggbtj,324
our,325
out,326
over,327
overload,328
paid,329
park,330
parseddigits,331
parsedfourdigits,332
parsedonedigit,333
parsedonedigitgntibiqei,334
parsedonedigitst,335
parsedonedigituvphqlparsedtwodigitsx,336
parsedonedigitwumfparsedonedigitpcll,337
parsedthreedigits,338
parsedtwodigits,339
parsedtwodigitsk,340
passed,341
people,342
performance,343
pine,344
plan,345
planted,346
point,347
politics,348
poor,349
poorest,350
posting,351
postponement,352
president,353
pretextâ,354
pretty,355
pro,356
probably,357
profession,358
program,359
proposition,360
public,361
puffing,362
qpparsedonedigitbsparsedonedigitehye,363
queen,364
random,365
rash,366
re,367
ready,368
real,369
really,370
rebuild,371
regret,372
reopened,373
republican,374
response,375
return,376
rice,377
rich,378
richer,379
rifle,380
rob,381
robbed,382
roll,383
rooting,384
roryhaynesparsedfourdigits,385
royals,386
rt,387
running,388
russia,389
ryanbleslie,390
sad,391
said,392
salon,393
sawston,394
say,395
says,396
screening,397
search,398
see,399
seem,400
seen,401
seriouslywhat,402
set,403
shots,404
shouting,405
shuts,406
silently,407
simple,408
sleepyhollow,409
so,410
some,411
someone,412
something,413
sometimes,414
somewhere,415
spending,416
srisulgceo,417
stalking,418
stand,419
start,420
states,421
stay,422
straight,423
subtweeting,424
sure,425
surely,426
talking,427
targeted,428
tattooed,429
team,430
tearing,431
thailand,432
than,433
that,434
the,435
theater,436
thebachelorette,437
thebeatles,438
their,439
themselves,440
thetimes,441
they,442
this,443
those,444
three,445
timing,446
to,447
today,448
torture,449
torturereport,450
tparsedonedigitqanimpic,451
tragic,452
transforms,453
tree,454
trumped,455
try,456
trying,457
tweet,458
twitter,459
typed,460
tâ,461
ukip,462
ukraine,463
universal,464
university,465
up,466
usa,467
use,468
using,469
value,470
ve,471
via,472
video,473
vital,474
voice,475
wanting,476
warns,477
was,478
watching,479
waze,480
website,481
week,482
weekend,483
what,484
which,485
while,486
whilst,487
who,488
whose,489
wifi,490
will,491
with,492
womb,493
women,494
wonder,495
world,496
would,497
wounded,498
yahoonews,499
years,500
yell,501
yes,502
yet,503
yoof,504
you,505
your,506
zaxjepteparsedtwodigits,507
zumrfyparsedonedigitdci,508
ðÿ,509
œforeignersâ,510
œgod,511
œon,512
œyou,513
