ability,0
able,1
abreu,2
absence,3
absolutely,4
absurd,5
accepted,6
accidents,7
act,8
action,9
activist,10
acts,11
actual,12
actually,13
acute,14
adapts,15
added,16
addiction,17
address,18
addresses,19
adhere,20
ado,21
advancement,22
advantage,23
advocate,24
affairs,25
affordable,26
afghanistan,27
age,28
ago,29
agony,30
agree,31
agricultural,32
aime,33
akyol,34
al,35
alien,36
alive,37
allen,38
alleviate,39
allow,40
allowing,41
allows,42
alongg,43
alternative,44
amazing,45
american,46
americans,47
amounts,48
amp,49
analogy,50
analyze,51
ann,52
answer,53
answers,54
antonio,55
apes,56
apocalypse,57
appears,58
applaud,59
appropriate,60
apretiate,61
architect,62
area,63
areas,64
aren,65
argument,66
ariely,67
army,68
arrive,69
art,70
arthritis,71
articulated,72
artist,73
aside,74
ask,75
aspect,76
ass,77
assertion,78
assistance,79
astute,80
atoms,81
att,82
attached,83
attempt,84
attendant,85
attitude,86
authentic,87
autonomy,88
avoided,89
avoids,90
awaken,91
aware,92
away,93
awe,94
awesome,95
awhile,96
baby,97
bad,98
bajo,99
barber,100
barely,101
based,102
basic,103
beautiful,104
beef,105
begging,106
begins,107
behavior,108
behavioral,109
behaviours,110
beijing,111
beings,112
belief,113
beliefs,114
believe,115
bell,116
belongs,117
benifit,118
best,119
better,120
bias,121
bible,122
big,123
bigg,124
biggest,125
billions,126
binding,127
biodiversity,128
bit,129
bits,130
bjorn,131
blackmore,132
blanket,133
bless,134
blessing,135
blind,136
blocking,137
blog,138
blogspot,139
bodies,140
body,141
book,142
bored,143
born,144
bosses,145
bostrom,146
bothered,147
boundaries,148
brain,149
brains,150
briefly,151
bright,152
brilliant,153
bringing,154
brutal,155
brutally,156
build,157
burdoning,158
business,159
businesses,160
buy,161
buying,162
calculation,163
california,164
came,165
campaign,166
campbell,167
cancer,168
candle,169
cannon,170
canot,171
capital,172
car,173
carbon,174
carr,175
carry,176
catch,177
cause,178
causing,179
cello,180
century,181
cfr,182
chair,183
change,184
changed,185
changing,186
cheat,187
check,188
chery,189
children,190
childrenn,191
chinese,192
choice,193
chris,194
christians,195
christina,196
chronic,197
cierta,198
circumstances,199
city,200
civil,201
claim,202
clarified,203
clases,204
clasism,205
class,206
classes,207
clear,208
climate,209
clinical,210
close,211
closely,212
clothing,213
clue,214
clumsy,215
cohesion,216
colbert,217
collapse,218
com,219
come,220
comes,221
comforts,222
comical,223
command,224
comment,225
commenting,226
commercially,227
common,228
communication,229
communities,230
community,231
companions,232
compare,233
compensation,234
compete,235
complain,236
complejas,237
complete,238
completely,239
complex,240
comprehend,241
computer,242
conceded,243
concept,244
concert,245
concluded,246
conclusion,247
conclusions,248
condition,249
conducted,250
confirm,251
confirmation,252
confusion,253
connected,254
connection,255
conscience,256
consciousness,257
conservatives,258
consider,259
considered,260
consistently,261
conspiracy,262
constantly,263
construct,264
continue,265
contradiction,266
contradictions,267
contribute,268
control,269
cooked,270
cool,271
copied,272
core,273
corpus,274
corrupt,275
corruption,276
costo,277
costs,278
counter,279
countles,280
countries,281
country,282
countrymen,283
couple,284
course,285
covert,286
craftsman,287
create,288
created,289
creating,290
creations,291
creative,292
creator,293
creators,294
cringe,295
crops,296
crosses,297
cual,298
cuba,299
curiosity,300
current,301
customers,302
dabs,303
dad,304
damage,305
damaging,306
dan,307
dancers,308
dancing,309
dangers,310
daniel,311
dare,312
data,313
dave,314
david,315
davos,316
dawkins,317
day,318
dd,319
dead,320
deaf,321
deal,322
dear,323
death,324
debate,325
december,326
decent,327
decision,328
decrease,329
deed,330
deeper,331
default,332
definitely,333
degenerative,334
deliver,335
demanded,336
demean,337
democratic,338
denied,339
depressed,340
deprived,341
derivatives,342
descent,343
descisions,344
descriptions,345
design,346
designed,347
despite,348
determination,349
detroit,350
devastating,351
develop,352
development,353
device,354
dewan,355
dictate,356
did,357
died,358
diet,359
dietary,360
different,361
differentiation,362
differently,363
differing,364
digital,365
dilution,366
dims,367
dinero,368
direction,369
discipline,370
discourse,371
discovered,372
discs,373
discuss,374
discussed,375
discusses,376
diseases,377
disgraceful,378
disprove,379
disturbing,380
does,381
doesn,382
doing,383
dollar,384
dollars,385
dominating,386
don,387
drive,388
driving,389
dubious,390
dumbing,391
dumped,392
duplicates,393
dutch,394
eacute,395
earlier,396
ears,397
easier,398
easy,399
eat,400
eccentricities,401
echo,402
economic,403
economist,404
educate,405
educated,406
education,407
effectively,408
effectiveness,409
efficiency,410
efficient,411
efforts,412
elderly,413
elephant,414
eliminated,415
elites,416
eloquent,417
embargo,418
embrace,419
emiliano,420
emotion,421
emotional,422
empathy,423
empowering,424
en,425
encourage,426
encouraged,427
end,428
endorse,429
ends,430
energy,431
engine,432
enslavement,433
ensure,434
enterprise,435
environment,436
environmental,437
epic,438
epistemology,439
equally,440
equate,441
equipment,442
ero,443
es,444
escazos,445
eso,446
especially,447
est,448
este,449
eternity,450
ethical,451
euclidean,452
euphoria,453
europe,454
event,455
events,456
eventually,457
evil,458
evolution,459
evolutionist,460
evolutionn,461
evolved,462
evqparsedonedigitwnvtcparsedonedigitm,463
example,464
examples,465
excellence,466
excellent,467
exchanging,468
excited,469
exercise,470
existed,471
existen,472
existence,473
expansiveness,474
experience,475
experiences,476
experiencing,477
experiment,478
experinces,479
explains,480
explored,481
express,482
expressed,483
extra,484
extraordinary,485
extremely,486
face,487
fact,488
facts,489
fail,490
faiths,491
fall,492
fallacies,493
fallen,494
falsifiable,495
family,496
famous,497
fancy,498
fantastic,499
far,500
fascinating,501
fat,502
father,503
fatter,504
fault,505
fears,506
feature,507
features,508
feed,509
feel,510
feeling,511
feldman,512
felix,513
felt,514
femininity,515
feminist,516
fertility,517
fight,518
final,519
finally,520
finding,521
findings,522
fine,523
finite,524
fit,525
fix,526
floating,527
flu,528
fluctuations,529
focus,530
focused,531
focusing,532
follow,533
followed,534
following,535
food,536
footprint,537
force,538
forever,539
forgets,540
form,541
forma,542
formed,543
fortification,544
forward,545
fossil,546
free,547
freedom,548
friends,549
frustrations,550
fuels,551
functional,552
fundamentalisms,553
fundamentals,554
future,555
gallon,556
garbage,557
gas,558
gasoline,559
gauge,560
gay,561
generates,562
generation,563
genius,564
geof,565
geometry,566
germans,567
getting,568
gilbert,569
gilgamesh,570
girl,571
given,572
gives,573
giving,574
global,575
globall,576
glorified,577
glue,578
gm,579
god,580
goglemapsapi,581
going,582
gold,583
good,584
goodness,585
goree,586
got,587
gotten,588
governing,589
government,590
governments,591
gps,592
grand,593
great,594
greater,595
greatest,596
green,597
gregariousness,598
grew,599
grips,600
grow,601
gt,602
guarantee,603
guess,604
guide,605
guitar,606
guy,607
guys,608
hagovers,609
haidt,610
hall,611
hand,612
handcuffed,613
handicapped,614
handling,615
happen,616
happening,617
happiness,618
happy,619
hapy,620
hard,621
hate,622
hated,623
haven,624
having,625
heading,626
headlines,627
heads,628
healthy,629
heart,630
heed,631
helip,632
hell,633
help,634
helped,635
helping,636
hero,637
hidden,638
high,639
highly,640
hilarious,641
hip,642
historical,643
history,644
hit,645
hold,646
honest,647
hook,648
hope,649
hopefully,650
horrible,651
horrifying,652
hours,653
house,654
html,655
htp,656
huge,657
human,658
humane,659
humanity,660
humble,661
humor,662
hunting,663
ib,664
idea,665
ideals,666
ideas,667
ideological,668
ideologues,669
ignorance,670
ignore,671
ignoringg,672
ii,673
illusion,674
imersive,675
impact,676
implica,677
implications,678
impolite,679
importantly,680
impossible,681
inaccessible,682
incidences,683
included,684
includes,685
incomes,686
incomprehensible,687
incorporation,688
increase,689
indexes,690
india,691
industry,692
inevitable,693
infinite,694
info,695
information,696
informed,697
informs,698
ingang,699
ingenious,700
ingrained,701
inhabits,702
injustice,703
innovation,704
insanity,705
inside,706
inspire,707
inspiring,708
instead,709
institutionalised,710
intelligent,711
intention,712
intentionalityy,713
interacting,714
interaction,715
interactions,716
interactive,717
interconnected,718
interesteding,719
interesting,720
international,721
internet,722
interpreted,723
interview,724
interviews,725
introduce,726
introduction,727
introdues,728
introverted,729
intrusion,730
intuitive,731
invade,732
inventor,733
investigation,734
invited,735
involves,736
iq,737
iraqi,738
irrational,739
islam,740
islamicc,741
island,742
isn,743
isnt,744
isolating,745
israel,746
issue,747
issues,748
issuing,749
iwould,750
japan,751
japanese,752
jil,753
job,754
join,755
jon,756
jones,757
jos,758
just,759
kaba,760
ken,761
killing,762
kind,763
klein,764
knew,765
knocked,766
know,767
knowledge,768
knows,769
korea,770
lacking,771
large,772
las,773
lastly,774
lastt,775
latching,776
late,777
law,778
ldquo,779
leacture,780
lead,781
leads,782
learn,783
learned,784
learning,785
lecture,786
lee,787
leeuwenhoek,788
left,789
legalized,790
legitimal,791
legitimize,792
level,793
licenses,794
lie,795
lies,796
life,797
lifestyle,798
light,799
lights,800
like,801
likely,802
lint,803
list,804
listening,805
little,806
live,807
lived,808
lives,809
living,810
lo,811
local,812
lol,813
lone,814
long,815
longer,816
look,817
looking,818
looks,819
losing,820
loss,821
lost,822
lot,823
lots,824
love,825
machine,826
macroevolution,827
magic,828
magnetic,829
maher,830
main,831
mainstream,832
maintain,833
major,834
majority,835
make,836
makes,837
making,838
man,839
managing,840
manipulate,841
manipulation,842
mankind,843
manufacture,844
map,845
marketer,846
marvelling,847
masculinity,848
masses,849
materials,850
math,851
mdash,852
mean,853
meaning,854
means,855
meant,856
measured,857
mechanisms,858
media,859
medicinal,860
medicine,861
meetings,862
memes,863
memetics,864
men,865
mention,866
mentioned,867
mentioning,868
mentions,869
mere,870
message,871
met,872
methodical,873
mexican,874
mgvkvkmbrparsedonedigita,875
microbes,876
microsoft,877
micrososft,878
microwave,879
mild,880
mileage,881
military,882
mind,883
minds,884
mini,885
minimal,886
mirror,887
misandry,888
misled,889
misrepresented,890
missed,891
mit,892
model,893
modern,894
moment,895
money,896
monkeys,897
moon,898
moral,899
morality,900
mosher,901
mother,902
motivations,903
moved,904
movie,905
moving,906
mpparsedonedigit,907
mr,908
muchas,909
muhamed,910
murderer,911
mushroom,912
mushrooms,913
music,914
muslims,915
mustafe,916
mycelium,917
mystical,918
myth,919
nanking,920
nation,921
natural,922
nature,923
need,924
needed,925
needs,926
negative,927
neighbors,928
network,929
neuroscience,930
new,931
newly,932
newnham,933
news,934
newspapers,935
nice,936
nick,937
nightmares,938
noah,939
note,940
notes,941
nuclear,942
number,943
numbers,944
nutrient,945
nz,946
obedience,947
objects,948
observation,949
observer,950
obvious,951
obviously,952
occupation,953
ocean,954
offended,955
offer,956
officer,957
oh,958
ohio,959
oil,960
oils,961
old,962
ones,963
open,964
openly,965
operate,966
opinion,967
opposite,968
oppression,969
option,970
orbital,971
order,972
organizations,973
orientado,974
outcome,975
outlets,976
overwhelm,977
owned,978
pace,979
pacifier,980
page,981
pain,982
pandemic,983
par,984
paradigm,985
paradox,986
paraphrasing,987
parody,988
parsedfourdigits,989
parsedonedigit,990
parsedonedigitd,991
parsedthreedigits,992
parsedthreedigitsp,993
parsedtwodigits,994
parsedtwodigitsth,995
partially,996
particles,997
partner,998
passed,999
passion,1000
passionate,1001
path,1002
paths,1003
patience,1004
payback,1005
paying,1006
pc,1007
peace,1008
pedophiles,1009
peeve,1010
pensamos,1011
people,1012
peoples,1013
percussivee,1014
perfect,1015
perfectly,1016
performance,1017
periods,1018
permissible,1019
permiten,1020
permits,1021
person,1022
personally,1023
perversion,1024
pet,1025
philosophy,1026
phone,1027
phrase,1028
picking,1029
piece,1030
pillars,1031
pink,1032
pinker,1033
plagued,1034
plain,1035
plant,1036
plants,1037
plastic,1038
plastics,1039
play,1040
player,1041
player_embeded,1042
playing,1043
point,1044
pointed,1045
pointless,1046
points,1047
polarize,1048
police,1049
political,1050
pontification,1051
poor,1052
portal,1053
porter,1054
poses,1055
positive,1056
possible,1057
possibly,1058
post,1059
postsecret,1060
povertyy,1061
power,1062
powers,1063
preaching,1064
precise,1065
predictablyy,1066
pregnant,1067
presented,1068
pressing,1069
pretty,1070
prevent,1071
pricing,1072
pride,1073
principles,1074
priorities,1075
privacy,1076
privilege,1077
pro,1078
probably,1079
probing,1080
problem,1081
problema,1082
problems,1083
proceed,1084
process,1085
produce,1086
produces,1087
products,1088
professionals,1089
professor,1090
profit,1091
profitable,1092
profits,1093
prognostications,1094
program,1095
progress,1096
project,1097
projects,1098
promise,1099
promote,1100
properties,1101
prophet,1102
proportion,1103
proportionate,1104
protect,1105
prove,1106
proved,1107
proven,1108
provide,1109
providers,1110
providing,1111
provoking,1112
ps,1113
psychology,1114
public,1115
publish,1116
purity,1117
purpose,1118
puzzle,1119
quality,1120
quantity,1121
que,1122
question,1123
quiet,1124
quit,1125
quite,1126
quo,1127
race,1128
radio,1129
rahul,1130
raise,1131
rapid,1132
rapt,1133
rarely,1134
rate,1135
ratio,1136
ravaged,1137
rdquo,1138
reach,1139
reached,1140
reactions,1141
read,1142
ready,1143
real,1144
reality,1145
realize,1146
really,1147
reap,1148
reasearch,1149
reason,1150
received,1151
recently,1152
recognize,1153
recommendations,1154
recursos,1155
recycling,1156
reduction,1157
referring,1158
refers,1159
regardless,1160
regards,1161
reign,1162
reject,1163
relative,1164
reliable,1165
reliance,1166
religion,1167
religions,1168
religious,1169
remember,1170
reminds,1171
reminiscence,1172
report,1173
reproducible,1174
requesting,1175
requirements,1176
reserved,1177
residents,1178
resilience,1179
resource,1180
resources,1181
responses,1182
responsibility,1183
rest,1184
resultados,1185
return,1186
revealed,1187
revelation,1188
revenue,1189
revolution,1190
rich,1191
richard,1192
rifles,1193
right,1194
righteous,1195
rigid,1196
rigorous,1197
ring,1198
risk,1199
robinson,1200
role,1201
room,1202
root,1203
roots,1204
routs,1205
rsquo,1206
ruling,1207
run,1208
running,1209
sacrifice,1210
sad,1211
sadam,1212
sadlyy,1213
safe,1214
said,1215
salary,1216
sale,1217
satelites,1218
saturday,1219
saves,1220
saw,1221
say,1222
saying,1223
scale,1224
scenarios,1225
schedule,1226
schizophrenia,1227
school,1228
science,1229
scientific,1230
scientist,1231
screwed,1232
screwing,1233
sea,1234
search,1235
searches,1236
seasonal,1237
secret,1238
secrete,1239
security,1240
seemingly,1241
seen,1242
sees,1243
selection,1244
self,1245
selling,1246
sending,1247
sense,1248
senses,1249
sensing,1250
sentence,1251
seriously,1252
set,1253
setting,1254
shamelessly,1255
share,1256
shared,1257
shares,1258
sharing,1259
short,1260
shortened,1261
shown,1262
shows,1263
shrine,1264
shrouded,1265
shut,1266
sichuan,1267
sickened,1268
sicker,1269
siempre,1270
significance,1271
significant,1272
similar,1273
similares,1274
simples,1275
simply,1276
sin,1277
single,1278
sir,1279
sit,1280
size,1281
sky,1282
slavery,1283
sleep,1284
sleepy,1285
small,1286
smart,1287
smile,1288
smiled,1289
smolin,1290
sniping,1291
snufed,1292
social,1293
societal,1294
society,1295
software,1296
solar,1297
sole,1298
soluciones,1299
solving,1300
son,1301
sorry,1302
sort,1303
sought,1304
sound,1305
sounds,1306
source,1307
sowing,1308
spare,1309
speak,1310
speaker,1311
specific,1312
specter,1313
speech,1314
spent,1315
spiderman,1316
spike,1317
spirituality,1318
sponsers,1319
spread,1320
springtime,1321
squeezing,1322
ss,1323
stability,1324
staffs,1325
stage,1326
stand,1327
standard,1328
start,1329
started,1330
starts,1331
state,1332
stated,1333
stations,1334
statistics,1335
status,1336
staying,1337
step,1338
stephen,1339
stereotype,1340
steroids,1341
steve,1342
stewart,1343
sticky,1344
stimulus,1345
stole,1346
stop,1347
stopped,1348
stories,1349
stranger,1350
street,1351
stressing,1352
stringss,1353
stronger,1354
struck,1355
structure,1356
structures,1357
student,1358
students,1359
studied,1360
study,1361
stuff,1362
stuffs,1363
stumble,1364
style,1365
styrofoam,1366
subject,1367
substitutes,1368
success,1369
successfully,1370
succumbing,1371
suck,1372
suffering,1373
suggest,1374
suggests,1375
suicided,1376
support,1377
suppose,1378
supposed,1379
sure,1380
surprising,1381
surprisingly,1382
surroundings,1383
susan,1384
suspect,1385
swept,1386
synthesizer,1387
sytems,1388
taboo,1389
tack,1390
taking,1391
talented,1392
taliban,1393
talk,1394
talking,1395
tank,1396
teach,1397
teacher,1398
teachers,1399
teaching,1400
tearing,1401
techniques,1402
technology,1403
ted,1404
telecom,1405
tell,1406
term,1407
tern,1408
terrorism,1409
testimony,1410
thailand,1411
thank,1412
thanks,1413
thats,1414
theories,1415
theory,1416
thing,1417
things,1418
think,1419
thinking,1420
thomas,1421
thought,1422
thoughtful,1423
threads,1424
threat,1425
threatening,1426
thrive,1427
tiempo,1428
time,1429
timely,1430
times,1431
title,1432
tj,1433
today,1434
toe,1435
told,1436
tonic,1437
tonight,1438
tools,1439
topic,1440
totally,1441
touched,1442
touches,1443
touching,1444
tragic,1445
transcendence,1446
transcript,1447
transfer,1448
transformations,1449
transition,1450
translated,1451
trials,1452
triumph,1453
truce,1454
true,1455
truly,1456
truth,1457
try,1458
trying,1459
tube,1460
turn,1461
tv,1462
type,1463
tyrannyy,1464
unable,1465
unbelivable,1466
understand,1467
understanding,1468
understands,1469
understatment,1470
undo,1471
undone,1472
unhappy,1473
unison,1474
universe,1475
unusual,1476
use,1477
used,1478
useful,1479
uses,1480
vagina,1481
valid,1482
valuable,1483
value,1484
values,1485
various,1486
vast,1487
ve,1488
veces,1489
vehicles,1490
vemos,1491
ver,1492
version,1493
vibrations,1494
video,1495
viewed,1496
viewing,1497
viewpoint,1498
viewpoints,1499
violent,1500
virgin,1501
virtual,1502
virtualized,1503
vision,1504
visit,1505
vlc,1506
voice,1507
vortex,1508
vulnerability,1509
wait,1510
walker,1511
walking,1512
walt,1513
wang,1514
wans,1515
want,1516
wanted,1517
wants,1518
war,1519
warming,1520
warped,1521
waste,1522
watch,1523
watched,1524
watching,1525
water,1526
waves,1527
way,1528
weakness,1529
weapons,1530
webb,1531
weekday,1532
wek,1533
wellington,1534
whatsoever,1535
whel,1536
wi,1537
wind,1538
wire,1539
wish,1540
women,1541
wonder,1542
wonderful,1543
woody,1544
word,1545
words,1546
work,1547
worked,1548
workers,1549
works,1550
world,1551
worldwide,1552
worth,1553
worthy,1554
wouldn,1555
wow,1556
writers,1557
written,1558
wrong,1559
wrought,1560
xd,1561
year,1562
years,1563
yes,1564
young,1565
youngsters,1566
youtube,1567
ystating,1568
