ability,0
able,1
abreu,2
absence,3
absolutely,4
absurd,5
accepted,6
accidents,7
act,8
action,9
activist,10
acts,11
actual,12
actually,13
acute,14
adapts,15
added,16
addiction,17
address,18
adhere,19
ado,20
advancement,21
advantage,22
affairs,23
affordable,24
afghanistan,25
afraid,26
age,27
ago,28
agony,29
agree,30
agricultural,31
aime,32
akyol,33
al,34
alien,35
alive,36
allen,37
alleviate,38
allow,39
allowing,40
allows,41
alongg,42
alternative,43
amazing,44
american,45
amounts,46
amp,47
analyze,48
ann,49
answer,50
answers,51
antonio,52
apes,53
apocalypse,54
appears,55
applaud,56
appreciate,57
appropriate,58
apretiate,59
architect,60
area,61
areas,62
aren,63
argument,64
army,65
arrive,66
art,67
arthritis,68
articulated,69
artist,70
aside,71
ask,72
aspect,73
ass,74
assertion,75
assistance,76
astute,77
att,78
attached,79
attempt,80
attendance,81
attendant,82
attitude,83
authentic,84
authors,85
autonomy,86
avoided,87
avoids,88
awaken,89
aware,90
away,91
awe,92
awesome,93
awhile,94
baby,95
background,96
bad,97
bajo,98
band,99
barber,100
barely,101
based,102
basic,103
bathroom,104
beautiful,105
beef,106
begging,107
begins,108
beijing,109
beings,110
belief,111
beliefs,112
believe,113
belongs,114
benifit,115
best,116
better,117
bias,118
bible,119
big,120
bigg,121
biggest,122
billions,123
binding,124
biodiversity,125
bit,126
bits,127
bjorn,128
blackmore,129
blanket,130
bless,131
blessing,132
blocking,133
blog,134
blogspot,135
bodies,136
body,137
book,138
bored,139
born,140
bosses,141
bostrom,142
bothered,143
boundaries,144
boundary,145
brain,146
brains,147
branch,148
briefly,149
bright,150
brilliant,151
bringing,152
brutal,153
build,154
burdoning,155
business,156
businesses,157
buy,158
buying,159
calculation,160
california,161
came,162
campaign,163
campbell,164
cancer,165
candle,166
cannon,167
canot,168
capital,169
car,170
carr,171
carry,172
cash,173
catch,174
cause,175
causing,176
cello,177
century,178
cfr,179
change,180
changed,181
cheat,182
check,183
chery,184
children,185
childrenn,186
china,187
chinese,188
choice,189
chris,190
christians,191
christina,192
chronic,193
cierta,194
circles,195
circumstances,196
city,197
civil,198
claim,199
clarified,200
clases,201
clasism,202
class,203
clear,204
climate,205
clinical,206
close,207
closely,208
clothing,209
clue,210
clumsy,211
cohesion,212
collapse,213
com,214
come,215
comes,216
comforts,217
comical,218
command,219
comment,220
commenting,221
commercially,222
common,223
communication,224
communities,225
community,226
companions,227
compare,228
compass,229
compensation,230
compete,231
complain,232
complejas,233
complete,234
completely,235
complex,236
comprehend,237
computer,238
conceded,239
concept,240
concert,241
concluded,242
conclusion,243
conclusions,244
condition,245
confirm,246
confirmation,247
confusion,248
connected,249
connection,250
conscience,251
consciousness,252
conservatives,253
consider,254
considered,255
consistently,256
conspiracy,257
constantly,258
construct,259
continue,260
contradiction,261
contradictions,262
contribute,263
contribution,264
control,265
controlling,266
cooked,267
cool,268
copied,269
coping,270
core,271
corpus,272
corrupt,273
corruption,274
costo,275
counter,276
countles,277
countries,278
country,279
countrymen,280
couple,281
course,282
covert,283
craftsman,284
create,285
created,286
creating,287
creations,288
creative,289
creator,290
creators,291
cringe,292
critical,293
crops,294
crosses,295
cual,296
cuba,297
cup,298
current,299
customers,300
dabs,301
dad,302
damage,303
damaging,304
dan,305
dancers,306
dancing,307
daniel,308
dare,309
data,310
dave,311
david,312
davos,313
dawkins,314
day,315
dd,316
dead,317
deaf,318
deal,319
dear,320
death,321
debate,322
decades,323
december,324
decent,325
decides,326
decision,327
decrease,328
deeper,329
default,330
definitely,331
degenerative,332
delicate,333
deliver,334
demanding,335
demean,336
democratic,337
denied,338
depress,339
depressed,340
descent,341
descisions,342
descriptions,343
deserved,344
deserves,345
design,346
designed,347
despite,348
determination,349
detroit,350
devastating,351
developed,352
development,353
device,354
devoted,355
dewan,356
dictate,357
did,358
died,359
diet,360
dietary,361
different,362
differentiation,363
differently,364
differing,365
digital,366
dilution,367
dims,368
dinero,369
direction,370
disabled,371
disagree,372
discipline,373
discourse,374
discovered,375
discs,376
discussed,377
discusses,378
diseases,379
disgraceful,380
dismissive,381
disprove,382
distinguishing,383
distraction,384
disturbing,385
does,386
doesn,387
doing,388
dollar,389
dollars,390
dominating,391
don,392
drastically,393
drink,394
drive,395
driving,396
dubious,397
dumbing,398
dumped,399
duplicates,400
duration,401
dutch,402
eacute,403
ears,404
easier,405
easy,406
eat,407
eccentricities,408
economic,409
educate,410
educated,411
education,412
effectively,413
effectiveness,414
efficiency,415
efficient,416
efficiently,417
efforts,418
elderly,419
elephant,420
eliminated,421
elites,422
eloquent,423
embargo,424
embrace,425
emiliano,426
emotion,427
emotional,428
empathy,429
emphatically,430
empowering,431
en,432
encourage,433
encouraged,434
end,435
endorse,436
ends,437
energy,438
engagement,439
engine,440
enslavement,441
ensure,442
enterprise,443
environment,444
environmental,445
epic,446
epistemology,447
equally,448
equate,449
equipment,450
ero,451
es,452
escazos,453
eso,454
especially,455
est,456
este,457
eternity,458
ethical,459
euphoria,460
europe,461
event,462
events,463
eventually,464
evil,465
evolution,466
evolutionist,467
evolutionn,468
evolved,469
evqparsedonedigitwnvtcparsedonedigitm,470
example,471
examples,472
excellence,473
excellent,474
exchanging,475
excited,476
exercise,477
existed,478
existen,479
existence,480
expansiveness,481
experience,482
experiences,483
experiencing,484
experiment,485
experinces,486
explains,487
express,488
expressed,489
extra,490
extraordinary,491
extremely,492
face,493
fact,494
facts,495
fail,496
faiths,497
fall,498
fallacies,499
fallen,500
falsifiable,501
family,502
fantastic,503
far,504
fascinating,505
father,506
fatter,507
fault,508
fear,509
fears,510
feature,511
features,512
feel,513
feeling,514
feldman,515
felix,516
felt,517
femininity,518
feminist,519
fertility,520
fiction,521
fight,522
final,523
finally,524
finding,525
findings,526
fine,527
finite,528
fit,529
fix,530
floating,531
flu,532
fluctuations,533
focus,534
focused,535
focusing,536
follow,537
followed,538
following,539
food,540
force,541
forever,542
forgets,543
form,544
forma,545
formed,546
forward,547
free,548
freedom,549
friends,550
frightened,551
frustrations,552
fun,553
functional,554
functions,555
fundamentalisms,556
fundamentals,557
future,558
gallon,559
garbage,560
gas,561
gasoline,562
gauge,563
gay,564
generally,565
generates,566
generation,567
genius,568
geof,569
germans,570
getting,571
gilbert,572
girl,573
girls,574
gives,575
global,576
globall,577
glorified,578
glue,579
gm,580
god,581
goglemapsapi,582
going,583
good,584
goodness,585
goree,586
got,587
governing,588
government,589
governments,590
grand,591
great,592
greater,593
greatest,594
green,595
gregariousness,596
grips,597
grow,598
growing,599
gt,600
guarantee,601
guess,602
guide,603
guitar,604
guys,605
hagovers,606
haidt,607
hall,608
hand,609
handcuffed,610
handicapped,611
hans,612
happen,613
happening,614
happiness,615
happy,616
hapy,617
hard,618
harder,619
hate,620
hated,621
haven,622
having,623
heading,624
headlines,625
heads,626
health,627
healthy,628
heaven,629
heed,630
helip,631
hell,632
help,633
helped,634
helping,635
hero,636
hidden,637
high,638
highly,639
hilarious,640
hip,641
historical,642
history,643
hit,644
hold,645
holes,646
hollywood,647
honest,648
hook,649
hope,650
hopefully,651
horizons,652
horrible,653
horrifying,654
hours,655
house,656
html,657
htp,658
human,659
humane,660
humanity,661
humble,662
hunting,663
ib,664
idea,665
ideals,666
ideas,667
ideological,668
ideologues,669
ignore,670
ignoringg,671
ii,672
illusion,673
imersive,674
implica,675
implications,676
impolite,677
importantly,678
impossible,679
inaccessible,680
incapable,681
incidences,682
included,683
includes,684
incomes,685
incomprehensible,686
incorporation,687
increase,688
independence,689
indexes,690
india,691
industry,692
inevitable,693
infinite,694
info,695
information,696
informed,697
informs,698
ingenious,699
ingrained,700
inhabits,701
initiated,702
injustice,703
innovation,704
insanity,705
inside,706
inspire,707
inspiring,708
instead,709
institutionalised,710
intelligent,711
intention,712
intentionalityy,713
interacting,714
interaction,715
interactions,716
interactive,717
interconnected,718
interesteding,719
interesting,720
international,721
internet,722
interpreted,723
interview,724
interviews,725
introduce,726
introduction,727
introdues,728
introverted,729
intrusion,730
intuitive,731
invade,732
inventor,733
investigation,734
invited,735
iq,736
iraqi,737
irritated,738
islam,739
islamicc,740
island,741
isn,742
isnt,743
isolating,744
israel,745
issue,746
issues,747
issuing,748
iwould,749
japan,750
japanese,751
jil,752
job,753
join,754
jones,755
jos,756
journalist,757
just,758
kaba,759
ken,760
killing,761
kind,762
klein,763
knew,764
knocked,765
know,766
knowledge,767
knows,768
lacking,769
large,770
las,771
lastly,772
lastt,773
latching,774
late,775
law,776
ldquo,777
leacture,778
lead,779
leads,780
learn,781
learned,782
learning,783
lecture,784
lee,785
leeuwenhoek,786
legalized,787
legitimal,788
legitimize,789
level,790
licenses,791
lie,792
lies,793
life,794
lifestyle,795
light,796
lights,797
like,798
likely,799
lint,800
list,801
listening,802
little,803
live,804
lived,805
lives,806
living,807
ljbmauparsedonedigitjc,808
lo,809
local,810
lol,811
lone,812
long,813
longer,814
look,815
looking,816
looks,817
losing,818
loss,819
lost,820
lot,821
lots,822
love,823
machine,824
macroevolution,825
magic,826
magnetic,827
main,828
mainstream,829
maintain,830
majority,831
make,832
makes,833
making,834
man,835
maneuver,836
manipulate,837
manipulation,838
mankind,839
mao,840
map,841
marketer,842
marvelling,843
masculinity,844
masses,845
materials,846
mdash,847
mean,848
meaning,849
means,850
meant,851
measured,852
mechanisms,853
media,854
medicinal,855
medicine,856
memes,857
memetics,858
men,859
mention,860
mentioned,861
mentioning,862
mentions,863
mere,864
merely,865
message,866
met,867
metaphor,868
mexican,869
mgvkvkmbrparsedonedigita,870
microsoft,871
microwave,872
mild,873
mileage,874
military,875
mind,876
minds,877
mini,878
minimal,879
mirror,880
misandry,881
misled,882
misrepresented,883
missed,884
model,885
modern,886
moment,887
money,888
mongering,889
monkeys,890
moon,891
moral,892
morality,893
mosher,894
mother,895
motivations,896
moved,897
movie,898
mpparsedonedigit,899
mr,900
muchas,901
muhamed,902
murderer,903
mushroom,904
mushrooms,905
music,906
muslims,907
mustafe,908
mycelium,909
mystical,910
myth,911
nanking,912
nation,913
natural,914
nature,915
need,916
needed,917
needs,918
negative,919
neighbors,920
network,921
neuroscience,922
new,923
newly,924
newnham,925
news,926
newspapers,927
nice,928
nick,929
nightmares,930
noah,931
nonsense,932
note,933
notes,934
nuclear,935
number,936
numbers,937
nz,938
observation,939
observer,940
obvious,941
obviously,942
occupation,943
ocean,944
offended,945
offer,946
officer,947
oh,948
ohio,949
oil,950
oils,951
old,952
ones,953
open,954
openly,955
operate,956
opinion,957
opposite,958
oppression,959
option,960
orbital,961
order,962
organizations,963
orientado,964
outcome,965
outlets,966
overwhelm,967
pace,968
pacifier,969
pain,970
pandemic,971
par,972
paradigm,973
paradox,974
paraphrasing,975
paraplegic,976
parody,977
parsedfourdigits,978
parsedonedigit,979
parsedonedigitd,980
parsedthreedigits,981
parsedthreedigitsp,982
parsedtwodigits,983
parsedtwodigitsth,984
partially,985
particles,986
partner,987
party,988
passed,989
passion,990
passionate,991
path,992
paths,993
patience,994
payback,995
pc,996
peace,997
pedophiles,998
peeve,999
pensamos,1000
people,1001
peoples,1002
perceptions,1003
percussivee,1004
perfect,1005
perfectly,1006
performance,1007
periods,1008
permissible,1009
permiten,1010
permits,1011
person,1012
personally,1013
perversion,1014
pet,1015
phone,1016
phrase,1017
picking,1018
piece,1019
pillars,1020
pinker,1021
plagued,1022
plain,1023
plant,1024
plants,1025
plastic,1026
plastics,1027
play,1028
player,1029
player_embeded,1030
playing,1031
point,1032
pointed,1033
pointless,1034
points,1035
poke,1036
polarize,1037
police,1038
political,1039
politicians,1040
pontification,1041
poor,1042
pop,1043
portal,1044
porter,1045
poses,1046
position,1047
positive,1048
possible,1049
possibly,1050
post,1051
postsecret,1052
povertyy,1053
power,1054
powers,1055
preaching,1056
precise,1057
pregnant,1058
presented,1059
pressing,1060
pretty,1061
prevent,1062
pride,1063
principles,1064
prior,1065
priorities,1066
privacy,1067
privilege,1068
pro,1069
probably,1070
probing,1071
problem,1072
problema,1073
problems,1074
proceed,1075
process,1076
produce,1077
produces,1078
products,1079
professional,1080
professionals,1081
professor,1082
profit,1083
profitable,1084
prognostications,1085
program,1086
progress,1087
project,1088
promise,1089
promote,1090
prophet,1091
proportion,1092
proportionate,1093
prove,1094
proved,1095
proven,1096
provide,1097
providers,1098
providing,1099
provoking,1100
ps,1101
psychology,1102
public,1103
purity,1104
purpose,1105
puzzle,1106
quality,1107
que,1108
question,1109
quiet,1110
quit,1111
quite,1112
quo,1113
race,1114
radio,1115
rahul,1116
raise,1117
rapid,1118
rapt,1119
rarely,1120
rate,1121
ratio,1122
ravaged,1123
rdquo,1124
reach,1125
reached,1126
reactions,1127
read,1128
ready,1129
real,1130
reality,1131
realize,1132
really,1133
reap,1134
reason,1135
received,1136
recently,1137
recognize,1138
recommendations,1139
recursos,1140
recycling,1141
refers,1142
regain,1143
regardless,1144
regards,1145
reject,1146
rejoined,1147
relative,1148
reliable,1149
reliance,1150
religion,1151
religious,1152
remember,1153
reminds,1154
reminiscence,1155
repetoire,1156
report,1157
reproducible,1158
requesting,1159
required,1160
requirements,1161
reserved,1162
residents,1163
resilience,1164
resource,1165
resources,1166
responses,1167
responsibility,1168
rest,1169
restrictive,1170
resultados,1171
results,1172
return,1173
revealed,1174
revelation,1175
revenue,1176
revolution,1177
rich,1178
richard,1179
rifles,1180
right,1181
righteous,1182
rigid,1183
rigorous,1184
risk,1185
robinson,1186
rock,1187
role,1188
room,1189
root,1190
roots,1191
rosling,1192
routs,1193
rsquo,1194
ruling,1195
run,1196
running,1197
sadam,1198
sadlyy,1199
safe,1200
said,1201
salary,1202
sale,1203
saturday,1204
saves,1205
saw,1206
say,1207
saying,1208
scale,1209
scenarios,1210
schizophrenia,1211
school,1212
science,1213
scientific,1214
scientist,1215
scientists,1216
screwed,1217
screwing,1218
sea,1219
search,1220
searches,1221
searching,1222
seasonal,1223
security,1224
seee,1225
seemingly,1226
seen,1227
sees,1228
selection,1229
self,1230
selling,1231
sending,1232
sense,1233
senses,1234
sensing,1235
sentence,1236
seriously,1237
set,1238
setting,1239
shamelessly,1240
share,1241
shared,1242
shares,1243
sharing,1244
short,1245
shortened,1246
shown,1247
shows,1248
shrine,1249
shrouded,1250
shut,1251
sichuan,1252
sickened,1253
sicker,1254
siempre,1255
significance,1256
similar,1257
similares,1258
simples,1259
simply,1260
sin,1261
sing,1262
single,1263
sir,1264
sit,1265
size,1266
slavery,1267
sleep,1268
sleepy,1269
small,1270
smart,1271
smile,1272
smiled,1273
smolin,1274
smug,1275
sniping,1276
snufed,1277
social,1278
societal,1279
society,1280
solar,1281
sole,1282
soluciones,1283
solving,1284
son,1285
sorry,1286
sort,1287
sought,1288
soul,1289
sound,1290
sounded,1291
sounds,1292
source,1293
sowing,1294
spare,1295
speak,1296
speaker,1297
speaks,1298
specific,1299
specter,1300
speech,1301
spending,1302
spent,1303
spiderman,1304
spike,1305
spirituality,1306
sponsers,1307
spread,1308
springtime,1309
squeezing,1310
ss,1311
stability,1312
staffs,1313
stage,1314
stand,1315
standard,1316
start,1317
started,1318
starts,1319
state,1320
stated,1321
stations,1322
statistics,1323
status,1324
staying,1325
step,1326
stereotype,1327
steroids,1328
steve,1329
sticky,1330
stifling,1331
stimulus,1332
stole,1333
stop,1334
stopped,1335
stories,1336
stranger,1337
stream,1338
street,1339
stressing,1340
stringss,1341
stronger,1342
struck,1343
structure,1344
structures,1345
student,1346
students,1347
studied,1348
study,1349
stuff,1350
stuffs,1351
stumble,1352
style,1353
styrofoam,1354
subject,1355
substitutes,1356
success,1357
successfully,1358
succumbing,1359
suck,1360
suffering,1361
suggest,1362
suggests,1363
suicided,1364
support,1365
suppose,1366
supposed,1367
sure,1368
surprising,1369
surprisingly,1370
surroundings,1371
susan,1372
swept,1373
synthesizer,1374
sytems,1375
tabarok,1376
taboo,1377
tack,1378
taking,1379
talented,1380
taliban,1381
talk,1382
talking,1383
talks,1384
tampon,1385
tank,1386
teach,1387
teachers,1388
teaching,1389
tearing,1390
techniques,1391
technology,1392
ted,1393
telecom,1394
tell,1395
term,1396
terrorism,1397
test,1398
testimony,1399
thailand,1400
thank,1401
thanks,1402
thats,1403
theories,1404
theory,1405
thing,1406
things,1407
think,1408
thinking,1409
thomas,1410
thought,1411
thoughtful,1412
thousands,1413
threads,1414
threat,1415
threatening,1416
threw,1417
thrive,1418
tiempo,1419
time,1420
timely,1421
times,1422
title,1423
tj,1424
today,1425
toe,1426
told,1427
tonic,1428
tonight,1429
topic,1430
touch,1431
touched,1432
touches,1433
touching,1434
tragic,1435
transcendence,1436
transcript,1437
transfer,1438
transformations,1439
transition,1440
translated,1441
trials,1442
triumph,1443
truce,1444
true,1445
truly,1446
truth,1447
try,1448
trying,1449
tube,1450
tunes,1451
turn,1452
tv,1453
type,1454
tyrannyy,1455
ultimate,1456
unable,1457
unbelivable,1458
understand,1459
understanding,1460
understands,1461
understatment,1462
undo,1463
undone,1464
unison,1465
universe,1466
unusual,1467
unveiled,1468
use,1469
used,1470
useful,1471
uses,1472
vagina,1473
valid,1474
valuable,1475
value,1476
values,1477
various,1478
vast,1479
ve,1480
veces,1481
vehicles,1482
vemos,1483
ver,1484
version,1485
vibrations,1486
video,1487
viewed,1488
viewing,1489
viewpoint,1490
viewpoints,1491
violent,1492
virtual,1493
virtualized,1494
vision,1495
visit,1496
vlc,1497
vocalist,1498
vocally,1499
voice,1500
vortex,1501
wait,1502
walker,1503
walking,1504
walt,1505
wang,1506
want,1507
wanted,1508
wants,1509
war,1510
warming,1511
warped,1512
waste,1513
watch,1514
watched,1515
watching,1516
water,1517
waves,1518
way,1519
weapons,1520
webb,1521
weekday,1522
wek,1523
wellington,1524
whatsoever,1525
wi,1526
wind,1527
wire,1528
wish,1529
women,1530
wonder,1531
wonderful,1532
woody,1533
word,1534
words,1535
work,1536
workers,1537
works,1538
world,1539
worldwide,1540
worth,1541
worthy,1542
wouldn,1543
wow,1544
write,1545
writing,1546
written,1547
wrong,1548
wrought,1549
xd,1550
year,1551
years,1552
yes,1553
young,1554
youngsters,1555
youtube,1556
ystating,1557
