ability,0
able,1
abreu,2
absence,3
absolutely,4
absurd,5
accepted,6
accidents,7
act,8
action,9
activist,10
acts,11
actual,12
actually,13
acute,14
added,15
addiction,16
address,17
addresses,18
adhere,19
ado,20
advancement,21
advantage,22
advocate,23
affairs,24
affordable,25
afghanistan,26
afraid,27
age,28
ago,29
agony,30
agree,31
agricultural,32
aime,33
akyol,34
al,35
alien,36
alive,37
allen,38
alleviate,39
allow,40
allowing,41
allows,42
alongg,43
alternative,44
amazing,45
american,46
americans,47
amounts,48
amp,49
analogy,50
analyze,51
answer,52
antonio,53
apes,54
apocalypse,55
appears,56
applaud,57
appreciate,58
appropriate,59
apretiate,60
architect,61
area,62
areas,63
aren,64
argument,65
ariely,66
army,67
arrive,68
art,69
arthritis,70
articulated,71
artist,72
aside,73
ask,74
aspect,75
ass,76
assertion,77
assistance,78
astute,79
atoms,80
att,81
attached,82
attempt,83
attendance,84
attendant,85
attitude,86
authentic,87
authors,88
autonomy,89
avoided,90
avoids,91
awaken,92
aware,93
away,94
awe,95
awesome,96
awhile,97
baby,98
background,99
bad,100
bajo,101
band,102
barber,103
barely,104
based,105
basic,106
bathroom,107
beautiful,108
beef,109
begging,110
behavior,111
behavioral,112
behaviours,113
beijing,114
beings,115
belief,116
beliefs,117
believe,118
bell,119
belongs,120
benifit,121
best,122
better,123
bias,124
bible,125
big,126
bigg,127
biggest,128
billions,129
binding,130
biodiversity,131
bit,132
bits,133
bjorn,134
blackmore,135
blanket,136
bless,137
blessing,138
blind,139
blocking,140
blog,141
blogspot,142
bodies,143
body,144
book,145
bored,146
born,147
bosses,148
bostrom,149
bothered,150
boundaries,151
boundary,152
brain,153
brains,154
branch,155
briefly,156
bright,157
brilliant,158
bringing,159
brutal,160
brutally,161
build,162
burdoning,163
business,164
businesses,165
buy,166
calculation,167
california,168
came,169
campaign,170
campbell,171
cancer,172
candle,173
cannon,174
canot,175
capital,176
car,177
carbon,178
carr,179
carry,180
cash,181
catch,182
cause,183
causing,184
cello,185
century,186
cfr,187
chair,188
change,189
changed,190
changing,191
cheat,192
check,193
chery,194
children,195
childrenn,196
china,197
chinese,198
chris,199
christians,200
christina,201
cierta,202
circles,203
circumstances,204
city,205
civil,206
claim,207
clases,208
clasism,209
class,210
classes,211
clear,212
climate,213
close,214
closely,215
clothing,216
clue,217
clumsy,218
cohesion,219
colbert,220
collapse,221
com,222
come,223
comes,224
comforts,225
comical,226
command,227
comment,228
commenting,229
commercially,230
common,231
communication,232
communities,233
community,234
companions,235
compare,236
compass,237
compensation,238
compete,239
complain,240
complejas,241
complete,242
completely,243
complex,244
comprehend,245
computer,246
conceded,247
concept,248
concert,249
concluded,250
conclusion,251
conclusions,252
condition,253
conducted,254
confirm,255
confirmation,256
confusion,257
connected,258
connection,259
conscience,260
consciousness,261
conservatives,262
consider,263
considered,264
consistently,265
conspiracy,266
constantly,267
construct,268
continue,269
contradiction,270
contradictions,271
contribute,272
contribution,273
control,274
controlling,275
cooked,276
cool,277
copied,278
coping,279
core,280
corpus,281
costo,282
costs,283
counter,284
countles,285
countries,286
country,287
countrymen,288
couple,289
course,290
covert,291
craftsman,292
create,293
created,294
creating,295
creations,296
creative,297
creator,298
creators,299
cringe,300
critical,301
crops,302
crosses,303
cual,304
cuba,305
cup,306
curiosity,307
current,308
customers,309
dabs,310
dad,311
damage,312
damaging,313
dan,314
dancers,315
dancing,316
dangers,317
daniel,318
dare,319
data,320
dave,321
david,322
davos,323
dawkins,324
day,325
dd,326
dead,327
deaf,328
deal,329
dear,330
death,331
debate,332
decades,333
december,334
decent,335
decides,336
decision,337
decrease,338
deed,339
default,340
definitely,341
degenerative,342
delicate,343
deliver,344
demanded,345
demanding,346
demean,347
democratic,348
denied,349
depress,350
depressed,351
deprived,352
derivatives,353
descent,354
descisions,355
descriptions,356
deserved,357
deserves,358
design,359
designed,360
despite,361
determination,362
detroit,363
devastating,364
develop,365
developed,366
development,367
device,368
devoted,369
dewan,370
dictate,371
did,372
died,373
diet,374
dietary,375
different,376
differently,377
differing,378
digital,379
dilution,380
dims,381
dinero,382
direction,383
disabled,384
disagree,385
discipline,386
discourse,387
discovered,388
discs,389
discuss,390
discussed,391
discusses,392
diseases,393
disgraceful,394
dismissive,395
disprove,396
distinguishing,397
distraction,398
disturbing,399
does,400
doesn,401
doing,402
dollar,403
dollars,404
dominating,405
don,406
drastically,407
drink,408
drive,409
driving,410
dubious,411
dumbing,412
dumped,413
duplicates,414
duration,415
dutch,416
eacute,417
earlier,418
ears,419
easier,420
easy,421
eat,422
eccentricities,423
echo,424
economic,425
economist,426
educated,427
education,428
effectively,429
effectiveness,430
efficiency,431
efficient,432
efficiently,433
efforts,434
elderly,435
eliminated,436
elites,437
eloquent,438
embargo,439
embrace,440
emiliano,441
emotion,442
emotional,443
empathy,444
emphatically,445
empowering,446
en,447
encourage,448
encouraged,449
end,450
endorse,451
ends,452
energy,453
engagement,454
engine,455
enslavement,456
ensure,457
enterprise,458
environment,459
environmental,460
epic,461
epistemology,462
equally,463
equate,464
equipment,465
ero,466
es,467
escazos,468
eso,469
especially,470
est,471
este,472
eternity,473
ethical,474
euclidean,475
euphoria,476
europe,477
event,478
events,479
eventually,480
evil,481
evolution,482
evolutionist,483
evolutionn,484
evolved,485
evqparsedonedigitwnvtcparsedonedigitm,486
example,487
examples,488
excellence,489
excellent,490
exchanging,491
excited,492
exercise,493
existed,494
existen,495
existence,496
experience,497
experiences,498
experiencing,499
experiment,500
explains,501
explored,502
express,503
expressed,504
extra,505
extraordinary,506
extremely,507
face,508
fact,509
facts,510
fail,511
faiths,512
fall,513
fallacies,514
fallen,515
falsifiable,516
family,517
famous,518
fancy,519
fantastic,520
far,521
fascinating,522
fat,523
father,524
fatter,525
fault,526
fear,527
fears,528
feature,529
feed,530
feel,531
feeling,532
feldman,533
felix,534
felt,535
femininity,536
feminist,537
fertility,538
fiction,539
fight,540
final,541
finally,542
finding,543
findings,544
fine,545
finite,546
fit,547
fix,548
floating,549
fluctuations,550
focus,551
focused,552
focusing,553
follow,554
followed,555
food,556
footprint,557
force,558
forever,559
form,560
forma,561
formed,562
fortification,563
forward,564
fossil,565
free,566
freedom,567
friends,568
frightened,569
frustrations,570
fuels,571
fun,572
functional,573
functions,574
fundamentalisms,575
fundamentals,576
future,577
gallon,578
garbage,579
gas,580
gasoline,581
gauge,582
gay,583
generally,584
generates,585
generation,586
genius,587
geof,588
geometry,589
germans,590
getting,591
gilgamesh,592
girl,593
girls,594
given,595
gives,596
giving,597
global,598
globall,599
glorified,600
glue,601
gm,602
god,603
goglemapsapi,604
going,605
gold,606
good,607
goodness,608
goree,609
got,610
gotten,611
governing,612
government,613
governments,614
gps,615
grand,616
great,617
greater,618
greatest,619
green,620
gregariousness,621
grew,622
grow,623
growing,624
gt,625
guarantee,626
guess,627
guide,628
guitar,629
guy,630
guys,631
hagovers,632
haidt,633
hand,634
handcuffed,635
handicapped,636
handling,637
hans,638
happen,639
happening,640
happiness,641
happy,642
hapy,643
hard,644
harder,645
hate,646
hated,647
haven,648
having,649
heading,650
heads,651
health,652
healthy,653
heart,654
heaven,655
heed,656
helip,657
hell,658
help,659
helped,660
helping,661
hero,662
hidden,663
high,664
highly,665
hilarious,666
hip,667
historical,668
history,669
hit,670
hold,671
holes,672
hollywood,673
honest,674
hook,675
hope,676
hopefully,677
horizons,678
horrible,679
horrifying,680
hours,681
house,682
html,683
htp,684
huge,685
human,686
humane,687
humanity,688
humble,689
humor,690
hunting,691
ib,692
idea,693
ideals,694
ideas,695
ideological,696
ideologues,697
ignorance,698
ignore,699
ignoringg,700
ii,701
illusion,702
imersive,703
impact,704
implica,705
implications,706
impolite,707
importantly,708
impossible,709
inaccessible,710
incapable,711
incidences,712
included,713
includes,714
incomes,715
incomprehensible,716
incorporation,717
increase,718
independence,719
indexes,720
india,721
industry,722
inevitable,723
infinite,724
info,725
information,726
ingang,727
ingenious,728
ingrained,729
inhabits,730
initiated,731
injustice,732
innovation,733
insanity,734
inside,735
inspire,736
inspiring,737
instead,738
institutionalised,739
intelligent,740
intention,741
interacting,742
interaction,743
interactions,744
interactive,745
interconnected,746
interesteding,747
interesting,748
international,749
internet,750
interpreted,751
interview,752
interviews,753
introduce,754
introduction,755
introdues,756
introverted,757
intrusion,758
intuitive,759
invade,760
inventor,761
investigation,762
invited,763
involves,764
iq,765
iraqi,766
irrational,767
irritated,768
islam,769
islamicc,770
island,771
isn,772
isnt,773
isolating,774
israel,775
issue,776
issues,777
issuing,778
iwould,779
japan,780
japanese,781
jil,782
job,783
join,784
jon,785
jones,786
jos,787
journalist,788
just,789
kaba,790
ken,791
killing,792
kind,793
klein,794
knew,795
knocked,796
know,797
knowledge,798
knows,799
korea,800
lacking,801
large,802
las,803
lastly,804
lastt,805
latching,806
late,807
law,808
ldquo,809
leacture,810
lead,811
leads,812
learn,813
learned,814
learning,815
lecture,816
lee,817
leeuwenhoek,818
left,819
legalized,820
legitimal,821
legitimize,822
level,823
licenses,824
lie,825
lies,826
life,827
light,828
lights,829
like,830
likely,831
lint,832
list,833
listening,834
little,835
live,836
lives,837
living,838
ljbmauparsedonedigitjc,839
lo,840
local,841
lol,842
lone,843
long,844
longer,845
look,846
looking,847
looks,848
losing,849
loss,850
lost,851
lot,852
lots,853
love,854
machine,855
macroevolution,856
magic,857
maher,858
main,859
mainstream,860
maintain,861
major,862
majority,863
make,864
makes,865
making,866
man,867
managing,868
maneuver,869
manipulate,870
mankind,871
manufacture,872
mao,873
map,874
marketer,875
marvelling,876
masculinity,877
masses,878
materials,879
math,880
mdash,881
mean,882
meaning,883
means,884
meant,885
measured,886
mechanisms,887
media,888
medicinal,889
medicine,890
meetings,891
men,892
mention,893
mentioned,894
mentioning,895
mentions,896
mere,897
merely,898
message,899
met,900
metaphor,901
methodical,902
mexican,903
mgvkvkmbrparsedonedigita,904
microbes,905
microsoft,906
micrososft,907
microwave,908
mild,909
mileage,910
military,911
mind,912
minds,913
mini,914
minimal,915
mirror,916
misandry,917
misled,918
misrepresented,919
mit,920
model,921
modern,922
moment,923
money,924
mongering,925
monkeys,926
moon,927
moral,928
morality,929
mosher,930
mother,931
motivations,932
moved,933
movie,934
moving,935
mpparsedonedigit,936
mr,937
muchas,938
muhamed,939
mushroom,940
mushrooms,941
music,942
muslims,943
mustafe,944
mycelium,945
mystical,946
myth,947
nanking,948
nation,949
natural,950
nature,951
need,952
needed,953
needs,954
negative,955
neighbors,956
network,957
neuroscience,958
new,959
newly,960
newnham,961
news,962
newspapers,963
nice,964
nick,965
nightmares,966
noah,967
nonsense,968
note,969
notes,970
nuclear,971
number,972
numbers,973
nutrient,974
nz,975
obedience,976
objects,977
observation,978
observer,979
obvious,980
obviously,981
occupation,982
ocean,983
offended,984
offer,985
officer,986
oh,987
ohio,988
oil,989
oils,990
old,991
ones,992
open,993
openly,994
operate,995
opinion,996
opposite,997
oppression,998
option,999
orbital,1000
order,1001
organizations,1002
orientado,1003
outcome,1004
outlets,1005
overwhelm,1006
owned,1007
pace,1008
pacifier,1009
page,1010
pain,1011
par,1012
paradigm,1013
paradox,1014
paraphrasing,1015
paraplegic,1016
parody,1017
parsedfourdigits,1018
parsedonedigit,1019
parsedonedigitd,1020
parsedthreedigits,1021
parsedthreedigitsp,1022
parsedtwodigits,1023
parsedtwodigitsth,1024
partially,1025
particles,1026
partner,1027
party,1028
passed,1029
passion,1030
passionate,1031
path,1032
paths,1033
patience,1034
payback,1035
paying,1036
pc,1037
peace,1038
pedophiles,1039
peeve,1040
pensamos,1041
people,1042
peoples,1043
perceptions,1044
percussivee,1045
perfect,1046
perfectly,1047
performance,1048
periods,1049
permiten,1050
permits,1051
person,1052
personally,1053
perversion,1054
pet,1055
philosophy,1056
phone,1057
phrase,1058
picking,1059
piece,1060
pillars,1061
pink,1062
pinker,1063
plagued,1064
plain,1065
plant,1066
plants,1067
plastics,1068
play,1069
player,1070
player_embeded,1071
playing,1072
point,1073
pointed,1074
pointless,1075
points,1076
poke,1077
polarize,1078
police,1079
political,1080
politicians,1081
poor,1082
pop,1083
portal,1084
porter,1085
poses,1086
position,1087
positive,1088
possible,1089
possibly,1090
post,1091
postsecret,1092
povertyy,1093
power,1094
powers,1095
preaching,1096
precise,1097
predictablyy,1098
pregnant,1099
presented,1100
pressing,1101
pretty,1102
prevent,1103
pricing,1104
pride,1105
principles,1106
prior,1107
priorities,1108
privacy,1109
privilege,1110
pro,1111
probably,1112
probing,1113
problem,1114
problema,1115
problems,1116
process,1117
produce,1118
produces,1119
products,1120
professional,1121
professionals,1122
professor,1123
profit,1124
profitable,1125
profits,1126
prognostications,1127
program,1128
progress,1129
project,1130
projects,1131
promise,1132
promote,1133
properties,1134
prophet,1135
proportion,1136
proportionate,1137
protect,1138
prove,1139
proved,1140
proven,1141
provide,1142
providers,1143
providing,1144
provoking,1145
ps,1146
psychology,1147
public,1148
publish,1149
purity,1150
purpose,1151
puzzle,1152
quality,1153
quantity,1154
que,1155
question,1156
quiet,1157
quit,1158
quite,1159
quo,1160
race,1161
radio,1162
rahul,1163
raise,1164
rapid,1165
rapt,1166
rarely,1167
rate,1168
ratio,1169
ravaged,1170
rdquo,1171
reach,1172
reached,1173
reactions,1174
ready,1175
real,1176
reality,1177
realize,1178
really,1179
reap,1180
reasearch,1181
reason,1182
received,1183
recently,1184
recognize,1185
recommendations,1186
recursos,1187
recycling,1188
reduction,1189
referring,1190
refers,1191
regain,1192
regardless,1193
regards,1194
reign,1195
reject,1196
rejoined,1197
relative,1198
reliable,1199
reliance,1200
religion,1201
religions,1202
religious,1203
remember,1204
reminds,1205
reminiscence,1206
repetoire,1207
report,1208
reproducible,1209
requesting,1210
required,1211
requirements,1212
reserved,1213
residents,1214
resilience,1215
resource,1216
resources,1217
responses,1218
responsibility,1219
rest,1220
restrictive,1221
resultados,1222
results,1223
return,1224
revealed,1225
revelation,1226
revenue,1227
revolution,1228
rich,1229
richard,1230
rifles,1231
right,1232
righteous,1233
rigid,1234
rigorous,1235
ring,1236
risk,1237
robinson,1238
rock,1239
role,1240
room,1241
root,1242
rosling,1243
routs,1244
rsquo,1245
ruling,1246
run,1247
running,1248
sacrifice,1249
sad,1250
sadam,1251
sadlyy,1252
safe,1253
said,1254
salary,1255
sale,1256
satelites,1257
saturday,1258
saves,1259
saw,1260
say,1261
saying,1262
scale,1263
scenarios,1264
schedule,1265
schizophrenia,1266
school,1267
science,1268
scientific,1269
scientist,1270
scientists,1271
screwed,1272
screwing,1273
sea,1274
search,1275
searches,1276
searching,1277
secret,1278
secrete,1279
security,1280
seee,1281
seemingly,1282
seen,1283
sees,1284
self,1285
selling,1286
sending,1287
sense,1288
senses,1289
sensing,1290
sentence,1291
seriously,1292
set,1293
setting,1294
shamelessly,1295
share,1296
shares,1297
sharing,1298
short,1299
shortened,1300
shown,1301
shows,1302
shrine,1303
shrouded,1304
shut,1305
sichuan,1306
sickened,1307
sicker,1308
siempre,1309
significance,1310
significant,1311
similar,1312
similares,1313
simples,1314
simply,1315
sin,1316
sing,1317
single,1318
sir,1319
sit,1320
size,1321
sky,1322
slavery,1323
sleep,1324
sleepy,1325
small,1326
smart,1327
smile,1328
smiled,1329
smolin,1330
smug,1331
sniping,1332
snufed,1333
social,1334
societal,1335
society,1336
software,1337
solar,1338
sole,1339
soluciones,1340
solving,1341
son,1342
sorry,1343
sort,1344
sought,1345
soul,1346
sound,1347
sounded,1348
sounds,1349
source,1350
sowing,1351
spare,1352
speak,1353
speaker,1354
speaks,1355
specific,1356
specter,1357
speech,1358
spending,1359
spent,1360
spiderman,1361
spike,1362
spirituality,1363
sponsers,1364
spread,1365
springtime,1366
squeezing,1367
stability,1368
staffs,1369
stage,1370
stand,1371
standard,1372
start,1373
started,1374
starts,1375
state,1376
stated,1377
stations,1378
statistics,1379
status,1380
staying,1381
step,1382
stephen,1383
stereotype,1384
steroids,1385
steve,1386
stewart,1387
sticky,1388
stifling,1389
stimulus,1390
stole,1391
stop,1392
stopped,1393
stories,1394
stranger,1395
stream,1396
street,1397
stressing,1398
stringss,1399
stronger,1400
struck,1401
structure,1402
structures,1403
student,1404
students,1405
studied,1406
study,1407
stuff,1408
stuffs,1409
stumble,1410
style,1411
styrofoam,1412
subject,1413
substitutes,1414
success,1415
successfully,1416
succumbing,1417
suck,1418
suffering,1419
suggest,1420
support,1421
suppose,1422
supposed,1423
sure,1424
surprising,1425
surprisingly,1426
susan,1427
suspect,1428
swept,1429
synthesizer,1430
sytems,1431
tabarok,1432
taboo,1433
tack,1434
taking,1435
talented,1436
taliban,1437
talk,1438
talking,1439
talks,1440
tampon,1441
tank,1442
teach,1443
teacher,1444
teachers,1445
teaching,1446
tearing,1447
techniques,1448
technology,1449
ted,1450
telecom,1451
term,1452
tern,1453
terrorism,1454
test,1455
testimony,1456
thailand,1457
thank,1458
thanks,1459
thats,1460
theories,1461
theory,1462
thing,1463
things,1464
think,1465
thinking,1466
thomas,1467
thought,1468
thoughtful,1469
thousands,1470
threads,1471
threat,1472
threatening,1473
threw,1474
thrive,1475
tiempo,1476
time,1477
timely,1478
times,1479
title,1480
tj,1481
today,1482
told,1483
tonic,1484
tonight,1485
tools,1486
topic,1487
totally,1488
touch,1489
touched,1490
touches,1491
touching,1492
tragic,1493
transcendence,1494
transcript,1495
transfer,1496
transformations,1497
transition,1498
translated,1499
triumph,1500
truce,1501
true,1502
truly,1503
truth,1504
try,1505
trying,1506
tube,1507
tunes,1508
turn,1509
tv,1510
type,1511
tyrannyy,1512
ultimate,1513
unable,1514
unbelivable,1515
understand,1516
understanding,1517
understands,1518
understatment,1519
undo,1520
undone,1521
unhappy,1522
unison,1523
universe,1524
unusual,1525
unveiled,1526
use,1527
used,1528
useful,1529
uses,1530
vagina,1531
valid,1532
valuable,1533
value,1534
values,1535
various,1536
vast,1537
ve,1538
veces,1539
vehicles,1540
vemos,1541
ver,1542
version,1543
vibrations,1544
video,1545
viewed,1546
viewing,1547
viewpoint,1548
viewpoints,1549
violent,1550
virgin,1551
virtual,1552
virtualized,1553
vision,1554
visit,1555
vlc,1556
vocalist,1557
vocally,1558
voice,1559
vortex,1560
vulnerability,1561
wait,1562
walker,1563
walking,1564
walt,1565
wang,1566
wans,1567
want,1568
wanted,1569
wants,1570
war,1571
warming,1572
warped,1573
waste,1574
watch,1575
watching,1576
water,1577
waves,1578
way,1579
weakness,1580
weapons,1581
webb,1582
wek,1583
wellington,1584
whatsoever,1585
whel,1586
wi,1587
wind,1588
wire,1589
wish,1590
women,1591
wonder,1592
wonderful,1593
woody,1594
word,1595
words,1596
work,1597
worked,1598
workers,1599
works,1600
world,1601
worldwide,1602
worth,1603
worthy,1604
wouldn,1605
wow,1606
write,1607
writers,1608
writing,1609
written,1610
wrong,1611
wrought,1612
xd,1613
year,1614
years,1615
yes,1616
young,1617
youngsters,1618
youtube,1619
ystating,1620
