according,0
ace,1
activist,2
airline,3
als,4
alsicebucketchallenge,5
american,6
americans,7
amp,8
andi,9
android,10
app,11
apparently,12
arguably,13
arm,14
artist,15
ass,16
assâ,17
atheist,18
attack,19
attacks,20
attempting,21
attitude,22
away,23
baby,24
bags,25
band,26
bangladesh,27
base,28
bcci,29
beautiful,30
bed,31
begins,32
best,33
better,34
bf,35
biggest,36
billion,37
black,38
blew,39
bobbijparsedfourdigits,40
boo,41
borders,42
bowling,43
bradley,44
bremaxwell,45
brilliance,46
british,47
broke,48
brownies,49
bucket,50
bug,51
butchering,52
called,53
canceled,54
cano,55
car,56
certainly,57
cfarrisparsedtwodigits,58
challenge,59
charge,60
cheer,61
cheers,62
childish,63
children,64
chinaâ,65
chit,66
chrisyoungmusic,67
clean,68
clear,69
clegg,70
coincidence,71
comes,72
comfort,73
commits,74
constantly,75
convergence,76
convert,77
cooper,78
core,79
country,80
cover,81
coz,82
crashed,83
critically,84
crow,85
curie,86
cut,87
cuz,88
david_cameron,89
day,90
days,91
decapitating,92
deeeeezyparsedtwodigits,93
dem,94
demolished,95
dentist,96
depose,97
did,98
difficult,99
directions,100
dislike,101
donald,102
donation,103
door,104
drinking,105
driving,106
drowning,107
effectively,108
eid,109
election,110
ells,111
ellsbury,112
engvind,113
enjoy,114
epic,115
eradicate,116
ethics,117
exploit,118
facebook,119
fans,120
fantastic,121
fascism,122
faster,123
field,124
fifa,125
flights,126
floods,127
fo,128
folkâ,129
follow,130
forged,131
forgoes,132
forgot,133
founder,134
fucking,135
funny,136
gauhar,137
gaza,138
gej,139
genocide,140
getright,141
ggreenwald,142
girl,143
giving,144
god,145
goes,146
going,147
good,148
gop,149
gorgeous,150
got,151
government,152
granitestudio,153
grants,154
greatestâ,155
guns,156
guy,157
guys,158
hackers,159
hahahaha,160
hashtags,161
hate,162
hates,163
having,164
hayleighmarieox,165
health,166
heartbleed,167
heat,168
highway,169
hilarious,170
hope,171
hot,172
htsjlparsedonedigittywe,173
http,174
https,175
huffpostweird,176
ice,177
icezia,178
ichabod,179
illdrinktothat,180
illegalamnesty,181
illiteracy,182
immunity,183
independence,184
india,185
indian,186
injured,187
insecure,188
instead,189
interested,190
internet,191
invented,192
iparsedtwodigitsnews_en,193
irony,194
ironydeficiency,195
ironylevelparsedfourdigits,196
ironyunlimited,197
ironyunmistakable,198
isparsedonedigitthe,199
israel,200
jaya,201
jesuischarlie,202
jesus,203
jfpparsedonedigiterbozx,204
job,205
judge,206
judged,207
just,208
kate,209
katomart,210
keepin,211
kenya,212
keurig,213
khan,214
kharkiv,215
khilafahparsedthreedigits,216
kindle,217
king,218
kingobama,219
lately,220
laughing,221
life,222
line,223
listening,224
literacy,225
lives,226
ll,227
lobby,228
longer,229
lost,230
louisck,231
loves,232
lt,233
lupita,234
machine,235
make,236
malaysian,237
marie,238
marvelously,239
marvins,240
mary,241
mate,242
maya,243
mean,244
media,245
mexico,246
minute,247
missing,248
morning,249
mother,250
mouths,251
movie,252
msy,253
mt,254
murdered,255
muslims,256
naijanerd,257
nation,258
new,259
nice,260
nick,261
nigga,262
noah,263
nocricket,264
nyong,265
oblivion,266
odi,267
office,268
officially,269
okay,270
omeisy,271
ones,272
onparsedonedigitmeal,273
oparsedonedigitgqiaarbf,274
options,275
otbewggbtj,276
overload,277
parseddigits,278
parsedonedigit,279
parsedonedigitgntibiqei,280
parsedonedigitst,281
parsedonedigituvphqlparsedtwodigitsx,282
parsedthreedigits,283
parsedtwodigits,284
parsedtwodigitsk,285
passed,286
people,287
performance,288
plan,289
point,290
politics,291
poor,292
poorest,293
posting,294
postponement,295
pretty,296
pro,297
probably,298
program,299
proposition,300
puffing,301
qpparsedonedigitbsparsedonedigitehye,302
queen,303
quick,304
random,305
rascalflatts,306
real,307
really,308
rebuild,309
recently,310
regret,311
reliable,312
relies,313
religion,314
reopened,315
republican,316
response,317
return,318
rich,319
richer,320
rob,321
robbed,322
roll,323
rooting,324
roryhaynesparsedfourdigits,325
royals,326
rt,327
rule,328
running,329
russia,330
sad,331
said,332
sawston,333
says,334
screening,335
search,336
seen,337
sellout,338
sells,339
service,340
set,341
shots,342
shouting,343
shuts,344
sick,345
silently,346
simple,347
size,348
skin,349
sleepyhollow,350
smart,351
smile,352
spending,353
stalking,354
stand,355
start,356
state,357
states,358
stay,359
sterling,360
straight,361
style,362
subtweeting,363
supplements,364
sure,365
surely,366
talking,367
tanvirsalimparsedonedigit,368
targeted,369
tattooed,370
team,371
tearing,372
thailand,373
theater,374
thebachelorette,375
thetimes,376
thing,377
think,378
thugs,379
timing,380
tire,381
today,382
tomorrow,383
touch,384
tparsedonedigitqanimpic,385
tragic,386
transforms,387
traviscjohnsonparsedonedigit,388
try,389
trying,390
tweet,391
twitter,392
typed,393
ukraine,394
unfortunate,395
universal,396
university,397
unlike,398
usa,399
use,400
using,401
value,402
ve,403
voice,404
walked,405
wanting,406
warns,407
watching,408
waze,409
wbjparsedonedigititmvhd,410
website,411
week,412
weekend,413
whilst,414
wifi,415
womb,416
women,417
wonder,418
work,419
world,420
wouldn,421
wounded,422
wow,423
wvraman,424
yahoonews,425
yankees,426
yell,427
yoof,428
zaxjepteparsedtwodigits,429
zumrfyparsedonedigitdci,430
ðÿ,431
œforeignersâ,432
œgod,433
