abandoned,0
ability,1
able,2
about,3
above,4
abroad,5
abrogated,6
absolutely,7
absurd,8
abundance,9
abuse,10
abused,11
abuses,12
accept,13
acceptable,14
acceptance,15
accepted,16
access,17
accident,18
accidents,19
acclimatized,20
according,21
account,22
accountable,23
accrued,24
accuracy,25
accurate,26
accusations,27
accusing,28
accutane,29
acid,30
acidparsedonedigit,31
acorn,32
act,33
acting,34
action,35
actions,36
activated,37
active,38
activist,39
activities,40
activity,41
actor,42
acts,43
actual,44
actuality,45
actually,46
ad,47
adapt,48
adapted,49
add,50
added,51
adding,52
addition,53
additionally,54
address,55
addressed,56
adhd,57
admin,58
administration,59
administrative,60
admires,61
admission,62
admitted,63
adobe,64
adopt,65
ads,66
advance,67
advanced,68
advancing,69
advantage,70
advertising,71
aeroflop,72
aeroflot,73
affairs,74
affect,75
affected,76
afford,77
afghanistan,78
afraid,79
africa,80
after,81
afternoon,82
again,83
against,84
age,85
aged,86
agencies,87
agency,88
agenda,89
agendas,90
agents,91
aggressive,92
agm,93
ago,94
agree,95
agreeing,96
agriculture,97
ahaha,98
ahh,99
ahhhhhhhhhhhhhhhhhhhhhhhhhhhhhhhhhhhhhhhhhhhhhhhhhhhhh,100
aid,101
aids,102
aim,103
air,104
airplane,105
aka,106
al,107
alaska,108
album,109
alcohol,110
alert,111
ales,112
alex,113
alexx,114
alittle,115
all,116
alliance,117
allied,118
allies,119
allow,120
allowed,121
allowing,122
allows,123
almost,124
alone,125
along,126
alot,127
already,128
also,129
alternate,130
alternative,131
although,132
always,133
am,134
amazes,135
amazing,136
amazingly,137
ambulances,138
america,139
american,140
americans,141
ammunition,142
amnesty,143
amount,144
amp,145
amtrak,146
an,147
ana,148
analogies,149
analyzed,150
and,151
andrew,152
angeles,153
anger,154
angle,155
animal,156
animals,157
ankle,158
annoyances,159
annoying,160
annul,161
another,162
answer,163
answering,164
anti,165
antiquated,166
antiwar,167
any,168
anymore,169
anyone,170
anything,171
anytime,172
anyway,173
anywhere,174
apart,175
aphrodite,176
apocalypse,177
apologize,178
apology,179
apostrophe,180
app,181
appalled,182
apparently,183
appeal,184
appearance,185
appears,186
appetite,187
apple,188
applied,189
apply,190
appreciate,191
approach,192
approaching,193
approval,194
apps,195
april,196
aprobation,197
apt,198
arab,199
arabia,200
arabians,201
archie,202
architechts,203
are,204
area,205
aren,206
argue,207
arguing,208
argument,209
arizona,210
arlington,211
arms,212
around,213
array,214
arrested,215
arrestee,216
arresting,217
arrow,218
article,219
articles,220
artificial,221
artificially,222
artsy,223
as,224
ascii,225
ashamed,226
ashcroft,227
aside,228
ask,229
asks,230
asm,231
aspen,232
ass,233
assaulting,234
assembly,235
assertion,236
assessments,237
assets,238
assholes,239
associate,240
assume,241
assuming,242
assure,243
asterisked,244
asthma,245
astounds,246
at,247
atm,248
atmospheric,249
atom,250
atomic,251
attached,252
attack,253
attacked,254
attacking,255
attacks,256
attatched,257
attempt,258
attention,259
aud,260
audience,261
authentication,262
author,263
authority,264
authorized,265
authorizes,266
authors,267
auto,268
automatically,269
automation,270
available,271
average,272
avoid,273
avoidance,274
avoided,275
avowed,276
award,277
awards,278
aware,279
away,280
awesome,281
awesoome,282
awkward,283
awol,284
ayway,285
az,286
babe,287
baby,288
back,289
background,290
backs,291
backwards,292
bacon,293
bacteria,294
bad,295
badass,296
badly,297
bag,298
bags,299
bail,300
bailout,301
bailouts,302
baiting,303
balances,304
bale,305
ball,306
balloon,307
balls,308
ballz,309
ban,310
bands,311
bandwagon,312
bandwidth,313
bank,314
bankers,315
banking,316
banks,317
banned,318
banner,319
banning,320
bans,321
bar,322
barbarians,323
barely,324
bargain,325
barracks,326
barrel,327
barry,328
base,329
baseball,330
based,331
basement,332
basic,333
basically,334
basics,335
basis,336
bastard,337
bastardizing,338
batshit,339
batteries,340
battery,341
bbc,342
be,343
beach,344
bear,345
beat,346
beatings,347
beautiful,348
because,349
become,350
becomes,351
becoming,352
bed,353
been,354
beer,355
beers,356
beethoven,357
before,358
begets,359
begin,360
begining,361
behave,362
behaves,363
behind,364
beholden,365
being,366
believe,367
believes,368
bell,369
belly,370
below,371
belt,372
belts,373
bench,374
benefits,375
benifits,376
benign,377
benjamin,378
bent,379
benz,380
besides,381
best,382
bested,383
bestiality,384
bet,385
beta,386
betcha,387
bethesda,388
better,389
between,390
beyond,391
bible,392
bidgtls,393
biff,394
big,395
bigger,396
biggest,397
bill,398
billion,399
billions,400
bird,401
bisexual,402
bit,403
bitch,404
bitching,405
bite,406
bittorent,407
bj,408
black,409
blackface,410
blacklabelsar,411
blame,412
blamed,413
blanks,414
blast,415
bleed,416
blemish,417
blessed,418
blew,419
blind,420
blindly,421
bliss,422
bll,423
blog,424
blogs,425
blogspam,426
bloom,427
blow,428
blowhards,429
blue,430
blurred,431
board,432
boat,433
boating,434
boatload,435
bobby,436
bodies,437
body,438
bogus,439
bollocks,440
bomb,441
bombing,442
bombula,443
boner,444
bong,445
bonus,446
book,447
bookmarked,448
books,449
bored,450
borg,451
borne,452
boss,453
bosworth,454
both,455
bother,456
bothered,457
bottle,458
bought,459
bounce,460
bounds,461
bovine,462
bowtie,463
box,464
boy,465
bparsedtwodigitsm,466
brad,467
bragged,468
brain,469
brains,470
brake,471
brandon,472
brave,473
braves,474
break,475
breaking,476
breaks,477
breakthroughs,478
breeding,479
brewers,480
bribe,481
brick,482
briefcase,483
briefly,484
bright,485
bring,486
bringing,487
brings,488
broke,489
broken,490
bros,491
brother,492
brothers,493
browser,494
browsers,495
bs,496
btw,497
bubble,498
bubbles,499
buchanan,500
bucks,501
budget,502
buffet,503
bug,504
buggers,505
build,506
builder,507
builders,508
building,509
buildings,510
built,511
bull,512
bullets,513
bullshit,514
bum,515
bumble,516
bunch,517
bundle,518
bunker,519
bureau,520
buried,521
buries,522
burn,523
burried,524
burrito,525
burrying,526
bury,527
bush,528
business,529
bust,530
busted,531
but,532
butt,533
butts,534
buy,535
buyers,536
buying,537
by,538
bypass,539
cabinet,540
cages,541
cali,542
calibrated,543
california,544
call,545
called,546
calls,547
cambodia,548
came,549
camel,550
camera,551
caminiti,552
camp,553
campaign,554
camps,555
can,556
canada,557
canals,558
cancel,559
cancer,560
candles,561
cannabis,562
cannot,563
canseco,564
cant,565
cap,566
capable,567
capitalism,568
capitalization,569
caps,570
captain,571
capture,572
captured,573
car,574
carbon,575
carcinogens,576
card,577
cardinals,578
care,579
career,580
careful,581
cares,582
carry,583
carrying,584
cars,585
cartridge,586
case,587
cases,588
cash,589
cashparsedonedigitgold,590
casual,591
cat,592
catalog,593
catch,594
catechism,595
categorically,596
category,597
catering,598
catholic,599
cats,600
caught,601
cause,602
caused,603
causes,604
celebrity,605
cell,606
cellphones,607
cemetery,608
census,609
cent,610
center,611
centers,612
centigrade,613
centrist,614
cents,615
century,616
ceo,617
certain,618
certainly,619
certified,620
chad,621
chain,622
chairman,623
challenging,624
chance,625
chances,626
change,627
changed,628
changes,629
changing,630
channels,631
character,632
characteristic,633
charge,634
charged,635
charger,636
chargers,637
charges,638
chastise,639
cheap,640
cheaper,641
cheated,642
cheaters,643
cheating,644
check,645
checker,646
cheer,647
cheers,648
chemically,649
cheney,650
cherry,651
chicago,652
chickens,653
chief,654
child,655
childish,656
children,657
chimp,658
china,659
chinese,660
choice,661
choose,662
chosen,663
christ,664
christian,665
christianity,666
christians,667
christmas,668
christopher,669
chuck,670
church,671
cia,672
citations,673
cite,674
cites,675
cities,676
citizen,677
citizens,678
city,679
civil,680
civilians,681
claim,682
claimed,683
claiming,684
claptrap,685
class,686
classes,687
classify,688
claus,689
clause,690
clean,691
cleaned,692
clear,693
clearly,694
clever,695
click,696
climate,697
climber,698
clinton,699
close,700
closed,701
closing,702
clothes,703
cloths,704
cloud,705
clown,706
clownhall,707
clowns,708
club,709
clump,710
clutters,711
coalition,712
cocaine,713
cockmeats,714
cocksuckers,715
codes,716
coherent,717
coincidence,718
coke,719
cokehead,720
colar,721
cold,722
collapse,723
collect,724
collection,725
college,726
colleges,727
colombiano,728
com,729
comcast,730
come,731
comedy,732
comes,733
comfort,734
coming,735
comment,736
commentary,737
commenting,738
comments,739
commercial,740
commericals,741
commit,742
committed,743
common,744
communicate,745
communist,746
communists,747
communities,748
community,749
companies,750
company,751
comparable,752
compared,753
comparison,754
compass,755
compassion,756
compensate,757
compete,758
competent,759
competition,760
competitive,761
complain,762
complaining,763
complains,764
complaints,765
complete,766
completely,767
compliance,768
complicated,769
comprehend,770
comprehension,771
comprised,772
compromise,773
compromised,774
computer,775
concept,776
concerned,777
concerning,778
concerns,779
conclusion,780
conclusive,781
condition,782
conditions,783
conduct,784
conducting,785
confederate,786
confidence,787
confident,788
configuration,789
confirmed,790
confiscated,791
conflict,792
confused,793
congratulations,794
congress,795
connected,796
consensus,797
consequence,798
consequences,799
conservative,800
conservatives,801
consider,802
considerable,803
considered,804
considering,805
consistently,806
console,807
constant,808
constituents,809
constitutes,810
constitution,811
constitutional,812
constitutionality,813
construct,814
constructing,815
construction,816
consumer,817
consumption,818
containing,819
content,820
continually,821
continue,822
continues,823
contracts,824
contradictory,825
contrary,826
contribute,827
contributes,828
contribution,829
control,830
controlled,831
controller,832
controlling,833
controversial,834
controversy,835
conveniently,836
convert,837
converted,838
convicted,839
conviction,840
convictions,841
cool,842
cooler,843
coordination,844
cop,845
coparsedonedigit,846
copies,847
cops,848
copy,849
copying,850
copyright,851
copyrighted,852
copywritten,853
corel,854
cornerstone,855
corollary,856
corporate,857
corporates,858
corporations,859
correct,860
correctly,861
corrupt,862
corruption,863
cost,864
costs,865
couch,866
could,867
couldn,868
counsel,869
counterparts,870
countries,871
country,872
counts,873
county,874
couple,875
coupon,876
course,877
court,878
courtesy,879
cover,880
coverage,881
covers,882
cowsay,883
crack,884
cracked,885
crap,886
crash,887
crashing,888
crate,889
crazy,890
cream,891
create,892
created,893
creating,894
creative,895
creativity,896
creatures,897
credibility,898
credit,899
creed,900
crime,901
crimes,902
criminal,903
criminals,904
critics,905
crook,906
cross,907
crowd,908
crucifixion,909
cry,910
crying,911
cuba,912
cue,913
culprits,914
cult,915
cultural,916
culture,917
cunts,918
cup,919
curb,920
cure,921
curing,922
currency,923
current,924
curry,925
curse,926
curtain,927
curtis,928
curve,929
cut,930
cute,931
cuts,932
cycle,933
cycles,934
cyprots,935
daft,936
dagger,937
daily,938
dal,939
damage,940
damn,941
damned,942
dangerous,943
darcine,944
dark,945
darth,946
darwinism,947
daschle,948
data,949
datum,950
david,951
day,952
days,953
dea,954
dead,955
deaf,956
deal,957
deals,958
dear,959
death,960
deaths,961
debate,962
debated,963
debt,964
december,965
decide,966
decided,967
decimate,968
decision,969
decisions,970
declare,971
declined,972
decrease,973
deep,974
deeper,975
default,976
defective,977
defendent,978
defense,979
deficits,980
defined,981
definitely,982
defunct,983
degrees,984
delete,985
deliberately,986
deliver,987
dell,988
demand,989
demands,990
democratic,991
democrats,992
dems,993
denied,994
denier,995
denis,996
dep,997
department,998
departments,999
depends,1000
deployment,1001
depravity,1002
depreciation,1003
depression,1004
deprogrammed,1005
deserves,1006
deserving,1007
design,1008
desirable,1009
desire,1010
desks,1011
desperate,1012
desperately,1013
despite,1014
destroy,1015
destroyed,1016
destroying,1017
destruction,1018
detail,1019
detective,1020
determined,1021
detour,1022
devalue,1023
developer,1024
development,1025
devious,1026
devised,1027
devoted,1028
dhs,1029
diagnosed,1030
dialing,1031
dick,1032
dickhead,1033
dickwad,1034
did,1035
didn,1036
didnt,1037
die,1038
difference,1039
different,1040
difficult,1041
difficulties,1042
dig,1043
digg,1044
digger,1045
diggers,1046
digging,1047
diggs,1048
digital,1049
diminutive,1050
dimona,1051
dinosaur,1052
directed,1053
direction,1054
directors,1055
dirty,1056
disability,1057
disabled,1058
disagree,1059
disappeared,1060
disappointed,1061
discipline,1062
disclosing,1063
discourse,1064
discover,1065
discovered,1066
discrimination,1067
discuss,1068
discussed,1069
discussion,1070
disease,1071
diseases,1072
disgrace,1073
disgusting,1074
disordered,1075
disorders,1076
displayed,1077
disputes,1078
disregard,1079
dissident,1080
distribute,1081
distribution,1082
disturbing,1083
diverging,1084
diversity,1085
do,1086
doable,1087
doccasionally,1088
doccers,1089
doctor,1090
doctors,1091
doctrine,1092
documentaries,1093
documentary,1094
does,1095
doesn,1096
dog,1097
dogs,1098
doing,1099
doings,1100
dollar,1101
dollars,1102
domain,1103
domestic,1104
domesticated,1105
domination,1106
don,1107
done,1108
dont,1109
door,1110
doors,1111
dope,1112
doses,1113
double,1114
doubt,1115
douche,1116
dough,1117
down,1118
downey,1119
download,1120
downloading,1121
downloads,1122
dozen,1123
dr,1124
draino,1125
drastic,1126
draw,1127
drawer,1128
dream,1129
dress,1130
drink,1131
drinker,1132
drinking,1133
drinks,1134
drive,1135
drivel,1136
driven,1137
driver,1138
drives,1139
driving,1140
drm,1141
drop,1142
dropped,1143
dropping,1144
drug,1145
drugs,1146
drumroll,1147
drunk,1148
dry,1149
ds,1150
dtv,1151
dude,1152
due,1153
dugg,1154
dumb,1155
dumber,1156
dumbs,1157
dumbya,1158
dump,1159
dunno,1160
duplicate,1161
duplicates,1162
during,1163
dust,1164
duty,1165
dvd,1166
each,1167
eager,1168
earc,1169
early,1170
earmark,1171
earnings,1172
earth,1173
easier,1174
easily,1175
easy,1176
eat,1177
ebonics,1178
ebooks,1179
echelons,1180
eclectic,1181
economic,1182
economics,1183
economists,1184
economy,1185
ed,1186
edit,1187
editor,1188
edmonds,1189
educated,1190
eeepc,1191
effect,1192
effective,1193
effects,1194
efficiency,1195
effort,1196
eg,1197
ego,1198
egypt,1199
ehhhhh,1200
eight,1201
either,1202
elected,1203
election,1204
electric,1205
electrical,1206
electronic,1207
elementary,1208
eligible,1209
eliminating,1210
else,1211
em,1212
email,1213
embargo,1214
embarrass,1215
embarrassment,1216
embarrassments,1217
eminem,1218
emissions,1219
emmanuel,1220
emotional,1221
employed,1222
employees,1223
empty,1224
encounter,1225
encourage,1226
encourages,1227
end,1228
ending,1229
endorsed,1230
ends,1231
energy,1232
enforced,1233
enforcement,1234
engine,1235
english,1236
enhanced,1237
enhancement,1238
enjoy,1239
enjoyed,1240
enough,1241
enron,1242
enthusiasm,1243
entire,1244
entirely,1245
entrenched,1246
enviro,1247
environment,1248
ep,1249
episode,1250
equal,1251
equally,1252
equals,1253
equation,1254
equipment,1255
equivalent,1256
er,1257
erase,1258
ericsccparsedonedigitdemocrats,1259
erode,1260
errands,1261
errors,1262
escape,1263
especially,1264
essentially,1265
established,1266
estimate,1267
et,1268
etc,1269
ethics,1270
ethnic,1271
etiquette,1272
europeans,1273
evaporate,1274
evasion,1275
even,1276
eventually,1277
ever,1278
every,1279
everybody,1280
everyone,1281
everything,1282
everywhere,1283
evidence,1284
evidently,1285
evil,1286
evolution,1287
ex,1288
exact,1289
exacting,1290
exactly,1291
examined,1292
example,1293
examples,1294
excellent,1295
except,1296
exceptional,1297
excesses,1298
excessive,1299
excuse,1300
execs,1301
executable,1302
executive,1303
executives,1304
exhausted,1305
exist,1306
existed,1307
existing,1308
exists,1309
expectations,1310
expected,1311
expecting,1312
expense,1313
expensive,1314
experience,1315
experiments,1316
explain,1317
explains,1318
explanation,1319
exploded,1320
explodes,1321
export,1322
exposed,1323
exposes,1324
express,1325
extended,1326
exterminated,1327
extinct,1328
extra,1329
extras,1330
extreme,1331
extremely,1332
extremes,1333
eye,1334
eyes,1335
fa,1336
face,1337
facebook,1338
facepalm,1339
facilities,1340
facility,1341
fact,1342
factors,1343
facts,1344
factually,1345
fag,1346
faggot,1347
fags,1348
fail,1349
failed,1350
failing,1351
fails,1352
failure,1353
fair,1354
fairly,1355
fake,1356
fallacy,1357
falls,1358
families,1359
family,1360
fan,1361
fanboy,1362
fancy,1363
fannie,1364
fans,1365
fantastic,1366
fantasy,1367
fantatics,1368
far,1369
fares,1370
farfromperfectx,1371
farm,1372
farms,1373
fashion,1374
fast,1375
fastball,1376
faster,1377
fastest,1378
fat,1379
fathers,1380
fatigue,1381
fault,1382
fauna,1383
faux,1384
favor,1385
favorite,1386
fbi,1387
fear,1388
fears,1389
feasible,1390
feature,1391
features,1392
featuring,1393
feb,1394
fed,1395
federal,1396
fedex,1397
feed,1398
feeds,1399
feel,1400
feeling,1401
feels,1402
feet,1403
felines,1404
fella,1405
fellow,1406
felon,1407
felonies,1408
felt,1409
fema,1410
female,1411
fertility,1412
fertilization,1413
few,1414
fewer,1415
ff,1416
ffs,1417
fiction,1418
field,1419
fight,1420
fighting,1421
fights,1422
figure,1423
figured,1424
figuring,1425
file,1426
filetype,1427
filing,1428
fill,1429
filled,1430
fillion,1431
film,1432
filters,1433
final,1434
financial,1435
find,1436
finding,1437
fine,1438
fing,1439
finger,1440
fire,1441
firearm,1442
firearms,1443
firebugs,1444
firefox,1445
firetrucks,1446
firm,1447
first,1448
fiscal,1449
fish,1450
five,1451
fix,1452
fl,1453
flash,1454
flashing,1455
flattery,1456
flavored,1457
flood,1458
flooded,1459
floor,1460
flowers,1461
fly,1462
flyballs,1463
flying,1464
focus,1465
folks,1466
follow,1467
following,1468
food,1469
fool,1470
foolish,1471
fools,1472
football,1473
footprint,1474
for,1475
force,1476
forced,1477
forces,1478
forcing,1479
ford,1480
forecefully,1481
forehead,1482
foreign,1483
forensic,1484
forever,1485
forfeit,1486
forget,1487
forgive,1488
forklift,1489
forks,1490
form,1491
format,1492
formats,1493
former,1494
fortunately,1495
forums,1496
forward,1497
fought,1498
foul,1499
found,1500
founding,1501
four,1502
fox,1503
foxit,1504
fp,1505
fparsedonedigit,1506
frame,1507
franklin,1508
fraud,1509
freak,1510
freakin,1511
freddie,1512
free,1513
freedom,1514
freely,1515
frequently,1516
fridayparsedfourdigits,1517
friend,1518
friends,1519
from,1520
front,1521
frost,1522
fuck,1523
fucked,1524
fuckin,1525
fucking,1526
fucktard,1527
fuel,1528
fulfill,1529
full,1530
fully,1531
fun,1532
function,1533
fundamental,1534
funding,1535
fungi,1536
fungieparsedonedigit,1537
funnier,1538
funny,1539
furious,1540
furnish,1541
further,1542
future,1543
futuregen,1544
futuristic,1545
fuuuuuuuuuuuuuuuuuuuuuuuuuuuuuuuckwatch,1546
fuzzy,1547
gaiden,1548
gained,1549
gains,1550
galaxy,1551
gallon,1552
gamble,1553
game,1554
games,1555
gamevee,1556
gaming,1557
gaqua,1558
gas,1559
gate,1560
gates,1561
gather,1562
gave,1563
gay,1564
gbvista,1565
gdp,1566
gee,1567
geek,1568
geeze,1569
generalizing,1570
generally,1571
generated,1572
generation,1573
genitalia,1574
genius,1575
genuine,1576
geoblocking,1577
german,1578
germans,1579
germany,1580
gestapo,1581
get,1582
gets,1583
getting,1584
getup,1585
giants,1586
gift,1587
gifts,1588
gin,1589
girl,1590
girls,1591
give,1592
given,1593
gives,1594
giving,1595
glad,1596
glasses,1597
glitz,1598
global,1599
globe,1600
glove,1601
glowing,1602
gm,1603
gmail,1604
gneural,1605
go,1606
goal,1607
goat,1608
goatee,1609
god,1610
goddamn,1611
godwin,1612
goes,1613
going,1614
gold,1615
golden,1616
goldmine,1617
gone,1618
gonna,1619
good,1620
goods,1621
google,1622
gop,1623
gorilla,1624
got,1625
gotta,1626
governed,1627
government,1628
grabber,1629
grad,1630
graduate,1631
grammar,1632
grand,1633
granny,1634
granted,1635
graphic,1636
grasp,1637
grateful,1638
great,1639
greatest,1640
greed,1641
greedy,1642
green,1643
greeter,1644
gregg,1645
grievance,1646
gross,1647
ground,1648
group,1649
groups,1650
grow,1651
growing,1652
grown,1653
grows,1654
gsp,1655
guard,1656
guess,1657
guilty,1658
guitar,1659
gulag,1660
gun,1661
guns,1662
guy,1663
guys,1664
ha,1665
habit,1666
hack,1667
hackers,1668
hacks,1669
had,1670
hah,1671
haha,1672
hahah,1673
hahahahaha,1674
hailed,1675
haircut,1676
half,1677
hall,1678
hamas,1679
hammer,1680
hand,1681
handed,1682
handicapped,1683
handle,1684
handles,1685
handling,1686
hang,1687
hannah,1688
happen,1689
happened,1690
happening,1691
happens,1692
happily,1693
happiness,1694
happy,1695
harbinger,1696
harbor,1697
harboring,1698
hard,1699
harder,1700
hardly,1701
hardware,1702
harmful,1703
harmless,1704
harness,1705
harrison,1706
harvard,1707
has,1708
hasn,1709
hat,1710
hate,1711
hated,1712
hatred,1713
have,1714
haven,1715
having,1716
hazard,1717
he,1718
head,1719
headed,1720
headquarters,1721
heads,1722
headshot,1723
health,1724
healthcare,1725
healthier,1726
hear,1727
heard,1728
hearing,1729
heath,1730
heck,1731
hefty,1732
heheh,1733
height,1734
held,1735
helicopter,1736
hell,1737
hello,1738
helluva,1739
helmsley,1740
help,1741
helpful,1742
her,1743
herbs,1744
here,1745
heroes,1746
herpes,1747
hers,1748
hey,1749
hi,1750
hidden,1751
hide,1752
high,1753
higher,1754
highlights,1755
hilarious,1756
hilariously,1757
hill,1758
him,1759
himself,1760
hint,1761
hippocratic,1762
hiring,1763
his,1764
history,1765
hit,1766
hitler,1767
hitters,1768
hmm,1769
hmmm,1770
hold,1771
holder,1772
holding,1773
hole,1774
holes,1775
holocaust,1776
holy,1777
home,1778
homeland,1779
homeless,1780
homers,1781
homerun,1782
hominem,1783
homosexual,1784
homosexuality,1785
homosexuals,1786
honest,1787
honestly,1788
honesty,1789
honey,1790
honored,1791
hook,1792
hooker,1793
hoopla,1794
hooray,1795
hoot,1796
hope,1797
hoping,1798
horizon,1799
horizontal,1800
horrible,1801
horrific,1802
horror,1803
host,1804
hot,1805
hotel,1806
hours,1807
house,1808
houses,1809
housing,1810
how,1811
howard,1812
however,1813
htc,1814
htpc,1815
hubris,1816
huffington,1817
huffingtonpost,1818
huge,1819
human,1820
humanitarian,1821
humanity,1822
hummers,1823
humor,1824
humorous,1825
hundred,1826
hundreds,1827
hungry,1828
hunt,1829
hunter,1830
hurried,1831
hurt,1832
husband,1833
hybrid,1834
hybrids,1835
hype,1836
hypocrisy,1837
hysterical,1838
iajdsiofajsuparsedtwodigitsiparsedfivedigits,1839
ianal,1840
iasoparsedfourdigits,1841
icbms,1842
ice,1843
iceberg,1844
icon,1845
idea,1846
ideal,1847
ideals,1848
ideas,1849
identity,1850
ideology,1851
idiot,1852
idiotic,1853
idiots,1854
if,1855
ifpa,1856
ignorance,1857
ignored,1858
ignoring,1859
ii,1860
ilk,1861
illegal,1862
illinois,1863
illness,1864
illnesses,1865
im,1866
image,1867
imaginary,1868
imagine,1869
imho,1870
immigrants,1871
immortal,1872
immune,1873
immunity,1874
impact,1875
impartial,1876
impending,1877
implement,1878
implemented,1879
import,1880
important,1881
impose,1882
impossible,1883
impressive,1884
improvement,1885
in,1886
inaccuracy,1887
inaccurate,1888
inch,1889
inciting,1890
inclination,1891
include,1892
including,1893
incoherent,1894
income,1895
incoming,1896
inconvenienced,1897
incorrect,1898
increase,1899
increased,1900
increases,1901
increasingly,1902
incredible,1903
incredibly,1904
incumbents,1905
indeed,1906
indefinitely,1907
independent,1908
indian,1909
indians,1910
indication,1911
individual,1912
individuals,1913
induces,1914
inducing,1915
industrial,1916
industry,1917
ineligible,1918
infamous,1919
infection,1920
infections,1921
inflation,1922
influence,1923
influences,1924
info,1925
information,1926
informative,1927
informed,1928
infrastructure,1929
infringe,1930
ing,1931
inhaling,1932
inhofe,1933
initiative,1934
initiatives,1935
injure,1936
injured,1937
injury,1938
innings,1939
innnovators,1940
innocent,1941
innovation,1942
input,1943
insane,1944
insecure,1945
insecurities,1946
insignificantly,1947
insinuation,1948
inspections,1949
inspiring,1950
install,1951
installation,1952
installations,1953
installment,1954
instant,1955
instantly,1956
instead,1957
instinct,1958
institute,1959
institutes,1960
institution,1961
insult,1962
insurance,1963
int,1964
integrate,1965
intelligence,1966
intelligent,1967
intelligentsia,1968
intend,1969
intended,1970
intense,1971
intensity,1972
interception,1973
interdependent,1974
interest,1975
interested,1976
interesting,1977
internal,1978
internet,1979
internets,1980
interpretation,1981
interventionist,1982
interview,1983
into,1984
intoxicated,1985
intrepidia,1986
intrinsic,1987
intro,1988
introduced,1989
invade,1990
invaluable,1991
invented,1992
invest,1993
investigate,1994
investigated,1995
investigating,1996
investigation,1997
investigations,1998
investment,1999
invisible,2000
invoked,2001
involved,2002
involvement,2003
involves,2004
iparsedthreedigits,2005
iphone,2006
ipod,2007
iq,2008
iran,2009
irish,2010
irrational,2011
irrelevant,2012
irrelevent,2013
irresponsible,2014
irvine,2015
is,2016
ish,2017
islam,2018
islamic,2019
isn,2020
isnt,2021
isps,2022
israel,2023
issue,2024
it,2025
its,2026
itself,2027
ivy,2028
ixam,2029
ixquick,2030
jack,2031
jackals,2032
jackass,2033
jacket,2034
jail,2035
january,2036
japan,2037
japanese,2038
jefferson,2039
jenkees,2040
jessica,2041
jesus,2042
jesusneverexisted,2043
jewish,2044
jews,2045
jfc,2046
jimmy,2047
jinandjuice,2048
job,2049
jobs,2050
jogging,2051
john,2052
join,2053
joined,2054
joke,2055
jokes,2056
jolly,2057
jon,2058
joomla,2059
journalist,2060
jr,2061
judge,2062
judging,2063
jumbo,2064
jump,2065
june,2066
junk,2067
jury,2068
just,2069
justice,2070
justices,2071
justification,2072
justify,2073
justifying,2074
kanye,2075
karl,2076
kate,2077
katt,2078
kde,2079
keep,2080
keepers,2081
keeps,2082
keg,2083
kegs,2084
ken,2085
kennedy,2086
kenneth,2087
kept,2088
kerrigore,2089
ketchup,2090
kevin,2091
key,2092
keyboard,2093
keynesianism,2094
kick,2095
kicked,2096
kicks,2097
kid,2098
kidd,2099
kidding,2100
kids,2101
kiiiiiinda,2102
kill,2103
killed,2104
killer,2105
killing,2106
killings,2107
kills,2108
kimmel,2109
kind,2110
kinda,2111
kindergarten,2112
kindle,2113
kingdom,2114
kinseyincanada,2115
kkk,2116
knew,2117
know,2118
knowing,2119
knowingly,2120
knowledge,2121
known,2122
knows,2123
kool,2124
koranimals,2125
korea,2126
kotaku,2127
krause,2128
krazy,2129
kroeger,2130
krugman,2131
kyl,2132
lab,2133
label,2134
labor,2135
labyrinth,2136
laced,2137
lack,2138
laffer,2139
laid,2140
lake,2141
lamb,2142
land,2143
language,2144
lantern,2145
lap,2146
large,2147
largely,2148
larry,2149
lasers,2150
last,2151
lastly,2152
late,2153
lately,2154
later,2155
laugh,2156
laughable,2157
laughing,2158
launched,2159
laundry,2160
law,2161
lawn,2162
laws,2163
lawyers,2164
lay,2165
layer,2166
laying,2167
layoff,2168
ld,2169
leach,2170
leaches,2171
lead,2172
leaders,2173
leadership,2174
league,2175
leaked,2176
leaps,2177
learn,2178
learned,2179
lease,2180
leash,2181
least,2182
leave,2183
ledger,2184
leeds,2185
leet,2186
left,2187
lefties,2188
leftist,2189
leftost,2190
legal,2191
legalize,2192
legalized,2193
legally,2194
legislation,2195
legislative,2196
legit,2197
lego,2198
legs,2199
lemur,2200
lenders,2201
lends,2202
leona,2203
leopard,2204
lesbians,2205
less,2206
lest,2207
let,2208
lets,2209
letter,2210
letting,2211
level,2212
levels,2213
li,2214
liar,2215
libel,2216
liberal,2217
liberation,2218
liberties,2219
libraries,2220
libs,2221
licencing,2222
license,2223
licensed,2224
lie,2225
lies,2226
life,2227
lift,2228
light,2229
like,2230
likely,2231
likeness,2232
lil,2233
limited,2234
line,2235
lines,2236
link,2237
linked,2238
links,2239
list,2240
listen,2241
listened,2242
listening,2243
lists,2244
literal,2245
literate,2246
little,2247
live,2248
lives,2249
living,2250
ll,2251
load,2252
loan,2253
local,2254
localization,2255
locked,2256
log,2257
logic,2258
logon,2259
lol,2260
lold,2261
long,2262
longer,2263
longstanding,2264
look,2265
looking,2266
looks,2267
loose,2268
lord,2269
los,2270
lose,2271
loser,2272
loses,2273
losing,2274
loss,2275
losses,2276
lost,2277
lot,2278
lots,2279
love,2280
loved,2281
loveless,2282
lovelyness,2283
loves,2284
low,2285
lowcountry,2286
lower,2287
lowered,2288
lowering,2289
loyola,2290
luck,2291
lump,2292
lunch,2293
lures,2294
lying,2295
lyrics,2296
mac,2297
macbook,2298
macbooks,2299
machine,2300
machines,2301
macintosh,2302
made,2303
mae,2304
magnificent,2305
mail,2306
main,2307
maine,2308
mainstream,2309
major,2310
majoring,2311
majority,2312
make,2313
makers,2314
makes,2315
making,2316
malaria,2317
male,2318
malfunctioning,2319
malls,2320
man,2321
managed,2322
management,2323
mandated,2324
maniac,2325
manifesto,2326
manipulating,2327
mantra,2328
manual,2329
manufacture,2330
manufacturers,2331
manufacturing,2332
many,2333
marching,2334
marginal,2335
marginalizing,2336
margins,2337
marijuana,2338
mario,2339
market,2340
marketing,2341
marq,2342
marriage,2343
marriages,2344
married,2345
marry,2346
marshalls,2347
martinez,2348
marxism,2349
marxists,2350
maryland,2351
mash,2352
mass,2353
massively,2354
master,2355
mate,2356
material,2357
math,2358
matter,2359
matters,2360
mattoon,2361
maximum,2362
may,2363
maybe,2364
mayer,2365
mayor,2366
mba,2367
mccain,2368
mcdonalds,2369
mcmansions,2370
me,2371
mead,2372
mean,2373
meanie,2374
means,2375
meant,2376
measurement,2377
mechanical,2378
media,2379
medical,2380
medication,2381
medications,2382
medicine,2383
meet,2384
meh,2385
mel,2386
melbourne,2387
members,2388
membership,2389
meme,2390
memorization,2391
men,2392
mental,2393
mentality,2394
mentally,2395
mention,2396
mentioned,2397
merch,2398
merdieselnail,2399
merely,2400
message,2401
messed,2402
messiuh,2403
meth,2404
methanol,2405
method,2406
methods,2407
mets,2408
mexican,2409
mexico,2410
michael,2411
microbiology,2412
microcosim,2413
microorganism,2414
microsoft,2415
mid,2416
middle,2417
might,2418
mighty,2419
mike,2420
miknarf,2421
mile,2422
mileage,2423
military,2424
milk,2425
million,2426
millionaire,2427
millions,2428
mind,2429
minded,2430
mine,2431
minerals,2432
mini,2433
minimal,2434
minimizes,2435
minimum,2436
minnesota,2437
minor,2438
minority,2439
minute,2440
minutes,2441
miracle,2442
miserable,2443
misguided,2444
misinterpret,2445
misleading,2446
misrepresenting,2447
miss,2448
missed,2449
missing,2450
mistake,2451
mistaken,2452
mix,2453
mmm,2454
moan,2455
moans,2456
mob,2457
mobile,2458
model,2459
modern,2460
mom,2461
moms,2462
monarchy,2463
money,2464
mongers,2465
monitor,2466
monster,2467
montana,2468
month,2469
months,2470
mootools,2471
moral,2472
morality,2473
morally,2474
morals,2475
more,2476
mormon,2477
moron,2478
morons,2479
mortgage,2480
most,2481
mother,2482
motherfuckers,2483
motion,2484
motivation,2485
motivations,2486
motive,2487
motofone,2488
move,2489
moved,2490
movement,2491
moveon,2492
movie,2493
moving,2494
mowe,2495
mozart,2496
mpaa,2497
mpparsedonedigit,2498
mrbabyman,2499
ms,2500
muahahahahaha,2501
much,2502
muck,2503
mud,2504
muhammad,2505
mumbai,2506
mumbo,2507
murder,2508
murdered,2509
murderous,2510
music,2511
muslim,2512
muslims,2513
must,2514
my,2515
myself,2516
mystery,2517
nah,2518
nail,2519
nailed,2520
naive,2521
name,2522
named,2523
narcotics,2524
nasa,2525
nathan,2526
nation,2527
national,2528
nationalist,2529
nationalization,2530
nationalized,2531
nationhood,2532
nations,2533
natives,2534
natural,2535
naturally,2536
nature,2537
nazi,2538
near,2539
necessarily,2540
necessary,2541
need,2542
needed,2543
needs,2544
neely,2545
negate,2546
negative,2547
negligible,2548
neighborhoods,2549
neighbors,2550
neither,2551
neo,2552
nes,2553
net,2554
network,2555
networks,2556
never,2557
new,2558
news,2559
newspapers,2560
next,2561
ng,2562
nice,2563
niconiconico,2564
nietzsche,2565
night,2566
nightmare,2567
nine,2568
ninja,2569
nintendo,2570
nite,2571
no,2572
nobel,2573
noble,2574
nobodies,2575
nobody,2576
nominees,2577
non,2578
nonconformist,2579
none,2580
noob,2581
noooooo,2582
nor,2583
normal,2584
normally,2585
north,2586
northwatuppa,2587
norton,2588
nose,2589
not,2590
note,2591
nothing,2592
nothingness,2593
nothings,2594
notice,2595
notting,2596
noumuon,2597
noun,2598
novels,2599
now,2600
nowhere,2601
nuke,2602
number,2603
numbers,2604
nut,2605
nutcases,2606
nuts,2607
nvidia,2608
nwo,2609
o_parsedonedigit,2610
oak,2611
oath,2612
obam,2613
obama,2614
object,2615
objectively,2616
obligation,2617
obsolete,2618
obvious,2619
obviously,2620
occasional,2621
occur,2622
occurred,2623
oceanic,2624
of,2625
off,2626
offensive,2627
offer,2628
office,2629
officer,2630
officers,2631
official,2632
officials,2633
often,2634
oh,2635
ohshi,2636
oifdasparsedonedigitifasparsedthreedigits,2637
oil,2638
ok,2639
okay,2640
oklahoma,2641
old,2642
on,2643
once,2644
one,2645
ones,2646
online,2647
only,2648
onto,2649
ooh,2650
ooooooohhhhhhh,2651
op,2652
opelz,2653
open,2654
opens,2655
opera,2656
operating,2657
opinion,2658
opponents,2659
opportunity,2660
oppose,2661
opposed,2662
opposing,2663
oppurtunity,2664
optimal,2665
optimally,2666
options,2667
or,2668
orange,2669
order,2670
ordinary,2671
oregon,2672
oregonian,2673
org,2674
organization,2675
orientation,2676
original,2677
os,2678
osama,2679
oscar,2680
osx,2681
ot,2682
other,2683
others,2684
otherwise,2685
our,2686
ours,2687
ourselves,2688
out,2689
outcome,2690
outer,2691
outright,2692
outrun,2693
outside,2694
over,2695
overall,2696
overhaul,2697
overkill,2698
overload,2699
overpowered,2700
overpriced,2701
overreaction,2702
overtime,2703
overused,2704
owl,2705
own,2706
owner,2707
owners,2708
owning,2709
owns,2710
pack,2711
package,2712
packaging,2713
packed,2714
packet,2715
packing,2716
padded,2717
page,2718
pages,2719
paid,2720
paint,2721
pair,2722
palestinians,2723
palmero,2724
palooza,2725
pandering,2726
paper,2727
parachute,2728
paragraph,2729
parallel,2730
parent,2731
parents,2732
park,2733
parole,2734
parseddigits,2735
parseddigitsjkasdaopd,2736
parsedfivedigits,2737
parsedfourdigits,2738
parsedfourdigitsathlon,2739
parsedfourdigitsoijdf,2740
parsedfourdigitswho,2741
parsedonedigit,2742
parsedonedigitchan,2743
parsedonedigitd,2744
parsedonedigitth,2745
parsedonedigitx,2746
parsedthreedigits,2747
parsedthreedigitskz,2748
parsedthreedigitsmpg,2749
parsedtime,2750
parsedtwodigits,2751
parsedtwodigitss,2752
part,2753
particular,2754
particularly,2755
parties,2756
partisan,2757
parts,2758
party,2759
pass,2760
passed,2761
passenger,2762
passes,2763
passwindow,2764
password,2765
past,2766
pasteurization,2767
patent,2768
patently,2769
path,2770
pathetic,2771
patrick,2772
patriot,2773
paul,2774
pay,2775
paygrade,2776
payment,2777
payments,2778
pays,2779
pc,2780
peace,2781
peaches,2782
pearl,2783
pedantic,2784
pedophiles,2785
peds,2786
peers,2787
pelt,2788
penalty,2789
penance,2790
penises,2791
people,2792
per,2793
percentage,2794
percentages,2795
perception,2796
perfect,2797
perfectly,2798
performed,2799
perhaps,2800
periods,2801
permanence,2802
permissions,2803
perpetuates,2804
person,2805
persona,2806
personal,2807
personality,2808
personally,2809
persons,2810
perversity,2811
pesticides,2812
pet,2813
peter,2814
pets,2815
ph,2816
pharma,2817
phelps,2818
phenomena,2819
phone,2820
phones,2821
photo,2822
photos,2823
phrase,2824
physical,2825
physically,2826
picard,2827
pick,2828
picked,2829
picker,2830
pics,2831
picture,2832
pie,2833
piece,2834
pieces,2835
pile,2836
pills,2837
pilot,2838
pinch,2839
pint,2840
pipe,2841
pirate,2842
pissed,2843
pissing,2844
pistol,2845
pit,2846
pitcher,2847
pitchers,2848
pitches,2849
pitching,2850
pitt,2851
place,2852
placement,2853
placing,2854
plain,2855
plan,2856
plane,2857
planet,2858
planets,2859
planning,2860
plant,2861
plants,2862
platform,2863
platformers,2864
play,2865
played,2866
player,2867
players,2868
playing,2869
pleaded,2870
please,2871
plenty,2872
plug,2873
plural,2874
plurality,2875
plus,2876
pm,2877
pnac,2878
pocket,2879
point,2880
points,2881
poison,2882
poisoning,2883
poisonous,2884
poitier,2885
pole,2886
poles,2887
police,2888
policies,2889
policy,2890
political,2891
politically,2892
politicians,2893
politiciansgo,2894
politics,2895
ponzi,2896
poor,2897
poorer,2898
pop,2899
pope,2900
population,2901
pork,2902
porn,2903
pornography,2904
position,2905
positions,2906
possession,2907
possessive,2908
possible,2909
possibly,2910
post,2911
posted,2912
poster,2913
posters,2914
posting,2915
postponed,2916
pot,2917
potentially,2918
potheads,2919
pounds,2920
power,2921
powerful,2922
powerplant,2923
pox,2924
ppl,2925
practical,2926
practice,2927
practiced,2928
practicing,2929
praise,2930
praying,2931
preaching,2932
precedent,2933
precisely,2934
predators,2935
predicting,2936
preference,2937
preferential,2938
pregnant,2939
preinstalled,2940
premise,2941
preparation,2942
presence,2943
present,2944
presented,2945
preserve,2946
presidency,2947
president,2948
press,2949
presses,2950
presumably,2951
pretend,2952
pretends,2953
pretty,2954
prevent,2955
prevention,2956
price,2957
prices,2958
prick,2959
priest,2960
principles,2961
print,2962
printed,2963
printing,2964
prior,2965
priority,2966
prison,2967
prisoner,2968
prisoners,2969
prisons,2970
privacy,2971
private,2972
privately,2973
privilege,2974
prize,2975
pro,2976
probability,2977
probably,2978
probed,2979
problem,2980
problems,2981
probs,2982
procedures,2983
process,2984
procreate,2985
produce,2986
produced,2987
producer,2988
product,2989
production,2990
productive,2991
products,2992
professional,2993
professionally,2994
professors,2995
profit,2996
profitable,2997
profiteer,2998
program,2999
programs,3000
progress,3001
project,3002
projects,3003
prominent,3004
promise,3005
promised,3006
promotes,3007
promoting,3008
promptly,3009
proof,3010
prop,3011
propaganda,3012
propeller,3013
proper,3014
properly,3015
properties,3016
property,3017
prophet,3018
proponents,3019
proportion,3020
proposed,3021
props,3022
prosecution,3023
prosecutions,3024
prosecutors,3025
prostitue,3026
protect,3027
protecting,3028
protectionism,3029
protectionist,3030
prove,3031
proved,3032
proven,3033
provide,3034
provided,3035
providing,3036
provision,3037
provisions,3038
ps,3039
psa,3040
pseudo,3041
psn,3042
psst,3043
psuedo,3044
psychiatrist,3045
psycho,3046
psychological,3047
psychopathic,3048
public,3049
publicity,3050
publicly,3051
publishing,3052
pubs,3053
pudge,3054
pull,3055
pulled,3056
pulling,3057
punch,3058
pundits,3059
punished,3060
purchases,3061
pure,3062
purse,3063
pursued,3064
pursuits,3065
push,3066
pushed,3067
pussy,3068
pussys,3069
put,3070
puts,3071
putting,3072
puzzle,3073
pv,3074
pyramid,3075
qm,3076
quality,3077
quantities,3078
quantity,3079
quantum,3080
question,3081
questioned,3082
questions,3083
quick,3084
quiet,3085
quit,3086
quite,3087
quote,3088
quoted,3089
qwest,3090
rabbit,3091
race,3092
racism,3093
racist,3094
radiative,3095
radical,3096
radicals,3097
raffled,3098
rafikichi,3099
raging,3100
rahm,3101
raids,3102
rail,3103
raise,3104
raising,3105
rajim,3106
ram,3107
ramen,3108
rampant,3109
ranch,3110
range,3111
ranked,3112
ranking,3113
rant,3114
ranting,3115
rape,3116
rapidly,3117
rarely,3118
rate,3119
rates,3120
rather,3121
rating,3122
rational,3123
raving,3124
ray,3125
razor,3126
re,3127
reaction,3128
read,3129
reader,3130
readers,3131
reading,3132
real,3133
reality,3134
realize,3135
realizing,3136
really,3137
reason,3138
reasonable,3139
reasonably,3140
reasons,3141
recall,3142
receive,3143
received,3144
receives,3145
recent,3146
recently,3147
recession,3148
recipe,3149
recognise,3150
recognize,3151
record,3152
recorded,3153
recording,3154
records,3155
red,3156
redeye,3157
reduce,3158
reduction,3159
reeve,3160
reference,3161
refers,3162
reflected,3163
refreshing,3164
refused,3165
refuses,3166
regard,3167
regarding,3168
regardless,3169
regimes,3170
region,3171
regret,3172
regular,3173
regularly,3174
regulation,3175
rehabilitation,3176
reilly,3177
reinstate,3178
rejected,3179
related,3180
relatively,3181
release,3182
released,3183
relegated,3184
relevant,3185
relief,3186
religion,3187
religious,3188
relying,3189
remained,3190
remains,3191
remaking,3192
remember,3193
reminded,3194
reminds,3195
remorse,3196
removed,3197
render,3198
rendition,3199
renegotiate,3200
renovating,3201
rent,3202
repayment,3203
repeat,3204
replace,3205
replenished,3206
reported,3207
reporters,3208
reports,3209
repost,3210
represent,3211
representation,3212
represents,3213
reproach,3214
republic,3215
republican,3216
republicans,3217
republithug,3218
require,3219
required,3220
rescue,3221
research,3222
reserve,3223
reserved,3224
resign,3225
resin,3226
resort,3227
resource,3228
resources,3229
respect,3230
responding,3231
response,3232
responsibility,3233
responsible,3234
rest,3235
restoration,3236
restoring,3237
restriction,3238
restrictions,3239
results,3240
retard,3241
retarded,3242
retire,3243
retrace,3244
retribution,3245
return,3246
returned,3247
revealing,3248
revenge,3249
revenues,3250
reverse,3251
reversing,3252
reviever,3253
review,3254
reviews,3255
revolution,3256
rewarding,3257
riaa,3258
rib,3259
rich,3260
rick,3261
rid,3262
ridden,3263
ride,3264
ridiculous,3265
rifle,3266
rifles,3267
rig,3268
right,3269
rights,3270
riled,3271
rino,3272
rinse,3273
ripp,3274
rips,3275
rise,3276
rivals,3277
river,3278
road,3279
roar,3280
robbots,3281
robbottodays,3282
robert,3283
robocop,3284
robotfindskitten,3285
robots,3286
robs,3287
rochester,3288
rock,3289
rocks,3290
rocky,3291
rodriguez,3292
roid,3293
role,3294
roll,3295
romance,3296
ron,3297
ronald,3298
room,3299
root,3300
rope,3301
rose,3302
rotate,3303
round,3304
roundup,3305
rove,3306
royalties,3307
rss,3308
rufies,3309
rugburn,3310
ruined,3311
rules,3312
run,3313
runners,3314
running,3315
runs,3316
rural,3317
rush,3318
rushycontin,3319
russian,3320
rustproofing,3321
ruth,3322
ryan,3323
sacrifice,3324
sad,3325
sadly,3326
safari,3327
safely,3328
safety,3329
said,3330
sake,3331
salaries,3332
sales,3333
same,3334
sand,3335
santa,3336
saps,3337
sarc,3338
sarcasm,3339
sarcasmi,3340
sarcastic,3341
sat,3342
satellite,3343
satisfied,3344
saudi,3345
save,3346
saving,3347
saw,3348
say,3349
saying,3350
sayings,3351
says,3352
scale,3353
scam,3354
scandal,3355
scandinavia,3356
scarce,3357
scenario,3358
sceptical,3359
scheme,3360
schiff,3361
scholar,3362
school,3363
schoolgirls,3364
schools,3365
schwarzy,3366
science,3367
scientifically,3368
scientists,3369
scientology,3370
scott,3371
scratching,3372
screen,3373
screwed,3374
sea,3375
search,3376
season,3377
seat,3378
seated,3379
sec,3380
secessionist,3381
second,3382
secondly,3383
seconds,3384
secrecy,3385
secret,3386
secrets,3387
sect,3388
section,3389
sector,3390
secure,3391
secured,3392
security,3393
see,3394
seeing,3395
seem,3396
seemed,3397
seems,3398
seen,3399
seinfeld,3400
seized,3401
self,3402
selfish,3403
sell,3404
selling,3405
sells,3406
semi,3407
sen,3408
senate,3409
send,3410
senior,3411
sense,3412
sensible,3413
sensitivity,3414
sentence,3415
sentencing,3416
sentience,3417
seoul,3418
serendipitous,3419
serious,3420
seriously,3421
server,3422
servers,3423
service,3424
services,3425
set,3426
settings,3427
seven,3428
seventy,3429
several,3430
severe,3431
sewer,3432
sex,3433
sexual,3434
sexually,3435
sexy,3436
sh,3437
shadows,3438
shady,3439
shall,3440
sham,3441
shame,3442
share,3443
shared,3444
shareholders,3445
sharers,3446
sharing,3447
sharks,3448
sharp,3449
sharpton,3450
she,3451
sheesh,3452
sheriff,3453
shi,3454
shift,3455
shiny,3456
ship,3457
shit,3458
shitty,3459
shock,3460
shocking,3461
shoot,3462
shooting,3463
shops,3464
short,3465
shortfall,3466
shot,3467
shotgun,3468
should,3469
shoulders,3470
shouts,3471
shoved,3472
show,3473
showed,3474
showing,3475
shows,3476
shparsedonedigitts,3477
shrek,3478
shut,3479
shuttle,3480
sibel,3481
sick,3482
sickness,3483
sickthoughts,3484
side,3485
sides,3486
sideswiped,3487
sift,3488
sighted,3489
sign,3490
signed,3491
significant,3492
significantly,3493
silence,3494
silk,3495
silly,3496
silver,3497
similar,3498
simple,3499
simply,3500
simpson,3501
simpsons,3502
since,3503
sincerely,3504
single,3505
singular,3506
sir,3507
sirius,3508
site,3509
sites,3510
six,3511
size,3512
skeptical,3513
skews,3514
skill,3515
skirt,3516
slap,3517
slaughters,3518
slavery,3519
sleek,3520
sleep,3521
sleeves,3522
slept,3523
slice,3524
slightest,3525
slinging,3526
slip,3527
slipped,3528
slow,3529
slumdog,3530
slums,3531
small,3532
smallpox,3533
smart,3534
smashing,3535
smells,3536
smithsonian,3537
smoke,3538
smoked,3539
smoking,3540
snake,3541
snakes,3542
snap,3543
sniper,3544
snobby,3545
snoobish,3546
so,3547
soccer,3548
socialblade,3549
socialism,3550
socialist,3551
socially,3552
society,3553
sociopath,3554
socks,3555
sodade,3556
software,3557
sold,3558
soldiers,3559
solution,3560
some,3561
somebody,3562
somehow,3563
someone,3564
someplace,3565
something,3566
sometimes,3567
somewhat,3568
somewhere,3569
sone,3570
song,3571
songs,3572
sony,3573
soon,3574
sooner,3575
sooni,3576
sooo,3577
sore,3578
sorry,3579
sort,3580
sorts,3581
sosa,3582
soul,3583
sound,3584
sounds,3585
soundtrack,3586
sourced,3587
south,3588
soviet,3589
sowell,3590
space,3591
spam,3592
spamming,3593
spar,3594
sparing,3595
spc,3596
speak,3597
speaking,3598
speaks,3599
special,3600
species,3601
specific,3602
specifically,3603
spectre,3604
speech,3605
speed,3606
speedo,3607
spell,3608
spend,3609
spending,3610
spends,3611
spendulous,3612
spent,3613
spewing,3614
spikes,3615
spiral,3616
splains,3617
splicing,3618
split,3619
splitting,3620
spoiled,3621
spoiler,3622
spoils,3623
spoofed,3624
sport,3625
spread,3626
spyware,3627
sqeaking,3628
squad,3629
square,3630
squealing,3631
squirrel,3632
st,3633
staff,3634
stage,3635
stagflation,3636
stand,3637
standard,3638
standards,3639
standing,3640
standpoint,3641
stands,3642
stapp,3643
star,3644
start,3645
started,3646
starting,3647
starts,3648
starve,3649
starving,3650
state,3651
stated,3652
statement,3653
statements,3654
staters,3655
states,3656
static,3657
status,3658
stay,3659
stays,3660
stds,3661
steal,3662
stealing,3663
step,3664
steps,3665
stereotype,3666
stern,3667
steve,3668
stfu,3669
stick,3670
still,3671
stimulates,3672
stimulative,3673
stimulus,3674
stoner,3675
stones,3676
stoning,3677
stop,3678
stopped,3679
store,3680
stored,3681
storeowner,3682
stories,3683
story,3684
straight,3685
strains,3686
strange,3687
strap,3688
straps,3689
streaming,3690
street,3691
streets,3692
strength,3693
stressed,3694
strictly,3695
strike,3696
strikeouts,3697
strikes,3698
string,3699
stripper,3700
strippers,3701
strong,3702
stronger,3703
strparsedonedigitfehe,3704
structure,3705
struggling,3706
stuck,3707
student,3708
students,3709
studied,3710
studies,3711
stuff,3712
stupid,3713
stupidest,3714
style,3715
subconscious,3716
subject,3717
subjugation,3718
submission,3719
submit,3720
submitted,3721
subs,3722
subsidies,3723
subsidise,3724
subsidy,3725
substance,3726
substantially,3727
substitute,3728
subterranean,3729
subtleties,3730
subway,3731
success,3732
successful,3733
such,3734
suck,3735
sucked,3736
sucking,3737
sucks,3738
sudden,3739
sue,3740
sues,3741
suffer,3742
suffered,3743
suggestion,3744
suggests,3745
suicide,3746
suleman,3747
sulphur,3748
sum,3749
summer,3750
sumo,3751
super,3752
superior,3753
superman,3754
supply,3755
support,3756
supported,3757
supporter,3758
supporters,3759
supports,3760
supposed,3761
supposedly,3762
sure,3763
surely,3764
surfaces,3765
surfstang,3766
surpass,3767
surprised,3768
surrender,3769
surrounded,3770
surveying,3771
suspect,3772
suspense,3773
swap,3774
swear,3775
sweat,3776
swig,3777
swinging,3778
swollen,3779
symbol,3780
system,3781
systems,3782
table,3783
tactics,3784
take,3785
taken,3786
takes,3787
taking,3788
tale,3789
talent,3790
taliban,3791
talk,3792
talked,3793
talking,3794
talks,3795
tank,3796
tanukiparsedonedigiteven,3797
tape,3798
tapes,3799
target,3800
targets,3801
tasteless,3802
taught,3803
tax,3804
taxation,3805
taxes,3806
taxpayers,3807
tbh,3808
teachers,3809
teaches,3810
teaching,3811
teams,3812
technique,3813
technology,3814
techs,3815
teh,3816
television,3817
tell,3818
telling,3819
tells,3820
tempered,3821
temporarily,3822
temporary,3823
tend,3824
tendencies,3825
tends,3826
tens,3827
term,3828
terminal,3829
terms,3830
terrible,3831
terroist,3832
terrorism,3833
terrorist,3834
test,3835
testimony,3836
tests,3837
texas,3838
texting,3839
tham,3840
than,3841
thank,3842
thanks,3843
thanparsedfourdigits,3844
that,3845
thats,3846
thc,3847
the,3848
theater,3849
theaters,3850
theft,3851
their,3852
theirs,3853
them,3854
theme,3855
themselves,3856
then,3857
theory,3858
therapy,3859
there,3860
therefor,3861
therefore,3862
these,3863
they,3864
thier,3865
thing,3866
things,3867
think,3868
thinking,3869
thinks,3870
third,3871
this,3872
thomas,3873
thorazine,3874
those,3875
though,3876
thought,3877
thoughts,3878
thousand,3879
thousands,3880
thread,3881
threat,3882
threatening,3883
threatens,3884
three,3885
threesome,3886
through,3887
throughout,3888
throw,3889
thrown,3890
thunder,3891
thunderbird,3892
thus,3893
tibetans,3894
ticket,3895
tickets,3896
tier,3897
tiger,3898
tigers,3899
tight,3900
tilt,3901
time,3902
times,3903
timing,3904
tip,3905
tired,3906
title,3907
to,3908
tobacco,3909
today,3910
together,3911
toilet,3912
told,3913
tomorrow,3914
tone,3915
tonnes,3916
too,3917
took,3918
tool,3919
top,3920
torrent,3921
torture,3922
torturing,3923
totally,3924
touchdown,3925
touched,3926
touching,3927
tough,3928
toward,3929
toys,3930
trace,3931
tractors,3932
trade,3933
trading,3934
traditional,3935
traditionally,3936
traffic,3937
trailer,3938
trained,3939
training,3940
trains,3941
trans,3942
transition,3943
translated,3944
transportation,3945
transsexual,3946
trap,3947
trappings,3948
trash,3949
treasury,3950
treat,3951
treated,3952
treatment,3953
treatments,3954
treaty,3955
trend,3956
trendy,3957
trentadue,3958
trial,3959
trials,3960
tried,3961
tries,3962
trillion,3963
trolling,3964
trolls,3965
troop,3966
troops,3967
tropic,3968
trouble,3969
troubling,3970
trough,3971
truck,3972
true,3973
truly,3974
trunk,3975
trust,3976
trusted,3977
truth,3978
truths,3979
try,3980
trying,3981
ts,3982
tty,3983
tubatechno,3984
tucker,3985
tune,3986
turbines,3987
turd,3988
turk,3989
turn,3990
turned,3991
turning,3992
turns,3993
tv,3994
twelve,3995
twice,3996
twisted,3997
twisting,3998
twitter,3999
two,4000
types,4001
typical,4002
typing,4003
tyrants,4004
ugh,4005
uhbama,4006
uhhh,4007
uk,4008
ultimately,4009
um,4010
umm,4011
un,4012
unbelievable,4013
unclaimed,4014
undead,4015
under,4016
underestimate,4017
undermines,4018
understand,4019
understanding,4020
understood,4021
underway,4022
undoubtedly,4023
unfortunately,4024
uni,4025
union,4026
unipolar,4027
unite,4028
united,4029
universe,4030
university,4031
unjust,4032
unknown,4033
unless,4034
unmannedmissionhope,4035
unreasonable,4036
unrelatedgold,4037
unstated,4038
untie,4039
until,4040
up,4041
update,4042
upgrade,4043
upgraded,4044
upgrading,4045
upheld,4046
uphill,4047
uploading,4048
upon,4049
upper,4050
ups,4051
upscale,4052
urban,4053
urge,4054
us,4055
usa,4056
use,4057
used,4058
useless,4059
user,4060
username,4061
users,4062
uses,4063
using,4064
usps,4065
usual,4066
usually,4067
utilizing,4068
utorrent,4069
utterly,4070
vacation,4071
vaccines,4072
vader,4073
vagina,4074
valentine,4075
valid,4076
value,4077
valued,4078
values,4079
vampires,4080
vandalism,4081
vast,4082
vastly,4083
ve,4084
vegas,4085
vehicle,4086
vehicles,4087
velocity,4088
vending,4089
venomous,4090
verb,4091
verizon,4092
verses,4093
version,4094
very,4095
vespertine,4096
veterans,4097
vhs,4098
via,4099
vibrant,4100
vibrating,4101
vicious,4102
victim,4103
victims,4104
victoria,4105
victory,4106
video,4107
view,4108
viewing,4109
vigor,4110
vinegar,4111
violence,4112
violent,4113
virtual,4114
virtually,4115
virus,4116
visible,4117
vista,4118
vitriolandangst,4119
vitro,4120
volt,4121
volunteering,4122
vote,4123
voted,4124
voters,4125
voyeur,4126
wade,4127
wait,4128
waited,4129
waiting,4130
walk,4131
walked,4132
walking,4133
walks,4134
wall,4135
wallpaper,4136
walmart,4137
wanna,4138
wannabes,4139
want,4140
wanted,4141
wanting,4142
wants,4143
war,4144
warning,4145
warrant,4146
wars,4147
was,4148
washington,4149
wasn,4150
wasted,4151
wasting,4152
watch,4153
watched,4154
watchin,4155
watching,4156
watchmen,4157
water,4158
watermelons,4159
watershed,4160
wave,4161
way,4162
ways,4163
wazoo,4164
we,4165
weak,4166
wealth,4167
weapons,4168
wear,4169
wears,4170
weather,4171
web,4172
webdesigners,4173
webkit,4174
webscriptions,4175
website,4176
websites,4177
wee,4178
weed,4179
week,4180
weeks,4181
weighing,4182
weight,4183
weird,4184
welcome,4185
welcoming,4186
welfare,4187
well,4188
went,4189
were,4190
weren,4191
west,4192
western,4193
whaaa,4194
whaaaa,4195
whacks,4196
what,4197
whatever,4198
whats,4199
whatsoever,4200
whatwe,4201
wheels,4202
when,4203
whenever,4204
where,4205
whether,4206
which,4207
while,4208
whiners,4209
whining,4210
whip,4211
white,4212
whiteness,4213
who,4214
whoever,4215
whole,4216
whomever,4217
whose,4218
why,4219
wide,4220
widely,4221
wife,4222
wifi,4223
wii,4224
wiki,4225
wikipedia,4226
wild,4227
wildland,4228
wildlife,4229
will,4230
williams,4231
willing,4232
win,4233
wind,4234
winded,4235
window,4236
windows,4237
windowsuntil,4238
windy,4239
wine,4240
wings,4241
winmo,4242
winner,4243
winning,4244
winslet,4245
wipe,4246
wiretapping,4247
wise,4248
wish,4249
wishing,4250
witch,4251
with,4252
withdrew,4253
within,4254
withot,4255
without,4256
withstand,4257
wives,4258
woman,4259
women,4260
won,4261
wonder,4262
wonderful,4263
woo,4264
wood,4265
woods,4266
woodsoh,4267
woodsparsedonedigit,4268
woooooo,4269
woot,4270
word,4271
words,4272
wore,4273
work,4274
worked,4275
working,4276
workplace,4277
works,4278
world,4279
worlds,4280
worried,4281
worries,4282
worry,4283
worse,4284
worship,4285
worst,4286
worth,4287
worthless,4288
worthy,4289
would,4290
wouldn,4291
wow,4292
wparsedonedigit,4293
wrist,4294
write,4295
writer,4296
writers,4297
writers_guild_of,4298
written,4299
wrong,4300
wsads,4301
wtf,4302
wussy,4303
xbox,4304
xdsorry,4305
xm,4306
xp,4307
xparsedonedigit,4308
xparsedthreedigits,4309
xvid,4310
ya,4311
yahoo,4312
yahtzee,4313
yankees,4314
yapping,4315
yay,4316
yeah,4317
year,4318
years,4319
yeast,4320
yeeeeeahhhh,4321
yelling,4322
yelp,4323
yen,4324
yep,4325
yes,4326
yesterday,4327
yet,4328
york,4329
you,4330
young,4331
your,4332
youre,4333
yours,4334
yourself,4335
youth,4336
yummy,4337
zendezparsedonedigit,4338
zero,4339
zip,4340
zipline,4341
zog,4342
zombie,4343
zombies,4344
zoo,4345
