after,0
again,1
album,2
alison,3
alive,4
all,5
always,6
am,7
americanair,8
amopã,9
and,10
angry,11
another,12
antlers,13
any,14
anyone,15
apple,16
appointment,17
are,18
as,19
asking,20
at,21
athlete,22
atitsfinest,23
average,24
aw,25
badass,26
badgers,27
badmoon,28
bag,29
barbara,30
barileia,31
be,32
beauparsedonedigitu,33
beautiful,34
because,35
been,36
before,37
being,38
belive,39
bennytheejet,40
best,41
bestie,42
betch,43
better,44
bikini,45
birthday,46
bit,47
blargh,48
bobelieves,49
bout,50
boys,51
brits,52
broke,53
but,54
called,55
camera,56
campuses,57
can,58
career,59
cause,60
cbalramulc,61
cbi,62
cc,63
changes,64
channel,65
charming,66
chill,67
chocolate,68
city,69
civic,70
co,71
coaches,72
coachseahorn_,73
code,74
colorado,75
condescending,76
contestâ,77
convention,78
cool,79
cools,80
could,81
course,82
cousins,83
crap,84
creek,85
culture,86
currently,87
daniel,88
danwoshere,89
dawson,90
day,91
dc,92
ddparsedonedigitaparseddigitsqgparsedtwodigitso,93
dead,94
degrees,95
delays,96
dentist,97
dimwitted,98
dishesðÿ,99
disney,100
do,101
doesn,102
doing,103
don,104
done,105
down,106
downton,107
drama,108
dress,109
drive,110
drove,111
dumb,112
duty,113
e__strobel,114
eaten,115
eh,116
encourage,117
end,118
enjoying,119
especially,120
everybody,121
everyone,122
everything,123
example,124
excited,125
experience,126
family,127
fangirl,128
fantastic,129
fantasy,130
fast,131
feel,132
fellow,133
fi,134
fight,135
final,136
financial,137
find,138
fireworks,139
first,140
fish,141
fishing,142
flawless,143
flight,144
flinging,145
flip,146
followed,147
foot,148
football,149
for,150
forbid,151
forced,152
ford,153
free,154
freedom,155
freezers,156
friday,157
friend,158
friends,159
from,160
fugly,161
full,162
further,163
fusion,164
game,165
get,166
gets,167
glad,168
god,169
good,170
goodness,171
gotigers,172
gotobedguys,173
gov,174
government,175
great,176
greatest,177
gregabbott_tx,178
gt,179
guess,180
guys,181
haha,182
half,183
hand,184
has,185
have,186
having,187
he,188
heard,189
heartwarming,190
heaven,191
hell,192
her,193
hey,194
his,195
home,196
hong,197
horrendous,198
horrible,199
hot,200
hours,201
how,202
http,203
huh,204
humidity,205
hunt,206
hurry,207
ib,208
idea,209
in,210
indianapolis,211
indirectly,212
ineedanap,213
insert,214
inspirationâ,215
ints,216
iphone,217
is,218
ishouldhaveflownsouthwest,219
islam,220
islamic,221
islamophobic,222
isn,223
it,224
iytahxqvyh,225
jakebugg,226
jdtips,227
jealous,228
jimmyfallon,229
job,230
joke,231
juanybeats,232
julianburnside,233
just,234
kind,235
know,236
kong,237
last,238
lemme,239
leo,240
let,241
life,242
lifeee,243
like,244
little,245
live,246
ll,247
logging,248
lol,249
lone,250
looking,251
looks,252
lot,253
love,254
loveeeeeeeee,255
lovely,256
lparsedonedigitohparsedtwodigitspqhe,257
lunchboxheroparsedtwodigits,258
make,259
makes,260
many,261
maps,262
mcganntstopmenow,263
me,264
media,265
melissa,266
minorities,267
minorits,268
missed,269
mistake,270
mkbhd,271
mom,272
moment,273
more,274
morning,275
most,276
mother,277
movies,278
much,279
must,280
my,281
name,282
nba,283
need,284
needs,285
never,286
next,287
nicerack,288
night,289
nights,290
no,291
non,292
not,293
nothing,294
notreally,295
now,296
nsa,297
obamaspeech,298
occupyhongkong,299
of,300
off,301
ok,302
omg,303
on,304
one,305
or,306
original,307
other,308
our,309
out,310
oven,311
over,312
parseddigits,313
parsedonedigit,314
parsedonedigitam,315
parsedonedigitrd,316
parsedonedigitxgrparsedonedigitkqrlo,317
parsedthreedigits,318
parsedtwodigits,319
past,320
pay,321
people,322
perfect,323
pgeonsparsedonedigitafparsedonedigit,324
philbyparsedfourdigits,325
pirates,326
pissed,327
pixar,328
play,329
please,330
pll,331
politibunny,332
porsche,333
potus,334
pounded,335
predictive,336
pregnancy,337
pretty,338
protestors,339
pumice,340
putting,341
qb,342
qotd,343
questions_faith,344
ramp,345
randomly,346
rape,347
raw,348
real,349
realize,350
remind,351
renolds_reigh,352
renovation,353
retire,354
ridiculous,355
right,356
rights,357
rihanna,358
robbed,359
roomie,360
roommategoals,361
run,362
ryleebolinsky,363
ryleeshay,364
salon,365
same,366
santa,367
sarahinthesenparsedonedigit,368
sarcasm,369
sarcasmo,370
sarcasmout,371
sarcasmtothemax,372
sargentcass,373
savemefromthisboredom,374
saying,375
says,376
scattermemvar,377
scene,378
sea,379
see,380
seeing,381
sends,382
sense,383
september,384
seriously,385
sexy,386
shangrila,387
she,388
shelby_maue,389
should,390
shouting,391
show,392
showing,393
sink,394
sister,395
sit,396
sittinrightnexttoher,397
situations,398
sketchy,399
skin,400
sleeping,401
sleepova,402
sleepðÿ,403
slut,404
smoke,405
snap,406
so,407
sold,408
song,409
sons,410
sounds,411
start,412
started,413
steel,414
still,415
store,416
story,417
straight,418
stream,419
stressed,420
subtlety,421
suck,422
sunburn,423
superstar,424
sure,425
swear,426
talk,427
tater,428
tattoos,429
teach,430
teenage,431
teens,432
tell,433
texts,434
than,435
thank,436
thanks,437
that,438
thatsoriginal,439
the,440
their,441
theists,442
there,443
they,444
thing,445
think,446
this,447
those,448
though,449
thursday,450
time,451
times,452
timesnow,453
title,454
to,455
today,456
together,457
tomorrow,458
too,459
tookthewordsoutmymouth,460
totally,461
tots,462
trash,463
trashy,464
tray,465
trying,466
twitch,467
ucalgarycase,468
uffda,469
understand,470
up,471
upset,472
ve,473
very,474
views,475
violent,476
waiting,477
wants,478
was,479
wash,480
watch,481
watching,482
way,483
we,484
wear,485
well,486
were,487
what,488
whatta,489
when,490
where,491
while,492
whitneyltuttle,493
who,494
why,495
wi,496
wijimparsedthreedigits,497
with,498
witness,499
woke,500
wolf,501
women,502
wonderful,503
wooow,504
worked,505
working,506
works,507
world,508
worry,509
wsj,510
xojparsedonedigitjkjcparsedtwodigits,511
xuxvamparsedonedigitsml,512
ya,513
yay,514
yeah,515
yes,516
yesterday,517
you,518
young,519
your,520
ðÿ,521
šðÿ,522
