_com,0
aa,1
abbey,2
aber,3
abilities,4
abingdon,5
able,6
abort,7
aborted,8
abount,9
abouts,10
absence,11
absolute,12
absolutely,13
absolutley,14
abstaining,15
abysmal,16
ac,17
academy,18
accepted,19
access,20
accessories,21
accident,22
accobatic,23
according,24
account,25
accountants,26
accumulated,27
ache,28
acheivable,29
aches,30
achievable,31
achieve,32
achievement,33
achievemnets,34
achiever,35
achieving,36
achievment,37
achilles,38
aching,39
achive,40
acted,41
action,42
actual,43
actually,44
actualy,45
acute,46
adam,47
add,48
adding,49
addition,50
address,51
adds,52
adhering,53
adidas,54
adizero,55
adjust,56
adjusting,57
admire,58
admit,59
admitted,60
adn,61
adrift,62
advance,63
advantage,64
advantages,65
adventure,66
advice,67
advise,68
advised,69
advocate,70
ady,71
aerobic,72
affair,73
affect,74
afford,75
affy,76
afraid,77
afternoon,78
afterwork,79
age,80
aged,81
agenda,82
ages,83
aggravated,84
aggro,85
ago,86
agony,87
agree,88
ah,89
aha,90
ahead,91
ahhh,92
ahhhh,93
ahve,94
aid,95
aids,96
ailments,97
aim,98
aiming,99
aint,100
air,101
airport,102
aka,103
alan,104
alan_every,105
alanm,106
alarm,107
albeit,108
alcohol,109
alex,110
ali,111
allegedly,112
alley,113
allow,114
allowed,115
allowing,116
allows,117
allstar,118
alongside,119
alot,120
alp,121
alps,122
alter,123
alternate,124
amateur,125
amazing,126
ambitions,127
ambulance,128
amsterdam,129
amused,130
anaemia,131
anal,132
analysed,133
analysis,134
andrew,135
andy,136
angelic,137
angry,138
aniversary,139
ankle,140
ankles,141
anna,142
annajo,143
annie,144
annoyingly,145
answer,146
answers,147
ant,148
anthony,149
anti,150
anticipation,151
anticlockwise,152
antics,153
antsy,154
anxiety,155
anybody,156
aorn,157
aparsedonedigit,158
apart,159
aplenty,160
apologies,161
apology,162
app,163
appalling,164
apparent,165
apparently,166
appealing,167
appear,168
appearance,169
appeared,170
appears,171
appetite,172
applicant,173
application,174
appreciate,175
appreciated,176
approach,177
approaching,178
approx,179
april,180
aqua,181
aquathlon,182
arabs,183
arch,184
archers,185
area,186
areas,187
aren,188
argie,189
argos,190
argued,191
argument,192
arm,193
arms,194
armstrong,195
arrange,196
arrangments,197
arse,198
arsed,199
arsenal,200
artful,201
article,202
articles,203
arts,204
asap,205
ashamed,206
ashley,207
ask,208
asked,209
askern,210
asking,211
asleep,212
aspirant,213
aspiring,214
assume,215
assumed,216
assuming,217
athlete,218
athletic,219
atleast,220
atmosphere,221
attachment,222
attack,223
attacks,224
attemp,225
attempt,226
attended,227
attention,228
attitude,229
august,230
aunt,231
australia,232
automatically,233
autumn,234
av,235
available,236
ave,237
average,238
averaged,239
averaging,240
avghr,241
avoid,242
avoided,243
awaits,244
awake,245
award,246
awards,247
aware,248
away,249
awesome,250
awful,251
awreness,252
ay,253
babble,254
babies,255
baby,256
backing,257
backslash,258
backwards,259
bacon,260
bad,261
badly,262
badminton,263
bag,264
bagged,265
bags,266
bah,267
balance,268
ball,269
ballot,270
ballots,271
balls,272
banana,273
bandstand,274
bang,275
bank,276
banks,277
banksie,278
banter,279
bar,280
barclays,281
bare,282
barefoot,283
barely,284
bargain,285
bargains,286
barley,287
barman,288
barnes,289
barriers,290
base,291
based,292
baseline,293
basically,294
basics,295
basis,296
bat,297
batfink,298
bath,299
baths,300
batteries,301
battersey,302
battle,303
batw,304
bay,305
bb,306
bbq,307
bd,308
beach,309
beachy,310
beaming,311
beans,312
beanz,313
bear,314
bearable,315
beast,316
beat,317
beaten,318
beats,319
beautiful,320
beav,321
beckham,322
bed,323
beders,324
beer,325
beers,326
began,327
beginning,328
begins,329
begs,330
behave,331
behaving,332
bej,333
belated,334
beleive,335
belfast,336
believe,337
belive,338
bells,339
belt,340
bending,341
bene,342
benefit,343
benefits,344
bent,345
benyo,346
bequathed,347
bequeath,348
bequeathed,349
bequeathing,350
bequethed,351
berkhamsted,352
berlin,353
bernard,354
berry,355
best,356
bet,357
better,358
bex,359
bfb,360
bicton,361
bid,362
big,363
bigger,364
biggies,365
bike,366
billie,367
billy,368
bin,369
bingo,370
birdcage,371
birthday,372
birthdays,373
bishop,374
bit,375
bits,376
bizarre,377
bl,378
black,379
blackheath,380
blackpool,381
blah,382
blame,383
blast,384
blasted,385
blasting,386
bleeding,387
bless,388
blessed,389
blew,390
blimey,391
bling,392
bliss,393
blister,394
blisters,395
blizzard,396
blobby,397
block,398
blocks,399
blokes,400
blood,401
bloody,402
blooming,403
blow,404
blowing,405
blown,406
blubber,407
blue,408
blues,409
blxxdy,410
bm,411
bmi,412
boat,413
bob,414
bobble,415
bod,416
bodes,417
body,418
bog,419
boggy,420
bogs,421
boing,422
bold,423
bollox,424
bond,425
bones,426
bonfire,427
bongo,428
bonkers,429
boo,430
book,431
booked,432
booking,433
books,434
booster,435
bootsie,436
booze,437
bore,438
bored,439
boris,440
born,441
borrow,442
bother,443
bothered,444
bothering,445
bottle,446
bottleof,447
bottles,448
bottling,449
bought,450
bounce,451
bound,452
boundary,453
bounding,454
bourton,455
bout,456
bovvered,457
bow,458
bowi,459
bowl,460
bowland,461
boxing,462
boy,463
boyfriend,464
boys,465
bp,466
bparsedonedigit,467
br,468
brad,469
brain,470
bramley,471
branch,472
brasher,473
brave,474
braver,475
brazilian,476
bread,477
break,478
breakfast,479
breaks,480
breakthrough,481
breast,482
breaststroke,483
breath,484
breathe,485
breezing,486
brendan,487
brian,488
bridge,489
bridges,490
brief,491
briefcase,492
bright,493
brighton,494
brilliant,495
brilliantly,496
bring,497
bringing,498
brings,499
bristol,500
britain,501
british,502
brizzle,503
broadly,504
broke,505
broken,506
brolly,507
bronze,508
brookwood,509
brother,510
brought,511
brownie,512
brownies,513
brownish,514
btw,515
bubbly,516
buena,517
bug,518
bugger,519
build,520
builder,521
building,522
built,523
bulk,524
bull,525
bullying,526
bum,527
bummer,528
bump,529
bumps,530
bumpy,531
bunch,532
bunged,533
burn,534
burnt,535
burst,536
bursting,537
burtonwood,538
burtyboy,539
bus,540
bush,541
bushes,542
bushey,543
bushy,544
business,545
bust,546
buster,547
busy,548
butcher,549
butt,550
butter,551
butterfly,552
buttie,553
buy,554
bw,555
byfleet,556
bypass,557
cab,558
cabbie,559
cactus,560
cake,561
cal,562
calcium,563
calculates,564
calculation,565
calculations,566
calculators,567
calf,568
calfs,569
calls,570
calm,571
calmed,572
calmer,573
calories,574
calves,575
camaraderie,576
camden,577
came,578
camera,579
cameron,580
camping,581
camps,582
campsite,583
canada,584
canal,585
canberra,586
cancelled,587
cancer,588
cannt,589
canoe,590
cap,591
capital,592
caps,593
car,594
caramel,595
caravan,596
carb,597
carbo,598
carbohydrate,599
carbs,600
cardiff,601
care,602
career,603
careful,604
caribbean,605
caro,606
carole,607
carp,608
carriageway,609
carried,610
carry,611
carrying,612
cars,613
cartiledge,614
cas,615
case,616
cases,617
cashed,618
cat,619
catch,620
catching,621
cath,622
caught,623
cause,624
caused,625
causes,626
cautious,627
cc,628
ccnba,629
ccoming,630
ceal,631
ceilidh,632
ceiling,633
celebrate,634
celebrating,635
celebrations,636
centre,637
centred,638
cereal,639
certain,640
certainly,641
certificate,642
certified,643
cew,644
cg,645
chains,646
chair,647
challenge,648
champagne,649
champers,650
championchip,651
championship,652
champs,653
chance,654
chances,655
change,656
changed,657
changes,658
changing,659
chap,660
character,661
charge,662
charges,663
charitable,664
charity,665
charlie,666
charlton,667
charter,668
chasing,669
chat,670
chatty,671
cheap,672
cheapskates,673
cheat,674
check,675
checked,676
cheeks,677
cheeky,678
cheer,679
cheers,680
chelsea,681
cheques,682
chest,683
chi,684
chichester,685
chicken,686
chieftain,687
children,688
chill,689
chilly,690
chin,691
chip,692
chips,693
choc,694
chocolate,695
choked,696
chomping,697
choose,698
chr,699
chris,700
christmas,701
chuff,702
chuffed,703
chum,704
chunk,705
cinders,706
citibank,707
city,708
cj,709
claim,710
clairster,711
clare,712
clarendon,713
clash,714
class,715
classy,716
cleadon,717
clear,718
cleared,719
clearly,720
clears,721
click,722
cliffs,723
climb,724
climbed,725
climber,726
climbing,727
clipped,728
clock,729
clocked,730
close,731
closer,732
clothing,733
clouds,734
cloudy,735
club,736
clubbing,737
clubmate,738
clue,739
clydesdale,740
cm,741
coach,742
coached,743
coaches,744
coast,745
cockrell,746
coffee,747
cofident,748
cognitive,749
cold,750
colds,751
colleague,752
collect,753
colon,754
colour,755
column,756
com,757
combination,758
combined,759
combining,760
come,761
comes,762
comfort,763
comfortable,764
comfortably,765
comig,766
coming,767
comment,768
commented,769
comments,770
commitments,771
common,772
communication,773
compact,774
company,775
compared,776
compensate,777
compete,778
competence,779
competing,780
competition,781
competitive,782
competitors,783
complaining,784
complete,785
completed,786
completely,787
completing,788
comprehended,789
computer,790
comunication,791
concentrate,792
concentrated,793
concern,794
concerned,795
conclusion,796
conclusions,797
conditioned,798
conditioner,799
conditioning,800
conditions,801
conducive,802
conference,803
confess,804
confidence,805
confident,806
confirm,807
confirmation,808
confirmations,809
confirmed,810
confirming,811
confused,812
congestion,813
congleton,814
congrats,815
congratulations,816
conjured,817
connected,818
connective,819
consciously,820
consecutive,821
consider,822
considerably,823
considered,824
considering,825
consistency,826
consistent,827
consuming,828
contacts,829
contemplating,830
content,831
contingent,832
continue,833
continued,834
contributed,835
contributes,836
contribution,837
control,838
controlled,839
conversation,840
convinced,841
cooke,842
cookie,843
cookies,844
cooking,845
cool,846
cooler,847
cope,848
copenhagen,849
copy,850
core,851
corner,852
coro,853
correct,854
corredor,855
cos,856
costume,857
cosy,858
cough,859
cougie,860
couldgo,861
couldn,862
count,863
counting,864
country,865
countryside,866
county,867
couple,868
course,869
courtesy,870
cover,871
coverage,872
covered,873
covers,874
coxy,875
coz,876
cp,877
crab,878
crack,879
crackered,880
cracking,881
cramp,882
cramped,883
cranberry,884
crap,885
crapping,886
crashed,887
crashing,888
crawl,889
crazed,890
crazy,891
cream,892
creating,893
creature,894
creme,895
cricket,896
crikey,897
crippled,898
critters,899
crocked,900
cross,901
crossed,902
crossing,903
crouch,904
crowd,905
crowds,906
crucial,907
cruel,908
cruisin,909
cruising,910
crumbs,911
crutch,912
cube,913
cubes,914
cubs,915
culminating,916
cunning,917
cup,918
cure,919
cures,920
current,921
currently,922
currrent,923
curry,924
cushion,925
cut,926
cwy,927
cycle,928
cycling,929
cyclist,930
dachshund,931
dad,932
daily,933
damage,934
damaged,935
damn,936
dampened,937
dan,938
daniel,939
danny,940
dark,941
darlington,942
darren,943
dartford,944
dartmoor,945
dash,946
date,947
dates,948
daughter,949
daughters,950
dave,951
davey,952
david,953
davis,954
day,955
daylight,956
days,957
daz,958
dazpd,959
dead,960
deadline,961
deaf,962
deal,963
dear,964
death,965
debate,966
debbo,967
debenhams,968
debs,969
debster,970
debstir,971
decadent,972
december,973
decent,974
decide,975
decided,976
decision,977
decisions,978
decreasing,979
dedicated,980
deep,981
deeply,982
def,983
defect,984
defer,985
deffered,986
deffo,987
definately,988
definitely,989
definition,990
definitive,991
defo,992
degeneration,993
degrees,994
delete,995
delia,996
delighted,997
delivery,998
delusional,999
deminished,1000
demob,1001
demonstrated,1002
denied,1003
dense,1004
deny,1005
depending,1006
depends,1007
deposit,1008
depressing,1009
depth,1010
descent,1011
describing,1012
description,1013
deserve,1014
deserved,1015
desk,1016
despair,1017
desperate,1018
despite,1019
destiny,1020
details,1021
determination,1022
determined,1023
develop,1024
devon,1025
dfd,1026
diabetes,1027
diabetic,1028
diagnosed,1029
diana,1030
diary,1031
did,1032
didds,1033
didn,1034
didnt,1035
dids,1036
die,1037
died,1038
diet,1039
diff,1040
difference,1041
different,1042
difficult,1043
dig,1044
dilemma,1045
diligence,1046
diminished,1047
dinner,1048
dip,1049
diplomatic,1050
dipped,1051
dips,1052
direct,1053
direction,1054
directly,1055
director,1056
dirty,1057
disapointed,1058
disappointed,1059
discarded,1060
discharged,1061
discussions,1062
dish,1063
dispirited,1064
displayed,1065
distance,1066
distress,1067
divulge,1068
dn,1069
docklands,1070
doctor,1071
documents,1072
dod,1073
doddle,1074
dodgy,1075
doe,1076
does,1077
doesn,1078
doesnt,1079
dog,1080
dogs,1081
doing,1082
domestic,1083
don,1084
donate,1085
donating,1086
donation,1087
dont,1088
donut,1089
doodle,1090
dooper,1091
door,1092
doors,1093
dorigo,1094
dork,1095
dot,1096
double,1097
doubt,1098
doubts,1099
douglas,1100
dover,1101
downhill,1102
downlands,1103
downs,1104
downside,1105
dozen,1106
dragged,1107
dragging,1108
dramatically,1109
dread,1110
dreading,1111
dream,1112
dreampt,1113
dreams,1114
dreary,1115
dress,1116
drewton,1117
drier,1118
drill,1119
drink,1120
drinker,1121
drinking,1122
drinks,1123
drive,1124
drives,1125
drk,1126
drogo,1127
drool,1128
drop,1129
dropped,1130
dropping,1131
drops,1132
drown,1133
dry,1134
ds,1135
dual,1136
dublin,1137
dull,1138
dump,1139
dumpling,1140
dunk,1141
dunno,1142
dust,1143
duster,1144
dustin,1145
duty,1146
dvd,1147
dwarfed,1148
dy,1149
dyslexia,1150
eager,1151
ealing,1152
ear,1153
earlier,1154
earliest,1155
early,1156
earned,1157
ears,1158
earth,1159
ease,1160
easier,1161
easiest,1162
easily,1163
east,1164
eastenders,1165
easter,1166
eastleigh,1167
easy,1168
eat,1169
eaten,1170
eating,1171
eb,1172
ebb,1173
ebbs,1174
echo,1175
ecparsedonedigit,1176
ed,1177
edb,1178
eddie,1179
edge,1180
edges,1181
edinburgh,1182
edith,1183
eek,1184
effect,1185
effective,1186
efficacy,1187
effort,1188
efforts,1189
efort,1190
eggs,1191
eh,1192
ehrwise,1193
elastiman,1194
eleanor,1195
eliminate,1196
eliminating,1197
elite,1198
elixir,1199
elusive,1200
elysees,1201
em,1202
email,1203
emailed,1204
emailing,1205
embankment,1206
embarassing,1207
emergency,1208
emigrating,1209
emigration,1210
emily,1211
emma,1212
emotional,1213
emphasis,1214
enabled,1215
encounter,1216
encourage,1217
encouraged,1218
encouragement,1219
encouraging,1220
end,1221
ended,1222
endless,1223
ends,1224
endurance,1225
endured,1226
energy,1227
england,1228
enjoy,1229
enjoyable,1230
enjoyed,1231
enjoying,1232
enjoys,1233
enormously,1234
enter,1235
entered,1236
entering,1237
enters,1238
enticingly,1239
entirely,1240
entries,1241
entry,1242
envelope,1243
epping,1244
equal,1245
equates,1246
equivalent,1247
er,1248
err,1249
errors,1250
escape,1251
escaped,1252
esle,1253
esp,1254
especially,1255
essay,1256
estate,1257
estimated,1258
eternal,1259
eternally,1260
euph,1261
euros,1262
eve,1263
evening,1264
event,1265
eventful,1266
events,1267
eventually,1268
everest,1269
everybody,1270
everyne,1271
everyones,1272
evidence,1273
evryone,1274
ex,1275
exactly,1276
exagerating,1277
example,1278
excel,1279
excellant,1280
excellent,1281
exceptionally,1282
excited,1283
excitement,1284
exciting,1285
excluding,1286
excuse,1287
exercise,1288
exercises,1289
exersion,1290
exertion,1291
exhasted,1292
exhausted,1293
exist,1294
expecct,1295
expected,1296
expecting,1297
expects,1298
expensive,1299
experience,1300
experienced,1301
experiment,1302
explains,1303
expletives,1304
exploits,1305
expo,1306
extended,1307
extensions,1308
extra,1309
eye,1310
eyed,1311
fab,1312
fabric,1313
fabulous,1314
face,1315
facilities,1316
fact,1317
fading,1318
fail,1319
failed,1320
fails,1321
failure,1322
fainting,1323
fair,1324
fairing,1325
fairly,1326
fairs,1327
fairy,1328
faith,1329
fall,1330
fallback,1331
falling,1332
fame,1333
family,1334
fan,1335
fancied,1336
fancy,1337
fanfare,1338
fans,1339
fantacised,1340
fantastic,1341
far,1342
farmed,1343
fartlek,1344
fast,1345
faster,1346
fastest,1347
fatbutfit,1348
fault,1349
fave,1350
favourite,1351
favourites,1352
fb,1353
fd,1354
fdone,1355
fear,1356
featured,1357
feb,1358
feed,1359
feedback,1360
feel,1361
feeling,1362
feels,1363
feelt,1364
feet,1365
fell,1366
fella,1367
fellow,1368
felt,1369
female,1370
fenn,1371
festering,1372
fetch,1373
fi,1374
fiddly,1375
fidgety,1376
field,1377
fife,1378
fifidella,1379
fight,1380
fighter,1381
figs,1382
figure,1383
figured,1384
files,1385
filled,1386
final,1387
finally,1388
finding,1389
fine,1390
finger,1391
fingers,1392
finish,1393
finished,1394
finishing,1395
finishs,1396
finsihed,1397
fires,1398
firstly,1399
firth,1400
fish,1401
fisrt,1402
fit,1403
fitness,1404
fitter,1405
fitting,1406
fix,1407
fizz,1408
fkg,1409
flab,1410
flag,1411
flakes,1412
flapjack,1413
flash,1414
flat,1415
flats,1416
fleece,1417
fleet,1418
flight,1419
flights,1420
flint,1421
flm,1422
flmers,1423
flmparsedtwodigits,1424
flms,1425
florida,1426
flows,1427
flu,1428
fluid,1429
fly,1430
flyer,1431
flying,1432
fnick,1433
focus,1434
focussed,1435
folk,1436
folks,1437
follow,1438
followed,1439
following,1440
fond,1441
food,1442
foot,1443
football,1444
force,1445
forced,1446
forecast,1447
forego,1448
forest,1449
forests,1450
forget,1451
forgetting,1452
forgot,1453
fork,1454
form,1455
formula,1456
forth,1457
fortnight,1458
fortuna,1459
fortunately,1460
fortune,1461
forum,1462
forumites,1463
forums,1464
forward,1465
forwards,1466
fox,1467
foz,1468
fp,1469
france,1470
fred,1471
free,1472
freebies,1473
frenchies,1474
frenchmen,1475
fresh,1476
freshness,1477
fretting,1478
fri,1479
friday,1480
fridays,1481
fridge,1482
friend,1483
friendly,1484
friends,1485
friendship,1486
frightened,1487
frosty,1488
frozen,1489
frubes,1490
frustrated,1491
frustrating,1492
fuel,1493
fulfill,1494
fully,1495
fun,1496
funds,1497
funeral,1498
funny,1499
furthest,1500
fuss,1501
future,1502
fw,1503
fwiw,1504
gadgets,1505
gagging,1506
gah,1507
gain,1508
gales,1509
gals,1510
game,1511
gamesmanship,1512
gang,1513
gap,1514
garden,1515
garmin,1516
gathering,1517
gatorade,1518
gatton,1519
gave,1520
gb,1521
gc,1522
gd,1523
gdave,1524
gear,1525
gel,1526
gels,1527
generally,1528
generous,1529
genetically,1530
gentle,1531
gently,1532
geoff,1533
george,1534
gerroff,1535
gets,1536
gettin,1537
getting,1538
gf,1539
gfa,1540
gfparsedtwodigits,1541
gg,1542
gift,1543
gifts,1544
gilzean,1545
gin,1546
ginger,1547
girl,1548
girlies,1549
girls,1550
girly,1551
git,1552
given,1553
gives,1554
giving,1555
giz,1556
glad,1557
glance,1558
glasgow,1559
glass,1560
glasses,1561
glided,1562
glory,1563
gloves,1564
glue,1565
glute,1566
glycogen,1567
gm,1568
gnr,1569
goal,1570
gobbling,1571
gobi,1572
goblins,1573
god,1574
goes,1575
going,1576
gold,1577
golden,1578
golf,1579
gone,1580
gonna,1581
good,1582
goodnight,1583
goody,1584
google,1585
goose,1586
goslo,1587
got,1588
gotta,1589
gotten,1590
gps,1591
gr,1592
gradient,1593
gradually,1594
gram,1595
grandparent,1596
grandson,1597
grandstand,1598
granny,1599
grapes,1600
grass,1601
grateful,1602
gratitude,1603
gratton,1604
great,1605
greater,1606
green,1607
greetings,1608
greg,1609
grew,1610
grief,1611
grim,1612
grin,1613
grinstead,1614
grion,1615
grip,1616
grit,1617
gritted,1618
grobelaar,1619
groin,1620
grotty,1621
ground,1622
group,1623
groups,1624
grow,1625
grrrrr,1626
grump,1627
grylls,1628
gt,1629
guarantee,1630
guarentee,1631
guess,1632
guessing,1633
guilty,1634
guiness,1635
gun,1636
gutted,1637
guy,1638
guys,1639
gweedore,1640
gym,1641
ha,1642
hadn,1643
haha,1644
hahahaha,1645
hail,1646
hainault,1647
hairdresser,1648
hal,1649
half,1650
halfway,1651
halhigdon,1652
halifax,1653
hallo,1654
haltemprice,1655
halving,1656
ham,1657
hammer,1658
hampshire,1659
hampstead,1660
hamstring,1661
hana,1662
hancock,1663
hand,1664
handed,1665
handle,1666
hands,1667
hang,1668
hanging,1669
hangover,1670
hangovers,1671
hants,1672
happen,1673
happened,1674
happening,1675
happenings,1676
happens,1677
happiness,1678
happy,1679
hard,1680
harder,1681
hardest,1682
hardly,1683
harlow,1684
harpy,1685
harvel,1686
hasn,1687
hassle,1688
hat,1689
hate,1690
haunches,1691
haven,1692
havent,1693
having,1694
hazelnuts,1695
hbos,1696
head,1697
heading,1698
heal,1699
health,1700
healthier,1701
healthy,1702
hear,1703
heard,1704
hearing,1705
heart,1706
heat,1707
heated,1708
heath,1709
heavier,1710
heavy,1711
heckenhocker,1712
hectic,1713
hee,1714
heel,1715
height,1716
held,1717
helen,1718
hell,1719
hellip,1720
hello,1721
helloooooooo,1722
help,1723
helped,1724
helpful,1725
helping,1726
helpline,1727
helps,1728
hen,1729
hey,1730
hh,1731
hi,1732
hic,1733
higdon,1734
high,1735
higher,1736
highest,1737
highlight,1738
higo,1739
hill,1740
hills,1741
hilly,1742
hinder,1743
hip,1744
hippo,1745
hires,1746
history,1747
hit,1748
hiya,1749
hm,1750
hmmm,1751
hmmmm,1752
hmmmmm,1753
hmmmph,1754
ho,1755
hogweed,1756
hold,1757
holding,1758
holds,1759
holiday,1760
holly,1761
hollywood,1762
home,1763
honest,1764
honestly,1765
honey,1766
hong,1767
honoured,1768
hood,1769
hoops,1770
hoovering,1771
hope,1772
hopeful,1773
hopefully,1774
hopefuly,1775
hoping,1776
hopkinton,1777
horizons,1778
horrendously,1779
horrible,1780
hospital,1781
host,1782
hostel,1783
hot,1784
hotel,1785
hotels,1786
hour,1787
hours,1788
house,1789
hove,1790
howard,1791
howdy,1792
howler,1793
hr,1794
hrm,1795
hrr,1796
hrs,1797
hs,1798
hsbc,1799
ht,1800
htm,1801
html,1802
htp,1803
http,1804
hubbies,1805
hubby,1806
huge,1807
hughes,1808
hugs,1809
hull,1810
humid,1811
hummm,1812
humpless,1813
humpy,1814
hunchbacked,1815
hung,1816
hunting,1817
hurrah,1818
hurry,1819
hurt,1820
hurting,1821
hurts,1822
husband,1823
hybrid,1824
hyde,1825
hydrate,1826
hysterical,1827
hythe,1828
ian,1829
ice,1830
icey,1831
icing,1832
idea,1833
ideal,1834
ideas,1835
identify,1836
ill,1837
illness,1838
im,1839
images,1840
imagine,1841
imagined,1842
imho,1843
immersion,1844
impart,1845
impatient,1846
implies,1847
important,1848
impossible,1849
impressed,1850
impressive,1851
improve,1852
improved,1853
improvement,1854
improving,1855
incarnation,1856
incase,1857
incentive,1858
incident,1859
include,1860
included,1861
including,1862
incoherant,1863
increase,1864
increased,1865
increasing,1866
increasingly,1867
incredible,1868
indifferent,1869
indoor,1870
induced,1871
infection,1872
infestation,1873
inflam,1874
inflammation,1875
inflammatories,1876
inflammed,1877
influence,1878
info,1879
inforces,1880
information,1881
ing,1882
initial,1883
injured,1884
injuries,1885
injury,1886
inn,1887
inside,1888
insoles,1889
inspiration,1890
inspirational,1891
inspire,1892
inspired,1893
inspiring,1894
instead,1895
instills,1896
instructed,1897
instructer,1898
instructor,1899
insulating,1900
intake,1901
intend,1902
intended,1903
intensity,1904
intention,1905
inter,1906
intercounties,1907
interested,1908
interesting,1909
intermeweb,1910
intermittent,1911
international,1912
internet,1913
interval,1914
intervals,1915
interview,1916
intrigued,1917
intro,1918
introduce,1919
introducing,1920
invaluable,1921
invented,1922
invested,1923
involve,1924
involved,1925
ireland,1926
iron,1927
ironman,1928
irons,1929
irresistable,1930
irritating,1931
ish,1932
isle,1933
isn,1934
issue,1935
issues,1936
italian,1937
italy,1938
itc,1939
itching,1940
iv,1941
ive,1942
jacket,1943
jackets,1944
jam,1945
jamaica,1946
james,1947
jamesk,1948
jamie,1949
jan,1950
jane,1951
janeeparsedonedigit,1952
january,1953
jap,1954
jaq,1955
jar,1956
jarred,1957
jase,1958
jbs,1959
jbss,1960
jd,1961
jdrf,1962
jealous,1963
jej,1964
jelly,1965
jellybabe,1966
jezza,1967
jj,1968
job,1969
jobs,1970
joby,1971
jock,1972
jog,1973
jogger,1974
jogging,1975
jogs,1976
john,1977
johns,1978
join,1979
joined,1980
joining,1981
joint,1982
joke,1983
jokes,1984
jonahparsedonedigit,1985
jools,1986
journey,1987
journeys,1988
joy,1989
jpvd,1990
jr,1991
jt,1992
judderman,1993
judging,1994
juice,1995
jules,1996
julie,1997
july,1998
jump,1999
jumping,2000
jumps,2001
june,2002
junior,2003
just,2004
justifiably,2005
justified,2006
karate,2007
karen,2008
katepie,2009
katie,2010
kattysparke,2011
katypie,2012
kbown,2013
keen,2014
keeping,2015
keeps,2016
ken,2017
kent,2018
kenyan,2019
kept,2020
kerb,2021
keryn,2022
key,2023
keyneshm,2024
kick,2025
kid,2026
kids,2027
kill,2028
killed,2029
kind,2030
kinda,2031
kindly,2032
kingston,2033
kinsey,2034
kip,2035
kirsty,2036
kit,2037
kitchen,2038
km,2039
knackered,2040
knee,2041
kneecap,2042
knees,2043
knew,2044
knock,2045
knocked,2046
knoe,2047
knots,2048
know,2049
knowing,2050
knowledge,2051
knows,2052
kong,2053
kp,2054
kparsedonedigit,2055
kramer,2056
kwilter,2057
la,2058
labour,2059
laces,2060
lack,2061
ladders,2062
ladies,2063
lads,2064
lady,2065
laid,2066
lance,2067
land,2068
landed,2069
lane,2070
lap,2071
lapper,2072
laps,2073
laptop,2074
larder,2075
lardy,2076
larff,2077
large,2078
larger,2079
lasted,2080
lasting,2081
lata,2082
late,2083
lately,2084
later,2085
latest,2086
laugh,2087
laughs,2088
law,2089
lawyers,2090
lay,2091
layer,2092
layers,2093
lazy,2094
lb,2095
ld,2096
lead,2097
leaders,2098
leaf,2099
league,2100
leagues,2101
learn,2102
learning,2103
learnt,2104
leave,2105
leaves,2106
led,2107
leeds,2108
left,2109
leg,2110
legends,2111
leggings,2112
legislate,2113
legless,2114
legs,2115
leicester,2116
leisure,2117
leith,2118
lend,2119
lenghts,2120
length,2121
lengths,2122
leotard,2123
lep,2124
let,2125
letchworth,2126
lets,2127
letter,2128
letters,2129
lettice,2130
letting,2131
level,2132
levels,2133
lf,2134
lfm,2135
lid,2136
life,2137
lifetime,2138
lift,2139
lifted,2140
ligamant,2141
ligament,2142
ligaments,2143
light,2144
lighty,2145
like,2146
liked,2147
likely,2148
likelyhood,2149
likes,2150
likewise,2151
limited,2152
limper,2153
lincolnshire,2154
line,2155
lined,2156
lining,2157
link,2158
links,2159
lip,2160
lisbon,2161
lise,2162
list,2163
listen,2164
literally,2165
litres,2166
little,2167
live,2168
lived,2169
liverpool,2170
lives,2171
living,2172
livvy,2173
ll,2174
llbe,2175
lloyds,2176
lm,2177
load,2178
loading,2179
loads,2180
local,2181
locally,2182
location,2183
loch,2184
log,2185
logging,2186
logic,2187
logo,2188
lol,2189
london,2190
long,2191
longer,2192
longest,2193
loo,2194
look,2195
looked,2196
looking,2197
looks,2198
loon,2199
loop,2200
loose,2201
loosened,2202
lord,2203
lorenzo,2204
lose,2205
losing,2206
lost,2207
lot,2208
lotiion,2209
lots,2210
lounge,2211
love,2212
loved,2213
lovely,2214
low,2215
lower,2216
lr,2217
ls,2218
lsd,2219
lsr,2220
lsrs,2221
lt,2222
ltsa,2223
ltsb,2224
lucazade,2225
lucinda,2226
luck,2227
luckily,2228
lucky,2229
lucozade,2230
lucy,2231
lunch,2232
lunchtime,2233
lung,2234
lungs,2235
lurgified,2236
lurgy,2237
lurk,2238
lurking,2239
luton,2240
luxembourg,2241
luxury,2242
lwparsedonedigit,2243
lycra,2244
lyndy,2245
macc,2246
machine,2247
machines,2248
macmillan,2249
macs,2250
mad,2251
mag,2252
magazine,2253
magic,2254
magnesium,2255
maidenhead,2256
mail,2257
mailed,2258
main,2259
maintain,2260
maintained,2261
major,2262
majority,2263
make,2264
maker,2265
makes,2266
making,2267
male,2268
males,2269
mall,2270
malt,2271
malverns,2272
man,2273
manage,2274
managed,2275
management,2276
mankind,2277
mantra,2278
mantras,2279
map,2280
maps,2281
mara,2282
marafuns,2283
maramates,2284
maras,2285
marathon,2286
marathoner,2287
marathoners,2288
marathons,2289
march,2290
marcus,2291
marders,2292
margin,2293
marigold,2294
mark,2295
marker,2296
markers,2297
market,2298
markings,2299
marl,2300
marmite,2301
marparsedtwodigitsindex,2302
marshalling,2303
marshals,2304
martial,2305
martin,2306
mashed,2307
massage,2308
masses,2309
massive,2310
massively,2311
masters,2312
match,2313
mate,2314
material,2315
maternity,2316
mates,2317
matie,2318
matt,2319
matter,2320
matttherat,2321
mava,2322
max,2323
maxine,2324
maybe,2325
mayo,2326
mayor,2327
maze,2328
mb,2329
mc,2330
mcallister,2331
mcrae,2332
meal,2333
mean,2334
meaning,2335
means,2336
meant,2337
meantime,2338
mecca,2339
med,2340
medal,2341
medals,2342
medical,2343
medium,2344
meerkat,2345
meet,2346
meeting,2347
meetings,2348
meg,2349
mega,2350
meldy,2351
melt,2352
members,2353
memory,2354
men,2355
mend,2356
meningitis,2357
mens,2358
mental,2359
mentally,2360
mention,2361
mentioned,2362
merchandise,2363
mercy,2364
merging,2365
merrier,2366
mess,2367
message,2368
metcheck,2369
metres,2370
mhr,2371
miami,2372
mib,2373
mick,2374
mid,2375
middle,2376
midfoot,2377
midlands,2378
midnight,2379
midweek,2380
mighty,2381
mike,2382
mikeb,2383
milage,2384
milan,2385
mild,2386
mildly,2387
mile,2388
mileage,2389
mileometer,2390
miler,2391
milers,2392
miles,2393
milk,2394
milton,2395
min,2396
mind,2397
minging,2398
mini,2399
minimum,2400
minkey,2401
minkin,2402
minni,2403
minor,2404
mins,2405
minunte,2406
minus,2407
minute,2408
minutes,2409
mis,2410
miserable,2411
miss,2412
missed,2413
missing,2414
mission,2415
missp,2416
mistype,2417
mitten,2418
mix,2419
mixed,2420
mizuno,2421
ml,2422
mm,2423
mmm,2424
mn,2425
mnay,2426
mo,2427
mobile,2428
mode,2429
model,2430
models,2431
modes,2432
modest,2433
moggie,2434
mokina,2435
moment,2436
moments,2437
momentum,2438
mon,2439
monday,2440
mondays,2441
money,2442
monique,2443
monitor,2444
month,2445
monthly,2446
months,2447
monument,2448
mood,2449
moonlight,2450
moons,2451
moral,2452
morale,2453
morecambe,2454
mornibg,2455
morning,2456
mornings,2457
mortals,2458
mother,2459
motion,2460
motivated,2461
motor,2462
mountain,2463
mouse,2464
mouth,2465
moved,2466
moving,2467
mp,2468
mparsedonedigit,2469
mparsedtwodigits,2470
mpparsedonedigit,2471
mpw,2472
mr,2473
mrs,2474
mrsc,2475
mt,2476
mtr,2477
mud,2478
mudchute,2479
muddy,2480
muff,2481
muffins,2482
mug,2483
multiple,2484
multiples,2485
mum,2486
mummy,2487
munter,2488
murderers,2489
muscle,2490
muscles,2491
mush,2492
music,2493
muttering,2494
muv,2495
mvparsedtwodigits,2496
mystery,2497
nah,2498
nail,2499
nailed,2500
nails,2501
nam,2502
narrowly,2503
natalie,2504
national,2505
nationals,2506
nationwide,2507
natural,2508
naturally,2509
natwest,2510
naughty,2511
ndash,2512
near,2513
nearer,2514
nearest,2515
nearing,2516
nearly,2517
necessary,2518
need,2519
needed,2520
needs,2521
negative,2522
negotiate,2523
nelly,2524
nepal,2525
nerves,2526
nervous,2527
ness,2528
net,2529
neural,2530
neutral,2531
nevermind,2532
new,2533
newark,2534
newbies,2535
news,2536
nf,2537
nhs,2538
nice,2539
nicely,2540
nick,2541
nickm,2542
nicks,2543
nicky,2544
niggle,2545
niggles,2546
niggly,2547
nigh,2548
night,2549
nightmare,2550
nights,2551
nikster,2552
nimbus,2553
nipple,2554
nipples,2555
nippynora,2556
nissed,2557
njord,2558
nl,2559
nn,2560
noise,2561
nolan,2562
non,2563
nope,2564
normal,2565
normally,2566
normski,2567
north,2568
northern,2569
nose,2570
nostalgic,2571
note,2572
notes,2573
noticed,2574
notifications,2575
november,2576
novice,2577
novotel,2578
nowt,2579
nts,2580
numb,2581
number,2582
numbers,2583
nurse,2584
nutrition,2585
nutter,2586
ny,2587
nyc,2588
nytol,2589
nz,2590
oakley,2591
objectives,2592
obliged,2593
obscene,2594
observations,2595
obsessive,2596
obstacles,2597
obviously,2598
occasion,2599
occasional,2600
occasionally,2601
occasions,2602
occured,2603
ock,2604
oct,2605
october,2606
odd,2607
oddly,2608
ode,2609
odeon,2610
ofcourse,2611
offer,2612
offered,2613
office,2614
official,2615
officially,2616
oh,2617
ohamd,2618
oj,2619
ojs,2620
ok,2621
okay,2622
ol,2623
old,2624
older,2625
oldies,2626
olympic,2627
olympics,2628
om,2629
ometer,2630
ones,2631
online,2632
ontop,2633
onwards,2634
onyl,2635
oo,2636
oooer,2637
oooh,2638
oooooh,2639
ooops,2640
oops,2641
op,2642
open,2643
opened,2644
opening,2645
operating,2646
opinion,2647
opportunity,2648
opporutunities,2649
opposed,2650
opposite,2651
opposition,2652
opted,2653
optimistic,2654
option,2655
options,2656
orange,2657
order,2658
ordered,2659
org,2660
organisation,2661
organise,2662
organizing,2663
orient,2664
original,2665
orthotic,2666
osd,2667
osmotherley,2668
osteo,2669
ot,2670
ouch,2671
outbreak,2672
outfit,2673
outing,2674
outlet,2675
outside,2676
outstanding,2677
ovaltine,2678
ovder,2679
overall,2680
overdo,2681
overdone,2682
overhead,2683
overhearing,2684
overstretched,2685
overtake,2686
overtaken,2687
overtired,2688
overtook,2689
overtrained,2690
owe,2691
owing,2692
owner,2693
oxford,2694
ozy,2695
pace,2696
paced,2697
pacemaker,2698
pacer,2699
pacers,2700
paces,2701
pacing,2702
pack,2703
packed,2704
packs,2705
padams,2706
paddington,2707
paddock,2708
page,2709
pages,2710
paid,2711
pain,2712
painful,2713
painfull,2714
painless,2715
pains,2716
paint,2717
painting,2718
pair,2719
pairs,2720
paltry,2721
panic,2722
panties,2723
paper,2724
paranoid,2725
parentcraft,2726
paris,2727
park,2728
parking,2729
parks,2730
parly,2731
parseddigits,2732
parseddigitsish,2733
parseddigitsk,2734
parseddigitsm,2735
parseddigitsmi,2736
parseddigitsmiles,2737
parseddigitsmph,2738
parsedfivedigits,2739
parsedfourdigits,2740
parsedfourdigitsm,2741
parsedonedigit,2742
parsedonedigitam,2743
parsedonedigiter,2744
parsedonedigites,2745
parsedonedigitgram,2746
parsedonedigith,2747
parsedonedigithr,2748
parsedonedigithrs,2749
parsedonedigitish,2750
parsedonedigitk,2751
parsedonedigitkm,2752
parsedonedigitlb,2753
parsedonedigitlbs,2754
parsedonedigitm,2755
parsedonedigitmin,2756
parsedonedigitmins,2757
parsedonedigitmm,2758
parsedonedigitmms,2759
parsedonedigitmph,2760
parsedonedigitn,2761
parsedonedigitnd,2762
parsedonedigitpm,2763
parsedonedigitrd,2764
parsedonedigitsecs,2765
parsedonedigitst,2766
parsedonedigitth,2767
parsedonedigitx,2768
parsedsixdigits,2769
parsedthreedigits,2770
parsedthreedigitsbpm,2771
parsedthreedigitsm,2772
parsedthreedigitsml,2773
parsedthreedigitss,2774
parsedthreedigitsyards,2775
parsedtime,2776
parsedtwodigits,2777
parsedtwodigitshrs,2778
parsedtwodigitsish,2779
parsedtwodigitsk,2780
parsedtwodigitskm,2781
parsedtwodigitsks,2782
parsedtwodigitslbs,2783
parsedtwodigitsm,2784
parsedtwodigitsmi,2785
parsedtwodigitsmile,2786
parsedtwodigitsmiler,2787
parsedtwodigitsmiles,2788
parsedtwodigitsmin,2789
parsedtwodigitsmins,2790
parsedtwodigitsmm,2791
parsedtwodigitsmnths,2792
parsedtwodigitsmparseddigitss,2793
parsedtwodigitsmpw,2794
parsedtwodigitsp,2795
parsedtwodigitspm,2796
parsedtwodigitsrd,2797
parsedtwodigitss,2798
parsedtwodigitsst,2799
parsedtwodigitsth,2800
parsedtwodigitsxparsedthreedigits,2801
partial,2802
participants,2803
particular,2804
particularly,2805
partly,2806
partner,2807
parts,2808
party,2809
passed,2810
passing,2811
past,2812
pasta,2813
paste,2814
pat,2815
patch,2816
pathetic,2817
paths,2818
paul,2819
paula,2820
pavement,2821
pavements,2822
pavey,2823
paving,2824
pay,2825
paying,2826
payment,2827
payments,2828
pb,2829
pbs,2830
pc,2831
peak,2832
peaked,2833
peaks,2834
peanut,2835
peeekay,2836
peel,2837
peeled,2838
peeps,2839
pelt,2840
pen,2841
pengiun,2842
penny,2843
people,2844
pepe,2845
perceived,2846
perfect,2847
perfectly,2848
performance,2849
performances,2850
period,2851
permitting,2852
person,2853
personally,2854
perspective,2855
persuade,2856
perusing,2857
peter,2858
petrol,2859
pets,2860
pf,2861
pfitzinger,2862
phal,2863
phase,2864
phenomenal,2865
phew,2866
phil,2867
philpub,2868
phoenix,2869
phone,2870
phoned,2871
photo,2872
photos,2873
phsycological,2874
physical,2875
physically,2876
physio,2877
pick,2878
picked,2879
picking,2880
picnic,2881
pics,2882
picture,2883
piece,2884
pig,2885
pilates,2886
piles,2887
pilgrimage,2888
pills,2889
pimlico,2890
pinks,2891
pints,2892
pip,2893
pit,2894
pitch,2895
pits,2896
pity,2897
pizza,2898
pizzaman,2899
pj,2900
place,2901
placed,2902
places,2903
plan,2904
planned,2905
planning,2906
plans,2907
plasters,2908
plate,2909
plateau,2910
play,2911
played,2912
player,2913
playing,2914
pleasant,2915
pleased,2916
pleasing,2917
plenty,2918
plod,2919
plodder,2920
plodding,2921
plodette,2922
ploding,2923
plough,2924
plumetted,2925
plus,2926
pm,2927
pmp,2928
podds,2929
podiatrist,2930
podretta,2931
point,2932
pointed,2933
pointing,2934
points,2935
poland,2936
polar,2937
police,2938
pollution,2939
poo,2940
pool,2941
poor,2942
poorly,2943
pop,2944
poparsedonedigit,2945
popped,2946
popping,2947
pops,2948
popular,2949
populate,2950
porcus,2951
porridge,2952
port,2953
position,2954
positive,2955
poss,2956
possible,2957
possibly,2958
post,2959
posted,2960
posting,2961
postings,2962
posts,2963
potential,2964
potentially,2965
pounding,2966
pounds,2967
pouring,2968
poxy,2969
pp,2970
pparsedthreedigits,2971
ppb,2972
practical,2973
practise,2974
prague,2975
pram,2976
pray,2977
prayers,2978
pre,2979
precedents,2980
precisions,2981
predicitons,2982
predict,2983
predicted,2984
predicting,2985
prediction,2986
prefer,2987
preferably,2988
preferring,2989
premises,2990
prep,2991
preparation,2992
prepare,2993
prepared,2994
preregister,2995
present,2996
pressure,2997
presumably,2998
pretend,2999
pretty,3000
prevent,3001
previous,3002
previously,3003
price,3004
priceless,3005
pricy,3006
primarily,3007
primrose,3008
princess,3009
principle,3010
principles,3011
pringles,3012
printed,3013
priorities,3014
priority,3015
private,3016
prize,3017
prob,3018
probably,3019
problem,3020
problems,3021
proceeds,3022
process,3023
productive,3024
profile,3025
profiting,3026
prog,3027
progress,3028
progressed,3029
progressivly,3030
prohibition,3031
projecting,3032
prolonging,3033
promise,3034
promptly,3035
proof,3036
proper,3037
properly,3038
prospect,3039
proud,3040
pround,3041
prove,3042
provide,3043
providing,3044
provision,3045
provisional,3046
ps,3047
pseudo,3048
psi,3049
pub,3050
public,3051
puff,3052
puffy,3053
pug,3054
pugs,3055
pulled,3056
puma,3057
pun,3058
punching,3059
punishment,3060
purchased,3061
purely,3062
purpose,3063
purposes,3064
push,3065
pusher,3066
pushes,3067
pushing,3068
puts,3069
putting,3070
pw,3071
qparsedonedigit,3072
qq,3073
quacks,3074
quad,3075
quads,3076
qualified,3077
qualify,3078
qualifying,3079
quality,3080
quarter,3081
question,3082
questions,3083
queue,3084
queueing,3085
queues,3086
quick,3087
quicker,3088
quickly,3089
quid,3090
quids,3091
quiet,3092
quietly,3093
quite,3094
rabbit,3095
race,3096
raced,3097
racers,3098
races,3099
rach,3100
racing,3101
rackstraw,3102
railway,3103
rain,3104
raining,3105
raise,3106
raised,3107
raising,3108
raks,3109
ramble,3110
rambling,3111
ramp,3112
ran,3113
range,3114
rapists,3115
rare,3116
rarity,3117
rat,3118
rate,3119
rated,3120
rattle,3121
ravenscourt,3122
rb,3123
rbs,3124
reach,3125
reached,3126
reaching,3127
reaction,3128
read,3129
reading,3130
readings,3131
reads,3132
ready,3133
real,3134
realise,3135
realised,3136
realising,3137
realistically,3138
reall,3139
really,3140
rear,3141
rearly,3142
reason,3143
reasonably,3144
reasons,3145
rec,3146
recall,3147
recce,3148
receive,3149
received,3150
recent,3151
recently,3152
reckon,3153
reckoned,3154
recognise,3155
recommend,3156
recommended,3157
record,3158
records,3159
recorn,3160
recount,3161
recover,3162
recovered,3163
recoveries,3164
recovering,3165
recovery,3166
recreational,3167
red,3168
reds,3169
reduce,3170
reduced,3171
reduces,3172
reducing,3173
reentering,3174
refered,3175
refereeing,3176
reflect,3177
refreshed,3178
refueling,3179
regarding,3180
regardless,3181
regards,3182
regents,3183
regimen,3184
register,3185
registered,3186
registration,3187
regretted,3188
regroup,3189
regular,3190
rehearse,3191
rejected,3192
rejection,3193
rejections,3194
relates,3195
relative,3196
relatives,3197
relax,3198
relaxed,3199
relaxing,3200
relay,3201
relays,3202
relect,3203
relents,3204
relief,3205
religious,3206
relying,3207
remain,3208
remaining,3209
remains,3210
remarkable,3211
remedial,3212
remedy,3213
remember,3214
reminding,3215
reminds,3216
removed,3217
removing,3218
rep,3219
repair,3220
repaired,3221
repeated,3222
replace,3223
replacement,3224
replied,3225
replies,3226
reply,3227
replys,3228
report,3229
reports,3230
reps,3231
requesting,3232
require,3233
required,3234
research,3235
resembled,3236
reserved,3237
resident,3238
resiliency,3239
resistance,3240
respect,3241
responded,3242
responses,3243
rest,3244
rested,3245
restless,3246
result,3247
results,3248
resume,3249
retain,3250
retirement,3251
return,3252
returned,3253
revelation,3254
revenge,3255
revised,3256
reward,3257
rewarded,3258
rf,3259
rfg,3260
rfj,3261
rfl,3262
rhayader,3263
rice,3264
rich,3265
richard,3266
richmond,3267
rick,3268
rid,3269
ride,3270
rides,3271
ridiculous,3272
riding,3273
right,3274
rightly,3275
rigorously,3276
ring,3277
ringing,3278
rings,3279
rink,3280
rio,3281
rioja,3282
risk,3283
rival,3284
rivals,3285
river,3286
riza,3287
rk,3288
rm,3289
road,3290
roads,3291
rob,3292
robin,3293
robinsonesque,3294
rochelle,3295
rocket,3296
rocking,3297
rocks,3298
roger,3299
roll,3300
rollick,3301
roma,3302
romantic,3303
roobarb,3304
roobarbs,3305
room,3306
rooms,3307
rooting,3308
rossendale,3309
rotation,3310
rotterdam,3311
rough,3312
roughly,3313
round,3314
roundhay,3315
route,3316
routes,3317
rover,3318
row,3319
rowan,3320
rowing,3321
roz,3322
rub,3323
rubber,3324
rubbish,3325
ruby,3326
rue,3327
rugby,3328
ruined,3329
ruining,3330
ruislip,3331
rule,3332
rules,3333
rumbletum,3334
run,3335
runlikethewind,3336
runner,3337
runners,3338
running,3339
runny,3340
runs,3341
ruscr,3342
rush,3343
rushing,3344
rw,3345
rwc,3346
sad,3347
saddle,3348
sadly,3349
safc,3350
safe,3351
safety,3352
said,3353
sailing,3354
sainsburys,3355
salad,3356
salt,3357
samba,3358
sammy,3359
samples,3360
sandra,3361
sandstorms,3362
sandwich,3363
sandwiches,3364
sanis,3365
sanps,3366
sant,3367
santa,3368
sapping,3369
saqib,3370
sarah,3371
sarus,3372
sat,3373
satisfied,3374
saturday,3375
saturdays,3376
sauce,3377
savage,3378
saving,3379
saw,3380
say,3381
saying,3382
says,3383
sb,3384
sbf,3385
sc,3386
scale,3387
scare,3388
scared,3389
scarf,3390
scarily,3391
scary,3392
scenery,3393
schedule,3394
schedules,3395
scheme,3396
schiphol,3397
school,3398
sciatica,3399
score,3400
scorpions,3401
scotland,3402
scott,3403
screen,3404
screwed,3405
scrubs,3406
scrumptious,3407
sdi,3408
sea,3409
searching,3410
season,3411
seasons,3412
seat,3413
second,3414
secondary,3415
secondly,3416
seconds,3417
secs,3418
section,3419
sections,3420
securing,3421
seeing,3422
seeking,3423
seemingly,3424
seen,3425
seize,3426
selbs,3427
selby,3428
self,3429
sell,3430
semi,3431
semis,3432
send,3433
sending,3434
sense,3435
sensibility,3436
sensible,3437
sensitive,3438
sent,3439
separate,3440
sept,3441
september,3442
seren,3443
seriously,3444
service,3445
serviced,3446
sesamoid,3447
session,3448
sessions,3449
set,3450
sets,3451
settings,3452
settle,3453
settled,3454
seven,3455
severe,3456
sezz,3457
sf,3458
shades,3459
shall,3460
shame,3461
shape,3462
share,3463
sharp,3464
sharpeners,3465
sharper,3466
sheep,3467
shelter,3468
shields,3469
shift,3470
shifting,3471
shimmied,3472
shimmy,3473
shin,3474
shins,3475
shiny,3476
shiraz,3477
shirl,3478
shirt,3479
shirts,3480
sho,3481
shocker,3482
shocking,3483
shoe,3484
shoes,3485
shoot,3486
shooting,3487
shop,3488
shopping,3489
shops,3490
short,3491
shorter,3492
shortly,3493
shotokn,3494
shoukld,3495
shoulder,3496
shoulders,3497
shouldn,3498
shout,3499
showboat,3500
showed,3501
shower,3502
showered,3503
shows,3504
shparsedonedigitte,3505
shuffled,3506
shuffler,3507
shy,3508
si,3509
sick,3510
sign,3511
signals,3512
signed,3513
significant,3514
signing,3515
silence,3516
sill,3517
silly,3518
silver,3519
silverstone,3520
similar,3521
similarity,3522
simon,3523
simple,3524
simply,3525
singapore,3526
single,3527
sink,3528
sir,3529
sis,3530
sister,3531
sit,3532
site,3533
sitting,3534
situated,3535
size,3536
sized,3537
skating,3538
skidding,3539
skills,3540
skin,3541
skinny,3542
skip,3543
skipper,3544
skirt,3545
sky,3546
skye,3547
slacker,3548
slaps,3549
sleep,3550
sleeping,3551
sleepless,3552
sleepy,3553
sleet,3554
sleeve,3555
slept,3556
slight,3557
slightly,3558
slimboyslim,3559
slipped,3560
sloping,3561
sloth,3562
slow,3563
slowed,3564
slowely,3565
slower,3566
slowest,3567
slowly,3568
small,3569
smaller,3570
smarter,3571
smell,3572
smelling,3573
smiffie,3574
smile,3575
smilin,3576
smiling,3577
smith,3578
smoke,3579
smoothie,3580
snail,3581
snakes,3582
sneak,3583
sneaking,3584
sneeky,3585
sniffles,3586
snifter,3587
snooze,3588
snow,3589
soaked,3590
soapbox,3591
social,3592
sock,3593
socks,3594
sod,3595
sods,3596
sofa,3597
soft,3598
softener,3599
solely,3600
somebody,3601
somerset,3602
somethin,3603
somewhat,3604
son,3605
sons,3606
soon,3607
sooooo,3608
sooooooooo,3609
sorbothane,3610
sore,3611
soreness,3612
sores,3613
sorry,3614
sort,3615
sorted,3616
sound,3617
sounded,3618
sounds,3619
source,3620
south,3621
southerns,3622
spannerbparsedonedigittchbumfface,3623
spans,3624
spare,3625
spasming,3626
speak,3627
speaking,3628
special,3629
spectactularly,3630
spectacularly,3631
spectate,3632
spectating,3633
speed,3634
speediest,3635
speedwork,3636
speedy,3637
spelling,3638
spend,3639
spending,3640
spent,3641
spied,3642
spikes,3643
spill,3644
splash,3645
split,3646
splits,3647
spoke,3648
spoken,3649
sponsor,3650
sponsored,3651
sponsorship,3652
spoon,3653
sport,3654
sporting,3655
sportive,3656
sports,3657
spose,3658
spot,3659
spotted,3660
spray,3661
spread,3662
spring,3663
springbok,3664
sprint,3665
sprinted,3666
sprinting,3667
sprints,3668
sprouts,3669
spur,3670
spurs,3671
sq,3672
squad,3673
squash,3674
squeak,3675
squint,3676
ss,3677
sswfw,3678
st,3679
stability,3680
stadium,3681
staff,3682
stage,3683
stages,3684
stain,3685
stairs,3686
stalls,3687
stamina,3688
stamped,3689
stand,3690
standard,3691
standards,3692
standing,3693
stands,3694
star,3695
stare,3696
starp,3697
start,3698
started,3699
starting,3700
starts,3701
state,3702
statement,3703
statements,3704
static,3705
station,3706
stations,3707
statistics,3708
stats,3709
status,3710
stay,3711
stayed,3712
staying,3713
steadily,3714
steady,3715
steam,3716
steep,3717
step,3718
stephen,3719
steve,3720
stevi,3721
stick,3722
sticking,3723
stickless,3724
sticks,3725
sticky,3726
stiff,3727
stiffer,3728
stiffness,3729
stinking,3730
stint,3731
stipulates,3732
stocks,3733
stoke,3734
stoker,3735
stomach,3736
stone,3737
stonking,3738
stop,3739
stopped,3740
stopping,3741
stoppit,3742
stops,3743
stopwatch,3744
stored,3745
stories,3746
storms,3747
story,3748
stourbridge,3749
straigh,3750
straight,3751
strain,3752
strange,3753
strategies,3754
strategy,3755
stratford,3756
streaks,3757
street,3758
strength,3759
stress,3760
stretch,3761
stretched,3762
stretches,3763
stretching,3764
strictly,3765
strides,3766
strips,3767
stroke,3768
strong,3769
stronger,3770
strongly,3771
structure,3772
struggle,3773
struggled,3774
struggling,3775
stubs,3776
stuck,3777
stuff,3778
stupid,3779
style,3780
stylish,3781
sub,3782
subconcious,3783
subconsciously,3784
subject,3785
subjects,3786
submerging,3787
subscriber,3788
substituted,3789
success,3790
suck,3791
sucker,3792
suddenly,3793
sue,3794
suffer,3795
suffice,3796
suffolk,3797
suggest,3798
suggested,3799
suggesting,3800
suggestion,3801
suggestions,3802
suit,3803
suited,3804
sulk,3805
summary,3806
summer,3807
sun,3808
sunday,3809
sundays,3810
sunderland,3811
sunny,3812
super,3813
superdebbo,3814
supernova,3815
suposed,3816
supplements,3817
supply,3818
support,3819
supporter,3820
supporters,3821
supporting,3822
suppose,3823
supposed,3824
supposedly,3825
supreme,3826
sure,3827
surely,3828
surface,3829
surfaces,3830
surges,3831
surprise,3832
surprised,3833
surprisingly,3834
surrounding,3835
survive,3836
survived,3837
surviving,3838
susan,3839
susie,3840
suspect,3841
suspicious,3842
sussex,3843
sustinence,3844
sutts,3845
sw,3846
swallow,3847
swam,3848
swanny,3849
sweat,3850
sweating,3851
sweaty,3852
swedwr,3853
sweep,3854
sweet,3855
sweeter,3856
sweetest,3857
swift,3858
swim,3859
swimming,3860
swims,3861
swin,3862
switch,3863
switching,3864
swparsedtwodigits,3865
sydney,3866
sympathize,3867
sympathy,3868
symptoms,3869
table,3870
tackling,3871
tactics,3872
tad,3873
tails,3874
takeaway,3875
taken,3876
takes,3877
taking,3878
talent,3879
tales,3880
talk,3881
talking,3882
tall,3883
taller,3884
tallguy,3885
tamworth,3886
tank,3887
tape,3888
taper,3889
tapering,3890
target,3891
targeted,3892
targets,3893
tarmac,3894
task,3895
tasks,3896
taste,3897
tavern,3898
taz,3899
tb,3900
tea,3901
teacher,3902
team,3903
teams,3904
technical,3905
teeshirt,3906
teeth,3907
teh,3908
telephone,3909
tell,3910
telling,3911
tells,3912
telly,3913
temp,3914
temperatures,3915
temperorary,3916
tempo,3917
temporary,3918
tempted,3919
tempting,3920
tend,3921
tended,3922
tendency,3923
tender,3924
tendonitis,3925
tendonosis,3926
tens,3927
tension,3928
tent,3929
tergat,3930
term,3931
terms,3932
test,3933
testicles,3934
testing,3935
tests,3936
text,3937
tf,3938
tfparsedonedigit,3939
thames,3940
thanet,3941
thank,3942
thankfully,3943
thanks,3944
thansk,3945
thats,3946
theatre,3947
themall,3948
themarathon,3949
theory,3950
therapist,3951
thereabouts,3952
theres,3953
thermals,3954
thigh,3955
thighs,3956
thing,3957
things,3958
think,3959
thinking,3960
thinks,3961
thinning,3962
tho,3963
thomas,3964
thoroughly,3965
thou,3966
thought,3967
thoughts,3968
thread,3969
threads,3970
threshold,3971
throbb,3972
throw,3973
throwaway,3974
thrown,3975
thurs,3976
thursday,3977
tibial,3978
ticker,3979
tickets,3980
ticking,3981
tight,3982
tighten,3983
tightness,3984
tights,3985
til,3986
till,3987
tillyp,3988
tim,3989
time,3990
timely,3991
times,3992
timex,3993
timing,3994
tin,3995
tinge,3996
tinkerbelle,3997
tinribs,3998
tiny,3999
tip,4000
tipptop,4001
tips,4002
tired,4003
tiredness,4004
tissue,4005
tl,4006
tm,4007
tmap,4008
tmr,4009
toasty,4010
today,4011
toddies,4012
toe,4013
toenail,4014
toenails,4015
toes,4016
toilet,4017
toilets,4018
told,4019
tom,4020
tommorow,4021
tommorrow,4022
tomorrow,4023
tonight,4024
tonk,4025
tony,4026
took,4027
toooo,4028
tooooo,4029
tootie,4030
tooting,4031
topics,4032
topped,4033
topping,4034
tops,4035
torn,4036
tortoiseparsedtwodigits,4037
total,4038
totally,4039
totm,4040
touch,4041
tough,4042
toughener,4043
toulouse,4044
tourism,4045
towars,4046
tower,4047
town,4048
towners,4049
toyed,4050
tr,4051
tracey,4052
track,4053
tracking,4054
trafalgar,4055
trail,4056
trailplus,4057
train,4058
trained,4059
trainers,4060
trainign,4061
training,4062
trains,4063
traning,4064
transport,4065
travel,4066
travelling,4067
travis,4068
treading,4069
treadmill,4070
treadmills,4071
tready,4072
treat,4073
treated,4074
treatment,4075
treddie,4076
treddy,4077
trees,4078
trendy,4079
trg,4080
tri,4081
trial,4082
triathlon,4083
triathlons,4084
trick,4085
tricks,4086
tricky,4087
tried,4088
tries,4089
trimpell,4090
trin,4091
trinity,4092
trip,4093
triple,4094
tripped,4095
trochanter,4096
trollers,4097
trophy,4098
trot,4099
trouble,4100
troubled,4101
trouty,4102
trucking,4103
true,4104
truely,4105
truleigh,4106
truly,4107
trumpets,4108
trunk,4109
trust,4110
truthful,4111
try,4112
trying,4113
ts,4114
tsb,4115
tt,4116
ttt,4117
tub,4118
tubby,4119
tube,4120
tues,4121
tuesday,4122
tumbridge,4123
tuning,4124
tunturi,4125
turbo,4126
turkey,4127
turn,4128
turned,4129
turning,4130
turnout,4131
turns,4132
tutu,4133
tv,4134
tw,4135
twice,4136
twixt,4137
type,4138
typical,4139
typically,4140
tyres,4141
uess,4142
ufrc,4143
uk,4144
ukathletics,4145
ultra,4146
ultrasound,4147
um,4148
umb,4149
umbongo,4150
unbearable,4151
unchanged,4152
uncle,4153
uncomfortable,4154
understand,4155
understandable,4156
understood,4157
undulating,4158
uneven,4159
unexpectly,4160
unfinished,4161
unfortunately,4162
unhappy,4163
unimpressed,4164
unique,4165
unit,4166
united,4167
unknown,4168
unless,4169
unlike,4170
unlikely,4171
unlucky,4172
unrealistic,4173
unreliable,4174
unsure,4175
unsurprising,4176
unto,4177
untrue,4178
update,4179
updated,4180
updates,4181
updating,4182
uphill,4183
upped,4184
upright,4185
ups,4186
upset,4187
upwards,4188
urban,4189
ure,4190
url,4191
urwfrc,4192
use,4193
used,4194
useful,4195
using,4196
usual,4197
usually,4198
ususally,4199
valentine,4200
value,4201
valuxian,4202
valve,4203
vanished,4204
varies,4205
various,4206
vasaline,4207
vaseline,4208
vb,4209
ve,4210
veggies,4211
vengeance,4212
venom,4213
venomous,4214
ventured,4215
venue,4216
verdict,4217
verge,4218
versus,4219
vest,4220
vet,4221
veteran,4222
victory,4223
video,4224
vienna,4225
view,4226
viffer,4227
villager,4228
viola,4229
virtual,4230
virus,4231
viruses,4232
visit,4233
visited,4234
visiting,4235
vital,4236
vitamin,4237
voice,4238
void,4239
volume,4240
vote,4241
vrap,4242
vs,4243
wabo,4244
waddling,4245
wafting,4246
wagon,4247
wahey,4248
waht,4249
wait,4250
waiting,4251
wake,4252
waking,4253
waldorf,4254
wales,4255
walk,4256
walked,4257
walking,4258
walks,4259
wall,4260
wandering,4261
wanders,4262
wanna,4263
want,4264
wanted,4265
wanting,4266
wants,4267
ward,4268
wardi,4269
warm,4270
warmed,4271
warmer,4272
warming,4273
warning,4274
warrior,4275
wasn,4276
wasps,4277
wasted,4278
wasting,4279
watch,4280
watched,4281
watching,4282
water,4283
watered,4284
waterloo,4285
waters,4286
watford,4287
waves,4288
waving,4289
way,4290
ways,4291
wc,4292
weak,4293
wealth,4294
wear,4295
wearing,4296
weather,4297
web,4298
website,4299
wed,4300
wedding,4301
wednesday,4302
weds,4303
wee,4304
week,4305
weekday,4306
weekend,4307
weekends,4308
weekly,4309
weeknights,4310
weeks,4311
weeman,4312
weetabix,4313
weigh,4314
weighs,4315
weight,4316
weird,4317
welcombe,4318
welcome,4319
wellie,4320
wells,4321
wembley,4322
went,4323
weren,4324
west,4325
westminster,4326
wet,4327
wetsuit,4328
wey,4329
whats,4330
wheelchair,4331
wheldrake,4332
whereabouts,4333
whiled,4334
whilst,4335
whisky,4336
whitby,4337
white,4338
whopping,4339
whow,4340
wi,4341
wicked,4342
wicking,4343
wider,4344
wife,4345
wifes,4346
wiff,4347
wilde,4348
willy,4349
wilton,4350
wimbledon,4351
wimped,4352
win,4353
wincanton,4354
wind,4355
windermere,4356
window,4357
windows,4358
windsor,4359
windsurfing,4360
windy,4361
wine,4362
wings,4363
winner,4364
winning,4365
wins,4366
winter,4367
wintery,4368
wise,4369
wish,4370
wished,4371
wishes,4372
wishful,4373
wit,4374
witch,4375
wixey,4376
wobbly,4377
woke,4378
woking,4379
wokingham,4380
woman,4381
womble,4382
women,4383
won,4384
wonder,4385
wondered,4386
wonderful,4387
wondering,4388
wonders,4389
wont,4390
wood,4391
wooden,4392
woods,4393
woodwork,4394
woohoo,4395
wooing,4396
woony,4397
worcester,4398
word,4399
words,4400
wore,4401
work,4402
worked,4403
working,4404
workload,4405
workout,4406
workouts,4407
works,4408
world,4409
worldpay,4410
worms,4411
wormwood,4412
worried,4413
worries,4414
worry,4415
worrying,4416
worse,4417
worsened,4418
worst,4419
worth,4420
worthwhile,4421
wotsit,4422
wouldn,4423
wound,4424
wow,4425
wp,4426
wrecked,4427
wristwatch,4428
writing,4429
wrong,4430
wrote,4431
ws,4432
wt,4433
wtf,4434
wtgy,4435
ww,4436
www,4437
wylls,4438
xc,4439
xmas,4440
xparsedonedigit,4441
xpost,4442
xtrrea,4443
xv,4444
xx,4445
ya,4446
yachts,4447
yah,4448
yards,4449
yateley,4450
yay,4451
yeah,4452
year,4453
yeara,4454
years,4455
yeh,4456
yep,4457
yer,4458
yes,4459
yesterday,4460
yesterdays,4461
yeterdays,4462
yikes,4463
yippeee,4464
yoghurts,4465
yogs,4466
yomping,4467
york,4468
yorks,4469
younger,4470
youre,4471
youself,4472
youth,4473
youths,4474
yr,4475
yrs,4476
yu,4477
yuk,4478
yum,4479
ywould,4480
zimchick,4481
zimmers,4482
zinc,4483
zip,4484
zone,4485
zzzzs,4486
