aaaaaay,0
aaaages,1
aad,2
aaron,3
aasss,4
aawwwww,5
abby,6
ability,7
able,8
aboard,9
abortionists,10
absolute,11
absolutely,12
abused,13
acceptin,14
accepting,15
access,16
accomplished,17
accounts,18
acdc,19
acl,20
act,21
acting,22
action,23
actual,24
actually,25
add,26
addd,27
added,28
adding,29
addition,30
address,31
adios,32
adorable,33
adrienne,34
advantage,35
adventure,36
ae,37
affair,38
aford,39
afternoon,40
age,41
ages,42
agggeezzz,43
aggitated,44
aggressive,45
ago,46
agree,47
ah,48
ahead,49
ahh,50
ahhh,51
ahold,52
aiden,53
aight,54
aim,55
aint,56
air,57
aka,58
alayout,59
alerts,60
alex,61
algebra,62
ali,63
alive,64
alleria,65
allisoncurboismyidol,66
alls,67
allways,68
alot,69
alpha,70
alright,71
alrite,72
alyssa,73
amanda,74
amazed,75
amazin,76
amazing,77
ambition,78
amen,79
amigo,80
amin,81
amy,82
ana,83
andrew,84
andy,85
angle,86
animal,87
anna,88
annie,89
annne,90
annnnnnneeeeee,91
answer,92
anthony,93
anxious,94
anymore,95
anytime,96
anywasy,97
anyways,98
anywayz,99
anywho,100
anyyywayyss,101
apart,102
apartment,103
app,104
apparently,105
applications,106
appreciated,107
appreciation,108
april,109
apt,110
area,111
argos,112
arizona,113
arm,114
army,115
arparsedonedigit,116
arse,117
ashlee,118
ashley,119
ask,120
asked,121
asking,122
asleep,123
asphyxiation,124
ass,125
asshole,126
associated,127
aswell,128
atavia,129
atcha,130
ater,131
atl,132
atleast,133
atm,134
attend,135
audience,136
auesome,137
august,138
aunt,139
auntie,140
austin,141
auto,142
automaticly,143
av,144
ave,145
avinger,146
aw,147
away,148
awesome,149
awhile,150
awsome,151
aww,152
awww,153
ax,154
ay,155
aye,156
bab,157
baba,158
babe,159
babies,160
baby,161
babyshower,162
backdrop,163
background,164
backround,165
backwards,166
bad,167
bag,168
baily,169
bak,170
bake,171
balcony,172
ball,173
ballin,174
band,175
bands,176
bank,177
banquet,178
bar,179
bargain,180
base,181
basement,182
basic,183
basics,184
basketball,185
bastardo,186
bastards,187
bat,188
battle,189
bboy,190
bday,191
beans,192
beast,193
beat,194
beatch,195
beautifil,196
beautiful,197
beauty,198
becky,199
becuz,200
bed,201
bedford,202
beds,203
bedside,204
beer,205
bein,206
beirut,207
belated,208
believ,209
believe,210
belly,211
bend,212
bent,213
best,214
bestest,215
bestfriend,216
bet,217
beta,218
betta,219
better,220
betty,221
bf,222
bff,223
biak,224
biased,225
biatch,226
big,227
bigears,228
bigger,229
biggest,230
biggie,231
biiiiaaatch,232
bike,233
bin,234
bird,235
birhday,236
birmingham,237
birth,238
birthdaaay,239
birthday,240
bish,241
bit,242
bitch,243
bitchassness,244
bitches,245
bite,246
bj,247
bk,248
black,249
blackadder,250
blaits,251
blast,252
bled,253
bleeding,254
bless,255
blessed,256
blog,257
blood,258
bloody,259
blow,260
blud,261
blunt,262
blurb,263
board,264
bob,265
bobby,266
body,267
boi,268
boii,269
bomb,270
bonded,271
boo,272
booooomer,273
bored,274
boring,275
born,276
borrow,277
boss,278
bother,279
bothered,280
bothhhh,281
bounce,282
bout,283
box,284
boy,285
boyah,286
boyfriend,287
boys,288
bparsedonedigit,289
brad,290
brah,291
brain,292
brandon,293
braunda,294
break,295
brii,296
bring,297
britt,298
brittoni,299
brixton,300
bro,301
broken,302
brotha,303
brother,304
brown,305
brudda,306
brynn,307
btw,308
buck,309
bud,310
buddies,311
buddy,312
buffalo,313
buffet,314
bugger,315
buh,316
building,317
bull,318
bullet,319
bulletins,320
bullied,321
bum,322
bumhole,323
bunch,324
bunches,325
burn,326
burned,327
burning,328
bus,329
busy,330
butt,331
buttercup,332
buttttttt,333
buy,334
bye,335
byebye,336
byexxx,337
cage,338
cakes,339
cali,340
called,341
calvin,342
came,343
cameo,344
camera,345
camp,346
campin,347
cap,348
capital,349
capri,350
car,351
cards,352
care,353
careers,354
carl,355
carlsile,356
carolina,357
carry,358
carrying,359
carson,360
cartoon,361
case,362
casey,363
cashflow,364
castles,365
catch,366
catchin,367
catching,368
catherine,369
catxxxxxx,370
cause,371
ceen,372
celebrate,373
celebrating,374
cell,375
cellular,376
centre,377
ceremony,378
certain,379
cha,380
chad,381
chance,382
change,383
changed,384
charge,385
charlie,386
chat,387
cheap,388
check,389
checked,390
checking,391
checks,392
cheer,393
cheers,394
cherries,395
cherry,396
chic,397
chica,398
chichi,399
chicken,400
chicks,401
child,402
children,403
chill,404
chillin,405
chocolate,406
choice,407
choir,408
chop,409
chord,410
chou,411
chris,412
christina,413
christmas,414
chu,415
chuck,416
chuckle,417
cilgrug,418
circumstances,419
city,420
cj,421
claps,422
clark,423
class,424
classes,425
clissified,426
close,427
closed,428
clown,429
club,430
cmb,431
cnat,432
cnt,433
coaches,434
cobbled,435
code,436
colege,437
colin,438
college,439
color,440
com,441
come,442
coment,443
coments,444
comin,445
coming,446
comment,447
commenting,448
comments,449
commetns,450
commets,451
commin,452
comming,453
communique,454
comng,455
company,456
competition,457
complete,458
completely,459
compliment,460
computer,461
conclusion,462
concord,463
conference,464
confiedent,465
congrat,466
congrats,467
congratulations,468
conner,469
conrad,470
consumed,471
contact,472
conveint,473
cooking,474
cool,475
cooperate,476
cope,477
corner,478
cory,479
cos,480
costume,481
couch,482
cough,483
couldn,484
count,485
counting,486
country,487
counts,488
couple,489
course,490
cousin,491
cover,492
coveted,493
crab,494
crackin,495
craig,496
crazey,497
crazy,498
credit,499
crew,500
crib,501
cruising,502
crushed,503
cryed,504
crystal,505
cubs,506
cudnt,507
cum,508
cummin,509
curl,510
cus,511
cusp,512
cut,513
cute,514
cutie,515
cutieface,516
cuttiiee,517
cuz,518
cuzins,519
cyber,520
cycling,521
da,522
dad,523
daddy,524
daffodils,525
dale,526
dam,527
damn,528
dan,529
dance,530
dancing,531
dandy,532
daniel,533
dark,534
darling,535
dat,536
date,537
dates,538
daughter,539
dave,540
dawg,541
day,542
days,543
dead,544
deal,545
dear,546
dec,547
decide,548
decided,549
dee,550
deep,551
def,552
deff,553
deffinatley,554
definitely,555
defo,556
defult,557
delta,558
dem,559
deserve,560
desperate,561
details,562
develop,563
developed,564
devin,565
dewd,566
dewey,567
dey,568
dick,569
did,570
didnt,571
die,572
different,573
digg,574
dinner,575
dis,576
discipline,577
discuss,578
disney,579
dispatch,580
display,581
diy,582
dj,583
dnt,584
doe,585
doen,586
does,587
doesn,588
doesnt,589
dogg,590
doidesh,591
doin,592
doing,593
don,594
doncaster,595
donna,596
dont,597
doo,598
dooooo,599
door,600
dope,601
doritos,602
dork,603
dorkazoid,604
double,605
doubt,606
dough,607
drawing,608
dread,609
dreams,610
dresser,611
drink,612
drinks,613
driving,614
drop,615
droping,616
droppin,617
dropping,618
drparsedonedigitamparsedonedigiter,619
drppin,620
drums,621
drunk,622
du,623
dude,624
dui,625
dun,626
duuuuude,627
eachother,628
ear,629
earl,630
earlier,631
early,632
easter,633
easy,634
eat,635
ed,636
eddie,637
edga,638
edinburgh,639
eee,640
ehhhhhhhhh,641
elissas,642
email,643
emily,644
emma,645
emmy,646
end,647
engaged,648
england,649
enjoy,650
enjoyin,651
enjoying,652
enlightenment,653
ensamble,654
enter,655
entertaining,656
entry,657
epidural,658
erase,659
eric,660
err,661
ese,662
especially,663
esteem,664
eternity,665
eva,666
evening,667
event,668
everybody,669
everybodys,670
everyday,671
everyones,672
everyother,673
everysaturday,674
everytime,675
exams,676
excellent,677
excited,678
exciting,679
excuses,680
expected,681
exploited,682
expression,683
extra,684
ey,685
eye,686
fa,687
face,688
facebook,689
fag,690
faith,691
faithful,692
fake,693
fall,694
falling,695
fam,696
family,697
fammo,698
fan,699
fancy,700
far,701
farnborough,702
farnham,703
fart,704
fast,705
fat,706
favor,707
favorite,708
faybe,709
feb,710
feel,711
feelin,712
feeling,713
feelings,714
feels,715
felisha,716
fes,717
festival,718
fight,719
fighting,720
figured,721
filled,722
filling,723
film,724
films,725
final,726
finally,727
finals,728
finding,729
fine,730
fingas,731
finger,732
finished,733
finna,734
finnally,735
firend,736
fishy,737
fit,738
fitness,739
fix,740
fixture,741
flash,742
flip,743
flovarful,744
fo,745
foo,746
food,747
fool,748
foolish,749
foosho,750
football,751
forefathers,752
forever,753
forget,754
forgive,755
forgot,756
forms,757
fortunate,758
forward,759
fran,760
frat,761
freakin,762
fred,763
freddie,764
free,765
freedom,766
freezes,767
freshman,768
friday,769
fried,770
friend,771
friendly,772
friends,773
friendz,774
fries,775
frm,776
fro,777
frodo,778
fs,779
fuck,780
fucka,781
fucked,782
fucker,783
fuckin,784
fucking,785
fucknuts,786
fun,787
funn,788
funner,789
funniest,790
funny,791
fwend,792
fyi,793
gaaabage,794
gab,795
gabbi,796
game,797
games,798
gard,799
garden,800
gave,801
gaw,802
gawgus,803
gd,804
gem,805
gena,806
general,807
generosity,808
geog,809
georgia,810
getin,811
gets,812
gettin,813
getting,814
gf,815
ggiltf,816
gh,817
ghettopatsy,818
ghost,819
giants,820
gift,821
gig,822
giggle,823
gimme,824
gimp,825
girl,826
girlie,827
girls,828
girly,829
girrrllllllllll,830
given,831
giving,832
givng,833
glad,834
glade,835
glass,836
god,837
gods,838
goes,839
gohh,840
goin,841
going,842
golden,843
gone,844
gonna,845
goober,846
good,847
goodbye,848
goofyass,849
goood,850
gooody,851
goose,852
gorgo,853
gosti,854
got,855
gothic,856
gotsta,857
gotta,858
gotten,859
gparsedonedigitiing,860
grab,861
gracin,862
graduate,863
graduated,864
gramma,865
grandpa,866
grateful,867
grats,868
grease,869
great,870
greatest,871
greg,872
grindin,873
groovy,874
ground,875
grow,876
grreegg,877
gsi,878
gud,879
guess,880
guide,881
gulps,882
gum,883
gun,884
guna,885
gunna,886
gurl,887
gurlie,888
gurrintees,889
guy,890
guys,891
ha,892
hadn,893
hafta,894
hah,895
haha,896
hahah,897
hahaha,898
hahahaha,899
hahahahahah,900
hahahahahaha,901
hahahahahahahah,902
hair,903
half,904
halloween,905
hallways,906
halo,907
ham,908
hammond,909
hand,910
handles,911
hands,912
handsome,913
hang,914
hangin,915
hanging,916
hangout,917
hannahs,918
happen,919
happened,920
happening,921
happier,922
happiness,923
happppest,924
happy,925
hard,926
hardcore,927
harder,928
harrassing,929
hasta,930
hat,931
hate,932
hater,933
hauz,934
hav,935
haven,936
havent,937
havin,938
having,939
havnt,940
hax,941
hayfever,942
hd,943
head,944
hear,945
heard,946
heart,947
hearts,948
heavan,949
heck,950
hector,951
heeey,952
hehe,953
heheh,954
hehehe,955
height,956
hell,957
hello,958
helloooooooo,959
helmet,960
helo,961
help,962
helped,963
henna,964
herd,965
hereeeeeee,966
heres,967
hero,968
hey,969
heyahh,970
heyy,971
hhheeeellllllooooooooo,972
hhhhhiiiiiiiiiiii,973
hi,974
hidin,975
high,976
highly,977
hii,978
hiiii,979
hiiiiiiiiiiiii,980
hillbilly,981
hit,982
hittin,983
hiya,984
hmm,985
hmmmm,986
hobag,987
hoe,988
hol,989
hold,990
hole,991
holiday,992
holidays,993
holla,994
holly,995
hols,996
hom,997
home,998
homeslice,999
homework,1000
homey,1001
homie,1002
homies,1003
homo,1004
honey,1005
honour,1006
honoured,1007
hoo,1008
hooked,1009
hooker,1010
hooters,1011
hope,1012
hopefully,1013
hopes,1014
hoping,1015
horny,1016
horror,1017
hot,1018
hotel,1019
hott,1020
hottest,1021
hottie,1022
hottstuff,1023
hour,1024
hours,1025
house,1026
hows,1027
howz,1028
hparsedonedigitpparseddigits,1029
htown,1030
hudson,1031
huey,1032
hug,1033
huggz,1034
hugo,1035
hugs,1036
huh,1037
humbled,1038
hump,1039
hun,1040
hundreds,1041
hung,1042
hungary,1043
hunny,1044
hunting,1045
hurry,1046
hurt,1047
hurts,1048
huy,1049
hye,1050
ibiza,1051
ice,1052
id,1053
idea,1054
idk,1055
ight,1056
ii,1057
il,1058
ill,1059
im,1060
ima,1061
impressive,1062
ina,1063
incase,1064
inches,1065
incredible,1066
indian,1067
induced,1068
infamous,1069
infinity,1070
ink,1071
inn,1072
inner,1073
inside,1074
instead,1075
intense,1076
interested,1077
internet,1078
interrested,1079
intresting,1080
invitation,1081
invite,1082
invited,1083
involved,1084
ironic,1085
isac,1086
ish,1087
island,1088
isn,1089
isnt,1090
itt,1091
iv,1092
ive,1093
iwas,1094
jacenia,1095
jackal,1096
jacksonville,1097
jacob,1098
jah,1099
jake,1100
james,1101
janine,1102
janinesiu,1103
janling,1104
jazzy,1105
jello,1106
jen,1107
jennifer,1108
jeremy,1109
jersy,1110
jess,1111
jessica,1112
jesss,1113
jewelry,1114
jigbooey,1115
jim,1116
jimmy,1117
jk,1118
job,1119
joe,1120
joelle,1121
john,1122
johnathon,1123
join,1124
joined,1125
joining,1126
joke,1127
jokes,1128
jon,1129
jonny,1130
joooolllz,1131
josh,1132
josiah,1133
journey,1134
joy,1135
jp,1136
juice,1137
julie,1138
july,1139
jundo,1140
june,1141
junk,1142
jus,1143
juss,1144
just,1145
justifiable,1146
justin,1147
jux,1148
kaitlyn,1149
kak,1150
kate,1151
keepin,1152
keeping,1153
kellen,1154
kelley,1155
kels,1156
ken,1157
kenny,1158
keshia,1159
kett,1160
keychain,1161
kick,1162
kickin,1163
kicks,1164
kid,1165
kidd,1166
kiddin,1167
kidding,1168
kidney,1169
kids,1170
kieron,1171
kill,1172
killed,1173
killer,1174
killers,1175
kiln,1176
kim,1177
kind,1178
kinda,1179
kindly,1180
kiss,1181
kisses,1182
kitties,1183
kizzy,1184
klink,1185
klinkenberg,1186
knew,1187
kno,1188
knoe,1189
knopfler,1190
know,1191
knowing,1192
knows,1193
knuckle,1194
knw,1195
kokua,1196
kong,1197
konntz,1198
kool,1199
korny,1200
krakkking,1201
kris,1202
kristin,1203
krys,1204
kuala,1205
kwm,1206
la,1207
laa,1208
labrynthitus,1209
ladie,1210
lady,1211
ladyrose,1212
lame,1213
lamin,1214
lan,1215
landed,1216
lata,1217
late,1218
lately,1219
later,1220
laters,1221
laterz,1222
lates,1223
latest,1224
latez,1225
laugh,1226
laughed,1227
laughing,1228
lawrence,1229
lax,1230
layel,1231
layout,1232
laziness,1233
lazy,1234
leadership,1235
leah,1236
leann,1237
learn,1238
learning,1239
leave,1240
leavin,1241
leaving,1242
lectures,1243
lee,1244
left,1245
legend,1246
legs,1247
let,1248
lets,1249
letter,1250
letting,1251
liars,1252
lick,1253
lies,1254
life,1255
light,1256
like,1257
liked,1258
lil,1259
lily,1260
limbernuts,1261
line,1262
lisa,1263
liss,1264
list,1265
listen,1266
listenin,1267
listin,1268
literally,1269
little,1270
live,1271
lives,1272
living,1273
ll,1274
llama,1275
llllooooooogggggaaaaaannnn,1276
lmao,1277
loads,1278
locker,1279
log,1280
logan,1281
lol,1282
lolol,1283
london,1284
long,1285
longer,1286
look,1287
looked,1288
looking,1289
looks,1290
loser,1291
loserific,1292
losers,1293
lost,1294
lot,1295
lots,1296
lottery,1297
louis,1298
lovce,1299
love,1300
loved,1301
lovee,1302
lovely,1303
loves,1304
lovesz,1305
loveuu,1306
lovin,1307
lparsedonedigitl,1308
lt,1309
lubb,1310
luck,1311
luckily,1312
lucky,1313
lumpur,1314
luv,1315
lylas,1316
ma,1317
macka,1318
macross,1319
mad,1320
madden,1321
madmen,1322
maggie,1323
magic,1324
mah,1325
maine,1326
mainly,1327
majorly,1328
make,1329
makeing,1330
makes,1331
making,1332
mall,1333
mama,1334
mamores,1335
man,1336
managed,1337
management,1338
manhahahhaahaha,1339
marc,1340
march,1341
marco,1342
margie,1343
maribel,1344
mark,1345
married,1346
marry,1347
martin,1348
martine,1349
maryville,1350
mas,1351
mate,1352
mates,1353
matey,1354
matt,1355
matter,1356
maureen,1357
maybe,1358
mayne,1359
mc,1360
meals,1361
mean,1362
means,1363
meet,1364
meeting,1365
megan,1366
mei,1367
mel,1368
melissa,1369
member,1370
men,1371
mentally,1372
mentioning,1373
merci,1374
merry,1375
merwin,1376
message,1377
messaged,1378
messaging,1379
met,1380
metal,1381
metel,1382
mets,1383
mex,1384
mi,1385
michelle,1386
michigan,1387
micro,1388
mike,1389
mikey,1390
miles,1391
min,1392
mind,1393
minn,1394
mins,1395
minute,1396
minutes,1397
miserable,1398
misery,1399
miss,1400
missed,1401
missing,1402
mission,1403
missouri,1404
missus,1405
mizz,1406
mizzouri,1407
mmmm,1408
mnogo,1409
mo,1410
modeling,1411
mom,1412
moment,1413
mommyhood,1414
monday,1415
money,1416
monica,1417
monster,1418
monterrey,1419
month,1420
months,1421
morning,1422
mother,1423
mouth,1424
moved,1425
movie,1426
movies,1427
movin,1428
moving,1429
mp,1430
mpact,1431
mr,1432
mrs,1433
ms,1434
msn,1435
muah,1436
muchoo,1437
muchos,1438
mudd,1439
multiculturalism,1440
mum,1441
mums,1442
munchin,1443
muscles,1444
music,1445
mutha,1446
muthafucka,1447
mutherfucking,1448
mwah,1449
mwahahahaha,1450
mwahhhh,1451
mwahz,1452
mysapce,1453
myspace,1454
myspae,1455
myyspaceeee,1456
na,1457
nag,1458
nah,1459
names,1460
nap,1461
nashville,1462
nasty,1463
nate,1464
nation,1465
natural,1466
naturally,1467
nature,1468
navid,1469
navy,1470
naw,1471
nd,1472
ne,1473
near,1474
nearly,1475
neck,1476
need,1477
needa,1478
needed,1479
needs,1480
needy,1481
neglected,1482
neighbours,1483
neil,1484
nell,1485
nerve,1486
nething,1487
neva,1488
new,1489
newcastle,1490
news,1491
neye,1492
nia,1493
nice,1494
nick,1495
nie,1496
nig,1497
nigga,1498
niggy,1499
night,1500
nights,1501
niiiice,1502
nobbers,1503
noodle,1504
noon,1505
nope,1506
norm,1507
north,1508
nothin,1509
notified,1510
november,1511
nplus,1512
nttn,1513
nuffffink,1514
nufink,1515
nul,1516
numbah,1517
number,1518
numbers,1519
nun,1520
nutting,1521
nver,1522
oceana,1523
oct,1524
official,1525
officially,1526
offie,1527
oh,1528
ohh,1529
ohio,1530
oic,1531
ok,1532
okay,1533
old,1534
older,1535
ole,1536
olives,1537
oltl,1538
omg,1539
ones,1540
online,1541
onyx,1542
ooo,1543
oooohhhhhhh,1544
oou,1545
open,1546
opening,1547
opposites,1548
order,1549
organic,1550
original,1551
orly,1552
otay,1553
outrage,1554
overlap,1555
owen,1556
owned,1557
owner,1558
ox,1559
oxooxoxooxoxoxox,1560
pa,1561
pacific,1562
pack,1563
packet,1564
page,1565
paige,1566
pal,1567
papa,1568
paper,1569
parents,1570
park,1571
parkside,1572
parpxxx,1573
parseddigits,1574
parsedfourdigits,1575
parsedonedigit,1576
parsedonedigitdays,1577
parsedonedigitget,1578
parsedonedigithour,1579
parsedonedigitlb,1580
parsedonedigitme,1581
parsedonedigitmz,1582
parsedonedigitnd,1583
parsedonedigitoth,1584
parsedonedigitst,1585
parsedonedigitth,1586
parsedthreedigits,1587
parsedthreedigitsr,1588
parsedtime,1589
parsedtwodigits,1590
parsedtwodigitsth,1591
partay,1592
particular,1593
partner,1594
party,1595
pass,1596
passin,1597
passy,1598
past,1599
pay,1600
paybacks,1601
payin,1602
pea,1603
peace,1604
peahead,1605
peas,1606
peeps,1607
pention,1608
people,1609
peoples,1610
permanent,1611
perrrrty,1612
person,1613
personalised,1614
personally,1615
perve,1616
peterrrr,1617
peyton,1618
phoebe,1619
phone,1620
photo,1621
photoshop,1622
pic,1623
pick,1624
picnic,1625
picnick,1626
pics,1627
picture,1628
pictures,1629
picz,1630
pie,1631
piece,1632
pik,1633
pillow,1634
pimp,1635
pink,1636
pirates,1637
pissed,1638
pissing,1639
pix,1640
pizza,1641
place,1642
placed,1643
plan,1644
plans,1645
play,1646
playa,1647
played,1648
playin,1649
playing,1650
pleeez,1651
pluralism,1652
plus,1653
plz,1654
plzz,1655
pointed,1656
points,1657
pole,1658
polite,1659
political,1660
polluted,1661
poor,1662
poped,1663
popped,1664
poppin,1665
popssss,1666
porch,1667
pornography,1668
possessions,1669
possibility,1670
possible,1671
postcards,1672
posted,1673
posting,1674
pounds,1675
power,1676
ppl,1677
practice,1678
prayers,1679
praying,1680
preciate,1681
pregnancy,1682
pregnant,1683
prepared,1684
prescious,1685
present,1686
preservation,1687
pressure,1688
pretend,1689
pretty,1690
prima,1691
primo,1692
pringles,1693
printing,1694
prinze,1695
private,1696
pro,1697
prob,1698
probable,1699
probably,1700
problems,1701
profanity,1702
profile,1703
profilr,1704
program,1705
prolly,1706
promise,1707
proud,1708
psssssssssssssst,1709
psssst,1710
psych,1711
pub,1712
puff,1713
pulled,1714
pumba,1715
punk,1716
puppy,1717
purpose,1718
pursuite,1719
pussy,1720
puszi,1721
putting,1722
qhat,1723
quad,1724
quads,1725
que,1726
question,1727
quickie,1728
quiet,1729
quit,1730
quite,1731
quuaddd,1732
quyen,1733
race,1734
rach,1735
rachel,1736
racism,1737
racist,1738
rad,1739
railing,1740
random,1741
randy,1742
rap,1743
rat,1744
ratm,1745
ravioli,1746
rawk,1747
read,1748
ready,1749
real,1750
realized,1751
really,1752
realy,1753
reason,1754
reasons,1755
recently,1756
reception,1757
record,1758
rectally,1759
red,1760
reede,1761
reeeeeeeeeeeeeal,1762
regards,1763
regret,1764
rela,1765
relax,1766
release,1767
reli,1768
remember,1769
reminded,1770
renji,1771
rents,1772
rep,1773
replace,1774
reply,1775
request,1776
requesting,1777
requests,1778
respect,1779
respond,1780
response,1781
responsibility,1782
rest,1783
retarded,1784
retro,1785
return,1786
returnin,1787
reunion,1788
rewarded,1789
rhode,1790
rib,1791
rich,1792
ricky,1793
rid,1794
ride,1795
rides,1796
ridiculed,1797
right,1798
ring,1799
rink,1800
rissa,1801
rite,1802
river,1803
rn,1804
roam,1805
rob,1806
robbie,1807
robotic,1808
rock,1809
rocks,1810
roids,1811
romantic,1812
roof,1813
room,1814
roomie,1815
roommate,1816
rooms,1817
root,1818
rooting,1819
routine,1820
row,1821
ru,1822
rubbish,1823
ruby,1824
run,1825
running,1826
ryan,1827
sad,1828
sadly,1829
safe,1830
said,1831
sam,1832
samantha,1833
sammi,1834
sammy,1835
santa,1836
sarah,1837
sassy,1838
sat,1839
saturday,1840
satyr,1841
save,1842
saved,1843
savvy,1844
saw,1845
say,1846
saying,1847
says,1848
scaner,1849
scare,1850
scareyin,1851
scarriest,1852
schedual,1853
schmello,1854
school,1855
scooby,1856
scoop,1857
score,1858
screwedd,1859
sea,1860
search,1861
seattle,1862
sed,1863
seein,1864
seeing,1865
seen,1866
self,1867
send,1868
senior,1869
senoir,1870
senor,1871
sense,1872
sent,1873
series,1874
seriously,1875
set,1876
seth,1877
settlin,1878
seven,1879
sex,1880
sexi,1881
sexxxxy,1882
sexy,1883
shame,1884
shana,1885
shank,1886
shaquanna,1887
shelby,1888
sheryl,1889
shes,1890
shift,1891
shin,1892
shirts,1893
shit,1894
shitty,1895
shlong,1896
sho,1897
shock,1898
shoes,1899
shoping,1900
shopping,1901
shorty,1902
shot,1903
shots,1904
shouldn,1905
shout,1906
shove,1907
showin,1908
showing,1909
shows,1910
shud,1911
shut,1912
shy,1913
shyt,1914
si,1915
sick,1916
sierra,1917
sign,1918
signed,1919
sike,1920
silly,1921
silver,1922
simon,1923
simply,1924
singing,1925
sir,1926
sis,1927
sista,1928
sister,1929
sisters,1930
site,1931
sitter,1932
sitting,1933
siu,1934
ski,1935
skillet,1936
skip,1937
skool,1938
skull,1939
skupa,1940
sleeping,1941
slice,1942
slide,1943
sloppy,1944
slowly,1945
small,1946
smeagsters,1947
smell,1948
smile,1949
smiled,1950
smiles,1951
smoke,1952
smoking,1953
smurfday,1954
sndays,1955
snowboard,1956
socialising,1957
soft,1958
softball,1959
solo,1960
somebody,1961
somemore,1962
somethin,1963
son,1964
song,1965
songs,1966
sons,1967
soo,1968
soon,1969
sooner,1970
sooo,1971
soooo,1972
soooonnsss,1973
soooooooooo,1974
soooooooooooo,1975
sooooooooooooo,1976
sophie,1977
sorri,1978
sorry,1979
sort,1980
sosososososososososososososossosososossososososososososososooooooooooooooooooooooooooooooooo,1981
soul,1982
soulja,1983
sounds,1984
sox,1985
space,1986
spam,1987
spamming,1988
sparsedonedigit,1989
speaker,1990
speaking,1991
specail,1992
special,1993
speek,1994
spelled,1995
spent,1996
spinning,1997
spoke,1998
spoken,1999
spot,2000
spread,2001
spreading,2002
spring,2003
springfield,2004
sprinkler,2005
spun,2006
stace,2007
stairs,2008
stak,2009
stand,2010
starrrr,2011
stars,2012
start,2013
starting,2014
starved,2015
state,2016
states,2017
stay,2018
stayin,2019
staying,2020
staz,2021
stealing,2022
stephanie,2023
steve,2024
steven,2025
stick,2026
stickyland,2027
stil,2028
stocks,2029
stoked,2030
stole,2031
stop,2032
stoping,2033
stopped,2034
stoppin,2035
stopping,2036
straight,2037
stranger,2038
streatham,2039
streets,2040
strong,2041
stuff,2042
stupid,2043
style,2044
subjects,2045
subscribe,2046
subscribed,2047
success,2048
suck,2049
sucking,2050
sucks,2051
suk,2052
sum,2053
summer,2054
summit,2055
sumthin,2056
sumthing,2057
sun,2058
sunday,2059
sundays,2060
sunshine,2061
sup,2062
super,2063
support,2064
supposah,2065
supposed,2066
supremelyyyyyyyyyyy,2067
sure,2068
surfer,2069
surfing,2070
swee,2071
sweeet,2072
sweet,2073
sweetie,2074
swimmin,2075
sympathetic,2076
ta,2077
table,2078
tad,2079
taken,2080
takes,2081
taking,2082
talk,2083
talked,2084
talkin,2085
tanishas,2086
tanya,2087
tape,2088
tapes,2089
tar,2090
tara,2091
tastic,2092
taurus,2093
tay,2094
tbh,2095
team,2096
tech,2097
techz,2098
teh,2099
telemundo,2100
tell,2101
telling,2102
terrible,2103
test,2104
texas,2105
text,2106
th,2107
tha,2108
thank,2109
thanks,2110
thanksgiving,2111
thanx,2112
thanxxx,2113
thats,2114
theme,2115
therapists,2116
theres,2117
thi,2118
thing,2119
things,2120
thingy,2121
think,2122
thinkin,2123
thinking,2124
thinks,2125
thnax,2126
thnks,2127
thnx,2128
thnxs,2129
tho,2130
thought,2131
throat,2132
throw,2133
throwing,2134
throwup,2135
thuggin,2136
thunderstorm,2137
thunderstorms,2138
thurs,2139
thursday,2140
thx,2141
tickets,2142
tiffany,2143
tiffy,2144
til,2145
till,2146
tim,2147
time,2148
times,2149
timon,2150
tired,2151
tisha,2152
tiz,2153
toby,2154
today,2155
togther,2156
told,2157
tom,2158
tomarow,2159
tommorow,2160
tomorrow,2161
tongue,2162
tonight,2163
tonite,2164
tony,2165
took,2166
tooo,2167
tops,2168
tornadoes,2169
tortilla,2170
total,2171
totally,2172
touch,2173
town,2174
toy,2175
toys,2176
traci,2177
tranquilizer,2178
trash,2179
trashed,2180
trauma,2181
treatin,2182
treating,2183
tres,2184
trhe,2185
trick,2186
tricks,2187
tried,2188
tring,2189
trish,2190
trouble,2191
truck,2192
true,2193
truth,2194
try,2195
tryin,2196
trying,2197
tryna,2198
ts,2199
ttfn,2200
ttul,2201
ttyl,2202
tues,2203
tune,2204
turkey,2205
turn,2206
turnout,2207
tv,2208
twankie,2209
twas,2210
twat,2211
twin,2212
twirled,2213
twist,2214
tyler,2215
tyme,2216
types,2217
ugly,2218
uhhh,2219
um,2220
umm,2221
ummm,2222
ummmm,2223
unborn,2224
uncle,2225
underberg,2226
understood,2227
unfortunate,2228
uni,2229
unicorn,2230
unit,2231
university,2232
updated,2233
uploaded,2234
upparsedonedigit,2235
ur,2236
urself,2237
ursuline,2238
usa,2239
usall,2240
use,2241
used,2242
useful,2243
usual,2244
usually,2245
uuu,2246
valentines,2247
values,2248
varsity,2249
ve,2250
vegas,2251
verson,2252
vic,2253
vicky,2254
victims,2255
village,2256
villn,2257
violets,2258
vision,2259
visit,2260
visting,2261
vote,2262
votes,2263
waddup,2264
wag,2265
wait,2266
waiting,2267
walk,2268
walked,2269
walks,2270
walmart,2271
wana,2272
waned,2273
wanking,2274
wanna,2275
want,2276
wanted,2277
war,2278
ward,2279
warranty,2280
warwick,2281
wasn,2282
wassssup,2283
wassup,2284
wat,2285
watch,2286
watched,2287
watchin,2288
watching,2289
water,2290
watever,2291
wats,2292
watson,2293
watup,2294
watz,2295
way,2296
wayno,2297
ways,2298
waz,2299
wazz,2300
wb,2301
wean,2302
wear,2303
website,2304
wed,2305
wedding,2306
wednesday,2307
wee,2308
week,2309
weekend,2310
weeknd,2311
weeks,2312
weird,2313
wel,2314
welcome,2315
welfare,2316
welp,2317
wen,2318
went,2319
wet,2320
whas,2321
whatd,2322
whats,2323
whatsup,2324
whatup,2325
whew,2326
whhat,2327
whhey,2328
whistles,2329
white,2330
whoa,2331
whoopin,2332
whos,2333
whts,2334
wi,2335
wicked,2336
width,2337
wierd,2338
wife,2339
wig,2340
win,2341
winding,2342
windmill,2343
window,2344
wink,2345
wins,2346
wish,2347
wishes,2348
wit,2349
wittyness,2350
wk,2351
wkends,2352
wnt,2353
woah,2354
woman,2355
women,2356
won,2357
wonderful,2358
wont,2359
woo,2360
woohoo,2361
wooo,2362
woop,2363
word,2364
words,2365
work,2366
working,2367
works,2368
world,2369
worrd,2370
worried,2371
worry,2372
worshiped,2373
wot,2374
wouldn,2375
wouldnt,2376
wow,2377
write,2378
wrong,2379
wrote,2380
wubuparsedonedigit,2381
wud,2382
wus,2383
wut,2384
wuts,2385
wutss,2386
wutsup,2387
wuv,2388
wuz,2389
www,2390
xmas,2391
xo,2392
xoxo,2393
xoxox,2394
xoxoxoxo,2395
xoxoxoxoxox,2396
xx,2397
xxx,2398
xxxoxoxo,2399
xxxxx,2400
xxxxxxx,2401
xxxxxxxxxxx,2402
xxxxxxxxxxxxx,2403
ya,2404
yah,2405
yall,2406
yankees,2407
yanks,2408
yay,2409
yea,2410
yeaaaaaaaaaaaaa,2411
yeaaaaaaaaah,2412
yeah,2413
yeahh,2414
year,2415
years,2416
yeayea,2417
yeh,2418
yep,2419
yes,2420
yesterday,2421
yew,2422
yo,2423
yooo,2424
yooooooooo,2425
youll,2426
young,2427
yous,2428
youu,2429
yuh,2430
yup,2431
yur,2432
yuu,2433
zack,2434
zdr,2435
zermey,2436
zoink,2437
zomg,2438
zsuzsi,2439
¾roses,2440
