aaaaaay,0
aaaages,1
aad,2
aaron,3
aasss,4
abby,5
ability,6
able,7
aboard,8
absolutely,9
acceptin,10
accepting,11
access,12
accomplished,13
accounts,14
acdc,15
achieved,16
achiever,17
acl,18
act,19
acting,20
action,21
actual,22
actually,23
add,24
addd,25
added,26
adding,27
addition,28
address,29
adios,30
adorable,31
adrienne,32
advantage,33
adventure,34
affair,35
aford,36
afternoon,37
age,38
ages,39
agggeezzz,40
aggitated,41
aggressive,42
ago,43
agree,44
ah,45
ahead,46
ahh,47
ahhh,48
ahold,49
aiden,50
aight,51
aiight,52
aim,53
aint,54
air,55
aka,56
alex,57
algebra,58
ali,59
alleria,60
allisoncurboismyidol,61
allowed,62
alls,63
allways,64
alot,65
aloud,66
alpha,67
alright,68
alrite,69
alyssa,70
amazed,71
amazin,72
amazing,73
amen,74
amigo,75
amy,76
ana,77
andddd,78
andrew,79
andy,80
angle,81
animal,82
anna,83
annie,84
answer,85
anthony,86
antonio,87
anxious,88
anymore,89
anytime,90
anyways,91
anywayz,92
apart,93
apartment,94
app,95
apparently,96
applications,97
appreciated,98
april,99
apt,100
area,101
arent,102
argos,103
arizona,104
arm,105
army,106
arparsedonedigit,107
arse,108
ashlee,109
ashley,110
ask,111
asked,112
asking,113
asleep,114
asphyxiation,115
ass,116
asshole,117
associated,118
atcha,119
ater,120
atl,121
atleast,122
atm,123
audience,124
auesome,125
august,126
aunt,127
auntie,128
austin,129
auto,130
automaticly,131
av,132
ave,133
avinger,134
aw,135
away,136
awesome,137
awful,138
awhile,139
awsome,140
aww,141
awww,142
ax,143
ay,144
ayah,145
aye,146
bab,147
baba,148
babe,149
babies,150
baby,151
babyshower,152
backdrop,153
background,154
backround,155
backwards,156
bad,157
bag,158
baily,159
bak,160
balcony,161
ballin,162
band,163
bands,164
bank,165
banquet,166
bar,167
base,168
basement,169
basic,170
basketball,171
bastardo,172
bastards,173
battle,174
baz,175
bboy,176
bday,177
beans,178
beast,179
beat,180
beatch,181
beautifil,182
beautiful,183
beauty,184
becky,185
becuz,186
bed,187
bedford,188
beds,189
bedside,190
beer,191
bein,192
beirut,193
belated,194
believ,195
believe,196
belly,197
belong,198
bend,199
bent,200
best,201
bestest,202
bestfriend,203
bet,204
beta,205
betta,206
better,207
betty,208
bf,209
bff,210
biak,211
biased,212
biatch,213
bible,214
big,215
bigears,216
bigger,217
biggest,218
biggie,219
bike,220
bin,221
bird,222
birhday,223
birth,224
birthday,225
bish,226
bit,227
bitch,228
bitchassness,229
bitches,230
bite,231
bj,232
bk,233
black,234
blackadder,235
blaits,236
bled,237
bleeding,238
bless,239
blessed,240
blog,241
blood,242
bloody,243
blow,244
blud,245
blurb,246
board,247
bob,248
bobby,249
body,250
boi,251
boo,252
boobie,253
book,254
boom,255
booooomer,256
bored,257
boredom,258
boring,259
born,260
boss,261
bother,262
bothhhh,263
bounce,264
bout,265
bow,266
box,267
boy,268
boyah,269
boyfriend,270
boys,271
bparsedonedigit,272
brah,273
brain,274
brandon,275
bread,276
break,277
brent,278
bring,279
britt,280
brittoni,281
brixton,282
bro,283
broken,284
brotha,285
brother,286
brown,287
brudda,288
bruh,289
brynn,290
btw,291
buck,292
bud,293
buddies,294
buddy,295
buffalo,296
buffet,297
bugger,298
buh,299
bull,300
bullet,301
bum,302
bumhole,303
bunch,304
burn,305
burning,306
busy,307
butt,308
buttah,309
buttercup,310
buy,311
bye,312
byebye,313
byexxx,314
cafe,315
cage,316
cali,317
called,318
calvin,319
came,320
cameo,321
camera,322
camp,323
campin,324
cap,325
capri,326
car,327
cards,328
care,329
careers,330
carl,331
carlsile,332
carolina,333
carry,334
carrying,335
carson,336
cartoon,337
casey,338
cashflow,339
cassie,340
catch,341
catching,342
catherine,343
caught,344
cause,345
ceen,346
celebrate,347
celebrating,348
cell,349
centre,350
ceremony,351
certain,352
cha,353
chad,354
chance,355
change,356
changed,357
chaos,358
charge,359
chat,360
cheap,361
check,362
checked,363
checking,364
checks,365
cheeks,366
cheer,367
cheers,368
cherries,369
cherry,370
cherrybomb,371
chic,372
chica,373
chichi,374
chick,375
chicken,376
child,377
chill,378
chillin,379
chocolate,380
choice,381
chop,382
chord,383
chou,384
chris,385
christina,386
christmas,387
chu,388
chuck,389
chuckle,390
cilgrug,391
circumstances,392
cj,393
claps,394
clark,395
clarkyparsedfourdigits,396
class,397
classes,398
clean,399
cleanin,400
clissified,401
close,402
closed,403
clown,404
club,405
cnat,406
cnt,407
coaches,408
code,409
colege,410
colin,411
college,412
color,413
com,414
come,415
comin,416
coming,417
commandments,418
comment,419
commenting,420
comments,421
commetns,422
commets,423
comming,424
communique,425
comng,426
competition,427
complete,428
completely,429
compliment,430
computer,431
conclusion,432
concord,433
condoms,434
conference,435
confess,436
confiedent,437
congrat,438
congrats,439
congratulations,440
conner,441
conrad,442
consumed,443
contact,444
controls,445
cooking,446
cool,447
cooperate,448
cope,449
corner,450
cos,451
costume,452
couch,453
couldn,454
count,455
counting,456
country,457
counts,458
couple,459
course,460
cousin,461
cover,462
crab,463
crackin,464
craig,465
crazey,466
crazy,467
credit,468
crew,469
crib,470
crowd,471
cruising,472
crushed,473
cryed,474
crystal,475
cudnt,476
cum,477
cumin,478
cummin,479
curl,480
cus,481
cusp,482
cuss,483
cut,484
cute,485
cutie,486
cutieface,487
cuttiiee,488
cuz,489
cuzins,490
cyber,491
cycling,492
da,493
dad,494
daddy,495
dads,496
daffodils,497
dale,498
dam,499
damn,500
dan,501
dance,502
dancing,503
dandy,504
dangg,505
daniel,506
danny,507
dark,508
darlin,509
dat,510
date,511
dates,512
dats,513
daughter,514
dave,515
dawg,516
day,517
days,518
dead,519
deal,520
dear,521
dec,522
decide,523
dee,524
deep,525
def,526
default,527
deff,528
deffinatley,529
definitely,530
definitly,531
defo,532
defult,533
delta,534
dem,535
desperate,536
details,537
develop,538
developed,539
devin,540
dew,541
dewd,542
dewey,543
dey,544
dick,545
did,546
didn,547
didnt,548
die,549
different,550
digg,551
dinnein,552
dinner,553
dis,554
disco,555
discuss,556
disney,557
dispatch,558
display,559
diy,560
dj,561
dnt,562
dobbie,563
doe,564
doen,565
doent,566
does,567
doesn,568
doesnt,569
dogg,570
doi,571
doidesh,572
doin,573
doing,574
dollarsss,575
don,576
doncaster,577
donna,578
donnie,579
dont,580
doo,581
door,582
dope,583
dorian,584
doritos,585
dork,586
dorkazoid,587
double,588
doubt,589
dough,590
drawing,591
dread,592
dreams,593
dress,594
dresser,595
drink,596
drinks,597
driving,598
drop,599
droping,600
droppin,601
dropping,602
drppin,603
drums,604
drunk,605
du,606
dude,607
dui,608
dun,609
duuuuude,610
eachother,611
ear,612
earlier,613
early,614
easter,615
easy,616
eat,617
eddie,618
edga,619
eee,620
elect,621
elissas,622
email,623
emily,624
emma,625
emmy,626
end,627
engaged,628
england,629
enjoy,630
enjoyin,631
enjoying,632
enter,633
enterr,634
entertaining,635
entry,636
epidural,637
erase,638
eric,639
err,640
ese,641
especially,642
eternity,643
eva,644
evening,645
event,646
everybody,647
everybodys,648
everyday,649
everyones,650
everyother,651
everysaturday,652
everytime,653
ex,654
exams,655
excellent,656
excited,657
exciting,658
excuses,659
expected,660
extra,661
ey,662
eye,663
fa,664
face,665
facebook,666
fag,667
faith,668
faithful,669
fake,670
fall,671
falling,672
family,673
fan,674
fancy,675
far,676
farnborough,677
farnham,678
fart,679
fast,680
fat,681
father,682
favor,683
favorite,684
faybe,685
feb,686
federal,687
feel,688
feelin,689
feeling,690
feelings,691
feels,692
ferr,693
festival,694
fight,695
fighting,696
filled,697
filling,698
film,699
films,700
final,701
finally,702
finals,703
finds,704
fine,705
finger,706
finished,707
finnally,708
firend,709
fish,710
fishy,711
fit,712
fitness,713
fix,714
fixture,715
flash,716
flip,717
flovarful,718
fo,719
foo,720
food,721
fool,722
foolish,723
football,724
forever,725
forget,726
forgive,727
forgot,728
form,729
forms,730
forth,731
fortunate,732
forward,733
fran,734
frantically,735
frat,736
freak,737
freakin,738
freaks,739
fred,740
freddie,741
free,742
freedom,743
freshman,744
friday,745
fried,746
friend,747
friendly,748
friends,749
friendz,750
fries,751
friggin,752
frm,753
fro,754
frodo,755
fs,756
fuck,757
fucka,758
fucked,759
fucker,760
fuckin,761
fucking,762
fullest,763
fun,764
funn,765
funner,766
funniest,767
funny,768
fwend,769
fyi,770
gaaabage,771
gab,772
gabbi,773
game,774
games,775
gard,776
garden,777
gave,778
gaw,779
gawgus,780
gay,781
gd,782
gem,783
gena,784
general,785
geog,786
georgia,787
getin,788
gets,789
gettin,790
getting,791
gf,792
ggiltf,793
gh,794
ghost,795
gift,796
gig,797
giggle,798
gimme,799
gimp,800
girl,801
girlie,802
girls,803
girly,804
girrrllllllllll,805
given,806
giving,807
givng,808
glad,809
glasgow,810
glass,811
god,812
goes,813
gohh,814
goin,815
going,816
gone,817
gonna,818
goober,819
good,820
goodbye,821
goofyass,822
goood,823
gooody,824
goose,825
gorgo,826
gosti,827
got,828
gots,829
gotsta,830
gotta,831
gotten,832
gparsedonedigitiing,833
grab,834
grabbing,835
gracin,836
graduate,837
graduated,838
grandpa,839
grateful,840
grats,841
grease,842
great,843
greatest,844
green,845
greg,846
grindin,847
groovy,848
ground,849
grow,850
gsi,851
guam,852
gud,853
guess,854
guide,855
gum,856
gun,857
guna,858
gunna,859
guns,860
gurl,861
gurlie,862
gurrintees,863
guy,864
guys,865
ha,866
hack,867
hadn,868
hafta,869
hah,870
haha,871
hahah,872
hahaha,873
hahahaha,874
hahahahahah,875
hahahahahaha,876
hahahahahahahah,877
hair,878
half,879
hall,880
hallways,881
halo,882
ham,883
hammond,884
hand,885
hands,886
hang,887
hangin,888
hanging,889
hangout,890
hannahs,891
hans,892
happen,893
happend,894
happened,895
happening,896
happennin,897
happier,898
happiness,899
happppest,900
happy,901
hard,902
hardcore,903
harder,904
harrassing,905
harry,906
hasta,907
hat,908
hate,909
hater,910
hauz,911
hav,912
haven,913
havent,914
havin,915
having,916
havnt,917
hax,918
hayfever,919
hd,920
head,921
headline,922
hear,923
heard,924
hearing,925
heart,926
hearts,927
heck,928
heeey,929
hehe,930
heheh,931
hehehe,932
height,933
hell,934
hello,935
helloooooooo,936
helmet,937
helo,938
help,939
helped,940
henna,941
herd,942
hereeeeeee,943
heres,944
hero,945
hey,946
heyahh,947
heyy,948
hhhhhiiiiiiiiiiii,949
hi,950
hidin,951
high,952
highly,953
hii,954
hiiii,955
hiiiiiiiiiiiii,956
hillbilly,957
history,958
hit,959
hittin,960
hiya,961
hmm,962
hmmmm,963
hobag,964
hoe,965
hol,966
hold,967
hole,968
holiday,969
holidays,970
holla,971
hols,972
hom,973
home,974
homeslice,975
homework,976
homey,977
homie,978
homo,979
homw,980
honestly,981
honey,982
hoo,983
hooked,984
hooker,985
hooters,986
hope,987
hopefully,988
hopes,989
hoping,990
horny,991
horror,992
hot,993
hotel,994
hotmail,995
hott,996
hottie,997
hottstuff,998
hour,999
house,1000
hows,1001
howz,1002
hparsedonedigitpparseddigits,1003
htown,1004
hudson,1005
huey,1006
hug,1007
huggz,1008
hugo,1009
hugs,1010
huh,1011
humbled,1012
hump,1013
hun,1014
hundreds,1015
hung,1016
hungary,1017
hungover,1018
hunny,1019
hunting,1020
hurry,1021
hurt,1022
hurts,1023
huy,1024
hye,1025
ice,1026
id,1027
idea,1028
idk,1029
ight,1030
ii,1031
il,1032
ill,1033
ily,1034
im,1035
ima,1036
impatient,1037
impressive,1038
ina,1039
inappropriate,1040
incase,1041
inches,1042
incredible,1043
indian,1044
induced,1045
infamous,1046
infinity,1047
info,1048
inner,1049
insecurities,1050
instead,1051
intense,1052
interested,1053
internet,1054
interrested,1055
invading,1056
invitation,1057
invite,1058
invited,1059
involved,1060
ironic,1061
isac,1062
ish,1063
isn,1064
isnt,1065
itt,1066
iv,1067
ive,1068
jacenia,1069
jackal,1070
jacksonville,1071
jacob,1072
jaden,1073
jadens,1074
jah,1075
jail,1076
jake,1077
james,1078
janling,1079
jazzy,1080
jello,1081
jen,1082
jennifer,1083
jeremy,1084
jersy,1085
jerz,1086
jess,1087
jessica,1088
jewelry,1089
jigbooey,1090
jim,1091
jimmy,1092
job,1093
joe,1094
joelle,1095
jog,1096
john,1097
johnathon,1098
join,1099
joined,1100
joining,1101
jokes,1102
jokin,1103
jon,1104
jonny,1105
joooolllz,1106
josh,1107
josiah,1108
joy,1109
jp,1110
judgments,1111
juice,1112
julie,1113
july,1114
jundo,1115
june,1116
junk,1117
jus,1118
juss,1119
just,1120
justin,1121
jux,1122
kaitlyn,1123
kak,1124
kandyland,1125
kate,1126
keepin,1127
keeping,1128
kellen,1129
kelley,1130
ken,1131
kenny,1132
keshia,1133
kevin,1134
kick,1135
kickin,1136
kicks,1137
kid,1138
kidd,1139
kiddin,1140
kidding,1141
kidney,1142
kids,1143
kieron,1144
kill,1145
killed,1146
killer,1147
killers,1148
kiln,1149
kim,1150
kind,1151
kinda,1152
kindly,1153
king,1154
kiss,1155
kisses,1156
kitchen,1157
kitties,1158
kizzy,1159
klink,1160
klinkenberg,1161
knew,1162
kno,1163
knoe,1164
know,1165
knowing,1166
knows,1167
knuckle,1168
knw,1169
kokua,1170
kong,1171
konntz,1172
kool,1173
korny,1174
krakkking,1175
kris,1176
kristin,1177
krys,1178
kuala,1179
kwm,1180
la,1181
laa,1182
labrynthitus,1183
lad,1184
ladie,1185
lady,1186
ladyrose,1187
lame,1188
lamin,1189
lan,1190
landed,1191
laos,1192
lata,1193
late,1194
lately,1195
later,1196
laterz,1197
lates,1198
latest,1199
latez,1200
laugh,1201
laughed,1202
laughing,1203
law,1204
lawrence,1205
lax,1206
layel,1207
layout,1208
lazy,1209
lbgp,1210
leaderboard,1211
leadership,1212
leah,1213
learn,1214
leave,1215
leavin,1216
leaving,1217
lee,1218
left,1219
legend,1220
legs,1221
let,1222
lets,1223
letting,1224
liable,1225
liars,1226
lick,1227
lies,1228
life,1229
like,1230
liked,1231
lil,1232
lily,1233
limbernuts,1234
line,1235
lisa,1236
liss,1237
listen,1238
listin,1239
literally,1240
little,1241
live,1242
lived,1243
lives,1244
living,1245
ll,1246
lmao,1247
loads,1248
locker,1249
log,1250
logan,1251
lol,1252
lolol,1253
long,1254
longer,1255
look,1256
looked,1257
looking,1258
looks,1259
lord,1260
lose,1261
loser,1262
loserific,1263
losers,1264
lost,1265
lot,1266
lots,1267
loud,1268
louis,1269
lounge,1270
love,1271
loved,1272
lovely,1273
lover,1274
loves,1275
loveuu,1276
lovin,1277
loving,1278
lparsedonedigitl,1279
lt,1280
lubb,1281
luck,1282
luckily,1283
lucky,1284
luke,1285
lumpur,1286
luv,1287
lylas,1288
ma,1289
macka,1290
macross,1291
mad,1292
madmen,1293
magazine,1294
maggie,1295
magic,1296
mah,1297
mainly,1298
majorly,1299
make,1300
makeing,1301
makes,1302
making,1303
mall,1304
malt,1305
mama,1306
mamores,1307
man,1308
managed,1309
manhahahhaahaha,1310
marathon,1311
marc,1312
march,1313
marco,1314
margie,1315
married,1316
marry,1317
martin,1318
martine,1319
maryville,1320
mas,1321
mate,1322
mates,1323
matey,1324
matt,1325
matter,1326
maureen,1327
mawmaw,1328
maybe,1329
mayne,1330
mc,1331
meals,1332
mean,1333
means,1334
meditate,1335
meet,1336
meeting,1337
megan,1338
mei,1339
mel,1340
melanie,1341
melissa,1342
member,1343
men,1344
mental,1345
mentally,1346
mention,1347
mentioning,1348
merci,1349
meridiem,1350
merry,1351
merwin,1352
mess,1353
message,1354
messaged,1355
messaging,1356
met,1357
metal,1358
mex,1359
mi,1360
michelle,1361
michigan,1362
micro,1363
mid,1364
mike,1365
mikey,1366
miles,1367
min,1368
mind,1369
minn,1370
mins,1371
minus,1372
minute,1373
minutes,1374
miserable,1375
misery,1376
miss,1377
missed,1378
missing,1379
mission,1380
mississippi,1381
missouri,1382
missus,1383
mizz,1384
mizzouri,1385
mmmm,1386
mnogo,1387
mo,1388
modeling,1389
mom,1390
moment,1391
mommyhood,1392
mon,1393
monday,1394
money,1395
monica,1396
monique,1397
monster,1398
monterrey,1399
month,1400
months,1401
morning,1402
mother,1403
mouth,1404
moved,1405
movie,1406
movies,1407
movin,1408
moving,1409
mp,1410
mpact,1411
mr,1412
mrs,1413
msn,1414
muah,1415
muchoo,1416
muchos,1417
mudd,1418
munchin,1419
mundelein,1420
muscles,1421
music,1422
mutha,1423
muthafucka,1424
mutherfucking,1425
mwah,1426
mwahaha,1427
mwahahahaha,1428
mwahhhh,1429
mwahz,1430
mysapce,1431
myspace,1432
myspae,1433
na,1434
nag,1435
nah,1436
names,1437
nashville,1438
nasty,1439
nate,1440
nation,1441
natural,1442
naturally,1443
nature,1444
navid,1445
navy,1446
naw,1447
nd,1448
ne,1449
near,1450
nearly,1451
neck,1452
need,1453
needed,1454
needs,1455
neil,1456
nell,1457
nerve,1458
nething,1459
neva,1460
new,1461
news,1462
neye,1463
nia,1464
nice,1465
nick,1466
nie,1467
nig,1468
nigga,1469
night,1470
nights,1471
niiiice,1472
nina,1473
nobbers,1474
noodle,1475
noon,1476
nope,1477
norm,1478
north,1479
noses,1480
nothin,1481
notified,1482
november,1483
nplus,1484
nttn,1485
nuffffink,1486
nufink,1487
number,1488
numbers,1489
nun,1490
nutting,1491
nver,1492
oceana,1493
oct,1494
odd,1495
offend,1496
offense,1497
official,1498
officially,1499
offie,1500
oh,1501
ohh,1502
ohio,1503
oic,1504
ok,1505
okay,1506
old,1507
older,1508
ole,1509
olives,1510
oltl,1511
omg,1512
ones,1513
online,1514
onyx,1515
ooo,1516
oou,1517
open,1518
opening,1519
opposites,1520
orange,1521
order,1522
organic,1523
original,1524
orly,1525
otay,1526
outlawed,1527
overlap,1528
owen,1529
owned,1530
owner,1531
oxooxoxooxoxoxox,1532
pa,1533
pacific,1534
pack,1535
package,1536
packet,1537
page,1538
paige,1539
pal,1540
papa,1541
paradise,1542
parents,1543
park,1544
parkside,1545
parpxxx,1546
parseddigits,1547
parsedfourdigits,1548
parsedonedigit,1549
parsedonedigitdays,1550
parsedonedigitget,1551
parsedonedigithour,1552
parsedonedigitlb,1553
parsedonedigitme,1554
parsedonedigitmz,1555
parsedonedigitnd,1556
parsedonedigitoth,1557
parsedonedigitst,1558
parsedonedigitth,1559
parsedthreedigits,1560
parsedthreedigitsr,1561
parsedtime,1562
parsedtwodigits,1563
parsedtwodigitsth,1564
partay,1565
particular,1566
partner,1567
party,1568
pass,1569
passin,1570
passing,1571
passy,1572
past,1573
pay,1574
payin,1575
pea,1576
peace,1577
peahead,1578
peas,1579
peeps,1580
pention,1581
people,1582
peoples,1583
permanent,1584
perrrrty,1585
person,1586
personalised,1587
perve,1588
peterrrr,1589
peyton,1590
pge,1591
phoebe,1592
phone,1593
photo,1594
photoshop,1595
physical,1596
pic,1597
pick,1598
picnic,1599
pics,1600
picture,1601
pictures,1602
picz,1603
pie,1604
piece,1605
pierce,1606
pik,1607
pillow,1608
pimp,1609
pink,1610
pirates,1611
pissed,1612
pissing,1613
pix,1614
pizza,1615
place,1616
placed,1617
plan,1618
plans,1619
play,1620
playa,1621
played,1622
playin,1623
playing,1624
plea,1625
pleeez,1626
plus,1627
plz,1628
plzz,1629
pointed,1630
points,1631
pole,1632
poles,1633
popped,1634
poppin,1635
porch,1636
possibility,1637
possible,1638
post,1639
postcards,1640
posted,1641
posting,1642
potter,1643
pounds,1644
power,1645
ppl,1646
practice,1647
prayers,1648
praying,1649
preciate,1650
precise,1651
pregnancy,1652
pregnant,1653
present,1654
pressure,1655
pretend,1656
pretty,1657
prima,1658
primo,1659
pringles,1660
printing,1661
prinze,1662
private,1663
pro,1664
prob,1665
probable,1666
probably,1667
problem,1668
problems,1669
probs,1670
profile,1671
profilr,1672
program,1673
prohibited,1674
prolly,1675
promise,1676
proud,1677
ps,1678
psssssssssssssst,1679
psssst,1680
psych,1681
pub,1682
public,1683
pulled,1684
pumba,1685
punk,1686
purple,1687
pursuite,1688
pussy,1689
puszi,1690
putting,1691
qhat,1692
quads,1693
que,1694
queen,1695
question,1696
quickie,1697
quiet,1698
quit,1699
quite,1700
quote,1701
quyen,1702
race,1703
rach,1704
rachel,1705
racism,1706
racist,1707
rad,1708
railing,1709
random,1710
randy,1711
rap,1712
rat,1713
ravioli,1714
rawk,1715
reach,1716
read,1717
ready,1718
real,1719
realize,1720
realized,1721
really,1722
realy,1723
reason,1724
reasons,1725
recall,1726
recently,1727
reception,1728
recites,1729
record,1730
rectally,1731
red,1732
reede,1733
reeeeeeeeeeeeeal,1734
regards,1735
regret,1736
reigns,1737
rela,1738
relax,1739
release,1740
reli,1741
remember,1742
reminded,1743
renji,1744
rep,1745
replace,1746
reply,1747
request,1748
requesting,1749
requests,1750
respect,1751
respond,1752
response,1753
retarded,1754
retro,1755
return,1756
returnin,1757
reunion,1758
rib,1759
rich,1760
ricky,1761
rid,1762
ride,1763
right,1764
rights,1765
ring,1766
rink,1767
rissa,1768
rite,1769
rn,1770
roam,1771
rob,1772
robotic,1773
rock,1774
rocks,1775
roids,1776
romantic,1777
roof,1778
room,1779
roomie,1780
rooms,1781
root,1782
routine,1783
ru,1784
rubbish,1785
ruby,1786
rule,1787
run,1788
running,1789
ryan,1790
sad,1791
sadly,1792
safe,1793
said,1794
sam,1795
samantha,1796
sammi,1797
sammy,1798
san,1799
santa,1800
sarah,1801
sassy,1802
sat,1803
saturday,1804
satyr,1805
save,1806
saved,1807
saw,1808
say,1809
saying,1810
says,1811
scaner,1812
scare,1813
scareyin,1814
scarriest,1815
scary,1816
scene,1817
schmello,1818
school,1819
scooby,1820
scoop,1821
screwedd,1822
scripture,1823
sea,1824
sean,1825
search,1826
seattle,1827
secrets,1828
sed,1829
seein,1830
seeing,1831
seen,1832
send,1833
sendin,1834
senior,1835
senoir,1836
senor,1837
sense,1838
sent,1839
sept,1840
series,1841
seriously,1842
set,1843
seth,1844
settlin,1845
seven,1846
sex,1847
sexi,1848
sexxxxy,1849
sexy,1850
shame,1851
shana,1852
shank,1853
shaquanna,1854
shelby,1855
sheryl,1856
shes,1857
shift,1858
shin,1859
shirts,1860
shit,1861
shitty,1862
shlong,1863
sho,1864
shock,1865
shoes,1866
shoping,1867
shopping,1868
shot,1869
shots,1870
shouldn,1871
shout,1872
shove,1873
showed,1874
showin,1875
showing,1876
shows,1877
shud,1878
shut,1879
shy,1880
shyt,1881
si,1882
sick,1883
sign,1884
signed,1885
sike,1886
silence,1887
silent,1888
silly,1889
silver,1890
silvy,1891
simply,1892
sir,1893
sis,1894
sista,1895
sister,1896
sit,1897
site,1898
sitter,1899
sitting,1900
ski,1901
skillet,1902
skool,1903
skull,1904
skupa,1905
sky,1906
sleep,1907
sleeping,1908
slice,1909
slide,1910
sloppy,1911
slowly,1912
small,1913
smeagsters,1914
smell,1915
smile,1916
smiled,1917
smiles,1918
smoke,1919
smoking,1920
sndays,1921
soap,1922
socialising,1923
soft,1924
softball,1925
soldiers,1926
somebody,1927
somemore,1928
somethin,1929
son,1930
song,1931
songs,1932
soo,1933
soon,1934
sooner,1935
sooo,1936
soooo,1937
soooonnsss,1938
soooooooooo,1939
soooooooooooo,1940
sooooooooooooo,1941
sophie,1942
sorri,1943
sorry,1944
sort,1945
sosososososososososososososossosososossososososososososososooooooooooooooooooooooooooooooooo,1946
soul,1947
soulja,1948
sounds,1949
sox,1950
space,1951
spam,1952
sparsedonedigit,1953
speaker,1954
speaking,1955
special,1956
specific,1957
speek,1958
spelled,1959
spent,1960
spinning,1961
spk,1962
spoken,1963
spot,1964
spread,1965
spreading,1966
sprinkler,1967
spun,1968
stace,1969
staff,1970
stairs,1971
stak,1972
stand,1973
starrrr,1974
stars,1975
start,1976
starting,1977
starved,1978
state,1979
states,1980
stay,1981
stayin,1982
staying,1983
staz,1984
stealing,1985
stephanie,1986
steve,1987
steven,1988
stick,1989
stickyland,1990
stil,1991
stocks,1992
stole,1993
stop,1994
stopped,1995
stoppin,1996
stopping,1997
straight,1998
stranger,1999
streatham,2000
strong,2001
study,2002
stuff,2003
stupid,2004
style,2005
subjects,2006
subscribe,2007
subscribed,2008
success,2009
suck,2010
sucked,2011
sucking,2012
sucks,2013
suk,2014
sum,2015
summer,2016
summit,2017
summmerr,2018
sumthin,2019
sumthing,2020
sun,2021
sunday,2022
sundays,2023
sunshine,2024
sup,2025
super,2026
support,2027
supposed,2028
sure,2029
surfer,2030
surfing,2031
surr,2032
swee,2033
sweeet,2034
sweet,2035
sweetie,2036
sympathetic,2037
ta,2038
table,2039
tad,2040
taken,2041
takes,2042
taking,2043
talk,2044
talked,2045
talkin,2046
tanishas,2047
tanya,2048
tape,2049
tapes,2050
tar,2051
tara,2052
tastic,2053
taught,2054
taurus,2055
tay,2056
tbh,2057
teach,2058
teacher,2059
team,2060
tech,2061
techz,2062
telemundo,2063
tell,2064
telling,2065
terri,2066
terrible,2067
terrorstorm,2068
test,2069
texas,2070
text,2071
th,2072
tha,2073
thank,2074
thanks,2075
thanksgiving,2076
thanx,2077
thanxxx,2078
thatd,2079
thats,2080
theme,2081
therapists,2082
theres,2083
thi,2084
thing,2085
things,2086
thingy,2087
think,2088
thinkin,2089
thinking,2090
thinks,2091
thnax,2092
thnks,2093
thnx,2094
thnxs,2095
tho,2096
thought,2097
throat,2098
throw,2099
throwing,2100
throwup,2101
thuggin,2102
thunderstorm,2103
thunderstorms,2104
thurs,2105
thursday,2106
thx,2107
tia,2108
tickets,2109
tiffy,2110
til,2111
till,2112
tim,2113
time,2114
times,2115
timon,2116
tired,2117
tisha,2118
tiz,2119
toby,2120
today,2121
togther,2122
told,2123
tom,2124
tomarow,2125
tommorow,2126
tomorrow,2127
tongue,2128
tongues,2129
tonight,2130
tons,2131
tony,2132
took,2133
tops,2134
tornadoes,2135
tortilla,2136
total,2137
totally,2138
totem,2139
touch,2140
town,2141
toy,2142
toys,2143
traci,2144
tranquilizer,2145
trashed,2146
trauma,2147
treatin,2148
treating,2149
trey,2150
trhe,2151
trick,2152
tried,2153
tring,2154
trish,2155
trouble,2156
true,2157
truth,2158
try,2159
tryin,2160
trying,2161
tryna,2162
ttfn,2163
ttul,2164
ttyl,2165
ttys,2166
tues,2167
tune,2168
turkey,2169
turn,2170
turnout,2171
tv,2172
twankie,2173
twas,2174
twat,2175
twin,2176
twirled,2177
tyler,2178
tyme,2179
types,2180
ugly,2181
uhhh,2182
uk,2183
um,2184
umm,2185
ummm,2186
ummmm,2187
unaware,2188
uncle,2189
underberg,2190
understood,2191
unfortunate,2192
uni,2193
unicorn,2194
unit,2195
university,2196
unwed,2197
updated,2198
uploaded,2199
upparsedonedigit,2200
ur,2201
urban,2202
urself,2203
ursuline,2204
usa,2205
usall,2206
use,2207
used,2208
useful,2209
usual,2210
usually,2211
uuu,2212
valentines,2213
vampires,2214
varsity,2215
ve,2216
vegas,2217
verson,2218
vic,2219
vice,2220
video,2221
villn,2222
violates,2223
violets,2224
vision,2225
visit,2226
visting,2227
volleyball,2228
vote,2229
votes,2230
waddup,2231
wag,2232
wait,2233
waiting,2234
waking,2235
walk,2236
walked,2237
walks,2238
wana,2239
waned,2240
wanna,2241
want,2242
wanted,2243
war,2244
ward,2245
warranty,2246
warwick,2247
wasn,2248
wassssup,2249
wassup,2250
wat,2251
watch,2252
watched,2253
watchin,2254
watching,2255
water,2256
watever,2257
wats,2258
watson,2259
watup,2260
watz,2261
waves,2262
way,2263
wayno,2264
ways,2265
waz,2266
wb,2267
wean,2268
wear,2269
web,2270
website,2271
wed,2272
wedding,2273
wee,2274
week,2275
weekend,2276
weeknd,2277
weeks,2278
weird,2279
wel,2280
welcome,2281
wen,2282
went,2283
wet,2284
whas,2285
whatd,2286
whats,2287
whatsup,2288
whatup,2289
whew,2290
whhey,2291
whistles,2292
white,2293
whoa,2294
whoopin,2295
whos,2296
whts,2297
wi,2298
wicked,2299
width,2300
wieght,2301
wierd,2302
wies,2303
wife,2304
wig,2305
win,2306
winding,2307
windmill,2308
window,2309
wink,2310
wins,2311
wish,2312
wishes,2313
wit,2314
witchcraft,2315
wittyness,2316
wk,2317
wkends,2318
wnt,2319
woah,2320
woman,2321
women,2322
won,2323
wonderful,2324
wont,2325
woo,2326
woohoo,2327
wooo,2328
woop,2329
word,2330
words,2331
work,2332
working,2333
works,2334
world,2335
worrd,2336
worried,2337
worry,2338
wot,2339
wouldn,2340
wouldnt,2341
wow,2342
write,2343
wrong,2344
wrote,2345
wubuparsedonedigit,2346
wud,2347
wus,2348
wut,2349
wuts,2350
wutss,2351
wutsup,2352
wuv,2353
wuz,2354
xmas,2355
xo,2356
xoxo,2357
xoxox,2358
xoxoxo,2359
xoxoxoxo,2360
xoxoxoxoxox,2361
xx,2362
xxx,2363
xxxoxoxo,2364
xxxx,2365
xxxxx,2366
xxxxxxx,2367
xxxxxxxxxxx,2368
xxxxxxxxxxxx,2369
xxxxxxxxxxxxx,2370
xxxxxxxxxxxxxxxxxxxxxxxxxxxxxxxxxxx,2371
ya,2372
yah,2373
yall,2374
yankees,2375
yanks,2376
yay,2377
yea,2378
yeaaaaaaaaaaaaa,2379
yeaaaaaaaaah,2380
yeah,2381
yeahh,2382
year,2383
years,2384
yeayea,2385
yeh,2386
yep,2387
yes,2388
yesterday,2389
yo,2390
yooo,2391
yooooooooo,2392
youd,2393
youll,2394
young,2395
yous,2396
youu,2397
yuh,2398
yup,2399
yur,2400
yuu,2401
zack,2402
zdr,2403
zoink,2404
zomg,2405
zsuzsi,2406
¾roses,2407
