aargh,0
about,1
according,2
ace,3
across,4
activist,5
after,6
against,7
ago,8
airline,9
all,10
als,11
alsicebucketchallenge,12
also,13
am,14
american,15
americans,16
amp,17
an,18
and,19
andi,20
android,21
angeles,22
another,23
app,24
apparently,25
are,26
arguably,27
arm,28
artist,29
as,30
ass,31
assâ,32
at,33
atheist,34
attack,35
attacks,36
attempting,37
attitude,38
away,39
baby,40
back,41
bags,42
band,43
bangladesh,44
base,45
bcci,46
be,47
beautiful,48
because,49
becomes,50
bed,51
been,52
beetles,53
begins,54
being,55
benjamin,56
best,57
better,58
biggest,59
billion,60
black,61
blew,62
bobbijparsedfourdigits,63
borders,64
both,65
bowling,66
bradlee,67
bradley,68
bremaxwell,69
brilliance,70
british,71
brownies,72
bucket,73
bug,74
but,75
butchering,76
by,77
called,78
can,79
canceled,80
car,81
certainly,82
cfarrisparsedtwodigits,83
challenge,84
charge,85
cheapest,86
cheers,87
cheney,88
childish,89
children,90
chinaâ,91
chrisyoungmusic,92
clear,93
clegg,94
co,95
coincidence,96
comes,97
comfort,98
commits,99
completely,100
condi,101
constantly,102
convergence,103
cooper,104
core,105
country,106
cover,107
crashed,108
critically,109
crow,110
curie,111
cut,112
david_cameron,113
davidjoachim,114
day,115
days,116
decapitating,117
deeeeezyparsedtwodigits,118
dem,119
democracy,120
demolished,121
dentist,122
depose,123
did,124
died,125
directions,126
dislike,127
do,128
donald,129
donation,130
donâ,131
door,132
down,133
drinking,134
driving,135
dropbox,136
drowning,137
eastern,138
effectively,139
election,140
ells,141
engvind,142
enjoy,143
epic,144
eradicate,145
ethics,146
europeans,147
exploit,148
facebook,149
fantastic,150
fascism,151
fascist,152
faster,153
few,154
field,155
fifa,156
flights,157
floods,158
fo,159
folkâ,160
follow,161
for,162
forged,163
forgoes,164
forgot,165
forward,166
founder,167
four,168
from,169
fucking,170
full,171
funny,172
gaza,173
gej,174
genocide,175
george,176
get,177
getright,178
ggreenwald,179
girl,180
give,181
giving,182
go,183
god,184
goes,185
going,186
good,187
gop,188
got,189
government,190
granitestudio,191
grants,192
greatestâ,193
guns,194
guy,195
hackers,196
had,197
hahahaha,198
harrison,199
has,200
hashtags,201
hate,202
hates,203
have,204
hayleighmarieox,205
he,206
health,207
heart,208
heartbleed,209
heat,210
highway,211
his,212
hope,213
hot,214
how,215
htsjlparsedonedigittywe,216
http,217
https,218
huffpostweird,219
ice,220
icezia,221
ichabod,222
if,223
illdrinktothat,224
illegalamnesty,225
illiteracy,226
immunity,227
in,228
independence,229
india,230
indian,231
infestation,232
infested,233
injured,234
insecure,235
instead,236
interested,237
internet,238
into,239
introduce,240
invade,241
invented,242
iparsedtwodigitsnews_en,243
irony,244
ironydeficiency,245
ironylevelparsedfourdigits,246
ironyunlimited,247
ironyunmistakable,248
is,249
isparsedonedigitthe,250
israel,251
it,252
its,253
jesuischarlie,254
jesus,255
jfpparsedonedigiterbozx,256
journalism,257
judge,258
judged,259
just,260
kate,261
katomart,262
keepin,263
kerry,264
keurig,265
kharkiv,266
khilafahparsedthreedigits,267
killed,268
kindle,269
king,270
kingobama,271
kparsedonedigitwparseddigitshmvjht,272
lately,273
laughing,274
leaflets,275
leaving,276
leftist,277
lesson,278
life,279
line,280
listening,281
literacy,282
lives,283
ll,284
lobby,285
longer,286
looking,287
los,288
lost,289
louisck,290
loves,291
lt,292
machine,293
make,294
malaysian,295
marie,296
marvelously,297
marvins,298
mary,299
mate,300
may,301
me,302
mean,303
meanwhile,304
media,305
meetthepress,306
memorial,307
memory,308
mexico,309
might,310
minute,311
missing,312
more,313
morning,314
most,315
mother,316
mouths,317
move,318
movie,319
mr,320
mt,321
much,322
murdered,323
muslims,324
my,325
naijanerd,326
nation,327
new,328
next,329
nice,330
nick,331
nigga,332
noah,333
nocricket,334
not,335
nothing,336
now,337
nynnvwparsedtwodigitswy,338
obama,339
oblivion,340
odi,341
of,342
off,343
office,344
officially,345
okay,346
omeisy,347
on,348
one,349
ones,350
only,351
onparsedonedigitmeal,352
oparsedonedigitgqiaarbf,353
options,354
oswald,355
otbewggbtj,356
our,357
out,358
over,359
overload,360
paid,361
park,362
parseddigits,363
parsedfourdigits,364
parsedonedigit,365
parsedonedigitgntibiqei,366
parsedonedigitst,367
parsedonedigituvphqlparsedtwodigitsx,368
parsedonedigitwumfparsedonedigitpcll,369
parsedthreedigits,370
parsedtwodigits,371
parsedtwodigitsk,372
passed,373
people,374
performance,375
pine,376
plan,377
planted,378
point,379
politics,380
poor,381
poorest,382
posting,383
postponement,384
president,385
pretextâ,386
pretty,387
pro,388
probably,389
profession,390
program,391
proposition,392
public,393
puffing,394
qpparsedonedigitbsparsedonedigitehye,395
queen,396
random,397
rascalflatts,398
rash,399
re,400
ready,401
real,402
really,403
rebuild,404
regret,405
reopened,406
republican,407
response,408
return,409
rice,410
rich,411
richer,412
rifle,413
rob,414
robbed,415
roll,416
rooting,417
roryhaynesparsedfourdigits,418
royals,419
rt,420
rule,421
running,422
russia,423
ryanbleslie,424
sad,425
said,426
salon,427
sawston,428
say,429
says,430
screening,431
search,432
see,433
seem,434
seen,435
sells,436
seriouslywhat,437
set,438
shots,439
shouting,440
shuts,441
silently,442
simple,443
sleepyhollow,444
so,445
some,446
someone,447
something,448
sometimes,449
somewhere,450
spending,451
srisulgceo,452
stalking,453
stand,454
start,455
state,456
states,457
stay,458
sterling,459
straight,460
subtweeting,461
supplements,462
sure,463
surely,464
take,465
talking,466
targeted,467
tattooed,468
team,469
tearing,470
thailand,471
than,472
that,473
the,474
theater,475
thebachelorette,476
thebeatles,477
their,478
themselves,479
thetimes,480
they,481
this,482
those,483
three,484
timing,485
tire,486
to,487
today,488
torture,489
torturereport,490
tparsedonedigitqanimpic,491
tragic,492
transforms,493
traviscjohnsonparsedonedigit,494
tree,495
trumped,496
try,497
trying,498
tweet,499
twitter,500
typed,501
tâ,502
ukip,503
ukraine,504
under,505
universal,506
university,507
up,508
usa,509
use,510
using,511
value,512
ve,513
via,514
video,515
vital,516
voice,517
walked,518
wanting,519
warns,520
was,521
watching,522
waze,523
wbjparsedonedigititmvhd,524
website,525
week,526
weekend,527
what,528
when,529
which,530
while,531
whilst,532
who,533
whose,534
wifi,535
will,536
with,537
womb,538
women,539
wonder,540
world,541
would,542
wounded,543
wow,544
wvraman,545
yahoonews,546
years,547
yell,548
yes,549
yet,550
yoof,551
you,552
your,553
zaxjepteparsedtwodigits,554
zumrfyparsedonedigitdci,555
ðÿ,556
œforeignersâ,557
œgod,558
œon,559
œyou,560
