aargh,0
about,1
according,2
ace,3
activist,4
after,5
against,6
ago,7
airline,8
als,9
alsicebucketchallenge,10
also,11
am,12
american,13
americans,14
amp,15
an,16
and,17
andi,18
android,19
angeles,20
another,21
app,22
apparently,23
are,24
arguably,25
arm,26
artist,27
as,28
assâ,29
at,30
atheist,31
attack,32
attacks,33
attempting,34
attitude,35
away,36
baby,37
back,38
bags,39
band,40
bangladesh,41
base,42
bcci,43
be,44
beautiful,45
because,46
bed,47
been,48
beetles,49
begins,50
being,51
benjamin,52
best,53
bf,54
biggest,55
billion,56
black,57
blew,58
bobbijparsedfourdigits,59
boo,60
both,61
bowling,62
bradlee,63
bradley,64
bremaxwell,65
brilliance,66
british,67
broke,68
bucket,69
bug,70
but,71
butchering,72
by,73
call,74
called,75
can,76
canceled,77
cano,78
car,79
certainly,80
challenge,81
charge,82
cheapest,83
cheer,84
cheers,85
cheney,86
childish,87
children,88
chinaâ,89
chit,90
chrisyoungmusic,91
clean,92
clegg,93
co,94
coincidence,95
comes,96
comfort,97
commits,98
completely,99
condi,100
constantly,101
convergence,102
convert,103
cooper,104
core,105
country,106
cover,107
coz,108
crashed,109
critically,110
curie,111
cut,112
cuz,113
david_cameron,114
davidjoachim,115
day,116
days,117
decapitating,118
deeeeezyparsedtwodigits,119
dem,120
democracy,121
dentist,122
depose,123
did,124
died,125
difficult,126
dislike,127
do,128
donald,129
donation,130
donâ,131
door,132
down,133
drinking,134
driving,135
dropbox,136
drowning,137
eastern,138
effectively,139
eid,140
election,141
ellsbury,142
engvind,143
enjoy,144
epic,145
eradicate,146
ethics,147
europeans,148
exploit,149
facebook,150
fans,151
fantastic,152
fascism,153
fascist,154
faster,155
few,156
fifa,157
flights,158
floods,159
folkâ,160
follow,161
for,162
forged,163
forgot,164
forward,165
founder,166
four,167
from,168
fucking,169
full,170
funny,171
gauhar,172
gej,173
genocide,174
george,175
get,176
ggreenwald,177
girl,178
give,179
giving,180
go,181
god,182
goes,183
going,184
good,185
gorgeous,186
got,187
government,188
granitestudio,189
grants,190
greatestâ,191
guns,192
guy,193
guys,194
hackers,195
had,196
hahahaha,197
harrison,198
has,199
hashtags,200
hate,201
have,202
having,203
hayleighmarieox,204
he,205
health,206
heart,207
heartbleed,208
heat,209
her,210
highway,211
hilarious,212
him,213
his,214
hope,215
hot,216
how,217
htsjlparsedonedigittywe,218
http,219
https,220
huffpostweird,221
ice,222
icezia,223
if,224
illdrinktothat,225
illegalamnesty,226
illiteracy,227
immunity,228
in,229
independence,230
india,231
indian,232
infestation,233
infested,234
injured,235
internet,236
into,237
introduce,238
invade,239
invented,240
iparsedtwodigitsnews_en,241
irony,242
ironydeficiency,243
ironylevelparsedfourdigits,244
ironyunlimited,245
ironyunmistakable,246
is,247
isparsedonedigitthe,248
israel,249
it,250
its,251
jaya,252
jesuischarlie,253
jfpparsedonedigiterbozx,254
job,255
journalism,256
just,257
kate,258
kenya,259
kerry,260
keurig,261
khan,262
kharkiv,263
khilafahparsedthreedigits,264
killed,265
kindle,266
king,267
kingobama,268
kparsedonedigitwparseddigitshmvjht,269
lately,270
leaflets,271
leaving,272
leftist,273
lesson,274
life,275
listening,276
literacy,277
ll,278
lobby,279
longer,280
looking,281
los,282
lost,283
louisck,284
lt,285
lupita,286
machine,287
make,288
malaysian,289
marie,290
marvelously,291
mary,292
mate,293
may,294
maya,295
me,296
mean,297
meanwhile,298
media,299
meetthepress,300
memorial,301
memory,302
mexico,303
might,304
minute,305
missing,306
more,307
morning,308
most,309
mother,310
mouths,311
move,312
movie,313
mr,314
msy,315
mt,316
murdered,317
muslims,318
my,319
naijanerd,320
nation,321
new,322
next,323
nice,324
nick,325
nigga,326
no,327
noah,328
nocricket,329
not,330
nothing,331
nynnvwparsedtwodigitswy,332
nyong,333
obama,334
oblivion,335
odi,336
of,337
off,338
office,339
officially,340
okay,341
omeisy,342
on,343
one,344
only,345
onparsedonedigitmeal,346
oparsedonedigitgqiaarbf,347
options,348
oswald,349
otbewggbtj,350
our,351
out,352
over,353
overload,354
paid,355
park,356
parseddigits,357
parsedfourdigits,358
parsedonedigit,359
parsedonedigitgntibiqei,360
parsedonedigitst,361
parsedonedigituvphqlparsedtwodigitsx,362
parsedonedigitwumfparsedonedigitpcll,363
parsedthreedigits,364
parsedtwodigits,365
parsedtwodigitsk,366
passed,367
people,368
performance,369
pine,370
plan,371
planted,372
point,373
posting,374
postponement,375
president,376
pretextâ,377
pretty,378
pro,379
probably,380
profession,381
program,382
proposition,383
public,384
puffing,385
qpparsedonedigitbsparsedonedigitehye,386
queen,387
quick,388
random,389
rascalflatts,390
rash,391
re,392
ready,393
real,394
really,395
recently,396
regret,397
reliable,398
relies,399
religion,400
republican,401
response,402
return,403
rice,404
rich,405
richer,406
rifle,407
rob,408
robbed,409
roll,410
rooting,411
roryhaynesparsedfourdigits,412
royals,413
rt,414
rule,415
running,416
russia,417
ryanbleslie,418
sad,419
said,420
salon,421
sawston,422
say,423
says,424
screening,425
search,426
see,427
seen,428
sellout,429
sells,430
seriouslywhat,431
service,432
set,433
she,434
shots,435
shouting,436
shuts,437
sick,438
silently,439
simple,440
size,441
skin,442
smart,443
smile,444
so,445
some,446
someone,447
something,448
sometimes,449
somewhere,450
spending,451
srisulgceo,452
stalking,453
stand,454
state,455
stay,456
sterling,457
straight,458
style,459
subtweeting,460
supplements,461
sure,462
take,463
talking,464
tanvirsalimparsedonedigit,465
targeted,466
tattooed,467
team,468
tearing,469
thailand,470
than,471
that,472
the,473
theater,474
thebachelorette,475
thebeatles,476
their,477
thetimes,478
they,479
thing,480
think,481
this,482
those,483
three,484
thugs,485
timing,486
tire,487
to,488
today,489
tomorrow,490
torture,491
torturereport,492
touch,493
tparsedonedigitqanimpic,494
tragic,495
transforms,496
traviscjohnsonparsedonedigit,497
tree,498
trumped,499
try,500
trying,501
tweet,502
twitter,503
typed,504
tâ,505
ukip,506
ukraine,507
under,508
unfortunate,509
universal,510
university,511
unlike,512
up,513
usa,514
use,515
using,516
value,517
ve,518
via,519
video,520
vital,521
walked,522
warns,523
was,524
watching,525
wbjparsedonedigititmvhd,526
we,527
website,528
week,529
weekend,530
were,531
what,532
when,533
which,534
while,535
whilst,536
who,537
whose,538
wifi,539
will,540
with,541
womb,542
wonder,543
work,544
world,545
would,546
wouldn,547
wounded,548
wow,549
wvraman,550
yahoonews,551
yankees,552
years,553
yell,554
yes,555
yet,556
yoof,557
you,558
your,559
zaxjepteparsedtwodigits,560
zumrfyparsedonedigitdci,561
ðÿ,562
œforeignersâ,563
œgod,564
œon,565
œyou,566
