__,0
___,1
____,2
_psparsedonedigit_,3
aaand,4
aaron,5
aau,6
ab,7
ability,8
able,9
about,10
absolute,11
absolutely,12
absurd,13
abt,14
abusing,15
abyone,16
acceptable,17
acceptance,18
account,19
achievement,20
achievements,21
act,22
acting,23
actingg,24
action,25
actors,26
acts,27
actually,28
addict,29
addicted,30
addidas,31
adding,32
adds,33
adele,34
adidas,35
adizero,36
admire,37
admit,38
adore,39
ads,40
adult,41
adulthood,42
adventvega,43
advert,44
af,45
afk,46
afraid,47
after,48
afternoon,49
again,50
againagain,51
againnnn,52
against,53
age,54
agent,55
ages,56
aggghhhhhhhhh,57
aggravated,58
ago,59
agree,60
agreed,61
ah,62
ahead,63
ahh,64
ahhh,65
ahhhhh,66
ahhhhhhhhhhhhhhhhhhhhh,67
aid,68
ain,69
aint,70
air,71
airing,72
airmax,73
airport,74
aisha,75
aka,76
al,77
alberta,78
album,79
albuquerque,80
alexandre,81
alexxx,82
alicia,83
alihartzell,84
all,85
allnighter,86
allowed,87
allpowerful,88
almost,89
almunia,90
alone,91
along,92
alpha,93
alrdy,94
already,95
alskdjalksdjaklsjdaklsjdlkasjdlkjasdlkasdjlkasjdalskdjlaskdj,96
also,97
always,98
am,99
amaze,100
amazing,101
amazinng,102
ambassador,103
america,104
americans,105
amp,106
an,107
anal,108
anatole,109
and,110
andrews,111
android,112
annette,113
anniv,114
announce,115
announcements,116
annoy,117
annoyed,118
annoying,119
another,120
anotherheadache,121
answer,122
answered,123
answers,124
anticpation,125
antm,126
antonio,127
any,128
anymore,129
anyone,130
anything,131
anythingg,132
anyversary,133
anyway,134
anyways,135
apa_style,136
aparsedonedigit,137
apllo,138
app,139
apparently,140
apple,141
application,142
appreciate,143
appreciated,144
approximately,145
appt,146
april,147
apt,148
aqua,149
aquarius,150
arby,151
arcade,152
are,153
argh,154
arguing,155
armour,156
arms,157
around,158
arrested,159
arrivals,160
arrived,161
arsehole,162
arsenal,163
as,164
asap,165
ashamed,166
ashby,167
ashcroft,168
ashishh,169
ashworth,170
ask,171
asked,172
asks,173
asleep,174
asparagus,175
ass,176
assignments,177
assist,178
asx,179
asz,180
at,181
ate,182
athlete,183
athletes,184
atlanta,185
atlantic,186
atm,187
atpesummit,188
attached,189
attempting,190
attended,191
attitude,192
attraction,193
attractive,194
aubin,195
auction,196
audi,197
audio,198
august,199
aunt,200
auntee,201
av,202
aw,203
awake,204
award,205
awards,206
away,207
awesome,208
awesomeness,209
awesomest,210
awful,211
awhhbabies,212
awkward,213
awsome,214
aww,215
awww,216
axed,217
ayy,218
az,219
azn,220
azure,221
azz,222
babe,223
babies,224
baby,225
back,226
backs,227
bad,228
bae,229
bag,230
bahama,231
baked,232
bakersfield,233
bakery,234
ball,235
ballet,236
baltimore,237
baltimoregp,238
bananas,239
band,240
bands,241
bangs,242
bankers,243
bar,244
barbie,245
barcelona,246
bare,247
barley,248
barn,249
barry,250
bars,251
barton,252
baseball,253
based,254
basic,255
basics,256
bass,257
bastards,258
batteries,259
battery,260
battle,261
baylidonaldson,262
bbms,263
bbq,264
bc,265
bday,266
be,267
beardie,268
beat,269
beats,270
beautiful,271
bebeee,272
because,273
because_it,274
become,275
becoming,276
bed,277
bedd,278
been,279
beer,280
before,281
beg,282
begin,283
beginnersluck,284
behind,285
bein,286
being,287
beinsinglesucks,288
bel,289
belated,290
belieber,291
beliefs,292
believe,293
bell,294
bella,295
belt,296
bench,297
benchmark,298
bernandez,299
best,300
bestfriend,301
bestfriends,302
bestnightever,303
bet,304
betchesluvthis,305
better,306
better_,307
between,308
beyonce,309
beyoncé,310
beyond,311
bf,312
bff,313
bid,314
bieber,315
big,316
bigbooty,317
biggest,318
bigggg,319
bigmove,320
bike,321
biker,322
bikini,323
bikinis,324
bing,325
bint,326
birds,327
birthday,328
birthdayy,329
bish,330
bit,331
bitch,332
bitches,333
bites,334
bizspark,335
bk,336
black,337
blackberries,338
blah,339
blame,340
blatant,341
bless,342
blessed,343
blessen,344
blessing,345
blew,346
bliev,347
blinkers,348
bliss,349
block,350
blocked,351
blocks,352
blondes,353
bloody,354
blow,355
blown,356
blue,357
bluesfest,358
blurghhhhh,359
bmg,360
body,361
bogart,362
bohemian,363
boise,364
bomb,365
bonus,366
boo,367
book,368
bookswithalettermissing,369
boonaa,370
boost,371
boot,372
boots,373
bored,374
boredwholedaynow,375
boring,376
borrow,377
bosses,378
both,379
bother,380
bothered,381
bottle,382
bought,383
bourbon,384
bout,385
bowl,386
bowling,387
bowral,388
box,389
boxing,390
boy,391
boys,392
boyz,393
bra,394
brag,395
braided,396
braincells,397
brainstorm,398
bran,399
brand,400
brandon,401
brandy,402
brave,403
bravia,404
break,405
breakfast,406
breaking,407
breath,408
bree,409
breeze,410
breezy,411
brekkie,412
brekky,413
bricks,414
bride,415
bridge,416
bright,417
brighter,418
brighton,419
brilliance,420
brilliant,421
bring,422
brisket,423
britney,424
bro,425
broke,426
broken,427
bronx,428
broo,429
brooke,430
brother,431
brought,432
brown,433
brownies,434
bruce,435
brush,436
brussels,437
bs,438
bsnl,439
bt,440
btw,441
bucks,442
budget,443
building,444
built,445
bullock,446
bulls,447
bullshit,448
bump,449
bumsuck,450
bun,451
bunch,452
burn,453
burnt,454
burr,455
bus,456
business,457
busted,458
busy,459
but,460
butimgettingthemanywaysfuckit,461
butt,462
butts,463
buy,464
buying,465
buys,466
by,467
bye,468
byebyesummer,469
cab,470
cadburys,471
caddykim,472
cake,473
calculates,474
call,475
called,476
calling,477
calls,478
cam,479
came,480
cameo,481
camera,482
cameraoxford,483
camp,484
campaign,485
can,486
canada,487
canadafail,488
canadians,489
candy,490
cannes,491
cannot,492
cant,493
cape,494
captivate,495
car,496
carbon,497
card,498
cardiff,499
cardigan,500
cardio,501
care,502
cares,503
carolyn,504
carry,505
carter,506
carver,507
case,508
cashback,509
casj,510
casper,511
cast,512
castle,513
cat,514
catch,515
catching,516
cats,517
catwomanbytchz,518
caught,519
cause,520
cbeebies,521
cd,522
cdnjoke,523
cdnpoli,524
celebrate,525
celebrating,526
celebrity,527
celebs,528
celtics,529
centennial,530
center,531
centre,532
cents,533
century,534
cereal,535
certificate,536
cfl,537
chains,538
challenge,539
chance,540
chandler,541
chanel,542
change,543
changer,544
chapters,545
character,546
charge,547
charity,548
cheapo,549
check,550
checked,551
checking,552
cheese,553
cheryl,554
chesterunisummerball,555
chevy,556
chic,557
chicago,558
chicagomanual,559
chick,560
chicken,561
children,562
chill,563
chillin,564
chips,565
chocolate,566
chocolatecravingfail,567
choice,568
chokes,569
chokeyes,570
chose,571
chosen,572
chris,573
christ,574
christmas,575
chromeo,576
chuffed,577
church,578
ciggs,579
circumstances,580
ciric,581
cisco,582
citation,583
cities,584
city,585
civilization,586
cking,587
class,588
classes,589
classic,590
classy,591
cle,592
clef,593
client,594
clients,595
close,596
closer,597
closet,598
clothes,599
cloud,600
club,601
coach,602
coaches,603
coast,604
coasters,605
coco,606
code,607
coding,608
cody,609
coffee,610
coke,611
cold,612
cole,613
colinratushniak,614
collaboration,615
collar,616
collect,617
collecting,618
collection,619
colleg,620
college,621
cologne,622
color,623
colorado,624
colors,625
com,626
comb,627
combat,628
combine,629
combo,630
come,631
comedy,632
comes,633
comfy,634
comin,635
coming,636
commentator,637
comments,638
commercial,639
comming,640
commit,641
communicate,642
community,643
comp,644
company,645
compare,646
compared,647
comparison,648
compete,649
competition,650
competitors,651
complaining,652
complete,653
completely,654
complex,655
compliments,656
comprehensive,657
computer,658
computing,659
conclusion,660
conditions,661
conference,662
confused,663
congrats,664
congratulations,665
congress,666
connect,667
connection,668
connell,669
consideration,670
consoles,671
cont,672
contains,673
content,674
continue,675
continues,676
contour,677
contract,678
contracted,679
control,680
controller,681
convenient,682
convertible,683
convincing,684
convo,685
cook,686
cool,687
cooler,688
cooling,689
cop,690
copy,691
copyright,692
corgi,693
corgis,694
corolla,695
corporations,696
corvette,697
cos,698
cotton,699
could,700
couldn,701
couldnt,702
count,703
counterfeit,704
counting,705
country,706
couple,707
course,708
courted,709
courtesy,710
cousin,711
covecrest,712
covered,713
coverseyes,714
cowell,715
coz,716
crackers,717
cramps,718
crap,719
crappy,720
crashed,721
crazy,722
crazyasshit,723
cream,724
creamy,725
created,726
creating,727
creative,728
credit,729
creep,730
creeped,731
creeps,732
crew,733
crewneck,734
cried,735
criminal,736
crosby,737
cross,738
crossing,739
crown,740
cru,741
crunchy,742
crush,743
cry,744
ctfxc,745
cultural,746
cunt,747
cup,748
cups,749
curly,750
current,751
currys,752
curve,753
cus,754
customers,755
customized,756
cut,757
cute,758
cuz,759
cyber,760
cycling,761
cyprus,762
da,763
dad,764
daddies,765
daddy,766
dads,767
dalaman,768
dallas,769
dam,770
damage,771
dame,772
damien,773
dammit,774
damn,775
damnit,776
damnn,777
damnnnn,778
danced,779
dancemoms,780
dances,781
dancing,782
dang,783
danger,784
dangerous,785
daniel,786
dare,787
dark,788
darling,789
dat,790
date,791
dats,792
dave,793
david,794
davis,795
dawn,796
day,797
days,798
dayz,799
db,800
dc,801
dcfabb,802
dd,803
ddddd,804
de,805
dead,806
deal,807
dear,808
dearfuturehusband,809
death,810
deathh,811
debuts,812
decade,813
decades,814
decemeber,815
decided,816
decides,817
decision,818
decisions,819
deck,820
dedicate,821
deep,822
def,823
definately,824
definite,825
definitely,826
deizydoesit,827
delete,828
deleting,829
delighted,830
delivered,831
delivering,832
dell,833
dellstreak,834
dem,835
demo,836
demon,837
dentist,838
deny,839
deposition,840
depressed,841
depression,842
derrick,843
deserved,844
design,845
desktop,846
despise,847
dessert,848
destiny,849
destroyswaggerville,850
destruction,851
desvers,852
details,853
detective,854
determined,855
devastated,856
developing,857
devices,858
diamond,859
dictionary,860
did,861
didn,862
didnt,863
die,864
died,865
difference,866
difficult,867
dig,868
diners,869
ding,870
dinner,871
dinosaurs,872
direction,873
directly,874
dirtbiking,875
dirty,876
dis,877
disappointed,878
disconnected,879
discontent,880
discontinued,881
diseaz,882
disgusted,883
disgusting,884
disgustingg,885
dislike,886
disliking,887
dissapointed,888
disturbed,889
ditching,890
dive,891
divine,892
diz,893
dj,894
dk,895
dkny,896
dmca,897
dnt,898
do,899
doctors,900
does,901
doesn,902
doesnt,903
dog,904
dogs,905
doing,906
dollar,907
dollars,908
dolphin,909
don,910
done,911
dong,912
donkey,913
dont,914
dontknowhowilivedwithoutit,915
donuts,916
doo,917
doodlejump,918
door,919
dope,920
dora,921
dots,922
double,923
doubletree,924
douche,925
doula,926
down,927
downloaded,928
downloadin,929
downstairs,930
downtown,931
draft,932
drag,933
dragu,934
drake,935
drama,936
drawing,937
dream,938
dreamcar,939
dreamed,940
dreams,941
dress,942
drew,943
dri,944
drink,945
drive,946
driving,947
droid,948
drop,949
dropped,950
drove,951
drs,952
drunk,953
drunken,954
dry,955
ds,956
dublin,957
ducks,958
dude,959
due,960
dull,961
dum,962
dumb,963
dump,964
dun,965
dunks,966
during,967
dusted,968
duty,969
dwts,970
dying,971
each,972
eachother,973
eagles,974
ear,975
earbuds,976
early,977
earth,978
easier,979
easily,980
easilyentertained,981
easter,982
eat,983
eaten,984
eatin,985
eating,986
eats,987
ebay,988
eclipse,989
ect,990
ed,991
edward,992
effective,993
effectively,994
effort,995
ego,996
eightyville,997
either,998
el,999
eleavator,1000
elected,1001
elegant,1002
elevator,1003
else,1004
em,1005
email,1006
embarrassed,1007
embarrassing,1008
emerged,1009
emi,1010
emotionally,1011
emotions,1012
employed,1013
employee,1014
end,1015
ended,1016
energy,1017
engine,1018
enjoy,1019
enjoyed,1020
enjoyin,1021
enjoying,1022
enormous,1023
entertaining,1024
entertainment,1025
entire,1026
entitled,1027
enuff,1028
eparsedonedigit,1029
eparsedonedigitongparsedonedigit,1030
epic,1031
episode,1032
eric,1033
ericson,1034
ericsson,1035
eshop,1036
essay,1037
estate,1038
etsy,1039
etsykids,1040
eurgh,1041
euros,1042
eve,1043
even,1044
evening,1045
evenings,1046
event,1047
eventful,1048
events,1049
ever,1050
everrr,1051
every,1052
everybody,1053
everyday,1054
everygirl,1055
everyone,1056
everyparsedonedigit,1057
everythiiiing,1058
everything,1059
everytime,1060
evil,1061
evileye,1062
ex,1063
exactly,1064
exam,1065
excell,1066
except,1067
excited,1068
exciting,1069
exclusive,1070
executive,1071
exhausted,1072
exhausting,1073
exhibit,1074
exicited,1075
exparsedthreedigitsslb,1076
expect,1077
expected,1078
expensive,1079
expertise,1080
experts,1081
explorer,1082
explorers,1083
express,1084
extremely,1085
exxxxxxxxxxxxcited,1086
eye,1087
eyes,1088
ezurbanvibe,1089
fa,1090
fab,1091
fabb,1092
fabulous,1093
facbook,1094
face,1095
facebook,1096
fack,1097
fact,1098
factor,1099
fading,1100
fagbag,1101
fage,1102
fail,1103
fair,1104
fairly,1105
fake,1106
fall,1107
fallen,1108
falling,1109
fam,1110
family,1111
fan,1112
fans,1113
fantastic,1114
fantasticfest,1115
far,1116
fares,1117
fashion,1118
fast,1119
fastandfurious,1120
fat,1121
fatale,1122
father,1123
fav,1124
fave,1125
favorite,1126
fb,1127
fbr,1128
fcukin,1129
feather,1130
fed,1131
federal,1132
fedex,1133
feel,1134
feeling,1135
feels,1136
feet,1137
fell,1138
felt,1139
females,1140
femme,1141
fendi,1142
festival,1143
fev,1144
fever,1145
few,1146
ff,1147
ffc,1148
ffffff,1149
ffs,1150
fi,1151
fiat,1152
fiber,1153
fieldtrip,1154
fight,1155
figure,1156
figured,1157
filled,1158
film,1159
filming,1160
fin,1161
final,1162
finale,1163
finally,1164
find,1165
finding,1166
fine,1167
finish,1168
finished,1169
finna,1170
fire,1171
first,1172
fish,1173
fishin,1174
fishing,1175
fist,1176
fit,1177
fkn,1178
flags,1179
flash,1180
flauge,1181
flava,1182
flex,1183
flies,1184
flight,1185
flipping,1186
flocka,1187
floor,1188
florida,1189
fml,1190
foams,1191
focal,1192
focus,1193
follow,1194
followback,1195
followers,1196
followfriday,1197
following,1198
followme,1199
fone,1200
food,1201
foodstamps,1202
fools,1203
foosball,1204
foot,1205
football,1206
footlocker,1207
for,1208
ford,1209
foreigners,1210
forever,1211
forget,1212
forgot,1213
forgotten,1214
fort,1215
forward,1216
foul,1217
found,1218
founding,1219
foward,1220
fox,1221
franco,1222
frands,1223
frateran,1224
freaken,1225
freaking,1226
free,1227
freestyle,1228
freezer,1229
french,1230
fresh,1231
fresher,1232
friday,1233
frie,1234
fried,1235
friend,1236
friendly,1237
friends,1238
friggin,1239
frigid,1240
frm,1241
from,1242
front,1243
frowns,1244
froyo,1245
froze,1246
frustrated,1247
fry,1248
ft,1249
fu,1250
fuck,1251
fuckbing,1252
fucked,1253
fucken,1254
fuckin,1255
fucking,1256
fuckoff,1257
fuckyousummit,1258
fuel,1259
fuk,1260
full,1261
fully,1262
fun,1263
funding,1264
fundraising,1265
funeral,1266
funn,1267
funnelicious,1268
funny,1269
funparsedthreedigits,1270
further,1271
future,1272
fuzzy,1273
fxcking,1274
gaga,1275
gala,1276
galaxy,1277
game,1278
gameon,1279
gamerface,1280
games,1281
gamestop,1282
gangsta,1283
garage,1284
gators,1285
gave,1286
gaveuponhim,1287
gay,1288
gayy,1289
gd,1290
geared,1291
gelato,1292
general,1293
genius,1294
genre,1295
gentleman,1296
genuine,1297
georgia,1298
get,1299
getalife,1300
geting,1301
gets,1302
getsonmynerves,1303
gettin,1304
getting,1305
gettn,1306
ghetto,1307
gift,1308
gifts,1309
gig,1310
giggle,1311
gingrich,1312
giraffe,1313
girl,1314
girlfriend,1315
girlies,1316
girls,1317
give,1318
gives,1319
giving,1320
glad,1321
glasses,1322
glee,1323
glen,1324
glorious,1325
glory,1326
gloves,1327
go,1328
goa,1329
goal,1330
goals,1331
goblue,1332
god,1333
godblessbullies,1334
goddamn,1335
goes,1336
goin,1337
going,1338
gojackets,1339
gojesus,1340
gold,1341
gon,1342
gonb,1343
gone,1344
gonna,1345
goo,1346
good,1347
goodbyes,1348
goodgame,1349
goodness,1350
goodnight,1351
goodwill,1352
goofd,1353
google,1354
gorgeous,1355
got,1356
gotta,1357
gotti,1358
gourmet,1359
gps,1360
grab,1361
grace,1362
gracieglam,1363
graduated,1364
grafiks,1365
graph,1366
grateful,1367
gray,1368
grease,1369
great,1370
greatday,1371
greater,1372
greatest,1373
greatestgadgets,1374
greatfull,1375
greek,1376
green,1377
gritting,1378
grounds,1379
grow,1380
grown,1381
grparsedonedigit,1382
grrr,1383
grrrr,1384
grrrrr,1385
grrrrrr,1386
grrrrrrrrrrrr,1387
gt,1388
gteparsedonedigit,1389
guards,1390
gucci,1391
gud,1392
guess,1393
guessing,1394
guessssszz,1395
guilty,1396
gum,1397
gunna,1398
gutted,1399
guy,1400
guys,1401
gym,1402
haaay,1403
haaha,1404
hack,1405
hacks,1406
had,1407
hadn,1408
haha,1409
hahaha,1410
hahahahaha,1411
hahahahahahaha,1412
hair,1413
half,1414
halfrim,1415
halfway,1416
hall,1417
halo,1418
hamilton,1419
hancock,1420
handle,1421
hands,1422
handycam,1423
hang,1424
hangin,1425
hanging,1426
hankito,1427
happen,1428
happened,1429
happening,1430
happens,1431
happier,1432
happiest,1433
happpy,1434
happy,1435
happytweet,1436
harary,1437
hard,1438
harder,1439
hardest,1440
hardtime,1441
harrisburg,1442
harry,1443
hart,1444
harvey,1445
has,1446
hasn,1447
hate,1448
haunted,1449
have,1450
haven,1451
havent,1452
having,1453
hawaiian,1454
hawk,1455
hcr,1456
hd,1457
he,1458
head,1459
headache,1460
heading,1461
headlamp,1462
headphones,1463
heads,1464
healthy,1465
hear,1466
heard,1467
hearing,1468
heart,1469
heartfelt,1470
heat,1471
heated,1472
heathrowe,1473
heaven,1474
heavily,1475
heels,1476
hehehe,1477
helicopter,1478
hell,1479
hella,1480
hellaclean,1481
helllooooooo,1482
hello,1483
help,1484
her,1485
here,1486
heritage,1487
hero,1488
heroine,1489
herooo,1490
herr,1491
herself,1492
hey,1493
hi,1494
high,1495
highlanders,1496
highlights,1497
hilarious,1498
hill,1499
hills,1500
hilton,1501
him,1502
himself,1503
his,1504
history,1505
hit,1506
hitting,1507
hmmm,1508
hobby,1509
hockey,1510
hoe,1511
hoff,1512
hold,1513
holiday,1514
hollywood,1515
holy,1516
hom,1517
home,1518
homework,1519
homie,1520
homo,1521
honestly,1522
honey,1523
hoodnight,1524
hookah,1525
hoop,1526
hoops,1527
hooray,1528
hoosier,1529
hope,1530
hopefully,1531
hopes,1532
hoping,1533
horny,1534
horrible,1535
horribly,1536
horrid,1537
hospital,1538
host,1539
hostel,1540
hot,1541
hotel,1542
hotels,1543
hotmail,1544
hott,1545
hour,1546
hours,1547
house,1548
how,1549
howard,1550
hse,1551
htc,1552
http,1553
huge,1554
huh,1555
hump,1556
humphrey,1557
hungry,1558
hurricane,1559
hurrryyy,1560
hurry,1561
hurt,1562
hurts,1563
husband,1564
hut,1565
hutch,1566
hype,1567
hypertension,1568
icahn,1569
icanhonestlysay,1570
ice,1571
id,1572
idc,1573
idea,1574
ideas,1575
identity,1576
idiot,1577
idk,1578
idmas,1579
ieparsedonedigit,1580
if,1581
ife,1582
ignorant,1583
ihatenewtwitter,1584
ii,1585
iits,1586
ikea,1587
ikr,1588
ill,1589
ilove,1590
iloveyou,1591
im,1592
imac,1593
imitation,1594
imma,1595
immense,1596
impossible,1597
impressed,1598
impression,1599
in,1600
inappropriatefuneralsongs,1601
inc,1602
incarnation,1603
inclined,1604
incompetent,1605
inconsiderate,1606
indies,1607
industry,1608
indycar,1609
infected,1610
infection,1611
inferior,1612
info,1613
information,1614
infuse,1615
injunction,1616
inkredible_k_,1617
inlove,1618
inn,1619
insane,1620
insanicast,1621
inside,1622
insightful,1623
insoles,1624
inspired,1625
inspiring,1626
instead,1627
instinct,1628
instructions,1629
intense,1630
interest,1631
interesting,1632
intern,1633
internap,1634
internet,1635
internets,1636
into,1637
invitation,1638
invitational,1639
invite,1640
involved,1641
iowa,1642
ipad,1643
iphone,1644
ipod,1645
ips,1646
irritated,1647
is,1648
island,1649
isn,1650
isnt,1651
isolation,1652
issue,1653
issues,1654
it,1655
itage,1656
itellyou,1657
ithinkweredonehere,1658
itouch,1659
its,1660
itself,1661
itunes,1662
iwannago,1663
iwannagodney,1664
iwantmybed,1665
iyiyi,1666
iz,1667
jabs,1668
jack,1669
jacket,1670
jah,1671
jail,1672
james,1673
jamin,1674
jaminn,1675
janet,1676
jazz,1677
jazziisstilldumb,1678
jazzmines,1679
jeans,1680
jedward,1681
jeggings,1682
jennette,1683
jerks,1684
jerseys,1685
jerzday,1686
jesus,1687
jetsuite,1688
jhb,1689
jingle,1690
jit,1691
job,1692
joey,1693
johnny,1694
joke,1695
jokes,1696
joyous,1697
jump,1698
jus,1699
juss,1700
just,1701
justify,1702
justin,1703
justsaying,1704
kalli,1705
kanye,1706
kardashian,1707
kardashians,1708
karmasabitch,1709
kat,1710
kate,1711
kathy,1712
katie,1713
keep,1714
keeping,1715
kelly,1716
ken,1717
kentucky,1718
kevin,1719
key,1720
keyboard,1721
keys,1722
kfc,1723
khadse,1724
khaki,1725
kia,1726
kick,1727
kicked,1728
kicking,1729
kicks,1730
kid,1731
kids,1732
kill,1733
killah,1734
killed,1735
killer,1736
killian,1737
killing,1738
kim,1739
kind,1740
kinda,1741
kinderbueno,1742
kinect,1743
king,1744
kingsley,1745
kink,1746
kiss,1747
kitchen,1748
kits,1749
kjeanbyrne,1750
knew,1751
know,1752
known,1753
knows,1754
knw,1755
kreayshawn,1756
kris,1757
kristen,1758
krystal,1759
kudostoyou,1760
kumaran,1761
kwai,1762
la,1763
lab,1764
labor,1765
labs,1766
labtops,1767
ladies,1768
lady,1769
ladycisca,1770
ladygaga,1771
lakers,1772
lakeshow,1773
lame,1774
landlord,1775
landlordhell,1776
lap,1777
laptop,1778
laptops,1779
large,1780
larry,1781
las,1782
lasr,1783
last,1784
lasted,1785
lastnight,1786
late,1787
lately,1788
later,1789
latin,1790
latonya,1791
laugh,1792
laughed,1793
launch,1794
launched,1795
laundry,1796
laura,1797
laurgro,1798
lauristons,1799
law,1800
lay,1801
layin,1802
laying,1803
layla,1804
lazier,1805
lazy,1806
leaders,1807
leadershipsafariparsedonedigitkparsedtwodigits,1808
leak,1809
leaks,1810
learn,1811
learnt,1812
least,1813
leave,1814
leaving,1815
lebron,1816
lecture,1817
lecturing,1818
left,1819
legally,1820
legend,1821
legit,1822
leisure,1823
lemans,1824
lemars,1825
less,1826
let,1827
lets,1828
letter,1829
letting,1830
lewis,1831
lex,1832
libra,1833
library,1834
libs,1835
liee,1836
life,1837
lifecomesatyoufast,1838
lift,1839
light,1840
lights,1841
liike,1842
like,1843
liked,1844
likeeee,1845
likes,1846
liking,1847
lil,1848
line,1849
lines,1850
ling,1851
linkedin,1852
liquor,1853
lismore,1854
listen,1855
listened,1856
listeners,1857
listening,1858
literally,1859
little,1860
liv,1861
live,1862
liverpool,1863
living,1864
ll,1865
lli,1866
lloyd,1867
lmao,1868
lmfao,1869
lmfaoo,1870
lmfaooo,1871
loafers,1872
local,1873
lock,1874
locked,1875
lofty,1876
log,1877
logic,1878
lol,1879
london,1880
londonriots,1881
lonely,1882
long,1883
longdayahead,1884
longer,1885
look,1886
looked,1887
lookin,1888
looking,1889
looks,1890
loooool,1891
looove,1892
lose,1893
losin,1894
losing,1895
lost,1896
lot,1897
lots,1898
loui,1899
louie,1900
louis,1901
lounge,1902
love,1903
lovechicago,1904
loved,1905
lovee,1906
loveeee,1907
lovely,1908
lovemyjob,1909
loveoutletmalls,1910
lover,1911
loves,1912
lovethem,1913
lovin,1914
loving,1915
lovvvvve,1916
low,1917
lowepro,1918
lower,1919
loyal,1920
lp,1921
lt,1922
ltd,1923
lts,1924
luca,1925
lucas,1926
luck,1927
lucky,1928
luger,1929
lunch,1930
lunchtime,1931
lungs,1932
luv,1933
luvs,1934
lyin,1935
ma,1936
mac,1937
macbook,1938
machine,1939
mad,1940
maddens,1941
made,1942
maestro,1943
mag,1944
magic,1945
mags,1946
mah,1947
maid,1948
mail,1949
main,1950
maintain,1951
make,1952
makes,1953
makeup,1954
makeupbymario,1955
makeyourself,1956
makin,1957
making,1958
mall,1959
mam,1960
mama,1961
man,1962
manage,1963
mane,1964
manga,1965
manhattan,1966
mansion,1967
manuel,1968
many,1969
maps,1970
marathon,1971
marathong,1972
marching,1973
marilyn,1974
mariners,1975
mario,1976
mark,1977
market,1978
maro,1979
marshmellows,1980
martin,1981
martini,1982
marty,1983
maryland,1984
mass,1985
massage,1986
match,1987
material,1988
materializes,1989
mates,1990
math,1991
matter,1992
mature,1993
max,1994
maxes,1995
maxin,1996
may,1997
maybe,1998
mayhem,1999
maynor,2000
mazing,2001
mbfw,2002
mccartney,2003
mcdonalds,2004
mcflurry,2005
mcfly,2006
mdr,2007
me,2008
meadows,2009
mean,2010
meaning,2011
mechanical,2012
media,2013
mediocrity,2014
meebo,2015
meet,2016
meeting,2017
meetings,2018
melody,2019
melted,2020
member,2021
members,2022
memorable,2023
memory,2024
memphisfact,2025
men,2026
menchies,2027
menlyn,2028
mental,2029
mentor,2030
merchandising,2031
merry,2032
messages,2033
messed,2034
messenger,2035
met,2036
metroid,2037
mfs,2038
mgmt,2039
mi,2040
miami,2041
michael,2042
michaelmyersatd,2043
michellebachmann,2044
microsoft,2045
microwave,2046
middle,2047
middlefingerseverywhere,2048
midget,2049
midnight,2050
midwest,2051
might,2052
migraines,2053
migrainessuck,2054
mii,2055
mike,2056
mile,2057
miles,2058
milk,2059
million,2060
min,2061
mind,2062
mine,2063
miner,2064
mines,2065
mini,2066
mins,2067
minute,2068
minuteclinic,2069
minutes,2070
mis,2071
miss,2072
missed,2073
missing,2074
missthatshow,2075
mistake,2076
mistakes,2077
mmm,2078
mmmmm,2079
mmmmmm,2080
mobile,2081
mobileme,2082
model,2083
moderate,2084
mohammed,2085
mom,2086
moment,2087
momma,2088
moms,2089
mon,2090
monday,2091
mondays,2092
money,2093
monin,2094
monster,2095
montage,2096
month,2097
months,2098
mood,2099
moon,2100
more,2101
moretweetsaboutfood,2102
morgan,2103
morgannnnnnnnn,2104
morning,2105
mornings,2106
morons,2107
most,2108
mostly,2109
mothafuckas,2110
mother,2111
mothers,2112
moths,2113
mountain,2114
move,2115
moved,2116
movie,2117
moving,2118
mr,2119
mrmeatnuggets,2120
ms,2121
msc,2122
msp,2123
msuic,2124
mtg,2125
mtl,2126
mtv,2127
much,2128
muchappreciatedinfo,2129
mucho,2130
mucus,2131
multi,2132
mum,2133
muppets,2134
murderdrome,2135
murray,2136
murs,2137
museo,2138
music,2139
musical,2140
must,2141
mustache,2142
mustaches,2143
mutt,2144
mvp,2145
mwema,2146
my,2147
mylilkitchenlab,2148
mynichols,2149
myself,2150
na,2151
nails,2152
nakutamani,2153
name,2154
named,2155
nancy,2156
nando,2157
nap,2158
nasally,2159
nashville,2160
nasty,2161
natalie,2162
nation,2163
nations,2164
naturally,2165
nature,2166
nauseous,2167
navi,2168
nawl,2169
nazi,2170
nbd,2171
ncaasoftball,2172
nd,2173
neat,2174
necklace,2175
need,2176
needed,2177
needs,2178
neighbor,2179
neighborhood,2180
neighbors,2181
nemesis,2182
nerve,2183
nes,2184
netbook,2185
netflix,2186
network,2187
networks,2188
neva,2189
nevea,2190
never,2191
new,2192
news,2193
newt,2194
next,2195
nexuss,2196
nf,2197
ngp,2198
nice,2199
nicer,2200
niche,2201
nick,2202
nickelodeon,2203
nicki,2204
nicks,2205
nicky,2206
nickyruddparsedtwodigits,2207
nigga,2208
niggas,2209
niggaz,2210
night,2211
nighters,2212
nightmares,2213
nights,2214
nightttttt,2215
nike,2216
nikes,2217
nikita,2218
nikki,2219
ninja,2220
nintendo,2221
niqqas,2222
nite,2223
njoy,2224
no,2225
nobody,2226
nodeadlinestoday,2227
nofatgirls,2228
noir,2229
nola,2230
nominate,2231
nomination,2232
non,2233
nonebesideyou,2234
noooooo,2235
nordy,2236
normal,2237
northeast,2238
nose,2239
not,2240
notcool,2241
notgraceful,2242
nothing,2243
notify,2244
nova,2245
novels,2246
now,2247
nparsedonedigitg,2248
nparsedthreedigits,2249
nuff,2250
number,2251
numbers,2252
nvidia,2253
ny,2254
nyan,2255
nyc,2256
nycearthquakeparsedfourdigits,2257
nz,2258
o_o,2259
o_parsedonedigit,2260
obama,2261
obsessed,2262
obviously,2263
oct,2264
odd,2265
oddparents,2266
odvy,2267
of,2268
off,2269
offered,2270
offering,2271
offers,2272
office,2273
officeparsedthreedigits,2274
official,2275
officially,2276
oft,2277
often,2278
oh,2279
ohcarolina,2280
ohh,2281
ohkay,2282
ok,2283
okay,2284
okayy,2285
ol,2286
old,2287
oldbridge,2288
older,2289
olly,2290
olot,2291
olympian,2292
omg,2293
omgyouteen,2294
omnia,2295
on,2296
onam,2297
once,2298
one,2299
oneofthealltimegreats,2300
ones,2301
online,2302
only,2303
oof,2304
ooo,2305
oooh,2306
ooooooo,2307
open,2308
opening,2309
opera,2310
opinions,2311
opportunities,2312
optiek,2313
or,2314
order,2315
ordered,2316
ordinace,2317
oregon,2318
oreo,2319
oreos,2320
original,2321
orland,2322
orlando,2323
os,2324
oth,2325
other,2326
others,2327
ottawa,2328
ouo,2329
our,2330
out,2331
outdoors,2332
outfit,2333
outlet,2334
outrage,2335
outside,2336
outstretched,2337
oval,2338
ovens,2339
over,2340
overall,2341
overc,2342
overcome,2343
overcomers,2344
overflows,2345
own,2346
owner,2347
owns,2348
oy,2349
packed,2350
packing,2351
pad,2352
page,2353
paid,2354
pain,2355
paint,2356
pair,2357
palm,2358
palmer,2359
pants,2360
pao,2361
papa,2362
paparazzie,2363
paper,2364
papers,2365
parenthood,2366
parents,2367
paris,2368
park,2369
parking,2370
parseddigits,2371
parseddigitshrs,2372
parseddigitss,2373
parseddigitsth,2374
parsedfivedigits,2375
parsedfivedigitsth,2376
parsedfourdigits,2377
parsedonedigit,2378
parsedonedigitam,2379
parsedonedigitday,2380
parsedonedigitds,2381
parsedonedigiter,2382
parsedonedigitg,2383
parsedonedigitgot,2384
parsedonedigitgs,2385
parsedonedigitk,2386
parsedonedigitmi,2387
parsedonedigitmp,2388
parsedonedigitnd,2389
parsedonedigitnite,2390
parsedonedigitpay,2391
parsedonedigitrd,2392
parsedonedigitst,2393
parsedonedigitth,2394
parsedonedigittoparsedtwodigits,2395
parsedonedigitx,2396
parsedsixdigits,2397
parsedthreedigits,2398
parsedthreedigitsb,2399
parsedtime,2400
parsedtwodigits,2401
parsedtwodigitsk,2402
parsedtwodigitsmphunder,2403
parsedtwodigitspeopleidmarry,2404
parsedtwodigitsth,2405
parsedtwodigitsthjinnieday,2406
part,2407
participants,2408
partner,2409
partners,2410
parts,2411
party,2412
passed,2413
passes,2414
passing,2415
passwords,2416
past,2417
pasta,2418
paste,2419
patent,2420
patience,2421
patient,2422
pattom,2423
pauly,2424
pbs,2425
pc,2426
pda,2427
peak,2428
pee,2429
pencils,2430
penn,2431
people,2432
perez,2433
perfect,2434
perform,2435
performing,2436
permission,2437
person,2438
personable,2439
personality,2440
persuing,2441
petsitting,2442
pfffft,2443
phase,2444
phat,2445
phd,2446
phew,2447
phone,2448
photo,2449
photographing,2450
physical,2451
physically,2452
pic,2453
picasso,2454
pick,2455
picked,2456
pics,2457
picture,2458
pictures,2459
pie,2460
piece,2461
pieces,2462
pierreopperman,2463
piers,2464
pifco,2465
pig,2466
pike,2467
pile,2468
pipeline,2469
pissed,2470
pisses,2471
pissin,2472
pizza,2473
place,2474
places,2475
plan,2476
planned,2477
planning,2478
plans,2479
platform,2480
play,2481
playa,2482
played,2483
player,2484
playing,2485
plays,2486
please,2487
pleased,2488
pledge,2489
pls,2490
plus,2491
plzzzzz,2492
pmcq,2493
pnc,2494
point,2495
pointless,2496
points,2497
political,2498
polka,2499
poll,2500
pool,2501
pooped,2502
poor,2503
popular,2504
portal,2505
ported,2506
positive,2507
possession,2508
possible,2509
possibly,2510
post,2511
posted,2512
posters,2513
posting,2514
potatoes,2515
potential,2516
potter,2517
pouch,2518
pow,2519
power,2520
powerpoint,2521
ppcclassroom,2522
ppl,2523
ppls,2524
practice,2525
prada,2526
pradaa,2527
pray,2528
prayer,2529
praying,2530
pre,2531
pregnant,2532
prepare,2533
pres,2534
preseason,2535
presented,2536
president,2537
press,2538
pressure,2539
presume,2540
pretty,2541
preview,2542
previous,2543
price,2544
priceless,2545
prices,2546
primark,2547
princess,2548
principles,2549
print,2550
printer,2551
pro,2552
prob,2553
probably,2554
problem,2555
problems,2556
probs,2557
proceeds,2558
prod,2559
product,2560
products,2561
profesh,2562
professional,2563
professors,2564
profile,2565
program,2566
programs,2567
progressive,2568
project,2569
prolly,2570
promise,2571
properly,2572
properties,2573
protection,2574
proud,2575
proudly,2576
provided,2577
providing,2578
prudence,2579
ps,2580
psn,2581
psparsedonedigit,2582
psvita,2583
psyched,2584
ptparsedonedigit,2585
pts,2586
pudding,2587
pukes,2588
pull,2589
puma,2590
pumped,2591
punch,2592
punk,2593
purchase,2594
purchased,2595
purchases,2596
purdue,2597
pure,2598
purple,2599
purse,2600
put,2601
putting,2602
puzzle,2603
qanda,2604
qpr,2605
qualified,2606
quality,2607
quarantine,2608
queen,2609
questionoftheday,2610
questions,2611
quickly,2612
quinn,2613
quite,2614
quiz,2615
race,2616
racers,2617
rachel,2618
rack,2619
radio,2620
radioooooooo,2621
rain,2622
raindeers,2623
rainy,2624
raising,2625
ran,2626
ranked,2627
rant,2628
rap,2629
rapper,2630
rapter,2631
rather,2632
raul,2633
rbc,2634
re,2635
read,2636
reader,2637
reading,2638
ready,2639
real,2640
realigning,2641
reality,2642
realize,2643
realized,2644
really,2645
realy,2646
reason,2647
reasons,2648
received,2649
reciprocate,2650
recommend,2651
recommendation,2652
red,2653
redvelvet,2654
reformatted,2655
refs,2656
registered,2657
registering,2658
regret,2659
regrets,2660
rehearsallyfe,2661
reinlove,2662
reinstall,2663
reinstalling,2664
relationship,2665
relax,2666
relaxin,2667
release,2668
released,2669
releasing,2670
reliable,2671
religious,2672
relying,2673
remains,2674
remember,2675
remembering,2676
remind,2677
reminds,2678
remix,2679
remote,2680
removed,2681
remy,2682
rendering,2683
renewal,2684
renewed,2685
renewing,2686
rentign,2687
replica,2688
reply,2689
report,2690
reported,2691
reportedly,2692
represent,2693
repulsive,2694
request,2695
rescue,2696
researching,2697
reservations,2698
resort,2699
respect,2700
respond,2701
response,2702
rest,2703
restoration,2704
retailers,2705
retire,2706
return,2707
returning,2708
retweet,2709
reversible,2710
revision,2711
revolves,2712
rhapsody,2713
rhythms,2714
rich,2715
richard,2716
rick,2717
rid,2718
ride,2719
riders,2720
ridiculousness,2721
rife,2722
right,2723
rights,2724
rihanna,2725
ring,2726
riots,2727
ripped,2728
risf,2729
ritz,2730
river,2731
road,2732
roads,2733
rock,2734
rockband,2735
rocked,2736
rockem,2737
rockin,2738
rocko,2739
rocks,2740
rod,2741
rode,2742
role,2743
rolex,2744
roll,2745
roller,2746
rollin,2747
romance,2748
rome,2749
roof,2750
rookie,2751
room,2752
roomie,2753
roomies,2754
roommate,2755
rooms,2756
root,2757
rope,2758
rose,2759
routine,2760
row,2761
rparsedonedigit,2762
rrb,2763
rt,2764
rub,2765
rubbn,2766
rude,2767
ruin,2768
ruining,2769
rule,2770
rules,2771
run,2772
runied,2773
running,2774
ryach,2775
sac,2776
sad,2777
saddens,2778
safe,2779
safely,2780
said,2781
saints,2782
salad,2783
sale,2784
sales,2785
salif,2786
salle,2787
saltwater,2788
samantha,2789
same,2790
samsung,2791
samsungsmarttv,2792
samsungsupport,2793
samuel,2794
sandals,2795
sandra,2796
santa,2797
satisfying,2798
saturday,2799
sauder,2800
save,2801
saved,2802
saw,2803
say,2804
sayin,2805
says,2806
sbsca,2807
scale,2808
scams,2809
scared,2810
scarf,2811
scedules,2812
schedule,2813
school,2814
science,2815
scooby,2816
scored,2817
scores,2818
scorpio,2819
scotland,2820
scream,2821
screaming,2822
screen,2823
screw,2824
screwed,2825
scruf,2826
sean,2827
search,2828
seashells,2829
season,2830
seattle,2831
second,2832
seconds,2833
secure,2834
security,2835
see,2836
seedless,2837
seeing,2838
seem,2839
seems,2840
seen,2841
seeya,2842
selfish,2843
sell,2844
selling,2845
sellouts,2846
semester,2847
semi,2848
send,2849
sending,2850
september,2851
sequence,2852
series,2853
serious,2854
seriously,2855
seriouslyy,2856
serve,2857
server,2858
service,2859
session,2860
set,2861
settings,2862
settling,2863
severely,2864
sexiest,2865
sexy,2866
sh,2867
shabby,2868
shades,2869
shame,2870
shants,2871
shape,2872
shaqs,2873
share,2874
sharp,2875
sharpies,2876
shave,2877
she,2878
shees,2879
sheesh,2880
shes,2881
shifter,2882
shiny,2883
shipping,2884
shirt,2885
shirts,2886
shit,2887
shithead,2888
shitting,2889
sho,2890
shock,2891
shoddy,2892
shoe,2893
shoes,2894
shoetweets,2895
shoot,2896
shootin,2897
shootout,2898
shop,2899
shopping,2900
shorts,2901
shorty,2902
shot,2903
shots,2904
should,2905
shouldn,2906
shout,2907
shouting,2908
show,2909
showed,2910
shower,2911
showing,2912
showroom,2913
shows,2914
shox,2915
shred,2916
shut,2917
shutter,2918
shutting,2919
shytt,2920
sia,2921
sic,2922
sick,2923
sickkkkkkk,2924
side,2925
siding,2926
sigh,2927
sign,2928
signed,2929
signs,2930
sike,2931
silent,2932
silly,2933
silver,2934
sim,2935
simon,2936
sims,2937
since,2938
sing,2939
singers,2940
singin,2941
singing,2942
single,2943
sir,2944
sister,2945
sisters,2946
sittin,2947
sitting,2948
six,2949
size,2950
skateboards,2951
skin,2952
skip,2953
skips,2954
sky,2955
skype,2956
sleep,2957
sleeping,2958
sleepy,2959
sleeves,2960
slipping,2961
slow,2962
small,2963
smart,2964
smarty,2965
smashed,2966
smell,2967
smellslikecack,2968
smh,2969
smile,2970
smooth,2971
snapback,2972
snatching,2973
sneak,2974
sneakers,2975
sneaks,2976
snell,2977
snoring,2978
snot,2979
snowday,2980
so,2981
soaking,2982
sobay,2983
sobber,2984
social,2985
socks,2986
soexcited,2987
softball,2988
software,2989
sold,2990
solid,2991
some,2992
somebodytoldyouwrong,2993
somemore,2994
someone,2995
somethin,2996
something,2997
sometimes,2998
sometimesyouhaveto,2999
son,3000
song,3001
songs,3002
sony,3003
soo,3004
soon,3005
sooo,3006
soooo,3007
sooooo,3008
soooooo,3009
sooooooooooo,3010
soooooooooooo,3011
sopumped,3012
sorry,3013
sort,3014
sorta,3015
sought,3016
soul,3017
sound,3018
sounds,3019
soup,3020
south,3021
spain,3022
spam,3023
spammed,3024
spamming,3025
spanish,3026
sparsedonedigit,3027
sparsedtwodigits,3028
spaziale,3029
speak,3030
speakers,3031
spears,3032
special,3033
speech,3034
speed,3035
spell,3036
spelling,3037
spend,3038
spent,3039
spidey,3040
spike,3041
spirits,3042
spite,3043
splurged,3044
spoils,3045
spongebob,3046
sponsored,3047
sponsoring,3048
sports,3049
spots,3050
spray,3051
spreading,3052
springfever,3053
squeeze,3054
st,3055
stab,3056
stadium,3057
staff,3058
stalking,3059
stamps,3060
stand,3061
standin,3062
standing,3063
standwithpp,3064
starbucks,3065
staring,3066
starsky,3067
start,3068
started,3069
startin,3070
starting,3071
starts,3072
starving,3073
state,3074
statefarmwasnttthere,3075
statement,3076
states,3077
station,3078
stay,3079
stayed,3080
staying,3081
steak,3082
steal,3083
steeple,3084
stella,3085
step,3086
steps,3087
stereotype,3088
steve,3089
stick,3090
still,3091
stillworks,3092
stinkin,3093
stinks,3094
stoked,3095
stole,3096
stolen,3097
stomach,3098
stoned,3099
stop,3100
stopped,3101
store,3102
stores,3103
storm,3104
story,3105
straighner,3106
strategicvoteparsedtwodigits,3107
strawberries,3108
street,3109
stressed,3110
stressful,3111
stressing,3112
strong,3113
struck,3114
strumpit,3115
stuck,3116
student,3117
students,3118
studio,3119
study,3120
studying,3121
studylink,3122
stuff,3123
stuffy,3124
stunning,3125
stunt,3126
stuntdoublecircus,3127
stupid,3128
stupidly,3129
style,3130
styles,3131
su,3132
subscription,3133
success,3134
such,3135
suck,3136
sucked,3137
sucker,3138
sucks,3139
sudden,3140
suffer,3141
sultans,3142
sum,3143
sumbody,3144
summer,3145
summertime,3146
summit,3147
sun,3148
sunday,3149
sundayfunday,3150
sunny,3151
sunshine,3152
super,3153
superb,3154
supervisor,3155
support,3156
sure,3157
surprise,3158
surprised,3159
surprises,3160
surry,3161
suxx,3162
swag,3163
swear,3164
sweatpants,3165
sweatshop,3166
sweep,3167
sweet,3168
sweetest,3169
sweetiez,3170
sweetparsedtwodigitsbday,3171
swift,3172
switch,3173
swype,3174
sydney,3175
sync,3176
syracuse,3177
system,3178
systems,3179
tab,3180
taco,3181
tad,3182
take,3183
taken,3184
takes,3185
takin,3186
taking,3187
tale,3188
talented,3189
talk,3190
talking,3191
talkshitgethit,3192
tammi,3193
tan,3194
target,3195
taste,3196
tasting,3197
tattoo,3198
taurus,3199
taxi,3200
tbqf,3201
tca,3202
tea,3203
teach,3204
teacher,3205
teaches,3206
team,3207
teamceltics,3208
teamgod,3209
teamladiphat,3210
teams,3211
tears,3212
tech,3213
techdays,3214
tee,3215
teeth,3216
tell,3217
telling,3218
tells,3219
tempo,3220
terry,3221
test,3222
texas,3223
text,3224
texts,3225
tg,3226
th,3227
tha,3228
thailand,3229
than,3230
thank,3231
thankgod,3232
thanks,3233
thankz,3234
thanx,3235
that,3236
thatgrapejuice,3237
thats,3238
thayounghustlaz,3239
the,3240
theapprentice,3241
theater,3242
theatre,3243
thegame,3244
their,3245
thejoshdiogo,3246
thelasttimeichecked,3247
them,3248
themselves,3249
then,3250
therapy,3251
there,3252
theres,3253
these,3254
thesis,3255
thesteffiekayy,3256
thevoice,3257
they,3258
theylookfuckedup,3259
thierselfs,3260
thin,3261
thing,3262
things,3263
thingsthatshouldbebanned,3264
thingy,3265
think,3266
thinked,3267
thinking,3268
thirst,3269
thirsty,3270
thirteenth,3271
this,3272
thismuch,3273
thiswasinmydrafts,3274
thiz,3275
thnk,3276
thnx,3277
tho,3278
those,3279
thou,3280
though,3281
thought,3282
three,3283
thro,3284
through,3285
throughout,3286
throught,3287
thrown,3288
tht,3289
thug,3290
thumbs,3291
thunder,3292
thxz,3293
ticket,3294
tickets,3295
tides,3296
tie,3297
tight,3298
till,3299
tim,3300
time,3301
timeline,3302
times,3303
tint,3304
tired,3305
tires,3306
tmrw,3307
tnt,3308
to,3309
today,3310
todays,3311
together,3312
told,3313
tommm,3314
tomorrow,3315
tonight,3316
tons,3317
too,3318
tooeazy_parsedonedigit,3319
took,3320
tools,3321
toothache,3322
top,3323
topic,3324
topoftheworld,3325
tops,3326
toronto,3327
torture,3328
totally,3329
tote,3330
tots,3331
touchpad,3332
town,3333
toy,3334
tracks,3335
tracksuit,3336
traffic,3337
tragedy,3338
trail,3339
train,3340
trainers,3341
training,3342
trampoline,3343
translator,3344
travel,3345
treat,3346
treated,3347
trees,3348
trending,3349
trhumanist,3350
tried,3351
trip,3352
trips,3353
true,3354
trueblood,3355
trust,3356
trusting,3357
truth,3358
try,3359
tryin,3360
tryina,3361
trying,3362
trynna,3363
tsk,3364
tuesdays,3365
tuition,3366
tune,3367
turfs,3368
turkey,3369
turn,3370
turned,3371
turns,3372
turtles,3373
tv,3374
tvguide,3375
tweeple,3376
tweeps,3377
tweet,3378
tweeted,3379
tweetiepies,3380
tweety,3381
twenty,3382
twice,3383
twitpic,3384
twitter,3385
twitters,3386
two,3387
twype,3388
tyler,3389
typing,3390
ubc,3391
ublewit,3392
ucla,3393
uga,3394
uggghhhh,3395
ugghh,3396
ugh,3397
ughh,3398
ughhh,3399
ugly,3400
uh,3401
uhgggg,3402
uhungry,3403
um,3404
under,3405
understand,3406
understanding,3407
unexpected,3408
unfort,3409
unfortunate,3410
unfortunately,3411
uni,3412
unidentical,3413
uniforms,3414
unique,3415
unite,3416
united,3417
universal,3418
universe,3419
unlimited,3420
until,3421
up,3422
upcoming,3423
update,3424
upgrading,3425
uploading,3426
upmost,3427
upp,3428
upparsedonedigit,3429
ups,3430
upset,3431
uqly,3432
ur,3433
urgh,3434
us,3435
usa,3436
use,3437
used,3438
useful,3439
useless,3440
user,3441
usiku,3442
using,3443
utc,3444
utterly,3445
vaca,3446
vacation,3447
vaio,3448
valentine,3449
valerie,3450
van,3451
vanilla,3452
vapor,3453
vd,3454
ve,3455
vegas,3456
verified,3457
verizon,3458
version,3459
very,3460
via,3461
vibes,3462
vibrant,3463
vick,3464
victorious,3465
vid,3466
video,3467
videos,3468
view,3469
viewed,3470
vile,3471
vino,3472
vintage,3473
vip,3474
virtualization,3475
vision,3476
visit,3477
visuallyastounding,3478
vita,3479
vma,3480
vodka,3481
voice,3482
voices,3483
voila,3484
volume,3485
vote,3486
voted,3487
votes,3488
voting,3489
vows,3490
vparsedonedigit,3491
vs,3492
vuitton,3493
waaaaaayyyy,3494
wachin,3495
wack,3496
wade,3497
wahoo,3498
wait,3499
waitin,3500
waiting,3501
waka,3502
wakemeupwhen,3503
walk,3504
walkin,3505
walking,3506
wallet,3507
walls,3508
wanna,3509
want,3510
wanted,3511
wants,3512
warm,3513
warner,3514
warranty,3515
was,3516
wash,3517
wasn,3518
waste,3519
wasted,3520
wat,3521
watch,3522
watched,3523
watches,3524
watchin,3525
watching,3526
water,3527
watermelon,3528
wave,3529
way,3530
wayne,3531
ways,3532
wcws,3533
we,3534
weak,3535
wear,3536
wearin,3537
wearing,3538
weather,3539
web,3540
website,3541
webtv,3542
wed,3543
wedding,3544
wednesday,3545
wee,3546
week,3547
weekend,3548
weekends,3549
weeks,3550
weezy,3551
weight,3552
weird,3553
welcome,3554
welfare,3555
well,3556
welovemaster,3557
wen,3558
wendys,3559
went,3560
were,3561
weren,3562
west,3563
western,3564
westminster,3565
wet,3566
whale,3567
what,3568
whatever,3569
whathappenedtorealmovies,3570
whats,3571
whelp,3572
when,3573
where,3574
whether,3575
which,3576
while,3577
whip,3578
white,3579
whitegirl,3580
whittle,3581
who,3582
whole,3583
whoop,3584
whore,3585
why,3586
whyaretheyspeakingspanish,3587
whyy,3588
wi,3589
wifey,3590
wii,3591
wiiware,3592
wild,3593
wildcats,3594
will,3595
win,3596
window,3597
windows,3598
wine,3599
winner,3600
winning,3601
wins,3602
winslet,3603
winter,3604
wired,3605
wisconsin,3606
wise,3607
wish,3608
wishing,3609
wit,3610
with,3611
within,3612
without,3613
witnessed,3614
wk,3615
woman,3616
women,3617
womens,3618
won,3619
wonder,3620
wonderful,3621
wonders,3622
wont,3623
woo,3624
wooh,3625
woohoo,3626
wool,3627
wooohhooo,3628
woooo,3629
woot,3630
word,3631
words,3632
work,3633
worked,3634
workers,3635
workin,3636
working,3637
works,3638
workshop,3639
world,3640
worlds,3641
worldwide,3642
worried,3643
worse,3644
worst,3645
worstmovieever,3646
worstshoesever,3647
worth,3648
worthless,3649
would,3650
wouldn,3651
wow,3652
wowww,3653
wpcla,3654
write,3655
writing,3656
wrong,3657
wrote,3658
wtchn,3659
wtf,3660
wth,3661
wuv,3662
x_x,3663
xbox,3664
xd,3665
xfactor,3666
xo,3667
xoxo,3668
xp,3669
xparsedtwodigits,3670
xperia,3671
xx,3672
xxxx,3673
ya,3674
yaas,3675
yahoo,3676
yall,3677
yay,3678
yayayayayayyay,3679
yayy,3680
yea,3681
yeaa,3682
yeah,3683
yeahhh,3684
yeahright,3685
year,3686
years,3687
yell,3688
yer,3689
yes,3690
yessir,3691
yessss,3692
yesterday,3693
yet,3694
yikes,3695
yo,3696
yogurt,3697
yoh,3698
you,3699
youbetcha,3700
youcantdateme,3701
young,3702
younger,3703
your,3704
youre,3705
yours,3706
yourself,3707
youtube,3708
youuuuu,3709
yr,3710
yrs,3711
yum,3712
yummm,3713
yummy,3714
yuummy,3715
zaventem,3716
zaytoven,3717
zelda,3718
zilleville,3719
zone,3720
zoo,3721
zoom,3722
zouch,3723
zuckerberg,3724
zwaard,3725
