___________________________,0
_______________________________,1
_____________________________________________,2
aaaahhhhhh,3
abandon,4
abbas,5
abducted,6
abhorrent,7
ability,8
able,9
abode,10
abolutely,11
aboriginal,12
aboroginals,13
aborogine,14
abortion,15
about,16
above,17
abraham,18
abroad,19
abrogate,20
abrogated,21
abrupt,22
absence,23
absense,24
absolute,25
absolutely,26
absolution,27
absurd,28
abu,29
abundant,30
abuse,31
abused,32
abusing,33
abysmally,34
academies,35
accept,36
acceptable,37
acceptance,38
accepted,39
accepting,40
access,41
accessible,42
accident,43
accommodate,44
according,45
accordingly,46
account,47
accounted,48
accounts,49
accurate,50
accusation,51
accusations,52
accused,53
accusing,54
acer,55
acheive,56
achieve,57
achieving,58
acknowleged,59
acquire,60
across,61
act,62
acted,63
acting,64
action,65
actions,66
activist,67
activity,68
acts,69
actual,70
actualisation,71
actually,72
acumen,73
acuses,74
acxts,75
ad,76
add,77
added,78
additionally,79
additionsal,80
address,81
addressed,82
addresses,83
addressing,84
adds,85
adduce,86
adequate,87
adjust,88
admin,89
administartion,90
administators,91
administration,92
administrative,93
administrators,94
admire,95
admit,96
admitted,97
admitting,98
adolescence,99
adulation,100
adulthood,101
adults,102
advance,103
advanced,104
advances,105
advantage,106
adventure,107
advert,108
advertise,109
advisers,110
advocate,111
advocating,112
afair,113
affair,114
affairs,115
affect,116
affinity,117
afflicting,118
afford,119
afghan,120
afghanistan,121
afghans,122
afraid,123
africa,124
african,125
afrikaaner,126
afrikaaners,127
after,128
afterwards,129
again,130
against,131
age,132
agency,133
agenda,134
agendas,135
ages,136
aggression,137
aggressive,138
ago,139
agree,140
agreed,141
agreeing,142
agreement,143
agreements,144
agrees,145
ah,146
ahead,147
ahh,148
ahmadinejihad,149
aid,150
aiejrlsk,151
aim,152
aimed,153
aims,154
aina,155
air,156
aircraft,157
airlines,158
airport,159
airports,160
airwaves,161
akin,162
al,163
alan,164
alans,165
alaska,166
albeit,167
albert,168
albright,169
alcohol,170
ales,171
ali,172
aliens,173
alike,174
alive,175
aliya,176
aljazeera,177
all,178
allah,179
allegations,180
alleged,181
allegedly,182
alliance,183
allied,184
allience,185
allies,186
alloted,187
allow,188
allowed,189
allowing,190
allows,191
allude,192
alluding,193
ally,194
almost,195
alone,196
along,197
alongside,198
alot,199
already,200
alright,201
also,202
alternating,203
alternatively,204
although,205
altogether,206
always,207
am,208
amaze,209
amazed,210
amazing,211
ambassador,212
ambitions,213
amd,214
amendment,215
america,216
american,217
americancivilians,218
americans,219
americas,220
amerindian,221
amerindians,222
amigo,223
amnesty,224
amodel,225
among,226
amongst,227
amount,228
amounted,229
amounts,230
amp,231
amsterdam,232
amusement,233
an,234
analagous,235
analogies,236
analysis,237
anarchists,238
anarchy,239
ancestors,240
ancestral,241
ancestry,242
ancient,243
and,244
andrea,245
andy,246
angel,247
angela,248
angeles,249
angels,250
anger,251
angle,252
angles,253
anglia,254
anglicans,255
angola,256
angry,257
animals,258
anne,259
annexing,260
annhialate,261
annihilation,262
anniversary,263
annon,264
announce,265
announced,266
annoyed,267
annoying,268
annual,269
another,270
anothers,271
anothr,272
answer,273
answered,274
answering,275
answers,276
antagonistic,277
anthony,278
anthropological,279
anti,280
antibiotics,281
antineocon,282
any,283
anybody,284
anymore,285
anyone,286
anythig,287
anything,288
anytime,289
anyway,290
anywhere,291
apart,292
apartheid,293
apartheit,294
apartment,295
aperthied,296
apologies,297
apologise,298
apologists,299
apologize,300
apology,301
appalled,302
appalling,303
apparent,304
apparently,305
appealed,306
appear,307
appeared,308
appears,309
appease,310
appeasers,311
appeases,312
applauded,313
apple,314
apples,315
applicable,316
apply,317
applying,318
appointments,319
appolo,320
appreciate,321
apprehension,322
approach,323
approached,324
approaching,325
approval,326
approve,327
approving,328
approx,329
april,330
aquaintance,331
arab,332
arabia,333
arabians,334
arabic,335
arabs,336
arafat,337
arbitray,338
arbs,339
arch,340
architects,341
archives,342
are,343
area,344
areas,345
aren,346
arent,347
argentina,348
argue,349
argued,350
arguements,351
argues,352
arguing,353
argument,354
arguments,355
ariel,356
arm,357
armed,358
armenian,359
armies,360
arms,361
army,362
arnie,363
aropund,364
around,365
arranged,366
arrest,367
arrested,368
arriving,369
arrogance,370
arrogant,371
arrow,372
arse,373
arsenals,374
art,375
article,376
articles,377
articulately,378
artificial,379
aryans,380
as,381
asa,382
asdf,383
ashanti,384
asia,385
asian,386
asians,387
aside,388
ask,389
asked,390
asking,391
aspect,392
aspirate,393
aspirational,394
aspirations,395
aspire,396
asprin,397
assasination,398
assault,399
assembly,400
assert,401
asserted,402
assesement,403
assess,404
assimilate,405
assimilated,406
assimilation,407
assist,408
assistance,409
associate,410
associated,411
association,412
assume,413
assumed,414
assuming,415
assumption,416
assumptions,417
assure,418
astonished,419
astonishing,420
astute,421
aswell,422
at,423
ataturk,424
atheist,425
atlast,426
atleast,427
atom,428
atomic,429
atothez,430
atrocities,431
attack,432
attacked,433
attacking,434
attacks,435
attain,436
attempt,437
attempting,438
attempts,439
attention,440
attest,441
attire,442
attitude,443
attitudes,444
attorney,445
attract,446
attracted,447
attraction,448
attracts,449
attributable,450
attribute,451
attributing,452
audiance,453
august,454
austarlia,455
australia,456
australians,457
austria,458
austrians,459
authorities,460
authority,461
authors,462
automobile,463
available,464
availed,465
avalible,466
avenge,467
average,468
aviv,469
avoid,470
avoided,471
avoiding,472
await,473
awaiting,474
award,475
aware,476
away,477
awe,478
awful,479
axe,480
axegrinder,481
ay,482
az,483
azania,484
azar,485
aziz,486
baader,487
baathists,488
babies,489
baby,490
babysitting,491
back,492
backed,493
background,494
backing,495
backwater,496
bad,497
badly,498
baffles,499
bagdad,500
baghdad,501
bailiffs,502
bajore,503
balance,504
balancing,505
balfour,506
bali,507
balkan,508
ball,509
ballot,510
balls,511
ban,512
bang,513
banging,514
bank,515
bankers,516
bankruptcy,517
bankstown,518
banned,519
banning,520
bar,521
barabism,522
barack,523
barbados,524
barbaric,525
barbarism,526
bargain,527
barking,528
barmy,529
barrier,530
bartering,531
base,532
baseball,533
based,534
baseless,535
bases,536
basest,537
bashing,538
basic,539
basically,540
basics,541
basiji,542
basis,543
basra,544
bat,545
battles,546
batttle,547
bay,548
bbc,549
be,550
beach,551
beaches,552
bear,553
bearded,554
bearing,555
bears,556
beating,557
beats,558
beause,559
beautiful,560
became,561
because,562
become,563
becomes,564
becoming,565
becuase,566
bed,567
beeb,568
been,569
before,570
beforehand,571
began,572
beggars,573
begger,574
begging,575
begin,576
beginning,577
begs,578
beharry,579
behave,580
behaved,581
behaving,582
behavior,583
behaviour,584
beheading,585
behind,586
behold,587
being,588
beings,589
beirut,590
belfer,591
belgiium,592
belief,593
beliefs,594
belies,595
believe,596
believed,597
believers,598
believes,599
believing,600
belittle,601
belived,602
bellicose,603
belly,604
belong,605
belonging,606
belongs,607
belt,608
ben,609
bending,610
beneath,611
benefit,612
benefits,613
bennnett,614
benz,615
berlusconi,616
bertie,617
besides,618
best,619
bested,620
bet,621
bethlehem,622
betrays,623
better,624
between,625
beyond,626
bho,627
bias,628
big,629
bigger,630
biggest,631
bigot,632
bigoted,633
bigotry,634
bigots,635
bigotted,636
bill,637
billion,638
billions,639
bills,640
bin,641
binoculars,642
bird,643
birds,644
birth,645
bit,646
bitch,647
bites,648
bits,649
bizarre,650
black,651
blackburn,652
blacks,653
blah,654
blair,655
blairparsedonedigit,656
blame,657
blamed,658
blames,659
blaming,660
blast,661
blatant,662
blatantly,663
blatter,664
bleat,665
bleeding,666
blending,667
blessing,668
blew,669
bliar,670
blind,671
blindly,672
blindness,673
blocade,674
blockaded,675
blocks,676
blood,677
bloodletting,678
bloodshed,679
bloody,680
blow,681
blowing,682
blows,683
blue,684
blurt,685
bnp,686
board,687
boarded,688
boarders,689
boards,690
boat,691
body,692
bogus,693
bolshevik,694
bolster,695
bolton,696
bomb,697
bombarded,698
bombardment,699
bombardments,700
bombed,701
bomber,702
bombers,703
bombing,704
bombings,705
bombs,706
bon,707
bones,708
bonhoeffer,709
bonuses,710
boo,711
book,712
boom,713
booming,714
booms,715
boosting,716
boot,717
booth,718
boots,719
bordeauxparsedtwodigits,720
border,721
bordering,722
borders,723
bore,724
boring,725
boris,726
born,727
borrower,728
both,729
bother,730
bothered,731
bothering,732
bottle,733
bottom,734
bought,735
bouncy,736
bound,737
boundaries,738
boundary,739
bowing,740
bowl,741
bownding,742
box,743
boy,744
boycott,745
boycotting,746
boydavey,747
boys,748
brain,749
brainwashed,750
branch,751
branded,752
brandon,753
brats,754
brave,755
bravery,756
brazeness,757
brazil,758
breach,759
break,760
breaker,761
breakfast,762
breaking,763
breaks,764
breasts,765
breath,766
breslan,767
brewers,768
briatain,769
bribe,770
bribes,771
bribing,772
brick,773
brigade,774
brilliant,775
bring,776
bringing,777
brings,778
brit,779
britain,780
britains,781
britan,782
britian,783
british,784
britishness,785
britons,786
brits,787
broadcast,788
broke,789
broken,790
bronx,791
brother,792
brothers,793
brought,794
brown,795
brunt,796
brush,797
brutal,798
brutally,799
bs,800
btw,801
bud,802
buddhist,803
buddy,804
budget,805
buggars,806
build,807
building,808
buildings,809
built,810
bulgaria,811
bull,812
bum,813
bummed,814
bumpkins,815
bunch,816
bunfight,817
bunker,818
bunkers,819
burden,820
bureaucracy,821
buried,822
burka,823
burma,824
burn,825
bus,826
bush,827
business,828
busses,829
busy,830
but,831
button,832
buy,833
buying,834
bwahaha,835
by,836
bye,837
cabal,838
cabinet,839
cable,840
caesar,841
cafe,842
cafes,843
cafta,844
cahvez,845
cake,846
calais,847
calculating,848
calendar,849
calf,850
californian,851
caliphite,852
call,853
called,854
calling,855
calls,856
cambodia,857
came,858
camera,859
camouflage,860
camp,861
campagain,862
campaign,863
campare,864
camps,865
campus,866
can,867
canaanintes,868
canaanite,869
canada,870
canadafreepress,871
canadian,872
canadians,873
cancel,874
cancer,875
candidates,876
candle,877
cannanites,878
cannot,879
canons,880
cant,881
cap,882
capability,883
capable,884
capital,885
capitalist,886
capitalists,887
capitol,888
caps,889
captainlogic,890
car,891
care,892
cared,893
careful,894
carefully,895
cares,896
carolina,897
carpet,898
carried,899
carry,900
carrying,901
cars,902
cartel,903
carter,904
carthy,905
carthyism,906
cartoon,907
cartoons,908
case,909
cases,910
cash,911
casinos,912
castro,913
casualties,914
casualty,915
cat,916
catch,917
categories,918
category,919
catering,920
cathars,921
cathch,922
catholic,923
cats,924
caught,925
cause,926
caused,927
causes,928
causing,929
ceacefire,930
cease,931
ceased,932
ceasefire,933
ceding,934
celebration,935
celebrations,936
celebrity,937
cell,938
cellar,939
cells,940
celt,941
censorship,942
cent,943
center,944
central,945
centred,946
centres,947
centuries,948
century,949
certai,950
certain,951
certainly,952
chain,953
chair,954
chairs,955
challenge,956
challenged,957
chance,958
chancellor,959
chances,960
change,961
changed,962
changes,963
changing,964
channel,965
chaos,966
chap,967
chapel,968
chapin,969
chapter,970
character,971
characterful,972
characterise,973
characterised,974
characters,975
charge,976
charged,977
charges,978
charismatic,979
charities,980
charity,981
charlesi,982
charters,983
chashews,984
chat,985
chavez,986
cheap,987
cheat,988
check,989
checks,990
cheddi,991
cheek,992
cheered,993
cheering,994
cheerleaders,995
cheese,996
chemical,997
cheney,998
chest,999
chicago,1000
chicken,1001
chief,1002
child,1003
childhood,1004
childish,1005
childline,1006
children,1007
childs,1008
china,1009
chinese,1010
chipmaker,1011
chips,1012
choeung,1013
choice,1014
choices,1015
choke,1016
chomsky,1017
choose,1018
choosen,1019
chooses,1020
choosing,1021
choosy,1022
chopped,1023
chore,1024
chose,1025
chosen,1026
christ,1027
christian,1028
christianity,1029
christians,1030
christinaity,1031
christmas,1032
christrainanti,1033
chritians,1034
chrsitian,1035
chucked,1036
chunck,1037
chunk,1038
chunks,1039
church,1040
churches,1041
churchill,1042
cia,1043
cientific,1044
cigar,1045
circle,1046
circles,1047
circling,1048
circumstance,1049
circumstances,1050
circus,1051
cite,1052
cited,1053
cities,1054
citizen,1055
citizens,1056
citizenship,1057
city,1058
civil,1059
civilian,1060
civilians,1061
civilisation,1062
civilised,1063
civillian,1064
civilzed,1065
claim,1066
claimed,1067
claiming,1068
claims,1069
clamp,1070
clap,1071
clapped,1072
clarification,1073
clarify,1074
class,1075
classics,1076
classrooms,1077
claudius,1078
clause,1079
clean,1080
cleanse,1081
cleansed,1082
clear,1083
cleared,1084
clearly,1085
clergy,1086
clever,1087
cliche,1088
cliches,1089
client,1090
cling,1091
clinton,1092
clip,1093
clocks,1094
close,1095
closed,1096
closely,1097
closet,1098
closure,1099
clould,1100
clout,1101
clue,1102
clueless,1103
clumsily,1104
cluster,1105
clutching,1106
cnn,1107
co,1108
coal,1109
coalition,1110
coastal,1111
codes,1112
coexistence,1113
coffee,1114
coffin,1115
cohabitate,1116
coherent,1117
cohesion,1118
coin,1119
coincidence,1120
coinciding,1121
coins,1122
cojones,1123
colaboration,1124
cold,1125
coleman,1126
collaborated,1127
collaboration,1128
collaborators,1129
collapses,1130
collateral,1131
collection,1132
collectively,1133
collide,1134
colneljihadist,1135
colonalism,1136
colonel,1137
colonelartist,1138
colonial,1139
colonialism,1140
colonialists,1141
colonised,1142
colonists,1143
colonized,1144
colonizers,1145
colours,1146
columbia,1147
column,1148
columnist,1149
com,1150
coma,1151
combat,1152
combatants,1153
combatting,1154
combined,1155
combing,1156
come,1157
comes,1158
comfortable,1159
comfortably,1160
comforting,1161
comical,1162
coming,1163
command,1164
commemorated,1165
commemorations,1166
comment,1167
comments,1168
commercial,1169
commies,1170
commission,1171
commit,1172
commits,1173
committed,1174
committee,1175
committing,1176
committment,1177
common,1178
communication,1179
communing,1180
communism,1181
communist,1182
communists,1183
communities,1184
community,1185
companies,1186
company,1187
comparatively,1188
compare,1189
compared,1190
compares,1191
comparing,1192
comparison,1193
compass,1194
compassionate,1195
compassionately,1196
compensated,1197
compensation,1198
competed,1199
competent,1200
competition,1201
competitive,1202
competitor,1203
competitors,1204
complain,1205
complained,1206
complaining,1207
complaint,1208
complaints,1209
complete,1210
completely,1211
compliant,1212
comply,1213
comprehension,1214
comprised,1215
compromises,1216
computer,1217
computers,1218
con,1219
concatenate,1220
conceal,1221
concede,1222
concentrated,1223
concentration,1224
concept,1225
concepts,1226
concern,1227
concerned,1228
concerning,1229
concerns,1230
concesions,1231
conclude,1232
conclusion,1233
conclusions,1234
condaleeza,1235
condemn,1236
condemnation,1237
condemned,1238
condemning,1239
condescending,1240
condiderate,1241
conditions,1242
condone,1243
condones,1244
conduct,1245
conducted,1246
conference,1247
confession,1248
confident,1249
confirmed,1250
conflict,1251
conflicts,1252
confronted,1253
confronts,1254
confuse,1255
confused,1256
confuses,1257
confusing,1258
congrats,1259
congratulations,1260
congress,1261
conjecture,1262
connections,1263
connects,1264
conny,1265
conquer,1266
conquered,1267
conquest,1268
cons,1269
consent,1270
consequence,1271
consequences,1272
consequent,1273
consequently,1274
conservative,1275
consider,1276
considerably,1277
consideration,1278
considered,1279
considering,1280
consistency,1281
consistent,1282
consistently,1283
consists,1284
consolidation,1285
conspiracy,1286
constant,1287
constitute,1288
constitutional,1289
constitutionally,1290
construction,1291
constructively,1292
consulate,1293
consult,1294
consulted,1295
contact,1296
contain,1297
containing,1298
contains,1299
contaminated,1300
contemporary,1301
contempory,1302
conten,1303
context,1304
continent,1305
continously,1306
continually,1307
continue,1308
continued,1309
continues,1310
continuously,1311
continuum,1312
contract,1313
contradiction,1314
contradictions,1315
contrary,1316
contrast,1317
contray,1318
contribute,1319
contributed,1320
contributes,1321
contributions,1322
contributors,1323
contrived,1324
control,1325
controlled,1326
controlling,1327
controversial,1328
conveniant,1329
convenient,1330
convention,1331
conventional,1332
conversations,1333
convert,1334
conveys,1335
convicted,1336
convictions,1337
convince,1338
convinced,1339
convoy,1340
cool,1341
cooperation,1342
cope,1343
copenhagen,1344
copied,1345
copies,1346
coppeliadee,1347
core,1348
corner,1349
corporate,1350
corporation,1351
corpus,1352
correct,1353
corrected,1354
correction,1355
correctly,1356
correlation,1357
correspondent,1358
corrupt,1359
corruption,1360
cos,1361
cost,1362
costed,1363
cough,1364
could,1365
couldn,1366
couldnt,1367
council,1368
count,1369
counter,1370
counterargument,1371
counterparts,1372
counterpoints,1373
counting,1374
countries,1375
countruies,1376
country,1377
countrymen,1378
coup,1379
couple,1380
courage,1381
courageous,1382
course,1383
court,1384
courtesy,1385
courting,1386
courts,1387
cousin,1388
cousins,1389
cover,1390
coverage,1391
covered,1392
covering,1393
cowardly,1394
cowboy,1395
cowboys,1396
cows,1397
cp,1398
crackling,1399
crackpot,1400
cracks,1401
cradle,1402
crane,1403
crap,1404
crass,1405
crazy,1406
create,1407
created,1408
creating,1409
creation,1410
creatures,1411
credence,1412
credit,1413
creeping,1414
creole,1415
crescent,1416
cretin,1417
crime,1418
crimes,1419
criminal,1420
criminalised,1421
criminals,1422
cripple,1423
crisis,1424
crisps,1425
cristian,1426
critical,1427
criticise,1428
criticised,1429
criticising,1430
criticism,1431
criticize,1432
criticizing,1433
critique,1434
critise,1435
cronies,1436
crook,1437
crooked,1438
cross,1439
crossbones,1440
crossed,1441
crossing,1442
crucial,1443
crusade,1444
crush,1445
crushed,1446
cry,1447
crying,1448
ctoo,1449
cuba,1450
cuban,1451
culprit,1452
cult,1453
cultural,1454
culture,1455
cultures,1456
cure,1457
curious,1458
current,1459
currently,1460
cushion,1461
cusp,1462
custom,1463
customs,1464
cut,1465
cute,1466
cuts,1467
cybersoldiers,1468
cyprus,1469
czech,1470
dad,1471
daddy,1472
dag,1473
dag_petersen,1474
dagnarius,1475
daily,1476
damage,1477
damages,1478
damned,1479
damnocrasy,1480
dandy,1481
dane,1482
danes,1483
danger,1484
dangerous,1485
dangers,1486
danish,1487
dare,1488
darfour,1489
darfur,1490
daring,1491
dark,1492
darn,1493
dart,1494
darthvedder,1495
darvishi,1496
darwin,1497
data,1498
date,1499
dated,1500
daughters,1501
david,1502
davidson,1503
davison,1504
dawson,1505
day,1506
days,1507
de,1508
dead,1509
deadly,1510
deafening,1511
deal,1512
dealing,1513
dealings,1514
deals,1515
dealt,1516
dear,1517
death,1518
deaths,1519
debate,1520
debated,1521
debates,1522
debating,1523
debtor,1524
debts,1525
decade,1526
deceipt,1527
deceit,1528
december,1529
decency,1530
decent,1531
decide,1532
decided,1533
decides,1534
decision,1535
decisions,1536
deck,1537
declared,1538
declaring,1539
decline,1540
declined,1541
decontextualised,1542
decreasing,1543
dedicated,1544
deduce,1545
deep,1546
deeper,1547
defacating,1548
defacing,1549
defaluting,1550
defence,1551
defences,1552
defend,1553
defenders,1554
defending,1555
defense,1556
defent,1557
deficits,1558
definatly,1559
define,1560
defined,1561
defines,1562
defining,1563
definitely,1564
definition,1565
definitions,1566
deflect,1567
deflection,1568
defy,1569
degree,1570
degrees,1571
dehumanization,1572
delegation,1573
deliberate,1574
deliberately,1575
delighted,1576
delightful,1577
delightfully,1578
deliver,1579
delivered,1580
delivering,1581
dell,1582
delude,1583
deluge,1584
delusional,1585
dem,1586
demand,1587
demanding,1588
demands,1589
demeaning,1590
demeans,1591
demise,1592
democracies,1593
democracy,1594
democrat,1595
democratic,1596
democrats,1597
democtrats,1598
demographic,1599
demonizing,1600
demonstrate,1601
demonstrated,1602
demonstrates,1603
demonstrating,1604
demonstrations,1605
denial,1606
denied,1607
deniers,1608
denigration,1609
denmark,1610
denominations,1611
denoted,1612
denoting,1613
dense,1614
denser,1615
density,1616
dent,1617
deny,1618
denying,1619
department,1620
depend,1621
depending,1622
depicted,1623
depleted,1624
deployment,1625
depose,1626
depository,1627
depressed,1628
depression,1629
depressives,1630
depth,1631
deranged,1632
derived,1633
derogatorily,1634
derring,1635
desade,1636
descended,1637
describe,1638
described,1639
desert,1640
deserve,1641
deserved,1642
deserves,1643
designed,1644
desire,1645
desired,1646
desperate,1647
desperation,1648
despise,1649
despite,1650
despose,1651
destabilising,1652
destinations,1653
destroy,1654
destroyed,1655
destroying,1656
destruction,1657
destructive,1658
destrution,1659
detail,1660
detains,1661
detect,1662
detected,1663
detecting,1664
deter,1665
deterent,1666
determination,1667
determine,1668
determined,1669
determining,1670
deterrence,1671
deterrent,1672
deterrents,1673
detonates,1674
detonating,1675
detraction,1676
deutschmark,1677
devastate,1678
devastated,1679
devastatingly,1680
develop,1681
developed,1682
developemental,1683
developing,1684
development,1685
developments,1686
device,1687
devices,1688
devil,1689
dez,1690
dialects,1691
diana,1692
dictated,1693
dictator,1694
dictatorial,1695
dictators,1696
dictatorship,1697
dictatorships,1698
did,1699
didn,1700
didnt,1701
die,1702
died,1703
dies,1704
diet,1705
differant,1706
difference,1707
differences,1708
different,1709
differes,1710
differing,1711
difficult,1712
difficulty,1713
diffuse,1714
digestion,1715
digging,1716
dignified,1717
dignity,1718
digress,1719
dim,1720
dinner,1721
dinosaurs,1722
dioxin,1723
dipanna,1724
diplomacy,1725
diplomatic,1726
diplomats,1727
direct,1728
directed,1729
direction,1730
directly,1731
director,1732
disagree,1733
disagreement,1734
disappoint,1735
disappointed,1736
disappointment,1737
disarming,1738
disaster,1739
disbelieve,1740
disconnection,1741
discourse,1742
discover,1743
discovered,1744
discovery,1745
discredit,1746
discrete,1747
discrimination,1748
discuss,1749
discussing,1750
discussion,1751
discussions,1752
disease,1753
diseases,1754
disengagement,1755
disengenious,1756
disengenous,1757
disgraceful,1758
disgusting,1759
dishonest,1760
dishonour,1761
disinterest,1762
dislie,1763
dislike,1764
disliked,1765
dismiss,1766
dismissed,1767
disparaging,1768
dispicable,1769
displace,1770
displaced,1771
display,1772
disposal,1773
dispossession,1774
disproportionate,1775
disproportionately,1776
dispute,1777
disputed,1778
disputes,1779
distance,1780
distant,1781
distasteful,1782
distating,1783
distorter,1784
distortions,1785
distract,1786
districts,1787
divert,1788
divide,1789
dividends,1790
divorced,1791
djia,1792
dna,1793
do,1794
docks,1795
doctor,1796
doctors,1797
doctrine,1798
docu,1799
document,1800
documentated,1801
documented,1802
documents,1803
dodge,1804
dodgy,1805
does,1806
doesn,1807
doesnt,1808
dog,1809
dogs,1810
doing,1811
dollar,1812
domestic,1813
dominant,1814
dominate,1815
domination,1816
don,1817
donated,1818
donations,1819
donator,1820
done,1821
dont,1822
donøt,1823
doomed,1824
door,1825
dossier,1826
dostum,1827
dotted,1828
double,1829
doubled,1830
doubt,1831
doubts,1832
dow,1833
down,1834
downhill,1835
downs,1836
downside,1837
downward,1838
dozen,1839
dozens,1840
dr,1841
draconian,1842
draft,1843
dragged,1844
drain,1845
drained,1846
dramatically,1847
draw,1848
drawings,1849
drawn,1850
draws,1851
dream,1852
dreaming,1853
dreidelspin,1854
dresden,1855
dress,1856
dresses,1857
drink,1858
drinking,1859
drive,1860
drivel,1861
driven,1862
driver,1863
drives,1864
driving,1865
drone,1866
drop,1867
dropped,1868
drove,1869
drug,1870
drums,1871
drunk,1872
dry,1873
du,1874
dubai,1875
dubya,1876
duck,1877
ducks,1878
dude,1879
due,1880
duh,1881
dull,1882
dumber,1883
dump,1884
dumped,1885
dumps,1886
dunno,1887
duped,1888
duplicity,1889
dura,1890
during,1891
dutch,1892
duty,1893
dwarfs,1894
dying,1895
dysfunctional,1896
each,1897
eager,1898
ear,1899
eard,1900
earlier,1901
early,1902
earn,1903
earned,1904
earning,1905
earnings,1906
ears,1907
earth,1908
earthquake,1909
easier,1910
easily,1911
easing,1912
east,1913
eastern,1914
easterners,1915
easy,1916
eat,1917
eating,1918
ebt,1919
ebts,1920
ecnomies,1921
economic,1922
economical,1923
economics,1924
economies,1925
economy,1926
ecosystem,1927
ecstasy,1928
ed,1929
edcuated,1930
edited,1931
edition,1932
educate,1933
educated,1934
education,1935
educational,1936
effect,1937
effective,1938
effectively,1939
effects,1940
effort,1941
eg,1942
egeland,1943
egg,1944
ego,1945
egypt,1946
egyptians,1947
eh,1948
eighties,1949
eighty,1950
eire,1951
eith,1952
either,1953
ek,1954
elderly,1955
elect,1956
elected,1957
electing,1958
election,1959
elections,1960
electorate,1961
elects,1962
elemets,1963
elephants,1964
else,1965
elsewhere,1966
em,1967
emanate,1968
embarrassment,1969
embassy,1970
embracing,1971
embroiled,1972
emerged,1973
emigrants,1974
emigrating,1975
emigration,1976
emission,1977
emmigrated,1978
emmotional,1979
emphasising,1980
empire,1981
empires,1982
employed,1983
employer,1984
empowering,1985
empt,1986
empting,1987
emptively,1988
empty,1989
en,1990
enacting,1991
encourage,1992
encouraged,1993
encouragement,1994
encourages,1995
encouraging,1996
encourged,1997
end,1998
ended,1999
enemies,2000
enemy,2001
enemys,2002
energy,2003
energybulletin,2004
enforce,2005
engage,2006
engaged,2007
engagement,2008
engineered,2009
engineering,2010
engineers,2011
england,2012
english,2013
englishman,2014
englishmen,2015
enitrely,2016
enjoy,2017
enjoys,2018
enlighten,2019
enlightening,2020
enlightenment,2021
enlisted,2022
enormous,2023
enough,2024
enrichment,2025
enshrined,2026
ensure,2027
entered,2028
entering,2029
enterprise,2030
entire,2031
entirely,2032
entirety,2033
entitled,2034
entrapment,2035
environment,2036
environmental,2037
envoy,2038
epic,2039
episode,2040
equal,2041
equally,2042
equated,2043
equivalence,2044
equivalent,2045
er,2046
era,2047
erected,2048
erm,2049
err,2050
error,2051
errors,2052
errr,2053
escalating,2054
especially,2055
essentially,2056
establish,2057
establishment,2058
esteem,2059
estimated,2060
et,2061
eta,2062
etc,2063
ethnic,2064
ethnically,2065
ethnicity,2066
ethnicly,2067
eu,2068
euarabia,2069
euphamistically,2070
euro,2071
euroleft,2072
eurolefties,2073
euroleftism,2074
eurolefty,2075
europe,2076
european,2077
europeans,2078
europes,2079
euros,2080
evastating,2081
even,2082
evening,2083
event,2084
events,2085
eventually,2086
ever,2087
every,2088
everybody,2089
everyday,2090
everyone,2091
everything,2092
everywhere,2093
evicted,2094
evicting,2095
evidece,2096
evidence,2097
evidenced,2098
evil,2099
evilize,2100
evils,2101
evo,2102
evolve,2103
ex,2104
exact,2105
exactly,2106
exaggerated,2107
example,2108
examples,2109
except,2110
excessive,2111
exchange,2112
excited,2113
exciting,2114
excludes,2115
exclusive,2116
exclusively,2117
excrement,2118
excuse,2119
excuses,2120
executed,2121
executive,2122
exempt,2123
exept,2124
exercise,2125
exerted,2126
exhausted,2127
exist,2128
existence,2129
existential,2130
existing,2131
exists,2132
exiting,2133
expalined,2134
expansion,2135
expansionist,2136
expat,2137
expect,2138
expectation,2139
expected,2140
expel,2141
expense,2142
expensive,2143
experience,2144
experienced,2145
expert,2146
experts,2147
explain,2148
explained,2149
explaining,2150
explains,2151
explanation,2152
explicit,2153
explicitly,2154
exploded,2155
exploit,2156
explore,2157
explored,2158
explorer,2159
explosively,2160
expose,2161
exposed,2162
exposes,2163
exposing,2164
expounded,2165
expressed,2166
expressing,2167
expression,2168
extend,2169
extended,2170
extensively,2171
extent,2172
extermination,2173
external,2174
extinct,2175
extinction,2176
extra,2177
extradition,2178
extreme,2179
extremisim,2180
extremism,2181
extremists,2182
exxon,2183
eye,2184
eyes,2185
face,2186
faced,2187
fact,2188
factor,2189
factors,2190
factory,2191
facts,2192
factual,2193
factually,2194
fail,2195
failed,2196
failing,2197
failings,2198
fails,2199
failure,2200
fair,2201
faith,2202
falkenburg,2203
falklands,2204
fall,2205
falling,2206
false,2207
familiar,2208
families,2209
family,2210
famous,2211
fan,2212
fanatic,2213
fanatical,2214
fanatically,2215
fanatics,2216
fancy,2217
fantasy,2218
far,2219
farce,2220
farm,2221
farmers,2222
fascism,2223
fascist,2224
fascistic,2225
fascists,2226
fashion,2227
fashioned,2228
fast,2229
fat,2230
father,2231
fault,2232
faults,2233
favour,2234
favoured,2235
favourite,2236
favours,2237
fear,2238
fearing,2239
fears,2240
feasibility,2241
feature,2242
featured,2243
fec,2244
fed,2245
federal,2246
feeble,2247
feed,2248
feeding,2249
feel,2250
feeling,2251
feelings,2252
feels,2253
fees,2254
feet,2255
fellas,2256
fellow,2257
felt,2258
female,2259
fence,2260
ferrari,2261
fervently,2262
few,2263
fewer,2264
ffs,2265
fgm,2266
field,2267
fields,2268
fifa,2269
fifties,2270
fight,2271
fighters,2272
fighting,2273
figure,2274
figurers,2275
figures,2276
fil,2277
fill,2278
filled,2279
final,2280
finally,2281
financed,2282
financial,2283
financing,2284
find,2285
finding,2286
finds,2287
fine,2288
fined,2289
finegold,2290
finger,2291
finish,2292
finished,2293
finn,2294
fire,2295
fired,2296
fires,2297
firework,2298
firing,2299
firmly,2300
first,2301
fish,2302
fishy,2303
fit,2304
fits,2305
five,2306
fiver,2307
flag,2308
flagrant,2309
flags,2310
flashpoint,2311
flashpoints,2312
flatter,2313
flaws,2314
fled,2315
fleeing,2316
fleet,2317
flesh,2318
flies,2319
flight,2320
flights,2321
flimsiest,2322
flip,2323
flock,2324
flooded,2325
flopping,2326
flu,2327
fly,2328
flying,2329
fo,2330
focus,2331
focused,2332
fog,2333
folded,2334
folk,2335
follow,2336
followed,2337
followers,2338
following,2339
fond,2340
food,2341
fool,2342
fools,2343
foot,2344
football,2345
footwear,2346
for,2347
forbidden,2348
force,2349
forced,2350
forcefully,2351
forces,2352
forcible,2353
forcing,2354
ford,2355
forecast,2356
foreign,2357
foreigners,2358
forest,2359
forestation,2360
forever,2361
forgein,2362
forget,2363
forgien,2364
forgiven,2365
forgot,2366
form,2367
formation,2368
former,2369
formerusername,2370
forming,2371
forms,2372
formulaparsedonedigit_fan,2373
forum,2374
forumdudeparsedonedigit,2375
forums,2376
forward,2377
fosters,2378
fought,2379
foul,2380
found,2381
foundation,2382
foundations,2383
fox,2384
foxnews,2385
fparsedonedigit,2386
fr,2387
fragile,2388
frame,2389
franc,2390
france,2391
franjly,2392
frankly,2393
fraud,2394
free,2395
freed,2396
freedly,2397
freedom,2398
freedome,2399
freedumb,2400
freee,2401
freely,2402
freespeech,2403
french,2404
frequency,2405
frequently,2406
fresh,2407
friday,2408
friend,2409
friends,2410
friendship,2411
fripono,2412
frist,2413
fro,2414
frolic,2415
from,2416
front,2417
frought,2418
frozen,2419
fruitcakes,2420
frustration,2421
fulfill,2422
fulfilling,2423
full,2424
fully,2425
fun,2426
functioning,2427
fundamental,2428
fundamentalists,2429
funded,2430
fundementalist,2431
funding,2432
funds,2433
funny,2434
furniture,2435
further,2436
furthermore,2437
fuss,2438
fussy,2439
futile,2440
futility,2441
future,2442
fuzzy,2443
fyi,2444
gagarin,2445
gain,2446
gained,2447
gaining,2448
gains,2449
galant,2450
galloway,2451
gamble,2452
gambled,2453
game,2454
games,2455
gangs,2456
gangsterism,2457
gap,2458
gar,2459
garden,2460
gardens,2461
gas,2462
gasgoine,2463
gathered,2464
gathering,2465
gaul,2466
gaurds,2467
gave,2468
gavin,2469
gavinukparsedonedigit,2470
gawd,2471
gay,2472
gays,2473
gaza,2474
gbparsedfivedigits,2475
gbparsedsixdigits,2476
gdp,2477
gen,2478
general,2479
generalised,2480
generalising,2481
generalizations,2482
generally,2483
generation,2484
generational,2485
generations,2486
genetic,2487
geneva,2488
genicides,2489
genius,2490
genocide,2491
genocides,2492
gentiles,2493
gentle,2494
genuine,2495
geographic,2496
geology,2497
geoncide,2498
george,2499
georgia,2500
georgian,2501
german,2502
germans,2503
germany,2504
germanys,2505
germmany,2506
get,2507
gets,2508
getting,2509
ghana,2510
ghandi,2511
gharib,2512
ghe,2513
ghetto,2514
gibberish,2515
ginally,2516
girl,2517
girls,2518
give,2519
given,2520
gives,2521
giving,2522
gizelle,2523
glad,2524
gladio,2525
glaring,2526
glasgow,2527
gleaning,2528
glee,2529
glitches,2530
global,2531
globalisation,2532
globe,2533
glossed,2534
gloves,2535
glowingtrw,2536
gm,2537
gmt,2538
gnashing,2539
go,2540
goal,2541
goals,2542
god,2543
goerge,2544
goes,2545
goggles,2546
going,2547
golan,2548
golden,2549
goldman,2550
goldwater,2551
golf,2552
gone,2553
gonna,2554
good,2555
goodies,2556
goofy,2557
google,2558
gore,2559
got,2560
gotten,2561
gov,2562
goverment,2563
govern,2564
governance,2565
governed,2566
government,2567
governments,2568
govt,2569
grab,2570
grabbing,2571
gracefully,2572
graffitti,2573
grand,2574
granht,2575
grant,2576
granting,2577
granty,2578
grasp,2579
grass,2580
grave,2581
graves,2582
great,2583
greater,2584
greatest,2585
greatness,2586
greece,2587
greedy,2588
greeks,2589
green,2590
grew,2591
greymatter,2592
greywolf,2593
grief,2594
grip,2595
groomed,2596
groping,2597
ground,2598
groundhog,2599
grounds,2600
group,2601
groups,2602
growl,2603
grown,2604
growth,2605
grrr,2606
grumbles,2607
gt,2608
gtrandfather,2609
guarantee,2610
guaranteed,2611
guard,2612
guardian,2613
guards,2614
guerre,2615
guesing,2616
guess,2617
guessing,2618
guest,2619
guests,2620
guidance,2621
guilty,2622
guitarist,2623
gulf,2624
gullible,2625
gun,2626
guns,2627
gunshot,2628
gurion,2629
gustav,2630
gutav,2631
guy,2632
guys,2633
gw,2634
gwb,2635
ha,2636
haaretz,2637
habit,2638
had,2639
hadn,2640
hadnt,2641
haesten,2642
hafta,2643
hagar,2644
hair,2645
hairs,2646
half,2647
hall,2648
halt,2649
ham,2650
hama,2651
hamas,2652
hammas,2653
hammer,2654
hamza,2655
hand,2656
handed,2657
handedness,2658
handful,2659
handguns,2660
handicapped,2661
handing,2662
handling,2663
handpicked,2664
hands,2665
handwringing,2666
handy,2667
handyman,2668
hang,2669
hanged,2670
hanging,2671
hangs,2672
haniyeh,2673
hankooki,2674
happen,2675
happened,2676
happening,2677
happens,2678
happily,2679
happiness,2680
happy,2681
haram,2682
hard,2683
harder,2684
hardly,2685
hardware,2686
harldy,2687
harm,2688
harming,2689
harmonious,2690
harrassment,2691
harrison,2692
harry,2693
harsh,2694
harshly,2695
hart,2696
harvest,2697
has,2698
hase,2699
hasn,2700
hate,2701
hated,2702
haters,2703
hates,2704
hath,2705
hatred,2706
haunting,2707
have,2708
haven,2709
havenøt,2710
having,2711
havn,2712
hawks,2713
he,2714
head,2715
heading,2716
headquarters,2717
heads,2718
heal,2719
healing,2720
health,2721
healthcare,2722
healthy,2723
hear,2724
heard,2725
hearing,2726
hearings,2727
hears,2728
heart,2729
heartedly,2730
heartfelt,2731
heartland,2732
heat,2733
heaven,2734
heavens,2735
heavier,2736
heavy,2737
heck,2738
heir,2739
heirarchy,2740
held,2741
helen,2742
helicopters,2743
hell,2744
hello,2745
help,2746
helpers,2747
helpful,2748
helping,2749
hem,2750
hempel,2751
hence,2752
her,2753
here,2754
hereditary,2755
heres,2756
heritage,2757
hero,2758
heroes,2759
heroin,2760
herself,2761
hey,2762
hezbollah,2763
hi,2764
hidden,2765
hide,2766
hiding,2767
high,2768
higher,2769
highest,2770
highlights,2771
highly,2772
hijacking,2773
hiking,2774
hilarious,2775
hill,2776
hillarious,2777
hillary,2778
him,2779
himself,2780
hindu,2781
hindus,2782
hint,2783
hip,2784
hiroshima,2785
his,2786
hispanic,2787
historain,2788
historical,2789
historically,2790
history,2791
hit,2792
hitler,2793
hitlers,2794
hits,2795
hmd,2796
hmm,2797
hmmm,2798
hmmmm,2799
ho,2800
hodgepodge,2801
hogan,2802
hold,2803
holders,2804
holding,2805
holdings,2806
hole,2807
holes,2808
holiday,2809
holland,2810
holler,2811
hollywoodisation,2812
holocaust,2813
holy,2814
home,2815
homeland,2816
homeless,2817
homes,2818
homework,2819
homosexual,2820
honest,2821
honestly,2822
honestreporting,2823
hong,2824
honor,2825
honour,2826
honourable,2827
hoo,2828
hook,2829
hooliganism,2830
hope,2831
hopefully,2832
hopeless,2833
hopelessly,2834
hoping,2835
horrendous,2836
horrific,2837
horror,2838
horrors,2839
horse,2840
hos,2841
hospital,2842
hospitals,2843
host,2844
hostage,2845
hosted,2846
hostile,2847
hostilities,2848
hostility,2849
hosting,2850
hot,2851
hotmousemat,2852
hounded,2853
hounding,2854
hour,2855
hours,2856
house,2857
houses,2858
housing,2859
how,2860
however,2861
howstuffwork,2862
hp,2863
hparsedonedigitgparseddigits,2864
huge,2865
hugely,2866
hugo,2867
huguenots,2868
huh,2869
hull,2870
human,2871
humanitarian,2872
humanity,2873
humankind,2874
humans,2875
humberside,2876
humiliating,2877
humour,2878
hundred,2879
hundreds,2880
hundredth,2881
hung,2882
hungarian,2883
hunger,2884
hurricane,2885
hurt,2886
hurting,2887
hurts,2888
hussain,2889
hussein,2890
hybrids,2891
hype,2892
hyper,2893
hyperbolic,2894
hyphenated,2895
hypocricy,2896
hypocrisy,2897
hypocrites,2898
hypocritical,2899
hypocritically,2900
hypothetical,2901
hys,2902
hysteria,2903
hysteric,2904
hülsmeyer,2905
i_pardon_u,2906
ia,2907
ian,2908
ianpeter,2909
ias,2910
ic,2911
ice,2912
id,2913
idea,2914
ideals,2915
ideas,2916
identification,2917
identify,2918
identikit,2919
identity,2920
ideology,2921
idf,2922
idiology,2923
idiosyncracies,2924
idiot,2925
idiotic,2926
idiots,2927
idol,2928
ie,2929
if,2930
ignorance,2931
ignorant,2932
ignore,2933
ignored,2934
ignores,2935
ignoring,2936
iht,2937
ii,2938
iii,2939
iirc,2940
il,2941
ilk,2942
ill,2943
illegal,2944
illegitimate,2945
illiberal,2946
ills,2947
illuminating,2948
illustrate,2949
illustrated,2950
illustrates,2951
illustrative,2952
im,2953
image,2954
images,2955
imaginable,2956
imaginations,2957
imagine,2958
imams,2959
imemc,2960
imf,2961
imho,2962
immature,2963
immediate,2964
immediately,2965
immemorial,2966
immerse,2967
immigrant,2968
immigrants,2969
immigration,2970
imminent,2971
immunity,2972
imo,2973
impact,2974
imperative,2975
imperfect,2976
imperial,2977
imperialist,2978
imperialistic,2979
imperils,2980
implanted,2981
implementaion,2982
implemented,2983
implicate,2984
implies,2985
implying,2986
import,2987
importance,2988
important,2989
imports,2990
impose,2991
imposed,2992
impossible,2993
impotence,2994
impotent,2995
impress,2996
impressed,2997
impressive,2998
imprisoned,2999
improved,3000
imran,3001
imrove,3002
imunity,3003
in,3004
inadequacy,3005
inadequate,3006
inadvertently,3007
inappropriate,3008
inappropriately,3009
inaugural,3010
incapacitated,3011
inceindary,3012
incharge,3013
incident,3014
incidental,3015
incidentally,3016
incidents,3017
incited,3018
incitement,3019
inciting,3020
include,3021
included,3022
includes,3023
including,3024
inclusive,3025
inclusivity,3026
income,3027
incomes,3028
incompetence,3029
incompetent,3030
incomprehendible,3031
inconsistency,3032
inconvenient,3033
incorporated,3034
incorporation,3035
increase,3036
increased,3037
increasing,3038
increasingly,3039
incredibly,3040
incumbent,3041
incurred,3042
incurring,3043
incursion,3044
indecent,3045
indeed,3046
indefensible,3047
independance,3048
independence,3049
independent,3050
india,3051
indian,3052
indians,3053
indicate,3054
indicated,3055
indicates,3056
indicating,3057
indifference,3058
indigenous,3059
indio,3060
indios,3061
indirectly,3062
individual,3063
individualism,3064
individually,3065
individuals,3066
indo,3067
indoctrinated,3068
indonesia,3069
indonesian,3070
indonesians,3071
induced,3072
inducing,3073
indulge,3074
industrial,3075
industries,3076
industry,3077
inentilaly,3078
inevitable,3079
inevitably,3080
inexcusable,3081
inextricably,3082
infact,3083
infamous,3084
infantilising,3085
inferred,3086
inferring,3087
infidels,3088
infiltrators,3089
infinitum,3090
inflation,3091
inflict,3092
influence,3093
influenced,3094
influences,3095
info,3096
inform,3097
information,3098
informative,3099
infrastucture,3100
infringes,3101
ing,3102
inhabit,3103
inhabitant,3104
inhabitants,3105
inherrent,3106
inhuman,3107
inist,3108
initial,3109
initially,3110
injured,3111
injury,3112
inner,3113
innocent,3114
innocents,3115
insanity,3116
insecurity,3117
inside,3118
insidious,3119
insight,3120
insightful,3121
insignificant,3122
insinuate,3123
insist,3124
insisted,3125
insistence,3126
insisting,3127
inspect,3128
inspecters,3129
inspections,3130
inspire,3131
inspired,3132
inspiring,3133
instability,3134
install,3135
installations,3136
installed,3137
instance,3138
instances,3139
instead,3140
instigate,3141
institute,3142
instituted,3143
institution,3144
institutional,3145
instruction,3146
instructions,3147
instructor,3148
insulting,3149
insults,3150
insurance,3151
insurgency,3152
insurgent,3153
insurgents,3154
integrate,3155
integration,3156
integrity,3157
intel,3158
intellectual,3159
intellegence,3160
intelligence,3161
intelligent,3162
intend,3163
intended,3164
intensity,3165
intent,3166
intention,3167
inter,3168
interaction,3169
interest,3170
interested,3171
interesting,3172
interestingly,3173
interests,3174
internal,3175
international,3176
internet,3177
internment,3178
interpal,3179
interpretation,3180
interrupted,3181
intertwined,3182
intervention,3183
interview,3184
interviewer,3185
intially,3186
intimate,3187
intimidation,3188
into,3189
intolerant,3190
inton,3191
intoxicating,3192
intracacies,3193
intresting,3194
intrigue,3195
intrinsic,3196
introduce,3197
introduced,3198
invade,3199
invaded,3200
invaders,3201
invading,3202
invasion,3203
invasions,3204
invective,3205
invented,3206
inventing,3207
inventors,3208
invertebrate,3209
investigate,3210
investigated,3211
investigating,3212
investigation,3213
investment,3214
investors,3215
inveterate,3216
invitation,3217
invloved,3218
involved,3219
involvement,3220
ioc,3221
ira,3222
iran,3223
iranian,3224
iranians,3225
irans,3226
iraq,3227
iraqi,3228
iraqis,3229
ireland,3230
irish,3231
irna,3232
iron,3233
ironic,3234
ironically,3235
irony,3236
irrational,3237
irrelevant,3238
irritating,3239
irving,3240
is,3241
isareli,3242
ish,3243
ishmail,3244
islaam,3245
islam,3246
islamaphobe,3247
islamic,3248
islamificationism,3249
islamiphobe,3250
islamist,3251
islamists,3252
islamofacists,3253
islamofascism,3254
islamofascists,3255
island,3256
ismail,3257
isn,3258
isnt,3259
isolationist,3260
isr,3261
israel,3262
israeli,3263
israelians,3264
israelis,3265
israelnationalne,3266
israelnn,3267
israels,3268
isreal,3269
isrealians,3270
issue,3271
issues,3272
it,3273
italian,3274
italians,3275
italy,3276
its,3277
itself,3278
itstoppedraining,3279
ive,3280
jack,3281
jacked,3282
jail,3283
jailed,3284
jalabad,3285
james,3286
jamo,3287
jan,3288
jane,3289
january,3290
japan,3291
japanese,3292
jasb,3293
jazeera,3294
jazira,3295
jd,3296
jerk,3297
jerusalem,3298
jessica,3299
jesus,3300
jew,3301
jewish,3302
jews,3303
jewsih,3304
jfks,3305
jihad,3306
jihadi,3307
jihadist,3308
jingles,3309
jj,3310
jla,3311
joan,3312
job,3313
jobs,3314
jobsworth,3315
joe,3316
john,3317
johnny,3318
join,3319
joined,3320
joining,3321
joint,3322
joke,3323
jokes,3324
joking,3325
jong,3326
jordan,3327
jordanian,3328
jorge,3329
journal,3330
journalist,3331
journalists,3332
jowell,3333
jqack,3334
judafacist,3335
judaism,3336
judge,3337
judicial,3338
juicy,3339
jump,3340
jungle,3341
junior,3342
junk,3343
junta,3344
jury,3345
just,3346
justice,3347
justifiably,3348
justifications,3349
justified,3350
justify,3351
karbala,3352
karbul,3353
karl,3354
kashmir,3355
kashmiri,3356
kashmiris,3357
kassam,3358
kassams,3359
kazahkstan,3360
kazakhstan,3361
keen,3362
keep,3363
keeping,3364
keeps,3365
kennedy,3366
kept,3367
kevin,3368
key,3369
kgb,3370
khan,3371
kick,3372
kicked,3373
kicking,3374
kidding,3375
kidnapped,3376
kidnappings,3377
kids,3378
kiling,3379
kill,3380
killed,3381
killing,3382
killings,3383
kills,3384
kim,3385
kind,3386
kinda,3387
kindergarten,3388
kindly,3389
kinds,3390
king,3391
kinky,3392
kitchen,3393
kj,3394
kl,3395
knee,3396
knesset,3397
knew,3398
knickers,3399
knicknamed,3400
knife,3401
knoll,3402
know,3403
knowledge,3404
known,3405
knows,3406
knucklescrapers,3407
knwo,3408
kong,3409
koran,3410
koranist,3411
korea,3412
korean,3413
koreans,3414
kowtow,3415
kreschev,3416
kurdish,3417
kurds,3418
kuwaeit,3419
kuwait,3420
kuweit,3421
kyoto,3422
label,3423
labelling,3424
labor,3425
laboratory,3426
labour,3427
lacewing,3428
lack,3429
lad,3430
ladder,3431
laden,3432
lads,3433
lady,3434
lager,3435
lame,3436
lancaster,3437
lancs,3438
land,3439
lands,3440
landscape,3441
language,3442
lankans,3443
lantau,3444
lap,3445
large,3446
largely,3447
larger,3448
largest,3449
larnaca,3450
lasers,3451
lashes,3452
last,3453
lasted,3454
late,3455
later,3456
latest,3457
latimes,3458
latin,3459
latte,3460
laugh,3461
laughable,3462
laughed,3463
laughing,3464
launched,3465
launches,3466
launching,3467
lauren,3468
laurie,3469
lavat,3470
law,3471
laws,3472
lawyer,3473
lawyers,3474
lay,3475
lazily,3476
lbyia,3477
le,3478
lead,3479
leader,3480
leaders,3481
leadership,3482
leading,3483
leads,3484
leaning,3485
learn,3486
learned,3487
learnt,3488
least,3489
leave,3490
leaving,3491
lebanese,3492
lebanon,3493
lecture,3494
led,3495
leers,3496
left,3497
leftie,3498
lefties,3499
lefty,3500
legacy,3501
legal,3502
legalities,3503
legendary,3504
legislation,3505
legitimacising,3506
legitimate,3507
legs,3508
lenders,3509
leniency,3510
lennon,3511
lenovo,3512
less,3513
lessen,3514
lesser,3515
lesson,3516
lessons,3517
lest,3518
let,3519
lets,3520
letter,3521
letters,3522
letting,3523
level,3524
levelled,3525
levels,3526
levied,3527
lgf,3528
liable,3529
liar,3530
liars,3531
lib,3532
liberals,3533
liberate,3534
liberating,3535
liberation,3536
liberty,3537
library,3538
licenses,3539
licking,3540
lid,3541
lie,3542
lied,3543
liek,3544
lies,3545
life,3546
lifestyle,3547
light,3548
lighten,3549
lightening,3550
like,3551
liked,3552
likely,3553
likes,3554
likud,3555
lily,3556
limbo,3557
limit,3558
limitations,3559
limits,3560
lincoln,3561
lincolnshire,3562
line,3563
lines,3564
linguist,3565
lining,3566
link,3567
linked,3568
links,3569
lion,3570
list,3571
listen,3572
listening,3573
litany,3574
literally,3575
literature,3576
lithe,3577
little,3578
littlegreenfootballs,3579
live,3580
lived,3581
lives,3582
living,3583
ll,3584
lmao,3585
loach,3586
load,3587
loaded,3588
loads,3589
loans,3590
loathed,3591
lobbyists,3592
local,3593
locals,3594
location,3595
locked,3596
locking,3597
logic,3598
logical,3599
lol,3600
lombards,3601
london,3602
londonium,3603
lone,3604
loner,3605
long,3606
longer,3607
longtime,3608
lonney,3609
look,3610
looked,3611
looking,3612
looks,3613
looney,3614
loonies,3615
looooong,3616
loosened,3617
loosers,3618
looted,3619
looting,3620
lord,3621
los,3622
lose,3623
loser,3624
losers,3625
loses,3626
losing,3627
loss,3628
losses,3629
lost,3630
lot,3631
lots,3632
loud,3633
lousy,3634
love,3635
loved,3636
lovely,3637
loves,3638
loving,3639
low,3640
lower,3641
lowered,3642
lowering,3643
lowest,3644
loyalty,3645
lt,3646
lucilla,3647
luck,3648
lucky,3649
lucrative,3650
lugage,3651
lump,3652
lunatics,3653
lush,3654
lust,3655
lusts,3656
lutheran,3657
lwa,3658
lying,3659
lynch,3660
macademia,3661
macedonia,3662
machine,3663
machinery,3664
machines,3665
macmillan,3666
mad,3667
made,3668
madeleine,3669
madonna,3670
magnitude,3671
mahler,3672
mail,3673
main,3674
mainland,3675
mainly,3676
mainstream,3677
maintain,3678
maintaining,3679
maj,3680
major,3681
majoritively,3682
majority,3683
make,3684
makes,3685
making,3686
malaysia,3687
malchrome,3688
male,3689
males,3690
malfunctioning,3691
malls,3692
malt,3693
man,3694
manafacture,3695
manage,3696
managed,3697
management,3698
manages,3699
manchester,3700
mandate,3701
mandated,3702
mandatory,3703
mandela,3704
mango,3705
manic,3706
manicured,3707
manipulated,3708
mankind,3709
manner,3710
mans,3711
manual,3712
manufacturers,3713
many,3714
mao,3715
map,3716
mapp,3717
mar,3718
marach,3719
march,3720
marching,3721
marine,3722
mark,3723
market,3724
markets,3725
marley,3726
marquis,3727
marraiges,3728
marrakesh,3729
marriage,3730
married,3731
mars,3732
marshals,3733
marshels,3734
martian,3735
martians,3736
martyr,3737
martyrdom,3738
marx,3739
marxist,3740
mary,3741
mash,3742
mass,3743
massacre,3744
massacres,3745
massaged,3746
massing,3747
massive,3748
masterclass,3749
mastered,3750
match,3751
matches,3752
mate,3753
material,3754
matter,3755
matters,3756
mature,3757
maturity,3758
max,3759
maximum,3760
may,3761
maybe,3762
mayhem,3763
mb,3764
mc,3765
mcb,3766
mcbean,3767
mcdonald,3768
mcneil,3769
me,3770
mean,3771
meaning,3772
meaningful,3773
means,3774
meant,3775
meanwhile,3776
measues,3777
measure,3778
meat,3779
mechanism,3780
media,3781
medias,3782
medical,3783
medicine,3784
medievil,3785
meet,3786
meeting,3787
meetings,3788
meinhof,3789
melanie,3790
melon,3791
member,3792
membered,3793
members,3794
memo,3795
memorial,3796
memorials,3797
memory,3798
men,3799
menhuin,3800
mens,3801
mental,3802
mentally,3803
mention,3804
mentioned,3805
mentions,3806
mercies,3807
merciful,3808
mercy,3809
mere,3810
merely,3811
merest,3812
merge,3813
merit,3814
merits,3815
merkel,3816
mess,3817
message,3818
messages,3819
messiah,3820
mestizo,3821
met,3822
meta,3823
metallic,3824
methods,3825
mexican,3826
mexicans,3827
mexico,3828
meyer,3829
miami,3830
michael,3831
micheal,3832
mickey,3833
micro,3834
microsoft,3835
mid,3836
middle,3837
might,3838
migrants,3839
migration,3840
miimalising,3841
miles,3842
militant,3843
militants,3844
militarily,3845
militarised,3846
military,3847
millenia,3848
miller,3849
million,3850
millionaire,3851
millionairesse,3852
millions,3853
milosvic,3854
mind,3855
minded,3856
minds,3857
mine,3858
minefield,3859
miners,3860
mines,3861
minimal,3862
minimalised,3863
minister,3864
minor,3865
minority,3866
minute,3867
minutes,3868
mis,3869
miscarriage,3870
misfits,3871
misfortune,3872
mish,3873
misinterpreted,3874
misinterprit,3875
misled,3876
misogyny,3877
misplaced,3878
misread,3879
misrepresent,3880
misrepresentation,3881
miss,3882
missed,3883
misses,3884
missile,3885
missiles,3886
missing,3887
missions,3888
missippi,3889
missippparsedonedigit,3890
missus,3891
mist,3892
mistake,3893
mistakes,3894
mistress,3895
mistressofmydomain,3896
mistressofmydomains,3897
mists,3898
mitt,3899
mix,3900
mixed,3901
mixing,3902
mixture,3903
mm,3904
mmmmmm,3905
mn,3906
mne,3907
mob,3908
mobile,3909
mock,3910
mod,3911
model,3912
moderated,3913
modern,3914
modesty,3915
mods,3916
mohammad,3917
mohammadans,3918
mohammed,3919
moist,3920
mom,3921
moment,3922
moments,3923
momment,3924
mommy,3925
mon,3926
monday,3927
mondial,3928
money,3929
mongering,3930
mongolia,3931
monkeys,3932
monologue,3933
monopulse,3934
monotonous,3935
monster,3936
month,3937
monthly,3938
months,3939
mood,3940
moods,3941
moon,3942
moore,3943
moot,3944
moral,3945
morale,3946
morales,3947
morass,3948
more,3949
morning,3950
morocco,3951
moronic,3952
mortgage,3953
moses,3954
moslems,3955
mosques,3956
mossadeq,3957
most,3958
mostly,3959
mother,3960
motivation,3961
motive,3962
motives,3963
motorcade,3964
mounted,3965
mouse,3966
moussaoui,3967
mouth,3968
mouths,3969
move,3970
moved,3971
movement,3972
movements,3973
moving,3974
mow,3975
mparsedonedigitlparseddigitsjparsedonedigit,3976
mps,3977
mr,3978
mrjingles,3979
mrs,3980
ms,3981
msg,3982
msn,3983
msnbc,3984
mubashar,3985
much,3986
mud,3987
muddying,3988
mufti,3989
mugabe,3990
mullahs,3991
multi,3992
multiculrism,3993
mum,3994
mump,3995
muppet,3996
murder,3997
murdered,3998
murderer,3999
murdering,4000
murderous,4001
murders,4002
murduch,4003
musab,4004
museum,4005
museums,4006
musharraf,4007
mushy,4008
music,4009
muslim,4010
muslims,4011
musso,4012
must,4013
mutterings,4014
mutual,4015
mutually,4016
mutuals,4017
muzlins,4018
mwaaaaaaaahahahahahahahaaaaaaaaa,4019
my,4020
mych,4021
mylroie,4022
myself,4023
mystery,4024
myth,4025
nafta,4026
nafthe,4027
nagasaki,4028
naighbor,4029
nail,4030
nails,4031
naive,4032
naiveté,4033
name,4034
named,4035
names,4036
napalm,4037
narrow,4038
nasty,4039
nation,4040
national,4041
nationalist,4042
nationalists,4043
nationalities,4044
nationality,4045
nations,4046
nationstate,4047
native,4048
natives,4049
nato,4050
natural,4051
naturally,4052
nature,4053
navy,4054
naz,4055
nazi,4056
nazis,4057
nazism,4058
nbc,4059
nd,4060
ne,4061
near,4062
nearly,4063
neatly,4064
nec,4065
neck,4066
need,4067
needed,4068
needs,4069
negate,4070
neglect,4071
neglected,4072
negotiate,4073
negotiating,4074
negotiation,4075
negotiations,4076
neighbors,4077
neighbours,4078
neil,4079
neither,4080
nelson,4081
neo,4082
neocons,4083
netanyahu,4084
netherlanders,4085
network,4086
neutral,4087
never,4088
new,4089
newborn,4090
newest,4091
newly,4092
newnight,4093
news,4094
newsflash,4095
newspaper,4096
newsparsedonedigit,4097
newsparsedtwodigits,4098
newsworthy,4099
next,4100
niaghbors,4101
nice,4102
nick,4103
nigeria,4104
nigeriam,4105
night,4106
nighthook,4107
nights,4108
nighttime,4109
nikki,4110
nine,4111
nip,4112
nit,4113
nixon,4114
nk,4115
no,4116
nobel,4117
noble,4118
nobody,4119
nologo,4120
nom,4121
nomatter,4122
nomination,4123
non,4124
none,4125
nonsense,4126
nonsnense,4127
nook,4128
noone,4129
nope,4130
nor,4131
norm,4132
normal,4133
normans,4134
norms,4135
norse,4136
north,4137
northern,4138
norwich,4139
nose,4140
noses,4141
not,4142
note,4143
noted,4144
nothing,4145
notice,4146
noticed,4147
noticing,4148
noting,4149
notion,4150
noughts,4151
novel,4152
november,4153
now,4154
nowhere,4155
nowt,4156
noxious,4157
nr,4158
nsw,4159
nuclear,4160
nuke,4161
nukes,4162
numbed,4163
number,4164
numbers,4165
numbing,4166
numerous,4167
nut,4168
nutcase,4169
nutters,4170
nuttin,4171
nutty,4172
nypd,4173
nytimes,4174
oaths,4175
ob,4176
obama,4177
object,4178
objecting,4179
objections,4180
objective,4181
objectives,4182
objects,4183
obligated,4184
obligations,4185
oblige,4186
obliged,4187
obliterated,4188
oblivion,4189
observant,4190
observation,4191
observations,4192
obsessed,4193
obvioulsy,4194
obvious,4195
obviously,4196
oc,4197
occamøs,4198
occasion,4199
occasional,4200
occasions,4201
occulted,4202
occupation,4203
occupations,4204
occupied,4205
occupiers,4206
occupy,4207
occupying,4208
occur,4209
occured,4210
occurs,4211
ocean,4212
october,4213
odd,4214
oddly,4215
odds,4216
odious,4217
oecd,4218
of,4219
off,4220
offence,4221
offended,4222
offensive,4223
offer,4224
offered,4225
offering,4226
office,4227
officers,4228
offices,4229
official,4230
officials,4231
often,4232
oh,4233
ohj,4234
oil,4235
ok,4236
okay,4237
oklahoma,4238
old,4239
older,4240
oldest,4241
ole,4242
olmert,4243
olympic,4244
olympics,4245
omri,4246
on,4247
once,4248
one,4249
ones,4250
ongoing,4251
only,4252
onto,4253
onus,4254
oona,4255
oozes,4256
op,4257
opec,4258
open,4259
opened,4260
opening,4261
openly,4262
opens,4263
opera,4264
operation,4265
operations,4266
opinion,4267
opinions,4268
opponent,4269
opportune,4270
opportunist,4271
opportunities,4272
opportunity,4273
opposed,4274
opposing,4275
opposite,4276
opposites,4277
opposition,4278
oppressed,4279
oppressive,4280
opressed,4281
option,4282
optional,4283
opwn,4284
or,4285
oranges,4286
orbit,4287
ordeals,4288
order,4289
ordered,4290
orders,4291
ordinary,4292
org,4293
organisation,4294
organisations,4295
organise,4296
organised,4297
organising,4298
organism,4299
organistion,4300
organization,4301
organizations,4302
organize,4303
organized,4304
orginal,4305
orientation,4306
orif,4307
origianlly,4308
original,4309
originally,4310
originated,4311
originator,4312
orthodox,4313
orwell,4314
ostensibly,4315
oswald,4316
other,4317
others,4318
otherwise,4319
othwerwise,4320
otter,4321
ottoman,4322
ottomans,4323
ouch,4324
ought,4325
our,4326
ours,4327
ourself,4328
ourselves,4329
out,4330
outbursts,4331
outdated,4332
outer,4333
outlasting,4334
outlawing,4335
outlet,4336
outline,4337
outlined,4338
outnumbered,4339
outraged,4340
outright,4341
outside,4342
outsiders,4343
outspoken,4344
outstanding,4345
outstrip,4346
ovbious,4347
over,4348
overall,4349
overs,4350
overseas,4351
oversight,4352
overwhelming,4353
overwhelmingly,4354
ow,4355
owe,4356
own,4357
owned,4358
owner,4359
owners,4360
ownership,4361
oz,4362
ozy,4363
pace,4364
pacifists,4365
pack,4366
package,4367
packet,4368
page,4369
pageant,4370
paid,4371
pain,4372
painful,4373
pains,4374
paint,4375
painting,4376
pakistan,4377
pakistani,4378
pakistanis,4379
pakistans,4380
pale,4381
pales,4382
palestian,4383
palestians,4384
palestina,4385
palestinans,4386
palestine,4387
palestinian,4388
palestinians,4389
palestnians,4390
palin,4391
palis,4392
palistinians,4393
pals,4394
pan,4395
panicked,4396
panned,4397
panorama,4398
paparazzi,4399
paper,4400
papers,4401
paradise,4402
paradises,4403
paragraphs,4404
parallel,4405
parallels,4406
paranoia,4407
parent,4408
parenting,4409
parents,4410
paris,4411
park,4412
parker,4413
parliament,4414
parliment,4415
parseddigits,4416
parsedfourdigits,4417
parsedfourdigitss,4418
parsedfourdigitsth,4419
parsedonedigit,4420
parsedonedigitg,4421
parsedonedigitk,4422
parsedonedigitm,4423
parsedonedigitnd,4424
parsedonedigitrd,4425
parsedonedigitth,4426
parsedsixdigits,4427
parsedthreedigits,4428
parsedthreedigitsk,4429
parsedthreedigitsm,4430
parsedtime,4431
parsedtwodigits,4432
parsedtwodigitsbn,4433
parsedtwodigitsk,4434
parsedtwodigitsm,4435
parsedtwodigitss,4436
parsedtwodigitsst,4437
parsedtwodigitsth,4438
part,4439
participants,4440
participated,4441
participle,4442
particular,4443
particularly,4444
parties,4445
partisan,4446
partnerships,4447
parts,4448
party,4449
pasha,4450
pass,4451
passed,4452
passengers,4453
passes,4454
passing,4455
passion,4456
passively,4457
passport,4458
past,4459
paste,4460
pastures,4461
pat,4462
patent,4463
paternalism,4464
path,4465
pathetic,4466
patronising,4467
pattern,4468
paul,4469
pax,4470
pay,4471
paying,4472
pc,4473
pea,4474
peace,4475
peaceful,4476
peaks,4477
peanuts,4478
pears,4479
peasants,4480
pecans,4481
pedantic,4482
peer,4483
peking,4484
pen,4485
penal,4486
penalty,4487
penetrate,4488
peninsula,4489
pension,4490
pensions,4491
people,4492
peoples,4493
per,4494
percent,4495
percentages,4496
perception,4497
perchance,4498
peres,4499
perfect,4500
perfectly,4501
perform,4502
performed,4503
performing,4504
perhaps,4505
period,4506
perish,4507
perishing,4508
perle,4509
permanent,4510
permission,4511
permit,4512
perpetrated,4513
perpetuating,4514
persecuted,4515
person,4516
personal,4517
personalities,4518
personally,4519
personnel,4520
persons,4521
perspective,4522
persuaded,4523
pet,4524
pete,4525
peters,4526
petition,4527
petty,4528
peu,4529
pfft,4530
phenomenon,4531
phil,4532
philippines,4533
phillips,4534
philosopher,4535
phone,4536
phoneacians,4537
phoned,4538
phophorous,4539
photos,4540
phrase,4541
phrases,4542
phrophet,4543
physical,4544
physically,4545
picayunities,4546
pick,4547
picking,4548
picture,4549
piece,4550
pieces,4551
pig,4552
pigeonhole,4553
pigs,4554
pillock,4555
pilot,4556
pilots,4557
piltdown,4558
pinko,4559
pipe,4560
pirlo,4561
pit,4562
pity,4563
placard,4564
place,4565
places,4566
placing,4567
plain,4568
plaintive,4569
plan,4570
plane,4571
planes,4572
planet,4573
planned,4574
planners,4575
planning,4576
plans,4577
plant,4578
planted,4579
plants,4580
plaster,4581
play,4582
played,4583
player,4584
players,4585
playing,4586
plays,4587
pleaded,4588
plear,4589
pleasant,4590
please,4591
pleasure,4592
plenty,4593
ploughed,4594
ploy,4595
plus,4596
poindexter,4597
point,4598
pointed,4599
pointing,4600
pointless,4601
points,4602
poison,4603
poisonous,4604
poisons,4605
poking,4606
poland,4607
polar,4608
pole,4609
police,4610
policeman,4611
policies,4612
policy,4613
polish,4614
politcal,4615
political,4616
politically,4617
politicians,4618
politicos,4619
politics,4620
poll,4621
polls,4622
polluters,4623
pollution,4624
pond,4625
poochies,4626
pool,4627
pools,4628
poor,4629
poorly,4630
pop,4631
pope,4632
popping,4633
popular,4634
popularity,4635
populated,4636
population,4637
populations,4638
populist,4639
pork,4640
portray,4641
portrayed,4642
ports,4643
portugese,4644
portuguese,4645
posative,4646
posed,4647
posession,4648
position,4649
positions,4650
positive,4651
possession,4652
possibilities,4653
possibility,4654
possible,4655
possibly,4656
post,4657
posted,4658
poster,4659
posters,4660
posting,4661
postings,4662
posts,4663
posturing,4664
pot,4665
potemtial,4666
potential,4667
pound,4668
pounding,4669
poverty,4670
power,4671
powerbase,4672
powered,4673
powerful,4674
powerfull,4675
powers,4676
ppa,4677
pr,4678
practical,4679
practice,4680
practiced,4681
practices,4682
pragmatic,4683
praise,4684
praised,4685
prank,4686
prattle,4687
pray,4688
praying,4689
pre,4690
preaching,4691
precipitate,4692
precise,4693
precisely,4694
precision,4695
precludes,4696
predatory,4697
predicted,4698
predictions,4699
predominately,4700
prefer,4701
prefered,4702
preference,4703
prehaps,4704
prejudices,4705
prematurely,4706
premeditating,4707
premium,4708
prepare,4709
prepared,4710
preperation,4711
prerequisite,4712
presbyterians,4713
presence,4714
present,4715
presentation,4716
presented,4717
president,4718
presidents,4719
presnted,4720
press,4721
presso,4722
pressure,4723
pressurise,4724
prestwick,4725
presumably,4726
presume,4727
presure,4728
pretend,4729
pretending,4730
pretext,4731
pretty,4732
preudo,4733
prevent,4734
prevented,4735
preventing,4736
previous,4737
previously,4738
prey,4739
price,4740
prices,4741
pride,4742
prides,4743
priest,4744
primary,4745
prime,4746
primitive,4747
princess,4748
principle,4749
print,4750
printing,4751
prior,4752
prison,4753
prisoners,4754
prisons,4755
private,4756
prize,4757
prized,4758
pro,4759
proactive,4760
probability,4761
probably,4762
problem,4763
problematic,4764
problems,4765
process,4766
prodi,4767
produce,4768
produced,4769
produces,4770
product,4771
production,4772
productive,4773
products,4774
profess,4775
professional,4776
professors,4777
profitable,4778
profitibility,4779
profits,4780
profusely,4781
program,4782
programme,4783
programs,4784
progress,4785
progressiove,4786
progressive,4787
prohibit,4788
project,4789
projecting,4790
projects,4791
prominent,4792
promised,4793
promote,4794
promoting,4795
promotion,4796
prompted,4797
prone,4798
proof,4799
propably,4800
propaganda,4801
propagandist,4802
properly,4803
properties,4804
property,4805
prophecy,4806
propoganada,4807
propoganda,4808
proportion,4809
proposal,4810
proposed,4811
proscribed,4812
prosecuted,4813
prosecutions,4814
prosperity,4815
protect,4816
protecting,4817
protection,4818
protector,4819
protects,4820
protest,4821
protestants,4822
protested,4823
protesters,4824
protests,4825
proud,4826
prove,4827
proved,4828
proverb,4829
proves,4830
provide,4831
providing,4832
province,4833
provinces,4834
provoke,4835
provoking,4836
pruduction,4837
prvent,4838
ps,4839
psychiatrists,4840
psychological,4841
psychologists,4842
psychology,4843
pu,4844
pub,4845
public,4846
publicity,4847
published,4848
publisher,4849
publishing,4850
pubs,4851
puddin,4852
puffing,4853
pull,4854
pulled,4855
punishable,4856
punished,4857
punishment,4858
pupil,4859
puppet,4860
purchase,4861
purchased,4862
purchasing,4863
pure,4864
purely,4865
purile,4866
purpose,4867
purposes,4868
pursue,4869
pursuing,4870
push,4871
pushed,4872
pushing,4873
put,4874
putin,4875
puts,4876
putting,4877
puydedome,4878
pyongyang,4879
pyramid,4880
qaeda,4881
quada,4882
quake,4883
qualification,4884
qualifications,4885
qualitavely,4886
quality,4887
quantify,4888
quarter,4889
qubal,4890
que,4891
quebec,4892
queda,4893
quels,4894
question,4895
questioned,4896
questioning,4897
questions,4898
quick,4899
quickly,4900
quid,4901
quiet,4902
quit,4903
quite,4904
quitely,4905
quote,4906
quotes,4907
quoting,4908
rabbi,4909
rabble,4910
rabid,4911
rabin,4912
race,4913
racial,4914
racism,4915
racist,4916
radar,4917
radars,4918
radical,4919
radicalized,4920
radio,4921
radioactive,4922
rafah,4923
rag,4924
rage,4925
rahman,4926
raid,4927
rail,4928
rained,4929
raise,4930
raised,4931
raising,4932
rallied,4933
rally,4934
ran,4935
rancorous,4936
range,4937
ranging,4938
rankings,4939
ranks,4940
ransomes,4941
rant,4942
ranting,4943
rape,4944
raped,4945
rapid,4946
rapidly,4947
raping,4948
rat,4949
rates,4950
rather,4951
ratify,4952
rating,4953
ratings,4954
rational,4955
rattling,4956
ravi,4957
ray,4958
razor,4959
re,4960
reach,4961
reached,4962
reaching,4963
reacted,4964
reaction,4965
reactions,4966
reactor,4967
read,4968
readers,4969
readiness,4970
reading,4971
readliy,4972
reads,4973
ready,4974
real,4975
realise,4976
realised,4977
realistic,4978
reality,4979
really,4980
ream,4981
reaping,4982
reaserch,4983
reason,4984
reasonable,4985
reasoning,4986
reasons,4987
rebates,4988
rebounding,4989
rebuild,4990
rebuke,4991
recall,4992
receive,4993
received,4994
receives,4995
recent,4996
recently,4997
recession,4998
recieved,4999
recipient,5000
reciprocating,5001
recluse,5002
recognise,5003
recognised,5004
recognising,5005
recognition,5006
recognize,5007
recognizeable,5008
recollect,5009
recommendations,5010
record,5011
records,5012
recourse,5013
recovering,5014
recruit,5015
recrutment,5016
red,5017
redesignating,5018
redirected,5019
reduced,5020
redundant,5021
reed,5022
refer,5023
referee,5024
reference,5025
references,5026
refering,5027
referring,5028
refers,5029
refinanced,5030
refinement,5031
reflected,5032
refuge,5033
refugees,5034
refugess,5035
refuse,5036
refused,5037
refuses,5038
refusing,5039
refute,5040
refuted,5041
regard,5042
regarded,5043
regarding,5044
regards,5045
regime,5046
regimes,5047
region,5048
regional,5049
regions,5050
regret,5051
regretting,5052
regular,5053
regularly,5054
regulations,5055
reich,5056
reichspatent,5057
reign,5058
reinforcements,5059
reins,5060
rejected,5061
rejecting,5062
rekindle,5063
related,5064
relating,5065
relations,5066
relationship,5067
relationships,5068
relative,5069
relatives,5070
relativists,5071
relaunch,5072
released,5073
relentless,5074
reliability,5075
reliable,5076
reliant,5077
relief,5078
religion,5079
religions,5080
religious,5081
religon,5082
reluctant,5083
rely,5084
remain,5085
remaining,5086
remains,5087
remark,5088
remarkable,5089
remarks,5090
remember,5091
remembered,5092
remembers,5093
reminded,5094
reminds,5095
removal,5096
remove,5097
removed,5098
removing,5099
renege,5100
renouncing,5101
rented,5102
repeat,5103
repeated,5104
repeatedly,5105
repeating,5106
repeats,5107
rephrase,5108
replace,5109
replaced,5110
replacing,5111
reply,5112
replying,5113
report,5114
reported,5115
reportedly,5116
reporters,5117
reports,5118
represent,5119
representation,5120
represents,5121
repression,5122
repressive,5123
republic,5124
republican,5125
republicans,5126
reputation,5127
require,5128
required,5129
requirement,5130
requires,5131
resarch,5132
research,5133
resent,5134
reservoir,5135
resident,5136
residents,5137
resist,5138
resistance,5139
resolution,5140
resolutions,5141
resolved,5142
resort,5143
resource,5144
resourceful,5145
resources,5146
respect,5147
respectable,5148
respected,5149
respectfully,5150
respecting,5151
responce,5152
respond,5153
responded,5154
respondents,5155
responding,5156
responsability,5157
response,5158
responses,5159
responsibility,5160
responsible,5161
responsiblity,5162
rest,5163
restance,5164
restarted,5165
restaurants,5166
resting,5167
restock,5168
restored,5169
restrained,5170
restrict,5171
restricted,5172
restrictions,5173
result,5174
resulted,5175
resulting,5176
results,5177
retail,5178
retailer,5179
retaliate,5180
retaliation,5181
retiring,5182
retold,5183
retracts,5184
retrieve,5185
retrospect,5186
retry,5187
return,5188
returning,5189
revealed,5190
revelation,5191
revenge,5192
review,5193
revisionist,5194
revolution,5195
revolutionary,5196
reward,5197
rewrite,5198
reza,5199
rhetoric,5200
rhodesia,5201
rice,5202
rich,5203
richard,5204
richer,5205
richest,5206
ricketts,5207
rid,5208
riddance,5209
ridiclus,5210
ridiculous,5211
ridiculously,5212
riding,5213
right,5214
righteous,5215
rightful,5216
rights,5217
ring,5218
rings,5219
riot,5220
rioting,5221
riotng,5222
riots,5223
ripley,5224
ripped,5225
rise,5226
risen,5227
rises,5228
risible,5229
rising,5230
risk,5231
rita,5232
rittaq,5233
rjsc,5234
road,5235
roadmap,5236
roam,5237
roar,5238
robbie,5239
robert,5240
rocket,5241
rockets,5242
rocks,5243
rogue,5244
role,5245
roles,5246
rolling,5247
roma,5248
roman,5249
romania,5250
romans,5251
romantic,5252
romney,5253
roof,5254
room,5255
rooming,5256
roosvelt,5257
root,5258
rooted,5259
rooting,5260
ropert,5261
rose,5262
rosie,5263
rough,5264
round,5265
roundabouts,5266
rounded,5267
rounds,5268
rouser,5269
rout,5270
route,5271
routinely,5272
royal,5273
roybearparsedtwodigits,5274
rpg,5275
rsed,5276
rubbing,5277
rubbish,5278
rubbu,5279
ruined,5280
ruining,5281
rule,5282
ruled,5283
rulers,5284
rules,5285
ruling,5286
rumbles,5287
rumsfeld,5288
run,5289
running,5290
runs,5291
rural,5292
rush,5293
russia,5294
russian,5295
russians,5296
ruth,5297
ruthlessly,5298
rwanda,5299
ry,5300
sa,5301
sabra,5302
sabre,5303
sacking,5304
sacrifices,5305
sad,5306
sadam,5307
sadat,5308
saddam,5309
sadly,5310
saeed,5311
safe,5312
safeguard,5313
safely,5314
sahaf,5315
said,5316
sailors,5317
sake,5318
salafists,5319
salaries,5320
salary,5321
sales,5322
salome,5323
samadashvili,5324
same,5325
sanctioned,5326
sanctioning,5327
sanctions,5328
sandbox,5329
sandwich,5330
sane,5331
sanitation,5332
sarah,5333
sarcastic,5334
sassanid,5335
sat,5336
satan,5337
satanic,5338
satellites,5339
satirist,5340
satisfactory,5341
satisfy,5342
saturday,5343
saudi,5344
sauds,5345
savagery,5346
save,5347
saved,5348
saves,5349
saw,5350
saxon,5351
say,5352
saying,5353
says,5354
scale,5355
scales,5356
scam,5357
scandal,5358
scandanavia,5359
scapegoat,5360
scapegoated,5361
scared,5362
scaremongering,5363
scargill,5364
sceintist,5365
scenario,5366
scenarios,5367
scenes,5368
scewed,5369
sch,5370
schemes,5371
scholars,5372
school,5373
schoolchildren,5374
schools,5375
schwartskopf,5376
science,5377
scienitst,5378
scientific,5379
scientist,5380
scientists,5381
score,5382
scores,5383
scot,5384
scotland,5385
scots,5386
scottish,5387
scottishness,5388
scrap,5389
screaming,5390
screw,5391
screwed,5392
screwing,5393
scrutiny,5394
scum,5395
scupper,5396
sea,5397
sealion,5398
sean,5399
search,5400
searched,5401
searching,5402
season,5403
seat,5404
seats,5405
second,5406
secondary,5407
seconds,5408
secret,5409
secs,5410
sectarian,5411
section,5412
sector,5413
secular,5414
secured,5415
security,5416
sedition,5417
see,5418
seed,5419
seeing,5420
seek,5421
seeking,5422
seem,5423
seeme,5424
seems,5425
seen,5426
seeping,5427
seeps,5428
sees,5429
segregation,5430
seldom,5431
selection,5432
selective,5433
selectively,5434
selectiveness,5435
selector,5436
selects,5437
self,5438
sell,5439
seller,5440
semantics,5441
semetic,5442
semetism,5443
semite,5444
semites,5445
semitic,5446
semitism,5447
senate,5448
senator,5449
send,5450
sending,5451
senior,5452
sense,5453
sensible,5454
sensitive,5455
sensitivity,5456
sent,5457
sentence,5458
sentenced,5459
sentiments,5460
sep,5461
separating,5462
separation,5463
separatum,5464
september,5465
septmeber,5466
sequels,5467
sequence,5468
serious,5469
seriously,5470
servants,5471
serve,5472
served,5473
serves,5474
service,5475
servicemen,5476
services,5477
servies,5478
serving,5479
sessions,5480
set,5481
settle,5482
settlement,5483
settlements,5484
settler,5485
settlers,5486
settles,5487
seucrity,5488
seven,5489
seventh,5490
several,5491
severely,5492
sex,5493
sexist,5494
sexual,5495
sfc,5496
sh,5497
shabby,5498
shades,5499
shah,5500
shahab,5501
shakes,5502
shall,5503
shalom,5504
shame,5505
shameful,5506
shankar,5507
shapes,5508
share,5509
shared,5510
sharia,5511
shariah,5512
sharing,5513
sharon,5514
shatilla,5515
she,5516
sheer,5517
sheesh,5518
sheikh,5519
sheiks,5520
sheilds,5521
shelter,5522
shenanigans,5523
shia,5524
shias,5525
shields,5526
shifted,5527
shifting,5528
ship,5529
ships,5530
shock,5531
shoe,5532
shoes,5533
shoot,5534
shooting,5535
shootings,5536
shoots,5537
short,5538
shortages,5539
shortcomingof,5540
shorter,5541
shortlist,5542
shot,5543
shots,5544
should,5545
shouldn,5546
shout,5547
show,5548
showbiz,5549
showcase,5550
showed,5551
showing,5552
shown,5553
shows,5554
shrinking,5555
shunned,5556
shut,5557
shutting,5558
shy,5559
sick,5560
sickening,5561
sickeningly,5562
side,5563
sided,5564
sides,5565
sieging,5566
sight,5567
sign,5568
signed,5569
significant,5570
significantly,5571
signing,5572
signs,5573
sikh,5574
sikhs,5575
silence,5576
silliness,5577
silly,5578
silver,5579
simchaparsedonedigit,5580
similar,5581
similarly,5582
simon,5583
simonparsedtwodigits,5584
simple,5585
simpler,5586
simplicity,5587
simplify,5588
simply,5589
since,5590
singing,5591
single,5592
singular,5593
siniora,5594
sinister,5595
sink,5596
sinking,5597
sinto,5598
sir,5599
sis,5600
sisters,5601
sit,5602
site,5603
sites,5604
sits,5605
sitting,5606
situation,5607
situations,5608
six,5609
sixty,5610
size,5611
sizeable,5612
sk,5613
skilled,5614
skills,5615
skirmish,5616
skull,5617
skulls,5618
slams,5619
slaughtered,5620
slave,5621
slaves,5622
sleng,5623
slide,5624
slight,5625
slightly,5626
slighty,5627
slinging,5628
slip,5629
slipped,5630
slipping,5631
slot,5632
slow,5633
slowly,5634
slur,5635
small,5636
smallwa,5637
smashed,5638
smelly,5639
smicha,5640
smidgeon,5641
smileys,5642
smililar,5643
smoke,5644
smoker,5645
smokescreen,5646
sneaked,5647
sneer,5648
sneering,5649
snideness,5650
snippet,5651
snogging,5652
snow,5653
so,5654
soap,5655
social,5656
socialism,5657
socialist,5658
socialists,5659
societies,5660
society,5661
sodomy,5662
soemhow,5663
soil,5664
soilders,5665
sold,5666
soldier,5667
soldiers,5668
sole,5669
solely,5670
solid,5671
solidarity,5672
solomoron,5673
solution,5674
solve,5675
solved,5676
somali,5677
somalia,5678
some,5679
somebody,5680
somehow,5681
someone,5682
somethihng,5683
something,5684
sometimes,5685
somewhere,5686
son,5687
song,5688
sonic,5689
sons,5690
soon,5691
sooner,5692
sophistry,5693
soprano,5694
sorry,5695
sort,5696
sorted,5697
sorts,5698
sound,5699
sounds,5700
source,5701
sources,5702
south,5703
southern,5704
sovereign,5705
soverignty,5706
soviet,5707
soviets,5708
sown,5709
space,5710
spaghetti,5711
spain,5712
spam,5713
spaniards,5714
spanish,5715
spawned,5716
speak,5717
speakin,5718
speaking,5719
speaks,5720
special,5721
specialist,5722
specific,5723
specifically,5724
spectacular,5725
spectating,5726
spectators,5727
speculation,5728
speculations,5729
speech,5730
speeches,5731
speed,5732
spell,5733
spelling,5734
spend,5735
spending,5736
spends,5737
spent,5738
spider,5739
spiked,5740
spin,5741
spinmeisters,5742
spiral,5743
spirit,5744
spirits,5745
spit,5746
splendid,5747
spoke,5748
spoken,5749
sponsors,5750
sport,5751
sportsfield,5752
spot,5753
spots,5754
spout,5755
spouts,5756
spray,5757
sprayed,5758
sprays,5759
spread,5760
spreading,5761
spree,5762
squad,5763
square,5764
squeamish,5765
sri,5766
stabbing,5767
stability,5768
stable,5769
staff,5770
stage,5771
stagnant,5772
stake,5773
stalin,5774
stalinism,5775
stalinist,5776
stalking,5777
stalling,5778
stamina,5779
stamp,5780
stance,5781
stand,5782
standard,5783
standards,5784
standing,5785
stands,5786
star,5787
starbucks,5788
stare,5789
stares,5790
start,5791
started,5792
starters,5793
starting,5794
starts,5795
starvation,5796
starved,5797
starving,5798
starwars,5799
stashed,5800
state,5801
stated,5802
statehood,5803
statement,5804
statementr,5805
statements,5806
states,5807
station,5808
stations,5809
statistics,5810
stats,5811
status,5812
stauts,5813
stay,5814
stayed,5815
steadily,5816
steal,5817
stealth,5818
stella,5819
step,5820
stepping,5821
sticking,5822
still,5823
stir,5824
stlins,5825
stock,5826
stocks,5827
stole,5828
stolen,5829
stomachs,5830
stone,5831
stonings,5832
stood,5833
stop,5834
stoping,5835
stopped,5836
stopping,5837
stops,5838
stor,5839
store,5840
stores,5841
stories,5842
storm,5843
stormin,5844
story,5845
straight,5846
straightforward,5847
strand,5848
stranger,5849
strangulation,5850
strategic,5851
stratosphere,5852
straw,5853
strawman,5854
straws,5855
street,5856
streets,5857
strenegh,5858
strengh,5859
strength,5860
stresses,5861
stressful,5862
stretch,5863
stretcher,5864
stretchers,5865
strike,5866
strikes,5867
strip,5868
stripping,5869
strong,5870
strongest,5871
struck,5872
structures,5873
stuart,5874
stub,5875
stucked,5876
students,5877
studied,5878
studies,5879
study,5880
studying,5881
stuff,5882
stupa,5883
stupid,5884
stupidity,5885
style,5886
sub,5887
subject,5888
subjective,5889
subjects,5890
subjugated,5891
subliminally,5892
submit,5893
submitted,5894
subsequent,5895
subsidies,5896
substance,5897
substantial,5898
substantiate,5899
substantive,5900
substitute,5901
subtly,5902
suburban,5903
subvert,5904
succeed,5905
succeeding,5906
succesful,5907
succesfull,5908
success,5909
successes,5910
such,5911
sucide,5912
sucks,5913
sudan,5914
sudaneese,5915
sudden,5916
suddenly,5917
sue,5918
suffer,5919
suffered,5920
suffering,5921
sufficient,5922
suggest,5923
suggested,5924
suggesting,5925
suggestion,5926
suicide,5927
suicides,5928
suit,5929
suitable,5930
suits,5931
sultan,5932
sum,5933
sumatra,5934
summarising,5935
sunlight,5936
sunni,5937
sunnis,5938
super,5939
supereamists,5940
superiority,5941
supplied,5942
supply,5943
supplying,5944
support,5945
supported,5946
supporter,5947
supporters,5948
supporting,5949
supports,5950
suppose,5951
supposed,5952
suppress,5953
supress,5954
supressor,5955
suprised,5956
suprises,5957
surbiton,5958
sure,5959
surely,5960
surpirse,5961
surpress,5962
surprise,5963
surprised,5964
surprising,5965
surrender,5966
surrounded,5967
surrounding,5968
surveillance,5969
surveys,5970
survival,5971
survive,5972
survived,5973
survivors,5974
suspect,5975
suspects,5976
suspense,5977
suspicious,5978
sustainable,5979
sustained,5980
suv,5981
svay,5982
swam,5983
swearing,5984
sweet,5985
sweets,5986
swim,5987
swimmer,5988
swimming,5989
swimsuit,5990
swimsuits,5991
swinger,5992
swings,5993
swiss,5994
switched,5995
sword,5996
syllables,5997
symbol,5998
symbolic,5999
symbolism,6000
symbols,6001
sympathetic,6002
sympathiser,6003
sympathize,6004
sympathy,6005
syria,6006
system,6007
systematically,6008
systems,6009
ta,6010
table,6011
tablets,6012
tack,6013
tackle,6014
tactic,6015
tactics,6016
taheri,6017
taht,6018
tailor,6019
take,6020
taken,6021
takeover,6022
takes,6023
taking,6024
taleban,6025
talent,6026
taliban,6027
talibans,6028
talk,6029
talking,6030
talks,6031
talmud,6032
talmudist,6033
tame,6034
tantrums,6035
tao,6036
tapes,6037
taps,6038
tar,6039
target,6040
targeted,6041
targets,6042
targetted,6043
targetting,6044
tariff,6045
tariffs,6046
tarred,6047
task,6048
tasks,6049
taste,6050
tatty,6051
taught,6052
tautological,6053
tax,6054
taxation,6055
taxes,6056
tb,6057
teach,6058
teacher,6059
teachers,6060
teaches,6061
teaching,6062
team,6063
teamed,6064
tear,6065
tearing,6066
tears,6067
technically,6068
techniques,6069
technology,6070
tedious,6071
teenage,6072
teens,6073
teh,6074
tel,6075
telegrams,6076
telegraph,6077
telemobiloscope,6078
telephone,6079
television,6080
tell,6081
telling,6082
tells,6083
temper,6084
tempers,6085
temples,6086
tempted,6087
ten,6088
tenants,6089
tend,6090
tender,6091
tends,6092
tenets,6093
tens,6094
tensions,6095
tenuous,6096
teresa,6097
term,6098
terms,6099
terrible,6100
terrifying,6101
territories,6102
territory,6103
terroism,6104
terror,6105
terrorised,6106
terrorism,6107
terrorist,6108
terrorists,6109
tessa,6110
test,6111
tested,6112
testified,6113
textbook,6114
textbooks,6115
th,6116
thailand,6117
than,6118
thank,6119
thanked,6120
thankful,6121
thanks,6122
thanx,6123
that,6124
thatcher,6125
thats,6126
the,6127
theatrics,6128
theforevermanparsedonedigit,6129
their,6130
them,6131
theme,6132
themeselves,6133
themselves,6134
then,6135
theocracy,6136
theoretical,6137
theories,6138
theory,6139
there,6140
thereby,6141
therefore,6142
therein,6143
thereof,6144
theres,6145
these,6146
they,6147
thier,6148
thin,6149
thing,6150
thingie,6151
things,6152
think,6153
thinking,6154
thinks,6155
thinly,6156
third,6157
this,6158
tho,6159
thoroughly,6160
those,6161
though,6162
thought,6163
thoughts,6164
thousand,6165
thousands,6166
thread,6167
threads,6168
threadstarter,6169
threat,6170
threatened,6171
threatening,6172
threatens,6173
threats,6174
three,6175
threive,6176
through,6177
throughout,6178
throwing,6179
thrown,6180
thrust,6181
thu,6182
thursday,6183
thus,6184
tibet,6185
tibetan,6186
tidal,6187
tie,6188
tied,6189
ties,6190
tight,6191
tighten,6192
time,6193
times,6194
timesdispatch,6195
timewatch,6196
timor,6197
tiny,6198
tip,6199
tired,6200
tis,6201
title,6202
tko,6203
tnt,6204
to,6205
today,6206
todays,6207
toddy,6208
toe,6209
toed,6210
together,6211
toilet,6212
toilets,6213
told,6214
tolearance,6215
tolen,6216
tolerance,6217
tolerated,6218
toll,6219
tollerance,6220
tom,6221
tome,6222
tone,6223
tongue,6224
tonka,6225
tonker,6226
tony,6227
tonys,6228
tonysilver,6229
too,6230
took,6231
tools,6232
top,6233
topic,6234
topless,6235
toronto,6236
torpor,6237
torture,6238
toss,6239
total,6240
totally,6241
touches,6242
touching,6243
tough,6244
tour,6245
tourism,6246
tourist,6247
tournament,6248
tours,6249
toward,6250
towards,6251
tower,6252
towering,6253
towns,6254
toxic,6255
toyhon,6256
traceable,6257
traces,6258
track,6259
trade,6260
traded,6261
trader,6262
traders,6263
tradition,6264
traditional,6265
trafalgar,6266
traffic,6267
tragedies,6268
tragedy,6269
tragic,6270
trail,6271
trained,6272
training,6273
transact,6274
transatlantic,6275
transcript,6276
transcripts,6277
transistor,6278
translation,6279
transparent,6280
transplanted,6281
transport,6282
transporter,6283
trap,6284
trash,6285
trashed,6286
travel,6287
travelgalparsedthreedigits,6288
travelled,6289
travelling,6290
treachery,6291
treason,6292
treat,6293
treated,6294
treaties,6295
treatment,6296
treaty,6297
tree,6298
trembles,6299
trial,6300
trials,6301
tribes,6302
tribesmen,6303
trick,6304
tricks,6305
tried,6306
trigger,6307
trip,6308
tripe,6309
trite,6310
trolls,6311
troop,6312
troops,6313
trotted,6314
trouble,6315
trousers,6316
truce,6317
truck,6318
true,6319
truly,6320
truman,6321
trun,6322
trust,6323
truth,6324
try,6325
trying,6326
tsarion,6327
tsunami,6328
tubes,6329
tuesday,6330
tunes,6331
tungsram,6332
tunisia,6333
tuol,6334
turbulent,6335
turf,6336
turk,6337
turkey,6338
turkish,6339
turmoil,6340
turn,6341
turned,6342
turning,6343
turns,6344
tv,6345
twice,6346
twin,6347
twins,6348
twist,6349
twisted,6350
twisting,6351
two,6352
twofold,6353
type,6354
typed,6355
types,6356
typical,6357
typically,6358
typo,6359
ubergunner,6360
uder,6361
uganda,6362
ugg,6363
ugly,6364
uk,6365
ukraine,6366
ukrainian,6367
ulpan,6368
ulster,6369
ultimately,6370
ultras,6371
umproviked,6372
un,6373
unable,6374
unacceptable,6375
unanimous,6376
unarmed,6377
unbearable,6378
unbelievable,6379
uncaring,6380
uncivilised,6381
uncle,6382
unclear,6383
uncomfortable,6384
unconscionable,6385
uncontrollable,6386
unconventional,6387
undemocratic,6388
undeniably,6389
under,6390
underestanding,6391
underlying,6392
undermine,6393
undermining,6394
understand,6395
understandable,6396
understanding,6397
understands,6398
understood,6399
undesired,6400
undoubtedly,6401
unecessary,6402
unemployment,6403
unfair,6404
unfairly,6405
unfettered,6406
unfold,6407
unfortunate,6408
unfortunately,6409
unfortunatley,6410
ungrateful,6411
unhappy,6412
unholy,6413
uni,6414
uninformed,6415
uninterupted,6416
union,6417
unionism,6418
unionists,6419
unit,6420
united,6421
universal,6422
universe,6423
universities,6424
university,6425
unjustifiable,6426
unjustified,6427
unless,6428
unlike,6429
unlikeable,6430
unlikely,6431
unnamed,6432
unnecessary,6433
unpleasant,6434
unpopular,6435
unpopulated,6436
unproven,6437
unrealistic,6438
unreasonable,6439
unrelated,6440
unreliable,6441
unreported,6442
unspeakable,6443
unsubstantiated,6444
unsuccessful,6445
unsuitable,6446
until,6447
unto,6448
untrustworthy,6449
unwholesome,6450
unwilling,6451
up,6452
uphold,6453
upon,6454
upset,6455
upside,6456
upstarts,6457
upu,6458
upward,6459
uranium,6460
urban,6461
urgent,6462
urges,6463
us,6464
usa,6465
usapears,6466
use,6467
used,6468
useful,6469
useless,6470
username,6471
uses,6472
using,6473
usual,6474
usually,6475
utilitarian,6476
utopia,6477
utterly,6478
vacancies,6479
vacation,6480
vagant,6481
valid,6482
validated,6483
valise,6484
valuable,6485
value,6486
valued,6487
values,6488
vanunu,6489
variability,6490
variation,6491
variety,6492
various,6493
vast,6494
vat,6495
vatican,6496
vc,6497
ve,6498
vegetarian,6499
vehemently,6500
vehicles,6501
veiled,6502
vein,6503
venetians,6504
venezuala,6505
venezuela,6506
venezuelan,6507
venezuelans,6508
vent,6509
venture,6510
verb,6511
verbal,6512
verdict,6513
versa,6514
verse,6515
version,6516
very,6517
vessel,6518
vested,6519
vestige,6520
veto,6521
vexing,6522
via,6523
vice,6524
vicious,6525
victim,6526
victimhood,6527
victims,6528
victorian,6529
victories,6530
video,6531
vietnam,6532
view,6533
viewpoint,6534
viewpoints,6535
views,6536
vigilant,6537
vile,6538
vina,6539
vindicationparsedthreedigits,6540
vindictiveness,6541
violate,6542
violating,6543
violation,6544
violence,6545
violent,6546
virgins,6547
virtualisation,6548
virulently,6549
visible,6550
visit,6551
visited,6552
visitors,6553
vitamin,6554
viva,6555
viz,6556
vocal,6557
voice,6558
void,6559
volunteering,6560
vomit,6561
voodoo,6562
vote,6563
voted,6564
voters,6565
voting,6566
vs,6567
vulgar,6568
vw,6569
wacko,6570
waggy,6571
wail,6572
wailing,6573
wait,6574
waited,6575
waiting,6576
wales,6577
walk,6578
walking,6579
wall,6580
walled,6581
walnuts,6582
wander,6583
wandering,6584
wanna,6585
want,6586
wanted,6587
wants,6588
war,6589
warden,6590
warents,6591
warfare,6592
warmest,6593
warming,6594
warmonger,6595
warn,6596
warned,6597
warning,6598
warrant,6599
warrants,6600
warrnet,6601
wars,6602
wart,6603
was,6604
wash,6605
washington,6606
wasn,6607
wasnt,6608
waste,6609
watch,6610
watches,6611
watching,6612
watchout,6613
water,6614
watered,6615
waters,6616
watersports,6617
watson,6618
watt,6619
wave,6620
waves,6621
waving,6622
way,6623
wayne,6624
ways,6625
wb,6626
wbos,6627
we,6628
weak,6629
weakened,6630
weakens,6631
weakest,6632
weaklings,6633
weakness,6634
wealth,6635
wealthy,6636
weapon,6637
weaponry,6638
weapons,6639
wear,6640
wearing,6641
weather,6642
weaving,6643
weblog,6644
website,6645
websites,6646
wednesday,6647
wee,6648
weed,6649
week,6650
weeks,6651
weep,6652
weight,6653
weird,6654
weirdos,6655
welcome,6656
well,6657
weltanschauung,6658
wendy,6659
wendyman,6660
wendymann,6661
went,6662
wepaons,6663
were,6664
weren,6665
werent,6666
west,6667
western,6668
westerner,6669
wests,6670
westward,6671
wether,6672
wets,6673
what,6674
whatever,6675
whats,6676
whatsoever,6677
wheedling,6678
wheezing,6679
when,6680
whenever,6681
where,6682
whereas,6683
wherever,6684
whether,6685
whic,6686
which,6687
whichever,6688
while,6689
whilst,6690
whinger,6691
whining,6692
whip,6693
whisky,6694
white,6695
whites,6696
whitey,6697
who,6698
whole,6699
wholy,6700
whom,6701
whoops,6702
whose,6703
whosoever,6704
why,6705
wide,6706
widely,6707
wider,6708
widespread,6709
widow,6710
wiener,6711
wife,6712
wik,6713
wikipedia,6714
wild,6715
will,6716
williams,6717
willing,6718
willingness,6719
wing,6720
wingers,6721
wings,6722
winner,6723
winners,6724
winning,6725
wioth,6726
wipe,6727
wiped,6728
wiping,6729
wisdom,6730
wish,6731
wishes,6732
wishywashyness,6733
with,6734
witha,6735
withdraw,6736
withdrawing,6737
withdrawn,6738
withdrawned,6739
withdrw,6740
within,6741
without,6742
withref,6743
withstand,6744
witness,6745
witnessed,6746
witnesses,6747
witty,6748
wmd,6749
wmds,6750
woe,6751
woken,6752
wolfowitz,6753
woman,6754
women,6755
won,6756
wonder,6757
wondered,6758
wonderful,6759
wonderfully,6760
wonderign,6761
wondering,6762
wonders,6763
wont,6764
woolwich,6765
word,6766
worded,6767
words,6768
wore,6769
work,6770
worked,6771
worker,6772
workers,6773
workforce,6774
working,6775
works,6776
workshops,6777
world,6778
worldwide,6779
worms,6780
worried,6781
worries,6782
worry,6783
worrying,6784
worse,6785
worship,6786
worst,6787
worth,6788
worthy,6789
would,6790
wouldn,6791
wouldnt,6792
wounded,6793
wounding,6794
wow,6795
wp,6796
wragg,6797
wraggers,6798
wriggle,6799
write,6800
writing,6801
written,6802
wrong,6803
wrote,6804
wrt,6805
wsj,6806
wtc,6807
wto,6808
wums,6809
wwii,6810
wwparsedonedigit,6811
www,6812
xavier,6813
ya,6814
yank,6815
yanks,6816
yard,6817
yawn,6818
ye,6819
yea,6820
yeah,6821
year,6822
yearly,6823
years,6824
yeh,6825
yehudi,6826
yellow,6827
yep,6828
yes,6829
yet,6830
yield,6831
yields,6832
yo,6833
yoav,6834
yoke,6835
yor,6836
york,6837
yorkshire,6838
yossarian,6839
you,6840
young,6841
younger,6842
your,6843
yours,6844
yourself,6845
yourselves,6846
yout,6847
youth,6848
yrs,6849
yummy,6850
yup,6851
yvonne,6852
zabacs,6853
zabak,6854
zarqawi,6855
zebra,6856
zebras,6857
zebrasviewpoint,6858
zeldalicious,6859
zero,6860
zi,6861
zidane,6862
zimbabwe,6863
zionism,6864
zionist,6865
zionists,6866
zoltán,6867
zone,6868
zones,6869
