aargh,0
according,1
ace,2
activist,3
ago,4
airline,5
als,6
alsicebucketchallenge,7
american,8
americans,9
amp,10
andi,11
android,12
angeles,13
app,14
apparently,15
arguably,16
arm,17
ass,18
assâ,19
atheist,20
attack,21
attacks,22
attempting,23
attitude,24
away,25
baby,26
bags,27
band,28
bangladesh,29
base,30
beautiful,31
bed,32
beetles,33
begins,34
benjamin,35
best,36
better,37
biggest,38
black,39
bobbijparsedfourdigits,40
borders,41
bowling,42
bradlee,43
bradley,44
bremaxwell,45
brilliance,46
brownies,47
bucket,48
bug,49
called,50
canceled,51
car,52
certainly,53
cfarrisparsedtwodigits,54
challenge,55
charge,56
cheapest,57
cheers,58
cheney,59
childish,60
clear,61
clegg,62
coincidence,63
comfort,64
commits,65
completely,66
condi,67
constantly,68
convergence,69
cooper,70
core,71
country,72
cover,73
crashed,74
critically,75
crow,76
curie,77
cut,78
davidjoachim,79
day,80
days,81
decapitating,82
dem,83
democracy,84
demolished,85
dentist,86
depose,87
did,88
died,89
directions,90
donation,91
donâ,92
door,93
drinking,94
driving,95
dropbox,96
drowning,97
eastern,98
effectively,99
election,100
ells,101
enjoy,102
epic,103
eradicate,104
ethics,105
europeans,106
exploit,107
facebook,108
fantastic,109
fascism,110
fascist,111
faster,112
field,113
fifa,114
flights,115
floods,116
fo,117
folkâ,118
forged,119
forgoes,120
forward,121
founder,122
fucking,123
funny,124
gaza,125
gej,126
genocide,127
george,128
getright,129
ggreenwald,130
girl,131
giving,132
god,133
goes,134
going,135
good,136
gop,137
got,138
government,139
grants,140
greatestâ,141
guns,142
guy,143
hackers,144
hahahaha,145
harrison,146
hashtags,147
hate,148
hates,149
hayleighmarieox,150
health,151
heart,152
heartbleed,153
heat,154
hope,155
hot,156
htsjlparsedonedigittywe,157
http,158
https,159
huffpostweird,160
ice,161
icezia,162
ichabod,163
illdrinktothat,164
illegalamnesty,165
illiteracy,166
immunity,167
indian,168
infestation,169
infested,170
injured,171
insecure,172
instead,173
interested,174
internet,175
introduce,176
invade,177
invented,178
iparsedtwodigitsnews_en,179
irony,180
ironylevelparsedfourdigits,181
ironyunlimited,182
isparsedonedigitthe,183
israel,184
jesuischarlie,185
jesus,186
jfpparsedonedigiterbozx,187
journalism,188
judge,189
judged,190
just,191
kate,192
katomart,193
keepin,194
kerry,195
keurig,196
kharkiv,197
khilafahparsedthreedigits,198
killed,199
kindle,200
king,201
kingobama,202
kparsedonedigitwparseddigitshmvjht,203
lately,204
laughing,205
leaflets,206
leaving,207
leftist,208
lesson,209
life,210
line,211
listening,212
literacy,213
lives,214
ll,215
lobby,216
longer,217
looking,218
los,219
lost,220
louisck,221
loves,222
lt,223
machine,224
make,225
malaysian,226
marie,227
marvelously,228
marvins,229
mary,230
mate,231
mean,232
meetthepress,233
memorial,234
memory,235
mexico,236
minute,237
missing,238
mother,239
mouths,240
movie,241
mr,242
murdered,243
naijanerd,244
nation,245
new,246
nick,247
noah,248
nocricket,249
nynnvwparsedtwodigitswy,250
obama,251
oblivion,252
odi,253
office,254
okay,255
omeisy,256
ones,257
onparsedonedigitmeal,258
oparsedonedigitgqiaarbf,259
options,260
oswald,261
otbewggbtj,262
overload,263
paid,264
park,265
parseddigits,266
parsedfourdigits,267
parsedonedigit,268
parsedonedigitgntibiqei,269
parsedonedigitst,270
parsedonedigituvphqlparsedtwodigitsx,271
parsedonedigitwumfparsedonedigitpcll,272
parsedthreedigits,273
parsedtwodigits,274
parsedtwodigitsk,275
passed,276
people,277
performance,278
pine,279
plan,280
planted,281
point,282
politics,283
poor,284
poorest,285
posting,286
postponement,287
president,288
pretextâ,289
pretty,290
pro,291
probably,292
profession,293
program,294
proposition,295
public,296
puffing,297
qpparsedonedigitbsparsedonedigitehye,298
queen,299
random,300
rash,301
ready,302
real,303
really,304
rebuild,305
regret,306
reopened,307
republican,308
response,309
return,310
rice,311
rich,312
richer,313
rifle,314
rob,315
robbed,316
roll,317
rooting,318
roryhaynesparsedfourdigits,319
royals,320
rt,321
running,322
russia,323
ryanbleslie,324
sad,325
said,326
salon,327
sawston,328
say,329
says,330
screening,331
search,332
seen,333
seriouslywhat,334
set,335
shots,336
shouting,337
shuts,338
silently,339
simple,340
sleepyhollow,341
spending,342
srisulgceo,343
stalking,344
stand,345
start,346
states,347
stay,348
straight,349
subtweeting,350
sure,351
surely,352
talking,353
targeted,354
tattooed,355
team,356
tearing,357
thailand,358
theater,359
thebachelorette,360
thebeatles,361
thetimes,362
timing,363
today,364
torture,365
torturereport,366
tparsedonedigitqanimpic,367
tragic,368
transforms,369
tree,370
trumped,371
try,372
trying,373
tweet,374
twitter,375
typed,376
tâ,377
ukip,378
ukraine,379
universal,380
university,381
usa,382
use,383
using,384
value,385
ve,386
video,387
vital,388
voice,389
wanting,390
warns,391
watching,392
waze,393
website,394
week,395
weekend,396
whilst,397
wifi,398
womb,399
women,400
wonder,401
world,402
wounded,403
yahoonews,404
years,405
yell,406
yes,407
yoof,408
zaxjepteparsedtwodigits,409
zumrfyparsedonedigitdci,410
ðÿ,411
œforeignersâ,412
œgod,413
œon,414
œyou,415
