abandoned,0
ability,1
able,2
abroad,3
abrogated,4
absolutely,5
absurd,6
abundance,7
abuse,8
abused,9
abuses,10
accept,11
acceptable,12
acceptance,13
accepted,14
access,15
accident,16
accidents,17
acclimatized,18
according,19
account,20
accountable,21
accrued,22
accuracy,23
accurate,24
accusations,25
accusing,26
accutane,27
acid,28
acidparsedonedigit,29
acorn,30
act,31
acting,32
action,33
actions,34
activated,35
active,36
activist,37
activities,38
activity,39
actor,40
acts,41
actual,42
actuality,43
actually,44
ad,45
adapt,46
adapted,47
add,48
added,49
adding,50
addition,51
additionally,52
address,53
addressed,54
adhd,55
admin,56
administration,57
administrative,58
admires,59
admission,60
admitted,61
adobe,62
adopt,63
ads,64
advance,65
advanced,66
advancing,67
advantage,68
advertising,69
aeroflop,70
aeroflot,71
affairs,72
affect,73
affected,74
afford,75
afghanistan,76
afraid,77
africa,78
afternoon,79
age,80
aged,81
agencies,82
agency,83
agenda,84
agendas,85
agents,86
aggressive,87
agm,88
ago,89
agree,90
agreeing,91
agriculture,92
ahaha,93
ahh,94
ahhhhhhhhhhhhhhhhhhhhhhhhhhhhhhhhhhhhhhhhhhhhhhhhhhhhh,95
aid,96
aids,97
aim,98
air,99
airplane,100
aka,101
al,102
alaska,103
album,104
alcohol,105
alert,106
ales,107
alex,108
alexx,109
alittle,110
alliance,111
allied,112
allies,113
allow,114
allowed,115
allowing,116
allows,117
alot,118
alternate,119
alternative,120
amazes,121
amazing,122
amazingly,123
ambulances,124
america,125
american,126
americans,127
ammunition,128
amnesty,129
amp,130
amtrak,131
ana,132
analogies,133
analyzed,134
andrew,135
angeles,136
anger,137
angle,138
animal,139
animals,140
ankle,141
annoyances,142
annoying,143
annul,144
answer,145
answering,146
anti,147
antiquated,148
antiwar,149
anymore,150
anytime,151
apart,152
aphrodite,153
apocalypse,154
apologize,155
apology,156
apostrophe,157
app,158
appalled,159
apparently,160
appeal,161
appearance,162
appears,163
appetite,164
apple,165
applied,166
apply,167
appreciate,168
approach,169
approaching,170
approval,171
apps,172
april,173
aprobation,174
apt,175
arab,176
arabia,177
arabians,178
archie,179
architechts,180
area,181
aren,182
argue,183
arguing,184
argument,185
arizona,186
arlington,187
arms,188
array,189
arrested,190
arrestee,191
arresting,192
arrow,193
article,194
articles,195
artificial,196
artificially,197
artsy,198
ascii,199
ashamed,200
ashcroft,201
aside,202
ask,203
asks,204
asm,205
aspen,206
ass,207
assaulting,208
assembly,209
assertion,210
assessments,211
assets,212
assholes,213
associate,214
assume,215
assuming,216
assure,217
asterisked,218
asthma,219
astounds,220
atm,221
atmospheric,222
atom,223
atomic,224
attached,225
attack,226
attacked,227
attacking,228
attacks,229
attatched,230
attempt,231
attention,232
aud,233
audience,234
authentication,235
author,236
authority,237
authorized,238
authorizes,239
authors,240
auto,241
automatically,242
automation,243
available,244
average,245
avoid,246
avoidance,247
avoided,248
avowed,249
award,250
awards,251
aware,252
away,253
awesome,254
awesoome,255
awkward,256
awol,257
ayway,258
az,259
babe,260
baby,261
background,262
backs,263
backwards,264
bacon,265
bacteria,266
bad,267
badass,268
badly,269
bag,270
bags,271
bail,272
bailout,273
bailouts,274
baiting,275
balances,276
bale,277
ball,278
balloon,279
balls,280
ballz,281
ban,282
bands,283
bandwagon,284
bandwidth,285
bank,286
bankers,287
banking,288
banks,289
banned,290
banner,291
banning,292
bans,293
bar,294
barbarians,295
barely,296
bargain,297
barracks,298
barrel,299
barry,300
base,301
baseball,302
based,303
basement,304
basic,305
basically,306
basics,307
basis,308
bastard,309
bastardizing,310
batshit,311
batteries,312
battery,313
bbc,314
beach,315
bear,316
beat,317
beatings,318
beautiful,319
bed,320
beer,321
beers,322
beethoven,323
begets,324
begin,325
begining,326
behave,327
behaves,328
beholden,329
believe,330
believes,331
bell,332
belly,333
belt,334
belts,335
bench,336
benefits,337
benifits,338
benign,339
benjamin,340
bent,341
benz,342
best,343
bested,344
bestiality,345
bet,346
beta,347
betcha,348
bethesda,349
better,350
bible,351
bidgtls,352
biff,353
big,354
bigger,355
biggest,356
billion,357
billions,358
bird,359
bisexual,360
bit,361
bitch,362
bitching,363
bite,364
bittorent,365
bj,366
black,367
blackface,368
blacklabelsar,369
blame,370
blamed,371
blanks,372
blast,373
bleed,374
blemish,375
blessed,376
blew,377
blind,378
blindly,379
bliss,380
bll,381
blog,382
blogs,383
blogspam,384
bloom,385
blow,386
blowhards,387
blue,388
blurred,389
board,390
boat,391
boating,392
boatload,393
bobby,394
bodies,395
body,396
bogus,397
bollocks,398
bomb,399
bombing,400
bombula,401
boner,402
bong,403
bonus,404
book,405
bookmarked,406
books,407
bored,408
borg,409
borne,410
boss,411
bosworth,412
bother,413
bothered,414
bottle,415
bought,416
bounce,417
bounds,418
bovine,419
bowtie,420
box,421
boy,422
bparsedtwodigitsm,423
brad,424
bragged,425
brain,426
brains,427
brake,428
brandon,429
brave,430
braves,431
break,432
breaking,433
breaks,434
breakthroughs,435
breeding,436
brewers,437
bribe,438
brick,439
briefcase,440
briefly,441
bright,442
bring,443
bringing,444
brings,445
broke,446
broken,447
bros,448
brother,449
brothers,450
browser,451
browsers,452
bs,453
btw,454
bubble,455
bubbles,456
buchanan,457
bucks,458
budget,459
buffet,460
bug,461
buggers,462
build,463
builder,464
builders,465
building,466
buildings,467
built,468
bull,469
bullets,470
bullshit,471
bum,472
bumble,473
bunch,474
bundle,475
bunker,476
bureau,477
buried,478
buries,479
burn,480
burried,481
burrito,482
burrying,483
bury,484
bush,485
business,486
bust,487
busted,488
butt,489
butts,490
buy,491
buyers,492
buying,493
bypass,494
cabinet,495
cages,496
cali,497
calibrated,498
california,499
called,500
calls,501
cambodia,502
came,503
camel,504
camera,505
caminiti,506
camp,507
campaign,508
camps,509
canada,510
canals,511
cancel,512
cancer,513
candles,514
cannabis,515
canseco,516
cap,517
capable,518
capitalism,519
capitalization,520
caps,521
captain,522
capture,523
captured,524
car,525
carbon,526
carcinogens,527
card,528
cardinals,529
care,530
career,531
careful,532
cares,533
carry,534
carrying,535
cars,536
cartridge,537
case,538
cases,539
cash,540
cashparsedonedigitgold,541
casual,542
cat,543
catalog,544
catch,545
catechism,546
categorically,547
category,548
catering,549
catholic,550
cats,551
caught,552
cause,553
caused,554
causes,555
celebrity,556
cell,557
cellphones,558
cemetery,559
census,560
cent,561
center,562
centers,563
centigrade,564
centrist,565
cents,566
century,567
ceo,568
certain,569
certainly,570
certified,571
chad,572
chain,573
chairman,574
challenging,575
chance,576
chances,577
change,578
changed,579
changes,580
changing,581
channels,582
character,583
characteristic,584
charge,585
charged,586
charger,587
chargers,588
charges,589
chastise,590
cheap,591
cheaper,592
cheated,593
cheaters,594
cheating,595
check,596
checker,597
cheer,598
cheers,599
chemically,600
cheney,601
cherry,602
chicago,603
chickens,604
chief,605
child,606
childish,607
children,608
chimp,609
china,610
chinese,611
choice,612
choose,613
chosen,614
christ,615
christian,616
christianity,617
christians,618
christmas,619
christopher,620
chuck,621
church,622
cia,623
citations,624
cite,625
cites,626
cities,627
citizen,628
citizens,629
city,630
civil,631
civilians,632
claim,633
claimed,634
claiming,635
claptrap,636
class,637
classes,638
classify,639
claus,640
clause,641
clean,642
cleaned,643
clear,644
clearly,645
clever,646
click,647
climate,648
climber,649
clinton,650
close,651
closed,652
closing,653
clothes,654
cloths,655
cloud,656
clown,657
clownhall,658
clowns,659
club,660
clump,661
clutters,662
coalition,663
cocaine,664
cockmeats,665
cocksuckers,666
codes,667
coherent,668
coincidence,669
coke,670
cokehead,671
colar,672
cold,673
collapse,674
collect,675
collection,676
college,677
colleges,678
colombiano,679
com,680
comcast,681
come,682
comedy,683
comes,684
comfort,685
coming,686
comment,687
commentary,688
commenting,689
comments,690
commercial,691
commericals,692
commit,693
committed,694
common,695
communicate,696
communist,697
communists,698
communities,699
community,700
companies,701
company,702
comparable,703
compared,704
comparison,705
compass,706
compassion,707
compensate,708
compete,709
competent,710
competition,711
competitive,712
complain,713
complaining,714
complains,715
complaints,716
complete,717
completely,718
compliance,719
complicated,720
comprehend,721
comprehension,722
comprised,723
compromise,724
compromised,725
computer,726
concept,727
concerned,728
concerning,729
concerns,730
conclusion,731
conclusive,732
condition,733
conditions,734
conduct,735
conducting,736
confederate,737
confidence,738
confident,739
configuration,740
confirmed,741
confiscated,742
conflict,743
confused,744
congratulations,745
congress,746
connected,747
consensus,748
consequence,749
consequences,750
conservative,751
conservatives,752
consider,753
considerable,754
considered,755
considering,756
consistently,757
console,758
constant,759
constituents,760
constitutes,761
constitution,762
constitutional,763
constitutionality,764
construct,765
constructing,766
construction,767
consumer,768
consumption,769
containing,770
content,771
continually,772
continue,773
continues,774
contracts,775
contradictory,776
contrary,777
contribute,778
contributes,779
contribution,780
control,781
controlled,782
controller,783
controlling,784
controversial,785
controversy,786
conveniently,787
convert,788
converted,789
convicted,790
conviction,791
convictions,792
cool,793
cooler,794
coordination,795
cop,796
coparsedonedigit,797
copies,798
cops,799
copy,800
copying,801
copyright,802
copyrighted,803
copywritten,804
corel,805
cornerstone,806
corollary,807
corporate,808
corporates,809
corporations,810
correct,811
correctly,812
corrupt,813
corruption,814
cost,815
costs,816
couch,817
couldn,818
counsel,819
counterparts,820
countries,821
country,822
counts,823
county,824
couple,825
coupon,826
course,827
court,828
courtesy,829
cover,830
coverage,831
covers,832
cowsay,833
crack,834
cracked,835
crap,836
crash,837
crashing,838
crate,839
crazy,840
cream,841
create,842
created,843
creating,844
creative,845
creativity,846
creatures,847
credibility,848
credit,849
creed,850
crime,851
crimes,852
criminal,853
criminals,854
critics,855
crook,856
cross,857
crowd,858
crucifixion,859
crying,860
cuba,861
cue,862
culprits,863
cult,864
cultural,865
culture,866
cunts,867
cup,868
curb,869
cure,870
curing,871
currency,872
current,873
curry,874
curse,875
curtain,876
curtis,877
curve,878
cut,879
cute,880
cuts,881
cycle,882
cycles,883
cyprots,884
daft,885
dagger,886
daily,887
dal,888
damage,889
damn,890
damned,891
dangerous,892
darcine,893
dark,894
darth,895
darwinism,896
daschle,897
data,898
datum,899
david,900
day,901
days,902
dea,903
dead,904
deaf,905
deal,906
deals,907
dear,908
death,909
deaths,910
debate,911
debated,912
debt,913
december,914
decide,915
decided,916
decimate,917
decision,918
decisions,919
declare,920
declined,921
decrease,922
deep,923
deeper,924
default,925
defective,926
defendent,927
defense,928
deficits,929
defined,930
definitely,931
defunct,932
degrees,933
delete,934
deliberately,935
deliver,936
dell,937
demand,938
demands,939
democratic,940
democrats,941
dems,942
denied,943
denier,944
denis,945
dep,946
department,947
departments,948
depends,949
deployment,950
depravity,951
depreciation,952
depression,953
deprogrammed,954
deserves,955
deserving,956
design,957
desirable,958
desire,959
desks,960
desperate,961
desperately,962
despite,963
destroy,964
destroyed,965
destroying,966
destruction,967
detective,968
determined,969
detour,970
devalue,971
developer,972
development,973
devious,974
devised,975
devoted,976
dhs,977
diagnosed,978
dialing,979
dick,980
dickhead,981
dickwad,982
did,983
didn,984
didnt,985
die,986
difference,987
different,988
difficult,989
difficulties,990
dig,991
digg,992
digger,993
diggers,994
digging,995
diggs,996
digital,997
diminutive,998
dimona,999
dinosaur,1000
directed,1001
direction,1002
directors,1003
dirty,1004
disability,1005
disabled,1006
disagree,1007
disappeared,1008
disappointed,1009
discipline,1010
disclosing,1011
discourse,1012
discover,1013
discovered,1014
discrimination,1015
discuss,1016
discussed,1017
discussion,1018
disease,1019
diseases,1020
disgrace,1021
disgusting,1022
disordered,1023
disorders,1024
displayed,1025
disputes,1026
disregard,1027
dissident,1028
distribute,1029
distribution,1030
disturbing,1031
diverging,1032
diversity,1033
doable,1034
doccasionally,1035
doccers,1036
doctor,1037
doctors,1038
doctrine,1039
documentaries,1040
documentary,1041
does,1042
doesn,1043
dog,1044
dogs,1045
doing,1046
doings,1047
dollar,1048
dollars,1049
domain,1050
domestic,1051
domesticated,1052
domination,1053
don,1054
dont,1055
door,1056
doors,1057
dope,1058
doses,1059
double,1060
doubt,1061
douche,1062
dough,1063
downey,1064
download,1065
downloading,1066
downloads,1067
dozen,1068
dr,1069
draino,1070
drastic,1071
draw,1072
drawer,1073
dream,1074
dress,1075
drink,1076
drinker,1077
drinking,1078
drinks,1079
drive,1080
drivel,1081
driven,1082
driver,1083
drives,1084
driving,1085
drm,1086
drop,1087
dropped,1088
dropping,1089
drug,1090
drugs,1091
drumroll,1092
drunk,1093
dry,1094
ds,1095
dtv,1096
dude,1097
dugg,1098
dumb,1099
dumber,1100
dumbs,1101
dumbya,1102
dump,1103
dunno,1104
duplicate,1105
duplicates,1106
dust,1107
duty,1108
dvd,1109
eager,1110
earc,1111
early,1112
earmark,1113
earnings,1114
earth,1115
easier,1116
easily,1117
easy,1118
eat,1119
ebonics,1120
ebooks,1121
echelons,1122
eclectic,1123
economic,1124
economics,1125
economists,1126
economy,1127
ed,1128
edit,1129
editor,1130
edmonds,1131
educated,1132
eeepc,1133
effect,1134
effective,1135
effects,1136
efficiency,1137
effort,1138
ego,1139
egypt,1140
ehhhhh,1141
elected,1142
election,1143
electric,1144
electrical,1145
electronic,1146
elementary,1147
eligible,1148
eliminating,1149
em,1150
email,1151
embargo,1152
embarrass,1153
embarrassment,1154
embarrassments,1155
eminem,1156
emissions,1157
emmanuel,1158
emotional,1159
employed,1160
employees,1161
encounter,1162
encourage,1163
encourages,1164
end,1165
ending,1166
endorsed,1167
ends,1168
energy,1169
enforced,1170
enforcement,1171
engine,1172
english,1173
enhanced,1174
enhancement,1175
enjoy,1176
enjoyed,1177
enron,1178
enthusiasm,1179
entire,1180
entirely,1181
entrenched,1182
enviro,1183
environment,1184
ep,1185
episode,1186
equal,1187
equally,1188
equals,1189
equation,1190
equipment,1191
equivalent,1192
er,1193
erase,1194
ericsccparsedonedigitdemocrats,1195
erode,1196
errands,1197
errors,1198
escape,1199
especially,1200
essentially,1201
established,1202
estimate,1203
et,1204
ethics,1205
ethnic,1206
etiquette,1207
europeans,1208
evaporate,1209
evasion,1210
eventually,1211
everybody,1212
evidence,1213
evidently,1214
evil,1215
evolution,1216
ex,1217
exact,1218
exacting,1219
exactly,1220
examined,1221
example,1222
examples,1223
excellent,1224
exceptional,1225
excesses,1226
excessive,1227
excuse,1228
execs,1229
executable,1230
executive,1231
executives,1232
exhausted,1233
exist,1234
existed,1235
existing,1236
exists,1237
expectations,1238
expected,1239
expecting,1240
expense,1241
expensive,1242
experience,1243
experiments,1244
explain,1245
explains,1246
explanation,1247
exploded,1248
explodes,1249
export,1250
exposed,1251
exposes,1252
express,1253
extended,1254
exterminated,1255
extinct,1256
extra,1257
extras,1258
extreme,1259
extremely,1260
extremes,1261
eye,1262
eyes,1263
fa,1264
face,1265
facebook,1266
facepalm,1267
facilities,1268
facility,1269
fact,1270
factors,1271
facts,1272
factually,1273
fag,1274
faggot,1275
fags,1276
fail,1277
failed,1278
failing,1279
fails,1280
failure,1281
fair,1282
fairly,1283
fake,1284
fallacy,1285
falls,1286
families,1287
family,1288
fan,1289
fanboy,1290
fancy,1291
fannie,1292
fans,1293
fantastic,1294
fantasy,1295
fantatics,1296
far,1297
fares,1298
farfromperfectx,1299
farm,1300
farms,1301
fashion,1302
fast,1303
fastball,1304
faster,1305
fastest,1306
fat,1307
fathers,1308
fatigue,1309
fault,1310
fauna,1311
faux,1312
favor,1313
favorite,1314
fbi,1315
fear,1316
fears,1317
feasible,1318
feature,1319
features,1320
featuring,1321
feb,1322
fed,1323
federal,1324
fedex,1325
feed,1326
feeds,1327
feel,1328
feeling,1329
feels,1330
feet,1331
felines,1332
fella,1333
fellow,1334
felon,1335
felonies,1336
felt,1337
fema,1338
female,1339
fertility,1340
fertilization,1341
fewer,1342
ff,1343
ffs,1344
fiction,1345
field,1346
fight,1347
fighting,1348
fights,1349
figure,1350
figured,1351
figuring,1352
file,1353
filetype,1354
filing,1355
filled,1356
fillion,1357
film,1358
filters,1359
final,1360
financial,1361
finding,1362
fine,1363
fing,1364
finger,1365
firearm,1366
firearms,1367
firebugs,1368
firefox,1369
firetrucks,1370
firm,1371
fiscal,1372
fish,1373
fix,1374
fl,1375
flash,1376
flashing,1377
flattery,1378
flavored,1379
flood,1380
flooded,1381
floor,1382
flowers,1383
fly,1384
flyballs,1385
flying,1386
focus,1387
folks,1388
follow,1389
following,1390
food,1391
fool,1392
foolish,1393
fools,1394
football,1395
footprint,1396
force,1397
forced,1398
forces,1399
forcing,1400
ford,1401
forecefully,1402
forehead,1403
foreign,1404
forensic,1405
forever,1406
forfeit,1407
forget,1408
forgive,1409
forklift,1410
forks,1411
form,1412
format,1413
formats,1414
fortunately,1415
forums,1416
forward,1417
fought,1418
foul,1419
founding,1420
fox,1421
foxit,1422
fp,1423
fparsedonedigit,1424
frame,1425
franklin,1426
fraud,1427
freak,1428
freakin,1429
freddie,1430
free,1431
freedom,1432
freely,1433
frequently,1434
fridayparsedfourdigits,1435
friend,1436
friends,1437
frost,1438
fuck,1439
fucked,1440
fuckin,1441
fucking,1442
fucktard,1443
fuel,1444
fulfill,1445
fully,1446
fun,1447
function,1448
fundamental,1449
funding,1450
fungi,1451
fungieparsedonedigit,1452
funnier,1453
funny,1454
furious,1455
furnish,1456
future,1457
futuregen,1458
futuristic,1459
fuuuuuuuuuuuuuuuuuuuuuuuuuuuuuuuckwatch,1460
fuzzy,1461
gaiden,1462
gained,1463
gains,1464
galaxy,1465
gallon,1466
gamble,1467
game,1468
games,1469
gamevee,1470
gaming,1471
gaqua,1472
gas,1473
gate,1474
gates,1475
gather,1476
gave,1477
gay,1478
gbvista,1479
gdp,1480
gee,1481
geek,1482
geeze,1483
generalizing,1484
generally,1485
generated,1486
generation,1487
genitalia,1488
genius,1489
genuine,1490
geoblocking,1491
german,1492
germans,1493
germany,1494
gestapo,1495
gets,1496
getting,1497
getup,1498
giants,1499
gift,1500
gifts,1501
gin,1502
girl,1503
girls,1504
given,1505
gives,1506
giving,1507
glad,1508
glasses,1509
glitz,1510
global,1511
globe,1512
glove,1513
glowing,1514
gm,1515
gmail,1516
gneural,1517
goal,1518
goat,1519
goatee,1520
god,1521
goddamn,1522
godwin,1523
goes,1524
going,1525
gold,1526
golden,1527
goldmine,1528
gone,1529
gonna,1530
good,1531
goods,1532
google,1533
gop,1534
gorilla,1535
got,1536
gotta,1537
governed,1538
government,1539
grabber,1540
grad,1541
graduate,1542
grammar,1543
grand,1544
granny,1545
granted,1546
graphic,1547
grasp,1548
grateful,1549
great,1550
greatest,1551
greed,1552
greedy,1553
green,1554
greeter,1555
gregg,1556
grievance,1557
gross,1558
ground,1559
group,1560
groups,1561
grow,1562
growing,1563
grown,1564
grows,1565
gsp,1566
guard,1567
guess,1568
guilty,1569
guitar,1570
gulag,1571
gun,1572
guns,1573
guy,1574
guys,1575
ha,1576
habit,1577
hack,1578
hackers,1579
hacks,1580
hah,1581
haha,1582
hahah,1583
hahahahaha,1584
hailed,1585
haircut,1586
half,1587
hall,1588
hamas,1589
hammer,1590
hand,1591
handed,1592
handicapped,1593
handle,1594
handles,1595
handling,1596
hang,1597
hannah,1598
happen,1599
happened,1600
happening,1601
happens,1602
happily,1603
happiness,1604
happy,1605
harbinger,1606
harbor,1607
harboring,1608
hard,1609
harder,1610
hardly,1611
hardware,1612
harmful,1613
harmless,1614
harness,1615
harrison,1616
harvard,1617
hasn,1618
hat,1619
hate,1620
hated,1621
hatred,1622
haven,1623
having,1624
hazard,1625
head,1626
headed,1627
headquarters,1628
heads,1629
headshot,1630
health,1631
healthcare,1632
healthier,1633
hear,1634
heard,1635
hearing,1636
heath,1637
heck,1638
hefty,1639
heheh,1640
height,1641
held,1642
helicopter,1643
hell,1644
hello,1645
helluva,1646
helmsley,1647
help,1648
helpful,1649
herbs,1650
heroes,1651
herpes,1652
hey,1653
hi,1654
hidden,1655
hide,1656
high,1657
higher,1658
highlights,1659
hilarious,1660
hilariously,1661
hill,1662
hint,1663
hippocratic,1664
hiring,1665
history,1666
hit,1667
hitler,1668
hitters,1669
hmm,1670
hmmm,1671
hold,1672
holder,1673
holding,1674
hole,1675
holes,1676
holocaust,1677
holy,1678
home,1679
homeland,1680
homeless,1681
homers,1682
homerun,1683
hominem,1684
homosexual,1685
homosexuality,1686
homosexuals,1687
honest,1688
honestly,1689
honesty,1690
honey,1691
honored,1692
hook,1693
hooker,1694
hoopla,1695
hooray,1696
hoot,1697
hope,1698
hoping,1699
horizon,1700
horizontal,1701
horrible,1702
horrific,1703
horror,1704
host,1705
hot,1706
hotel,1707
hours,1708
house,1709
houses,1710
housing,1711
howard,1712
htc,1713
htpc,1714
hubris,1715
huffington,1716
huffingtonpost,1717
huge,1718
human,1719
humanitarian,1720
humanity,1721
hummers,1722
humor,1723
humorous,1724
hundreds,1725
hungry,1726
hunt,1727
hunter,1728
hurried,1729
hurt,1730
husband,1731
hybrid,1732
hybrids,1733
hype,1734
hypocrisy,1735
hysterical,1736
iajdsiofajsuparsedtwodigitsiparsedfivedigits,1737
ianal,1738
iasoparsedfourdigits,1739
icbms,1740
ice,1741
iceberg,1742
icon,1743
idea,1744
ideal,1745
ideals,1746
ideas,1747
identity,1748
ideology,1749
idiot,1750
idiotic,1751
idiots,1752
ifpa,1753
ignorance,1754
ignored,1755
ignoring,1756
ii,1757
ilk,1758
illegal,1759
illinois,1760
illness,1761
illnesses,1762
im,1763
image,1764
imaginary,1765
imagine,1766
imho,1767
immigrants,1768
immortal,1769
immune,1770
immunity,1771
impact,1772
impartial,1773
impending,1774
implement,1775
implemented,1776
import,1777
important,1778
impose,1779
impossible,1780
impressive,1781
improvement,1782
inaccuracy,1783
inaccurate,1784
inch,1785
inciting,1786
inclination,1787
include,1788
including,1789
incoherent,1790
income,1791
incoming,1792
inconvenienced,1793
incorrect,1794
increase,1795
increased,1796
increases,1797
increasingly,1798
incredible,1799
incredibly,1800
incumbents,1801
indefinitely,1802
independent,1803
indian,1804
indians,1805
indication,1806
individual,1807
individuals,1808
induces,1809
inducing,1810
industrial,1811
industry,1812
ineligible,1813
infamous,1814
infection,1815
infections,1816
inflation,1817
influence,1818
influences,1819
info,1820
information,1821
informative,1822
informed,1823
infrastructure,1824
infringe,1825
ing,1826
inhaling,1827
inhofe,1828
initiative,1829
initiatives,1830
injure,1831
injured,1832
injury,1833
innings,1834
innnovators,1835
innocent,1836
innovation,1837
input,1838
insane,1839
insecure,1840
insecurities,1841
insignificantly,1842
insinuation,1843
inspections,1844
inspiring,1845
install,1846
installation,1847
installations,1848
installment,1849
instant,1850
instantly,1851
instead,1852
instinct,1853
institute,1854
institutes,1855
institution,1856
insult,1857
insurance,1858
int,1859
integrate,1860
intelligence,1861
intelligent,1862
intelligentsia,1863
intend,1864
intended,1865
intense,1866
intensity,1867
interception,1868
interdependent,1869
interested,1870
interesting,1871
internal,1872
internet,1873
internets,1874
interpretation,1875
interventionist,1876
interview,1877
intoxicated,1878
intrepidia,1879
intrinsic,1880
intro,1881
introduced,1882
invade,1883
invaluable,1884
invented,1885
invest,1886
investigate,1887
investigated,1888
investigating,1889
investigation,1890
investigations,1891
investment,1892
invisible,1893
invoked,1894
involved,1895
involvement,1896
involves,1897
iparsedthreedigits,1898
iphone,1899
ipod,1900
iq,1901
iran,1902
irish,1903
irrational,1904
irrelevant,1905
irrelevent,1906
irresponsible,1907
irvine,1908
ish,1909
islam,1910
islamic,1911
isn,1912
isnt,1913
isps,1914
israel,1915
issue,1916
ivy,1917
ixam,1918
ixquick,1919
jack,1920
jackals,1921
jackass,1922
jacket,1923
jail,1924
january,1925
japan,1926
japanese,1927
jefferson,1928
jenkees,1929
jessica,1930
jesus,1931
jesusneverexisted,1932
jewish,1933
jews,1934
jfc,1935
jimmy,1936
jinandjuice,1937
job,1938
jobs,1939
jogging,1940
john,1941
join,1942
joined,1943
joke,1944
jokes,1945
jolly,1946
jon,1947
joomla,1948
journalist,1949
jr,1950
judge,1951
judging,1952
jumbo,1953
jump,1954
june,1955
junk,1956
jury,1957
just,1958
justice,1959
justices,1960
justification,1961
justify,1962
justifying,1963
kanye,1964
karl,1965
kate,1966
katt,1967
kde,1968
keepers,1969
keeps,1970
keg,1971
kegs,1972
ken,1973
kennedy,1974
kenneth,1975
kept,1976
kerrigore,1977
ketchup,1978
kevin,1979
key,1980
keyboard,1981
keynesianism,1982
kick,1983
kicked,1984
kicks,1985
kid,1986
kidd,1987
kidding,1988
kids,1989
kiiiiiinda,1990
kill,1991
killed,1992
killer,1993
killing,1994
killings,1995
kills,1996
kimmel,1997
kind,1998
kinda,1999
kindergarten,2000
kindle,2001
kingdom,2002
kinseyincanada,2003
kkk,2004
knew,2005
know,2006
knowing,2007
knowingly,2008
knowledge,2009
known,2010
knows,2011
kool,2012
koranimals,2013
korea,2014
kotaku,2015
krause,2016
krazy,2017
kroeger,2018
krugman,2019
kyl,2020
lab,2021
label,2022
labor,2023
labyrinth,2024
laced,2025
lack,2026
laffer,2027
laid,2028
lake,2029
lamb,2030
land,2031
language,2032
lantern,2033
lap,2034
large,2035
largely,2036
larry,2037
lasers,2038
lastly,2039
late,2040
lately,2041
later,2042
laugh,2043
laughable,2044
laughing,2045
launched,2046
laundry,2047
law,2048
lawn,2049
laws,2050
lawyers,2051
lay,2052
layer,2053
laying,2054
layoff,2055
ld,2056
leach,2057
leaches,2058
lead,2059
leaders,2060
leadership,2061
league,2062
leaked,2063
leaps,2064
learn,2065
learned,2066
lease,2067
leash,2068
leave,2069
ledger,2070
leeds,2071
leet,2072
left,2073
lefties,2074
leftist,2075
leftost,2076
legal,2077
legalize,2078
legalized,2079
legally,2080
legislation,2081
legislative,2082
legit,2083
lego,2084
legs,2085
lemur,2086
lenders,2087
lends,2088
leona,2089
leopard,2090
lesbians,2091
lest,2092
let,2093
lets,2094
letter,2095
letting,2096
level,2097
levels,2098
li,2099
liar,2100
libel,2101
liberal,2102
liberation,2103
liberties,2104
libraries,2105
libs,2106
licencing,2107
license,2108
licensed,2109
lie,2110
lies,2111
life,2112
lift,2113
light,2114
like,2115
likely,2116
likeness,2117
lil,2118
limited,2119
line,2120
lines,2121
link,2122
linked,2123
links,2124
list,2125
listen,2126
listened,2127
listening,2128
lists,2129
literal,2130
literate,2131
little,2132
live,2133
lives,2134
living,2135
ll,2136
load,2137
loan,2138
local,2139
localization,2140
locked,2141
log,2142
logic,2143
logon,2144
lol,2145
lold,2146
long,2147
longer,2148
longstanding,2149
look,2150
looking,2151
looks,2152
loose,2153
lord,2154
los,2155
lose,2156
loser,2157
loses,2158
losing,2159
loss,2160
losses,2161
lost,2162
lot,2163
lots,2164
love,2165
loved,2166
loveless,2167
lovelyness,2168
loves,2169
low,2170
lowcountry,2171
lower,2172
lowered,2173
lowering,2174
loyola,2175
luck,2176
lump,2177
lunch,2178
lures,2179
lying,2180
lyrics,2181
mac,2182
macbook,2183
macbooks,2184
machine,2185
machines,2186
macintosh,2187
mae,2188
magnificent,2189
mail,2190
main,2191
maine,2192
mainstream,2193
major,2194
majoring,2195
majority,2196
make,2197
makers,2198
makes,2199
making,2200
malaria,2201
male,2202
malfunctioning,2203
malls,2204
man,2205
managed,2206
management,2207
mandated,2208
maniac,2209
manifesto,2210
manipulating,2211
mantra,2212
manual,2213
manufacture,2214
manufacturers,2215
manufacturing,2216
marching,2217
marginal,2218
marginalizing,2219
margins,2220
marijuana,2221
mario,2222
market,2223
marketing,2224
marq,2225
marriage,2226
marriages,2227
married,2228
marry,2229
marshalls,2230
martinez,2231
marxism,2232
marxists,2233
maryland,2234
mash,2235
mass,2236
massively,2237
master,2238
mate,2239
material,2240
math,2241
matter,2242
matters,2243
mattoon,2244
maximum,2245
maybe,2246
mayer,2247
mayor,2248
mba,2249
mccain,2250
mcdonalds,2251
mcmansions,2252
mead,2253
mean,2254
meanie,2255
means,2256
meant,2257
measurement,2258
mechanical,2259
media,2260
medical,2261
medication,2262
medications,2263
medicine,2264
meet,2265
meh,2266
mel,2267
melbourne,2268
members,2269
membership,2270
meme,2271
memorization,2272
men,2273
mental,2274
mentality,2275
mentally,2276
mention,2277
mentioned,2278
merch,2279
merdieselnail,2280
merely,2281
message,2282
messed,2283
messiuh,2284
meth,2285
methanol,2286
method,2287
methods,2288
mets,2289
mexican,2290
mexico,2291
michael,2292
microbiology,2293
microcosim,2294
microorganism,2295
microsoft,2296
mid,2297
middle,2298
mighty,2299
mike,2300
miknarf,2301
mile,2302
mileage,2303
military,2304
milk,2305
million,2306
millionaire,2307
millions,2308
mind,2309
minded,2310
minerals,2311
mini,2312
minimal,2313
minimizes,2314
minimum,2315
minnesota,2316
minor,2317
minority,2318
minute,2319
minutes,2320
miracle,2321
miserable,2322
misguided,2323
misinterpret,2324
misleading,2325
misrepresenting,2326
miss,2327
missed,2328
missing,2329
mistake,2330
mistaken,2331
mix,2332
mmm,2333
moan,2334
moans,2335
mob,2336
mobile,2337
model,2338
modern,2339
mom,2340
moms,2341
monarchy,2342
money,2343
mongers,2344
monitor,2345
monster,2346
montana,2347
month,2348
months,2349
mootools,2350
moral,2351
morality,2352
morally,2353
morals,2354
mormon,2355
moron,2356
morons,2357
mortgage,2358
mother,2359
motherfuckers,2360
motion,2361
motivation,2362
motivations,2363
motive,2364
motofone,2365
moved,2366
movement,2367
moveon,2368
movie,2369
moving,2370
mowe,2371
mozart,2372
mpaa,2373
mpparsedonedigit,2374
mrbabyman,2375
ms,2376
muahahahahaha,2377
muck,2378
mud,2379
muhammad,2380
mumbai,2381
mumbo,2382
murder,2383
murdered,2384
murderous,2385
music,2386
muslim,2387
muslims,2388
mystery,2389
nah,2390
nail,2391
nailed,2392
naive,2393
named,2394
narcotics,2395
nasa,2396
nathan,2397
nation,2398
national,2399
nationalist,2400
nationalization,2401
nationalized,2402
nationhood,2403
nations,2404
natives,2405
natural,2406
naturally,2407
nature,2408
nazi,2409
near,2410
necessarily,2411
necessary,2412
need,2413
needed,2414
needs,2415
neely,2416
negate,2417
negative,2418
negligible,2419
neighborhoods,2420
neighbors,2421
neo,2422
nes,2423
net,2424
network,2425
networks,2426
new,2427
news,2428
newspapers,2429
ng,2430
nice,2431
niconiconico,2432
nietzsche,2433
night,2434
nightmare,2435
ninja,2436
nintendo,2437
nite,2438
nobel,2439
noble,2440
nobodies,2441
nominees,2442
non,2443
nonconformist,2444
noob,2445
noooooo,2446
normal,2447
normally,2448
north,2449
northwatuppa,2450
norton,2451
nose,2452
note,2453
nothingness,2454
nothings,2455
notice,2456
notting,2457
noumuon,2458
noun,2459
novels,2460
nuke,2461
number,2462
numbers,2463
nut,2464
nutcases,2465
nuts,2466
nvidia,2467
nwo,2468
o_parsedonedigit,2469
oak,2470
oath,2471
obam,2472
obama,2473
object,2474
objectively,2475
obligation,2476
obsolete,2477
obvious,2478
obviously,2479
occasional,2480
occur,2481
occurred,2482
oceanic,2483
offensive,2484
offer,2485
office,2486
officer,2487
officers,2488
official,2489
officials,2490
oh,2491
ohshi,2492
oifdasparsedonedigitifasparsedthreedigits,2493
oil,2494
ok,2495
okay,2496
oklahoma,2497
old,2498
ones,2499
online,2500
ooh,2501
ooooooohhhhhhh,2502
op,2503
opelz,2504
open,2505
opens,2506
opera,2507
operating,2508
opinion,2509
opponents,2510
opportunity,2511
oppose,2512
opposed,2513
opposing,2514
oppurtunity,2515
optimal,2516
optimally,2517
options,2518
orange,2519
order,2520
ordinary,2521
oregon,2522
oregonian,2523
org,2524
organization,2525
orientation,2526
original,2527
os,2528
osama,2529
oscar,2530
osx,2531
ot,2532
outcome,2533
outer,2534
outright,2535
outrun,2536
outside,2537
overall,2538
overhaul,2539
overkill,2540
overload,2541
overpowered,2542
overpriced,2543
overreaction,2544
overtime,2545
overused,2546
owl,2547
owner,2548
owners,2549
owning,2550
owns,2551
pack,2552
package,2553
packaging,2554
packed,2555
packet,2556
packing,2557
padded,2558
page,2559
pages,2560
paid,2561
paint,2562
pair,2563
palestinians,2564
palmero,2565
palooza,2566
pandering,2567
paper,2568
parachute,2569
paragraph,2570
parallel,2571
parent,2572
parents,2573
park,2574
parole,2575
parseddigits,2576
parseddigitsjkasdaopd,2577
parsedfivedigits,2578
parsedfourdigits,2579
parsedfourdigitsathlon,2580
parsedfourdigitsoijdf,2581
parsedfourdigitswho,2582
parsedonedigit,2583
parsedonedigitchan,2584
parsedonedigitd,2585
parsedonedigitth,2586
parsedonedigitx,2587
parsedthreedigits,2588
parsedthreedigitskz,2589
parsedthreedigitsmpg,2590
parsedtime,2591
parsedtwodigits,2592
parsedtwodigitss,2593
particular,2594
particularly,2595
parties,2596
partisan,2597
parts,2598
party,2599
pass,2600
passed,2601
passenger,2602
passes,2603
passwindow,2604
password,2605
past,2606
pasteurization,2607
patent,2608
patently,2609
path,2610
pathetic,2611
patrick,2612
patriot,2613
paul,2614
pay,2615
paygrade,2616
payment,2617
payments,2618
pays,2619
pc,2620
peace,2621
peaches,2622
pearl,2623
pedantic,2624
pedophiles,2625
peds,2626
peers,2627
pelt,2628
penalty,2629
penance,2630
penises,2631
people,2632
percentage,2633
percentages,2634
perception,2635
perfect,2636
perfectly,2637
performed,2638
periods,2639
permanence,2640
permissions,2641
perpetuates,2642
person,2643
persona,2644
personal,2645
personality,2646
personally,2647
persons,2648
perversity,2649
pesticides,2650
pet,2651
peter,2652
pets,2653
ph,2654
pharma,2655
phelps,2656
phenomena,2657
phone,2658
phones,2659
photo,2660
photos,2661
phrase,2662
physical,2663
physically,2664
picard,2665
pick,2666
picked,2667
picker,2668
pics,2669
picture,2670
pie,2671
piece,2672
pieces,2673
pile,2674
pills,2675
pilot,2676
pinch,2677
pint,2678
pipe,2679
pirate,2680
pissed,2681
pissing,2682
pistol,2683
pit,2684
pitcher,2685
pitchers,2686
pitches,2687
pitching,2688
pitt,2689
place,2690
placement,2691
placing,2692
plain,2693
plan,2694
plane,2695
planet,2696
planets,2697
planning,2698
plant,2699
plants,2700
platform,2701
platformers,2702
play,2703
played,2704
player,2705
players,2706
playing,2707
pleaded,2708
plenty,2709
plug,2710
plural,2711
plurality,2712
plus,2713
pm,2714
pnac,2715
pocket,2716
point,2717
points,2718
poison,2719
poisoning,2720
poisonous,2721
poitier,2722
pole,2723
poles,2724
police,2725
policies,2726
policy,2727
political,2728
politically,2729
politicians,2730
politiciansgo,2731
politics,2732
ponzi,2733
poor,2734
poorer,2735
pop,2736
pope,2737
population,2738
pork,2739
porn,2740
pornography,2741
position,2742
positions,2743
possession,2744
possessive,2745
possible,2746
possibly,2747
post,2748
posted,2749
poster,2750
posters,2751
posting,2752
postponed,2753
pot,2754
potentially,2755
potheads,2756
pounds,2757
power,2758
powerful,2759
powerplant,2760
pox,2761
ppl,2762
practical,2763
practice,2764
practiced,2765
practicing,2766
praise,2767
praying,2768
preaching,2769
precedent,2770
precisely,2771
predators,2772
predicting,2773
preference,2774
preferential,2775
pregnant,2776
preinstalled,2777
premise,2778
preparation,2779
presence,2780
present,2781
presented,2782
preserve,2783
presidency,2784
president,2785
press,2786
presses,2787
presumably,2788
pretend,2789
pretends,2790
pretty,2791
prevent,2792
prevention,2793
price,2794
prices,2795
prick,2796
priest,2797
principles,2798
print,2799
printed,2800
printing,2801
prior,2802
priority,2803
prison,2804
prisoner,2805
prisoners,2806
prisons,2807
privacy,2808
private,2809
privately,2810
privilege,2811
prize,2812
pro,2813
probability,2814
probably,2815
probed,2816
problem,2817
problems,2818
probs,2819
procedures,2820
process,2821
procreate,2822
produce,2823
produced,2824
producer,2825
product,2826
production,2827
productive,2828
products,2829
professional,2830
professionally,2831
professors,2832
profit,2833
profitable,2834
profiteer,2835
program,2836
programs,2837
progress,2838
project,2839
projects,2840
prominent,2841
promise,2842
promised,2843
promotes,2844
promoting,2845
promptly,2846
proof,2847
prop,2848
propaganda,2849
propeller,2850
proper,2851
properly,2852
properties,2853
property,2854
prophet,2855
proponents,2856
proportion,2857
proposed,2858
props,2859
prosecution,2860
prosecutions,2861
prosecutors,2862
prostitue,2863
protect,2864
protecting,2865
protectionism,2866
protectionist,2867
prove,2868
proved,2869
proven,2870
provide,2871
provided,2872
providing,2873
provision,2874
provisions,2875
ps,2876
psa,2877
pseudo,2878
psn,2879
psst,2880
psuedo,2881
psychiatrist,2882
psycho,2883
psychological,2884
psychopathic,2885
public,2886
publicity,2887
publicly,2888
publishing,2889
pubs,2890
pudge,2891
pull,2892
pulled,2893
pulling,2894
punch,2895
pundits,2896
punished,2897
purchases,2898
pure,2899
purse,2900
pursued,2901
pursuits,2902
push,2903
pushed,2904
pussy,2905
pussys,2906
puts,2907
putting,2908
puzzle,2909
pv,2910
pyramid,2911
qm,2912
quality,2913
quantities,2914
quantity,2915
quantum,2916
question,2917
questioned,2918
questions,2919
quick,2920
quiet,2921
quit,2922
quite,2923
quote,2924
quoted,2925
qwest,2926
rabbit,2927
race,2928
racism,2929
racist,2930
radiative,2931
radical,2932
radicals,2933
raffled,2934
rafikichi,2935
raging,2936
rahm,2937
raids,2938
rail,2939
raise,2940
raising,2941
rajim,2942
ram,2943
ramen,2944
rampant,2945
ranch,2946
range,2947
ranked,2948
ranking,2949
rant,2950
ranting,2951
rape,2952
rapidly,2953
rarely,2954
rate,2955
rates,2956
rating,2957
rational,2958
raving,2959
ray,2960
razor,2961
reaction,2962
read,2963
reader,2964
readers,2965
reading,2966
real,2967
reality,2968
realize,2969
realizing,2970
really,2971
reason,2972
reasonable,2973
reasonably,2974
reasons,2975
recall,2976
receive,2977
received,2978
receives,2979
recent,2980
recently,2981
recession,2982
recipe,2983
recognise,2984
recognize,2985
record,2986
recorded,2987
recording,2988
records,2989
red,2990
redeye,2991
reduce,2992
reduction,2993
reeve,2994
reference,2995
refers,2996
reflected,2997
refreshing,2998
refused,2999
refuses,3000
regard,3001
regarding,3002
regardless,3003
regimes,3004
region,3005
regret,3006
regular,3007
regularly,3008
regulation,3009
rehabilitation,3010
reilly,3011
reinstate,3012
rejected,3013
related,3014
relatively,3015
release,3016
released,3017
relegated,3018
relevant,3019
relief,3020
religion,3021
religious,3022
relying,3023
remained,3024
remains,3025
remaking,3026
remember,3027
reminded,3028
reminds,3029
remorse,3030
removed,3031
render,3032
rendition,3033
renegotiate,3034
renovating,3035
rent,3036
repayment,3037
repeat,3038
replace,3039
replenished,3040
reported,3041
reporters,3042
reports,3043
repost,3044
represent,3045
representation,3046
represents,3047
reproach,3048
republic,3049
republican,3050
republicans,3051
republithug,3052
require,3053
required,3054
rescue,3055
research,3056
reserve,3057
reserved,3058
resign,3059
resin,3060
resort,3061
resource,3062
resources,3063
respect,3064
responding,3065
response,3066
responsibility,3067
responsible,3068
rest,3069
restoration,3070
restoring,3071
restriction,3072
restrictions,3073
results,3074
retard,3075
retarded,3076
retire,3077
retrace,3078
retribution,3079
return,3080
returned,3081
revealing,3082
revenge,3083
revenues,3084
reverse,3085
reversing,3086
reviever,3087
review,3088
reviews,3089
revolution,3090
rewarding,3091
riaa,3092
rib,3093
rich,3094
rick,3095
rid,3096
ridden,3097
ride,3098
ridiculous,3099
rifle,3100
rifles,3101
rig,3102
right,3103
rights,3104
riled,3105
rino,3106
rinse,3107
ripp,3108
rips,3109
rise,3110
rivals,3111
river,3112
road,3113
roar,3114
robbots,3115
robbottodays,3116
robert,3117
robocop,3118
robotfindskitten,3119
robots,3120
robs,3121
rochester,3122
rock,3123
rocks,3124
rocky,3125
rodriguez,3126
roid,3127
role,3128
roll,3129
romance,3130
ron,3131
ronald,3132
room,3133
root,3134
rope,3135
rose,3136
rotate,3137
round,3138
roundup,3139
rove,3140
royalties,3141
rss,3142
rufies,3143
rugburn,3144
ruined,3145
rules,3146
run,3147
runners,3148
running,3149
runs,3150
rural,3151
rush,3152
rushycontin,3153
russian,3154
rustproofing,3155
ruth,3156
ryan,3157
sacrifice,3158
sad,3159
sadly,3160
safari,3161
safely,3162
safety,3163
said,3164
sake,3165
salaries,3166
sales,3167
sand,3168
santa,3169
saps,3170
sarc,3171
sarcasm,3172
sarcasmi,3173
sarcastic,3174
sat,3175
satellite,3176
satisfied,3177
saudi,3178
save,3179
saving,3180
saw,3181
say,3182
saying,3183
sayings,3184
says,3185
scale,3186
scam,3187
scandal,3188
scandinavia,3189
scarce,3190
scenario,3191
sceptical,3192
scheme,3193
schiff,3194
scholar,3195
school,3196
schoolgirls,3197
schools,3198
schwarzy,3199
science,3200
scientifically,3201
scientists,3202
scientology,3203
scott,3204
scratching,3205
screen,3206
screwed,3207
sea,3208
search,3209
season,3210
seat,3211
seated,3212
sec,3213
secessionist,3214
second,3215
secondly,3216
seconds,3217
secrecy,3218
secret,3219
secrets,3220
sect,3221
section,3222
sector,3223
secure,3224
secured,3225
security,3226
seeing,3227
seen,3228
seinfeld,3229
seized,3230
self,3231
selfish,3232
sell,3233
selling,3234
sells,3235
semi,3236
sen,3237
senate,3238
send,3239
senior,3240
sense,3241
sensible,3242
sensitivity,3243
sentence,3244
sentencing,3245
sentience,3246
seoul,3247
serendipitous,3248
seriously,3249
server,3250
servers,3251
service,3252
services,3253
set,3254
settings,3255
seven,3256
seventy,3257
severe,3258
sewer,3259
sex,3260
sexual,3261
sexually,3262
sexy,3263
sh,3264
shadows,3265
shady,3266
shall,3267
sham,3268
shame,3269
share,3270
shared,3271
shareholders,3272
sharers,3273
sharing,3274
sharks,3275
sharp,3276
sharpton,3277
sheesh,3278
sheriff,3279
shi,3280
shift,3281
shiny,3282
ship,3283
shit,3284
shitty,3285
shock,3286
shocking,3287
shoot,3288
shooting,3289
shops,3290
short,3291
shortfall,3292
shot,3293
shotgun,3294
shoulders,3295
shouts,3296
shoved,3297
showed,3298
showing,3299
shows,3300
shparsedonedigitts,3301
shrek,3302
shut,3303
shuttle,3304
sibel,3305
sick,3306
sickness,3307
sickthoughts,3308
sides,3309
sideswiped,3310
sift,3311
sighted,3312
sign,3313
signed,3314
significant,3315
significantly,3316
silence,3317
silk,3318
silly,3319
silver,3320
similar,3321
simple,3322
simply,3323
simpson,3324
simpsons,3325
sincerely,3326
single,3327
singular,3328
sir,3329
sirius,3330
site,3331
sites,3332
size,3333
skeptical,3334
skews,3335
skill,3336
skirt,3337
slap,3338
slaughters,3339
slavery,3340
sleek,3341
sleep,3342
sleeves,3343
slept,3344
slice,3345
slightest,3346
slinging,3347
slip,3348
slipped,3349
slow,3350
slumdog,3351
slums,3352
small,3353
smallpox,3354
smart,3355
smashing,3356
smells,3357
smithsonian,3358
smoke,3359
smoked,3360
smoking,3361
snake,3362
snakes,3363
snap,3364
sniper,3365
snobby,3366
snoobish,3367
soccer,3368
socialblade,3369
socialism,3370
socialist,3371
socially,3372
society,3373
sociopath,3374
socks,3375
sodade,3376
software,3377
sold,3378
soldiers,3379
solution,3380
somebody,3381
someplace,3382
somewhat,3383
sone,3384
song,3385
songs,3386
sony,3387
soon,3388
sooner,3389
sooni,3390
sooo,3391
sore,3392
sorry,3393
sort,3394
sorts,3395
sosa,3396
soul,3397
sound,3398
sounds,3399
soundtrack,3400
sourced,3401
south,3402
soviet,3403
sowell,3404
space,3405
spam,3406
spamming,3407
spar,3408
sparing,3409
spc,3410
speak,3411
speaking,3412
speaks,3413
special,3414
species,3415
specific,3416
specifically,3417
spectre,3418
speech,3419
speed,3420
speedo,3421
spell,3422
spend,3423
spending,3424
spends,3425
spendulous,3426
spent,3427
spewing,3428
spikes,3429
spiral,3430
splains,3431
splicing,3432
split,3433
splitting,3434
spoiled,3435
spoiler,3436
spoils,3437
spoofed,3438
sport,3439
spread,3440
spyware,3441
sqeaking,3442
squad,3443
square,3444
squealing,3445
squirrel,3446
st,3447
staff,3448
stage,3449
stagflation,3450
stand,3451
standard,3452
standards,3453
standing,3454
standpoint,3455
stands,3456
stapp,3457
star,3458
start,3459
started,3460
starting,3461
starts,3462
starve,3463
starving,3464
state,3465
stated,3466
statement,3467
statements,3468
staters,3469
states,3470
static,3471
status,3472
stay,3473
stays,3474
stds,3475
steal,3476
stealing,3477
step,3478
steps,3479
stereotype,3480
stern,3481
steve,3482
stfu,3483
stick,3484
stimulates,3485
stimulative,3486
stimulus,3487
stoner,3488
stones,3489
stoning,3490
stop,3491
stopped,3492
store,3493
stored,3494
storeowner,3495
stories,3496
story,3497
straight,3498
strains,3499
strange,3500
strap,3501
straps,3502
streaming,3503
street,3504
streets,3505
strength,3506
stressed,3507
strictly,3508
strike,3509
strikeouts,3510
strikes,3511
string,3512
stripper,3513
strippers,3514
strong,3515
stronger,3516
strparsedonedigitfehe,3517
structure,3518
struggling,3519
stuck,3520
student,3521
students,3522
studied,3523
studies,3524
stuff,3525
stupid,3526
stupidest,3527
style,3528
subconscious,3529
subject,3530
subjugation,3531
submission,3532
submit,3533
submitted,3534
subs,3535
subsidies,3536
subsidise,3537
subsidy,3538
substance,3539
substantially,3540
substitute,3541
subterranean,3542
subtleties,3543
subway,3544
success,3545
successful,3546
suck,3547
sucked,3548
sucking,3549
sucks,3550
sudden,3551
sue,3552
sues,3553
suffer,3554
suffered,3555
suggestion,3556
suggests,3557
suicide,3558
suleman,3559
sulphur,3560
sum,3561
summer,3562
sumo,3563
super,3564
superior,3565
superman,3566
supply,3567
support,3568
supported,3569
supporter,3570
supporters,3571
supports,3572
supposed,3573
supposedly,3574
sure,3575
surely,3576
surfaces,3577
surfstang,3578
surpass,3579
surprised,3580
surrender,3581
surrounded,3582
surveying,3583
suspect,3584
suspense,3585
swap,3586
swear,3587
sweat,3588
swig,3589
swinging,3590
swollen,3591
symbol,3592
systems,3593
table,3594
tactics,3595
taken,3596
takes,3597
taking,3598
tale,3599
talent,3600
taliban,3601
talk,3602
talked,3603
talking,3604
talks,3605
tank,3606
tanukiparsedonedigiteven,3607
tape,3608
tapes,3609
target,3610
targets,3611
tasteless,3612
taught,3613
tax,3614
taxation,3615
taxes,3616
taxpayers,3617
tbh,3618
teachers,3619
teaches,3620
teaching,3621
teams,3622
technique,3623
technology,3624
techs,3625
teh,3626
television,3627
tell,3628
telling,3629
tells,3630
tempered,3631
temporarily,3632
temporary,3633
tend,3634
tendencies,3635
tends,3636
tens,3637
term,3638
terminal,3639
terms,3640
terrible,3641
terroist,3642
terrorism,3643
terrorist,3644
test,3645
testimony,3646
tests,3647
texas,3648
texting,3649
tham,3650
thank,3651
thanks,3652
thanparsedfourdigits,3653
thats,3654
thc,3655
theater,3656
theaters,3657
theft,3658
theirs,3659
theme,3660
theory,3661
therapy,3662
therefor,3663
thier,3664
thing,3665
things,3666
think,3667
thinking,3668
thinks,3669
thomas,3670
thorazine,3671
thought,3672
thoughts,3673
thousand,3674
thousands,3675
thread,3676
threat,3677
threatening,3678
threatens,3679
threesome,3680
throw,3681
thrown,3682
thunder,3683
thunderbird,3684
tibetans,3685
ticket,3686
tickets,3687
tier,3688
tiger,3689
tigers,3690
tight,3691
tilt,3692
time,3693
times,3694
timing,3695
tip,3696
tired,3697
title,3698
tobacco,3699
today,3700
toilet,3701
told,3702
tomorrow,3703
tone,3704
tonnes,3705
took,3706
tool,3707
torrent,3708
torture,3709
torturing,3710
totally,3711
touchdown,3712
touched,3713
touching,3714
tough,3715
toys,3716
trace,3717
tractors,3718
trade,3719
trading,3720
traditional,3721
traditionally,3722
traffic,3723
trailer,3724
trained,3725
training,3726
trains,3727
trans,3728
transition,3729
translated,3730
transportation,3731
transsexual,3732
trap,3733
trappings,3734
trash,3735
treasury,3736
treat,3737
treated,3738
treatment,3739
treatments,3740
treaty,3741
trend,3742
trendy,3743
trentadue,3744
trial,3745
trials,3746
tried,3747
tries,3748
trillion,3749
trolling,3750
trolls,3751
troop,3752
troops,3753
tropic,3754
trouble,3755
troubling,3756
trough,3757
truck,3758
true,3759
truly,3760
trunk,3761
trust,3762
trusted,3763
truth,3764
truths,3765
try,3766
trying,3767
ts,3768
tty,3769
tubatechno,3770
tucker,3771
tune,3772
turbines,3773
turd,3774
turk,3775
turn,3776
turned,3777
turning,3778
turns,3779
tv,3780
twice,3781
twisted,3782
twisting,3783
twitter,3784
types,3785
typical,3786
typing,3787
tyrants,3788
ugh,3789
uhbama,3790
uhhh,3791
uk,3792
ultimately,3793
um,3794
umm,3795
unbelievable,3796
unclaimed,3797
undead,3798
underestimate,3799
undermines,3800
understand,3801
understanding,3802
understood,3803
underway,3804
undoubtedly,3805
unfortunately,3806
uni,3807
union,3808
unipolar,3809
unite,3810
united,3811
universe,3812
university,3813
unjust,3814
unknown,3815
unless,3816
unmannedmissionhope,3817
unreasonable,3818
unrelatedgold,3819
unstated,3820
untie,3821
update,3822
upgrade,3823
upgraded,3824
upgrading,3825
upheld,3826
uphill,3827
uploading,3828
upper,3829
ups,3830
upscale,3831
urban,3832
urge,3833
usa,3834
use,3835
used,3836
useless,3837
user,3838
username,3839
users,3840
uses,3841
using,3842
usps,3843
usual,3844
usually,3845
utilizing,3846
utorrent,3847
utterly,3848
vacation,3849
vaccines,3850
vader,3851
vagina,3852
valentine,3853
valid,3854
value,3855
valued,3856
values,3857
vampires,3858
vandalism,3859
vast,3860
vastly,3861
ve,3862
vegas,3863
vehicle,3864
vehicles,3865
velocity,3866
vending,3867
venomous,3868
verb,3869
verizon,3870
verses,3871
version,3872
vespertine,3873
veterans,3874
vhs,3875
vibrant,3876
vibrating,3877
vicious,3878
victim,3879
victims,3880
victoria,3881
victory,3882
video,3883
view,3884
viewing,3885
vigor,3886
vinegar,3887
violence,3888
violent,3889
virtual,3890
virtually,3891
virus,3892
visible,3893
vista,3894
vitriolandangst,3895
vitro,3896
volt,3897
volunteering,3898
vote,3899
voted,3900
voters,3901
voyeur,3902
wade,3903
wait,3904
waited,3905
waiting,3906
walk,3907
walked,3908
walking,3909
walks,3910
wall,3911
wallpaper,3912
walmart,3913
wanna,3914
wannabes,3915
want,3916
wanted,3917
wanting,3918
wants,3919
war,3920
warning,3921
warrant,3922
wars,3923
washington,3924
wasn,3925
wasted,3926
wasting,3927
watch,3928
watched,3929
watchin,3930
watching,3931
watchmen,3932
water,3933
watermelons,3934
watershed,3935
wave,3936
way,3937
ways,3938
wazoo,3939
weak,3940
wealth,3941
weapons,3942
wear,3943
wears,3944
weather,3945
web,3946
webdesigners,3947
webkit,3948
webscriptions,3949
website,3950
websites,3951
wee,3952
weed,3953
week,3954
weeks,3955
weighing,3956
weight,3957
weird,3958
welcome,3959
welcoming,3960
welfare,3961
went,3962
weren,3963
west,3964
western,3965
whaaa,3966
whaaaa,3967
whacks,3968
whats,3969
whatsoever,3970
whatwe,3971
wheels,3972
whiners,3973
whining,3974
whip,3975
white,3976
whiteness,3977
whomever,3978
wide,3979
widely,3980
wife,3981
wifi,3982
wii,3983
wiki,3984
wikipedia,3985
wild,3986
wildland,3987
wildlife,3988
williams,3989
willing,3990
win,3991
wind,3992
winded,3993
window,3994
windows,3995
windowsuntil,3996
windy,3997
wine,3998
wings,3999
winmo,4000
winner,4001
winning,4002
winslet,4003
wipe,4004
wiretapping,4005
wise,4006
wish,4007
wishing,4008
witch,4009
withdrew,4010
withot,4011
withstand,4012
wives,4013
woman,4014
women,4015
won,4016
wonder,4017
wonderful,4018
woo,4019
wood,4020
woods,4021
woodsoh,4022
woodsparsedonedigit,4023
woooooo,4024
woot,4025
word,4026
words,4027
wore,4028
work,4029
worked,4030
working,4031
workplace,4032
works,4033
world,4034
worlds,4035
worried,4036
worries,4037
worry,4038
worse,4039
worship,4040
worst,4041
worth,4042
worthless,4043
worthy,4044
wouldn,4045
wow,4046
wparsedonedigit,4047
wrist,4048
write,4049
writer,4050
writers,4051
writers_guild_of,4052
written,4053
wrong,4054
wsads,4055
wtf,4056
wussy,4057
xbox,4058
xdsorry,4059
xm,4060
xp,4061
xparsedonedigit,4062
xparsedthreedigits,4063
xvid,4064
ya,4065
yahoo,4066
yahtzee,4067
yankees,4068
yapping,4069
yay,4070
yeah,4071
year,4072
years,4073
yeast,4074
yeeeeeahhhh,4075
yelling,4076
yelp,4077
yen,4078
yep,4079
yes,4080
yesterday,4081
york,4082
young,4083
youre,4084
youth,4085
yummy,4086
zendezparsedonedigit,4087
zero,4088
zip,4089
zipline,4090
zog,4091
zombie,4092
zombies,4093
zoo,4094
