__,0
___,1
____,2
______________,3
_ibertaddigital,4
_xmas_carroll,5
aaargh,6
abandoned,7
able,8
aboutthatlife,9
absolutely,10
abt,11
acceptable,12
access,13
accessibility,14
accessing,15
accompanying,16
according,17
account,18
accounts,19
acct,20
accused,21
acting,22
activating,23
acts,24
actually,25
ad,26
add,27
addict,28
addicted,29
adding,30
address,31
addthis,32
adiman_,33
admirably,34
admit,35
admitting,36
adobe,37
adobemax,38
adopted,39
adopterness,40
advanced,41
advertisements,42
advertising,43
adweek,44
adwords,45
affects,46
afmparsedonedigitvsmm,47
agency,48
ages,49
aggregates,50
aggressive,51
agree,52
agvparsedtwodigitsznj,53
ahead,54
aijysfho,55
ailing,56
aint,57
ainteeentrippin,58
air,59
airdrop,60
aka,61
alamo,62
alarms,63
albatross,64
albertmalparsedtwodigits,65
album,66
alead,67
alert,68
alexlindsay,69
alexmufferi,70
alive,71
alleged,72
allow,73
allowing,74
alongside,75
alright,76
amandbrar,77
amarsanghera,78
amazed,79
amazing,80
amazon,81
ammmylewis,82
amp,83
amused,84
analytics,85
anas_monaffal,86
android,87
androidbeam,88
androidicecreamsandwich,89
androidparsedonedigit,90
andshuttingdownru,91
andshuttingdownrunningprograms,92
angrybirds,93
angst,94
announced,95
announcement,96
annoyed,97
annoying,98
anothericloudfail,99
answer,100
answers,101
anti,102
antitrust,103
anup_pillai,104
anyday,105
anymore,106
aparsedonedigitonparsedonedigitiaa,107
aparsedthreedigitstgparsedonedigitl,108
aparsedtwodigitsy,109
apology,110
app,111
apparently,112
appear,113
apperature,114
apple,115
applecanada,116
appledomination,117
apples,118
appletv,119
appleupdates,120
apply,121
appointment,122
appreciated,123
appropriately,124
apps,125
appsense,126
appstore,127
apptment,128
apt,129
ar,130
arc,131
architecture,132
aren,133
argument,134
arrived,135
arrives,136
arrogance,137
arrogant,138
articles,139
asap,140
ashercfo,141
aside,142
asimrang,143
ask,144
asked,145
ass,146
asses,147
assessment,148
assimparsedtwodigits,149
asus,150
ate,151
athen,152
att,153
attacks,154
attempts,155
attending,156
attributed,157
audio,158
august,159
authorise,160
authorization,161
authorize,162
authorizing,163
auto,164
automatically,165
autosavesucks,166
av,167
available,168
ave,169
avoided,170
avslparsedonedigitygu,171
avtar,172
awaited,173
away,174
awesome,175
awesomeness,176
awful,177
awkward,178
awsome,179
axlparsedonedigitkparseddigitsgs,180
ay,181
ayhokgoparsedonedigit,182
azeeparsedonedigitvparseddigits,183
azrael,184
azure,185
baby,186
babygeeks,187
backchannel,188
background,189
backside,190
backup,191
backwards,192
bad,193
baffles,194
bag,195
bahhh,196
ball,197
ballmer,198
bandwidth,199
bar,200
bars,201
base,202
based,203
bastards,204
batteries,205
battery,206
batting,207
battle,208
bc,209
beam,210
beat,211
beating,212
beats,213
beautiful,214
becuz,215
bed,216
begin,217
beginning,218
behatreen,219
believe,220
bell,221
bellevue,222
beneficial,223
benefits,224
benrubery,225
berry,226
best,227
bestbuy,228
bestpantsten,229
beta,230
betaparsedonedigit,231
better,232
beware,233
bff,234
bg,235
bgkimgjf,236
bgotzjparsedonedigitk,237
bgr,238
bi,239
big,240
bigbrother,241
bigdealdawson,242
biggest,243
bigmama,244
bigtrouble,245
billgates,246
billion,247
billions,248
biltmore,249
bind,250
bing,251
bird,252
bisquiat,253
bit,254
bitch,255
bitching,256
bite,257
biz,258
black,259
blackberry,260
blackouts,261
blame,262
blameitontheiphone,263
blames,264
blaparsedonedigitze,265
blaring,266
blast,267
blatant,268
blaze,269
blend,270
bless,271
blhhgopo,272
blocked,273
blog,274
bloody,275
bloomberg,276
bloombergnews,277
blowing,278
blown,279
blue,280
blues,281
bmann,282
bode,283
body,284
bofh,285
bonkoif,286
bonobo,287
boo,288
book,289
bookcase,290
booked,291
bookmarks,292
books,293
boost,294
boot,295
bored,296
boring,297
bottlenecks,298
bought,299
bound,300
bout,301
box,302
boy,303
boycotting,304
bparsedonedigit,305
bpfkydparsedonedigito,306
bppjwncp,307
bqmuhxkk,308
braille,309
brain,310
brand,311
brandonminiman,312
brands,313
bravo,314
break,315
breaking,316
brianmincey,317
brick,318
bricked,319
brightness,320
briliant,321
brilliance,322
brilliant,323
bring,324
bringing,325
bro,326
broke,327
broken,328
brother,329
browse,330
browsers,331
browserwars,332
bs,333
bsd,334
bud,335
buffalo,336
bug,337
build,338
building,339
buildingwindowsparsedonedigit,340
builds,341
buildwindowsparsedonedigit,342
built,343
builtin,344
bullshit,345
bullying,346
bummer,347
bump,348
burkepatch,349
burn,350
bus,351
business,352
businesses,353
businessuplift,354
busy,355
butler,356
buttery,357
button,358
buy,359
buying,360
bye,361
bznyparsedtwodigitsnn,362
cable,363
calendar,364
called,365
calling,366
calls,367
camera,368
camper,369
campus,370
canada,371
canadait,372
cancer,373
canon,374
cans,375
cap,376
capabilities,377
capacity,378
car,379
caracteres,380
card,381
cards,382
cardsapp,383
care,384
careers,385
carltonparsedthreedigits,386
carrier,387
carriers,388
carrying,389
carrypad,390
carsonfratus,391
cartoon,392
cash,393
catastrophe,394
catastrophically,395
catchy,396
caught,397
cause,398
causes,399
cbm,400
cc,401
centre,402
ceo,403
ceremoniously,404
certain,405
certification,406
cesspit,407
chadleaman,408
champ,409
chance,410
change,411
changed,412
changer,413
changes,414
chao,415
chaos,416
characters,417
charge,418
charger,419
charging,420
charity,421
charlesarthur,422
chascouponmom,423
cheap,424
check,425
checkboxes,426
cheer,427
chief,428
child,429
china,430
chipsets,431
choice,432
choices,433
chosen,434
chris,435
chrome,436
chu,437
chucktodd,438
circustk,439
cisco,440
citizenship,441
cjjparsedtwodigitsvparsedonedigiti,442
cjonncvk,443
cjwallaceparsedtwodigits,444
clarence,445
claws,446
clean,447
cleaned,448
clear,449
cli,450
click,451
clocks,452
close,453
closed,454
closely,455
closer,456
closing,457
cloud,458
cloudy,459
club,460
clue,461
cnet,462
cnt,463
coach,464
coast,465
coated,466
code,467
codename,468
coldplay,469
collaborated,470
colleague,471
collection,472
collects,473
college,474
colour,475
combination,476
combine,477
combo,478
come,479
comes,480
coming,481
commands,482
comments,483
commercial,484
committed,485
communications,486
community,487
comp,488
compact,489
companies,490
company,491
compares,492
comparing,493
compatibility,494
compatible,495
compelling,496
competitive,497
complain,498
complaints,499
complete,500
completely,501
completes,502
compliments,503
compose,504
computer,505
concept,506
concerned,507
concluded,508
conference,509
configure,510
confused,511
confusin,512
confusing,513
congratulations,514
connect,515
connected,516
connecting,517
connection,518
considering,519
consolidation,520
consultingware,521
consumer,522
cont,523
contact,524
contacts,525
content,526
continued,527
continuing,528
continuously,529
contracts,530
control,531
convenient,532
conversation,533
conversations,534
coo,535
cool,536
coollike,537
copy,538
coqclbparsedonedigitr,539
cord,540
corporate,541
corporation,542
correct,543
correction,544
cost,545
couldn,546
counter,547
couple,548
courtesy,549
covent,550
covers,551
coworker,552
cparsedonedigittuparsedonedigitdzk,553
cparsedtwodigitssnizt,554
crack,555
cracked,556
crankywithnophone,557
crap,558
crappy,559
crash,560
crashes,561
crashing,562
craving,563
crazy,564
cream,565
create,566
creative,567
credit,568
creepy,569
critical,570
criticise,571
cropping,572
crowd,573
crparsedonedigitaparseddigitskparsedonedigitu,574
crushed,575
cs,576
csaefrhc,577
ctp,578
cu,579
curate,580
curious,581
current,582
currently,583
curse,584
customer,585
customers,586
custserv,587
cute,588
cutting,589
cvfwmvmo,590
cxovkparsedonedigitww,591
cyanogenmod,592
da,593
dad,594
dailydealchat,595
dalmaer,596
dam,597
damage,598
damaged,599
dammit,600
damn,601
dancemoms,602
danielpink,603
dariuszporowski,604
dark,605
darkness,606
data,607
dates,608
daughter,609
davidegori,610
day,611
dayparsedthreedigits,612
days,613
db,614
dbbwsdpx,615
dead,616
deal,617
dealing,618
deals,619
dear,620
death,621
deb_lavoy,622
debt,623
debut,624
decades,625
decide,626
decision,627
decline,628
declined,629
declining,630
def,631
definitely,632
delay,633
delegates,634
delete,635
deleted,636
delicious,637
deliver,638
delivered,639
delivering,640
dell,641
demo,642
demonstration,643
dennisritchie,644
dependent,645
deploying,646
depreciate,647
derryxowners,648
design,649
designed,650
designs,651
desire,652
desired,653
desktop,654
desperatehousewives,655
destroying,656
detailed,657
details,658
detection,659
dev,660
developer,661
developers,662
device,663
devices,664
dezz,665
deár,666
dff,667
dffkvnsj,668
dhilipsiva,669
dick,670
dicks,671
dictation,672
did,673
didn,674
die,675
died,676
difference,677
different,678
difficult,679
difficulties,680
digging,681
digit,682
digital,683
dilation,684
dine,685
direct,686
directions,687
directly,688
dis,689
disabling,690
disappear,691
disappointed,692
disappointing,693
disappointment,694
disaster,695
discu,696
discussion,697
dishing,698
disruptions,699
dissent,700
distractions,701
distributing,702
distrust,703
ditch,704
djspparsedonedigitgparseddigitsb,705
dlparsedonedigitcrczy,706
dm,707
docs,708
document,709
dodgy,710
does,711
doesn,712
dohdenmg,713
doing,714
dollar,715
dollars,716
domain,717
don,718
dont,719
dontbemadatmebecause,720
door,721
doorstep,722
dosent,723
dostupan,724
dotnet,725
double,726
doubt,727
douchebags,728
doug_newton,729
downgrade,730
download,731
downloaded,732
downloads,733
dparsedonedigit,734
dparsedonedigiteejhbt,735
dparsedonedigitvjlparsedonedigitsi,736
drain,737
drakes,738
dream,739
dreams,740
drewbezanson,741
drink,742
driving,743
droid,744
drop,745
dropbox,746
dropped,747
drops,748
dst,749
dubbe,750
duff,751
dumb,752
dump,753
duped,754
duplicates,755
duplicating,756
durable,757
dvroegop,758
dying,759
dynamics,760
ea_jorge,761
ear,762
earbuds,763
early,764
earned,765
ears,766
earth,767
easier,768
easter,769
easy,770
eating,771
ebook,772
eboyee,773
eclipsed,774
economics,775
ectparsedonedigitfyia,776
ed,777
edbott,778
edchat,779
edge,780
edswoxoc,781
education,782
effect,783
efffing,784
efficient,785
eggs,786
ejunkie,787
electability,788
electric,789
electricsoup,790
elegance,791
elop,792
em,793
email,794
emails,795
emphasis,796
employability,797
employee,798
employees,799
emptythreats,800
enabled,801
encourage,802
encrypt,803
end,804
endless,805
enemies,806
engadget,807
engages,808
engaging,809
engine,810
engt,811
enhance,812
enjoy,813
enjoying,814
enrages,815
entering,816
enterprise,817
entertaining,818
entrepreneurs,819
eorosstx,820
eparsedonedigituhkaparsedonedigitf,821
eparsedonedigitumrmro,822
epicfail,823
epub,824
equal,825
equipment,826
equivalent,827
ericgreenspan,828
erp,829
error,830
errors,831
essential,832
esxiparsedonedigit,833
eta,834
ethiopian,835
europeansp,836
evangelist,837
event,838
events,839
everettcoldwell,840
everson,841
everybody,842
everytime,843
evil,844
evo,845
exam,846
excel,847
excellent,848
exception,849
exchange,850
exchg,851
excited,852
exciting,853
exclaims,854
exclusive,855
excuse,856
executive,857
executives,858
exercise,859
exhibit,860
exorcist,861
expanded,862
expected,863
expensive,864
experience,865
explain,866
explains,867
explorer,868
express,869
extend,870
extent,871
extreme,872
extremists,873
eye,874
eyelash,875
ezjczltparsedonedigit,876
face,877
facebook,878
faceboook,879
facetime,880
facial,881
facialunlock,882
fact,883
faculty,884
fad,885
fade,886
fail,887
failed,888
failing,889
fails,890
fair,891
faith,892
fall,893
fallen,894
falling,895
false,896
family,897
fan,898
fancy,899
fantastic,900
fantasy,901
far,902
farreal,903
fast,904
faster,905
fat,906
fatfuckingchance,907
fault,908
favorite,909
fawkin,910
fb,911
fcucks,912
feature,913
featured,914
features,915
fed,916
federal,917
feeding,918
feel,919
feeling,920
fellows,921
fiction,922
figure,923
figured,924
fiioapkt,925
file,926
files,927
finally,928
finance,929
financial,930
fine,931
fingers,932
fingerscrossed,933
finish,934
finland,935
firefox,936
fishmama,937
fitiparsedonedigitzia,938
fix,939
fixation,940
fixed,941
fixes,942
fixing,943
fixit,944
flash,945
flashcard,946
flat,947
flawless,948
floridamike,949
fm,950
fml,951
fmzfwgyv,952
focus,953
fold,954
folder,955
folders,956
folks,957
follow,958
followers,959
followme,960
font,961
football,962
forbes,963
forced,964
forces,965
ford,966
forever,967
forget,968
forgettin,969
format,970
forstall,971
forth,972
forward,973
fotografia,974
foundation,975
fparsedonedigithwanparsedonedigitq,976
frame,977
framework,978
fran_mac_,979
freaking,980
free,981
freedom,982
freeze,983
freezes,984
french,985
fresh,986
friends,987
friendship,988
friggin,989
froze,990
frozen,991
fruits,992
frustrated,993
frustration,994
fsf,995
ftw,996
fu,997
fuck,998
fucked,999
fuckin,1000
fucking,1001
fuckingshinez,1002
fucknwithfatty,1003
fucks,1004
fuh,1005
fun,1006
function,1007
functions,1008
funds,1009
funny,1010
funnyyyyyyy,1011
future,1012
futuristic,1013
fuzzball,1014
fwm,1015
fxck,1016
fxhomehitfilm,1017
fytcyegparsedonedigit,1018
gah,1019
galaxy,1020
galaxynexus,1021
gallery,1022
game,1023
gamerchikparsedtwodigits,1024
gamers,1025
games,1026
garden,1027
garmin,1028
garr_williams,1029
gate,1030
gates,1031
gatos,1032
gave,1033
gay,1034
gazmaz,1035
gb,1036
gcicpexparsedonedigit,1037
gdcurry,1038
gear,1039
gem,1040
gen,1041
generator,1042
genius,1043
geniusbar,1044
geolocation,1045
german,1046
getglue,1047
gets,1048
gettin,1049
getting,1050
gf,1051
ghost,1052
giant,1053
giants,1054
gigs,1055
girlfriend,1056
girlies,1057
gives,1058
givin,1059
giving,1060
gjiuparsedonedigitzzparsedonedigit,1061
gklxmuiparsedonedigit,1062
gkparsedonedigityjtfy,1063
glad,1064
glass,1065
global,1066
globe,1067
gm,1068
gmail,1069
gnu,1070
god,1071
gods,1072
goes,1073
going,1074
gone,1075
gonna,1076
good,1077
goodbye,1078
goodriddance,1079
goof,1080
googland,1081
google,1082
googleapps,1083
googlemusic,1084
googleplus,1085
googleresearch,1086
googles,1087
got,1088
gotta,1089
gotten,1090
gov,1091
gparsedonedigitelvrvj,1092
gpo,1093
gr,1094
grab,1095
grandma,1096
graphic,1097
gratis,1098
greader,1099
great,1100
greatly,1101
greatsuccess,1102
greedy,1103
greenwich,1104
gregulatorparsedonedigit,1105
gretcheneclark,1106
ground,1107
grrrr,1108
gruber,1109
gt,1110
gtqdvfxo,1111
guardian,1112
guardiantech,1113
guess,1114
gui,1115
guide,1116
guy,1117
guys,1118
gwokoceg,1119
ha,1120
hack,1121
hacked,1122
hah,1123
haha,1124
hahaha,1125
hailfireparsedthreedigits,1126
hairline,1127
half,1128
hand,1129
handle,1130
handled,1131
hands,1132
handsets,1133
handy,1134
hangouts,1135
happen,1136
happened,1137
happening,1138
happens,1139
happier,1140
happy,1141
happyplace,1142
hard,1143
harder,1144
hardware,1145
hashtags,1146
hasn,1147
hate,1148
hated,1149
hater,1150
haven,1151
having,1152
hay,1153
hckjxzparsedonedigitk,1154
hd,1155
hdv,1156
headache,1157
headed,1158
headings,1159
headphones,1160
health,1161
hear,1162
heard,1163
heck,1164
hell,1165
hella,1166
hello,1167
help,1168
helped,1169
helps,1170
helsinki,1171
hero,1172
hey,1173
hide,1174
high,1175
highlight,1176
highscoolmemories,1177
hindi,1178
hire,1179
hiss,1180
history,1181
hit,1182
hjparsedonedigitqlocparsedonedigit,1183
hk,1184
hmmm,1185
hmmmm,1186
hobparsedtwodigitshbo,1187
hockey,1188
hold,1189
holodeck,1190
holodesk,1191
home,1192
honeka,1193
honest,1194
hong,1195
hooked,1196
hope,1197
hopefully,1198
hoping,1199
horizontal,1200
horrible,1201
hosting,1202
hot,1203
hotel,1204
hotspots,1205
hour,1206
hourly,1207
hours,1208
houston,1209
hp,1210
hrs,1211
ht,1212
htc,1213
htmlparsedonedigit,1214
http,1215
hubby,1216
huge,1217
huh,1218
humor,1219
humpt,1220
hungry,1221
hurry,1222
hurting,1223
hurts,1224
hut,1225
hypo,1226
hypocritical,1227
håper,1228
iamdkt,1229
iancollinsuk,1230
ibm,1231
ibooks,1232
ical,1233
ice,1234
icecream,1235
icecreamsandwich,1236
icecreamsandwichfail,1237
icloud,1238
icon,1239
ics,1240
id,1241
idea,1242
ideas,1243
idisk,1244
idontunderstand,1245
idtheftprotect,1246
ieparsedonedigit,1247
ifollowback,1248
ihateyourightnow,1249
ijparsedonedigitxydpparsedonedigit,1250
ijustine,1251
iknparsedthreedigitsze,1252
ill,1253
illustrating,1254
iloveyou,1255
im,1256
imac,1257
image,1258
images,1259
imamac,1260
imessage,1261
imightbewrong,1262
imitation,1263
immad_immad,1264
immediate,1265
immobile,1266
imo,1267
impact,1268
importance,1269
impossible,1270
impressed,1271
impressions,1272
impressive,1273
improve,1274
improvements,1275
inbox,1276
inbuilt,1277
incapable,1278
include,1279
included,1280
incompatible,1281
inconvenienced,1282
incredible,1283
india,1284
indian,1285
indians,1286
ineedthosepictures,1287
ineedtoupdate,1288
inept,1289
inferno,1290
infinite,1291
infinitywebinar,1292
info,1293
infofail,1294
inform,1295
information,1296
informationweek,1297
inline,1298
innovation,1299
innovations,1300
innovators,1301
inparsedonedigit,1302
input,1303
insane,1304
insanely,1305
inside,1306
inspire,1307
inspired,1308
instagram,1309
install,1310
installed,1311
installing,1312
instant,1313
instantfollowback,1314
instantly,1315
instead,1316
insurance,1317
integrate,1318
integrated,1319
integrating,1320
intel,1321
interesing,1322
interested,1323
interesting,1324
interests,1325
interface,1326
interference,1327
internet,1328
interoperability,1329
interrupting,1330
intervals,1331
introduced,1332
introduces,1333
introducing,1334
intuitive,1335
invented,1336
invention,1337
inventor,1338
investigate,1339
investments,1340
io,1341
ioparsedonedigit,1342
ios,1343
iosparsedonedigit,1344
iosparsedonedigitatemydingo,1345
iosparsedonedigitdowngrade,1346
ip,1347
ipad,1348
ipadparsedonedigit,1349
ipads,1350
iparsedonedigits,1351
iparsedonedigitsparseddigits,1352
ipas,1353
iphone,1354
iphoneparsedonedigit,1355
iphoneparsedonedigits,1356
iphones,1357
iphoto,1358
ipod,1359
ipodparsedonedigits,1360
irvysan,1361
iscream,1362
iscsi,1363
ishit,1364
isn,1365
isnt,1366
isorry,1367
issue,1368
issues,1369
italianjoya,1370
itdklrry,1371
item,1372
items,1373
itjustworks,1374
itouch,1375
itouchparsedonedigit,1376
itstolate,1377
itunes,1378
itunesmatch,1379
iuyparsedonedigitdfparsedonedigits,1380
iyoparsedtwodigitsgvj,1381
izhparsedonedigitkaiu,1382
izoparsedonedigitwunt,1383
jackasses,1384
jacked,1385
jailbroke,1386
jailbroken,1387
jaime_rivera,1388
jajajajajajaj,1389
jamaicanidler,1390
james,1391
janeparsedtwodigits,1392
jaroslovsky,1393
jatfvfpm,1394
jcawwrzq,1395
jdougyj,1396
jean,1397
jeffbullas,1398
jessecablek,1399
jewelzparsedfourdigits,1400
jhdtykcv,1401
jilive,1402
jimmlparsedonedigitrc,1403
jinnhvwz,1404
jizz,1405
jkotcrmb,1406
jkotcrmbstephen,1407
jldavid,1408
joannejacobs,1409
job,1410
jobs,1411
joelburns,1412
joelplane,1413
john,1414
join,1415
jolly,1416
jonparsedonedigitlakers,1417
jonsibley,1418
jowyang,1419
jparsedonedigitftieng,1420
jparsedthreedigitszfpo,1421
jsqparsedtwodigitsnuq,1422
jumpin,1423
junk,1424
jure,1425
jus,1426
just,1427
justsaying,1428
jzmvbdnm,1429
karljuhlke,1430
katebetts,1431
kathrynyee,1432
kdtdparsedonedigitzre,1433
keeping,1434
keeps,1435
keepthedesktop,1436
kenyaopendoor,1437
kevin,1438
key,1439
keyboard,1440
keyboards,1441
keys,1442
kgnrbvgp,1443
kick,1444
kicked,1445
kidding,1446
kids,1447
kill,1448
killed,1449
killing,1450
kimaris,1451
kind,1452
kindahow,1453
kinect,1454
king,1455
kjkzparsedtwodigitszy,1456
kjparsedonedigitpjvkh,1457
klmgkhparsedonedigitv,1458
knew,1459
know,1460
known,1461
knows,1462
kong,1463
kostatsetsekas,1464
krause,1465
kudos,1466
kursed,1467
kushkittyparsedthreedigits,1468
kvjsercj,1469
kxboqskj,1470
kyliemessier,1471
kymbersanden,1472
la,1473
lack,1474
lacks,1475
lag,1476
lager,1477
laggin,1478
land,1479
languages,1480
laptop,1481
laser,1482
lasted,1483
late,1484
later,1485
latest,1486
laughable,1487
launch,1488
launches,1489
launchfail,1490
launching,1491
law,1492
laws,1493
laying,1494
layout,1495
lcxaparsedonedigitqparseddigitsp,1496
ldparsedonedigitiparsedthreedigitsx,1497
lead,1498
leader,1499
leading,1500
lean,1501
leap,1502
learn,1503
learning,1504
leave,1505
leaves,1506
leaving,1507
lecture,1508
left,1509
leiboaz,1510
let,1511
letdown,1512
letme,1513
lets,1514
letter,1515
lfparsedtwodigitszkuz,1516
lgfw,1517
licensing,1518
liciaparsedfourdigits,1519
lie,1520
lies,1521
life,1522
lifted,1523
light,1524
lightning,1525
like,1526
likes,1527
liking,1528
lil,1529
limit,1530
line,1531
link,1532
linkedin,1533
linux,1534
lion,1535
lisa,1536
lisa_marieparsedfourdigits,1537
list,1538
listed,1539
listening,1540
listing,1541
literally,1542
little,1543
live,1544
lives,1545
living,1546
ljpgvzjt,1547
ll,1548
llslrxfm,1549
lmao,1550
lmfao,1551
load,1552
loathe,1553
lobby,1554
local,1555
locate,1556
location,1557
lock,1558
logged,1559
logicparsedfourdigits,1560
login,1561
lol,1562
lonely,1563
long,1564
longer,1565
look,1566
looking,1567
looks,1568
loop,1569
loose,1570
lord,1571
lords,1572
los,1573
lose,1574
losing,1575
loss,1576
lost,1577
lot,1578
lots,1579
love,1580
loved,1581
lovee,1582
loveguru_b,1583
lovemyiphone,1584
loves,1585
lovin,1586
loving,1587
low,1588
loyalty,1589
lparsedonedigitmtmparsedonedigitig,1590
lparsedonedigitrsxparsedonedigityf,1591
lparsedtwodigitsowqre,1592
lt,1593
luck,1594
lunch,1595
lvffdcel,1596
lwjpparsedonedigitgiu,1597
lwtpxejo,1598
ly,1599
lync,1600
ma,1601
mac,1602
macbook,1603
machine,1604
mack,1605
macworld,1606
mad,1607
magazine,1608
magic,1609
magical,1610
magically,1611
mail,1612
mainey_maine,1613
maintenance,1614
major,1615
majorfail,1616
make,1617
makemeproud,1618
makes,1619
making,1620
mall,1621
man,1622
manage,1623
managed,1624
management,1625
manager,1626
mandarin,1627
mango,1628
manually,1629
maoqaplh,1630
map,1631
march,1632
marcoarment,1633
mariospr,1634
market,1635
marketing,1636
marks,1637
markstuver,1638
mashable,1639
match,1640
matthewgphy,1641
mattmarcheski,1642
mattyriesz,1643
maximize,1644
mayati,1645
maybe,1646
mb,1647
mbl,1648
mcp,1649
mcwparsedtwodigitsvtg,1650
mczparsedonedigitrsdf,1651
mdqhbparsedonedigitxparseddigits,1652
mean,1653
means,1654
meant,1655
media,1656
medical,1657
meego,1658
meet,1659
mega,1660
meghankel,1661
melaleucathewellnesscompany,1662
member,1663
mention,1664
mentions,1665
merchandising,1666
message,1667
messages,1668
messed,1669
messy,1670
metro,1671
microsof,1672
microsoft,1673
microsoftstores,1674
middle,1675
midnight,1676
mightily,1677
migrating,1678
mikeferri,1679
miley,1680
mileycyrus,1681
millenia,1682
million,1683
mimecastsa,1684
min,1685
mind,1686
mins,1687
minutes,1688
miss,1689
missed,1690
missing,1691
mission,1692
mixer,1693
mmm,1694
mmmm,1695
mnparsedonedigitnova,1696
mnparsedtwodigitsrparsedonedigitvc,1697
mo,1698
mobile,1699
mobileburn,1700
mobileme,1701
mode,1702
model,1703
models,1704
modify,1705
mole,1706
mom,1707
moment,1708
monday,1709
monkeys,1710
monopolistic,1711
monopoly,1712
month,1713
months,1714
mood,1715
morning,1716
moron,1717
mothafuckin,1718
motorola,1719
mountainview,1720
mouse,1721
movies,1722
moving,1723
mp,1724
mr,1725
mr_lister,1726
mrtonysays,1727
ms,1728
msft,1729
msg,1730
msparsedtwodigits,1731
mspegypt,1732
mstapoutbarbie,1733
mswxparsedonedigiteoparsedonedigit,1734
mtsparsedtwodigits,1735
mtuparsedonedigittgxparsedonedigit,1736
muchhh,1737
muh,1738
mulling,1739
multiple,1740
music,1741
mute,1742
muuwbgpn,1743
mv,1744
nagoulparsedonedigit,1745
nam,1746
names,1747
nansen,1748
nationalgeographic,1749
native,1750
nauseous,1751
nav,1752
navigation,1753
naw,1754
nbparsedonedigitdhlsg,1755
ndk,1756
nearest,1757
nearly,1758
neat,1759
neck,1760
need,1761
needed,1762
needless,1763
neednewipadguide,1764
needparsedonedigits,1765
needs,1766
needsomethingtoread,1767
negative,1768
nejbye,1769
neowin,1770
nerdboner,1771
nerdiness,1772
nervous,1773
net,1774
netbooks,1775
netscape,1776
network,1777
networkin,1778
new,1779
newest,1780
newfeature,1781
news,1782
newsstand,1783
newstand,1784
newton,1785
nexus,1786
nexusprime,1787
nfl,1788
nice,1789
nicholiparsedtwodigits,1790
nicki,1791
nickthefnicon,1792
nicolebanyots,1793
night,1794
nightmares,1795
nirvana,1796
nohelp,1797
nokia,1798
non,1799
nonstop,1800
nopatience,1801
noreply,1802
notbook,1803
notcool,1804
note,1805
notes,1806
notifications,1807
notifies,1808
notjustaboutthephone,1809
notresponding,1810
nov,1811
novatyler,1812
novell,1813
november,1814
nowicanspendevenmoretimeonmyphone,1815
nparsedonedigit,1816
nparsedonedigitcpuparsedonedigitvj,1817
nsaisrip,1818
nshlfiux,1819
number,1820
numbering,1821
numbers,1822
nuther,1823
nuts,1824
ny,1825
nytimes,1826
nz,1827
obituaries,1828
obnoxious,1829
obsessions,1830
obviously,1831
occur,1832
oeurmtlx,1833
offer,1834
offering,1835
offers,1836
office,1837
official,1838
officially,1839
offing,1840
offline,1841
ofhparsedonedigitptag,1842
oh,1843
ohnonotagain,1844
ok,1845
okay,1846
old,1847
older,1848
omfg,1849
omg,1850
omnitouch,1851
omnomnomnom,1852
ondxwper,1853
ones,1854
online,1855
oparsedonedigit,1856
open,1857
opening,1858
opens,1859
opensource,1860
operating,1861
operation,1862
opinions,1863
opportunities,1864
opportunity,1865
opposite,1866
option,1867
oranges,1868
orbital,1869
order,1870
ordering,1871
orging,1872
os,1873
osx,1874
ouch,1875
ouparsedonedigitkparsedtwodigitsge,1876
outdated,1877
outlaws,1878
outlook,1879
outside,1880
overall,1881
overbearing,1882
overcapacity,1883
owner,1884
owns,1885
oyszmjvi,1886
pad,1887
page,1888
pages,1889
paging_dr_a,1890
paid,1891
pain,1892
painful,1893
painfully,1894
palmface,1895
panasonic,1896
panorama,1897
panoramic,1898
pants,1899
parents,1900
parivar,1901
parker,1902
parseddigits,1903
parseddigitsnd,1904
parseddigitsst,1905
parseddigitsyrs,1906
parsedfivedigits,1907
parsedfourdigits,1908
parsedfourdigitsp,1909
parsedonedigit,1910
parsedonedigitaja,1911
parsedonedigitb,1912
parsedonedigitbn,1913
parsedonedigitbwtparsedonedigitwparseddigitsz,1914
parsedonedigitbwxjadg,1915
parsedonedigitd,1916
parsedonedigitdays,1917
parsedonedigitfhparsedonedigitdfgj,1918
parsedonedigitfmjxtmm,1919
parsedonedigitg,1920
parsedonedigitgjqvewn,1921
parsedonedigitgs,1922
parsedonedigitgupparsedonedigitacz,1923
parsedonedigithr,1924
parsedonedigithrs,1925
parsedonedigithvbcparsedonedigitbm,1926
parsedonedigitibobnrh,1927
parsedonedigitijkparsedonedigitvbparsedonedigit,1928
parsedonedigitlike,1929
parsedonedigitnd,1930
parsedonedigitnhuyfeh,1931
parsedonedigitoensvgparsedonedigit,1932
parsedonedigitokparsedonedigitxcow,1933
parsedonedigitphhparsedonedigitjbparsedonedigit,1934
parsedonedigitpkparsedonedigitetparsedonedigitr,1935
parsedonedigitpm,1936
parsedonedigitqmgparsedonedigitira,1937
parsedonedigitqnlwftparsedonedigit,1938
parsedonedigitquyparsedonedigituou,1939
parsedonedigitrkochzr,1940
parsedonedigits,1941
parsedonedigitsesvwwm,1942
parsedonedigitsjnparsedonedigitbzz,1943
parsedonedigitss,1944
parsedonedigitst,1945
parsedonedigitsunni,1946
parsedonedigitth,1947
parsedonedigituhparsedonedigitaparseddigitsvt,1948
parsedonedigituxawkwf,1949
parsedonedigitvsaszyt,1950
parsedonedigitwhhmakparsedonedigit,1951
parsedonedigitwvparsedtwodigitsoparsedonedigitv,1952
parsedonedigitxddxnparsedonedigitw,1953
parsedonedigityparseddigitsasparsedonedigitzz,1954
parsedonedigityvjmhnq,1955
parsedonedigitywvbeparsedonedigitz,1956
parsedonedigitzcqparsedtwodigitssf,1957
parsedthreedigits,1958
parsedthreedigitsdaysofgratefulness,1959
parsedthreedigitsklkfh,1960
parsedtwodigits,1961
parsedtwodigitsbit,1962
parsedtwodigitsdyonxz,1963
parsedtwodigitsgajsgi,1964
parsedtwodigitsgb,1965
parsedtwodigitshrs,1966
parsedtwodigitsighgic,1967
parsedtwodigitsjwparsedonedigitzparseddigitsc,1968
parsedtwodigitsk,1969
parsedtwodigitsmb,1970
parsedtwodigitsoglika,1971
parsedtwodigitsohflyparsedonedigit,1972
parsedtwodigitstwitterpeopleiwouldliketomeet,1973
parsedtwodigitswkioxc,1974
participated,1975
particularly,1976
parts,1977
party,1978
pass,1979
past,1980
paulens,1981
pavilions,1982
pay,1983
paying,1984
paypal,1985
pc,1986
pcam,1987
pcmjon,1988
pdbfparsedonedigithparseddigitsf,1989
pdf,1990
pdfs,1991
people,1992
perfect,1993
perfectly,1994
perform,1995
performance,1996
perils,1997
period,1998
perpetual,1999
person,2000
personal,2001
personalization,2002
petty,2003
ph,2004
philanthropy,2005
philipgrey,2006
philliprowntree,2007
philosophy,2008
phoenixswinger,2009
phone,2010
phonedog_aaron,2011
phones,2012
photo,2013
photograherseye,2014
photography,2015
photos,2016
photosharing,2017
phxguyparsedtwodigits,2018
pick,2019
picking,2020
picture,2021
pictures,2022
piece,2023
pile,2024
pinch,2025
pink,2026
pins,2027
piracy,2028
pissed,2029
pissing,2030
place,2031
plan,2032
planet,2033
planned,2034
plans,2035
plate,2036
platform,2037
platforms,2038
play,2039
playbooks,2040
played,2041
playful,2042
playing,2043
playlist,2044
playlists,2045
pleased,2046
pleasure,2047
plot,2048
plparsedonedigitzeevh,2049
pls,2050
pltitgei,2051
plus,2052
plusone,2053
plz,2054
pmphillips,2055
pocketlint,2056
podcast,2057
podcasts,2058
point,2059
points,2060
poised,2061
policies,2062
policy,2063
polish,2064
politely,2065
politicians,2066
pondering,2067
poor,2068
pop,2069
popular,2070
ported,2071
portland,2072
positive,2073
positives,2074
post,2075
power,2076
powered,2077
powerpivot,2078
powerpoint,2079
pparsedonedigithwoparsedtwodigitsx,2080
pparsedonedigitj,2081
pparsedonedigitmparseddigitsxvaz,2082
pparsedtwodigitsehduq,2083
ppl,2084
practices,2085
praying,2086
prctices,2087
pre,2088
preaching,2089
predictions,2090
prefer,2091
premise,2092
preorder,2093
preordered,2094
present,2095
presentation,2096
presentations,2097
presents,2098
press,2099
prettier,2100
pretty,2101
prettynesz,2102
preventing,2103
preview,2104
previous,2105
price,2106
priceless,2107
prime,2108
princessofchina,2109
printed,2110
privacy,2111
prjusto,2112
pro,2113
probably,2114
problem,2115
problems,2116
probono,2117
process,2118
processor,2119
procrastination,2120
produce,2121
produck,2122
product,2123
productive,2124
productivity,2125
products,2126
profile,2127
profiles,2128
profitering,2129
program,2130
programs,2131
progressed,2132
progressive,2133
project,2134
promise,2135
promised,2136
promising,2137
prone,2138
propaganda,2139
proper,2140
properly,2141
props,2142
protection,2143
proves,2144
provided,2145
providing,2146
proving,2147
ps,2148
psfk,2149
psn,2150
psujgparsedonedigitpn,2151
publicly,2152
puck,2153
pujyvparsedonedigitcparseddigits,2154
pull,2155
pulling,2156
pulls,2157
purchase,2158
purchased,2159
purchasing,2160
purpose,2161
push,2162
putting,2163
pytparsedonedigitvkrp,2164
qa,2165
qamjparsedonedigitmer,2166
qbgxxjmm,2167
qlparsedonedigitzmppo,2168
qparsedonedigitkecparsedonedigit,2169
qparsedonedigitqleokz,2170
qpgxle,2171
qrcode,2172
quality,2173
question,2174
questions,2175
quick,2176
quickly,2177
quickresponse,2178
quite,2179
qvparsedonedigitmparseddigitsunparsedonedigit,2180
racketeering,2181
rad_software,2182
radlerc,2183
radparsedonedigitwdsw,2184
rafts,2185
raining,2186
raise,2187
ralphbin,2188
ram,2189
ranch,2190
randomly,2191
rape,2192
rapidly,2193
razr,2194
rcve,2195
reaaly,2196
reaction,2197
read,2198
readable,2199
reader,2200
readinglists,2201
ready,2202
real,2203
realestate,2204
realise,2205
realized,2206
really,2207
reappeared,2208
reason,2209
reasons,2210
reboot,2211
rebuild,2212
receipt,2213
received,2214
recently,2215
recognition,2216
recover,2217
recovered,2218
recruit,2219
red,2220
reddeersteph,2221
redeemed,2222
redesigned,2223
redmond,2224
referring,2225
refurbed,2226
refurbished,2227
regent,2228
region,2229
register,2230
registered,2231
registration,2232
regular,2233
relaxing,2234
release,2235
released,2236
releasepartyguide,2237
releases,2238
relevance,2239
reliable,2240
remember,2241
remembering,2242
remind,2243
reminder,2244
reminders,2245
removable,2246
removing,2247
remparsedonedigit,2248
rename,2249
renatmin,2250
render,2251
rep,2252
repair,2253
reparsedonedigitnlzgi,2254
replace,2255
replaced,2256
replaceit,2257
replacement,2258
replacing,2259
report,2260
reported,2261
reports,2262
represent,2263
reprisk,2264
request,2265
required,2266
requires,2267
research,2268
resellars,2269
reservation,2270
reserve,2271
resolution,2272
resolve,2273
resources,2274
respect,2275
respectmaswagg,2276
response,2277
responsive,2278
rest,2279
restore,2280
restored,2281
restoring,2282
restrictions,2283
results,2284
retail,2285
retarded,2286
retire,2287
retrieve,2288
return,2289
returning,2290
retweet,2291
retweeted,2292
retweets,2293
revealed,2294
revenue,2295
reverting,2296
review,2297
revolution,2298
rgbhhuqp,2299
rich,2300
richer,2301
rickysinghpt,2302
ridic,2303
right,2304
rihanna,2305
rim,2306
rimm,2307
ring,2308
ringing,2309
rip,2310
ripstevejobs,2311
rise,2312
riskiest,2313
rite,2314
ritenow,2315
rkparsedonedigitkphss,2316
rly,2317
rmiparsedonedigitosmi,2318
robert_terpstra,2319
roboto,2320
rogerweir,2321
roll,2322
ronakkataria,2323
roolz,2324
rooting,2325
rossmistry,2326
rot,2327
round,2328
row,2329
roycind,2330
rparsedonedigithnettu,2331
rparsedonedigitjujsbr,2332
rparsedonedigitrndnparsedonedigity,2333
rparsedtwodigits,2334
rt,2335
rtdzjqparsedonedigitu,2336
rts,2337
ruining,2338
rule,2339
run,2340
running,2341
runtime,2342
rva,2343
rww,2344
rxwdparsedonedigitsnparsedonedigit,2345
ryanbaldwin,2346
rygurl,2347
rzucfejc,2348
sad,2349
sadmac,2350
safe,2351
safety,2352
sage,2353
said,2354
sake,2355
sale,2356
sales,2357
salmonella,2358
samay,2359
samsumg,2360
samsung,2361
samsunggalaxynexus,2362
samsungmobileca,2363
samsungnexus,2364
sander_koers,2365
sandwich,2366
santa,2367
santorum,2368
sap,2369
saptha,2370
sarahhhhhparsedthreedigits,2371
save,2372
saved,2373
saw,2374
sawyerhartman,2375
say,2376
saying,2377
says,2378
sbs,2379
sbsparsedfourdigits,2380
scalability,2381
schaumburg,2382
schedule,2383
school,2384
science,2385
science_alex,2386
scientist,2387
scottdugas,2388
scottydparsedfivedigits,2389
scream,2390
screen,2391
screened,2392
screenshot,2393
screenshots,2394
screw,2395
screwing,2396
scroll,2397
scrolling,2398
sd,2399
sdk,2400
sdparsedtwodigits,2401
seamlessly,2402
sean,2403
search,2404
searches,2405
searching,2406
sebascoulombe,2407
second,2408
section,2409
secure,2410
seeing,2411
seemingly,2412
seen,2413
select,2414
self,2415
selling,2416
sells,2417
selop,2418
semilshah,2419
send,2420
sending,2421
sense,2422
sent,2423
sentences,2424
seo,2425
september,2426
sequence,2427
seriously,2428
served,2429
server,2430
servers,2431
serves,2432
service,2433
services,2434
sesamestreet,2435
session,2436
set,2437
setting,2438
settings,2439
sgn,2440
shagged,2441
shagorikah,2442
share,2443
sharepoint,2444
sharing,2445
shaydiddy,2446
shhhh,2447
shifted,2448
shipping,2449
shit,2450
shitt,2451
shitty,2452
shlft,2453
shoot,2454
shore,2455
shoukd,2456
showed,2457
showin,2458
showing,2459
shows,2460
shuffle,2461
shutter,2462
sick,2463
sigh,2464
sign,2465
signal,2466
signs,2467
silly,2468
silverlight,2469
similar,2470
simple,2471
simplifies,2472
simply,2473
sinanaral,2474
singing,2475
siri,2476
siriwho,2477
sister,2478
sit,2479
site,2480
sites,2481
sith,2482
sitting,2483
skills,2484
skin,2485
skype,2486
slacking,2487
slashgear,2488
sleek,2489
sleep,2490
slegit,2491
slick,2492
slightly,2493
slipping,2494
sloppy,2495
slow,2496
slower,2497
slowly,2498
slows,2499
sm,2500
smalfunctioningagain,2501
small,2502
smart,2503
smarterphone,2504
smartest,2505
smartkeitai,2506
smartphone,2507
smashed,2508
smau,2509
smm,2510
smooth,2511
sms,2512
snatched,2513
snippy,2514
snlparsedtwodigitsemparsedonedigit,2515
socia,2516
social,2517
socialmedia,2518
software,2519
solution,2520
solutions,2521
solve,2522
song,2523
sony,2524
soon,2525
sooo,2526
soooo,2527
sorri,2528
sorry,2529
sorude,2530
sound,2531
soundmore,2532
sounds,2533
source,2534
sources,2535
space,2536
spacecanard,2537
spaces,2538
spam,2539
spanish,2540
sparsedonedigit,2541
speakers,2542
speech,2543
speed,2544
spell,2545
spend,2546
spending,2547
spiral,2548
spoiled,2549
spoke,2550
spongebob,2551
sponsors,2552
spontaneously,2553
sports,2554
spparsedfourdigits,2555
sprint,2556
spying,2557
sql,2558
sqlserver,2559
sqneparsedonedigitilb,2560
srbmparsedonedigitvparseddigitsk,2561
st,2562
stable,2563
stacks,2564
staff,2565
stage,2566
stalkerismo,2567
stalking,2568
stand,2569
standards,2570
star,2571
start,2572
started,2573
starting,2574
starts,2575
states,2576
station,2577
steeloparsedthreedigits,2578
steffen,2579
step,2580
steps,2581
steve,2582
steveballmer,2583
steveballmet,2584
stevejobs,2585
stewart,2586
stick,2587
stickies,2588
sticking,2589
stink,2590
stop,2591
storage,2592
store,2593
stores,2594
stories,2595
story,2596
straight,2597
strangest,2598
strategy,2599
stream,2600
street,2601
stressed,2602
stuck,2603
students,2604
studies,2605
study,2606
studying,2607
studyingwhilstmotivated,2608
stumped,2609
stupid,2610
style,2611
stylus,2612
submitted,2613
subscriptions,2614
subtweeting,2615
suburbs,2616
succeed,2617
succesfully,2618
success,2619
sucha,2620
suck,2621
suckers,2622
sucking,2623
sucks,2624
sudden,2625
suddenly,2626
suffering,2627
sugar,2628
suggested,2629
suing,2630
summer,2631
sun,2632
sunday,2633
super,2634
superb,2635
superior,2636
superphone,2637
support,2638
supports,2639
sure,2640
surely,2641
surface,2642
surprised,2643
surprises,2644
survey,2645
surviving,2646
susanfelicity,2647
suspecting,2648
sux,2649
swaag,2650
swallow,2651
sware,2652
swear,2653
sweatshops,2654
sweet,2655
switch,2656
switched,2657
switching,2658
swpats,2659
sydney,2660
sym,2661
sync,2662
synching,2663
syncing,2664
syncs,2665
sysadmin,2666
systems,2667
tablets,2668
tah_med,2669
takes,2670
taking,2671
talk,2672
talking,2673
target,2674
tasparsedfivedigits,2675
taste,2676
tbnyxparsedonedigitpparseddigits,2677
tcn,2678
tcot,2679
team,2680
teamed,2681
teamfollowback,2682
teamo,2683
teams,2684
tear,2685
tech,2686
techedafrica,2687
techfest,2688
techflash,2689
techie,2690
techietroubles,2691
technological,2692
technologies,2693
technology,2694
techy,2695
teehee,2696
telegraph,2697
tell,2698
telling,2699
tellme,2700
tells,2701
terminal,2702
terms,2703
terrible,2704
test,2705
testing,2706
tests,2707
text,2708
texts,2709
tha,2710
thank,2711
thankful,2712
thankfully,2713
thanks,2714
thanksfornothing,2715
thankyou,2716
thats,2717
thattechguyparsedtwodigits,2718
theft,2719
thegadgetshow,2720
thelittleappkid,2721
themarketaire,2722
theme,2723
themes,2724
thenonsensepersists,2725
theresamarosy,2726
thing,2727
things,2728
thingsweallhate,2729
thingswealllove,2730
think,2731
thinking,2732
thinks,2733
thnx,2734
tho,2735
thomas,2736
thorn,2737
thorough,2738
thought,2739
thoughtful,2740
thoughts,2741
threat,2742
threaten,2743
throat,2744
throw,2745
throws,2746
thumbs,2747
thunderbird,2748
thunderbolt,2749
thursday,2750
thx,2751
thxx,2752
tiger,2753
til,2754
time,2755
timed,2756
timeline,2757
times,2758
timing,2759
tint,2760
tipped,2761
tired,2762
tita_ramos,2763
titanic,2764
tl,2765
tmdfqreparsedonedigit,2766
today,2767
told,2768
tomcolontonio,2769
tomkeene,2770
tommylee,2771
tomorrow,2772
tone,2773
tones,2774
tonight,2775
tons,2776
took,2777
tool,2778
tools,2779
toparsedonedigitne,2780
tossing,2781
total,2782
totally,2783
touch,2784
touchscreen,2785
tour,2786
toy,2787
toys,2788
tragic,2789
training,2790
transferred,2791
trash,2792
tri,2793
trial,2794
tribute,2795
tried,2796
tries,2797
trip,2798
triplingo,2799
trisha_ps,2800
trivia,2801
trojan,2802
tron,2803
tronman,2804
trouble,2805
truly,2806
try,2807
trying,2808
tsql,2809
tt,2810
tuesday,2811
tunes,2812
turn,2813
turned,2814
turning,2815
turns,2816
tv,2817
twaeudbp,2818
twalve,2819
tweet,2820
tweeted,2821
tweeter,2822
tweeting,2823
tweets,2824
twitter,2825
twitterer,2826
twitterless,2827
twitternation,2828
twitters,2829
twitterswag,2830
tx,2831
txts,2832
ty,2833
type,2834
typing,2835
uaqrxtnk,2836
uber,2837
uch,2838
ufparsedonedigittakparsedonedigitf,2839
ugh,2840
ugly,2841
uh,2842
ui,2843
uiparsedonedigitadparsedonedigitfj,2844
ukwokbgd,2845
ultimate,2846
umber,2847
umd,2848
unable,2849
unbelievable,2850
unborn,2851
undergo,2852
underrated,2853
understand,2854
underwhelming,2855
undo,2856
unexpected,2857
unfair,2858
unhappy,2859
unified,2860
units,2861
university,2862
unless,2863
unlock,2864
unlocking,2865
unmindful,2866
unproductive,2867
unquality,2868
unreal,2869
unveil,2870
unveiled,2871
unwanted,2872
upcoming,2873
update,2874
updated,2875
updater,2876
updates,2877
updating,2878
upgrade,2879
upgraded,2880
upgrades,2881
upgrading,2882
uphill,2883
upload,2884
ups,2885
upset,2886
ur,2887
url,2888
urxjixce,2889
usage,2890
use,2891
used,2892
useful,2893
useless,2894
user,2895
users,2896
uses,2897
using,2898
usual,2899
utter,2900
utterly,2901
uweyalkb,2902
ux,2903
validated,2904
values,2905
vancouver,2906
vanillalatte_xd,2907
vattam,2908
ve,2909
vegas,2910
venturebeat,2911
verizon,2912
verizonwireless,2913
vers,2914
version,2915
vertical,2916
vibrate,2917
victim,2918
victims,2919
video,2920
videos,2921
views,2922
vinodrad,2923
violated,2924
viparsedonedigithtjrr,2925
virtual,2926
visigoth,2927
visit,2928
vista,2929
visual,2930
vjparsedonedigitjpktm,2931
vjrssfyn,2932
vkvparsedonedigittbcj,2933
vmware,2934
voice,2935
voicecontrol,2936
voices,2937
volume,2938
voparsedthreedigitsmrz,2939
vpqoyxwa,2940
vs,2941
vslive,2942
vsphereparsedonedigit,2943
vtybqiparsedtwodigits,2944
vulnerability,2945
vuwgyxparsedonedigitn,2946
vvparsedonedigitltkyp,2947
vwciovparsedonedigitf,2948
waaaaay,2949
wack,2950
waddya,2951
wait,2952
waited,2953
waiting,2954
walk,2955
walled,2956
wallet,2957
wanna,2958
want,2959
wanted,2960
wanting,2961
wants,2962
war,2963
warm,2964
warning,2965
warranty,2966
wars,2967
wash,2968
wasted,2969
wasting,2970
watch,2971
watchdog,2972
watched,2973
watching,2974
water,2975
wave,2976
way,2977
waynp,2978
web,2979
webcamps,2980
webgl,2981
webos,2982
webpage,2983
webpronews,2984
website,2985
wedpbcpx,2986
week,2987
weekend,2988
weirdhttp,2989
weirdo,2990
welcome,2991
welcomeskype,2992
wellisparsedtwodigits,2993
went,2994
west,2995
wfrzkysn,2996
whale,2997
whatchu,2998
whhyy,2999
white,3000
whoops,3001
whore,3002
whores,3003
whoring,3004
widget,3005
widgets,3006
wife,3007
wifi,3008
wififofum,3009
william,3010
wilth,3011
win,3012
windows,3013
windowsparsedonedigit,3014
windowsparsedonedigitmobile,3015
windowsphone,3016
windowsphoneparsedonedigit,3017
winning,3018
winparsedonedigit,3019
winrt,3020
wiped,3021
wireless,3022
wisconsin_mommy,3023
wise,3024
wish,3025
wit,3026
witchcraft,3027
wmp,3028
wo,3029
won,3030
wonder,3031
wondering,3032
wonky,3033
wont,3034
wooden,3035
woods,3036
word,3037
words,3038
work,3039
worked,3040
workers,3041
workflow,3042
workflows,3043
working,3044
works,3045
workshop,3046
workstation,3047
world,3048
worried,3049
worries,3050
worse,3051
worst,3052
worstupdateever,3053
worth,3054
wounded,3055
wow,3056
wowww,3057
wparsedonedigitocrbpm,3058
wparsedthreedigitsbfsparsedonedigit,3059
wpparsedonedigit,3060
wps,3061
wpt,3062
wristpad,3063
writing,3064
wrong,3065
wtf,3066
wth,3067
wtjparsedonedigitogdo,3068
wuhu,3069
wuparsedonedigitbfiparsedonedigith,3070
wuppy,3071
wvzprbci,3072
wxbcparsedonedigituuw,3073
xbl,3074
xbox,3075
xboxlive,3076
xcuntnuggetx,3077
xghoevparsedonedigitk,3078
xliparsedonedigitbrparsedtwodigits,3079
xolrauey,3080
xparsedonedigitqzexparsedonedigitf,3081
xsjgifop,3082
xtzmpsmt,3083
xvparsedonedigitqparseddigitsgfi,3084
xx,3085
ya,3086
yahoo,3087
yapping,3088
yashasjoshi,3089
yea,3090
yeah,3091
yeahh,3092
year,3093
years,3094
yeh,3095
yellow,3096
yellowgate,3097
yep,3098
yes,3099
yessss,3100
yesterday,3101
ykchtuparsedonedigith,3102
yo,3103
yootfktm,3104
yourdaysarenumbered,3105
youtube,3106
youuuuuuuuuuuu,3107
yr,3108
yrckqeis,3109
yrs,3110
yumyumyum,3111
yup,3112
yuvalz,3113
yyparsedonedigithnrbq,3114
yzhcdgfp,3115
zappos,3116
zbltzparsedonedigitmw,3117
zero,3118
zgbkparsedonedigitxnk,3119
zknparsedonedigitbuparsedonedigitr,3120
zombiebomber,3121
zoom,3122
zparsedonedigitbbjparsedonedigitxu,3123
zparsedonedigitjwlqvu,3124
zrqoewxi,3125
zune,3126
zxparsedonedigitpwparsedonedigitgt,3127
zzcparsedonedigitbeparsedonedigitw,3128
zzkparsedonedigitftii,3129
你好,3130
透過,3131
