__parsedonedigit,0
abortion,1
about,2
absolutely,3
accannis,4
access,5
aching,6
acia,7
actually,8
ad,9
adam,10
addiction,11
addictive,12
adidas,13
administration,14
adobe,15
ads,16
advice,17
africa,18
after,19
afternoon,20
again,21
agency,22
ago,23
ah,24
aha,25
ahead,26
ahh,27
ahhgot,28
aig,29
ain,30
al,31
all,32
allen,33
almost,34
alone,35
alot,36
alpha,37
already,38
also,39
although,40
alto,41
always,42
am,43
amandabittner,44
amazing,45
amazon,46
ambcharlesfield,47
american,48
among,49
amount,50
amp,51
ampt,52
an,53
and,54
android,55
angry,56
animations,57
annagoss,58
annamartinparsedthreedigits,59
announcement,60
annoying,61
answers,62
anti,63
any,64
anymore,65
anyone,66
anything,67
anyways,68
apart,69
apartment,70
apatow,71
api,72
apologies,73
app,74
appear,75
apple,76
applied,77
appreciate,78
apps,79
appt,80
arab,81
arabs,82
are,83
aren,84
arg,85
argghhhh,86
arhh,87
around,88
arrival,89
arrrgh,90
article,91
arunbasillal,92
as,93
asherroth,94
asked,95
ass,96
asses,97
assesment,98
assholes,99
at,100
ate,101
atebits,102
athlete,103
atil,104
audiobook,105
authors,106
available,107
avoided,108
awaiting,109
award,110
away,111
awesome,112
aww,113
back,114
bad,115
bags,116
bailout,117
ballcom,118
balls,119
banana,120
bank,121
barack,122
barbara,123
barraged,124
basketball,125
bastards,126
bathroom,127
bay,128
bayes,129
bball,130
bccwt,131
be,132
beast,133
beautiful,134
became,135
because,136
bedroom,137
been,138
before,139
being,140
believe,141
best,142
beta,143
better,144
beyond,145
bflay,146
big,147
bike,148
bill,149
billions,150
bing,151
bio,152
biology,153
bipart,154
bit,155
bitch,156
bitin,157
bitly,158
bitten,159
bitter,160
biz,161
blah,162
blech,163
blink,164
blknpreciousparsedonedigit,165
blocked,166
blondebroad,167
blood,168
bloomingdale,169
blow,170
boarding,171
bob,172
bobby,173
bonuses,174
boo,175
book,176
books,177
boortz,178
booz,179
bored,180
boring,181
boss,182
bought,183
boyle,184
boys,185
bparsedtwodigitspx,186
brand,187
break,188
breakers,189
broken,190
broskiii,191
bt,192
btw,193
bud,194
buffering,195
buffet,196
bug,197
buildin,198
bullshit,199
bummer,200
bumming,201
bunch,202
burger,203
burn,204
burning,205
bush,206
but,207
butt,208
buy,209
buzzupcom,210
by,211
bye,212
cable,213
calculus,214
call,215
calling,216
calls,217
came,218
campaign,219
can,220
cannot,221
canon,222
cant,223
car,224
card,225
cars,226
cartons,227
case,228
caseymercier,229
cash,230
cast,231
catch,232
cause,233
causin,234
cbs,235
cease,236
cell,237
changed,238
changing,239
channels,240
character,241
charade,242
charity,243
chart,244
cheap,245
cheaper,246
check,247
cheering,248
cheney,249
chick,250
chicken,251
childs,252
china,253
chose,254
chrysler,255
church,256
civil,257
ck,258
cking,259
class,260
classification,261
client,262
cligs,263
clinton,264
close,265
closer,266
club,267
cnn,268
coda,269
code,270
cold,271
colin,272
collaboration,273
collapse,274
college,275
comcast,276
come,277
comedian,278
comes,279
commencement,280
commercial,281
commercials,282
commerical,283
compared,284
complaining,285
complete,286
completely,287
computer,288
concord,289
conducted,290
conference,291
confirmed,292
connection,293
connections,294
consequences,295
conservatism,296
contact,297
contactsdoes,298
continual,299
contract,300
cook,301
cookbook,302
cool,303
correspondents,304
could,305
couldn,306
countries,307
country,308
course,309
cox,310
cparsedonedigithpp,311
cracka,312
crap,313
crappy,314
crashing,315
crazy,316
created,317
creates,318
criticalpath,319
crush,320
csparsedonedigit,321
cthagod,322
culprits,323
cup,324
current,325
curses,326
curve,327
customer,328
cut,329
cute,330
cuz,331
cwongparsedtwodigits,332
dad,333
dame,334
damn,335
dan,336
danielpunkass,337
danny,338
dannygokey,339
date,340
dave,341
day,342
daybankrupt,343
days,344
dbroos,345
dead,346
deal,347
dear,348
dearest,349
debates,350
debt,351
decided,352
default,353
definitely,354
defsounds,355
degrees,356
deleting,357
demos,358
dentist,359
dentistwho,360
designplay,361
desire,362
desperation,363
destroy,364
developer,365
device,366
devil,367
dick,368
did,369
didn,370
didnt,371
die,372
died,373
dies,374
different,375
dihg,376
dime,377
dinner,378
disaster,379
discomort,380
dishonest,381
dislike,382
dissapointed,383
division,384
djyq,385
dnc,386
do,387
docs,388
does,389
doesn,390
doing,391
don,392
done,393
dont,394
dood,395
doom,396
douchebaggery,397
down,398
downloading,399
dparsedtwodigits,400
dr,401
draw,402
drink,403
drive,404
drop,405
drove,406
dslreports,407
dude,408
dumber,409
dump,410
duo,411
dvr,412
dwight,413
dx,414
dzmparsedonedigitt,415
ea,416
eagle,417
east,418
eat,419
economy,420
edogparsedfourdigits,421
effects,422
effing,423
eggs,424
eh,425
election,426
elkhorn,427
em,428
employees,429
empty,430
end,431
enjoy,432
enjoyable,433
enough,434
enuf,435
eorfv,436
epkrparsedonedigitb,437
ereader,438
espn,439
espnjus,440
et,441
european,442
evelynbyrne,443
even,444
ever,445
every,446
everyone,447
everything,448
evr,449
exam,450
except,451
excited,452
execs,453
expensive,454
experience,455
explain,456
explode,457
extra,458
eye,459
f__k,460
fabulous,461
facebook,462
factory,463
fail,464
fair,465
faithbabywear,466
fake,467
fan,468
fantastic,469
far,470
fashion,471
fast,472
fault,473
fav,474
favorite,475
fb,476
feature,477
federer,478
feed,479
feel,480
feels,481
fest,482
festival,483
few,484
field,485
fieri,486
fifa,487
fighting,488
fil,489
file,490
finally,491
finals,492
financial,493
find,494
finewhat,495
finished,496
firmly,497
first,498
fish,499
five,500
fix,501
flay,502
flies,503
flight,504
flockofseagullsweregeopoliticallycorrect,505
flywire,506
follow,507
font,508
food,509
for,510
forced,511
forever,512
fortune,513
forward,514
found,515
foxnews,516
fraggleparsedthreedigits,517
francisco,518
freakin,519
freaking,520
freaky,521
fred,522
fredwilson,523
free,524
fricken,525
friend,526
friggin,527
from,528
frustrating,529
fuck,530
fucked,531
fucker,532
fucking,533
fun,534
funding,535
funny,536
furious,537
fuzz,538
fuzzball,539
fwixcom,540
game,541
gave,542
geldof,543
general,544
generate,545
generation,546
genius,547
get,548
gets,549
getting,550
gift,551
giggling,552
girl,553
give,554
given,555
giving,556
glad,557
gladwell,558
gm,559
go,560
goddam,561
going,562
gokey,563
goldpanda,564
gone,565
gonna,566
good,567
goodby,568
goodie,569
google,570
googleio,571
goooood,572
gop,573
got,574
gouged,575
government,576
govt,577
gparsedonedigit,578
gparsedonedigitruparsedonedigit,579
graduate,580
grateful,581
great,582
greater,583
green,584
grill,585
grr,586
gt,587
gt_,588
gta,589
guantanamo,590
guess,591
guy,592
guys,593
hacking,594
had,595
hahaha,596
half,597
hamilton,598
handout,599
happens,600
happy,601
harassed,602
hard,603
hardly,604
has,605
hate,606
hates,607
have,608
having,609
hd,610
he,611
hear,612
heard,613
heck,614
hell,615
hello,616
helloleonie,617
help,618
helpful,619
hempz,620
her,621
here,622
hero,623
hey,624
hhrs,625
hi,626
hideous,627
higher,628
highlights,629
highly,630
hilarious,631
hilariouslmao,632
hill,633
hills,634
him,635
himself,636
his,637
history,638
hitting,639
hmm,640
holders,641
holiday,642
home,643
homegrown,644
homepowell,645
hometown,646
honda,647
honor,648
horde,649
hour,650
hours,651
house,652
how,653
howard,654
howdavidbeatsgoliath,655
hp,656
hr,657
html,658
htmlfiveappspotcom,659
http,660
hubby,661
huge,662
human,663
hungry,664
hurricane,665
hurt,666
hurts,667
icecream,668
icgjparsedonedigit,669
id,670
idea,671
idiot,672
idiots,673
idol,674
if,675
iheartseverus,676
ill,677
im,678
ima,679
impatiently,680
implode,681
improvement,682
ims,683
imxum,684
in,685
including,686
indeed,687
indian,688
inevitable,689
infected,690
information,691
informative,692
inkscape,693
innovation,694
insane,695
insects,696
inside,697
inspired,698
instead,699
inter,700
interesting,701
internet,702
internets,703
into,704
invented,705
investing,706
investors,707
invite,708
ioparsedfourdigits,709
iphone,710
iran,711
irancraziness,712
iranelection,713
is,714
isgd,715
it,716
itchy,717
its,718
jacked,719
james,720
jdreiss,721
jessverr,722
jktweet,723
join,724
joining,725
jokes,726
jonduenas,727
jquery,728
jqueryspokenforjs,729
judd,730
julesrenner,731
junk,732
just,733
kaplan,734
karizmakaze,735
karoli,736
karrisfoxy,737
kathleen,738
katydids,739
kenburbary,740
kendra,741
kennedy,742
keynote,743
khalidparsedfourdigits,744
kick,745
kids,746
kill,747
kimblet,748
kinda,749
kindle,750
kindleparsedonedigit,751
kirstiealley,752
kitchen,753
klunky,754
know,755
kobe,756
korea,757
kparsedonedigityk,758
kswedberg,759
ktmeq,760
lack,761
ladies,762
laker,763
lakers,764
lam,765
lambda,766
lambert,767
last,768
late,769
later,770
latex,771
lawnmowing,772
le,773
lead,774
leading,775
learning,776
lebron,777
lebronsh,778
led,779
lee,780
left,781
legalgeekery,782
lehman,783
less,784
lets,785
lewis,786
lied,787
life,788
lifes,789
lift,790
light,791
like,792
liked,793
limit,794
limitations,795
line,796
link,797
listening,798
literally,799
little,800
live,801
lived,802
ll,803
lmao,804
load,805
loan,806
lol,807
long,808
loo,809
look,810
looked,811
lookin,812
looking,813
looks,814
loooong,815
loooooooovvvvvveee,816
lost,817
lot,818
lots,819
love,820
loved,821
loves,822
lovin,823
loving,824
lparsedonedigitgy,825
lt,826
ltparsedonedigit,827
ludajuice,828
luke,829
lulswparsedonedigit,830
lunch,831
lyx,832
mac,833
made,834
mails,835
make,836
makes,837
making,838
malcolm,839
man,840
mandela,841
many,842
map,843
marchparsedtwodigits,844
market,845
marketing,846
marry,847
martinez,848
mashable,849
mate,850
math,851
mathematics,852
matthewcyan,853
may,854
maybe,855
mbjthegreat,856
mcdonalds,857
me,858
meal,859
mean,860
means,861
meet,862
meeting,863
melo,864
memorial,865
mentioned,866
mesa,867
messenger,868
met,869
mets,870
michael,871
mid,872
might,873
mikefish,874
military,875
milrockee,876
mine,877
mins,878
minutes,879
miserable,880
miss,881
mistake,882
mitzs,883
mkii,884
mlucparsedtwodigits,885
mmbarnhill,886
mmmkatz,887
mmmmmfamily,888
model,889
modems,890
monday,891
money,892
monsta,893
month,894
months,895
more,896
morindparsedtwodigits,897
mosquito,898
most,899
mostvaluablepuppets,900
motors,901
move,902
movie,903
movies,904
moving,905
msgs,906
mtvcom,907
much,908
muchasmuertes,909
muppet,910
museum,911
music,912
must,913
mustang,914
my,915
mylocme,916
nails,917
naive,918
named,919
nancy,920
nap,921
natural,922
nba,923
nbccom,924
neal,925
need,926
needs,927
nehsl,928
nelson,929
nenuah,930
nerd,931
nerdy,932
never,933
new,934
news,935
next,936
nic,937
nice,938
niggas,939
night,940
nightmare,941
nike,942
nikon,943
no,944
nobody,945
non,946
nooooooo,947
nor,948
normally,949
north,950
not,951
note,952
nothing,953
noticed,954
notre,955
now,956
np,957
nrparsedonedigitnparseddigits,958
nuclear,959
nuggets,960
nuggetssss,961
number,962
nuts,963
ny,964
obama,965
obsession,966
obviously,967
of,968
off,969
office,970
official,971
oh,972
ohhdee,973
ok,974
old,975
oldie,976
omg,977
omgg,978
on,979
one,980
online,981
only,982
ooooh,983
oooooooh,984
open,985
operators,986
oqxgga,987
or,988
orli,989
other,990
oughta,991
our,992
out,993
outlet,994
outliers,995
outs,996
outta,997
ovation,998
over,999
own,1000
owned,1001
pages,1002
pain,1003
palin,1004
palo,1005
parseddigits,1006
parsedfourdigits,1007
parsedonedigit,1008
parsedonedigitcuig,1009
parsedonedigitd,1010
parsedonedigitdaymosquitos,1011
parsedonedigitgezi,1012
parsedonedigitgs,1013
parsedonedigithr,1014
parsedonedigitjwshv,1015
parsedonedigitmoro,1016
parsedonedigitnsnr,1017
parsedonedigitpm,1018
parsedonedigitrd,1019
parsedonedigitst,1020
parsedonedigitueb,1021
parsedonedigitupwparsedonedigitp,1022
parsedonedigitzic,1023
parsedonedigitzlff,1024
parsedsixdigits,1025
parsedthreedigits,1026
parsedtwodigits,1027
parsedtwodigitscal,1028
parsedtwodigitsd,1029
parsedtwodigitsdit,1030
parsedtwodigitsepah,1031
parsedtwodigitsjparsedonedigitd,1032
parsedtwodigitsk,1033
parsedtwodigitsshi,1034
parsedtwodigitstparsedonedigitnr,1035
part,1036
partners,1037
party,1038
passionmodel,1039
pastrami,1040
pay,1041
pcyxjparsedonedigit,1042
pdhur,1043
pelosi,1044
people,1045
peppers,1046
perfect,1047
perhaps,1048
personalityhe,1049
pg,1050
pgparsedonedigitlt,1051
philip,1052
phoenix,1053
phone,1054
phones,1055
photography,1056
phyremanparsedonedigit,1057
physical,1058
physics,1059
pic,1060
picked,1061
picking,1062
picks,1063
pills,1064
pingfm,1065
pink,1066
pissed,1067
pittstock,1068
place,1069
places,1070
plan,1071
plane,1072
planning,1073
plans,1074
plant,1075
planted,1076
platform,1077
play,1078
played,1079
players,1080
playing,1081
playoffs,1082
pleasant,1083
please,1084
pmillzz,1085
pockets,1086
point,1087
pointing,1088
ponzi,1089
popular,1090
popularity,1091
porn,1092
possible,1093
powell,1094
powerful,1095
pparsedonedigit,1096
pparsedonedigitbparseddigitsfl,1097
prayers,1098
prefer,1099
prepare,1100
president,1101
presser,1102
pretenses,1103
prettiest,1104
pretty,1105
price,1106
prlvqu,1107
prob,1108
probably,1109
problems,1110
profile,1111
profits,1112
program,1113
programs,1114
promotions,1115
propre,1116
proudly,1117
provided,1118
prs,1119
psychemedia,1120
psyop,1121
public,1122
puppet,1123
put,1124
putting,1125
pyt,1126
python,1127
quaint,1128
quality,1129
quanttrader,1130
quite,1131
rachel,1132
radio,1133
rank,1134
rantsandraves,1135
raped,1136
rather,1137
re,1138
read,1139
reading,1140
ready,1141
real,1142
realizing,1143
really,1144
reasonable,1145
receipes,1146
recently,1147
recommend,1148
recorded,1149
recorder,1150
recovering,1151
reference,1152
regret,1153
related,1154
relief,1155
remorse,1156
repeatedly,1157
reps,1158
republic,1159
republican,1160
researchers,1161
result,1162
results,1163
resume,1164
retiring,1165
revision,1166
rhino,1167
rich,1168
richardebaker,1169
richest,1170
rid,1171
riddance,1172
ride,1173
right,1174
robin,1175
robmalon,1176
robynlyn,1177
rock,1178
rocked,1179
rocks,1180
roger,1181
roll,1182
roomies,1183
rt,1184
running,1185
sad,1186
safari,1187
safeway,1188
said,1189
same,1190
san,1191
sandbox,1192
satisfying,1193
saw,1194
say,1195
saying,1196
scams,1197
scandal,1198
scares,1199
scarey,1200
scary,1201
schemers,1202
school,1203
science,1204
scrapbooking,1205
scratch,1206
screams,1207
screen,1208
screw,1209
screwed,1210
search,1211
searches,1212
season,1213
sebulous,1214
see,1215
seeing,1216
seem,1217
seems,1218
seen,1219
sekseemess,1220
select,1221
sell,1222
sending,1223
sens,1224
sent,1225
seriously,1226
served,1227
service,1228
services,1229
servicethey,1230
session,1231
shade,1232
shame,1233
shannyoday,1234
shaunwoo,1235
she,1236
sheer,1237
sheridanmarfil,1238
sherri,1239
shirts,1240
shit,1241
shitty,1242
shopping,1243
shoreline,1244
shorter,1245
should,1246
shout,1247
show,1248
shows,1249
shrop,1250
shut,1251
sick,1252
side,1253
siding,1254
signal,1255
silverstein,1256
silversteini,1257
since,1258
singapore,1259
siratomofbones,1260
sitcom,1261
site,1262
sitting,1263
situation,1264
skin,1265
sklososky,1266
slate,1267
slave,1268
sleep,1269
slide,1270
slightest,1271
slogan,1272
slow,1273
slowlythey,1274
small,1275
smells,1276
smh,1277
snap,1278
snappy,1279
snurlcom,1280
so,1281
sochiparsedonedigit,1282
social,1283
solid,1284
some,1285
someone,1286
something,1287
sometimes,1288
son,1289
sony,1290
soon,1291
sooo,1292
soooo,1293
soooooo,1294
sorry,1295
sounds,1296
south,1297
sparsedthreedigitsj,1298
speak,1299
speech,1300
spent,1301
spinach,1302
spinuzzi,1303
sport,1304
sports,1305
sportsguyparsedtwodigits,1306
spot,1307
spurs,1308
srsly,1309
stacks,1310
standing,1311
stanford,1312
star,1313
start,1314
starting,1315
states,1316
stay,1317
stealing,1318
steep,1319
stellargirl,1320
stick,1321
still,1322
stimulus,1323
stinkin,1324
stop,1325
stopped,1326
studing,1327
studying,1328
stuff,1329
stupid,1330
such,1331
suck,1332
sucks,1333
sum,1334
summer,1335
summize,1336
super,1337
superslow,1338
support,1339
supposed,1340
surgerywishing,1341
surprised,1342
survey,1343
susan,1344
svcs,1345
switch,1346
take,1347
taking,1348
talk,1349
talking,1350
tamasha,1351
tattoooos,1352
taxes,1353
tcot,1354
tea,1355
teach,1356
tell,1357
telling,1358
tells,1359
tempted,1360
ten,1361
tennis,1362
terror,1363
terrysimpson,1364
test,1365
tests,1366
tethering,1367
texnparsedonedigitrds,1368
text,1369
than,1370
thank,1371
thanks,1372
that,1373
the,1374
the_real_usher,1375
their,1376
them,1377
then,1378
there,1379
these,1380
they,1381
thing,1382
things,1383
think,1384
thinks,1385
this,1386
those,1387
though,1388
thought,1389
throttles,1390
through,1391
thursday,1392
tickets,1393
til,1394
time,1395
timeout,1396
times,1397
tinyurlcom,1398
tipping,1399
tired,1400
tivo,1401
tlot,1402
to,1403
today,1404
together,1405
told,1406
tommorow,1407
tomorrow,1408
tones,1409
tonight,1410
tonite,1411
too,1412
took,1413
tool,1414
tooth,1415
top,1416
torture,1417
totally,1418
tour,1419
toy,1420
training,1421
translator,1422
tree,1423
trek,1424
trend,1425
trial,1426
tribunals,1427
tricking,1428
tricks,1429
tried,1430
trim,1431
trip,1432
trouble,1433
troubleeeee,1434
true,1435
truly,1436
try,1437
tsunami,1438
ttiv,1439
turns,1440
tv,1441
tw,1442
twdvrhtml,1443
tweets,1444
twice,1445
twippin,1446
twitpiccom,1447
twitter,1448
two,1449
twurlnl,1450
txt,1451
typeset,1452
uaw,1453
ugh,1454
ugly,1455
ui,1456
uk,1457
ummm,1458
under,1459
underestimated,1460
understand,1461
unemployed,1462
unfold,1463
unfortunate,1464
unhelpful,1465
united,1466
universal,1467
university,1468
universitys,1469
unlimited,1470
unprepared,1471
until,1472
up,1473
update,1474
upgrade,1475
upset,1476
upside,1477
us,1478
uscsportsparsedtwodigits,1479
use,1480
useless,1481
using,1482
vastly,1483
ve,1484
vehicle,1485
verizon,1486
verse,1487
very,1488
via,1489
video,1490
videos,1491
vincentxparsedtwodigitsx,1492
vios,1493
viral,1494
visa,1495
vitamin,1496
vkerkez,1497
voice,1498
vote,1499
vprpt,1500
vs,1501
wait,1502
walking,1503
want,1504
wantit,1505
wants,1506
warner,1507
warranty,1508
warren,1509
was,1510
wasn,1511
waste,1512
wasted,1513
waster,1514
wat,1515
watch,1516
watched,1517
watchin,1518
watching,1519
water,1520
wave,1521
way,1522
we,1523
webdesign,1524
weekend,1525
weka,1526
well,1527
went,1528
were,1529
weren,1530
wftb,1531
what,1532
when,1533
whenever,1534
where,1535
which,1536
while,1537
white,1538
whitstyles,1539
who,1540
whoever,1541
whole,1542
whoop,1543
whoopi,1544
whose,1545
why,1546
wieden,1547
wikipedia,1548
will,1549
williams,1550
win,1551
winer,1552
winner,1553
winners,1554
wish,1555
with,1556
without,1557
wolfram,1558
wolverine,1559
won,1560
wonder,1561
wonderful,1562
wondering,1563
woot,1564
word,1565
wordwhizkid,1566
work,1567
worked,1568
working,1569
world,1570
worst,1571
worth,1572
would,1573
wouldn,1574
wow,1575
wrist,1576
writers,1577
wrong,1578
wtf,1579
wtfffff,1580
wthi,1581
wwdc,1582
wwwdavehittcom,1583
wwwgoodbysilversteincom,1584
wwwmacpeepscom,1585
wwwmsnbcmsncom,1586
wwwnbccom,1587
wwwparsedtwodigitswolframalphacom,1588
xcparsedonedigitcparseddigits,1589
ya,1590
yahoo,1591
yankees,1592
yarnthing,1593
yay,1594
yea,1595
yeah,1596
yeahhhhhhhhh,1597
yearly,1598
years,1599
yearsgreat,1600
yeeeee,1601
yes,1602
yesterday,1603
yet,1604
yo,1605
york,1606
you,1607
your,1608
youtube,1609
yr,1610
yummmmmy,1611
zealots,1612
zero,1613
zomg,1614
zydrunas,1615
