_â,0
abc,1
able,2
about,3
abroad,4
absence,5
absent,6
absentee,7
abslutely,8
absolutely,9
accent,10
access,11
accommodating,12
accomplishment,13
accomplishments,14
according,15
accurate,16
accurately,17
accusing,18
acknowleding,19
across,20
act,21
acted,22
acting,23
actions,24
acts,25
actually,26
ad,27
add,28
address,29
addressing,30
administration,31
admit,32
admits,33
admitted,34
admitting,35
admittnig,36
ads,37
adult,38
advantage,39
advantages,40
advisor,41
advocating,42
afashionista,43
affairs,44
affiliation,45
afford,46
affordable,47
afgan,48
afganistan,49
afghan,50
afghanis,51
afghanistan,52
afraid,53
africa,54
african,55
after,56
ag,57
again,58
against,59
age,60
ago,61
agore,62
agree,63
agreed,64
agreeing,65
agreements,66
ah,67
ahead,68
ahgparsedonedigit,69
ahmadinejad,70
ahmen,71
ahole,72
aid,73
ain,74
aint,75
air,76
airlines,77
airport,78
aisle,79
aka,80
akmujinadad,81
al,82
alanbenson,83
alaska,84
alexashrugged,85
alienating,86
aligning,87
alindseyparsedonedigit,88
alive,89
all,90
alley,91
allies,92
allowed,93
almost,94
along,95
alpha,96
alphabet,97
already,98
alright,99
also,100
alt,101
alternative,102
alternatives,103
although,104
always,105
am,106
amazing,107
ambitions,108
amen,109
america,110
american,111
americans,112
ammendment,113
among,114
amount,115
amy,116
an,117
analogies,118
analogy,119
analysis,120
anchors,121
and,122
andrewaparsedthreedigits,123
andrewsmith,124
androids,125
angle,126
angry,127
animations,128
anklets,129
annoy,130
annoyance,131
annoying,132
another,133
answer,134
answered,135
answering,136
answers,137
antagonise,138
antes,139
anthem,140
anti,141
ants,142
anwynparsedtwodigits,143
anxious,144
any,145
anymore,146
anyone,147
anything,148
anyway,149
anyways,150
anywhere,151
apart,152
apologizing,153
appalling,154
apparently,155
appealed,156
appear,157
appearance,158
appearances,159
appears,160
applaud,161
apple,162
applies,163
appointed,164
appointments,165
appropriate,166
apt,167
are,168
areas,169
aren,170
argh,171
argument,172
around,173
arpit,174
arrested,175
arrogance,176
arrogant,177
arrrrrrggggggghhhhh,178
articulate,179
articulating,180
artist,181
arugula,182
as,183
asia,184
aside,185
asides,186
ask,187
asked,188
asking,189
asks,190
asleep,191
ass,192
assassination,193
asserting,194
assertion,195
assertive,196
asshole,197
assholes,198
assured,199
at,200
atl,201
atrocious,202
attached,203
attack,204
attacked,205
attacking,206
attacks,207
attempts,208
attention,209
audience,210
autumm,211
average,212
avg,213
avoided,214
avoiding,215
aw,216
away,217
awesme,218
awesome,219
awful,220
awfully,221
awkwardly,222
awsome,223
axis,224
ayers,225
aãºn,226
baaaaack,227
babies,228
baby,229
back,230
background,231
backhanded,232
backs,233
bad,234
badly,235
bag,236
bail,237
bailout,238
bald,239
ball,240
ballots,241
balls,242
bama,243
banished,244
bankrupt,245
banks,246
bar,247
barack,248
barackobama,249
barak,250
barbarakb,251
barbaranixon,252
barely,253
barnes,254
barr,255
barrackobama,256
barry,257
base,258
based,259
basic,260
bastards,261
battery,262
battle,263
be,264
beacon,265
beacuse,266
bear,267
bears,268
beat,269
beating,270
because,271
become,272
becomes,273
bed,274
bedtime,275
beeb,276
been,277
beer,278
before,279
begin,280
beginning,281
behave,282
behind,283
being,284
belicose,285
belief,286
believe,287
believes,288
believing,289
benefits,290
bennet,291
bennett,292
bent,293
besides,294
best,295
bet,296
betray,297
better,298
between,299
beverage,300
bevjack,301
beware,302
beyond,303
bias,304
biased,305
biases,306
bid,307
biden,308
big,309
bigger,310
biggest,311
bile,312
bill,313
billion,314
bills,315
bin,316
bingo,317
bipartisan,318
bit,319
bitch,320
bite,321
bitter,322
biz,323
bjlayland,324
bk,325
black,326
blackberry,327
blah,328
blame,329
blast,330
bleed,331
blendahtom,332
blind,333
blink,334
blinked,335
blinking,336
blinks,337
blinky,338
blog,339
bloggers,340
blood,341
blunders,342
blunt,343
bo,344
board,345
bob,346
bobama,347
body,348
bold,349
bomb,350
bombing,351
bone,352
bones,353
boo,354
boone,355
booty,356
bored,357
boring,358
born,359
borrows,360
bosses,361
both,362
bother,363
bothered,364
bottle,365
bottom,366
bottoms,367
bought,368
boy,369
boyfriend,370
bparsedonedigit,371
bra,372
bracelet,373
bracelets,374
brains,375
brainy,376
brave,377
break,378
breaking,379
breaks,380
brian,381
brianmcalister,382
bridge,383
brilliant,384
bring,385
bringing,386
brings,387
bro,388
broadband,389
broader,390
brokaw,391
broke,392
broken,393
brought,394
brown,395
brutal,396
bs,397
btw,398
buddy,399
budget,400
budgets,401
built,402
bullet,403
bully,404
bummed,405
bummer,406
bump,407
bums,408
bunker,409
bush,410
business,411
busy,412
but,413
butt,414
buy,415
buying,416
by,417
cage,418
cain,419
cains,420
cajones,421
call,422
called,423
calling,424
callow,425
calls,426
calm,427
came,428
camera,429
camp,430
campaign,431
campaigning,432
camps,433
can,434
candidate,435
candidates,436
candy,437
cannot,438
cant,439
capitalist,440
capturing,441
car,442
card,443
cards,444
care,445
cares,446
carolina,447
carribugbee,448
carter,449
casablanca,450
catch,451
catholic,452
caught,453
cause,454
caused,455
cbrn,456
cbs,457
cbsnews,458
cc,459
ceanders,460
celebrity,461
cell,462
central,463
century,464
certain,465
cgritter,466
chairman,467
challenge,468
chance,469
chances,470
change,471
changed,472
changes,473
changing,474
channel,475
channels,476
chapter,477
character,478
charge,479
charity,480
charles,481
charlie,482
chasing,483
chat,484
cheap,485
check,486
checking,487
checks,488
cheered,489
cheers,490
cheese,491
cheney,492
chest,493
chicago,494
child,495
childhood,496
children,497
china,498
chine,499
chinese,500
choice,501
chooses,502
chop,503
choreography,504
chparsedonedigitryl,505
chris,506
chrisabraham,507
christ,508
chuckling,509
chug,510
chump,511
church,512
cindy,513
circle,514
circles,515
cites,516
citizens,517
citizensugar,518
civic,519
civil,520
ck,521
claim,522
claims,523
clarifies,524
clarifying,525
clarity,526
class,527
classical,528
claymaker,529
cld,530
clean,531
cleaning,532
clear,533
clearly,534
cliche,535
clients,536
climate,537
clinching,538
clinging,539
clint,540
clinton,541
clip,542
close,543
closing,544
clubs,545
clueless,546
cnn,547
co,548
coal,549
coast,550
coattails,551
cocktail,552
cognitive,553
coh,554
coincidence,555
colbert,556
cold,557
collapse,558
collapsing,559
collected,560
college,561
collinkelley,562
colloquialisms,563
color,564
column,565
com,566
comcast,567
come,568
comeback,569
comedy,570
comes,571
coming,572
commanded,573
comment,574
commentary,575
commentator,576
commenting,577
comments,578
commission,579
commitee,580
commits,581
committed,582
committee,583
communication,584
comp,585
companies,586
compare,587
compared,588
compares,589
comparing,590
comparitive,591
completely,592
complex,593
comprehensive,594
compromises,595
computer,596
con,597
concealer,598
conceding,599
conches,600
concise,601
concrete,602
condescending,603
conditions,604
condoulo,605
confident,606
confirmation,607
confirmed,608
confrontation,609
confusion,610
cong,611
congenial,612
congeniality,613
congrats,614
congresmen,615
connecting,616
connor,617
consensus,618
conservation,619
conservative,620
conservatives,621
consider,622
consistently,623
conspicuousness,624
constant,625
constantly,626
constipated,627
constituencies,628
construction,629
constructive,630
consult,631
consumers,632
contact,633
contemporary,634
context,635
continually,636
continues,637
continuously,638
contract,639
contracts,640
contrary,641
control,642
controlling,643
controls,644
convention,645
conversation,646
convinced,647
convincing,648
convincingly,649
convoluted,650
cool,651
coolest,652
cooperate,653
coos,654
copying,655
core,656
corner,657
corporate,658
corps,659
corpse,660
correct,661
correction,662
correctly,663
corrupt,664
cost,665
costs,666
could,667
couldn,668
count,669
counter,670
countering,671
counterpoint,672
counterproductive,673
countries,674
country,675
counts,676
coup,677
couric,678
course,679
cover,680
coverage,681
covering,682
covert,683
coward,684
cptn,685
crack,686
cracked,687
cramp,688
crap,689
crappy,690
crawl,691
crazy,692
create,693
created,694
creating,695
creature,696
credd,697
credibility,698
credible,699
credit,700
crediting,701
creep,702
creepy,703
crime,704
cringing,705
crisis,706
criss,707
crooked,708
cross,709
crown,710
cruises,711
crunch,712
cspan,713
cue,714
cuff,715
cuparsedtwodigits,716
curlingriver,717
curreent,718
current,719
currently,720
cuss,721
cut,722
cuts,723
cutting,724
cuz,725
cw,726
cycle,727
cynparsedonedigitmatic,728
dad,729
dafur,730
daily,731
dalbee,732
damn,733
dang,734
dangerous,735
danny,736
daresay,737
darfur,738
dark,739
darth,740
data,741
dates,742
daugher,743
david,744
davidweiner,745
day,746
days,747
dc,748
ddrparsedonedigit,749
de,750
dead,751
deaf,752
deal,753
dealing,754
dear,755
debate,756
debated,757
debateokparsedtwodigits,758
debateparsedtwodigits,759
debater,760
debates,761
debatesparsedtwodigits,762
debatetweets,763
debating,764
debt,765
debte,766
decades,767
deception,768
decide,769
decided,770
decir,771
decision,772
decisions,773
declined,774
decrease,775
decreasing,776
dee,777
deeper,778
deer,779
def,780
defeat,781
defence,782
defense,783
define,784
defined,785
defining,786
definitely,787
definition,788
deja,789
delay,790
deliberately,791
delta,792
dem,793
demanded,794
demean,795
democracies,796
democracy,797
democrat,798
democratic,799
democrats,800
demographic,801
demonstrated,802
dems,803
dentures,804
deny,805
depends,806
deploying,807
depresing,808
depressed,809
depression,810
depth,811
descended,812
describe,813
description,814
desire,815
desperate,816
despicable,817
destroying,818
destruct,819
detail,820
detailed,821
details,822
determines,823
dial,824
diaper,825
diarrhea,826
dibating,827
dick,828
dictator,829
did,830
didn,831
didnt,832
die,833
diebold,834
dies,835
diff,836
difference,837
differences,838
different,839
differentiating,840
difficult,841
dig,842
dignity,843
dinging,844
dingle,845
diplomacy,846
direct,847
direction,848
directly,849
directness,850
directors,851
dirt,852
dis,853
disabled,854
disagree,855
disagreement,856
disappear,857
disappointed,858
disavian,859
disclaimers,860
discuss,861
discussion,862
discussions,863
disdain,864
disease,865
disgrace,866
disheartening,867
dishonor,868
dismissiveness,869
disrespect,870
disrespectful,871
dissing,872
dissonance,873
distinctions,874
distracting,875
diversions,876
divesnob,877
divided,878
divides,879
dizzy,880
dksnyder,881
dna,882
dno,883
do,884
doakes,885
doc,886
doctrine,887
dodging,888
does,889
doesn,890
doesnt,891
doing,892
dollars,893
domestic,894
dominated,895
dominating,896
dominickevans,897
don,898
done,899
dont,900
doorley,901
dor,902
dorkus,903
dose,904
dosing,905
doubt,906
doubtful,907
douchebag,908
down,909
downsokc,910
downtalking,911
dr,912
draw,913
dream,914
dreams,915
dreck,916
dredging,917
drill,918
drilling,919
drink,920
drinking,921
drives,922
driving,923
drones,924
droolfest,925
dropped,926
dropping,927
drops,928
drthomasho,929
drudge,930
drugs,931
drunk,932
drunnells,933
dubya,934
duds,935
due,936
duh,937
dull,938
dumb,939
dummy,940
dunk,941
dunked,942
during,943
dusty,944
duty,945
dvr,946
dweeb,947
dwight,948
dying,949
each,950
early,951
earmark,952
earmarks,953
earn,954
ears,955
earth,956
easiest,957
easily,958
east,959
eastasia,960
eastern,961
easy,962
eat,963
eating,964
economic,965
economics,966
economy,967
ed,968
edge,969
edgeparsedtwodigits,970
editorial,971
educated,972
education,973
eeyore,974
effect,975
effective,976
effing,977
egghead,978
ego,979
eh,980
either,981
elaineschoch,982
elder,983
elect,984
electd,985
elected,986
election,987
electionparsedfourdigits,988
electionparsedtwodigits,989
electrical,990
eligible,991
eliminating,992
elitist,993
eloquent,994
else,995
em,996
embarassing,997
embolden,998
emilychang,999
emotion,1000
emotional,1001
emotive,1002
emphasis,1003
emphasize,1004
emphasizing,1005
emptively,1006
empty,1007
encourage,1008
encouraging,1009
end,1010
ending,1011
ends,1012
endtherobocalls,1013
enemies,1014
enemy,1015
energy,1016
enforcement,1017
engage,1018
engaged,1019
enjoy,1020
enjoyed,1021
enjoying,1022
enough,1023
enslave,1024
entails,1025
entertaining,1026
entire,1027
entitlement,1028
environmental,1029
epic,1030
episode,1031
equating,1032
err,1033
ers,1034
esonnenberg,1035
esoteric,1036
esp,1037
especially,1038
essential,1039
etc,1040
ethanol,1041
eugene,1042
evading,1043
even,1044
evening,1045
ever,1046
everone,1047
every,1048
everybody,1049
everyone,1050
everything,1051
everytime,1052
everywhere,1053
evidence,1054
evil,1055
evolver,1056
exactly,1057
examine,1058
example,1059
examples,1060
exceeed,1061
excellent,1062
except,1063
excessive,1064
exciting,1065
existential,1066
existentialism,1067
exits,1068
exp,1069
expect,1070
expectations,1071
expected,1072
expensive,1073
experience,1074
expert,1075
expertise,1076
experts,1077
explain,1078
explained,1079
explaining,1080
explore,1081
export,1082
exporter,1083
exporting,1084
expounding,1085
expressing,1086
exprience,1087
extraction,1088
eye,1089
eyeblinking,1090
eyemakeup,1091
eyes,1092
eyetv,1093
face,1094
facebook,1095
fact,1096
factcheck,1097
factchecker,1098
factor,1099
factoryjoe,1100
facts,1101
fail,1102
failed,1103
failing,1104
failure,1105
fairly,1106
fake,1107
fakejohnmccain,1108
fakeness,1109
fall,1110
falling,1111
false,1112
falsehoods,1113
family,1114
fan,1115
fanatic,1116
far,1117
fare,1118
fashion,1119
fast,1120
faster,1121
father,1122
faults,1123
faux,1124
favored,1125
fear,1126
fearmongering,1127
fears,1128
feathers,1129
fed,1130
federal,1131
feeble,1132
feed,1133
feedback,1134
feel,1135
feeling,1136
feels,1137
fell,1138
fellas,1139
felon,1140
felt,1141
fest,1142
festooned,1143
few,1144
fiasco,1145
fibber,1146
fight,1147
fighting,1148
figure,1149
filled,1150
final,1151
finally,1152
financial,1153
find,1154
finds,1155
finger,1156
finish,1157
finished,1158
fire,1159
fired,1160
firefly,1161
fireside,1162
firm,1163
first,1164
fiscal,1165
fist,1166
fit,1167
five,1168
fix,1169
fixed,1170
fixin,1171
flag,1172
flap,1173
flare,1174
flat,1175
flatline,1176
flexibility,1177
flip,1178
floor,1179
flop,1180
flopped,1181
flucked,1182
flustered,1183
fo,1184
focus,1185
focusing,1186
followed,1187
follower,1188
followers,1189
following,1190
fools,1191
foot,1192
footage,1193
for,1194
forceful,1195
foreign,1196
foreigner,1197
forever,1198
forget,1199
foriegn,1200
forth,1201
forward,1202
fought,1203
four,1204
fox,1205
fp,1206
fr,1207
frackity,1208
framework,1209
frankly,1210
freaked,1211
freakin,1212
fred,1213
free,1214
freedom,1215
freeulysses,1216
freeze,1217
french,1218
frequent,1219
friday,1220
friend,1221
friends,1222
frivolous,1223
frm,1224
from,1225
front,1226
fruck,1227
frucked,1228
frustrating,1229
ftw,1230
fuck,1231
fucked,1232
fucking,1233
fuel,1234
fuelled,1235
full,1236
fun,1237
function,1238
fund,1239
fundamental,1240
fundamentalists,1241
fundamentally,1242
fundamentals,1243
funding,1244
funnier,1245
funny,1246
further,1247
futher,1248
future,1249
fuzzy,1250
gaaaaaaah,1251
gaffe,1252
gained,1253
gaining,1254
game,1255
garbage,1256
garrett,1257
gas,1258
gasbaggery,1259
gasp,1260
gave,1261
gaze,1262
gd,1263
geez,1264
general,1265
genocide,1266
gent,1267
gentlemen,1268
gently,1269
georgia,1270
geppetto,1271
gergen,1272
germany,1273
get,1274
gets,1275
getting,1276
gi,1277
gibson,1278
gimme,1279
giuliani,1280
give,1281
given,1282
gives,1283
giving,1284
glad,1285
glance,1286
glazing,1287
global,1288
globe,1289
gloreebeparsedtwodigits,1290
glover,1291
glueandglitter,1292
gmilf,1293
gminks,1294
gnimsh,1295
go,1296
goc,1297
god,1298
goes,1299
goin,1300
going,1301
golden,1302
gonna,1303
good,1304
goodbye,1305
goodnight,1306
google,1307
gop,1308
gore,1309
got,1310
gotta,1311
gov,1312
govern,1313
government,1314
govt,1315
grab,1316
graciously,1317
grad,1318
grades,1319
graduate,1320
graham,1321
gramps,1322
grampy,1323
grandfather,1324
grandpa,1325
graph,1326
great,1327
greatest,1328
greed,1329
green,1330
greenburg,1331
grid,1332
grieving,1333
grin,1334
grinning,1335
ground,1336
grow,1337
growing,1338
grpress,1339
grrrrrrrrrrrrrrr,1340
grumpy,1341
guantanamo,1342
guard,1343
guerra,1344
guess,1345
guessing,1346
guiliani,1347
guillliani,1348
guilty,1349
gurgen,1350
guy,1351
guys,1352
gving,1353
gwb,1354
gwot,1355
ha,1356
haaaa,1357
hack,1358
hackparsedtwodigits,1359
had,1360
hadn,1361
hah,1362
haha,1363
hahahah,1364
half,1365
hallelujah,1366
halperin,1367
hammered,1368
hammering,1369
hand,1370
handle,1371
handling,1372
handouts,1373
hands,1374
handshake,1375
hangin,1376
happen,1377
happened,1378
happening,1379
happens,1380
happy,1381
hard,1382
harder,1383
hardest,1384
hardly,1385
harm,1386
harping,1387
harsh,1388
harvard,1389
harverd,1390
has,1391
hasn,1392
haste,1393
hatchet,1394
hate,1395
hates,1396
hating,1397
hats,1398
haunt,1399
have,1400
haven,1401
having,1402
hd,1403
he,1404
head,1405
headed,1406
headlights,1407
headon,1408
heal,1409
health,1410
healthcare,1411
healthy,1412
hear,1413
heard,1414
hearing,1415
hears,1416
heart,1417
heartstring,1418
heartstrings,1419
heat,1420
heck,1421
heed,1422
heh,1423
height,1424
heights,1425
held,1426
hell,1427
help,1428
helped,1429
helping,1430
henry,1431
her,1432
here,1433
heres,1434
hero,1435
heroes,1436
hes,1437
hesitation,1438
hexed,1439
hey,1440
hi,1441
hide,1442
hiding,1443
higgins,1444
high,1445
highest,1446
highway,1447
hilarious,1448
hillary,1449
him,1450
himself,1451
his,1452
historical,1453
history,1454
hit,1455
hitler,1456
hits,1457
hmm,1458
hnoftall,1459
hogging,1460
holds,1461
hole,1462
holes,1463
holocaust,1464
holy,1465
home,1466
homefront,1467
homework,1468
honest,1469
honestly,1470
honor,1471
honoring,1472
honorless,1473
hook,1474
hoot,1475
hope,1476
hopefully,1477
hoping,1478
hornets,1479
horrible,1480
horse,1481
hot,1482
hothead,1483
hour,1484
hours,1485
house,1486
household,1487
houses,1488
housing,1489
how,1490
howard,1491
however,1492
hrc,1493
http,1494
huge,1495
hugs,1496
huh,1497
human,1498
humor,1499
humorous,1500
hunting,1501
hurt,1502
husband,1503
hyping,1504
ia,1505
idea,1506
idealistic,1507
ideas,1508
identifying,1509
ideological,1510
ideology,1511
idiot,1512
if,1513
ignorance,1514
ignorant,1515
ignore,1516
ignored,1517
ii,1518
ikr,1519
illusion,1520
im,1521
image,1522
imagine,1523
imarilove,1524
imed,1525
imo,1526
impeach,1527
implode,1528
imploding,1529
import,1530
importance,1531
important,1532
impossible,1533
impressed,1534
impressions,1535
impressive,1536
improper,1537
in,1538
inauguration,1539
incapable,1540
included,1541
includes,1542
including,1543
income,1544
increases,1545
incursions,1546
ind,1547
indeed,1548
indep,1549
indepedence,1550
independence,1551
independent,1552
independents,1553
indirectly,1554
individual,1555
inducing,1556
industrial,1557
industrious,1558
industry,1559
inefficiency,1560
inevitable,1561
infants,1562
infinitelymeta,1563
inflexible,1564
info,1565
infomania,1566
informal,1567
information,1568
infrastructure,1569
inherently,1570
initial,1571
initially,1572
initials,1573
inserting,1574
inside,1575
insistence,1576
insisting,1577
inspired,1578
instead,1579
instructions,1580
insult,1581
insulting,1582
insurance,1583
int,1584
intelligence,1585
intelligent,1586
intelligently,1587
intense,1588
interact,1589
interest,1590
interesting,1591
interests,1592
interjections,1593
international,1594
internationally,1595
interrogation,1596
interromption,1597
interrupt,1598
interrupted,1599
interrupting,1600
interruptions,1601
interrupts,1602
intersting,1603
interventions,1604
interview,1605
interviews,1606
intimidated,1607
into,1608
introducing,1609
invade,1610
invading,1611
invest,1612
investigations,1613
invite,1614
invited,1615
invoke,1616
involved,1617
ious,1618
iphone,1619
iran,1620
iranians,1621
iraq,1622
iraqis,1623
iraquis,1624
irish,1625
iron,1626
irony,1627
irrelevant,1628
is,1629
island,1630
isn,1631
isnt,1632
israel,1633
israelpattison,1634
issue,1635
issues,1636
it,1637
ita,1638
italian,1639
italy,1640
itchy,1641
item,1642
items,1643
ites,1644
itineraries,1645
its,1646
itself,1647
jack,1648
jackass,1649
jackboots,1650
jackson,1651
jail,1652
jalenjade,1653
janoss,1654
janosschumacher,1655
jaws,1656
jaymesiemer,1657
jerk,1658
jerks,1659
jerry,1660
jesus,1661
jill,1662
jim,1663
jk,1664
jlapplegate,1665
jm,1666
jmccain,1667
job,1668
jobs,1669
jock,1670
joe,1671
john,1672
johnny,1673
johnnys,1674
join,1675
joke,1676
jokes,1677
joking,1678
jowyang,1679
jpippert,1680
jpmicek,1681
juan,1682
judgement,1683
judgment,1684
judgmt,1685
juice,1686
juliani,1687
jumping,1688
just,1689
justified,1690
justingunn,1691
karate,1692
kassifan,1693
kathrynjones,1694
kcrusher,1695
kctrey,1696
keating,1697
keatingparsedonedigit,1698
keep,1699
keeping,1700
keeps,1701
keith,1702
kellyrenee,1703
kenndey,1704
kennedy,1705
kenya,1706
kept,1707
kerry,1708
kettle,1709
kevinbinversie,1710
key,1711
keys,1712
keystone,1713
kgb,1714
kicked,1715
kicking,1716
kid,1717
kidding,1718
kids,1719
kiilin,1720
kill,1721
killed,1722
killer,1723
killin,1724
killing,1725
kind,1726
kinda,1727
kissenger,1728
kisses,1729
kissing,1730
kissinger,1731
kitchen,1732
klingon,1733
knees,1734
knew,1735
know,1736
knowing,1737
knowledge,1738
knowledgeable,1739
known,1740
knows,1741
korea,1742
koreans,1743
korym,1744
kramsey,1745
krississippi,1746
kudos,1747
kwilsonparsedonedigitaustin,1748
la,1749
labor,1750
lack,1751
lacking,1752
laden,1753
ladin,1754
lame,1755
land,1756
landing,1757
lane,1758
language,1759
lapel,1760
laptop,1761
lar,1762
last,1763
late,1764
lately,1765
later,1766
latest,1767
laugh,1768
laughing,1769
laughterkey,1770
law,1771
lawn,1772
laying,1773
lead,1774
leader,1775
leaders,1776
leadership,1777
leading,1778
league,1779
learn,1780
learned,1781
least,1782
leave,1783
leaving,1784
lecturing,1785
leep,1786
left,1787
leg,1788
legislation,1789
legitimize,1790
legitimizies,1791
legs,1792
lehrer,1793
lerher,1794
less,1795
lesson,1796
lessons,1797
let,1798
lethal,1799
lets,1800
letting,1801
level,1802
leveraging,1803
lhc,1804
liable,1805
liar,1806
liberal,1807
liberty,1808
libre,1809
licking,1810
lie,1811
lieberman,1812
lies,1813
lieu,1814
lifestudentparsedtwodigits,1815
lifetime,1816
light,1817
likable,1818
like,1819
liked,1820
likely,1821
likes,1822
liking,1823
lil,1824
lindagoin,1825
lindsey,1826
line,1827
lines,1828
linking,1829
links,1830
lipstickvp,1831
lisp,1832
list,1833
listened,1834
listening,1835
literally,1836
litterthisheart,1837
little,1838
live,1839
lived,1840
lives,1841
ll,1842
lobbyist,1843
locked,1844
logic,1845
lol,1846
lone,1847
long,1848
look,1849
looked,1850
looking,1851
looks,1852
lookups,1853
loop,1854
loopholes,1855
loose,1856
looses,1857
loosing,1858
lord,1859
lose,1860
loses,1861
losing,1862
lost,1863
lot,1864
lots,1865
loud,1866
lousy,1867
love,1868
loved,1869
lover,1870
loving,1871
low,1872
lucid,1873
lucky,1874
lumatts,1875
lurch,1876
ly,1877
lying,1878
ma,1879
mabrahamparsedonedigit,1880
mac,1881
macain,1882
macartisan,1883
maccainshot,1884
machine,1885
machines,1886
maddow,1887
made,1888
maher,1889
mailourmilitary,1890
main,1891
mainstreet,1892
maintain,1893
major,1894
majority,1895
make,1896
makeitendnow,1897
makes,1898
makeup,1899
making,1900
malaise,1901
male,1902
mamalogues,1903
mamikaze,1904
man,1905
manage,1906
managed,1907
manfactured,1908
manfacturing,1909
manipulative,1910
manners,1911
many,1912
map,1913
margin,1914
mark,1915
market,1916
markets,1917
martinbowling,1918
marytrigiani,1919
mashing,1920
mashup,1921
mask,1922
master,1923
mat,1924
match,1925
matched,1926
materials,1927
math,1928
matter,1929
matthews,1930
matttbastard,1931
maverick,1932
may,1933
maybe,1934
mc,1935
mcain,1936
mcains,1937
mcblinky,1938
mcbush,1939
mcc,1940
mccai,1941
mccain,1942
mccaine,1943
mccainiacs,1944
mccains,1945
mccainshot,1946
mccamus,1947
mcccain,1948
mclame,1949
mclehrer,1950
mcpain,1951
mcpow,1952
mcsame,1953
me,1954
mean,1955
meant,1956
measured,1957
measuring,1958
media,1959
medializzy,1960
medical,1961
meds,1962
meet,1963
meeting,1964
meh,1965
meister,1966
mel,1967
membrane,1968
memorable,1969
men,1970
mention,1971
mentioned,1972
mentioning,1973
mentions,1974
mercurymetro,1975
mess,1976
message,1977
messages,1978
met,1979
method,1980
meyers,1981
mgr,1982
mia,1983
mic,1984
michael,1985
michael_lehman,1986
michdot,1987
mics,1988
middle,1989
might,1990
mikemadden,1991
milf,1992
militant,1993
military,1994
milk,1995
million,1996
min,1997
mind,1998
minded,1999
mindlessly,2000
minds,2001
minerals,2002
mins,2003
minus,2004
minute,2005
minutes,2006
miscalculated,2007
mischaracterizing,2008
misleading,2009
mispronounce,2010
mispronouncing,2011
misquotes,2012
misrepresentng,2013
miss,2014
missed,2015
missile,2016
missing,2017
mission,2018
mississippi,2019
mississippianna,2020
missle,2021
missouri,2022
mistake,2023
mistakes,2024
misterrob,2025
mistreated,2026
mkantonelli,2027
mlive,2028
mntions,2029
mo,2030
mod,2031
mode,2032
moderating,2033
moderator,2034
moderators,2035
moired,2036
moldy,2037
mom,2038
moment,2039
momocrats,2040
money,2041
monger,2042
monitoring,2043
monotone,2044
montana,2045
moose,2046
more,2047
moritazul,2048
most,2049
mostly,2050
mother,2051
mountains,2052
mouth,2053
move,2054
moved,2055
moving,2056
movingsideways,2057
mr,2058
ms,2059
msblog,2060
msgs,2061
msnbc,2062
mstparsedonedigitk,2063
mt,2064
much,2065
muddle,2066
muddled,2067
muscles,2068
musharraf,2069
musharuf,2070
music,2071
must,2072
my,2073
myself,2074
naieve,2075
nailing,2076
naive,2077
name,2078
namecalling,2079
names,2080
naming,2081
nasty,2082
national,2083
nations,2084
natural,2085
naval,2086
nay,2087
nbc,2088
near,2089
nearly,2090
neat,2091
necessity,2092
necklace,2093
need,2094
needed,2095
needs,2096
negative,2097
negotiating,2098
neighbors,2099
neil,2100
neither,2101
nerves,2102
nervous,2103
nest,2104
network,2105
never,2106
new,2107
newamericancentury,2108
news,2109
newshour,2110
next,2111
nh,2112
nice,2113
nicely,2114
nielsen,2115
night,2116
nightly,2117
nin,2118
nixon,2119
no,2120
nobamaparsedonedigitthismama,2121
nobody,2122
nod,2123
nohype,2124
nominee,2125
non,2126
nonsense,2127
nope,2128
nor,2129
normalization,2130
northwest,2131
not,2132
note,2133
notes,2134
nothing,2135
notice,2136
noticed,2137
noticing,2138
notion,2139
noun,2140
now,2141
nowhere,2142
nuanced,2143
nubianvixen,2144
nuclear,2145
nukes,2146
number,2147
nursing,2148
nutjob,2149
nuts,2150
obam,2151
obama,2152
obamanot,2153
obamas,2154
obamashot,2155
obamba,2156
obamowned,2157
objecting,2158
objective,2159
objectives,2160
obladen,2161
obmet,2162
obscure,2163
observations,2164
observes,2165
obsessed,2166
obv,2167
obviously,2168
oct,2169
october,2170
oddly,2171
of,2172
ofcourse,2173
off,2174
offense,2175
offensive,2176
offering,2177
office,2178
official,2179
offshore,2180
often,2181
oh,2182
ohhh,2183
ohhhh,2184
oil,2185
ok,2186
okay,2187
ol,2188
olbermann,2189
old,2190
older,2191
omaba,2192
omfg,2193
omg,2194
on,2195
once,2196
one,2197
ones,2198
ongoing,2199
online,2200
only,2201
ooh,2202
oohh,2203
oooh,2204
oooo,2205
oops,2206
open,2207
opinion,2208
opinions,2209
opponents,2210
opportunity,2211
oppose,2212
opposed,2213
opposing,2214
opt,2215
optical,2216
or,2217
orbitaldiamonds,2218
order,2219
ordianry,2220
ordinary,2221
org,2222
organization,2223
organizations,2224
orgs,2225
orgy,2226
original,2227
osagt,2228
osaoparsedonedigit,2229
osaqb,2230
ota,2231
other,2232
others,2233
otherwise,2234
ouch,2235
our,2236
ourselves,2237
out,2238
outcry,2239
outfit,2240
outright,2241
outsidel,2242
outta,2243
over,2244
overall,2245
overflight,2246
overplaying,2247
overseas,2248
oversight,2249
owe,2250
own,2251
oy,2252
pa,2253
pacific,2254
paint,2255
pakistan,2256
pakistani,2257
paliin,2258
palin,2259
pamelawella,2260
pandering,2261
pants,2262
para,2263
parachute,2264
parents,2265
parseddigits,2266
parseddigits_,2267
parseddigitsst,2268
parsedfourdigits,2269
parsedfourdigitss,2270
parsedonedigit,2271
parsedonedigitam,2272
parsedonedigitb,2273
parsedonedigitchan,2274
parsedonedigitchn,2275
parsedonedigitcic,2276
parsedonedigitcparseddigitsl,2277
parsedonedigitdolsf,2278
parsedonedigitfeparsedonedigithh,2279
parsedonedigitfqparsedonedigitqy,2280
parsedonedigitfrbparsedonedigitc,2281
parsedonedigitjdyparsedtwodigits,2282
parsedonedigitln,2283
parsedonedigitnd,2284
parsedonedigitpabty,2285
parsedonedigitpt,2286
parsedonedigitpts,2287
parsedonedigitqparseddigitsfparsedonedigitd,2288
parsedonedigitqxcwr,2289
parsedonedigitst,2290
parsedonedigitt,2291
parsedonedigitvlts,2292
parsedonedigitvlxx,2293
parsedonedigitzhwparsedtwodigits,2294
parsedthreedigits,2295
parsedthreedigitsb,2296
parsedthreedigitsm,2297
parsedtwodigits,2298
parsedtwodigitsb,2299
parsedtwodigitskgparsedonedigit,2300
parsedtwodigitsnparseddigitsw,2301
parsedtwodigitss,2302
parsedtwodigitsst,2303
parsedtwodigitsvparsedonedigitkc,2304
part,2305
participate,2306
participatory,2307
parties,2308
partisan,2309
partner,2310
partnering,2311
partners,2312
parts,2313
party,2314
pass,2315
passion,2316
passive,2317
past,2318
patience,2319
patrickruffini,2320
patronizing,2321
pave,2322
pavlicko,2323
pay,2324
paying,2325
pbs,2326
peace,2327
peacekeeper,2328
pedantic,2329
pedophile,2330
peeps,2331
pens,2332
people,2333
peoples,2334
per,2335
perceived,2336
percent,2337
perception,2338
performance,2339
perinandy,2340
period,2341
person,2342
personable,2343
personal,2344
perspective,2345
persuaded,2346
peru,2347
petraeus,2348
petreaus,2349
petty,2350
petulant,2351
pg,2352
philly,2353
phillyd,2354
phrase,2355
phrases,2356
pick,2357
picked,2358
pickens,2359
picking,2360
pie,2361
piece,2362
pilot,2363
pin,2364
pinned,2365
pinocchio,2366
pins,2367
pissed,2368
pissing,2369
pity,2370
pizza,2371
pjsmommy,2372
place,2373
places,2374
plan,2375
planes,2376
planet,2377
plans,2378
plants,2379
plastic,2380
platform,2381
play,2382
played,2383
playing,2384
plays,2385
pleasant,2386
pleasantly,2387
please,2388
pleeze,2389
plenty,2390
plotting,2391
ploys,2392
plug,2393
plugging,2394
plundering,2395
plus,2396
pocket,2397
pockets,2398
podium,2399
point,2400
pointed,2401
pointing,2402
pointless,2403
points,2404
polar,2405
polfeeds,2406
policies,2407
policing,2408
policy,2409
politcs,2410
polite,2411
political,2412
politically,2413
politics,2414
poll,2415
polled,2416
polling,2417
poor,2418
poorly,2419
pope,2420
poprl,2421
popular,2422
popularity,2423
population,2424
por,2425
pork,2426
porky,2427
position,2428
positioning,2429
positions,2430
positive,2431
possible,2432
post,2433
postman,2434
posts,2435
pot,2436
potential,2437
potus,2438
pouncing,2439
pound,2440
pounding,2441
poured,2442
pow,2443
power,2444
powerful,2445
ppl,2446
practice,2447
praising,2448
praying,2449
pre,2450
preciouses,2451
preconditions,2452
predicting,2453
pregnant,2454
prep,2455
prepare,2456
preparedness,2457
preparing,2458
prepped,2459
pres,2460
presence,2461
present,2462
presidency,2463
president,2464
presidential,2465
press,2466
pretty,2467
previous,2468
prez,2469
price,2470
priceless,2471
prick,2472
pride,2473
primaries,2474
primary,2475
prior,2476
priorities,2477
priority,2478
prison,2479
prisoner,2480
prisoners,2481
privilege,2482
pro,2483
prob,2484
probably,2485
problem,2486
problems,2487
problogger,2488
produce,2489
products,2490
professor,2491
professorial,2492
profit,2493
program,2494
programs,2495
progress,2496
progressive,2497
projecting,2498
promo,2499
promoting,2500
pronounces,2501
pronouncing,2502
pronunciation,2503
propaganda,2504
properly,2505
proposed,2506
prosperity,2507
protect,2508
protests,2509
proud,2510
prov,2511
proved,2512
proverbial,2513
provide,2514
provocative,2515
prune,2516
pt,2517
pts,2518
pub,2519
public,2520
publicly,2521
pulease,2522
pull,2523
pulled,2524
pulling,2525
pulse,2526
punch,2527
pundit,2528
pundits,2529
purple,2530
pushed,2531
pushing,2532
put,2533
putin,2534
puts,2535
putting,2536
pwning,2537
qaeda,2538
quaeda,2539
qualified,2540
que,2541
queda,2542
queen,2543
question,2544
questions,2545
quibbling,2546
quick,2547
quickly,2548
quiet,2549
quit,2550
quite,2551
quotable,2552
quote,2553
quoteable,2554
quoting,2555
rachel,2556
racist,2557
rad,2558
radio,2559
raised,2560
raising,2561
ralphie,2562
rambleing,2563
rambling,2564
ran,2565
randy,2566
rapid,2567
raps,2568
rate,2569
rather,2570
rating,2571
ratings,2572
re,2573
reaching,2574
reaction,2575
read,2576
readers,2577
ready,2578
reagan,2579
reaganomics,2580
real,2581
reality,2582
realize,2583
reall,2584
really,2585
reason,2586
reasserting,2587
rebuttal,2588
rebutted,2589
rebutting,2590
recall,2591
recanting,2592
receives,2593
recent,2594
reception,2595
recession,2596
reckless,2597
recognition,2598
recognizing,2599
record,2600
recovery,2601
redundancy,2602
reed,2603
reenlisting,2604
reference,2605
refers,2606
refine,2607
reform,2608
refreshing,2609
refund,2610
refute,2611
regained,2612
regan,2613
regard,2614
regarding,2615
regardless,2616
register,2617
registration,2618
regulated,2619
regulation,2620
rehearsed,2621
reilly,2622
related,2623
relates,2624
relating,2625
relations,2626
relax,2627
relevancy,2628
relevant,2629
religious,2630
relocating,2631
relying,2632
remains,2633
remark,2634
remarks,2635
remember,2636
remembered,2637
remind,2638
reminded,2639
reminder,2640
reminds,2641
reminiscent,2642
remove,2643
removing,2644
renewable,2645
rep,2646
repeated,2647
repeating,2648
replacement,2649
reporter,2650
reporting,2651
reports,2652
reps,2653
republican,2654
republicans,2655
repubs,2656
reputation,2657
rescue,2658
research,2659
resist,2660
resolved,2661
resonates,2662
resources,2663
resp,2664
respect,2665
respected,2666
respectful,2667
respond,2668
response,2669
responses,2670
responsibilities,2671
responsibility,2672
responsible,2673
rest,2674
restore,2675
restoring,2676
result,2677
resumed,2678
ret,2679
retarded,2680
retire,2681
retort,2682
retroactively,2683
return,2684
retweet,2685
retweeting,2686
reuse,2687
revealing,2688
reverse,2689
reverting,2690
review,2691
revisionist,2692
revolutionary,2693
rezko,2694
rhetorical,2695
rich,2696
ricksanchezcnn,2697
rides,2698
ridiculous,2699
riding,2700
right,2701
rights,2702
risk,2703
risks,2704
road,2705
roadkillrefugee,2706
robert,2707
robertbluey,2708
robinson,2709
rock,2710
rocked,2711
rocking,2712
rocks,2713
rodgers,2714
roll,2715
rolling,2716
ronald,2717
room,2718
roosevelt,2719
root,2720
roots,2721
rosevelt,2722
round,2723
rove,2724
rt,2725
rtbmaleszyk,2726
rubbish,2727
rude,2728
rudy,2729
ruffle,2730
rufus,2731
rug,2732
rule,2733
rules,2734
run,2735
runaway,2736
runner,2737
running,2738
runs,2739
rural,2740
russia,2741
russian,2742
russians,2743
sack,2744
sad,2745
sadly,2746
safe,2747
safely,2748
safer,2749
said,2750
sake,2751
saldarji,2752
salesman,2753
salute,2754
same,2755
sameoldsame,2756
sample,2757
sappy,2758
sarah,2759
sarking,2760
saturday,2761
saw,2762
say,2763
saying,2764
says,2765
scalpel,2766
scapel,2767
scars,2768
scary,2769
scaryy,2770
scbalazs,2771
scheunemann,2772
schlep,2773
school,2774
schooling,2775
schtick,2776
science,2777
scolding,2778
score,2779
scorecard,2780
scoring,2781
scot,2782
screen,2783
screw,2784
screwed,2785
screwing,2786
script,2787
scripted,2788
scumbag,2789
sdi,2790
seal,2791
seals,2792
seanhackbarth,2793
search,2794
searching,2795
season,2796
seasonothebitch,2797
sec,2798
second,2799
secret,2800
secure,2801
security,2802
see,2803
seeing,2804
seem,2805
seemed,2806
seems,2807
seen,2808
sees,2809
seguã,2810
selected,2811
selecting,2812
selection,2813
self,2814
sen,2815
senate,2816
senator,2817
senators,2818
send,2819
sends,2820
sensationalism,2821
sense,2822
sent,2823
sentence,2824
sentences,2825
serious,2826
seriously,2827
server,2828
service,2829
services,2830
set,2831
several,2832
sexist,2833
sh,2834
shadow,2835
shakeup,2836
shapes,2837
sharks,2838
she,2839
sheesh,2840
sheriff,2841
shining,2842
shirt,2843
shit,2844
shitty,2845
shiz,2846
shocked,2847
shoes,2848
shook,2849
shooting,2850
shore,2851
short,2852
shot,2853
should,2854
shouldn,2855
show,2856
showed,2857
showing,2858
shown,2859
shows,2860
shut,2861
sick,2862
side,2863
sided,2864
sides,2865
sidestepped,2866
sigh,2867
sight,2868
sign,2869
sigue,2870
silent,2871
simple,2872
simplifying,2873
simply,2874
simpson,2875
since,2876
sing,2877
sings,2878
sir,2879
sisterstalk,2880
sit,2881
site,2882
sites,2883
sitting,2884
situation,2885
skeleton,2886
skin,2887
skipping,2888
slaaaaaammm,2889
slam,2890
slammed,2891
slamming,2892
slanted,2893
sleep,2894
slighted,2895
slightly,2896
slime,2897
slipped,2898
slogan,2899
slogans,2900
slow,2901
smart,2902
smarter,2903
smb,2904
smearing,2905
smheadhunter,2906
smile,2907
smiles,2908
smiling,2909
smirk,2910
smirking,2911
smirks,2912
smoke,2913
smooth,2914
smoothest,2915
smug,2916
snide,2917
snipr,2918
snooksparsedtwodigits,2919
snore,2920
snow,2921
snuck,2922
snurl,2923
so,2924
sob,2925
social,2926
society,2927
solar,2928
solder,2929
soldier,2930
soldiers,2931
solely,2932
solution,2933
some,2934
somehow,2935
someone,2936
something,2937
sometimes,2938
somewhere,2939
songbird,2940
songs,2941
soo,2942
soon,2943
sooo,2944
soooo,2945
sorry,2946
souls,2947
sound,2948
soundbite,2949
sounded,2950
sounding,2951
sounds,2952
south,2953
southern,2954
space,2955
spain,2956
speak,2957
speaking,2958
speaks,2959
specific,2960
speech,2961
speeches,2962
speed,2963
spend,2964
spending,2965
spends,2966
spent,2967
spew,2968
spike,2969
spin,2970
spinner,2971
spoke,2972
spoofs,2973
spouses,2974
springer,2975
spun,2976
stability,2977
stable,2978
staffer,2979
stage,2980
staged,2981
stalling,2982
stance,2983
stand,2984
standard,2985
standing,2986
stands,2987
star,2988
staring,2989
start,2990
started,2991
starting,2992
starts,2993
state,2994
statement,2995
statements,2996
states,2997
status,2998
staunch,2999
stay,3000
stayed,3001
staying,3002
stealingsand,3003
step,3004
stereotype,3005
stevenbjohnson,3006
stick,3007
sticking,3008
stiff,3009
still,3010
stillgray,3011
stinking,3012
stirred,3013
stole,3014
stood,3015
stoopid,3016
stoops,3017
stop,3018
stopped,3019
stops,3020
storage,3021
stories,3022
storing,3023
storm,3024
story,3025
straight,3026
strained,3027
strait,3028
straps,3029
strategic,3030
strategies,3031
strategist,3032
strategy,3033
stray,3034
streaming,3035
street,3036
strength,3037
strengthens,3038
stressing,3039
stretch,3040
strides,3041
stringing,3042
strings,3043
striper,3044
strokes,3045
strong,3046
stronger,3047
strongest,3048
strongly,3049
stubborn,3050
stubbornness,3051
stuck,3052
studied,3053
study,3054
stuff,3055
stumbled,3056
stump,3057
stunt,3058
stupid,3059
stuttering,3060
style,3061
subcommittee,3062
subject,3063
subliminal,3064
subsidies,3065
substance,3066
succeed,3067
succeeded,3068
success,3069
successes,3070
successful,3071
such,3072
sucked,3073
sucking,3074
sucks,3075
sudden,3076
suffer,3077
suffering,3078
suggest,3079
suicide,3080
suit,3081
suited,3082
sull,3083
summed,3084
sums,3085
sung,3086
sunk,3087
sup,3088
superior,3089
superiority,3090
supes,3091
support,3092
supported,3093
supporter,3094
supporters,3095
supporting,3096
supports,3097
supposed,3098
sure,3099
surge,3100
surprise,3101
surprised,3102
suspended,3103
suspension,3104
suticase,3105
swallow,3106
swayed,3107
sweet,3108
swift,3109
swiftly,3110
swipes,3111
sxephil,3112
sympathy,3113
symptom,3114
symptoms,3115
system,3116
tabloid,3117
tackling,3118
taclke,3119
tactic,3120
tactical,3121
tactics,3122
tag,3123
tail,3124
tails,3125
tailspin,3126
tainted,3127
take,3128
taken,3129
takes,3130
taking,3131
taliban,3132
talk,3133
talked,3134
talking,3135
talks,3136
taller,3137
tally,3138
tangents,3139
tank,3140
tanner,3141
target,3142
tarheelcoxn,3143
task,3144
tax,3145
taxation,3146
taxdollars,3147
taxes,3148
taxing,3149
taxpayers,3150
tayari,3151
tdefren,3152
tea,3153
teach,3154
teacher,3155
teaching,3156
team,3157
tears,3158
tech,3159
technology,3160
technosailor,3161
teen,3162
teenagers,3163
teeth,3164
teh,3165
telegraphic,3166
teleprompter,3167
television,3168
teling,3169
tell,3170
telling,3171
temper,3172
temporaryone,3173
ten,3174
tendancies,3175
tequila,3176
term,3177
terms,3178
territory,3179
terror,3180
terrorism,3181
terrorist,3182
terrorists,3183
test,3184
than,3185
thang,3186
thank,3187
thanks,3188
thankya,3189
that,3190
thats,3191
thay,3192
the,3193
thedailydg,3194
theebaykparsedonedigitd,3195
their,3196
theirs,3197
them,3198
theme,3199
themselves,3200
then,3201
thepuck,3202
there,3203
therefore,3204
these,3205
they,3206
thing,3207
things,3208
think,3209
thinker,3210
thinking,3211
thinks,3212
third,3213
this,3214
those,3215
though,3216
thought,3217
thousands,3218
thread,3219
threads,3220
threat,3221
threaten,3222
three,3223
throat,3224
through,3225
throughout,3226
throw,3227
throwing,3228
thru,3229
thursday,3230
thx,3231
tiak,3232
tie,3233
tied,3234
tight,3235
till,3236
time,3237
times,3238
timeshifted,3239
timetable,3240
timid,3241
tiny,3242
tinyurl,3243
tip,3244
tired,3245
title,3246
to,3247
today,3248
together,3249
tolerance,3250
tom,3251
tomorrow,3252
tone,3253
tonight,3254
tonightâ,3255
tonite,3256
too,3257
took,3258
tool,3259
top,3260
topic,3261
toromocho,3262
torture,3263
tortured,3264
total,3265
totally,3266
tough,3267
toward,3268
towards,3269
toxic,3270
track,3271
tracks,3272
trade,3273
trained,3274
training,3275
tranquilizer,3276
transcripts,3277
transition,3278
translation,3279
transparency,3280
trap,3281
travel,3282
treasure,3283
treat,3284
treated,3285
treating,3286
trend,3287
tricks,3288
tried,3289
tries,3290
trigger,3291
trillion,3292
trip,3293
tripled,3294
trite,3295
troop,3296
troops,3297
trouble,3298
true,3299
trumps,3300
trust,3301
truth,3302
try,3303
trying,3304
tumbler,3305
tune,3306
tuned,3307
tunnel,3308
turn,3309
turns,3310
tv,3311
tweet,3312
tweetdebate,3313
tweeting,3314
tweets,3315
tweetscan,3316
twennty,3317
twice,3318
twisting,3319
twit,3320
twitpic,3321
twitter,3322
twitterers,3323
twitterriffic,3324
two,3325
tx,3326
ugh,3327
ugly,3328
uh,3329
uhh,3330
ukrainian,3331
ultranurd,3332
um,3333
umm,3334
un,3335
unable,3336
uncivility,3337
uncle,3338
unclear,3339
uncomfortable,3340
undecided,3341
undecideds,3342
under,3343
undergarments,3344
underminds,3345
undersatand,3346
understand,3347
understanding,3348
understands,3349
understatement,3350
uniquely,3351
united,3352
unnecessarily,3353
unpleasant,3354
unreal,3355
unscripted,3356
unsettling,3357
unsustainably,3358
untasty,3359
until,3360
up,3361
uppercut,3362
uppercuts,3363
ups,3364
upset,3365
us,3366
usa,3367
use,3368
used,3369
useful,3370
useless,3371
usermac,3372
username,3373
users,3374
uses,3375
using,3376
ustoday,3377
ut,3378
utterly,3379
utters,3380
vacay,3381
vader,3382
vain,3383
values,3384
variety,3385
ve,3386
veep,3387
venezuela,3388
verb,3389
verbatim,3390
vermontgmg,3391
version,3392
versus,3393
vertarans,3394
verterans,3395
very,3396
vet,3397
veteran,3398
veterans,3399
vetoes,3400
vetoing,3401
vetran,3402
vetrans,3403
vets,3404
vey,3405
vice,3406
victory,3407
video,3408
viet,3409
vietnam,3410
view,3411
violating,3412
violin,3413
violins,3414
vis,3415
vision,3416
visiting,3417
voice,3418
void,3419
vomiting,3420
vote,3421
voted,3422
voter,3423
voters,3424
votes,3425
voting,3426
vp,3427
vs,3428
vu,3429
wage,3430
waht,3431
wait,3432
waiting,3433
wake,3434
walk,3435
walking,3436
wall,3437
wallet,3438
walter,3439
wanna,3440
want,3441
wanted,3442
wanting,3443
wants,3444
wapo,3445
war,3446
ware,3447
warfront,3448
warming,3449
warmonger,3450
warmongering,3451
warp,3452
warring,3453
warrior,3454
wars,3455
was,3456
washington,3457
wasn,3458
waste,3459
watch,3460
watched,3461
watches,3462
watching,3463
water,3464
wave,3465
waving,3466
way,3467
ways,3468
wayyyy,3469
we,3470
weak,3471
wealth,3472
weapon,3473
weaponry,3474
weapons,3475
wear,3476
wearing,3477
web,3478
webb,3479
webpage,3480
week,3481
weeping,3482
weight,3483
weird,3484
welcome,3485
welfare,3486
well,3487
went,3488
were,3489
west,3490
wet,3491
whaaat,3492
whale,3493
what,3494
whatever,3495
whatte,3496
wheelchairs,3497
when,3498
whenever,3499
where,3500
whey,3501
which,3502
while,3503
whistling,3504
white,3505
who,3506
whoa,3507
whoever,3508
whole,3509
whose,3510
why,3511
wife,3512
wih,3513
wilder,3514
wildest,3515
wildly,3516
will,3517
william,3518
williams,3519
willing,3520
win,3521
windy,3522
winehouse,3523
wing,3524
winner,3525
winning,3526
wins,3527
wiping,3528
wire,3529
wise,3530
wisely,3531
wish,3532
with,3533
within,3534
without,3535
woman,3536
women,3537
won,3538
wonder,3539
wondered,3540
wondering,3541
wonders,3542
woo,3543
word,3544
wordpress,3545
words,3546
wore,3547
work,3548
worked,3549
worker,3550
workers,3551
working,3552
works,3553
world,3554
worry,3555
worst,3556
worth,3557
would,3558
wouldn,3559
wounds,3560
wow,3561
wowza,3562
wreck,3563
wreke,3564
wrekehavoc,3565
wrong,3566
wrongheaded,3567
wrongly,3568
wtf,3569
www,3570
xrl,3571
ya,3572
yarg,3573
yawn,3574
yawning,3575
yay,3576
yea,3577
yeah,3578
year,3579
years,3580
yelling,3581
yep,3582
yer,3583
yes,3584
yet,3585
yikes,3586
yo,3587
you,3588
young,3589
your,3590
yours,3591
youth,3592
youtube,3593
yr,3594
yrs,3595
yup,3596
zi,3597
zing,3598
zingers,3599
zombie,3600
zt,3601
