administration,0
after,1
again,2
album,3
alison,4
alive,5
all,6
always,7
am,8
americanair,9
and,10
angry,11
annoying,12
another,13
antlers,14
any,15
anyone,16
apple,17
appointment,18
are,19
aren,20
as,21
asking,22
at,23
athlete,24
atitsfinest,25
average,26
aw,27
badass,28
badgers,29
badmoon,30
bag,31
barbara,32
barileia,33
be,34
beauparsedonedigitu,35
beautiful,36
because,37
been,38
before,39
belive,40
bennytheejet,41
best,42
bestie,43
betch,44
better,45
bikini,46
birthday,47
bit,48
blargh,49
bobelieves,50
boner,51
boys,52
brits,53
broke,54
but,55
by,56
camera,57
campuses,58
can,59
career,60
careful,61
cause,62
cbalramulc,63
cbi,64
cc,65
changes,66
channel,67
charming,68
chill,69
chocolate,70
city,71
civic,72
co,73
coaches,74
coachseahorn_,75
code,76
colorado,77
come,78
condescending,79
connect,80
contestâ,81
conventees,82
convention,83
cool,84
could,85
course,86
cousins,87
crap,88
creek,89
culture,90
currently,91
dawson,92
day,93
ddparsedonedigitaparseddigitsqgparsedtwodigitso,94
delays,95
dentist,96
devil,97
dimwitted,98
dishesðÿ,99
disney,100
do,101
doesn,102
doing,103
don,104
done,105
downton,106
drama,107
dress,108
drive,109
drove,110
dumb,111
duty,112
e__strobel,113
eaten,114
eelwparsedtwodigitszparsedonedigityparseddigits,115
eh,116
encourage,117
end,118
especially,119
everybody,120
everyone,121
everything,122
example,123
excited,124
experience,125
family,126
fangirl,127
fantastic,128
fantasy,129
fast,130
feel,131
fellow,132
fi,133
fight,134
final,135
financial,136
find,137
fireworks,138
first,139
fish,140
fishing,141
flawless,142
flight,143
flip,144
followed,145
fooled,146
football,147
for,148
forbid,149
forced,150
ford,151
free,152
freedom,153
friday,154
friend,155
friends,156
from,157
fugly,158
full,159
fusion,160
game,161
gave,162
get,163
glad,164
god,165
going,166
good,167
gotigers,168
gotobedguys,169
gov,170
government,171
great,172
greatest,173
gregabbott_tx,174
gt,175
guess,176
guys,177
haha,178
half,179
hand,180
hands,181
has,182
have,183
having,184
he,185
heard,186
heartwarming,187
heaven,188
her,189
hey,190
his,191
home,192
hong,193
horrendous,194
horrible,195
hot,196
hotspot,197
hours,198
how,199
http,200
huh,201
hunt,202
hurry,203
ib,204
idea,205
if,206
in,207
indianapolis,208
ineedanap,209
inkabinkabonk,210
insert,211
inside,212
into,213
ints,214
iphone,215
is,216
ishouldhaveflownsouthwest,217
islam,218
islamic,219
isn,220
isp,221
it,222
jakebugg,223
jdtips,224
jealous,225
jew,226
jimmyfallon,227
job,228
john,229
joke,230
juanybeats,231
just,232
kind,233
know,234
kong,235
kpnwebcare,236
last,237
lemme,238
leo,239
let,240
life,241
lifeee,242
like,243
little,244
live,245
ll,246
loaded,247
logging,248
lol,249
long,250
longer,251
looking,252
looks,253
lot,254
love,255
loveeeeeeeee,256
lovely,257
lparsedonedigitohparsedtwodigitspqhe,258
lunchboxheroparsedtwodigits,259
make,260
makes,261
many,262
maps,263
mcganntstopmenow,264
me,265
media,266
melissa,267
merican,268
minorities,269
minorits,270
missed,271
mistake,272
mkbhd,273
modem,274
mom,275
moment,276
more,277
morning,278
most,279
mother,280
movies,281
much,282
must,283
my,284
name,285
nba,286
need,287
needs,288
never,289
next,290
nicerack,291
night,292
nights,293
no,294
non,295
not,296
nothing,297
notreally,298
now,299
nsa,300
obama,301
obamaspeech,302
occupyhongkong,303
of,304
off,305
ok,306
omg,307
on,308
one,309
or,310
original,311
other,312
our,313
out,314
oven,315
over,316
parseddigits,317
parsedonedigit,318
parsedonedigitam,319
parsedonedigitrd,320
parsedonedigitxgrparsedonedigitkqrlo,321
parsedthreedigits,322
parsedtwodigits,323
partyanimals,324
past,325
pay,326
people,327
perfect,328
persons,329
pgeonsparsedonedigitafparsedonedigit,330
philbyparsedfourdigits,331
pirates,332
pissed,333
pixar,334
play,335
played,336
please,337
pll,338
politibunny,339
porsche,340
potus,341
pounded,342
predictive,343
pregnancy,344
pretty,345
protestors,346
putting,347
qb,348
questions_faith,349
ramp,350
randomly,351
rape,352
raw,353
real,354
realize,355
really,356
remind,357
renolds_reigh,358
renovation,359
respecter,360
retire,361
ridiculous,362
right,363
rights,364
rihanna,365
robbed,366
roomie,367
roommategoals,368
router,369
run,370
ryleebolinsky,371
ryleeshay,372
salon,373
same,374
santa,375
sarcasm,376
sarcasme,377
sarcasmout,378
sarcasmsaturdays,379
sarcasmtothemax,380
sargentcass,381
savemefromthisboredom,382
saying,383
says,384
scattermemvar,385
scene,386
sea,387
see,388
seeing,389
selfie,390
sends,391
sense,392
seriously,393
shangrila,394
she,395
shelby_maue,396
should,397
shouting,398
show,399
showing,400
sink,401
sister,402
sit,403
sittinrightnexttoher,404
situations,405
sketchy,406
sleeping,407
sleepova,408
sleepðÿ,409
slut,410
smile,411
snap,412
so,413
sold,414
song,415
sons,416
sounds,417
speaker,418
start,419
started,420
steel,421
still,422
store,423
story,424
stream,425
stressed,426
subtlety,427
suck,428
sunburn,429
superstar,430
sure,431
swear,432
talk,433
talking,434
tater,435
teach,436
teenage,437
teens,438
tell,439
term,440
texts,441
than,442
thank,443
thanks,444
that,445
thatsoriginal,446
the,447
their,448
theists,449
there,450
they,451
thing,452
think,453
this,454
those,455
though,456
thursday,457
time,458
times,459
timesnow,460
title,461
to,462
today,463
together,464
tomorrow,465
tomorrparsedthreedigits,466
too,467
tookthewordsoutmymouth,468
totally,469
tots,470
trash,471
tray,472
trying,473
twitch,474
ucalgarycase,475
uffda,476
understand,477
up,478
upset,479
using,480
ve,481
very,482
views,483
violent,484
waiting,485
wants,486
was,487
wash,488
watch,489
watching,490
way,491
we,492
wear,493
well,494
were,495
what,496
when,497
where,498
while,499
whitneyltuttle,500
who,501
why,502
wi,503
wijimparsedthreedigits,504
with,505
witness,506
woke,507
women,508
wonderful,509
wooow,510
worked,511
working,512
works,513
world,514
worry,515
would,516
wsj,517
xbox,518
xojparsedonedigitjkjcparsedtwodigits,519
xuxvamparsedonedigitsml,520
ya,521
yay,522
yeah,523
yes,524
yesterday,525
yet,526
you,527
young,528
your,529
ðÿ,530
šðÿ,531
