aargh,0
about,1
according,2
ace,3
activist,4
after,5
against,6
ago,7
airline,8
also,9
am,10
american,11
americans,12
amp,13
an,14
and,15
andi,16
android,17
angeles,18
another,19
app,20
apparently,21
are,22
arguably,23
arm,24
artist,25
as,26
assâ,27
at,28
atheist,29
attack,30
attacks,31
attempting,32
attitude,33
baby,34
back,35
bags,36
band,37
bangladesh,38
base,39
bcci,40
be,41
beautiful,42
because,43
bed,44
been,45
beetles,46
being,47
benjamin,48
best,49
bf,50
biggest,51
billion,52
black,53
blew,54
bobbijparsedfourdigits,55
boo,56
both,57
bowling,58
bradlee,59
bremaxwell,60
british,61
broke,62
bug,63
but,64
butchering,65
by,66
call,67
called,68
can,69
canceled,70
cano,71
car,72
certainly,73
cheapest,74
cheer,75
cheers,76
cheney,77
childish,78
children,79
chinaâ,80
chit,81
chrisyoungmusic,82
clean,83
clegg,84
co,85
coincidence,86
comes,87
comfort,88
commits,89
completely,90
condi,91
constantly,92
convert,93
core,94
country,95
cover,96
coz,97
crashed,98
critically,99
curie,100
cut,101
cuz,102
david_cameron,103
davidjoachim,104
day,105
decapitating,106
deeeeezyparsedtwodigits,107
dem,108
democracy,109
depose,110
did,111
died,112
difficult,113
dislike,114
do,115
donald,116
donation,117
donâ,118
door,119
down,120
drinking,121
driving,122
dropbox,123
eastern,124
effectively,125
eid,126
election,127
ellsbury,128
engvind,129
enjoy,130
epic,131
eradicate,132
ethics,133
europeans,134
exploit,135
facebook,136
fans,137
fascism,138
fascist,139
few,140
fifa,141
flights,142
floods,143
folkâ,144
follow,145
for,146
forged,147
forgot,148
forward,149
four,150
from,151
fucking,152
full,153
funny,154
gauhar,155
gej,156
genocide,157
george,158
get,159
ggreenwald,160
girl,161
give,162
giving,163
go,164
god,165
goes,166
going,167
good,168
gorgeous,169
got,170
government,171
granitestudio,172
greatestâ,173
guns,174
guy,175
guys,176
hackers,177
had,178
hahahaha,179
harrison,180
has,181
hashtags,182
hate,183
have,184
having,185
he,186
health,187
heart,188
heartbleed,189
heat,190
her,191
highway,192
hilarious,193
him,194
his,195
hope,196
hot,197
how,198
htsjlparsedonedigittywe,199
http,200
huffpostweird,201
icezia,202
if,203
illdrinktothat,204
illiteracy,205
immunity,206
in,207
independence,208
india,209
indian,210
infestation,211
infested,212
injured,213
internet,214
into,215
introduce,216
invade,217
invented,218
iparsedtwodigitsnews_en,219
irony,220
ironydeficiency,221
ironyunlimited,222
ironyunmistakable,223
is,224
isparsedonedigitthe,225
israel,226
it,227
its,228
jaya,229
jesuischarlie,230
jfpparsedonedigiterbozx,231
job,232
journalism,233
just,234
kate,235
kenya,236
kerry,237
khan,238
kharkiv,239
khilafahparsedthreedigits,240
killed,241
kindle,242
king,243
kparsedonedigitwparseddigitshmvjht,244
lately,245
leaflets,246
leaving,247
leftist,248
lesson,249
life,250
listening,251
literacy,252
ll,253
looking,254
los,255
lost,256
lt,257
lupita,258
machine,259
make,260
malaysian,261
marie,262
marvelously,263
mary,264
mate,265
may,266
maya,267
me,268
mean,269
meanwhile,270
media,271
meetthepress,272
memorial,273
memory,274
might,275
minute,276
missing,277
more,278
morning,279
most,280
mother,281
move,282
movie,283
mr,284
msy,285
mt,286
murdered,287
muslims,288
my,289
naijanerd,290
nation,291
new,292
next,293
nice,294
nick,295
nigga,296
no,297
noah,298
nocricket,299
not,300
nothing,301
nynnvwparsedtwodigitswy,302
nyong,303
obama,304
oblivion,305
odi,306
of,307
off,308
officially,309
okay,310
omeisy,311
on,312
one,313
only,314
onparsedonedigitmeal,315
oparsedonedigitgqiaarbf,316
oswald,317
otbewggbtj,318
our,319
out,320
over,321
overload,322
paid,323
park,324
parseddigits,325
parsedfourdigits,326
parsedonedigit,327
parsedonedigitgntibiqei,328
parsedonedigitst,329
parsedonedigituvphqlparsedtwodigitsx,330
parsedonedigitwumfparsedonedigitpcll,331
parsedthreedigits,332
parsedtwodigits,333
parsedtwodigitsk,334
people,335
performance,336
pine,337
plan,338
planted,339
point,340
posting,341
postponement,342
president,343
pretextâ,344
pretty,345
pro,346
probably,347
profession,348
proposition,349
public,350
puffing,351
queen,352
quick,353
random,354
rascalflatts,355
rash,356
re,357
ready,358
real,359
really,360
recently,361
regret,362
reliable,363
relies,364
religion,365
republican,366
response,367
return,368
rice,369
rich,370
richer,371
rifle,372
rob,373
robbed,374
roll,375
rooting,376
roryhaynesparsedfourdigits,377
royals,378
rt,379
rule,380
russia,381
ryanbleslie,382
sad,383
said,384
salon,385
sawston,386
say,387
says,388
screening,389
see,390
seen,391
sellout,392
sells,393
seriouslywhat,394
service,395
set,396
she,397
shots,398
shouting,399
sick,400
silently,401
simple,402
size,403
skin,404
smart,405
smile,406
so,407
some,408
someone,409
something,410
sometimes,411
somewhere,412
spending,413
srisulgceo,414
stalking,415
stand,416
state,417
sterling,418
style,419
subtweeting,420
supplements,421
sure,422
take,423
talking,424
tanvirsalimparsedonedigit,425
targeted,426
tattooed,427
team,428
tearing,429
thailand,430
than,431
that,432
the,433
theater,434
thebachelorette,435
thebeatles,436
their,437
thetimes,438
they,439
thing,440
think,441
this,442
those,443
three,444
thugs,445
timing,446
tire,447
to,448
today,449
tomorrow,450
torture,451
torturereport,452
touch,453
tparsedonedigitqanimpic,454
tragic,455
transforms,456
traviscjohnsonparsedonedigit,457
tree,458
trumped,459
try,460
tweet,461
twitter,462
typed,463
tâ,464
ukip,465
ukraine,466
under,467
unfortunate,468
university,469
unlike,470
up,471
usa,472
use,473
using,474
value,475
ve,476
via,477
video,478
vital,479
walked,480
warns,481
was,482
watching,483
wbjparsedonedigititmvhd,484
we,485
website,486
week,487
weekend,488
were,489
what,490
when,491
which,492
while,493
whilst,494
who,495
whose,496
will,497
with,498
womb,499
wonder,500
work,501
world,502
would,503
wouldn,504
wounded,505
wow,506
wvraman,507
yahoonews,508
yankees,509
years,510
yell,511
yes,512
yet,513
yoof,514
you,515
your,516
zumrfyparsedonedigitdci,517
œgod,518
œon,519
œyou,520
