__parsedonedigit,0
abortion,1
absolutely,2
accannis,3
access,4
accident,5
according,6
aching,7
acia,8
actually,9
addiction,10
addictive,11
adidas,12
administration,13
ads,14
advice,15
africa,16
agency,17
ago,18
ah,19
aha,20
ahead,21
ahh,22
ahhgot,23
ahhh,24
aig,25
al,26
ala,27
allen,28
alot,29
alpha,30
alto,31
amandabittner,32
amazing,33
ambcharlesfield,34
american,35
amp,36
amphitheatre,37
ampr,38
ampt,39
android,40
angry,41
animations,42
annagoss,43
annamartinparsedthreedigits,44
announcement,45
annoying,46
answers,47
anti,48
anyways,49
apart,50
apartment,51
apatow,52
api,53
apologies,54
app,55
apple,56
applied,57
appreciate,58
apps,59
appt,60
arab,61
arabs,62
aren,63
arg,64
arhh,65
arrrgh,66
article,67
aruj,68
arunbasillal,69
asherroth,70
asked,71
ass,72
asses,73
assholes,74
ate,75
atebits,76
athlete,77
atil,78
att,79
audiobook,80
authors,81
available,82
avoided,83
award,84
away,85
awesome,86
aww,87
bad,88
bags,89
bailout,90
ball,91
ballcom,92
banana,93
bank,94
bankruptcy,95
barack,96
barbara,97
barraged,98
basketball,99
bastards,100
bay,101
bayes,102
bball,103
bccwt,104
beast,105
beautiful,106
bedroom,107
believe,108
best,109
better,110
bflay,111
big,112
bike,113
billions,114
bing,115
bio,116
biology,117
bit,118
bitin,119
bitly,120
bitten,121
bitter,122
biz,123
blah,124
blknpreciousparsedonedigit,125
blocked,126
blood,127
bloomingdale,128
blow,129
blows,130
board,131
bob,132
bobby,133
bonjour,134
bonuses,135
boo,136
book,137
books,138
boortz,139
booz,140
bored,141
boring,142
boss,143
bought,144
boyle,145
boys,146
bparsedtwodigitspx,147
brand,148
break,149
breakers,150
bringing,151
brings,152
broken,153
broskiii,154
browser,155
bt,156
btw,157
bud,158
buffet,159
bug,160
bullshit,161
bummer,162
bunch,163
burger,164
burn,165
burning,166
bush,167
butt,168
buy,169
buzz,170
buzzupcom,171
bye,172
cable,173
calculus,174
calling,175
calls,176
came,177
campaign,178
canon,179
car,180
card,181
cars,182
cartons,183
case,184
caseymercier,185
cash,186
cast,187
catch,188
cause,189
causin,190
cavs,191
cell,192
changed,193
changing,194
character,195
charade,196
charity,197
chart,198
cheap,199
cheaper,200
check,201
cheering,202
cheney,203
chick,204
chicken,205
childs,206
china,207
chose,208
chrysler,209
church,210
citi,211
civil,212
clashmore,213
class,214
classification,215
client,216
cligs,217
close,218
closer,219
cnn,220
coca,221
coda,222
code,223
cola,224
cold,225
collaboration,226
collapse,227
college,228
comcast,229
come,230
comedian,231
comes,232
coming,233
commencement,234
commercial,235
commercials,236
commerical,237
compared,238
complaining,239
complete,240
completely,241
computer,242
concord,243
conducted,244
conference,245
confirmed,246
connection,247
connections,248
consequences,249
conservatism,250
contact,251
contactsdoes,252
continual,253
contract,254
cook,255
cookbook,256
cool,257
correspondents,258
couldn,259
countries,260
course,261
cox,262
cparsedonedigithpp,263
crap,264
crappy,265
crashing,266
crazy,267
create,268
created,269
creates,270
criticalpath,271
crlane,272
crush,273
cthagod,274
culprits,275
cunt,276
cup,277
current,278
curses,279
curve,280
customer,281
cut,282
cute,283
cuz,284
cwongparsedtwodigits,285
dad,286
dame,287
damn,288
dan,289
danielpunkass,290
danny,291
dannygokey,292
date,293
day,294
daybankrupt,295
days,296
dbroos,297
dead,298
deal,299
dearest,300
debates,301
debt,302
decided,303
deep,304
default,305
defsounds,306
degrees,307
deleting,308
demos,309
dentist,310
dentistwho,311
designplay,312
desire,313
desperation,314
destroy,315
developer,316
device,317
devil,318
dick,319
did,320
didn,321
didnt,322
die,323
died,324
dies,325
different,326
dihg,327
dime,328
dinner,329
disaster,330
discomort,331
dishonest,332
dislike,333
dissapointed,334
division,335
docs,336
does,337
doesn,338
doing,339
dommm,340
don,341
dont,342
dood,343
downloading,344
dparsedtwodigits,345
dr,346
draw,347
drink,348
drive,349
dropped,350
drove,351
dslreports,352
dumber,353
dump,354
duo,355
dvr,356
dvyers,357
dwight,358
dx,359
dzmparsedonedigitt,360
ea,361
eagle,362
east,363
eat,364
economy,365
ed,366
editing,367
editor,368
edogparsedfourdigits,369
effects,370
eggs,371
eh,372
ehfa,373
election,374
elkhorn,375
em,376
employees,377
end,378
enjoy,379
enjoyable,380
enuf,381
environment,382
eorfv,383
epic,384
epkrparsedonedigitb,385
ereader,386
espn,387
espnjus,388
et,389
european,390
evelynbyrne,391
evening,392
everyday,393
evr,394
exam,395
excited,396
execs,397
expectations,398
expensive,399
explain,400
explode,401
extra,402
eye,403
f__k,404
fabulous,405
facebook,406
factory,407
fail,408
fair,409
faithbabywear,410
fake,411
fan,412
fantastic,413
far,414
fashion,415
fast,416
fault,417
favorite,418
fb,419
feature,420
federer,421
feed,422
feel,423
feels,424
fest,425
festival,426
field,427
fieri,428
fifa,429
fighting,430
fil,431
file,432
files,433
finally,434
finals,435
financial,436
finewhat,437
finished,438
firmly,439
fish,440
fix,441
flay,442
flies,443
flockofseagullsweregeopoliticallycorrect,444
fml,445
follow,446
font,447
food,448
forced,449
forever,450
fortune,451
forward,452
foxnews,453
fraggleparsedthreedigits,454
francisco,455
freakin,456
freaking,457
freaky,458
fred,459
fredwilson,460
free,461
friday,462
friend,463
friggin,464
frustrating,465
fuck,466
fucked,467
fucker,468
fucking,469
fun,470
funding,471
funfun,472
funny,473
furious,474
furkin,475
fuzz,476
fuzzball,477
fwixcom,478
gave,479
geldof,480
general,481
generate,482
generation,483
genius,484
gets,485
getting,486
gift,487
giggling,488
girl,489
given,490
giving,491
glad,492
gladwell,493
gm,494
goddam,495
going,496
gokey,497
goldpanda,498
gone,499
gonna,500
good,501
goodby,502
goodie,503
google,504
googleio,505
goooood,506
got,507
gouged,508
government,509
govt,510
gparsedonedigit,511
gparsedonedigitruparsedonedigit,512
graduate,513
graphics,514
grateful,515
great,516
greater,517
green,518
grill,519
grr,520
gt,521
gt_,522
guantanamo,523
guess,524
guessjust,525
guy,526
guys,527
hacking,528
haha,529
hahaha,530
half,531
hamilton,532
handout,533
happens,534
happy,535
harassed,536
hard,537
hate,538
hates,539
haven,540
having,541
hd,542
hear,543
heard,544
heck,545
hell,546
hello,547
helloleonie,548
help,549
helpful,550
hero,551
hey,552
hi,553
hideous,554
high,555
higher,556
highlights,557
highly,558
hilarious,559
hilariouslmao,560
hill,561
hills,562
history,563
hitting,564
hmm,565
holders,566
holiday,567
home,568
homegrown,569
hometown,570
honda,571
horde,572
hours,573
house,574
howard,575
howdavidbeatsgoliath,576
hp,577
html,578
htmlfiveappspotcom,579
http,580
hubby,581
huge,582
human,583
hungry,584
hurricane,585
hurt,586
hurts,587
hyzl,588
icecream,589
icgjparsedonedigit,590
id,591
idea,592
idiot,593
idiots,594
iheartseverus,595
ill,596
im,597
ima,598
implode,599
improvement,600
ims,601
imxum,602
including,603
incredibly,604
india,605
indian,606
inevitable,607
infected,608
information,609
informative,610
inkscape,611
innovation,612
insane,613
insects,614
inspired,615
install,616
instead,617
inter,618
internet,619
internets,620
invented,621
investing,622
investors,623
invite,624
ioparsedfourdigits,625
iphone,626
iran,627
irancraziness,628
iranelection,629
isgd,630
isn,631
itchy,632
itwill,633
jacked,634
james,635
jdreiss,636
jessverr,637
jktweet,638
jlshack,639
join,640
joining,641
jokes,642
jonduenas,643
jquery,644
judd,645
julesrenner,646
junk,647
just,648
kaplan,649
karoli,650
karrisfoxy,651
kathleen,652
katydids,653
kenburbary,654
kendra,655
kennedy,656
keynote,657
khalidparsedfourdigits,658
kick,659
kids,660
kill,661
kimblet,662
kinda,663
kindle,664
kindleparsedonedigit,665
kirstiealley,666
kitchen,667
klunky,668
know,669
kobe,670
korea,671
kparsedonedigityk,672
kswedberg,673
ktmeq,674
laker,675
lakers,676
lam,677
lambda,678
late,679
later,680
latex,681
lawnmowing,682
layoffs,683
lead,684
leading,685
learning,686
lebron,687
lebronsh,688
led,689
lee,690
left,691
legalgeekery,692
lehman,693
let,694
lets,695
lewis,696
lied,697
life,698
lift,699
light,700
like,701
liked,702
limit,703
line,704
link,705
linux,706
listening,707
literally,708
little,709
live,710
lived,711
ll,712
lmao,713
load,714
loan,715
lol,716
long,717
loo,718
look,719
looked,720
lookin,721
looking,722
looks,723
loooong,724
loooooooovvvvvveee,725
lost,726
lot,727
lots,728
louparsedthreedigits,729
love,730
loved,731
loves,732
lovin,733
loving,734
lparsedonedigitgy,735
lt,736
ltparsedonedigit,737
lucky,738
ludajuice,739
luke,740
lulswparsedonedigit,741
lunch,742
lyx,743
mac,744
mails,745
make,746
makes,747
making,748
malcolm,749
man,750
mandela,751
map,752
marchparsedtwodigits,753
market,754
marketing,755
martinez,756
mashable,757
mate,758
math,759
mathematics,760
matthewcyan,761
maybe,762
mbjthegreat,763
mcdonalds,764
meal,765
mean,766
means,767
meeting,768
melo,769
memorial,770
mentioned,771
mesa,772
messenger,773
met,774
mets,775
michael,776
mid,777
mikefish,778
military,779
milrockee,780
mins,781
minutes,782
miserable,783
miss,784
mistake,785
mitzs,786
mkii,787
mlucparsedtwodigits,788
mmbarnhill,789
mmmkatz,790
mmmmmfamily,791
model,792
modems,793
monday,794
money,795
monkeys,796
month,797
months,798
montreal,799
morindparsedtwodigits,800
mosquito,801
mostvaluablepuppets,802
motors,803
movie,804
movies,805
moving,806
mr,807
msgs,808
mtvcom,809
muchasmuertes,810
muppet,811
murdering,812
museum,813
music,814
mustang,815
mylocme,816
nails,817
naive,818
named,819
nancy,820
nap,821
natural,822
nba,823
nbccom,824
ncaa,825
neal,826
need,827
needed,828
needs,829
nelson,830
nenuah,831
nerdy,832
net,833
new,834
news,835
newswow,836
nic,837
nice,838
nicer,839
niggas,840
night,841
nike,842
nikon,843
nin,844
non,845
nooooooo,846
normally,847
north,848
note,849
noticed,850
notre,851
np,852
nrparsedonedigitnparseddigits,853
nuclear,854
nuggets,855
nuggetssss,856
number,857
nuts,858
ny,859
obama,860
obamabidenpelosi,861
obsession,862
obviously,863
offense,864
office,865
official,866
oh,867
ohhdee,868
ok,869
old,870
oldie,871
omg,872
omgg,873
online,874
ooooh,875
oooooooh,876
oparsedonedigitd,877
open,878
operators,879
options,880
oqxgga,881
orli,882
oughta,883
outlet,884
outta,885
ovation,886
owned,887
pages,888
pain,889
palin,890
palo,891
parseddigits,892
parsedfivedigits,893
parsedfourdigits,894
parsedonedigit,895
parsedonedigitcparseddigitsuj,896
parsedonedigitcuig,897
parsedonedigitd,898
parsedonedigitdaymosquitos,899
parsedonedigitgezi,900
parsedonedigitgs,901
parsedonedigithr,902
parsedonedigitmoro,903
parsedonedigitnsnr,904
parsedonedigitpm,905
parsedonedigitrd,906
parsedonedigitst,907
parsedonedigitueb,908
parsedonedigitupwparsedonedigitp,909
parsedonedigitzic,910
parsedonedigitzlff,911
parsedsixdigits,912
parsedthreedigits,913
parsedtwodigits,914
parsedtwodigitsd,915
parsedtwodigitsdit,916
parsedtwodigitsepah,917
parsedtwodigitsjparsedonedigitd,918
parsedtwodigitsk,919
parsedtwodigitsshi,920
parsedtwodigitstparsedonedigitnr,921
partners,922
party,923
pastrami,924
pay,925
pdubyad,926
pelosi,927
people,928
peppers,929
perfect,930
person,931
personalityhe,932
pg,933
pgparsedonedigitlt,934
philip,935
phoenix,936
phone,937
phones,938
phoneughh,939
photography,940
phyremanparsedonedigit,941
physical,942
physics,943
pic,944
picked,945
picking,946
picks,947
pictures,948
pills,949
pingfm,950
pink,951
pissed,952
pittstock,953
place,954
places,955
plan,956
planning,957
plans,958
plant,959
planted,960
platform,961
play,962
played,963
players,964
playing,965
playoffs,966
pleasant,967
pmillzz,968
pockets,969
point,970
pointing,971
ponzi,972
popular,973
popularity,974
possible,975
powerful,976
pparsedonedigitbparseddigitsfl,977
pparsedonedigituparseddigitsh,978
prayers,979
prefer,980
prepare,981
president,982
presser,983
pretenious,984
prettiest,985
pretty,986
price,987
prlvqu,988
prob,989
probably,990
problems,991
profile,992
program,993
programs,994
promotions,995
provided,996
prs,997
psychemedia,998
psyop,999
public,1000
puppet,1001
putting,1002
pyt,1003
python,1004
quality,1005
quanttrader,1006
quite,1007
rachel,1008
radio,1009
rank,1010
rantsandraves,1011
raped,1012
rating,1013
read,1014
reading,1015
ready,1016
real,1017
realized,1018
realizing,1019
really,1020
reasonable,1021
receipes,1022
receivers,1023
recently,1024
recommend,1025
recorded,1026
recorder,1027
recovering,1028
reference,1029
regret,1030
related,1031
relief,1032
remorse,1033
repeatedly,1034
reps,1035
republic,1036
republican,1037
researchers,1038
result,1039
results,1040
resume,1041
retiring,1042
review,1043
revision,1044
rhino,1045
rich,1046
richardebaker,1047
richest,1048
rid,1049
riddance,1050
ride,1051
right,1052
road,1053
robin,1054
robmalon,1055
robynlyn,1056
rock,1057
rocked,1058
rocks,1059
roger,1060
roomies,1061
rt,1062
runner,1063
running,1064
sad,1065
safeway,1066
said,1067
san,1068
sandbox,1069
sarah,1070
satisfying,1071
saturday,1072
saw,1073
say,1074
saying,1075
scams,1076
scandal,1077
scares,1078
scarey,1079
scary,1080
schemers,1081
school,1082
science,1083
scrapbooking,1084
scratch,1085
screen,1086
screw,1087
search,1088
searches,1089
season,1090
sebulous,1091
seeing,1092
seen,1093
sekseemess,1094
select,1095
sell,1096
sending,1097
sent,1098
seriously,1099
service,1100
services,1101
servicethey,1102
session,1103
sethdaggett,1104
shade,1105
shame,1106
shannyoday,1107
shaunwoo,1108
sheer,1109
sheridanmarfil,1110
sherri,1111
shirts,1112
shit,1113
shitty,1114
shopping,1115
shoreline,1116
shorter,1117
shows,1118
shrop,1119
shut,1120
sick,1121
siding,1122
sign,1123
signal,1124
silverstein,1125
silversteini,1126
singapore,1127
siratomofbones,1128
sitcom,1129
site,1130
sitting,1131
situation,1132
sketchbug,1133
skin,1134
sklososky,1135
slate,1136
slave,1137
sleep,1138
slide,1139
slightest,1140
slogan,1141
slow,1142
slowlythey,1143
small,1144
smartchickpdx,1145
snap,1146
snappy,1147
snurlcom,1148
sochiparsedonedigit,1149
social,1150
solid,1151
son,1152
sony,1153
soon,1154
sooo,1155
soooo,1156
soooooo,1157
sounds,1158
south,1159
soyvparsedonedigit,1160
sparsedthreedigitsj,1161
speak,1162
speech,1163
speed,1164
spent,1165
spinach,1166
spinuzzi,1167
sport,1168
sports,1169
sportsguyparsedtwodigits,1170
spot,1171
springsingfiend,1172
spurs,1173
srsly,1174
stacks,1175
standing,1176
stanford,1177
star,1178
start,1179
started,1180
starting,1181
states,1182
stay,1183
stealing,1184
steep,1185
stellargirl,1186
stick,1187
stimulus,1188
stinkin,1189
stop,1190
stopped,1191
studing,1192
studying,1193
stuff,1194
stupid,1195
style,1196
suck,1197
sucks,1198
sum,1199
summer,1200
summize,1201
super,1202
superslow,1203
support,1204
supporting,1205
supposed,1206
surgerywishing,1207
surprised,1208
survey,1209
survive,1210
susan,1211
svcs,1212
sweet,1213
switch,1214
taking,1215
talk,1216
talking,1217
tamasha,1218
tattoooos,1219
taxes,1220
tbh,1221
tcot,1222
tea,1223
teach,1224
tell,1225
telling,1226
tells,1227
tempted,1228
tennis,1229
terrifying,1230
terror,1231
terrysimpson,1232
test,1233
tests,1234
texnparsedonedigitrds,1235
text,1236
thank,1237
thanks,1238
the_real_usher,1239
thing,1240
things,1241
think,1242
thinks,1243
thought,1244
thursday,1245
tickets,1246
til,1247
time,1248
timeout,1249
times,1250
tinyurlcom,1251
tipping,1252
tired,1253
tivo,1254
today,1255
told,1256
tommorow,1257
tomorrow,1258
tonight,1259
tonite,1260
tonyhawk,1261
took,1262
tool,1263
tooth,1264
torture,1265
totally,1266
tour,1267
toy,1268
translator,1269
tree,1270
trek,1271
trend,1272
trial,1273
tribunals,1274
tricking,1275
tricks,1276
tried,1277
trim,1278
trip,1279
trouble,1280
troubleeeee,1281
true,1282
truly,1283
try,1284
tsunami,1285
ttiv,1286
turmoil,1287
turns,1288
tv,1289
tw,1290
twdvrhtml,1291
tweets,1292
twice,1293
twippin,1294
twitpiccom,1295
twitter,1296
twtadcom,1297
twurlnl,1298
txt,1299
typeset,1300
uaw,1301
ugh,1302
ui,1303
uk,1304
ummm,1305
understand,1306
unemployed,1307
unfold,1308
unfortunate,1309
unhelpful,1310
united,1311
university,1312
universitys,1313
unlimited,1314
unprepared,1315
update,1316
upgrade,1317
upside,1318
use,1319
useless,1320
using,1321
vastly,1322
ve,1323
vehicle,1324
verizon,1325
verse,1326
video,1327
videos,1328
viral,1329
visa,1330
vitamin,1331
vkerkez,1332
voice,1333
vote,1334
vparsedonedigitfhg,1335
vs,1336
wait,1337
walking,1338
want,1339
wantit,1340
wants,1341
warner,1342
warranty,1343
warren,1344
wasn,1345
waste,1346
wasted,1347
waster,1348
wat,1349
watch,1350
watched,1351
watchin,1352
watching,1353
water,1354
wave,1355
way,1356
webdesign,1357
week,1358
weekend,1359
weka,1360
went,1361
weren,1362
wftb,1363
white,1364
whitstyles,1365
whoop,1366
whoopi,1367
wieden,1368
wikipedia,1369
williams,1370
windows,1371
winner,1372
winners,1373
wish,1374
wolfram,1375
wolverine,1376
won,1377
wonder,1378
wonderful,1379
wondering,1380
woot,1381
word,1382
wordwhizkid,1383
work,1384
worked,1385
working,1386
world,1387
worse,1388
worst,1389
worth,1390
wouldn,1391
wow,1392
wrist,1393
writers,1394
wrong,1395
wtf,1396
wtfffff,1397
wthi,1398
wwdc,1399
wwwdavehittcom,1400
wwwgoodbysilversteincom,1401
wwwmacpeepscom,1402
wwwmsnbcmsncom,1403
wysiwyg,1404
xcparsedonedigitcparseddigits,1405
ya,1406
yahoo,1407
yankees,1408
yarnthing,1409
yay,1410
yea,1411
yeah,1412
yeahhhhhhhhh,1413
yearly,1414
years,1415
yearsgreat,1416
yeeeee,1417
yes,1418
york,1419
yr,1420
yummmmmy,1421
zealots,1422
zero,1423
zomg,1424
zydrunas,1425
