__parsedonedigit,0
abortion,1
absolutely,2
accannis,3
access,4
accident,5
according,6
aching,7
acia,8
actually,9
ad,10
adam,11
addictive,12
adidas,13
administration,14
adobe,15
ads,16
advice,17
africa,18
afternoon,19
agency,20
ago,21
ah,22
aha,23
ahead,24
ahh,25
ahhgot,26
ahhh,27
aig,28
ain,29
ala,30
allen,31
alot,32
alpha,33
alto,34
amandabittner,35
amazing,36
amazon,37
ambcharlesfield,38
american,39
amp,40
amphitheatre,41
ampr,42
ampt,43
android,44
angry,45
animations,46
annagoss,47
announcement,48
annoying,49
answers,50
anti,51
anymore,52
anyways,53
apart,54
apartment,55
apatow,56
api,57
apologies,58
app,59
appear,60
apple,61
applied,62
appreciate,63
apps,64
appt,65
arab,66
arabs,67
arg,68
argghhhh,69
arhh,70
arrival,71
arrrgh,72
article,73
aruj,74
arunbasillal,75
asherroth,76
asked,77
ass,78
asses,79
assesment,80
assholes,81
ate,82
atebits,83
athlete,84
atil,85
att,86
audiobook,87
authors,88
available,89
avoided,90
awaiting,91
award,92
away,93
awesome,94
aww,95
bad,96
bags,97
bailout,98
ball,99
ballcom,100
balls,101
banana,102
bank,103
bankruptcy,104
barack,105
barraged,106
basketball,107
bastards,108
bathroom,109
bay,110
bayes,111
bball,112
bccwt,113
beast,114
beautiful,115
bedroom,116
believe,117
best,118
beta,119
better,120
bflay,121
big,122
bike,123
billions,124
bing,125
bio,126
biology,127
bipart,128
bit,129
bitch,130
bitin,131
bitly,132
bitten,133
bitter,134
biz,135
blah,136
blech,137
blink,138
blknpreciousparsedonedigit,139
blocked,140
blondebroad,141
blood,142
bloomingdale,143
blow,144
blows,145
board,146
boarding,147
bob,148
bobby,149
bonjour,150
bonuses,151
boo,152
book,153
books,154
boortz,155
booz,156
bored,157
boring,158
boss,159
bought,160
boyle,161
boys,162
bparsedtwodigitspx,163
brand,164
break,165
bringing,166
brings,167
broken,168
broskiii,169
browser,170
bt,171
btw,172
buffering,173
buffet,174
bug,175
buildin,176
bullshit,177
bummer,178
bumming,179
bunch,180
burger,181
burn,182
burning,183
bush,184
butt,185
buy,186
buzz,187
buzzupcom,188
cable,189
calculus,190
calls,191
came,192
campaign,193
canon,194
car,195
card,196
cars,197
cartons,198
case,199
cash,200
cast,201
catch,202
cause,203
causin,204
cavs,205
cbs,206
cease,207
cell,208
changed,209
changing,210
channels,211
charade,212
charity,213
chart,214
cheap,215
cheaper,216
check,217
cheering,218
cheney,219
chick,220
chicken,221
childs,222
china,223
chose,224
chrysler,225
citi,226
civil,227
ck,228
cking,229
clashmore,230
class,231
classification,232
cligs,233
clinton,234
close,235
club,236
cnn,237
coca,238
coda,239
code,240
cola,241
cold,242
colin,243
collaboration,244
collapse,245
college,246
comcast,247
come,248
comedian,249
comes,250
coming,251
commencement,252
commercial,253
commercials,254
commerical,255
compared,256
complete,257
completely,258
computer,259
concord,260
conference,261
confirmed,262
connection,263
connections,264
consequences,265
conservatism,266
contact,267
contactsdoes,268
continual,269
contract,270
cook,271
cookbook,272
cool,273
couldn,274
countries,275
country,276
course,277
cox,278
cparsedonedigithpp,279
cracka,280
crap,281
crappy,282
crazy,283
create,284
created,285
creates,286
criticalpath,287
crlane,288
crush,289
csparsedonedigit,290
cthagod,291
culprits,292
cunt,293
cup,294
current,295
curses,296
curve,297
customer,298
cut,299
cute,300
cuz,301
cwongparsedtwodigits,302
dad,303
dame,304
damn,305
danielpunkass,306
danny,307
dannygokey,308
date,309
dave,310
day,311
daybankrupt,312
days,313
dbroos,314
dead,315
deal,316
dear,317
dearest,318
debates,319
debt,320
decided,321
deep,322
default,323
definitely,324
demos,325
dentist,326
dentistwho,327
designplay,328
desire,329
desperation,330
destroy,331
developer,332
device,333
devil,334
dick,335
did,336
didn,337
didnt,338
die,339
died,340
dies,341
different,342
dihg,343
dime,344
dinner,345
disaster,346
discomort,347
dishonest,348
dislike,349
dissapointed,350
division,351
djyq,352
dnc,353
docs,354
does,355
doesn,356
dommm,357
don,358
dont,359
dood,360
doom,361
douchebaggery,362
downloading,363
dparsedtwodigits,364
draw,365
drive,366
drop,367
dropped,368
drove,369
dslreports,370
dude,371
dumber,372
dump,373
duo,374
dvr,375
dvyers,376
dwight,377
dx,378
dzmparsedonedigitt,379
ea,380
east,381
economy,382
ed,383
editing,384
editor,385
edogparsedfourdigits,386
effects,387
effing,388
eggs,389
eh,390
ehfa,391
election,392
elkhorn,393
em,394
employees,395
end,396
enjoy,397
enjoyable,398
enuf,399
environment,400
eorfv,401
epic,402
epkrparsedonedigitb,403
ereader,404
espn,405
espnjus,406
european,407
evelynbyrne,408
evening,409
everyday,410
evr,411
exam,412
excited,413
execs,414
expectations,415
expensive,416
experience,417
explain,418
explode,419
extra,420
f__k,421
fabulous,422
facebook,423
factory,424
fail,425
fair,426
faithbabywear,427
fake,428
fan,429
fantastic,430
far,431
fashion,432
fast,433
fault,434
fav,435
favorite,436
fb,437
feature,438
federer,439
feed,440
feel,441
feels,442
fest,443
festival,444
field,445
fieri,446
fifa,447
fil,448
file,449
files,450
finally,451
finals,452
financial,453
finished,454
firmly,455
fish,456
fix,457
flay,458
flies,459
flight,460
flockofseagullsweregeopoliticallycorrect,461
flywire,462
fml,463
font,464
food,465
forced,466
forever,467
fortune,468
forward,469
fraggleparsedthreedigits,470
francisco,471
freakin,472
freaky,473
fred,474
fredwilson,475
free,476
fricken,477
friday,478
friend,479
friggin,480
frustrating,481
fuck,482
fucked,483
fucker,484
fucking,485
fun,486
funding,487
funfun,488
funny,489
furious,490
furkin,491
fuzz,492
fuzzball,493
fwixcom,494
game,495
gave,496
geldof,497
general,498
generate,499
generation,500
genius,501
gets,502
getting,503
gift,504
giggling,505
girl,506
given,507
giving,508
glad,509
gladwell,510
gm,511
goddam,512
going,513
gokey,514
goldpanda,515
gone,516
gonna,517
good,518
goodby,519
goodie,520
google,521
googleio,522
goooood,523
gop,524
got,525
gouged,526
government,527
gparsedonedigit,528
gparsedonedigitruparsedonedigit,529
graduate,530
graphics,531
grateful,532
great,533
greater,534
green,535
grill,536
grr,537
gt,538
gt_,539
gta,540
guantanamo,541
guess,542
guessjust,543
guy,544
guys,545
hacking,546
haha,547
hahaha,548
half,549
hamilton,550
handout,551
happy,552
harassed,553
hard,554
hardly,555
hate,556
hates,557
haven,558
having,559
hd,560
hear,561
heard,562
heck,563
hell,564
hello,565
helloleonie,566
help,567
helpful,568
hempz,569
hero,570
hey,571
hhrs,572
hi,573
hideous,574
high,575
higher,576
highlights,577
highly,578
hilarious,579
hilariouslmao,580
hill,581
history,582
hitting,583
hmm,584
holders,585
holiday,586
home,587
homegrown,588
homepowell,589
hometown,590
honda,591
honor,592
horde,593
hour,594
hours,595
house,596
howard,597
hp,598
hr,599
html,600
htmlfiveappspotcom,601
http,602
hubby,603
huge,604
human,605
hungry,606
hurt,607
hurts,608
hyzl,609
icecream,610
icgjparsedonedigit,611
idea,612
idiot,613
idiots,614
idol,615
iheartseverus,616
ill,617
im,618
ima,619
impatiently,620
implode,621
improvement,622
ims,623
imxum,624
including,625
incredibly,626
india,627
indian,628
inevitable,629
information,630
informative,631
innovation,632
insane,633
insects,634
inside,635
inspired,636
install,637
instead,638
inter,639
interesting,640
internet,641
internets,642
invented,643
investing,644
investors,645
invite,646
ioparsedfourdigits,647
iphone,648
iran,649
irancraziness,650
iranelection,651
isgd,652
isn,653
itchy,654
itwill,655
jacked,656
james,657
jdreiss,658
jessverr,659
jktweet,660
jlshack,661
joining,662
jokes,663
jquery,664
jqueryspokenforjs,665
judd,666
julesrenner,667
junk,668
just,669
kaplan,670
karizmakaze,671
karoli,672
karrisfoxy,673
kathleen,674
katydids,675
kenburbary,676
kendra,677
kennedy,678
keynote,679
khalidparsedfourdigits,680
kick,681
kids,682
kill,683
kimblet,684
kinda,685
kindle,686
kindleparsedonedigit,687
kirstiealley,688
kitchen,689
klunky,690
know,691
kobe,692
korea,693
kparsedonedigityk,694
kswedberg,695
ktmeq,696
lack,697
ladies,698
laker,699
lakers,700
lam,701
lambda,702
lambert,703
late,704
latex,705
lawnmowing,706
layoffs,707
le,708
lead,709
leading,710
learning,711
lebron,712
lebronsh,713
led,714
lee,715
left,716
legalgeekery,717
let,718
lets,719
lewis,720
lied,721
life,722
lifes,723
lift,724
light,725
like,726
liked,727
limit,728
limitations,729
line,730
linux,731
listening,732
literally,733
little,734
live,735
lived,736
ll,737
lmao,738
load,739
loan,740
lol,741
long,742
loo,743
look,744
looked,745
lookin,746
looking,747
looks,748
loooong,749
loooooooovvvvvveee,750
lost,751
lot,752
lots,753
louparsedthreedigits,754
love,755
loved,756
loves,757
lovin,758
loving,759
lparsedonedigitgy,760
lt,761
ltparsedonedigit,762
lucky,763
ludajuice,764
luke,765
lulswparsedonedigit,766
lunch,767
lyx,768
mac,769
mails,770
make,771
makes,772
making,773
malcolm,774
man,775
mandela,776
map,777
marchparsedtwodigits,778
market,779
marketing,780
marry,781
martinez,782
mashable,783
mate,784
math,785
mathematics,786
matthewcyan,787
mbjthegreat,788
mcdonalds,789
meal,790
mean,791
means,792
meet,793
meeting,794
melo,795
memorial,796
mentioned,797
mesa,798
messenger,799
met,800
mets,801
michael,802
mid,803
mikefish,804
military,805
milrockee,806
mins,807
minutes,808
miserable,809
miss,810
mistake,811
mlucparsedtwodigits,812
mmbarnhill,813
mmmkatz,814
mmmmmfamily,815
model,816
modems,817
monday,818
money,819
monkeys,820
monsta,821
months,822
montreal,823
mosquito,824
mostvaluablepuppets,825
motors,826
movie,827
movies,828
moving,829
mr,830
msgs,831
muchasmuertes,832
muppet,833
murdering,834
museum,835
music,836
mustang,837
mylocme,838
nails,839
naive,840
named,841
nancy,842
nap,843
natural,844
nba,845
nbccom,846
ncaa,847
neal,848
need,849
needed,850
needs,851
nehsl,852
nelson,853
nenuah,854
nerd,855
nerdy,856
net,857
new,858
newswow,859
nic,860
nice,861
nicer,862
niggas,863
night,864
nightmare,865
nike,866
nikon,867
nin,868
non,869
nooooooo,870
north,871
note,872
notre,873
nrparsedonedigitnparseddigits,874
nuclear,875
nuggets,876
nuggetssss,877
number,878
nuts,879
ny,880
obama,881
obamabidenpelosi,882
obsession,883
obviously,884
offense,885
office,886
official,887
oh,888
ohhdee,889
ok,890
old,891
oldie,892
omg,893
omgg,894
ooooh,895
oooooooh,896
oparsedonedigitd,897
open,898
operators,899
options,900
oqxgga,901
orli,902
oughta,903
outlet,904
outliers,905
outs,906
outta,907
owned,908
pages,909
pain,910
palin,911
palo,912
parseddigits,913
parsedfivedigits,914
parsedfourdigits,915
parsedonedigit,916
parsedonedigitcparseddigitsuj,917
parsedonedigitcuig,918
parsedonedigitd,919
parsedonedigitdaymosquitos,920
parsedonedigitgezi,921
parsedonedigitgs,922
parsedonedigithr,923
parsedonedigitjwshv,924
parsedonedigitnsnr,925
parsedonedigitpm,926
parsedonedigitrd,927
parsedonedigitueb,928
parsedonedigitupwparsedonedigitp,929
parsedonedigitzic,930
parsedonedigitzlff,931
parsedsixdigits,932
parsedthreedigits,933
parsedtwodigits,934
parsedtwodigitscal,935
parsedtwodigitsd,936
parsedtwodigitsdit,937
parsedtwodigitsepah,938
parsedtwodigitsjparsedonedigitd,939
parsedtwodigitsk,940
parsedtwodigitsshi,941
parsedtwodigitstparsedonedigitnr,942
partners,943
party,944
passionmodel,945
pastrami,946
pay,947
pcyxjparsedonedigit,948
pdhur,949
pdubyad,950
pelosi,951
people,952
peppers,953
perfect,954
person,955
pg,956
pgparsedonedigitlt,957
phoenix,958
phone,959
phones,960
phoneughh,961
photography,962
phyremanparsedonedigit,963
physical,964
physics,965
pic,966
picked,967
picking,968
pictures,969
pills,970
pingfm,971
pink,972
pissed,973
pittstock,974
place,975
plan,976
plane,977
planning,978
plans,979
planted,980
platform,981
play,982
played,983
players,984
playing,985
playoffs,986
pleasant,987
pmillzz,988
pockets,989
point,990
ponzi,991
popular,992
popularity,993
porn,994
possible,995
powell,996
pparsedonedigit,997
pparsedonedigitbparseddigitsfl,998
pparsedonedigituparseddigitsh,999
prayers,1000
prefer,1001
prepare,1002
president,1003
presser,1004
pretenious,1005
pretenses,1006
prettiest,1007
pretty,1008
price,1009
prlvqu,1010
prob,1011
probably,1012
problems,1013
profile,1014
profits,1015
program,1016
programs,1017
promotions,1018
propre,1019
proudly,1020
provided,1021
prs,1022
psychemedia,1023
psyop,1024
public,1025
puppet,1026
putting,1027
pyt,1028
python,1029
quaint,1030
quality,1031
quanttrader,1032
quite,1033
radio,1034
rank,1035
rantsandraves,1036
raped,1037
rating,1038
read,1039
reading,1040
ready,1041
real,1042
realized,1043
realizing,1044
really,1045
reasonable,1046
receipes,1047
receivers,1048
recently,1049
recommend,1050
recorded,1051
recorder,1052
recovering,1053
reference,1054
related,1055
remorse,1056
repeatedly,1057
reps,1058
republic,1059
republican,1060
researchers,1061
result,1062
results,1063
resume,1064
retiring,1065
review,1066
revision,1067
rhino,1068
rich,1069
richardebaker,1070
richest,1071
rid,1072
riddance,1073
ride,1074
right,1075
road,1076
robin,1077
robmalon,1078
rock,1079
rocked,1080
rocks,1081
roger,1082
roll,1083
roomies,1084
rt,1085
runner,1086
running,1087
sad,1088
safari,1089
safeway,1090
said,1091
san,1092
sandbox,1093
sarah,1094
satisfying,1095
saturday,1096
saw,1097
say,1098
saying,1099
scandal,1100
scares,1101
scary,1102
schemers,1103
school,1104
science,1105
scrapbooking,1106
scratch,1107
screams,1108
screen,1109
screw,1110
screwed,1111
search,1112
season,1113
sebulous,1114
seeing,1115
seen,1116
select,1117
sell,1118
sending,1119
sens,1120
sent,1121
seriously,1122
served,1123
service,1124
services,1125
servicethey,1126
session,1127
sethdaggett,1128
shade,1129
shame,1130
shannyoday,1131
shaunwoo,1132
sheer,1133
sheridanmarfil,1134
shirts,1135
shit,1136
shitty,1137
shoreline,1138
shorter,1139
shout,1140
shows,1141
shrop,1142
shut,1143
sick,1144
siding,1145
sign,1146
signal,1147
silverstein,1148
silversteini,1149
singapore,1150
siratomofbones,1151
sitcom,1152
site,1153
sitting,1154
sketchbug,1155
skin,1156
sklososky,1157
slate,1158
slave,1159
sleep,1160
slide,1161
slogan,1162
slow,1163
slowlythey,1164
small,1165
smartchickpdx,1166
smells,1167
smh,1168
snap,1169
snappy,1170
snurlcom,1171
sochiparsedonedigit,1172
social,1173
sony,1174
soon,1175
sooo,1176
soooo,1177
soooooo,1178
sorry,1179
sounds,1180
south,1181
soyvparsedonedigit,1182
sparsedthreedigitsj,1183
speak,1184
speech,1185
speed,1186
spent,1187
spinuzzi,1188
sport,1189
sports,1190
sportsguyparsedtwodigits,1191
spot,1192
springsingfiend,1193
spurs,1194
stacks,1195
stanford,1196
star,1197
start,1198
started,1199
starting,1200
states,1201
steep,1202
stellargirl,1203
stick,1204
stimulus,1205
stinkin,1206
stop,1207
stopped,1208
studying,1209
stuff,1210
stupid,1211
style,1212
suck,1213
sucks,1214
sum,1215
summer,1216
summize,1217
super,1218
superslow,1219
support,1220
supporting,1221
supposed,1222
surgerywishing,1223
surprised,1224
survey,1225
survive,1226
susan,1227
svcs,1228
sweet,1229
switch,1230
taking,1231
talk,1232
talking,1233
tamasha,1234
tattoooos,1235
taxes,1236
tbh,1237
tcot,1238
tea,1239
teach,1240
tell,1241
telling,1242
tells,1243
tempted,1244
tennis,1245
terrifying,1246
terror,1247
terrysimpson,1248
test,1249
tethering,1250
texnparsedonedigitrds,1251
text,1252
thank,1253
thanks,1254
thing,1255
things,1256
think,1257
thinks,1258
thought,1259
throttles,1260
tickets,1261
til,1262
time,1263
times,1264
tinyurlcom,1265
tipping,1266
tired,1267
tivo,1268
tlot,1269
today,1270
told,1271
tommorow,1272
tomorrow,1273
tones,1274
tonight,1275
tonite,1276
tonyhawk,1277
took,1278
tool,1279
tooth,1280
torture,1281
totally,1282
tour,1283
toy,1284
training,1285
translator,1286
tree,1287
trek,1288
trend,1289
trial,1290
tribunals,1291
tricking,1292
tricks,1293
tried,1294
trim,1295
trip,1296
trouble,1297
troubleeeee,1298
true,1299
truly,1300
try,1301
tsunami,1302
ttiv,1303
turmoil,1304
turns,1305
tv,1306
tw,1307
twdvrhtml,1308
tweets,1309
twice,1310
twippin,1311
twitpiccom,1312
twitter,1313
twtadcom,1314
twurlnl,1315
typeset,1316
uaw,1317
ugh,1318
ugly,1319
ui,1320
uk,1321
underestimated,1322
understand,1323
unemployed,1324
unfold,1325
unfortunate,1326
unhelpful,1327
united,1328
universal,1329
university,1330
universitys,1331
unprepared,1332
update,1333
upgrade,1334
upset,1335
upside,1336
uscsportsparsedtwodigits,1337
use,1338
useless,1339
using,1340
vastly,1341
ve,1342
vehicle,1343
verizon,1344
verse,1345
video,1346
videos,1347
vincentxparsedtwodigitsx,1348
vios,1349
viral,1350
visa,1351
vitamin,1352
vkerkez,1353
voice,1354
vote,1355
vparsedonedigitfhg,1356
vprpt,1357
wait,1358
walking,1359
want,1360
wantit,1361
wants,1362
warner,1363
warranty,1364
warren,1365
wasn,1366
waste,1367
wasted,1368
waster,1369
watch,1370
watched,1371
watchin,1372
watching,1373
water,1374
wave,1375
way,1376
webdesign,1377
week,1378
weekend,1379
weka,1380
went,1381
weren,1382
wftb,1383
white,1384
whitstyles,1385
whoop,1386
wieden,1387
wikipedia,1388
williams,1389
win,1390
windows,1391
winer,1392
winner,1393
winners,1394
wish,1395
wolfram,1396
wolverine,1397
won,1398
wonder,1399
wonderful,1400
wondering,1401
woot,1402
word,1403
wordwhizkid,1404
work,1405
worked,1406
working,1407
world,1408
worse,1409
worst,1410
worth,1411
wouldn,1412
writers,1413
wrong,1414
wtf,1415
wthi,1416
wwdc,1417
wwwdavehittcom,1418
wwwgoodbysilversteincom,1419
wwwmacpeepscom,1420
wwwnbccom,1421
wwwparsedtwodigitswolframalphacom,1422
wysiwyg,1423
xcparsedonedigitcparseddigits,1424
ya,1425
yahoo,1426
yankees,1427
yay,1428
yea,1429
yeah,1430
yeahhhhhhhhh,1431
yearly,1432
years,1433
yearsgreat,1434
yeeeee,1435
yes,1436
yesterday,1437
yo,1438
york,1439
youtube,1440
yr,1441
yummmmmy,1442
zealots,1443
zero,1444
zomg,1445
zydrunas,1446
