aaa,0
abilities,1
ability,2
able,3
abroad,4
absolute,5
absolutely,6
abuse,7
abused,8
ac,9
accentuates,10
accept,11
acceptable,12
accepted,13
accepts,14
access,15
accesses,16
accessibility,17
accessible,18
accessing,19
accessories,20
accessory,21
accident,22
accidentally,23
accidently,24
accidents,25
accomplished,26
according,27
accordingly,28
account,29
accually,30
accurate,31
achieve,32
achieved,33
achievement,34
acparsedonedigit,35
act,36
action,37
actions,38
activate,39
activated,40
acts,41
actual,42
actually,43
ad,44
adapter,45
adapters,46
add,47
added,48
addict,49
addition,50
additional,51
additionally,52
address,53
addresses,54
adds,55
adequate,56
adequately,57
adjust,58
adjusted,59
adjustment,60
adjustments,61
adminstrative,62
admit,63
admitted,64
adobe,65
adoo,66
adparsedfourdigits,67
adparsedfourdigitsw,68
advance,69
advanced,70
advancing,71
advantage,72
advantages,73
advertised,74
advertises,75
advice,76
advise,77
advised,78
af,79
aff,80
affect,81
affecting,82
afflicted,83
afford,84
affordability,85
affordable,86
affordably,87
africa,88
aftermarket,89
age,90
aggrivation,91
ago,92
agree,93
ahead,94
aid,95
aids,96
aiff,97
aight,98
ailing,99
aim,100
ain,101
air,102
aires,103
alarm,104
alarmed,105
albeit,106
album,107
albums,108
algorithms,109
alhthough,110
alias,111
alkaline,112
allow,113
allowed,114
allowing,115
allows,116
alltogether,117
alludes,118
alot,119
alphabetical,120
alphebetical,121
alsmost,122
alter,123
altered,124
alternate,125
alternative,126
aluminum,127
amateur,128
amatuer,129
amaze,130
amazed,131
amazement,132
amazing,133
amazon,134
american,135
amg,136
amp,137
ample,138
amusing,139
analog,140
anchor,141
angeles,142
angle,143
angles,144
annie,145
announced,146
annoy,147
annoying,148
answer,149
answered,150
answering,151
answers,152
anticipate,153
antyhing,154
anybody,155
anytime,156
anyways,157
aol,158
apart,159
apartment,160
aperature,161
aperture,162
apex,163
apexdigital,164
apexdigitalinc,165
app,166
apparent,167
apparently,168
appealing,169
appear,170
appearance,171
appeared,172
appearing,173
appears,174
apple,175
appliance,176
application,177
applications,178
applied,179
applies,180
applying,181
appreciate,182
appreciated,183
appropriate,184
approved,185
approximately,186
apps,187
aps,188
archos,189
archrival,190
area,191
areas,192
aren,193
arguably,194
arises,195
arm,196
army,197
array,198
arrived,199
arrogant,200
art,201
articulated,202
artist,203
artists,204
asap,205
asia,206
aside,207
ask,208
asked,209
asking,210
asks,211
asp,212
aspects,213
assembled,214
assign,215
assist,216
associated,217
assume,218
assumed,219
assurance,220
assured,221
asthetic,222
asthetics,223
astonishingly,224
astounding,225
attach,226
attached,227
attachment,228
attempted,229
attempting,230
attempts,231
attend,232
attendant,233
attended,234
attention,235
attractable,236
attracted,237
attractive,238
au,239
audible,240
audigy,241
audio,242
audiophile,243
auditorium,244
august,245
authorized,246
auto,247
autofocus,248
autofocussing,249
automatic,250
automatically,251
automation,252
automode,253
avail,254
available,255
availible,256
average,257
avi,258
avoid,259
awaesome,260
aware,261
away,262
awe,263
aweful,264
awesome,265
awful,266
awkward,267
awsome,268
baby,269
bach,270
backed,271
background,272
backgrounds,273
backlight,274
backlit,275
backup,276
backyard,277
bad,278
bag,279
balance,280
band,281
bands,282
bang,283
banged,284
bar,285
barely,286
bargain,287
barrel,288
bars,289
bart,290
base,291
based,292
bashing,293
basic,294
basically,295
basicly,296
basis,297
bass,298
batches,299
batteries,300
batterly,301
battery,302
bbb,303
beach,304
beast,305
beat,306
beatiful,307
beats,308
beautiful,309
becames,310
becuase,311
bed,312
bedroom,313
beef,314
beefo,315
beeps,316
beetle,317
began,318
begiining,319
beginner,320
beginners,321
beginning,322
begins,323
behavior,324
believe,325
belive,326
belkin,327
bell,328
bells,329
belongs,330
belt,331
bending,332
beneficial,333
benefit,334
benifit,335
best,336
bet,337
better,338
beunos,339
bevy,340
beware,341
big,342
bigger,343
biggest,344
biggie,345
biking,346
billing,347
bin,348
birthday,349
bit,350
bitten,351
black,352
blamed,353
blanks,354
blast,355
blaster,356
blazing,357
bleeding,358
blessing,359
blind,360
blip,361
blocked,362
blocking,363
bloom,364
blowing,365
blown,366
blows,367
blue,368
bluetooth,369
blunt,370
blurry,371
board,372
boasts,373
boat,374
body,375
bones,376
bonus,377
book,378
booklet,379
bookmark,380
bookmarks,381
books,382
boost,383
boosting,384
boot,385
bootleg,386
borderuer,387
bore,388
bored,389
boredom,390
born,391
borrow,392
borrowed,393
boss,394
bother,395
bothered,396
bought,397
bounce,398
bounced,399
box,400
boxy,401
boy,402
boyfriend,403
bracket,404
brag,405
brags,406
brainer,407
brand,408
branded,409
brands,410
brazil,411
break,412
breakdown,413
breaker,414
breaks,415
breath,416
breathtaking,417
breeze,418
brick,419
brief,420
bright,421
brightly,422
brightness,423
brilliance,424
brilliant,425
brillient,426
bring,427
brisk,428
broke,429
broken,430
broker,431
brother,432
brothers,433
brought,434
browser,435
browsing,436
bruce,437
bruvah,438
btw,439
buck,440
bucks,441
budged,442
budget,443
buffs,444
bug,445
buget,446
build,447
buildings,448
built,449
bulging,450
bulky,451
bull,452
bullet,453
bummer,454
bumpy,455
bunch,456
bundled,457
buried,458
burn,459
burned,460
burner,461
burning,462
burries,463
bus,464
business,465
busy,466
butt,467
button,468
buttons,469
buy,470
buyer,471
buyers,472
buying,473
buys,474
buzz,475
buzzing,476
cabinet,477
cable,478
cables,479
cage,480
cake,481
calendar,482
called,483
caller,484
calling,485
calls,486
camcorder,487
came,488
camea,489
camedia,490
camera,491
cameras,492
campaign,493
camper,494
cancel,495
cancelled,496
candles,497
candy,498
canned,499
cannon,500
canon,501
canonized,502
cans,503
cap,504
capabilities,505
capability,506
capable,507
capacity,508
capadabilty,509
capitalist,510
capture,511
captures,512
car,513
card,514
cards,515
care,516
careful,517
carefully,518
cares,519
carl,520
carpet,521
carribean,522
carrier,523
carriers,524
carries,525
carry,526
carrying,527
case,528
cases,529
cash,530
casing,531
cassette,532
cast,533
catalog,534
catch,535
categories,536
categorizes,537
category,538
cause,539
caused,540
causes,541
caution,542
cautious,543
cavity,544
cd,545
cddb,546
cdds,547
cdma,548
cdr,549
cdrw,550
cds,551
ceases,552
ceiling,553
cell,554
cellar,555
cellphone,556
cellphones,557
cent,558
center,559
centimeters,560
cents,561
century,562
certain,563
certainly,564
certificate,565
cf,566
chair,567
challenging,568
champagne,569
chance,570
changable,571
change,572
changeable,573
changed,574
changes,575
changing,576
chapter,577
charge,578
charged,579
charger,580
charges,581
charging,582
charm,583
chat,584
cheap,585
cheaper,586
cheapest,587
cheaply,588
cheasy,589
check,590
checked,591
checking,592
cheep,593
cheerful,594
cheesiest,595
cheesy,596
chess,597
chic,598
chicago,599
chie,600
child,601
childhood,602
chinese,603
chip,604
choice,605
choices,606
choose,607
choosing,608
chords,609
chose,610
chosing,611
christmas,612
chrome,613
chucked,614
church,615
cinch,616
cincinnati,617
cingular,618
circulation,619
claim,620
claiming,621
claims,622
clarity,623
class,624
classic,625
classical,626
classifed,627
classifications,628
classified,629
classify,630
clean,631
cleaned,632
cleaning,633
clear,634
clearly,635
clerk,636
click,637
clicking,638
clicks,639
clip,640
clips,641
clock,642
close,643
closed,644
closely,645
closer,646
closest,647
club,648
clue,649
clumsy,650
clunky,651
clutter,652
coastal,653
coat,654
coating,655
coax,656
cocking,657
code,658
codes,659
collaborating,660
collection,661
college,662
color,663
coloration,664
colorimetry,665
colors,666
com,667
comaptible,668
combination,669
combined,670
combines,671
combo,672
combos,673
come,674
comes,675
comfortable,676
comfortably,677
comfy,678
coming,679
commander,680
commands,681
comment,682
comments,683
common,684
commonly,685
communications,686
commutes,687
compact,688
compactflash,689
compained,690
companies,691
company,692
comparable,693
compare,694
compared,695
comparing,696
comparison,697
compatibility,698
compatible,699
compelled,700
compensate,701
competence,702
competition,703
competitor,704
competitors,705
compilation,706
complain,707
complained,708
complaining,709
complains,710
complaint,711
complaints,712
complete,713
completely,714
completion,715
complex,716
complicated,717
component,718
compose,719
composite,720
compression,721
compromise,722
compromises,723
computer,724
computers,725
concealed,726
concentrate,727
concern,728
concerned,729
concert,730
concerts,731
concludes,732
concluding,733
condition,734
conditions,735
conducive,736
confidence,737
configurable,738
configure,739
configured,740
confirm,741
confused,742
confusing,743
conjunction,744
connect,745
connected,746
connecting,747
connection,748
connections,749
connectivity,750
connector,751
connetions,752
cons,753
consider,754
considerable,755
consideration,756
considered,757
considering,758
consistantly,759
consistent,760
consistently,761
constant,762
constantly,763
constituants,764
constructed,765
construction,766
consumer,767
consumers,768
consuming,769
contact,770
contacted,771
contacting,772
contained,773
contains,774
contenders,775
contents,776
continue,777
continued,778
continues,779
continuing,780
continuous,781
contorting,782
contour,783
contours,784
contract,785
contractor,786
contrary,787
contrast,788
control,789
controlling,790
controls,791
contructed,792
convenience,793
conveniences,794
convenient,795
conveniently,796
conversions,797
convert,798
converter,799
converting,800
converts,801
convinced,802
cool,803
coolpix,804
coolpixparsedfourdigits,805
copied,806
copies,807
copy,808
copying,809
cord,810
corectly,811
corner,812
corners,813
corporate,814
correct,815
corrected,816
correction,817
correctly,818
correspond,819
corrrupted,820
corrupt,821
cost,822
costs,823
couch,824
couldn,825
count,826
counter,827
countertop,828
counting,829
countless,830
countries,831
country,832
couple,833
coupons,834
course,835
courtesy,836
cover,837
coverage,838
covered,839
covers,840
coveted,841
cparsedfourdigitsz,842
crack,843
crafted,844
craftmanship,845
cranky,846
crap,847
crapped,848
crappiness,849
crappy,850
craps,851
craptacular,852
crash,853
crashed,854
crashes,855
crashing,856
crazy,857
crazycellphone,858
create,859
created,860
creates,861
creating,862
creation,863
creative,864
credit,865
crisp,866
criteria,867
criticize,868
criticsm,869
critter,870
crop,871
cross,872
crossing,873
cruising,874
crummy,875
crush,876
csd,877
csr,878
ct,879
cube,880
cubic,881
cumbersome,882
currency,883
current,884
currently,885
currrently,886
curve,887
curvy,888
cust,889
custom,890
customer,891
customers,892
customerservice,893
customizable,894
customization,895
customize,896
cut,897
cute,898
cuz,899
cuzin,900
cvds,901
cycle,902
cycles,903
dad,904
damage,905
damaged,906
damned,907
dampening,908
dandy,909
dangerous,910
dare,911
dark,912
darker,913
darn,914
data,915
database,916
date,917
day,918
daylight,919
days,920
dazzling,921
dcs,922
ddparsedonedigit,923
deactivate,924
dead,925
deadline,926
deafults,927
deal,928
dealing,929
deals,930
debit,931
decade,932
december,933
decent,934
decibles,935
decide,936
decided,937
deciding,938
decision,939
deck,940
dedicated,941
default,942
defaulted,943
defaults,944
defeats,945
defective,946
defects,947
deficiencies,948
deficient,949
definately,950
defined,951
definitely,952
degrees,953
delay,954
delays,955
delete,956
deleting,957
delicate,958
delighted,959
deliver,960
delivered,961
delivers,962
delivery,963
dell,964
demand,965
demands,966
den,967
denial,968
dennis,969
dense,970
density,971
dent,972
department,973
dependable,974
depending,975
depends,976
depressed,977
depressing,978
depressingly,979
dept,980
depth,981
described,982
describing,983
description,984
descussion,985
deserves,986
design,987
designed,988
designing,989
desire,990
desk,991
despite,992
destroy,993
destroyed,994
destructed,995
detachable,996
details,997
detectable,998
detecting,999
determined,1000
detract,1001
detracts,1002
detroit,1003
devastated,1004
developed,1005
developing,1006
development,1007
develops,1008
device,1009
devices,1010
diagnose,1011
dial,1012
dialing,1013
dialogue,1014
did,1015
didn,1016
didnt,1017
die,1018
died,1019
dies,1020
difference,1021
different,1022
differential,1023
difficult,1024
difficulties,1025
difficulty,1026
diggin,1027
digi,1028
digicam,1029
digicams,1030
digital,1031
dim,1032
dimage,1033
dimished,1034
diopter,1035
direct,1036
direction,1037
directions,1038
directly,1039
directory,1040
dirty,1041
dis,1042
disable,1043
disadvantages,1044
disapointed,1045
disappeared,1046
disappointed,1047
disappointing,1048
disappointment,1049
disc,1050
discontinued,1051
discount,1052
discoutinous,1053
discover,1054
discovered,1055
discovering,1056
discovery,1057
discs,1058
disdain,1059
disgusted,1060
disipointed,1061
disk,1062
disks,1063
disney,1064
display,1065
displayed,1066
displaying,1067
displays,1068
disposable,1069
dissapears,1070
dissapointed,1071
dissapointment,1072
dissapointments,1073
dissappointed,1074
dissuade,1075
distance,1076
distorted,1077
distortion,1078
distorts,1079
distraction,1080
disturbing,1081
divided,1082
division,1083
divx,1084
dock,1085
docking,1086
document,1087
documentation,1088
documented,1089
documents,1090
does,1091
doesn,1092
doesnt,1093
dog,1094
dogs,1095
doing,1096
dollar,1097
dollars,1098
dominant,1099
don,1100
donkey,1101
donno,1102
dont,1103
door,1104
double,1105
doubler,1106
doubles,1107
doubt,1108
doubts,1109
downer,1110
downladed,1111
download,1112
downloadable,1113
downloaded,1114
downloading,1115
downloads,1116
downside,1117
dozen,1118
dozens,1119
dparsedthreedigitss,1120
dpreview,1121
dpreviews,1122
drag,1123
dragging,1124
drain,1125
drains,1126
drastically,1127
drawback,1128
drawbacks,1129
drawer,1130
dream,1131
drive,1132
driver,1133
drivers,1134
drives,1135
driving,1136
drop,1137
dropped,1138
dropping,1139
drops,1140
drove,1141
dry,1142
dsc,1143
dsf,1144
dts,1145
du,1146
dual,1147
ducking,1148
duh,1149
dull,1150
dumb,1151
dummy,1152
dumps,1153
duper,1154
duplicate,1155
duplicates,1156
durability,1157
durable,1158
duration,1159
dust,1160
dutch,1161
dvd,1162
dvdr,1163
dvdrw,1164
dvds,1165
dye,1166
dying,1167
dynamic,1168
eamil,1169
ear,1170
earbuds,1171
earlier,1172
early,1173
earphone,1174
earphones,1175
earpice,1176
earpiece,1177
ears,1178
ease,1179
easier,1180
easiest,1181
easily,1182
east,1183
easy,1184
eat,1185
eax,1186
ebay,1187
eclectic,1188
ect,1189
edge,1190
edges,1191
edit,1192
editing,1193
effect,1194
effective,1195
effort,1196
eh,1197
eject,1198
el,1199
elderly,1200
electricity,1201
electronic,1202
electronics,1203
elegant,1204
eliminate,1205
eliminated,1206
elments,1207
elph,1208
elphs,1209
elses,1210
elusive,1211
em,1212
email,1213
emailed,1214
emailing,1215
emails,1216
embarassing,1217
embarrassed,1218
embedded,1219
emergency,1220
employees,1221
emplyees,1222
en,1223
enable,1224
enabled,1225
enables,1226
enabling,1227
enclose,1228
enclosed,1229
encode,1230
encoded,1231
encodes,1232
encounter,1233
encountered,1234
end,1235
ended,1236
endless,1237
ends,1238
engage,1239
engine,1240
engineer,1241
engineered,1242
engineering,1243
english,1244
engorged,1245
enhancement,1246
enhancing,1247
enjoy,1248
enjoyed,1249
enjoying,1250
enjoyment,1251
enjoys,1252
enlarge,1253
enlarging,1254
enormous,1255
enought,1256
ensure,1257
ensuring,1258
enter,1259
entering,1260
entertaining,1261
enthusiast,1262
enthusiastic,1263
enthusiastically,1264
entire,1265
entries,1266
entry,1267
envied,1268
environment,1269
environmental,1270
environments,1271
environs,1272
eos,1273
epinions,1274
eq,1275
equal,1276
equalizer,1277
equally,1278
equilizer,1279
equipment,1280
equipped,1281
equivalent,1282
er,1283
ergonomical,1284
ergonomics,1285
ericsson,1286
error,1287
errors,1288
erros,1289
especially,1290
established,1291
estate,1292
estimate,1293
ethernet,1294
euphoria,1295
europe,1296
european,1297
evaluated,1298
evaulate,1299
evening,1300
event,1301
eventhough,1302
eventually,1303
eventualy,1304
everythig,1305
everytime,1306
evolve,1307
ex,1308
exactly,1309
example,1310
exceeded,1311
exceedingly,1312
excel,1313
excellent,1314
excels,1315
exception,1316
exceptional,1317
excessive,1318
exchange,1319
excited,1320
exclusively,1321
excuse,1322
exhaustive,1323
exhibited,1324
exhustive,1325
existent,1326
existing,1327
expecct,1328
expect,1329
expectation,1330
expectations,1331
expected,1332
expecting,1333
expedited,1334
expense,1335
expensive,1336
experience,1337
experienced,1338
experiment,1339
experimented,1340
experimenting,1341
experince,1342
expert,1343
expired,1344
expires,1345
explain,1346
explained,1347
explains,1348
exploit,1349
explored,1350
explorer,1351
exposed,1352
exposure,1353
exposures,1354
extemely,1355
extended,1356
extension,1357
extensive,1358
extensively,1359
external,1360
extra,1361
extraneous,1362
extras,1363
extreme,1364
extremely,1365
eye,1366
eyed,1367
eyeing,1368
eyes,1369
eyesight,1370
fabulous,1371
face,1372
faceplate,1373
faceplates,1374
fact,1375
factor,1376
factore,1377
factoring,1378
factors,1379
factory,1380
faded,1381
fahrenheit,1382
fail,1383
failed,1384
failing,1385
fails,1386
failure,1387
fair,1388
fairly,1389
fairness,1390
faithfully,1391
fall,1392
falling,1393
falls,1394
false,1395
familiar,1396
family,1397
familyplan,1398
famous,1399
fan,1400
fanatic,1401
fans,1402
fantasic,1403
fantastic,1404
fantasy,1405
far,1406
fashioned,1407
fast,1408
faster,1409
father,1410
fault,1411
faulty,1412
fav,1413
favor,1414
favorite,1415
fax,1416
fe,1417
fear,1418
feature,1419
featured,1420
features,1421
february,1422
fed,1423
feedback,1424
feel,1425
feeling,1426
feelings,1427
feels,1428
feet,1429
fell,1430
fellow,1431
felt,1432
fiddling,1433
field,1434
fields,1435
fifty,1436
figure,1437
figured,1438
figures,1439
figuring,1440
file,1441
filecount,1442
filenames,1443
files,1444
fileviewer,1445
filled,1446
filling,1447
fillmore,1448
film,1449
filter,1450
filters,1451
final,1452
finally,1453
finder,1454
finding,1455
fine,1456
finer,1457
finest,1458
finger,1459
fingers,1460
fingertips,1461
finicky,1462
finish,1463
finished,1464
fired,1465
firewire,1466
firmware,1467
fisher,1468
fist,1469
fit,1470
fits,1471
fix,1472
fixed,1473
fixes,1474
fixing,1475
fizzled,1476
fkor,1477
flagship,1478
flaky,1479
flash,1480
flashes,1481
flashing,1482
flashy,1483
flat,1484
flaw,1485
flawed,1486
flawless,1487
flawlessly,1488
flaws,1489
flew,1490
flexibility,1491
flexible,1492
flight,1493
flimsy,1494
flip,1495
flips,1496
flowers,1497
fluid,1498
fly,1499
flyball,1500
flywheel,1501
fm,1502
focal,1503
focus,1504
focused,1505
focusing,1506
focussing,1507
folder,1508
folders,1509
folks,1510
follow,1511
followed,1512
following,1513
fool,1514
foot,1515
force,1516
forced,1517
foreign,1518
forests,1519
forever,1520
forewarned,1521
forget,1522
forgo,1523
forgot,1524
forgotten,1525
form,1526
format,1527
formats,1528
formatted,1529
formatting,1530
forth,1531
fortunately,1532
fortune,1533
forward,1534
fourth,1535
fparsedonedigit,1536
fparsedthreedigits,1537
fraction,1538
fragile,1539
frame,1540
frames,1541
free,1542
freeway,1543
freeze,1544
freezes,1545
freezing,1546
frend,1547
frequent,1548
frequently,1549
fried,1550
friend,1551
friendlier,1552
friendly,1553
friends,1554
fringing,1555
froze,1556
frozen,1557
frustrated,1558
frustrating,1559
frustration,1560
ft,1561
fully,1562
fumble,1563
fun,1564
func,1565
function,1566
functional,1567
functionality,1568
functions,1569
funtion,1570
furher,1571
fussy,1572
future,1573
gadgets,1574
gain,1575
gaining,1576
gains,1577
gallery,1578
game,1579
games,1580
gap,1581
garbage,1582
garbling,1583
gave,1584
gb,1585
gear,1586
geared,1587
geeky,1588
gem,1589
general,1590
generally,1591
generate,1592
generated,1593
generation,1594
generations,1595
genre,1596
genres,1597
gentlest,1598
german,1599
gets,1600
getting,1601
ghz,1602
gift,1603
gifts,1604
gig,1605
gigabyte,1606
gigabytes,1607
gigs,1608
girlfriend,1609
given,1610
gives,1611
giving,1612
gizmo,1613
glad,1614
glance,1615
glaring,1616
glass,1617
glaze,1618
glinting,1619
glitch,1620
glitches,1621
glitters,1622
globally,1623
glove,1624
glow,1625
glowing,1626
god,1627
goddam,1628
goddaughter,1629
goes,1630
going,1631
gold,1632
golden,1633
goldstar,1634
gone,1635
good,1636
goodluck,1637
goodness,1638
goofy,1639
google,1640
gorgeous,1641
got,1642
goth,1643
gotted,1644
gotten,1645
gparsedonedigit,1646
gprs,1647
grab,1648
gracenotes,1649
grade,1650
grain,1651
grainy,1652
grand,1653
grandma,1654
grandmother,1655
granted,1656
graphic,1657
graphics,1658
gravitated,1659
gray,1660
great,1661
greater,1662
greatest,1663
green,1664
grieps,1665
grip,1666
gripe,1667
groovy,1668
group,1669
groups,1670
grow,1671
gsm,1672
gsmparsedthreedigits,1673
guarantee,1674
guess,1675
guessing,1676
guide,1677
guides,1678
gut,1679
guy,1680
gym,1681
habit,1682
hacked,1683
hacks,1684
hadn,1685
haggard,1686
half,1687
halfway,1688
hall,1689
hand,1690
handbag,1691
handle,1692
handles,1693
hands,1694
handset,1695
handsets,1696
handsfree,1697
handy,1698
hang,1699
hanging,1700
hangs,1701
happen,1702
happened,1703
happens,1704
happier,1705
happily,1706
happy,1707
hard,1708
harddisk,1709
harddrive,1710
harder,1711
hardly,1712
hardware,1713
harm,1714
harsh,1715
hasn,1716
hassle,1717
hate,1718
hated,1719
hates,1720
haul,1721
haven,1722
havent,1723
having,1724
hazard,1725
haze,1726
hazy,1727
hazzles,1728
hd,1729
hdd,1730
hddparsedthreedigits,1731
hdtv,1732
head,1733
headache,1734
headaches,1735
headed,1736
headfone,1737
heading,1738
headphone,1739
headphones,1740
heads,1741
headset,1742
health,1743
hear,1744
heard,1745
hearing,1746
heart,1747
heartedly,1748
heaven,1749
heavier,1750
heaviest,1751
heavily,1752
heavy,1753
heck,1754
heft,1755
held,1756
hell,1757
hellishly,1758
help,1759
helped,1760
helpful,1761
helps,1762
hendrix,1763
herd,1764
heres,1765
hesitant,1766
hesitate,1767
hesitation,1768
hey,1769
hi,1770
hick,1771
hidden,1772
hides,1773
high,1774
higher,1775
highest,1776
highlight,1777
highlights,1778
highly,1779
hinderance,1780
hint,1781
hip,1782
hipster,1783
hiss,1784
history,1785
hit,1786
hitch,1787
hits,1788
hitting,1789
ho,1790
hold,1791
holding,1792
holds,1793
hole,1794
holiday,1795
home,1796
homely,1797
homework,1798
honestly,1799
hook,1800
hooked,1801
hooking,1802
hoome,1803
hooray,1804
hope,1805
hoped,1806
hopefully,1807
hopes,1808
hoping,1809
horoscopes,1810
horrendous,1811
horrible,1812
hot,1813
hotkey,1814
hour,1815
hours,1816
house,1817
hovewer,1818
hrs,1819
http,1820
huge,1821
hum,1822
hundreds,1823
hunter,1824
hurdles,1825
hurry,1826
hurt,1827
hurts,1828
husband,1829
hype,1830
hyped,1831
ibm,1832
ibook,1833
ice,1834
icing,1835
iconoclast,1836
id,1837
idea,1838
ideal,1839
ideas,1840
identical,1841
identified,1842
identify,1843
identifying,1844
idiot,1845
idparsedonedigit,1846
idparsedonedigitvparseddigits,1847
ignorant,1848
ignore,1849
ignored,1850
iguazu,1851
ihp,1852
ii,1853
ill,1854
illiterate,1855
illogical,1856
illuminates,1857
im,1858
image,1859
images,1860
imagine,1861
imaging,1862
imho,1863
immaterial,1864
immediately,1865
immense,1866
imo,1867
impatient,1868
import,1869
important,1870
imports,1871
impossible,1872
impossibly,1873
impress,1874
impressed,1875
impression,1876
impressive,1877
improve,1878
improved,1879
improvement,1880
improves,1881
inbuilt,1882
inches,1883
incident,1884
inclined,1885
include,1886
included,1887
includes,1888
including,1889
inconveniences,1890
inconvenient,1891
incorrect,1892
increadably,1893
increase,1894
increased,1895
incredibe,1896
incredible,1897
incredibly,1898
indestructibility,1899
indicate,1900
indicated,1901
indicator,1902
indirect,1903
indistinguishable,1904
individualized,1905
individually,1906
indoor,1907
inept,1908
inexpensive,1909
inferior,1910
infinitely,1911
info,1912
information,1913
informed,1914
infrared,1915
infuriating,1916
inherent,1917
initial,1918
initially,1919
innovative,1920
inoperable,1921
inordinate,1922
input,1923
inputparsedonedigit,1924
insanely,1925
insert,1926
inserted,1927
inserting,1928
inside,1929
insisted,1930
insisting,1931
inspection,1932
inspired,1933
instability,1934
install,1935
installation,1936
installed,1937
installing,1938
installs,1939
instance,1940
instances,1941
instant,1942
instantly,1943
instead,1944
instincts,1945
instruction,1946
instructions,1947
instruments,1948
instuctions,1949
insure,1950
integrated,1951
integrates,1952
intend,1953
intended,1954
intense,1955
intent,1956
interaction,1957
interacts,1958
interested,1959
interesting,1960
interface,1961
interfacing,1962
interference,1963
interlace,1964
internal,1965
international,1966
internationally,1967
internet,1968
interruption,1969
intimidated,1970
intrested,1971
introduce,1972
intuitive,1973
invest,1974
investigating,1975
investing,1976
investment,1977
involved,1978
involves,1979
iphoto,1980
ipod,1981
ipodders,1982
ipods,1983
ipodsdirtysecret,1984
ir,1985
irda,1986
iriver,1987
irivers,1988
irriation,1989
isacc,1990
isn,1991
isnt,1992
iso,1993
isolated,1994
issue,1995
issues,1996
italian,1997
item,1998
items,1999
ithave,2000
itunes,2001
ive,2002
jack,2003
jacks,2004
jan,2005
january,2006
java,2007
jazz,2008
jet,2009
jimi,2010
jme,2011
job,2012
jobs,2013
joe,2014
jog,2015
jogger,2016
jogging,2017
join,2018
joined,2019
joke,2020
jones,2021
jour,2022
journey,2023
jpeg,2024
jpegs,2025
jpgs,2026
judgement,2027
juice,2028
jukebox,2029
jukeboxed,2030
jukeboxes,2031
jukeboxparsedonedigit,2032
july,2033
jumping,2034
junk,2035
junky,2036
just,2037
justify,2038
karma,2039
karoake,2040
kbps,2041
keen,2042
keepers,2043
keeping,2044
keeps,2045
kenny,2046
kentucky,2047
kept,2048
key,2049
keychain,2050
keying,2051
keypad,2052
keys,2053
kicks,2054
kid,2055
kids,2056
kill,2057
killer,2058
kind,2059
kinda,2060
kingston,2061
kit,2062
kitchen,2063
kits,2064
knew,2065
knife,2066
knob,2067
knobs,2068
knock,2069
knocked,2070
knockoff,2071
know,2072
knowing,2073
knowledge,2074
known,2075
knows,2076
kodak,2077
korean,2078
koreans,2079
kpbs,2080
kudos,2081
lab,2082
labled,2083
labor,2084
labs,2085
lack,2086
lacking,2087
lacks,2088
lag,2089
laid,2090
lame,2091
landed,2092
landscape,2093
language,2094
languages,2095
lap,2096
laptop,2097
large,2098
larger,2099
lasted,2100
lasting,2101
lastly,2102
lasts,2103
latch,2104
late,2105
later,2106
latest,2107
latitude,2108
launched,2109
laundry,2110
lawsuit,2111
layer,2112
layout,2113
lcd,2114
lead,2115
leading,2116
learn,2117
learned,2118
learning,2119
lease,2120
leather,2121
leave,2122
leaving,2123
lebovitz,2124
led,2125
left,2126
leg,2127
legit,2128
legitimate,2129
leica,2130
lemon,2131
len,2132
length,2133
lengthy,2134
lens,2135
lense,2136
lenses,2137
lensmateonline,2138
lesson,2139
let,2140
lets,2141
letterbox,2142
level,2143
levels,2144
lever,2145
lexar,2146
li,2147
library,2148
lie,2149
life,2150
lifted,2151
light,2152
lighter,2153
lighting,2154
lightingfast,2155
lightly,2156
lightweight,2157
like,2158
liked,2159
likely,2160
likes,2161
liking,2162
likings,2163
lil,2164
limit,2165
limitations,2166
limited,2167
limits,2168
line,2169
lines,2170
link,2171
linked,2172
lip,2173
lips,2174
list,2175
listed,2176
listen,2177
listened,2178
listener,2179
listening,2180
listing,2181
listings,2182
lists,2183
lit,2184
literally,2185
literature,2186
lithium,2187
litium,2188
little,2189
live,2190
living,2191
ll,2192
lmost,2193
load,2194
loaded,2195
loading,2196
loads,2197
local,2198
locally,2199
locate,2200
located,2201
locating,2202
location,2203
locations,2204
lock,2205
locked,2206
locking,2207
locks,2208
log,2209
logged,2210
logically,2211
lol,2212
lonely,2213
long,2214
longer,2215
longest,2216
longevity,2217
look,2218
looked,2219
looking,2220
looks,2221
loose,2222
los,2223
lose,2224
losing,2225
loss,2226
lost,2227
lot,2228
lots,2229
lotus,2230
loud,2231
lousy,2232
love,2233
loved,2234
lovers,2235
loves,2236
loving,2237
low,2238
lower,2239
lowest,2240
lparsedfourdigits,2241
lttle,2242
luck,2243
lucky,2244
lug,2245
lugging,2246
lumix,2247
lump,2248
lunch,2249
luxury,2250
lying,2251
mac,2252
machine,2253
machinery,2254
machines,2255
macro,2256
macrovision,2257
mad,2258
magazine,2259
magazines,2260
magnesium,2261
mail,2262
mailing,2263
mails,2264
main,2265
mainly,2266
maintain,2267
maintains,2268
major,2269
majority,2270
make,2271
maker,2272
makes,2273
making,2274
man,2275
manage,2276
managed,2277
manager,2278
managing,2279
manipulate,2280
manner,2281
manual,2282
manually,2283
manufactured,2284
manufacturer,2285
manufacturers,2286
manufacturing,2287
manuver,2288
march,2289
marked,2290
market,2291
marketing,2292
markup,2293
martian,2294
marvel,2295
mass,2296
massive,2297
mastered,2298
mastering,2299
match,2300
material,2301
math,2302
matter,2303
matters,2304
mature,2305
max,2306
maximum,2307
maybe,2308
mayybe,2309
mb,2310
mbyte,2311
mean,2312
meaning,2313
means,2314
meant,2315
measly,2316
measure,2317
mechanically,2318
mechanics,2319
mechanism,2320
media,2321
mediaplay,2322
mediaplayer,2323
mediasource,2324
medical,2325
mediocre,2326
medium,2327
meet,2328
meets,2329
mega,2330
megabyte,2331
megapixel,2332
megapixels,2333
megatones,2334
members,2335
memories,2336
memory,2337
men,2338
mention,2339
mentioned,2340
mentions,2341
menu,2342
menus,2343
merchant,2344
mess,2345
message,2346
messages,2347
messaging,2348
messed,2349
messenger,2350
messing,2351
met,2352
meta,2353
metal,2354
metallic,2355
meter,2356
metering,2357
method,2358
methods,2359
metrics,2360
metz,2361
mhz,2362
microdrive,2363
microdrives,2364
microseconds,2365
microsoft,2366
mid,2367
middle,2368
midi,2369
mighty,2370
miles,2371
mind,2372
mini,2373
minilux,2374
minimal,2375
minimize,2376
minolta,2377
minor,2378
mins,2379
minus,2380
minute,2381
minutes,2382
minutest,2383
mirror,2384
mirrors,2385
misfortune,2386
miss,2387
missed,2388
missing,2389
mistake,2390
mix,2391
mixed,2392
mixing,2393
mls,2394
mm,2395
mms,2396
mo,2397
mobile,2398
mode,2399
model,2400
models,2401
modem,2402
moderate,2403
moderately,2404
modern,2405
modes,2406
modify,2407
module,2408
mom,2409
moment,2410
moments,2411
mon,2412
money,2413
monitor,2414
monster,2415
monstrosity,2416
month,2417
months,2418
moon,2419
mooooooh,2420
moot,2421
morning,2422
mortar,2423
motivate,2424
motor,2425
motorola,2426
motorolla,2427
mountain,2428
mounted,2429
moveable,2430
movement,2431
movie,2432
movies,2433
moving,2434
mp,2435
mparsedonedigitu,2436
mpeg,2437
mpegparsedonedigit,2438
mpparsedonedigit,2439
mpparsedonedigits,2440
ms,2441
multi,2442
multidisk,2443
multiformat,2444
multilple,2445
multimedia,2446
multiple,2447
multitude,2448
murals,2449
murphy,2450
music,2451
musicmatch,2452
muvo,2453
myriad,2454
nah,2455
names,2456
napster,2457
narrowed,2458
nations,2459
natural,2460
naturally,2461
navigate,2462
navigating,2463
navigation,2464
navigational,2465
navigator,2466
navigion,2467
naysayers,2468
near,2469
nearly,2470
neat,2471
neccessary,2472
necessarily,2473
necessary,2474
neck,2475
need,2476
needed,2477
needless,2478
needs,2479
negative,2480
negatives,2481
nemo,2482
net,2483
network,2484
neutral,2485
new,2486
newer,2487
newly,2488
nice,2489
nicely,2490
nicer,2491
nicest,2492
nicities,2493
nifty,2494
night,2495
nightmare,2496
nikon,2497
nikons,2498
nirvana,2499
nits,2500
nod,2501
noise,2502
noiseless,2503
noises,2504
nokia,2505
nokiausa,2506
nomad,2507
nomadness,2508
nomadworld,2509
non,2510
nonetheless,2511
nonexistant,2512
nonexistent,2513
nonflip,2514
nonresponsive,2515
normal,2516
normalization,2517
northern,2518
notch,2519
note,2520
notebook,2521
noted,2522
notes,2523
notice,2524
noticeable,2525
noticeably,2526
noticed,2527
noting,2528
notmad,2529
november,2530
novice,2531
nparsedtwodigits,2532
nparsedtwodigitss,2533
ntsc,2534
number,2535
numbering,2536
numbers,2537
numerous,2538
nuts,2539
nx,2540
objections,2541
objective,2542
objects,2543
obscured,2544
obscures,2545
observed,2546
obstruct,2547
obstructed,2548
obstructs,2549
obtain,2550
obtainable,2551
obtaining,2552
obvious,2553
obviously,2554
occaisions,2555
occasion,2556
occasional,2557
occasionally,2558
occasions,2559
occludes,2560
occur,2561
occurrences,2562
occurs,2563
odd,2564
oddities,2565
offensive,2566
offer,2567
offered,2568
offering,2569
offers,2570
office,2571
officemax,2572
offsets,2573
oh,2574
ok,2575
okay,2576
old,2577
older,2578
olympus,2579
ones,2580
onfull,2581
online,2582
onscreen,2583
ooh,2584
open,2585
opened,2586
opening,2587
operate,2588
operates,2589
operating,2590
operation,2591
operator,2592
operators,2593
opinion,2594
opinions,2595
opposed,2596
oppressed,2597
opted,2598
optic,2599
optical,2600
optics,2601
optimized,2602
option,2603
optional,2604
options,2605
orange,2606
orchestra,2607
order,2608
ordered,2609
ordering,2610
organization,2611
organizational,2612
organize,2613
organized,2614
organizer,2615
organizing,2616
oriented,2617
original,2618
originally,2619
orignal,2620
os,2621
ot,2622
otherdigicam,2623
ounces,2624
outdoor,2625
outdoors,2626
outfitters,2627
outlet,2628
outlook,2629
outnumber,2630
outperform,2631
outperforms,2632
output,2633
outputs,2634
outs,2635
outstanding,2636
outtakes,2637
outweigh,2638
outweighed,2639
outweighs,2640
overall,2641
overilluminated,2642
overloaded,2643
overlook,2644
overly,2645
overrides,2646
overseas,2647
overused,2648
overview,2649
overwriting,2650
owned,2651
owner,2652
owners,2653
owning,2654
oz,2655
pace,2656
pack,2657
package,2658
packaged,2659
packed,2660
packing,2661
packs,2662
page,2663
pages,2664
paid,2665
pain,2666
painless,2667
paintball,2668
pair,2669
pairs,2670
pal,2671
pales,2672
palm,2673
paltry,2674
panasonic,2675
panasonics,2676
panel,2677
panoramic,2678
pants,2679
paper,2680
paperweight,2681
par,2682
parallax,2683
parent,2684
parents,2685
park,2686
parseddigits,2687
parseddigitsgb,2688
parseddigitsmb,2689
parseddigitsmp,2690
parseddigitsx,2691
parsedfivedigits,2692
parsedfourdigits,2693
parsedfourdigitsc,2694
parsedfourdigitss,2695
parsedfourdigitsx,2696
parsedfourdigitsxparseddigits,2697
parsedonedigit,2698
parsedonedigita,2699
parsedonedigitapexgo,2700
parsedonedigitft,2701
parsedonedigitgb,2702
parsedonedigitgz,2703
parsedonedigitk,2704
parsedonedigitlb,2705
parsedonedigitm,2706
parsedonedigitmb,2707
parsedonedigitmp,2708
parsedonedigitnd,2709
parsedonedigitrd,2710
parsedonedigits,2711
parsedonedigitst,2712
parsedonedigitth,2713
parsedonedigitx,2714
parsedonedigitxparseddigits,2715
parsedonedigitxparsedtwodigits,2716
parsedthreedigits,2717
parsedthreedigitsbps,2718
parsedthreedigitskb,2719
parsedthreedigitskbps,2720
parsedthreedigitskbs,2721
parsedthreedigitskps,2722
parsedthreedigitsmb,2723
parsedthreedigitsmeg,2724
parsedthreedigitsv,2725
parsedtwodigits,2726
parsedtwodigitscl,2727
parsedtwodigitsdb,2728
parsedtwodigitsg,2729
parsedtwodigitsgb,2730
parsedtwodigitshrs,2731
parsedtwodigitsin,2732
parsedtwodigitsk,2733
parsedtwodigitsmb,2734
parsedtwodigitsmm,2735
parsedtwodigitsst,2736
parsedtwodigitsth,2737
parsedtwodigitsusd,2738
parsedtwodigitsx,2739
partially,2740
particular,2741
particularly,2742
parties,2743
parts,2744
party,2745
pass,2746
past,2747
patches,2748
patience,2749
patient,2750
pause,2751
pay,2752
paying,2753
pb,2754
pc,2755
pda,2756
pdf,2757
peace,2758
peers,2759
peice,2760
penny,2761
pentium,2762
people,2763
percent,2764
perceptible,2765
perfect,2766
perfection,2767
perfectly,2768
perform,2769
performance,2770
performer,2771
performs,2772
period,2773
peripheral,2774
permanently,2775
person,2776
persona,2777
personal,2778
personally,2779
personnel,2780
perspective,2781
pet,2782
phenomenon,2783
philips,2784
phone,2785
phonebook,2786
phones,2787
photo,2788
photograph,2789
photographer,2790
photographers,2791
photographic,2792
photographs,2793
photography,2794
photorealistic,2795
photos,2796
photoshop,2797
photosuite,2798
physical,2799
pic,2800
picasa,2801
pick,2802
picked,2803
picking,2804
pickup,2805
picky,2806
pics,2807
picture,2808
pictured,2809
pictures,2810
pie,2811
piece,2812
pieces,2813
pig,2814
piggy,2815
pillowside,2816
pim,2817
pin,2818
pinch,2819
pioneer,2820
pirates,2821
pitch,2822
pitched,2823
pitiful,2824
pix,2825
pixel,2826
pixels,2827
place,2828
placed,2829
places,2830
placing,2831
plain,2832
plan,2833
plane,2834
planes,2835
planning,2836
plans,2837
plastic,2838
plasticky,2839
plate,2840
play,2841
playback,2842
played,2843
player,2844
players,2845
playing,2846
playlist,2847
playlists,2848
plays,2849
pleaded,2850
pleased,2851
pleasing,2852
plenty,2853
plopping,2854
plug,2855
plugged,2856
plunge,2857
plus,2858
plusses,2859
pocket,2860
pockets,2861
pod,2862
point,2863
pointed,2864
points,2865
policy,2866
poly,2867
polymer,2868
polymorphic,2869
polyphonic,2870
poor,2871
poorly,2872
pop,2873
poping,2874
popped,2875
popping,2876
pops,2877
popular,2878
populate,2879
port,2880
portability,2881
portable,2882
portrait,2883
portraits,2884
pos,2885
pose,2886
poser,2887
position,2888
positive,2889
positives,2890
possibilities,2891
possible,2892
possibly,2893
post,2894
postage,2895
posted,2896
posters,2897
posts,2898
potential,2899
potentially,2900
power,2901
powered,2902
powerful,2903
powerhouse,2904
powering,2905
powershot,2906
pparsedonedigit,2907
practically,2908
practice,2909
practices,2910
praise,2911
pre,2912
predecessor,2913
predict,2914
prefer,2915
preference,2916
preferred,2917
premanent,2918
premium,2919
prepared,2920
present,2921
presents,2922
presets,2923
press,2924
pressed,2925
pressing,2926
pressure,2927
prettier,2928
pretty,2929
prev,2930
prevent,2931
preview,2932
previews,2933
previous,2934
previously,2935
price,2936
priced,2937
prices,2938
pricey,2939
pricing,2940
primarily,2941
primary,2942
prime,2943
print,2944
printed,2945
printer,2946
printing,2947
prints,2948
prior,2949
priority,2950
pro,2951
prob,2952
probability,2953
probably,2954
problem,2955
problems,2956
probram,2957
proceeded,2958
process,2959
processed,2960
processing,2961
produce,2962
produced,2963
produces,2964
product,2965
production,2966
products,2967
profession,2968
professional,2969
professionally,2970
profile,2971
progam,2972
program,2973
programming,2974
programs,2975
progress,2976
progressive,2977
promised,2978
promotion,2979
promps,2980
prompt,2981
prompting,2982
promptly,2983
prone,2984
proof,2985
proper,2986
properly,2987
propietary,2988
pros,2989
prospective,2990
protect,2991
protection,2992
protective,2993
protector,2994
prove,2995
proven,2996
proverbial,2997
provide,2998
provided,2999
provider,3000
provides,3001
providing,3002
pry,3003
ps,3004
pseudo,3005
psparsedonedigit,3006
psychidelic,3007
public,3008
pull,3009
pulled,3010
pulling,3011
pulls,3012
pup,3013
purchase,3014
purchased,3015
purchasing,3016
pure,3017
purple,3018
purpose,3019
purposes,3020
purse,3021
push,3022
pushed,3023
pushing,3024
puts,3025
puzzles,3026
quad,3027
qualities,3028
quality,3029
queried,3030
question,3031
questioned,3032
questions,3033
quibble,3034
quick,3035
quicker,3036
quickly,3037
quiet,3038
quieter,3039
quietly,3040
quirks,3041
quirky,3042
quit,3043
quite,3044
qulaity,3045
quote,3046
ra,3047
rack,3048
rad,3049
radio,3050
rag,3051
raise,3052
ral,3053
ram,3054
ran,3055
random,3056
range,3057
rank,3058
rap,3059
rapid,3060
rapidly,3061
rare,3062
rarely,3063
rate,3064
rated,3065
rates,3066
rating,3067
ratio,3068
raw,3069
razor,3070
rca,3071
reach,3072
read,3073
readable,3074
reader,3075
readers,3076
readily,3077
reading,3078
reads,3079
ready,3080
real,3081
realation,3082
reality,3083
realize,3084
realized,3085
realizes,3086
really,3087
reason,3088
reasonable,3089
reasonably,3090
reasons,3091
rebate,3092
rebates,3093
reboot,3094
rebooted,3095
rec,3096
recall,3097
reccomend,3098
receipt,3099
receive,3100
received,3101
receiver,3102
receivers,3103
receives,3104
receiving,3105
recent,3106
recently,3107
reception,3108
rechargable,3109
recharge,3110
rechargeable,3111
rechargebles,3112
recharged,3113
recharger,3114
recharges,3115
recharging,3116
recieved,3117
recogmend,3118
recognition,3119
recognize,3120
recognized,3121
recognizes,3122
recognizing,3123
recomend,3124
recommend,3125
recommendation,3126
recommendations,3127
recommended,3128
recomment,3129
record,3130
recorder,3131
recording,3132
records,3133
recored,3134
recover,3135
recovery,3136
recreate,3137
recycling,3138
red,3139
redchair,3140
redchairsoftware,3141
redeye,3142
redhat,3143
rediscovering,3144
redwood,3145
reeves,3146
referred,3147
reflected,3148
reflects,3149
refund,3150
refunded,3151
refunds,3152
refuse,3153
refused,3154
refuses,3155
regard,3156
regarding,3157
regards,3158
region,3159
regional,3160
register,3161
registered,3162
regret,3163
regrets,3164
regretted,3165
regular,3166
reinstalled,3167
reiterate,3168
rejected,3169
relative,3170
relatively,3171
relax,3172
release,3173
released,3174
releases,3175
releasing,3176
relevant,3177
reliability,3178
reliable,3179
reliance,3180
relies,3181
reloaded,3182
rely,3183
remain,3184
remainder,3185
remaining,3186
remarkable,3187
remember,3188
reminded,3189
remixes,3190
remorse,3191
remote,3192
remotes,3193
removable,3194
remove,3195
removed,3196
removing,3197
rename,3198
renaming,3199
rendered,3200
rendering,3201
renewal,3202
rent,3203
rental,3204
rented,3205
rep,3206
repaing,3207
repair,3208
repairs,3209
repeat,3210
repeated,3211
repeatedly,3212
replacable,3213
replace,3214
replaceable,3215
replaced,3216
replacement,3217
replaces,3218
replacing,3219
repleace,3220
replies,3221
replug,3222
reply,3223
replying,3224
report,3225
reported,3226
reports,3227
repost,3228
representative,3229
represents,3230
reproduced,3231
reps,3232
reputable,3233
reputation,3234
requesting,3235
require,3236
required,3237
requirements,3238
requires,3239
res,3240
rescue,3241
research,3242
researched,3243
resellers,3244
resent,3245
reservations,3246
reset,3247
resilience,3248
resol,3249
resolution,3250
resolutions,3251
resolve,3252
resolved,3253
resolves,3254
reson,3255
resort,3256
resources,3257
respect,3258
respond,3259
responded,3260
responding,3261
response,3262
responsible,3263
responsive,3264
rest,3265
resting,3266
restless,3267
result,3268
resulted,3269
resulting,3270
results,3271
retail,3272
retailers,3273
retention,3274
retraction,3275
return,3276
returned,3277
returning,3278
returns,3279
revamp,3280
reveals,3281
reveiws,3282
reversed,3283
review,3284
reviewed,3285
reviewer,3286
reviewers,3287
reviews,3288
revised,3289
revive,3290
rewind,3291
rice,3292
rich,3293
ricksters,3294
rid,3295
ridculously,3296
rides,3297
ridicule,3298
ridiculous,3299
right,3300
ring,3301
ringer,3302
ringing,3303
rings,3304
ringtones,3305
rio,3306
riovolt,3307
rip,3308
ripped,3309
ripper,3310
ripping,3311
rips,3312
rma,3313
road,3314
roam,3315
roaming,3316
robust,3317
rock,3318
rockbox,3319
rocks,3320
rolls,3321
rom,3322
roof,3323
room,3324
rooms,3325
rotates,3326
rotation,3327
roughly,3328
round,3329
route,3330
routinely,3331
roxxorz,3332
rs,3333
rubber,3334
rugged,3335
ruggedly,3336
ruin,3337
ruined,3338
ruining,3339
ruins,3340
rule,3341
run,3342
runner,3343
running,3344
runs,3345
rush,3346
rv,3347
rw,3348
saavy,3349
sacrifice,3350
sad,3351
sadoun,3352
said,3353
sais,3354
sale,3355
sales,3356
salesperson,3357
sample,3358
samsung,3359
sandisk,3360
satellite,3361
satisfaction,3362
satisfactorily,3363
satisfactory,3364
satisfied,3365
saturated,3366
saturation,3367
saturday,3368
saturdays,3369
save,3370
saved,3371
saver,3372
saves,3373
saving,3374
savour,3375
saw,3376
say,3377
saying,3378
says,3379
sca,3380
scan,3381
scanned,3382
scans,3383
scary,3384
scene,3385
scenes,3386
schemes,3387
school,3388
science,3389
scored,3390
scouting,3391
scoying,3392
scratch,3393
scratched,3394
scratches,3395
screen,3396
screens,3397
screensaver,3398
screensavers,3399
screw,3400
screwed,3401
screwing,3402
scroll,3403
scrolling,3404
scrollwheel,3405
se,3406
seach,3407
seamless,3408
search,3409
searched,3410
searches,3411
searching,3412
season,3413
seated,3414
sec,3415
second,3416
seconds,3417
section,3418
secure,3419
seeing,3420
seek,3421
seeking,3422
seen,3423
seldom,3424
select,3425
selectable,3426
selected,3427
selecting,3428
selection,3429
selections,3430
selectively,3431
selects,3432
self,3433
sell,3434
seller,3435
selling,3436
sells,3437
semi,3438
send,3439
sending,3440
sends,3441
sennheiser,3442
sense,3443
sensibilities,3444
sensitive,3445
sensitivity,3446
sensor,3447
sent,3448
sep,3449
separate,3450
separately,3451
seperated,3452
seperately,3453
sepia,3454
series,3455
seriously,3456
seriousness,3457
serve,3458
server,3459
serves,3460
service,3461
services,3462
servicing,3463
set,3464
sets,3465
setting,3466
settings,3467
settle,3468
settled,3469
settling,3470
setup,3471
sexy,3472
sh,3473
shack,3474
shade,3475
shadow,3476
shadows,3477
shake,3478
shakes,3479
shaking,3480
shaky,3481
shame,3482
shape,3483
share,3484
sharing,3485
sharp,3486
sharpening,3487
sharper,3488
sharpness,3489
sheer,3490
sheesh,3491
shelf,3492
shelling,3493
shelves,3494
shifting,3495
shine,3496
shining,3497
shiny,3498
ship,3499
shipped,3500
shipping,3501
ships,3502
shirt,3503
shock,3504
shocked,3505
shoddy,3506
shoe,3507
shoot,3508
shooting,3509
shoots,3510
shop,3511
shopped,3512
shopping,3513
short,3514
shortcoming,3515
shortcomings,3516
shortcut,3517
shortly,3518
shot,3519
shots,3520
shoulder,3521
shouldn,3522
showed,3523
showing,3524
shown,3525
shows,3526
shudder,3527
shuffle,3528
shuns,3529
shut,3530
shutter,3531
shutting,3532
shuttle,3533
sick,3534
sides,3535
siemens,3536
sigh,3537
sign,3538
signal,3539
signals,3540
signed,3541
significant,3542
significantly,3543
silent,3544
silver,3545
sim,3546
similar,3547
similarily,3548
simm,3549
simple,3550
simpler,3551
simplest,3552
simpletech,3553
simply,3554
sinc,3555
single,3556
sister,3557
sit,3558
site,3559
sites,3560
sitting,3561
situation,3562
situational,3563
situations,3564
size,3565
sized,3566
sizing,3567
skill,3568
skills,3569
skimped,3570
skip,3571
skipping,3572
skips,3573
slave,3574
slayer,3575
sleek,3576
sleep,3577
slick,3578
slideshows,3579
sliding,3580
slightest,3581
slightly,3582
sligtly,3583
slim,3584
slip,3585
slots,3586
slow,3587
slower,3588
slowing,3589
slowly,3590
slparsedtwodigits,3591
slr,3592
slrs,3593
small,3594
smaller,3595
smallest,3596
smart,3597
smell,3598
smoke,3599
smooth,3600
smoothly,3601
snap,3602
snapped,3603
snapping,3604
sniffer,3605
snooze,3606
snow,3607
snug,3608
snuggly,3609
socks,3610
software,3611
sold,3612
soldiers,3613
solely,3614
solid,3615
solidly,3616
solution,3617
solve,3618
solved,3619
somethings,3620
somewhat,3621
song,3622
songs,3623
sony,3624
sonys,3625
soom,3626
soon,3627
sooner,3628
sooooo,3629
sophisticated,3630
sorry,3631
sort,3632
sorta,3633
sorted,3634
sorting,3635
sorts,3636
sound,3637
soundblaster,3638
soundcard,3639
sounded,3640
sounding,3641
sounds,3642
source,3643
sources,3644
south,3645
sp,3646
space,3647
spaced,3648
span,3649
spare,3650
sparklers,3651
sparsedthreedigits,3652
sparsedtwodigits,3653
speak,3654
speaker,3655
speakerphone,3656
speakers,3657
speakphone,3658
special,3659
specific,3660
specifically,3661
specified,3662
specify,3663
specs,3664
spectacular,3665
speculation,3666
speed,3667
speeding,3668
speedlite,3669
speeds,3670
spend,3671
spending,3672
spent,3673
spin,3674
spins,3675
splitter,3676
splurge,3677
spoke,3678
sporadic,3679
sports,3680
spot,3681
spots,3682
spotted,3683
spring,3684
springsteen,3685
sprint,3686
squarer,3687
squashed,3688
squeeze,3689
srs,3690
stability,3691
stack,3692
stacks,3693
stage,3694
staggering,3695
stainless,3696
stains,3697
stamp,3698
stand,3699
standard,3700
standards,3701
standby,3702
standing,3703
stands,3704
star,3705
stare,3706
stars,3707
start,3708
started,3709
starter,3710
starting,3711
starts,3712
state,3713
states,3714
static,3715
station,3716
stations,3717
stats,3718
stay,3719
stayed,3720
staying,3721
steadily,3722
steady,3723
steel,3724
steep,3725
stem,3726
stems,3727
step,3728
steps,3729
stereo,3730
stevesdigicams,3731
stick,3732
sticks,3733
sticky,3734
stil,3735
stink,3736
stinks,3737
stitch,3738
stitching,3739
stn,3740
stock,3741
stolen,3742
stone,3743
stop,3744
stopaction,3745
stoppage,3746
stopped,3747
stopping,3748
stoppped,3749
stopwatch,3750
storage,3751
store,3752
stored,3753
stores,3754
story,3755
straight,3756
strange,3757
strap,3758
stravinsky,3759
stream,3760
street,3761
strength,3762
strengths,3763
stress,3764
stretch,3765
stretches,3766
strictly,3767
strike,3768
strikes,3769
strong,3770
strongly,3771
structurally,3772
structure,3773
structured,3774
stuck,3775
stucked,3776
stucks,3777
stucture,3778
study,3779
stuff,3780
stuffff,3781
stumbling,3782
stunned,3783
stunning,3784
stupid,3785
sturdy,3786
style,3787
styling,3788
stylish,3789
sub,3790
subcategory,3791
subfolders,3792
subject,3793
subjects,3794
subnotebook,3795
subs,3796
subscriber,3797
subsequent,3798
subsidizes,3799
substance,3800
substandard,3801
substitute,3802
subtle,3803
suburbs,3804
subway,3805
success,3806
successfully,3807
succession,3808
suck,3809
sucka,3810
suckers,3811
sucks,3812
suddenly,3813
suffers,3814
suggest,3815
suggested,3816
suggesting,3817
suggestion,3818
suing,3819
suit,3820
suite,3821
summarize,3822
summary,3823
summation,3824
summer,3825
sun,3826
sunset,3827
super,3828
superb,3829
superfluous,3830
superior,3831
supplied,3832
supplier,3833
supply,3834
support,3835
supported,3836
supporting,3837
supports,3838
suppose,3839
supposed,3840
suprised,3841
suprisingly,3842
sure,3843
surely,3844
surf,3845
surface,3846
surfing,3847
suroundings,3848
surpassed,3849
surpasses,3850
surprise,3851
surprised,3852
surprising,3853
surprisingly,3854
surreal,3855
survey,3856
survive,3857
suspect,3858
svcd,3859
svcds,3860
swap,3861
swear,3862
sweet,3863
swiss,3864
switch,3865
switched,3866
switches,3867
switching,3868
symbols,3869
symphony,3870
sync,3871
synchronization,3872
synopsis,3873
tab,3874
tabbed,3875
table,3876
tad,3877
tag,3878
tagged,3879
tagging,3880
tags,3881
taken,3882
takes,3883
taking,3884
tale,3885
talk,3886
talked,3887
talking,3888
talks,3889
tapes,3890
target,3891
task,3892
tax,3893
teach,3894
teamed,3895
teases,3896
tech,3897
techie,3898
technical,3899
technician,3900
technologies,3901
technology,3902
tedious,3903
teen,3904
teeny,3905
teh,3906
telephone,3907
telephoto,3908
television,3909
tell,3910
telling,3911
telll,3912
tells,3913
tempi,3914
temporary,3915
tend,3916
term,3917
terms,3918
terrible,3919
terribly,3920
terrific,3921
test,3922
tested,3923
testing,3924
text,3925
thank,3926
thankfully,3927
thanks,3928
thats,3929
theater,3930
theirs,3931
theres,3932
theyve,3933
thier,3934
thing,3935
things,3936
thingy,3937
think,3938
thinking,3939
thinks,3940
tho,3941
thought,3942
thousands,3943
thrash,3944
thrilled,3945
throw,3946
thrown,3947
thumb,3948
thumbdrive,3949
thumbs,3950
thusfar,3951
ti,3952
tid,3953
tiff,3954
tightly,3955
tigt,3956
till,3957
tilted,3958
time,3959
timely,3960
timers,3961
times,3962
tinker,3963
tiny,3964
tip,3965
tips,3966
tire,3967
title,3968
titles,3969
tmobile,3970
tmobiles,3971
today,3972
toggle,3973
told,3974
tom,3975
tomorrow,3976
ton,3977
tonal,3978
tones,3979
tons,3980
took,3981
tool,3982
topnotch,3983
torture,3984
toshiba,3985
toshibas,3986
total,3987
totally,3988
touch,3989
touched,3990
touchpad,3991
touchups,3992
tough,3993
toy,3994
tparsedthreedigits,3995
tparsedthreedigitsi,3996
track,3997
tracking,3998
tracks,3999
trade,4000
tradeoff,4001
tragic,4002
train,4003
transer,4004
transfer,4005
transfered,4006
transfering,4007
transferred,4008
transferring,4009
transfers,4010
transmitter,4011
transmitters,4012
transport,4013
trash,4014
travel,4015
traveling,4016
travelled,4017
travelling,4018
travesty,4019
tray,4020
tremendous,4021
trendy,4022
treo,4023
tri,4024
trial,4025
tricky,4026
tried,4027
tries,4028
trigger,4029
trilliums,4030
trip,4031
tripod,4032
trips,4033
trouble,4034
troubles,4035
troubleshooting,4036
troublesome,4037
truck,4038
true,4039
truly,4040
trumps,4041
trust,4042
trusted,4043
try,4044
trying,4045
tune,4046
tunecast,4047
tuner,4048
tunes,4049
tungsten,4050
turn,4051
turnaround,4052
turned,4053
turning,4054
turns,4055
tv,4056
tvs,4057
tw,4058
tweaking,4059
tweakings,4060
twice,4061
twist,4062
txt,4063
type,4064
types,4065
typically,4066
ugly,4067
ui,4068
uk,4069
ultimate,4070
ultimately,4071
ultra,4072
umm,4073
unable,4074
unacceptably,4075
unaccustomed,4076
unavailable,4077
unbearable,4078
unbeatable,4079
unbelievably,4080
uncertain,4081
unchangeable,4082
uncluttered,4083
uncomfortable,4084
uncomplicated,4085
uncreative,4086
uncritical,4087
undeliverable,4088
underestimate,4089
underside,4090
understand,4091
understood,4092
undone,4093
undoubtedly,4094
uneasy,4095
unequivocably,4096
uneven,4097
unfilled,4098
unfortunately,4099
unforutnately,4100
unhappy,4101
unhelpful,4102
uninstalled,4103
unique,4104
unit,4105
units,4106
univ,4107
universal,4108
universally,4109
unknown,4110
unless,4111
unlike,4112
unlimited,4113
unlisted,4114
unlock,4115
unlocked,4116
unlucky,4117
unmatched,4118
unnecessary,4119
unplayable,4120
unpleasant,4121
unplugging,4122
unpredictable,4123
unproven,4124
unreservedly,4125
unsatisfactory,4126
unspecified,4127
unsteady,4128
unusable,4129
unwrapped,4130
update,4131
updated,4132
updates,4133
updating,4134
upgrade,4135
upgraded,4136
upgrading,4137
upload,4138
uploaded,4139
uploading,4140
uploads,4141
upper,4142
ups,4143
upstanding,4144
upto,4145
ur,4146
urban,4147
urgent,4148
url,4149
usa,4150
usability,4151
usage,4152
usb,4153
use,4154
useable,4155
used,4156
useful,4157
useless,4158
user,4159
users,4160
uses,4161
using,4162
usual,4163
usually,4164
utilized,4165
utilizes,4166
utterly,4167
uv,4168
vacation,4169
vacationing,4170
valid,4171
valuable,4172
value,4173
vanished,4174
variable,4175
variables,4176
variation,4177
variations,4178
variety,4179
various,4180
vast,4181
vastly,4182
vbr,4183
vcd,4184
vcds,4185
vcr,4186
ve,4187
vectis,4188
vegas,4189
vendor,4190
verdict,4191
verify,4192
verizon,4193
versatile,4194
version,4195
versions,4196
versus,4197
veteran,4198
veterans,4199
viable,4200
vibrant,4201
vibrate,4202
vibration,4203
video,4204
videos,4205
view,4206
viewable,4207
viewed,4208
viewfinder,4209
viewing,4210
views,4211
viking,4212
virtually,4213
visa,4214
visable,4215
visceral,4216
visibility,4217
visible,4218
visiting,4219
visual,4220
visuals,4221
vivid,4222
vob,4223
voice,4224
voids,4225
volkswagen,4226
volume,4227
voucher,4228
vs,4229
wait,4230
waited,4231
waiting,4232
wake,4233
waking,4234
walk,4235
walkman,4236
wall,4237
wallet,4238
wallpaper,4239
wallpapers,4240
walls,4241
walmart,4242
want,4243
wanted,4244
wanting,4245
wants,4246
wap,4247
wardrobe,4248
warn,4249
warned,4250
warning,4251
warrant,4252
warranty,4253
warrenty,4254
wary,4255
wash,4256
washed,4257
washing,4258
wasn,4259
wasnt,4260
wast,4261
waste,4262
wasted,4263
wat,4264
watch,4265
watching,4266
wave,4267
way,4268
ways,4269
wazoo,4270
wc,4271
weak,4272
weaknesses,4273
wear,4274
wears,4275
weather,4276
web,4277
website,4278
websites,4279
week,4280
weekdays,4281
weekend,4282
weekm,4283
weeks,4284
weigh,4285
weighed,4286
weighs,4287
weight,4288
weighty,4289
weird,4290
weirdest,4291
went,4292
weren,4293
whatsoever,4294
whe,4295
wheel,4296
whichever,4297
whihc,4298
whine,4299
whirl,4300
whistles,4301
white,4302
whoa,4303
wicked,4304
wide,4305
widely,4306
widescreen,4307
wife,4308
wildlife,4309
wildly,4310
willing,4311
willingness,4312
win,4313
winamp,4314
wind,4315
window,4316
windows,4317
winner,4318
winning,4319
winparsedtwodigits,4320
winter,4321
winxp,4322
wipe,4323
wiped,4324
wipes,4325
wireless,4326
wires,4327
wise,4328
wish,4329
wma,4330
wolla,4331
women,4332
won,4333
wonder,4334
wonderful,4335
wondering,4336
wont,4337
word,4338
words,4339
work,4340
workaround,4341
worked,4342
workin,4343
working,4344
works,4345
workstation,4346
world,4347
worldphone,4348
worried,4349
worrying,4350
worse,4351
worst,4352
worth,4353
worthwhile,4354
worthwile,4355
woth,4356
wouldn,4357
wouldnt,4358
wound,4359
wow,4360
wowable,4361
wrist,4362
write,4363
writing,4364
written,4365
wrong,4366
wrote,4367
wwhhhrrr,4368
www,4369
xacto,4370
xp,4371
xparsedthreedigits,4372
xparsedtwodigits,4373
xtra,4374
ya,4375
yeah,4376
year,4377
years,4378
yes,4379
yesterday,4380
yield,4381
yielded,4382
yo,4383
youd,4384
youre,4385
yoursound,4386
youve,4387
yup,4388
zeiss,4389
zen,4390
zenith,4391
zennx,4392
zens,4393
zero,4394
zillion,4395
zip,4396
zone,4397
zones,4398
zoom,4399
zoomed,4400
zooming,4401
zooms,4402
zx,4403
