aaa,0
aac,1
abilities,2
ability,3
able,4
abroad,5
absolute,6
absolutely,7
abuse,8
abused,9
ac,10
accentuates,11
accept,12
acceptable,13
accepted,14
accepts,15
access,16
accesses,17
accessibility,18
accessible,19
accessing,20
accessories,21
accessory,22
accident,23
accidentally,24
accidently,25
accidents,26
accomplished,27
according,28
accordingly,29
account,30
accually,31
accurate,32
achieve,33
achieved,34
achievement,35
acparsedonedigit,36
act,37
action,38
actions,39
activate,40
activated,41
acts,42
actual,43
actually,44
ad,45
adapter,46
adapters,47
add,48
added,49
addict,50
addition,51
additional,52
additionally,53
address,54
addresses,55
adds,56
adequate,57
adequately,58
adjust,59
adjustability,60
adjusted,61
adjustment,62
adjustments,63
admit,64
admitted,65
adobe,66
adoo,67
adparsedfourdigits,68
adparsedfourdigitsw,69
adparsedthreedigits,70
advance,71
advanced,72
advancing,73
advantage,74
advantages,75
advertised,76
advertisement,77
advertises,78
advertising,79
advice,80
advise,81
advised,82
aff,83
affect,84
affecting,85
afford,86
affordability,87
affordable,88
affordably,89
africa,90
aftermarket,91
age,92
aggrivation,93
ago,94
agree,95
ahead,96
ahwile,97
aid,98
aids,99
aiff,100
aight,101
aim,102
ain,103
air,104
aires,105
alarm,106
alarmed,107
albeit,108
album,109
albums,110
algorithms,111
alhthough,112
alias,113
aligned,114
alkaline,115
allow,116
allowed,117
allowing,118
allows,119
alludes,120
alot,121
alphabetical,122
alphebetical,123
alsmost,124
alter,125
altered,126
alternate,127
alternative,128
aluminum,129
amateur,130
amazed,131
amazement,132
amazing,133
amazon,134
american,135
amg,136
amp,137
ample,138
amusing,139
analog,140
anchor,141
angle,142
angles,143
annie,144
announced,145
annoy,146
annoyances,147
annoyed,148
annoying,149
anser,150
answer,151
answered,152
answering,153
answers,154
anticipate,155
antyhing,156
anybody,157
anytime,158
anyways,159
aol,160
apartment,161
aperature,162
aperture,163
apex,164
apexdigialinc,165
apexdigital,166
apexdigitalinc,167
apparent,168
apparently,169
appealing,170
appear,171
appearance,172
appeared,173
appearing,174
appears,175
apple,176
appliance,177
application,178
applications,179
applied,180
applies,181
applying,182
appointments,183
appreciated,184
appropriate,185
approximately,186
apps,187
aps,188
archos,189
area,190
areas,191
aren,192
arent,193
arguably,194
arises,195
arm,196
army,197
arrangement,198
array,199
arrived,200
arrogant,201
art,202
articulated,203
artist,204
artists,205
asap,206
asia,207
aside,208
ask,209
asked,210
asking,211
asks,212
asp,213
aspects,214
assembled,215
assign,216
assist,217
associated,218
assume,219
assurance,220
assured,221
asthetic,222
asthetics,223
astonishingly,224
astounding,225
attach,226
attached,227
attachement,228
attachment,229
attempted,230
attempting,231
attempts,232
attendant,233
attended,234
attention,235
attractable,236
attracted,237
attractive,238
au,239
audible,240
audigy,241
audio,242
audiophile,243
auditorium,244
august,245
authorized,246
auto,247
autofocus,248
autofocuses,249
autofocussing,250
automatic,251
automatically,252
automation,253
automode,254
avail,255
available,256
availible,257
average,258
averaging,259
avi,260
avoid,261
avoided,262
awaesome,263
aware,264
away,265
awe,266
aweful,267
awesome,268
awful,269
awkward,270
baby,271
bach,272
background,273
backgrounds,274
backlight,275
backlit,276
backup,277
backyard,278
bad,279
bag,280
bait,281
balance,282
band,283
bands,284
bang,285
banged,286
bar,287
barely,288
bargain,289
barrel,290
bars,291
bart,292
base,293
based,294
bashing,295
basic,296
basically,297
basicly,298
basis,299
basketball,300
bass,301
batches,302
batteries,303
batterly,304
battery,305
bbb,306
beach,307
beast,308
beat,309
beatiful,310
beats,311
beautiful,312
becames,313
becuase,314
bed,315
bedroom,316
beef,317
beefo,318
beeps,319
beer,320
beetle,321
began,322
begiining,323
begin,324
beginner,325
beginners,326
beginning,327
begins,328
behavior,329
believe,330
belive,331
belkin,332
bell,333
bells,334
belongs,335
belt,336
bending,337
beneficial,338
benefit,339
benifit,340
best,341
bet,342
better,343
beunos,344
beware,345
bias,346
big,347
bigger,348
biggest,349
biggie,350
biking,351
billing,352
bin,353
bit,354
bitten,355
bitter,356
black,357
blamed,358
blanks,359
blast,360
blaster,361
blazing,362
bleeding,363
blessing,364
blind,365
blocked,366
blocking,367
bloom,368
blowing,369
blows,370
blue,371
bluetooth,372
blunt,373
blurriness,374
blurry,375
board,376
boasts,377
boat,378
body,379
bones,380
book,381
booklet,382
bookmark,383
bookmarks,384
books,385
boost,386
boosting,387
boot,388
bore,389
bored,390
boredom,391
born,392
borrow,393
borrowed,394
boss,395
bother,396
bought,397
bounce,398
box,399
boxy,400
boy,401
boyfriend,402
bracket,403
brag,404
brags,405
brainer,406
brand,407
branded,408
brands,409
brass,410
brazil,411
break,412
breakdown,413
breaker,414
breaks,415
breath,416
breathtaking,417
breeze,418
brick,419
brief,420
bright,421
brightly,422
brightness,423
brilliance,424
brilliant,425
brillient,426
bring,427
brisk,428
broke,429
broken,430
broker,431
brother,432
brothers,433
brought,434
browser,435
browsing,436
bruce,437
bruvah,438
btw,439
buck,440
bucks,441
budged,442
budget,443
buffs,444
bug,445
buget,446
build,447
building,448
buildings,449
built,450
bulging,451
bulky,452
bullet,453
bummer,454
bumpy,455
bunch,456
bundled,457
buried,458
burn,459
burned,460
burner,461
burning,462
burns,463
burries,464
bus,465
business,466
busy,467
butt,468
button,469
buttons,470
buy,471
buyer,472
buyers,473
buying,474
buys,475
buzz,476
buzzing,477
cabinet,478
cable,479
cables,480
cage,481
cake,482
calendar,483
called,484
caller,485
calling,486
calls,487
camcorder,488
came,489
camea,490
camedia,491
camera,492
cameras,493
campaign,494
camper,495
cancel,496
cancelled,497
candles,498
candy,499
canned,500
cannon,501
canon,502
canonized,503
cap,504
capabilities,505
capability,506
capable,507
capacity,508
capadabilty,509
capitalist,510
capture,511
captures,512
car,513
card,514
cards,515
care,516
careful,517
carefully,518
cares,519
carl,520
carpet,521
carribean,522
carrier,523
carriers,524
carries,525
carry,526
carrying,527
case,528
cases,529
cash,530
casing,531
cassette,532
cast,533
catalog,534
catch,535
categories,536
categorizes,537
category,538
cause,539
caused,540
causes,541
causing,542
caution,543
cautious,544
cavity,545
cd,546
cddb,547
cdds,548
cdma,549
cdr,550
cdrw,551
cds,552
cell,553
cellar,554
cellphone,555
cellphones,556
cent,557
center,558
cents,559
century,560
certain,561
certainly,562
cf,563
chair,564
challenge,565
challenging,566
champagne,567
chance,568
chances,569
change,570
changeable,571
changed,572
changes,573
changing,574
chapter,575
charge,576
charged,577
charger,578
charges,579
charging,580
charm,581
chat,582
cheap,583
cheaper,584
cheapest,585
cheaply,586
cheasy,587
check,588
checked,589
checking,590
cheep,591
cheerful,592
cheesy,593
chess,594
chic,595
chicago,596
chie,597
child,598
childhood,599
children,600
chinese,601
chip,602
choice,603
choices,604
choose,605
choosing,606
chords,607
chose,608
chosing,609
christmas,610
chrome,611
chucked,612
church,613
cinch,614
cincinnati,615
cingular,616
circles,617
circulation,618
cite,619
claim,620
claims,621
clarity,622
class,623
classic,624
classical,625
classifed,626
classifications,627
classified,628
classify,629
clean,630
cleaned,631
cleaning,632
clear,633
clearly,634
clerk,635
click,636
clicking,637
clicks,638
clip,639
clips,640
clock,641
close,642
closed,643
closely,644
closer,645
closest,646
club,647
clue,648
clumsy,649
clunky,650
clutter,651
coastal,652
coat,653
coating,654
coax,655
cocking,656
code,657
codes,658
collection,659
collections,660
college,661
collisions,662
color,663
coloration,664
colorimetry,665
colors,666
com,667
comaptible,668
combination,669
combined,670
combines,671
combo,672
combos,673
come,674
comes,675
comfortable,676
comfortably,677
comfy,678
coming,679
commander,680
commands,681
comment,682
comments,683
common,684
commonly,685
communications,686
commutes,687
compact,688
compactflash,689
compained,690
companies,691
company,692
comparable,693
compare,694
compared,695
comparing,696
comparison,697
compartment,698
compatability,699
compatibility,700
compatible,701
compelled,702
compensate,703
competence,704
competition,705
competitor,706
competitors,707
compilation,708
complain,709
complained,710
complaining,711
complains,712
complaint,713
complaints,714
complete,715
completely,716
completion,717
complex,718
complicated,719
component,720
compose,721
composite,722
compression,723
compromise,724
compromises,725
computer,726
computers,727
concealed,728
concentrate,729
concern,730
concerned,731
concert,732
concerts,733
concluded,734
concludes,735
concluding,736
conclusion,737
condition,738
conditions,739
confidence,740
configurable,741
configure,742
configured,743
confirm,744
confused,745
confusing,746
conjunction,747
connect,748
connected,749
connecting,750
connection,751
connections,752
connectivity,753
connector,754
connetions,755
cons,756
consider,757
considerable,758
consideration,759
considered,760
considering,761
consistantly,762
consistent,763
consistently,764
constant,765
constantly,766
constituants,767
constructed,768
construction,769
consumer,770
consumers,771
consuming,772
contact,773
contacted,774
contacting,775
contacts,776
contained,777
contains,778
contenders,779
content,780
contents,781
continue,782
continued,783
continues,784
continuous,785
continuously,786
contorting,787
contour,788
contours,789
contract,790
contractor,791
contrary,792
contrast,793
control,794
controlling,795
controls,796
convenience,797
conveniences,798
convenient,799
conveniently,800
conversions,801
convert,802
converter,803
converting,804
convinced,805
cool,806
coolest,807
coolpix,808
coolpixparsedfourdigits,809
coomes,810
copied,811
copy,812
copying,813
cord,814
corectly,815
corner,816
corners,817
corporate,818
correct,819
corrected,820
correction,821
correctly,822
correspond,823
corrupt,824
cost,825
costs,826
couch,827
couldn,828
count,829
counter,830
countertop,831
counting,832
countless,833
countries,834
country,835
couple,836
course,837
courtesy,838
cover,839
coverage,840
covered,841
covers,842
coveted,843
cparsedfourdigitsz,844
crack,845
crafted,846
craftmanship,847
cramp,848
cranky,849
crap,850
crapped,851
crappiness,852
crappy,853
craps,854
craptacular,855
crash,856
crashed,857
crashes,858
crashing,859
crazy,860
crazycellphone,861
create,862
created,863
creates,864
creating,865
creation,866
creative,867
credit,868
cried,869
crisp,870
criteria,871
criticize,872
criticsm,873
critter,874
crop,875
cross,876
crossing,877
crowded,878
cruising,879
crummy,880
crush,881
csd,882
csr,883
ct,884
cube,885
cumbersome,886
currency,887
current,888
currently,889
currrently,890
curve,891
curvy,892
cust,893
custom,894
customer,895
customers,896
customerservice,897
customizable,898
customization,899
customize,900
cut,901
cute,902
cuz,903
cuzin,904
cycle,905
cycles,906
dad,907
damage,908
damaged,909
dandy,910
dangerous,911
dare,912
dark,913
darker,914
darn,915
data,916
database,917
date,918
day,919
daylight,920
days,921
dazzling,922
dcs,923
ddparsedonedigit,924
deactivate,925
deadline,926
deafults,927
deal,928
dealing,929
deals,930
debit,931
decade,932
december,933
decent,934
decibles,935
decide,936
decided,937
deciding,938
decision,939
deck,940
dedicated,941
default,942
defaulted,943
defaults,944
defeats,945
defective,946
defectively,947
deficiencies,948
deficient,949
definately,950
defined,951
definitely,952
degrees,953
delay,954
delays,955
delete,956
deleted,957
deleting,958
delicate,959
delighted,960
deliver,961
delivered,962
delivers,963
dell,964
demands,965
den,966
denial,967
dennis,968
dense,969
density,970
dent,971
department,972
dependable,973
depending,974
depends,975
depressed,976
depressing,977
depressingly,978
dept,979
depth,980
described,981
description,982
descussion,983
deserves,984
design,985
designed,986
designing,987
desire,988
desk,989
despite,990
destroy,991
destroyed,992
destructed,993
detachable,994
details,995
detectable,996
detecting,997
determine,998
determined,999
detract,1000
detracts,1001
detroit,1002
devastated,1003
developed,1004
developing,1005
development,1006
develops,1007
device,1008
devices,1009
diagnos,1010
diagnose,1011
dial,1012
dialing,1013
dialogue,1014
did,1015
didn,1016
didnt,1017
die,1018
died,1019
dies,1020
difference,1021
differences,1022
different,1023
differential,1024
differing,1025
difficult,1026
difficulties,1027
difficulty,1028
diggin,1029
digi,1030
digicam,1031
digicams,1032
digital,1033
dim,1034
dimage,1035
dimished,1036
diopter,1037
direct,1038
direction,1039
directions,1040
directly,1041
directory,1042
dirty,1043
dis,1044
disable,1045
disapointed,1046
disappeared,1047
disappoint,1048
disappointed,1049
disappointing,1050
disappointment,1051
disc,1052
discontinued,1053
discount,1054
discoutinous,1055
discover,1056
discovered,1057
discovering,1058
discovery,1059
discs,1060
disdain,1061
disgusted,1062
disipointed,1063
disk,1064
disks,1065
dislikes,1066
disney,1067
display,1068
displayed,1069
displaying,1070
displays,1071
disposable,1072
dissapears,1073
dissapointed,1074
dissapointment,1075
dissapointments,1076
dissappointed,1077
dissatisified,1078
dissuade,1079
distance,1080
distorted,1081
distortion,1082
distorts,1083
distraction,1084
disturbance,1085
disturbing,1086
ditties,1087
divided,1088
division,1089
divx,1090
dock,1091
docking,1092
document,1093
documentation,1094
documented,1095
documents,1096
does,1097
doesn,1098
doesnt,1099
dog,1100
dogs,1101
doing,1102
dollar,1103
dollars,1104
dominant,1105
don,1106
donkey,1107
donno,1108
dont,1109
door,1110
doubler,1111
doubles,1112
doubt,1113
doubts,1114
downer,1115
downfall,1116
downladed,1117
download,1118
downloadable,1119
downloaded,1120
downloading,1121
downloads,1122
downside,1123
dozen,1124
dparsedthreedigitss,1125
dpreview,1126
dpreviews,1127
drag,1128
dragging,1129
drain,1130
drains,1131
drawback,1132
drawbacks,1133
drawer,1134
dream,1135
drive,1136
driver,1137
drivers,1138
drives,1139
driving,1140
drop,1141
dropped,1142
dropping,1143
drops,1144
drove,1145
dry,1146
dsc,1147
dsf,1148
dts,1149
du,1150
dual,1151
ducking,1152
duh,1153
dull,1154
dumb,1155
dummy,1156
dumps,1157
duplicate,1158
duplicates,1159
durability,1160
durable,1161
duration,1162
dust,1163
dutch,1164
dvd,1165
dvdr,1166
dvdrw,1167
dvds,1168
dye,1169
dying,1170
dynamic,1171
ear,1172
earbuds,1173
earlier,1174
early,1175
earnest,1176
earphone,1177
earphones,1178
earpiece,1179
ears,1180
ease,1181
easier,1182
easiest,1183
easily,1184
east,1185
easy,1186
eat,1187
eax,1188
ebay,1189
eclectic,1190
ect,1191
edge,1192
edges,1193
edit,1194
editing,1195
effect,1196
effective,1197
effort,1198
eject,1199
el,1200
elderly,1201
electricity,1202
electronic,1203
electronics,1204
elegant,1205
eliminate,1206
eliminated,1207
elments,1208
elphs,1209
elses,1210
elusive,1211
em,1212
email,1213
emailed,1214
emailing,1215
emails,1216
embarassing,1217
embedded,1218
emergency,1219
employees,1220
emplyees,1221
en,1222
enable,1223
enabled,1224
enables,1225
enabling,1226
enclose,1227
enclosed,1228
encode,1229
encoded,1230
encodes,1231
encoding,1232
encounter,1233
encountered,1234
end,1235
ended,1236
endless,1237
endlessly,1238
ends,1239
engage,1240
engery,1241
engineer,1242
engineered,1243
english,1244
engorged,1245
enhancement,1246
enhancing,1247
enjoy,1248
enjoyed,1249
enjoying,1250
enjoyment,1251
enjoys,1252
enlarge,1253
enlarging,1254
enormous,1255
enought,1256
ensure,1257
ensuring,1258
enter,1259
entering,1260
entertaining,1261
enthusiast,1262
enthusiastic,1263
enthusiastically,1264
entire,1265
entries,1266
entry,1267
envied,1268
environment,1269
environmental,1270
environs,1271
eos,1272
epinions,1273
episodes,1274
eq,1275
equal,1276
equalizer,1277
equally,1278
equilizer,1279
equipment,1280
equipped,1281
equivalent,1282
er,1283
ergonomics,1284
ericsson,1285
error,1286
errors,1287
erros,1288
especially,1289
essentially,1290
established,1291
estate,1292
estimate,1293
ethernet,1294
euphoria,1295
europe,1296
european,1297
evaluated,1298
evaulate,1299
evening,1300
event,1301
eventhough,1302
eventually,1303
eventualy,1304
everythig,1305
everytime,1306
evils,1307
evolve,1308
ex,1309
exactly,1310
exaggerated,1311
example,1312
exceeded,1313
excel,1314
excellent,1315
excels,1316
exception,1317
exceptional,1318
exchange,1319
excited,1320
exclusively,1321
excuse,1322
exhaustive,1323
exhustive,1324
exist,1325
existent,1326
existing,1327
expect,1328
expectations,1329
expected,1330
expecting,1331
expedited,1332
expense,1333
expensive,1334
experience,1335
experienced,1336
experiment,1337
experimented,1338
experimenting,1339
experince,1340
expert,1341
expire,1342
expired,1343
expires,1344
explain,1345
explained,1346
explains,1347
exploit,1348
explored,1349
explorer,1350
exposed,1351
exposure,1352
exposures,1353
extemely,1354
extended,1355
extension,1356
extensive,1357
external,1358
extra,1359
extraneous,1360
extras,1361
extreme,1362
extremely,1363
eye,1364
eyed,1365
eyeing,1366
eyes,1367
eyesight,1368
ez,1369
fabulous,1370
face,1371
faceplate,1372
faceplates,1373
fact,1374
factor,1375
factore,1376
factoring,1377
factors,1378
factory,1379
faded,1380
fahrenheit,1381
fail,1382
failed,1383
failing,1384
fails,1385
failure,1386
fair,1387
fairly,1388
fairness,1389
faithfully,1390
fall,1391
falling,1392
falls,1393
false,1394
familiar,1395
family,1396
familyplan,1397
famous,1398
fan,1399
fanatic,1400
fans,1401
fantasic,1402
fantastic,1403
fantastically,1404
fantasy,1405
far,1406
fashioned,1407
fast,1408
faster,1409
father,1410
fault,1411
faulty,1412
fav,1413
favor,1414
favorite,1415
fax,1416
fe,1417
fear,1418
feature,1419
featured,1420
features,1421
february,1422
fed,1423
feed,1424
feedback,1425
feel,1426
feeling,1427
feelings,1428
feels,1429
feet,1430
fell,1431
fellow,1432
felt,1433
fetch,1434
fiddling,1435
field,1436
fields,1437
fifty,1438
figure,1439
figured,1440
figures,1441
figuring,1442
file,1443
filecount,1444
filenames,1445
files,1446
fileviewer,1447
filing,1448
filled,1449
filling,1450
fillmore,1451
film,1452
filter,1453
filters,1454
final,1455
finally,1456
finder,1457
finding,1458
fine,1459
finer,1460
finest,1461
finger,1462
fingers,1463
fingertips,1464
finicky,1465
finish,1466
finished,1467
fired,1468
firewire,1469
firmware,1470
fisher,1471
fist,1472
fit,1473
fits,1474
fix,1475
fixed,1476
fixes,1477
fixing,1478
fizzled,1479
fkor,1480
flagship,1481
flaky,1482
flash,1483
flashes,1484
flashing,1485
flat,1486
flaw,1487
flawlessly,1488
flaws,1489
flew,1490
flexibility,1491
flexible,1492
flight,1493
flimsy,1494
flip,1495
flips,1496
flowers,1497
fluid,1498
fly,1499
flyball,1500
flywheel,1501
fm,1502
focal,1503
focus,1504
focused,1505
focusing,1506
focussing,1507
folder,1508
folders,1509
folks,1510
follow,1511
followed,1512
following,1513
fool,1514
fooled,1515
foot,1516
force,1517
forced,1518
foreign,1519
foremost,1520
forests,1521
forever,1522
forewarned,1523
forget,1524
forgo,1525
forgot,1526
forgotten,1527
form,1528
format,1529
formats,1530
formatted,1531
formatting,1532
forth,1533
fortunately,1534
fortune,1535
forward,1536
fourth,1537
fparsedonedigit,1538
fparsedthreedigits,1539
fraction,1540
fragile,1541
frame,1542
frames,1543
free,1544
freeze,1545
freezes,1546
freezing,1547
frend,1548
frequent,1549
frequently,1550
friend,1551
friendlier,1552
friendly,1553
friends,1554
fringing,1555
froze,1556
frozen,1557
frustrated,1558
frustrating,1559
frustration,1560
fully,1561
fumble,1562
fun,1563
func,1564
function,1565
functional,1566
functionality,1567
functions,1568
funky,1569
funny,1570
funtion,1571
furher,1572
fussy,1573
future,1574
gadget,1575
gadgets,1576
gain,1577
gaining,1578
gains,1579
gallery,1580
game,1581
games,1582
gap,1583
garbage,1584
garbling,1585
gave,1586
gb,1587
gear,1588
geared,1589
geeky,1590
gem,1591
general,1592
generally,1593
generate,1594
generation,1595
generations,1596
genre,1597
genres,1598
gentlest,1599
german,1600
gets,1601
getting,1602
ghz,1603
gift,1604
gifts,1605
gig,1606
gigabyte,1607
gigabytes,1608
gigantic,1609
gigs,1610
girl,1611
girlfriend,1612
given,1613
gives,1614
giving,1615
gizmo,1616
glad,1617
glance,1618
glaring,1619
glass,1620
glaze,1621
glinting,1622
glitch,1623
glitches,1624
globally,1625
glove,1626
glow,1627
glowing,1628
god,1629
goddam,1630
goes,1631
going,1632
golden,1633
goldstar,1634
gon,1635
gone,1636
good,1637
goodluck,1638
goodness,1639
goofy,1640
google,1641
gorgeous,1642
got,1643
goth,1644
gotted,1645
gotten,1646
gparsedonedigit,1647
gprs,1648
grab,1649
gracenotes,1650
grade,1651
grain,1652
grainy,1653
grand,1654
grandma,1655
grandmother,1656
granted,1657
graphic,1658
graphics,1659
gravitated,1660
gray,1661
great,1662
greater,1663
greatest,1664
green,1665
grieps,1666
grip,1667
gripe,1668
groovy,1669
grossly,1670
group,1671
groups,1672
grow,1673
gsm,1674
gsmparsedthreedigits,1675
guarantee,1676
guess,1677
guessing,1678
guide,1679
guides,1680
gut,1681
guy,1682
habit,1683
hacked,1684
hacks,1685
hadn,1686
haggard,1687
half,1688
halfway,1689
hall,1690
hand,1691
handbag,1692
handbags,1693
handed,1694
handle,1695
handles,1696
hands,1697
handset,1698
handsets,1699
handsfree,1700
handy,1701
hang,1702
hanging,1703
hangs,1704
happen,1705
happened,1706
happens,1707
happier,1708
happily,1709
happy,1710
hard,1711
harddisk,1712
harddrive,1713
harder,1714
hardest,1715
hardly,1716
hardware,1717
harm,1718
harsh,1719
hasn,1720
hassle,1721
hate,1722
hated,1723
hates,1724
haul,1725
haven,1726
havent,1727
having,1728
havoc,1729
hazard,1730
haze,1731
hazy,1732
hd,1733
hdd,1734
hddparsedthreedigits,1735
hdtv,1736
head,1737
headache,1738
headed,1739
headfone,1740
heading,1741
headphone,1742
headphones,1743
heads,1744
headset,1745
health,1746
hear,1747
heard,1748
hearing,1749
heart,1750
heartedly,1751
heaven,1752
heavier,1753
heaviest,1754
heavy,1755
heck,1756
heed,1757
heft,1758
held,1759
hell,1760
hellishly,1761
help,1762
helped,1763
helpful,1764
helps,1765
hendrix,1766
herd,1767
heres,1768
hesitant,1769
hesitate,1770
hesitation,1771
hey,1772
hi,1773
hick,1774
hidden,1775
hides,1776
high,1777
higher,1778
highest,1779
highlight,1780
highly,1781
hinged,1782
hint,1783
hip,1784
hipster,1785
hiss,1786
hissing,1787
hit,1788
hitch,1789
hits,1790
hitting,1791
ho,1792
hobbiest,1793
hold,1794
holding,1795
holds,1796
hole,1797
holiday,1798
home,1799
homely,1800
honestly,1801
hook,1802
hooked,1803
hooking,1804
hoome,1805
hooray,1806
hope,1807
hoped,1808
hopefully,1809
hopes,1810
hoping,1811
horoscopes,1812
horrible,1813
horribly,1814
hot,1815
hotkey,1816
hour,1817
hours,1818
house,1819
hovewer,1820
hrs,1821
http,1822
huge,1823
hum,1824
hundreds,1825
hunter,1826
hurdles,1827
hurt,1828
hurts,1829
hype,1830
hyped,1831
ibm,1832
ibook,1833
ice,1834
icing,1835
id,1836
ide,1837
idea,1838
ideal,1839
ideas,1840
identical,1841
identified,1842
identify,1843
identifying,1844
idiot,1845
idparsedonedigit,1846
ignorant,1847
ignore,1848
ignored,1849
iguazu,1850
ihp,1851
ii,1852
ill,1853
illiterate,1854
illogical,1855
illuminates,1856
im,1857
image,1858
images,1859
imagine,1860
imaging,1861
imho,1862
immaterial,1863
immediately,1864
immense,1865
imo,1866
impatient,1867
import,1868
important,1869
imports,1870
impossible,1871
impossibly,1872
impressed,1873
impression,1874
impressive,1875
improve,1876
improved,1877
improvement,1878
improves,1879
inbox,1880
inbuilt,1881
inch,1882
incident,1883
inclined,1884
include,1885
included,1886
includes,1887
including,1888
inconveinent,1889
inconveniences,1890
inconvenient,1891
incorrect,1892
increadably,1893
increase,1894
increased,1895
incredibe,1896
incredible,1897
incredibly,1898
indestructibility,1899
indicate,1900
indicated,1901
indicator,1902
indirect,1903
indistinguishable,1904
individualized,1905
individually,1906
indoor,1907
inept,1908
inexpensive,1909
inferior,1910
infinitely,1911
info,1912
information,1913
informed,1914
infrared,1915
infuriating,1916
inherent,1917
initial,1918
initially,1919
innovative,1920
inoperable,1921
inordinate,1922
input,1923
inputparsedonedigit,1924
insanely,1925
insert,1926
inserted,1927
inserting,1928
insertion,1929
inside,1930
insisted,1931
insisting,1932
inspection,1933
inspired,1934
install,1935
installation,1936
installed,1937
installing,1938
installs,1939
instances,1940
instant,1941
instantly,1942
instead,1943
instincts,1944
instruction,1945
instructions,1946
instruments,1947
instuctions,1948
insure,1949
insurmoutable,1950
integrated,1951
integrates,1952
intend,1953
intended,1954
intense,1955
intent,1956
interaction,1957
interacts,1958
interested,1959
interesting,1960
interface,1961
interfacing,1962
interference,1963
interferes,1964
interlace,1965
internal,1966
international,1967
internationally,1968
internet,1969
interruption,1970
intimidated,1971
intrested,1972
introduce,1973
intuitive,1974
invest,1975
investigating,1976
investing,1977
investment,1978
involved,1979
involves,1980
ion,1981
ipod,1982
ipodders,1983
ipods,1984
ipodsdirtysecret,1985
ir,1986
irda,1987
iriver,1988
irivers,1989
irony,1990
irriation,1991
isacc,1992
isn,1993
isnt,1994
iso,1995
isolated,1996
issue,1997
issues,1998
italian,1999
item,2000
items,2001
ithave,2002
itunes,2003
ive,2004
jack,2005
jacks,2006
jan,2007
january,2008
java,2009
jazz,2010
jimi,2011
jme,2012
job,2013
jobs,2014
jog,2015
jogger,2016
jogging,2017
join,2018
joined,2019
jones,2020
jour,2021
journey,2022
jpeg,2023
jpegs,2024
jpgs,2025
judgement,2026
juice,2027
jukebox,2028
jukeboxed,2029
jukeboxes,2030
jukeboxparsedonedigit,2031
july,2032
jumping,2033
junk,2034
junky,2035
just,2036
jvc,2037
karma,2038
karoake,2039
kbps,2040
keen,2041
keepers,2042
keeping,2043
keeps,2044
kenny,2045
kentucky,2046
kept,2047
key,2048
keychain,2049
keypad,2050
keypads,2051
keys,2052
kicks,2053
kid,2054
kids,2055
kill,2056
killer,2057
kind,2058
kinda,2059
kingston,2060
kit,2061
kitchen,2062
kits,2063
knew,2064
knife,2065
knob,2066
knobs,2067
knock,2068
knocked,2069
knockoff,2070
know,2071
knowing,2072
knowledge,2073
known,2074
knows,2075
kodak,2076
korean,2077
koreans,2078
kpbs,2079
kudos,2080
kuwait,2081
lab,2082
labled,2083
labor,2084
labs,2085
lack,2086
lacking,2087
lacks,2088
lag,2089
laid,2090
lame,2091
landed,2092
landscape,2093
language,2094
languages,2095
lap,2096
laptop,2097
large,2098
larger,2099
lasted,2100
lasting,2101
lastly,2102
lasts,2103
late,2104
later,2105
latest,2106
latitude,2107
launched,2108
laundry,2109
lawsuit,2110
layer,2111
layout,2112
lazy,2113
lcd,2114
lead,2115
leading,2116
learn,2117
learned,2118
learning,2119
lease,2120
leather,2121
leave,2122
leaving,2123
lebovitz,2124
led,2125
left,2126
legendary,2127
legitimate,2128
leica,2129
lemon,2130
len,2131
length,2132
lengthy,2133
lens,2134
lense,2135
lenses,2136
lensmateonline,2137
lesser,2138
lesson,2139
let,2140
lets,2141
letterbox,2142
level,2143
levels,2144
lever,2145
lexar,2146
li,2147
library,2148
lid,2149
lie,2150
life,2151
lifespan,2152
lifted,2153
light,2154
lighter,2155
lighting,2156
lightingfast,2157
lightly,2158
lightweight,2159
like,2160
liked,2161
likely,2162
likes,2163
liking,2164
lil,2165
limit,2166
limitations,2167
limited,2168
limits,2169
line,2170
lines,2171
link,2172
linked,2173
lip,2174
lips,2175
list,2176
listed,2177
listen,2178
listened,2179
listener,2180
listening,2181
listing,2182
listings,2183
lists,2184
lit,2185
literally,2186
literature,2187
lithium,2188
litium,2189
little,2190
live,2191
living,2192
ll,2193
lmost,2194
load,2195
loaded,2196
loading,2197
local,2198
locally,2199
locate,2200
located,2201
locating,2202
location,2203
locations,2204
lock,2205
locked,2206
locking,2207
locks,2208
log,2209
logged,2210
logically,2211
lol,2212
lonely,2213
long,2214
longer,2215
longest,2216
longevity,2217
look,2218
looked,2219
looking,2220
looks,2221
loose,2222
lose,2223
losing,2224
loss,2225
lost,2226
lot,2227
lots,2228
lotus,2229
loud,2230
lousy,2231
love,2232
loved,2233
lovers,2234
loves,2235
loving,2236
low,2237
lower,2238
lowest,2239
lparsedfourdigits,2240
lttle,2241
luck,2242
lug,2243
lumix,2244
lump,2245
lunch,2246
luxury,2247
lying,2248
lyra,2249
mac,2250
machine,2251
machinery,2252
machines,2253
macro,2254
macrovision,2255
mad,2256
magazine,2257
magazines,2258
magnesium,2259
magnification,2260
mail,2261
mailing,2262
mails,2263
main,2264
mainly,2265
maintain,2266
maintains,2267
major,2268
majority,2269
make,2270
maker,2271
makes,2272
making,2273
man,2274
manage,2275
managed,2276
manager,2277
managing,2278
manipulate,2279
manner,2280
manual,2281
manually,2282
manufactured,2283
manufacturer,2284
manufacturers,2285
manufacturing,2286
manuver,2287
march,2288
marked,2289
market,2290
marketing,2291
markup,2292
marriage,2293
martian,2294
marvel,2295
mass,2296
massive,2297
mastered,2298
mastering,2299
match,2300
material,2301
matter,2302
matters,2303
matured,2304
max,2305
maximum,2306
maybe,2307
mayybe,2308
mb,2309
mbyte,2310
mean,2311
meaning,2312
means,2313
meant,2314
measly,2315
measure,2316
mechanically,2317
mechanism,2318
media,2319
mediaplay,2320
mediaplayer,2321
mediasource,2322
mediocre,2323
medium,2324
meet,2325
meets,2326
mega,2327
megabyte,2328
megapixel,2329
megapixels,2330
megatones,2331
members,2332
memories,2333
memorized,2334
memory,2335
men,2336
mention,2337
mentioned,2338
mentions,2339
menu,2340
menus,2341
mess,2342
message,2343
messages,2344
messaging,2345
messed,2346
messenger,2347
messing,2348
met,2349
meta,2350
metal,2351
metallic,2352
meter,2353
metering,2354
method,2355
methods,2356
metz,2357
mhz,2358
microdrive,2359
microdrives,2360
microseconds,2361
microsoft,2362
mid,2363
middle,2364
midi,2365
mighty,2366
miles,2367
mind,2368
mini,2369
minilux,2370
minimal,2371
minimize,2372
minolta,2373
minor,2374
mins,2375
minus,2376
minute,2377
minutes,2378
minutest,2379
mirror,2380
mirrors,2381
misfortune,2382
miss,2383
missed,2384
missing,2385
mistake,2386
mix,2387
mixed,2388
mixing,2389
mls,2390
mm,2391
mms,2392
mo,2393
mobile,2394
mode,2395
model,2396
models,2397
modem,2398
moderate,2399
moderately,2400
modern,2401
modes,2402
module,2403
mom,2404
moment,2405
moments,2406
mon,2407
money,2408
monitor,2409
monster,2410
monstrosity,2411
month,2412
months,2413
moon,2414
mooooooh,2415
moot,2416
morning,2417
mortar,2418
motivate,2419
motor,2420
motorola,2421
motorolla,2422
mountain,2423
mounted,2424
moveable,2425
movement,2426
movie,2427
movies,2428
moving,2429
mp,2430
mparsedonedigitu,2431
mpeg,2432
mpegparsedonedigit,2433
mpparsedonedigit,2434
mpparsedonedigits,2435
ms,2436
mtc,2437
multi,2438
multidisk,2439
multiformat,2440
multilple,2441
multimedia,2442
multiple,2443
multitude,2444
murals,2445
murphy,2446
music,2447
musical,2448
musicmatch,2449
muvo,2450
myriad,2451
na,2452
nah,2453
names,2454
napster,2455
narrowed,2456
national,2457
nations,2458
natural,2459
naturally,2460
navigate,2461
navigating,2462
navigation,2463
navigational,2464
navigator,2465
navigion,2466
near,2467
nearly,2468
neat,2469
neccessary,2470
necessarily,2471
necessary,2472
neck,2473
need,2474
needed,2475
needing,2476
needless,2477
needs,2478
negative,2479
nemo,2480
net,2481
network,2482
neutral,2483
new,2484
newbies,2485
newer,2486
newly,2487
nice,2488
nicely,2489
nicer,2490
nicest,2491
nifty,2492
night,2493
nightmare,2494
nikon,2495
nikons,2496
nirvana,2497
nits,2498
nod,2499
noise,2500
noiseless,2501
nokia,2502
nokias,2503
nomad,2504
nomadness,2505
nomadworld,2506
non,2507
nonexistant,2508
nonexistent,2509
nonflip,2510
nonresponsive,2511
normal,2512
normalization,2513
northern,2514
notch,2515
note,2516
notebook,2517
noted,2518
notes,2519
notice,2520
noticeable,2521
noticeably,2522
noticed,2523
noting,2524
notmad,2525
november,2526
novice,2527
nparsedtwodigits,2528
nparsedtwodigitss,2529
ntsc,2530
nudge,2531
number,2532
numbers,2533
numbskulls,2534
numerous,2535
nuts,2536
nx,2537
objective,2538
objects,2539
obscured,2540
obscures,2541
observed,2542
obstacle,2543
obstruct,2544
obstructed,2545
obstructs,2546
obtain,2547
obtainable,2548
obtaining,2549
obvious,2550
obviously,2551
occasion,2552
occasional,2553
occasionally,2554
occasions,2555
occludes,2556
occur,2557
occurrences,2558
occurs,2559
odd,2560
oddities,2561
offensive,2562
offer,2563
offered,2564
offering,2565
offers,2566
office,2567
officemax,2568
offsets,2569
oh,2570
ok,2571
okay,2572
okayed,2573
old,2574
older,2575
olympus,2576
onceagain,2577
ones,2578
onfull,2579
onkyo,2580
online,2581
onscreen,2582
ooh,2583
open,2584
opened,2585
opening,2586
operate,2587
operates,2588
operating,2589
operation,2590
operator,2591
operators,2592
opinion,2593
opinions,2594
opposed,2595
oppressed,2596
optic,2597
optical,2598
optics,2599
optimized,2600
option,2601
optional,2602
options,2603
orange,2604
order,2605
ordered,2606
ordering,2607
organization,2608
organizational,2609
organize,2610
organized,2611
organizer,2612
organizing,2613
oriented,2614
original,2615
originally,2616
orignal,2617
os,2618
ot,2619
otherdigicam,2620
ounces,2621
outdoor,2622
outdoors,2623
outfitters,2624
outlet,2625
outlook,2626
outperform,2627
outperforms,2628
output,2629
outputs,2630
outs,2631
outstanding,2632
outweigh,2633
outweighs,2634
overall,2635
overilluminated,2636
overloaded,2637
overlook,2638
overly,2639
overpriced,2640
overrides,2641
overseas,2642
oversight,2643
overused,2644
overview,2645
overworked,2646
overwrite,2647
overwriting,2648
owned,2649
owner,2650
owners,2651
owning,2652
oz,2653
pace,2654
package,2655
packed,2656
packing,2657
packs,2658
page,2659
pages,2660
paid,2661
pain,2662
painless,2663
paintball,2664
pair,2665
pairs,2666
pal,2667
pales,2668
palm,2669
paltry,2670
panasonic,2671
panasonics,2672
pancakes,2673
panel,2674
panoramic,2675
pants,2676
paper,2677
paperweight,2678
par,2679
parallax,2680
parent,2681
parents,2682
park,2683
parseddigits,2684
parseddigitsgb,2685
parseddigitsmp,2686
parseddigitsx,2687
parsedfivedigits,2688
parsedfourdigits,2689
parsedfourdigitsc,2690
parsedfourdigitss,2691
parsedfourdigitsx,2692
parsedfourdigitsxparseddigits,2693
parsedonedigit,2694
parsedonedigita,2695
parsedonedigitft,2696
parsedonedigitgb,2697
parsedonedigitk,2698
parsedonedigitlb,2699
parsedonedigitm,2700
parsedonedigitmb,2701
parsedonedigitmp,2702
parsedonedigitnd,2703
parsedonedigitrd,2704
parsedonedigits,2705
parsedonedigitst,2706
parsedonedigitth,2707
parsedonedigitx,2708
parsedonedigitxparseddigits,2709
parsedonedigitxparsedtwodigits,2710
parsedthreedigits,2711
parsedthreedigitskb,2712
parsedthreedigitskbps,2713
parsedthreedigitskbs,2714
parsedthreedigitskps,2715
parsedthreedigitsmb,2716
parsedthreedigitsmeg,2717
parsedthreedigitsv,2718
parsedtwodigits,2719
parsedtwodigitscl,2720
parsedtwodigitsdb,2721
parsedtwodigitsg,2722
parsedtwodigitsgb,2723
parsedtwodigitshrs,2724
parsedtwodigitsin,2725
parsedtwodigitsk,2726
parsedtwodigitsmb,2727
parsedtwodigitsmm,2728
parsedtwodigitsst,2729
parsedtwodigitsth,2730
parsedtwodigitsx,2731
partially,2732
particular,2733
particularly,2734
parties,2735
parts,2736
party,2737
pass,2738
past,2739
patience,2740
patient,2741
pause,2742
pay,2743
paying,2744
pc,2745
pcs,2746
pda,2747
pdf,2748
peace,2749
peers,2750
peice,2751
penny,2752
pentium,2753
people,2754
perceptible,2755
perfect,2756
perfection,2757
perfectly,2758
perform,2759
performance,2760
performer,2761
performs,2762
period,2763
peripheral,2764
permanently,2765
person,2766
persona,2767
personal,2768
personally,2769
personnel,2770
perspective,2771
pet,2772
phenomenon,2773
philips,2774
phone,2775
phonebook,2776
phones,2777
photo,2778
photograph,2779
photographer,2780
photographers,2781
photographic,2782
photographs,2783
photography,2784
photorealistic,2785
photos,2786
photoshop,2787
photostich,2788
physical,2789
pic,2790
picasa,2791
pick,2792
picked,2793
picking,2794
picky,2795
pics,2796
picture,2797
pictured,2798
picturers,2799
pictures,2800
pie,2801
piece,2802
pig,2803
piggy,2804
pillowside,2805
pin,2806
pinch,2807
pioneer,2808
pirates,2809
pitch,2810
pitched,2811
pitiful,2812
pix,2813
pixel,2814
place,2815
placed,2816
places,2817
placing,2818
plain,2819
plan,2820
plane,2821
planes,2822
planning,2823
plans,2824
plastic,2825
plasticky,2826
plate,2827
play,2828
playback,2829
played,2830
player,2831
players,2832
playing,2833
playlist,2834
playlists,2835
plays,2836
pleaded,2837
pleased,2838
plenty,2839
plopping,2840
plug,2841
plugged,2842
plunge,2843
plus,2844
plusses,2845
pocket,2846
pockets,2847
pod,2848
point,2849
pointed,2850
points,2851
policy,2852
poly,2853
polymer,2854
polymorphic,2855
polyphonic,2856
poor,2857
poorly,2858
pop,2859
popped,2860
popping,2861
pops,2862
popular,2863
populate,2864
port,2865
portability,2866
portable,2867
portrait,2868
portraits,2869
pos,2870
pose,2871
poser,2872
position,2873
positions,2874
positive,2875
positives,2876
possibilities,2877
possible,2878
possibly,2879
post,2880
postage,2881
posted,2882
posters,2883
posts,2884
potential,2885
pouch,2886
power,2887
powered,2888
powerful,2889
powering,2890
powershot,2891
pparsedonedigit,2892
practically,2893
practice,2894
practices,2895
praise,2896
predecessor,2897
predict,2898
prefer,2899
preference,2900
preferences,2901
preferred,2902
premanent,2903
premium,2904
prepaid,2905
prepared,2906
present,2907
presents,2908
presets,2909
press,2910
pressed,2911
pressing,2912
pressure,2913
pretty,2914
prev,2915
prevent,2916
preview,2917
previews,2918
previous,2919
previously,2920
price,2921
priced,2922
prices,2923
pricey,2924
pricing,2925
primarily,2926
print,2927
printed,2928
printer,2929
printing,2930
prints,2931
prior,2932
priority,2933
pro,2934
prob,2935
probability,2936
probably,2937
problem,2938
problems,2939
probly,2940
probram,2941
proceeded,2942
process,2943
processed,2944
processing,2945
produce,2946
produced,2947
produces,2948
product,2949
products,2950
professional,2951
profile,2952
progam,2953
program,2954
programming,2955
programs,2956
progress,2957
progressive,2958
promised,2959
promotion,2960
promps,2961
prompt,2962
prompting,2963
promptly,2964
prone,2965
proof,2966
proper,2967
properly,2968
proprietary,2969
pros,2970
prospective,2971
protect,2972
protection,2973
protective,2974
protector,2975
protects,2976
prove,2977
proven,2978
proverbial,2979
provide,2980
provided,2981
provider,2982
provides,2983
providing,2984
ps,2985
pseudo,2986
psparsedonedigit,2987
psychidelic,2988
public,2989
pull,2990
pulled,2991
pulling,2992
pulls,2993
pup,2994
puppies,2995
purchase,2996
purchased,2997
purchasing,2998
pure,2999
purple,3000
purpose,3001
purposes,3002
purse,3003
push,3004
pushed,3005
pushing,3006
puts,3007
quad,3008
qualities,3009
quality,3010
quarter,3011
queried,3012
question,3013
questioned,3014
questions,3015
quibble,3016
quick,3017
quicker,3018
quickly,3019
quicky,3020
quiet,3021
quieter,3022
quietly,3023
quirks,3024
quirky,3025
quit,3026
quite,3027
qulaity,3028
quote,3029
ra,3030
rack,3031
radio,3032
rag,3033
raise,3034
ral,3035
ram,3036
ran,3037
random,3038
range,3039
rap,3040
rapid,3041
rapidly,3042
rare,3043
rarely,3044
rate,3045
rated,3046
rates,3047
rating,3048
ratio,3049
raw,3050
razor,3051
rca,3052
reach,3053
reachable,3054
read,3055
readable,3056
reader,3057
readers,3058
readily,3059
reading,3060
reads,3061
ready,3062
real,3063
realation,3064
realistic,3065
reality,3066
realize,3067
realized,3068
realizes,3069
really,3070
rear,3071
reason,3072
reasonable,3073
reasonably,3074
reasons,3075
rebate,3076
rebates,3077
reboot,3078
rebooted,3079
rec,3080
recall,3081
reccomend,3082
receipt,3083
receive,3084
received,3085
receiver,3086
receivers,3087
receives,3088
receiving,3089
recent,3090
recently,3091
reception,3092
rechargable,3093
recharge,3094
rechargeable,3095
rechargebles,3096
recharger,3097
recharges,3098
rechargings,3099
recieved,3100
recogmend,3101
recognition,3102
recognize,3103
recognized,3104
recognizes,3105
recognizing,3106
recomend,3107
recommend,3108
recommendation,3109
recommendations,3110
recommended,3111
recomment,3112
record,3113
recorder,3114
recording,3115
records,3116
recored,3117
recover,3118
recovery,3119
recreate,3120
rectangular,3121
recycling,3122
red,3123
redchair,3124
redchairsoftware,3125
redeye,3126
redhat,3127
rediscovering,3128
redwood,3129
reeves,3130
refer,3131
reflected,3132
reflects,3133
refreshing,3134
refund,3135
refunded,3136
refunds,3137
refuse,3138
refused,3139
refuses,3140
regard,3141
regarding,3142
regards,3143
region,3144
regional,3145
register,3146
registered,3147
regret,3148
regrets,3149
regretted,3150
regular,3151
reinstalled,3152
reiterate,3153
rejected,3154
relation,3155
relative,3156
relatively,3157
relax,3158
release,3159
releases,3160
releasing,3161
relevant,3162
reliability,3163
reliable,3164
reliance,3165
relies,3166
reloaded,3167
rely,3168
remain,3169
remainder,3170
remaining,3171
remarkable,3172
remember,3173
reminded,3174
remixes,3175
remorse,3176
remote,3177
remotes,3178
removable,3179
remove,3180
removed,3181
removing,3182
rename,3183
renaming,3184
rendered,3185
renewal,3186
rent,3187
rental,3188
rented,3189
rep,3190
repair,3191
repairs,3192
repeat,3193
repeated,3194
repeatedly,3195
replacable,3196
replace,3197
replaceable,3198
replaced,3199
replacement,3200
replaces,3201
replacing,3202
repleace,3203
replies,3204
replug,3205
reply,3206
replying,3207
report,3208
reported,3209
reports,3210
repost,3211
representative,3212
represents,3213
reproduced,3214
reps,3215
reputable,3216
reputation,3217
requested,3218
requesting,3219
require,3220
required,3221
requirements,3222
requires,3223
res,3224
rescue,3225
research,3226
researched,3227
researching,3228
resellers,3229
resent,3230
reservations,3231
reset,3232
resilience,3233
resol,3234
resolution,3235
resolutions,3236
resolve,3237
resolved,3238
resolves,3239
resort,3240
resources,3241
respect,3242
respected,3243
respond,3244
responding,3245
response,3246
responses,3247
responsible,3248
responsive,3249
rest,3250
resting,3251
restless,3252
result,3253
resulted,3254
resulting,3255
results,3256
retailer,3257
retailers,3258
retention,3259
return,3260
returned,3261
returning,3262
returns,3263
revamp,3264
reveals,3265
reversed,3266
review,3267
reviewed,3268
reviewer,3269
reviewers,3270
reviews,3271
revised,3272
revive,3273
rewind,3274
rice,3275
rich,3276
ricksters,3277
rid,3278
ridculously,3279
rides,3280
ridges,3281
ridicule,3282
ridiculous,3283
right,3284
ring,3285
ringer,3286
ringing,3287
rings,3288
ringtones,3289
rio,3290
riovolt,3291
rip,3292
ripped,3293
ripper,3294
ripping,3295
rips,3296
risk,3297
rma,3298
road,3299
roam,3300
roaming,3301
robust,3302
rock,3303
rockbox,3304
rocks,3305
rolls,3306
rom,3307
roof,3308
room,3309
rooms,3310
rotates,3311
rotation,3312
roughly,3313
round,3314
route,3315
routinely,3316
roxxorz,3317
rs,3318
rubber,3319
rugged,3320
ruggedly,3321
ruin,3322
ruined,3323
ruins,3324
rule,3325
run,3326
runner,3327
running,3328
runs,3329
rush,3330
rv,3331
rw,3332
saavy,3333
sacrifice,3334
sad,3335
sadoun,3336
said,3337
sale,3338
sales,3339
salesperson,3340
sample,3341
samsung,3342
sanyo,3343
satellite,3344
satisfaction,3345
satisfactorily,3346
satisfactory,3347
satisfied,3348
saturated,3349
saturation,3350
saturday,3351
saturdays,3352
save,3353
saved,3354
saver,3355
saves,3356
saving,3357
savour,3358
saw,3359
say,3360
saying,3361
says,3362
sca,3363
scan,3364
scanned,3365
scans,3366
scary,3367
scene,3368
scenes,3369
schemes,3370
school,3371
scored,3372
scouting,3373
scratch,3374
scratched,3375
scratches,3376
screen,3377
screens,3378
screensaver,3379
screensavers,3380
screw,3381
screwed,3382
screwing,3383
scroll,3384
scrolling,3385
scrollwheel,3386
se,3387
seach,3388
seamless,3389
search,3390
searched,3391
searches,3392
searching,3393
season,3394
second,3395
seconds,3396
secure,3397
seeing,3398
seek,3399
seeking,3400
seen,3401
seldom,3402
select,3403
selectable,3404
selected,3405
selecting,3406
selection,3407
selections,3408
selectively,3409
selects,3410
self,3411
sell,3412
seller,3413
selling,3414
sells,3415
semi,3416
send,3417
sending,3418
sends,3419
sennheiser,3420
sense,3421
sensibilities,3422
sensitive,3423
sensor,3424
sent,3425
sep,3426
separate,3427
separated,3428
separately,3429
seperated,3430
seperately,3431
sepia,3432
series,3433
seriously,3434
seriousness,3435
serve,3436
server,3437
serves,3438
service,3439
services,3440
servicing,3441
set,3442
sets,3443
setting,3444
settings,3445
settle,3446
settled,3447
settling,3448
setup,3449
sexy,3450
sh,3451
shack,3452
shade,3453
shadow,3454
shadows,3455
shake,3456
shakes,3457
shaking,3458
shaky,3459
shame,3460
shape,3461
shapes,3462
share,3463
sharing,3464
sharp,3465
sharpening,3466
sharper,3467
sharpness,3468
sheer,3469
sheesh,3470
shelf,3471
shelling,3472
shifting,3473
shine,3474
shines,3475
shining,3476
shiny,3477
ship,3478
shipped,3479
shipping,3480
ships,3481
shirt,3482
shock,3483
shocked,3484
shoddy,3485
shoe,3486
shoot,3487
shooting,3488
shoots,3489
shop,3490
shopped,3491
shopping,3492
short,3493
shortcoming,3494
shortcomings,3495
shortcut,3496
shortly,3497
shot,3498
shots,3499
shoulder,3500
shouldn,3501
showed,3502
showing,3503
shown,3504
shows,3505
shuffle,3506
shuns,3507
shut,3508
shutter,3509
shutting,3510
sick,3511
sides,3512
sigh,3513
signal,3514
signals,3515
signed,3516
significant,3517
significantly,3518
silent,3519
silver,3520
silverish,3521
sim,3522
similar,3523
similarily,3524
simm,3525
simple,3526
simpler,3527
simplest,3528
simpletech,3529
simply,3530
sinc,3531
single,3532
sister,3533
sit,3534
site,3535
sites,3536
sitting,3537
situation,3538
situational,3539
situations,3540
size,3541
sized,3542
sizing,3543
skill,3544
skills,3545
skimped,3546
skip,3547
skipping,3548
skips,3549
slave,3550
slayer,3551
sleek,3552
sleep,3553
slice,3554
slick,3555
slideshows,3556
sliding,3557
slightest,3558
slightly,3559
sligtly,3560
slim,3561
slip,3562
slots,3563
slow,3564
slower,3565
slowing,3566
slowly,3567
slr,3568
slrs,3569
small,3570
smaller,3571
smart,3572
smell,3573
smoke,3574
smooth,3575
smoothly,3576
snap,3577
snapped,3578
snapping,3579
sniffer,3580
snooze,3581
snow,3582
snug,3583
snuggly,3584
socks,3585
software,3586
sold,3587
soldiers,3588
solely,3589
solid,3590
solidly,3591
solution,3592
solve,3593
solved,3594
somethings,3595
somewhat,3596
song,3597
songs,3598
sony,3599
sonys,3600
soom,3601
soon,3602
sooner,3603
sooooo,3604
sorry,3605
sort,3606
sorted,3607
sorting,3608
sorts,3609
sound,3610
soundblaster,3611
soundcard,3612
sounded,3613
sounding,3614
sounds,3615
source,3616
sources,3617
south,3618
sp,3619
space,3620
spaced,3621
spam,3622
span,3623
spare,3624
sparklers,3625
sparsedthreedigits,3626
sparsedtwodigits,3627
speak,3628
speaker,3629
speakerphone,3630
speakers,3631
speakphone,3632
special,3633
specific,3634
specifically,3635
specified,3636
specify,3637
specs,3638
spectacular,3639
speed,3640
speeding,3641
speeds,3642
spend,3643
spending,3644
spent,3645
spills,3646
spin,3647
spins,3648
splitter,3649
spoke,3650
sporadic,3651
sports,3652
spot,3653
spots,3654
spring,3655
springsteen,3656
sprint,3657
squarer,3658
squashed,3659
squeeze,3660
srs,3661
stable,3662
stack,3663
stacks,3664
stage,3665
staggering,3666
stainless,3667
stains,3668
stamp,3669
stand,3670
standard,3671
standards,3672
standing,3673
stands,3674
star,3675
stare,3676
stars,3677
start,3678
started,3679
starter,3680
starting,3681
starts,3682
state,3683
states,3684
static,3685
station,3686
stations,3687
stay,3688
stayed,3689
staying,3690
stays,3691
steadily,3692
steady,3693
steal,3694
steel,3695
steep,3696
stems,3697
step,3698
steps,3699
stereo,3700
stevesdigicams,3701
stiching,3702
stick,3703
sticks,3704
sticky,3705
stil,3706
stink,3707
stinks,3708
stitch,3709
stitching,3710
stn,3711
stock,3712
stolen,3713
stone,3714
stop,3715
stopaction,3716
stoppage,3717
stopped,3718
stopping,3719
stoppped,3720
stopwatch,3721
storage,3722
store,3723
stored,3724
stores,3725
story,3726
straight,3727
strap,3728
stravinsky,3729
stream,3730
strength,3731
strengths,3732
stress,3733
stretch,3734
stretches,3735
strictly,3736
strike,3737
strikes,3738
strong,3739
strongly,3740
structure,3741
stuck,3742
stucked,3743
stucks,3744
stucture,3745
study,3746
stuff,3747
stuffff,3748
stuffs,3749
stumbling,3750
stunned,3751
stunning,3752
stupid,3753
sturdy,3754
style,3755
styling,3756
stylish,3757
sub,3758
subcategory,3759
subfolders,3760
subject,3761
subjects,3762
subnotebook,3763
subs,3764
subsequent,3765
subsidizes,3766
substance,3767
substandard,3768
substitute,3769
subtle,3770
suburbs,3771
subway,3772
success,3773
successfully,3774
succession,3775
suck,3776
sucka,3777
suckers,3778
sucks,3779
suddenly,3780
suffers,3781
suggest,3782
suggested,3783
suggesting,3784
suggestion,3785
suing,3786
suit,3787
suite,3788
summary,3789
summation,3790
summer,3791
sun,3792
sunset,3793
super,3794
superb,3795
superfluous,3796
superior,3797
supplied,3798
supplier,3799
supply,3800
support,3801
supported,3802
supporting,3803
supports,3804
suppose,3805
suprised,3806
suprisingly,3807
sure,3808
surely,3809
surf,3810
surface,3811
surfing,3812
suroundings,3813
surpassed,3814
surpasses,3815
surprise,3816
surprised,3817
surprising,3818
surprisingly,3819
surreal,3820
survey,3821
survive,3822
suspect,3823
svcd,3824
svcds,3825
swap,3826
sweet,3827
swiss,3828
switch,3829
switched,3830
switches,3831
switching,3832
symbols,3833
sync,3834
synchronization,3835
synchronized,3836
synchronizing,3837
syncing,3838
synopsis,3839
tabbed,3840
table,3841
tad,3842
tag,3843
tagged,3844
tagging,3845
tags,3846
taken,3847
takes,3848
taking,3849
tale,3850
talk,3851
talked,3852
talkers,3853
talking,3854
talks,3855
tank,3856
tapes,3857
target,3858
task,3859
tax,3860
teach,3861
teamed,3862
teases,3863
tech,3864
techie,3865
technical,3866
technician,3867
technologies,3868
technology,3869
tedious,3870
teen,3871
teeny,3872
teh,3873
telephone,3874
telephoto,3875
tell,3876
telling,3877
telll,3878
tells,3879
tempi,3880
temporary,3881
tend,3882
term,3883
terms,3884
terrible,3885
terribly,3886
terrific,3887
test,3888
tested,3889
testing,3890
text,3891
thank,3892
thankfully,3893
thanks,3894
thats,3895
theater,3896
theirs,3897
theres,3898
theyve,3899
thicker,3900
thier,3901
thing,3902
things,3903
thingy,3904
think,3905
thinking,3906
thinks,3907
tho,3908
thought,3909
thousands,3910
thrash,3911
thrilled,3912
throw,3913
thrown,3914
thumb,3915
thumbdrive,3916
thumbs,3917
thusfar,3918
ti,3919
tiff,3920
tightly,3921
tigt,3922
till,3923
tilt,3924
tilted,3925
time,3926
timely,3927
timers,3928
times,3929
tinker,3930
tiny,3931
tip,3932
tips,3933
tire,3934
title,3935
titles,3936
tmobile,3937
tmobiles,3938
today,3939
toggle,3940
told,3941
toll,3942
tom,3943
tomorrow,3944
ton,3945
tonal,3946
tone,3947
tones,3948
tons,3949
took,3950
topnotch,3951
tops,3952
torture,3953
toshiba,3954
toshibas,3955
tossed,3956
total,3957
totally,3958
touch,3959
touched,3960
touchpad,3961
touchups,3962
tough,3963
toy,3964
tparsedthreedigits,3965
tparsedthreedigitsi,3966
track,3967
tracks,3968
trade,3969
tradeoff,3970
traditional,3971
train,3972
transfer,3973
transfered,3974
transferes,3975
transfering,3976
transferred,3977
transferring,3978
transfers,3979
transmitter,3980
transmitters,3981
transport,3982
trash,3983
travel,3984
traveling,3985
travelled,3986
travelling,3987
travesty,3988
tray,3989
treat,3990
tree,3991
tremendous,3992
trendy,3993
treo,3994
tri,3995
trial,3996
tricky,3997
tried,3998
tries,3999
trigger,4000
trilliums,4001
trip,4002
tripod,4003
trips,4004
trouble,4005
troubles,4006
troubleshooting,4007
troublesome,4008
truck,4009
true,4010
truly,4011
trumps,4012
trunk,4013
trust,4014
trusted,4015
try,4016
trying,4017
tune,4018
tunecast,4019
tuner,4020
tunes,4021
tungsten,4022
turn,4023
turnaround,4024
turned,4025
turning,4026
turns,4027
tv,4028
tvs,4029
tw,4030
twain,4031
tweaking,4032
tweakings,4033
twice,4034
twist,4035
txt,4036
type,4037
types,4038
typical,4039
typically,4040
typifies,4041
ugly,4042
ui,4043
uk,4044
ultimate,4045
ultimately,4046
ultra,4047
umm,4048
unable,4049
unacceptably,4050
unaccustomed,4051
unavailable,4052
unbearable,4053
unbeatable,4054
unbelievably,4055
uncertain,4056
unchangeable,4057
uncluttered,4058
uncomfortable,4059
uncomplicated,4060
unconventional,4061
uncreative,4062
undeliverable,4063
underestimate,4064
underrated,4065
underside,4066
understand,4067
understandable,4068
underutilized,4069
undone,4070
undoubtedly,4071
uneasy,4072
uneven,4073
unfortunately,4074
unforutnately,4075
unhappy,4076
unhelpful,4077
uninstalled,4078
unique,4079
unit,4080
units,4081
univ,4082
universal,4083
universally,4084
unless,4085
unlike,4086
unlimited,4087
unlisted,4088
unlock,4089
unlocked,4090
unlucky,4091
unmatched,4092
unnecessary,4093
unnerving,4094
unnoticed,4095
unplayable,4096
unpleasant,4097
unplugging,4098
unpredictable,4099
unproven,4100
unreservedly,4101
unsatisfactory,4102
unspecified,4103
unusable,4104
unwrapped,4105
update,4106
updated,4107
updates,4108
updating,4109
upgrade,4110
upgraded,4111
upgrading,4112
upload,4113
uploaded,4114
uploading,4115
uploads,4116
upper,4117
ups,4118
upstanding,4119
upto,4120
ur,4121
urban,4122
urgent,4123
usa,4124
usability,4125
usage,4126
usb,4127
use,4128
useable,4129
used,4130
useful,4131
useless,4132
user,4133
users,4134
uses,4135
using,4136
usual,4137
usually,4138
utility,4139
utilized,4140
utilizes,4141
utterly,4142
uv,4143
vacation,4144
vacationing,4145
valid,4146
valuable,4147
value,4148
vanished,4149
variable,4150
variables,4151
variety,4152
various,4153
vary,4154
varying,4155
vast,4156
vastly,4157
vbr,4158
vcd,4159
vcr,4160
ve,4161
vegas,4162
vendor,4163
verdict,4164
verify,4165
verizon,4166
versa,4167
versatile,4168
version,4169
versions,4170
versus,4171
veteran,4172
veterans,4173
viable,4174
vibrant,4175
vibrate,4176
vibration,4177
vice,4178
video,4179
videos,4180
view,4181
viewable,4182
viewed,4183
viewfinder,4184
viewing,4185
views,4186
viking,4187
virtually,4188
visa,4189
visable,4190
visceral,4191
visibility,4192
visible,4193
visiting,4194
visual,4195
vivid,4196
vmparsedfourdigits,4197
vob,4198
voice,4199
voids,4200
volkswagen,4201
volume,4202
voucher,4203
vs,4204
wait,4205
waited,4206
waiting,4207
wake,4208
waking,4209
walk,4210
walkman,4211
wall,4212
wallpaper,4213
wallpapers,4214
walls,4215
walmart,4216
wan,4217
want,4218
wanted,4219
wanting,4220
wants,4221
wap,4222
wardrobe,4223
warn,4224
warned,4225
warning,4226
warnings,4227
warrant,4228
warranty,4229
warrenty,4230
warrranty,4231
wary,4232
wash,4233
washed,4234
washing,4235
wasn,4236
wasnt,4237
wast,4238
waste,4239
wasted,4240
wat,4241
watch,4242
watched,4243
watching,4244
wave,4245
way,4246
ways,4247
wazoo,4248
wc,4249
weak,4250
weaknesses,4251
wear,4252
wears,4253
weather,4254
web,4255
website,4256
websites,4257
week,4258
weekdays,4259
weekend,4260
weekm,4261
weeks,4262
weighed,4263
weighs,4264
weight,4265
weighty,4266
weird,4267
weirdest,4268
went,4269
weren,4270
whatsoever,4271
whe,4272
wheel,4273
whichever,4274
whine,4275
whirl,4276
whistles,4277
white,4278
whoa,4279
wicked,4280
wide,4281
widely,4282
widescreen,4283
wife,4284
wildlife,4285
wildly,4286
willing,4287
willingness,4288
win,4289
winamp,4290
wind,4291
window,4292
windows,4293
winner,4294
winning,4295
winparsedtwodigits,4296
winter,4297
winxp,4298
wipe,4299
wiped,4300
wipes,4301
wireless,4302
wires,4303
wise,4304
wish,4305
wma,4306
women,4307
won,4308
wonder,4309
wonderful,4310
wondering,4311
wont,4312
word,4313
words,4314
work,4315
workaround,4316
worked,4317
workin,4318
working,4319
works,4320
workstation,4321
world,4322
worldphone,4323
worried,4324
worrying,4325
worse,4326
worst,4327
worth,4328
worthwhile,4329
worthwile,4330
woth,4331
wouldn,4332
wouldnt,4333
wound,4334
wow,4335
wowable,4336
wrist,4337
write,4338
writing,4339
written,4340
wrong,4341
wrote,4342
wwhhhrrr,4343
www,4344
xacto,4345
xmass,4346
xp,4347
xparsedthreedigits,4348
xparsedtwodigits,4349
xtra,4350
ya,4351
yeah,4352
year,4353
years,4354
yells,4355
yep,4356
yes,4357
yesterday,4358
yield,4359
yielded,4360
yo,4361
youd,4362
youre,4363
yoursound,4364
youve,4365
yup,4366
zeiss,4367
zen,4368
zenith,4369
zennx,4370
zens,4371
zero,4372
zillion,4373
zip,4374
zone,4375
zones,4376
zoom,4377
zoomed,4378
zooming,4379
zooms,4380
zx,4381
