ability,0
able,1
abroad,2
abrogated,3
absolute,4
absolutely,5
absurd,6
abundance,7
abuse,8
abused,9
accept,10
acceptable,11
acceptance,12
accepted,13
accident,14
accidentally,15
accidents,16
acclimatized,17
accomplishment,18
according,19
account,20
accountable,21
accrued,22
accumulation,23
accuracy,24
accurate,25
accusations,26
accusing,27
achieving,28
acid,29
acidparsedonedigit,30
acknowledges,31
act,32
acting,33
action,34
actions,35
activated,36
active,37
activist,38
activity,39
actor,40
acts,41
actual,42
actuality,43
actuall,44
actually,45
ad,46
adapt,47
adapted,48
add,49
added,50
addition,51
additional,52
additionally,53
address,54
addressed,55
addresses,56
adequately,57
adhd,58
adjustable,59
adjustments,60
administered,61
administration,62
admires,63
admission,64
admitted,65
adobe,66
adopt,67
ads,68
advance,69
advancing,70
advantage,71
advertising,72
aeroflop,73
aeroflot,74
affect,75
affected,76
afford,77
affordable,78
afghanistan,79
afp,80
afraid,81
africa,82
afterlife,83
afternoon,84
ag,85
age,86
aged,87
agenda,88
agendas,89
agents,90
ages,91
aggressive,92
agm,93
ago,94
agree,95
agreed,96
agreeing,97
ahaha,98
ahhhhhhhhhhhhhhhhhhhhhhhhhhhhhhhhhhhhhhhhhhhhhhhhhhhhh,99
aid,100
aids,101
air,102
airplane,103
aka,104
al,105
alaska,106
album,107
alcohol,108
alert,109
ales,110
alexx,111
alliance,112
allied,113
allies,114
allow,115
allowed,116
allows,117
alot,118
alternative,119
amazes,120
amazing,121
amazingly,122
ambulances,123
amendment,124
america,125
american,126
americans,127
ammunition,128
amnesty,129
amp,130
ana,131
analogies,132
analysis,133
analyst,134
analyzed,135
ancient,136
andrew,137
android,138
angeles,139
anger,140
angle,141
animal,142
animals,143
ankle,144
annoying,145
annul,146
anon,147
answer,148
answering,149
anti,150
antiquated,151
antiwar,152
anymore,153
anytime,154
aparsedtwodigits,155
apart,156
aphrodite,157
apocalypse,158
apologize,159
apology,160
apostrophe,161
app,162
appalled,163
apparently,164
appeal,165
appear,166
appearance,167
appears,168
appetite,169
applauded,170
apple,171
applications,172
applied,173
apply,174
approach,175
approaching,176
appropriately,177
approval,178
apps,179
april,180
aprobation,181
apt,182
arab,183
arabia,184
arabians,185
archie,186
architechts,187
area,188
aren,189
arguing,190
argument,191
arise,192
arizona,193
arms,194
array,195
arrested,196
arrow,197
article,198
articles,199
artificially,200
artsy,201
asap,202
ascii,203
ashamed,204
ashcroft,205
aside,206
ask,207
asks,208
asm,209
aspen,210
ass,211
assaulting,212
assembly,213
assertion,214
assessments,215
assets,216
assholes,217
associate,218
associated,219
association,220
assume,221
assuming,222
assure,223
asthma,224
astley,225
astounds,226
athlete,227
athletic,228
atm,229
atom,230
attached,231
attack,232
attacked,233
attacking,234
attacks,235
attatched,236
attempt,237
attending,238
attention,239
attic,240
aud,241
audience,242
aus,243
australia,244
australian,245
authentication,246
author,247
authorities,248
authority,249
authors,250
auto,251
automatically,252
av,253
available,254
average,255
aviator,256
avoid,257
avoided,258
avowed,259
award,260
awards,261
aware,262
away,263
awesome,264
awesoome,265
awkward,266
awol,267
awwwwww,268
ayway,269
az,270
babe,271
baby,272
background,273
backs,274
backwards,275
bacon,276
bacteria,277
bad,278
badass,279
badly,280
bag,281
bags,282
bail,283
bailout,284
bailouts,285
baiting,286
balances,287
bale,288
balk,289
ball,290
balls,291
ballz,292
ban,293
bands,294
bandwagon,295
bandwidth,296
bank,297
bankers,298
banking,299
banks,300
banned,301
banning,302
bans,303
bar,304
barbarians,305
barely,306
bargain,307
baron,308
barracks,309
barrel,310
barry,311
base,312
baseball,313
based,314
basement,315
basic,316
basically,317
basics,318
basis,319
bastard,320
bastardizing,321
batshit,322
batteries,323
battery,324
battle,325
battlestar,326
bbc,327
beach,328
beam,329
bear,330
beat,331
beatings,332
bed,333
beds,334
beenthe,335
beer,336
beers,337
beethoven,338
beg,339
begets,340
begin,341
begining,342
behave,343
behaves,344
behavior,345
beholden,346
beings,347
belief,348
believability,349
believe,350
believes,351
bell,352
belly,353
belt,354
belts,355
bench,356
benefits,357
benifits,358
benign,359
benjamin,360
bent,361
benz,362
best,363
bested,364
bestiality,365
bet,366
beta,367
betcha,368
better,369
bible,370
biden,371
bidgtls,372
big,373
bigger,374
biggest,375
billion,376
billions,377
bills,378
binary,379
bird,380
birds,381
bisexual,382
bit,383
bitch,384
bitching,385
bite,386
bj,387
black,388
blackface,389
blame,390
blamed,391
blamefor,392
blames,393
bleed,394
blemish,395
blessed,396
blew,397
blind,398
blinded,399
blindly,400
bliss,401
bll,402
blog,403
blogpost,404
blogs,405
blogspam,406
bloom,407
blowhards,408
blue,409
bluemotion,410
blurred,411
board,412
boat,413
boating,414
boatload,415
bobby,416
bodies,417
body,418
bogus,419
bollocks,420
bollywood,421
bomb,422
bombing,423
boner,424
bong,425
bonus,426
book,427
bookmarked,428
books,429
border,430
bored,431
borg,432
born,433
boss,434
bosworth,435
bother,436
bothered,437
bought,438
bounce,439
bounds,440
bovine,441
bowtie,442
box,443
boy,444
bparsedtwodigitsc,445
bparsedtwodigitsm,446
brad,447
bragged,448
brain,449
brave,450
braves,451
bravo,452
break,453
breaking,454
breaks,455
breakthroughs,456
breeding,457
brewers,458
bribe,459
brick,460
briefcase,461
briefly,462
bright,463
bring,464
bringing,465
brings,466
broke,467
broken,468
brother,469
brothers,470
browser,471
browsers,472
brute,473
bs,474
btw,475
bubble,476
bubbles,477
bucks,478
budget,479
buffet,480
bug,481
build,482
builder,483
builders,484
building,485
built,486
bullets,487
bullshit,488
bum,489
bumble,490
bunch,491
bundle,492
bunker,493
buried,494
buries,495
burn,496
burning,497
burried,498
burrito,499
burrying,500
bury,501
bush,502
business,503
businesses,504
businessman,505
bust,506
busted,507
butt,508
butts,509
buy,510
buyers,511
buying,512
bypass,513
ca,514
cabinet,515
cafeteria,516
cage,517
cahoots,518
cali,519
calibrated,520
california,521
called,522
calls,523
cambodia,524
camcorder,525
came,526
camel,527
camera,528
caminiti,529
camp,530
campaign,531
camps,532
cancel,533
cancer,534
cannabis,535
canseco,536
cap,537
capable,538
capitalism,539
capitalization,540
caps,541
captain,542
car,543
carbon,544
card,545
cardinals,546
care,547
career,548
careful,549
cares,550
carmen,551
carnival,552
carry,553
carrying,554
cars,555
cartridge,556
case,557
cases,558
cash,559
cashparsedonedigitgold,560
cat,561
catastrophic,562
catch,563
catchup,564
catechism,565
categorically,566
category,567
catholic,568
cats,569
caught,570
cause,571
caused,572
causes,573
causing,574
ce,575
celebrity,576
cell,577
cellphones,578
census,579
cent,580
centigrade,581
centrist,582
cents,583
century,584
certain,585
certainly,586
certainty,587
certifiable,588
certified,589
chad,590
chain,591
chair,592
chairman,593
challenging,594
champion,595
chance,596
chances,597
change,598
changes,599
changing,600
channels,601
character,602
characteristic,603
charge,604
charged,605
charger,606
chargers,607
charges,608
chastise,609
cheap,610
cheaper,611
cheated,612
cheaters,613
cheating,614
check,615
checker,616
cheer,617
cheers,618
chemical,619
chemically,620
cheney,621
chernobyl,622
chew,623
chicago,624
chickens,625
chief,626
child,627
childish,628
children,629
chimp,630
chimps,631
chinese,632
choice,633
choose,634
chosen,635
christ,636
christian,637
christianity,638
christians,639
christmas,640
christopher,641
church,642
churches,643
cia,644
circumstances,645
citations,646
cite,647
cities,648
citizen,649
citizens,650
city,651
civil,652
civilians,653
claim,654
claimed,655
claiming,656
class,657
classes,658
classic,659
classify,660
claus,661
clause,662
clean,663
cleaned,664
clear,665
clearly,666
clever,667
click,668
clicks,669
client,670
clients,671
climate,672
clinical,673
clinton,674
close,675
closed,676
closing,677
clothes,678
cloud,679
clown,680
clowns,681
club,682
clump,683
coal,684
coalition,685
cocaine,686
cockcroft,687
cockmeats,688
cocks,689
cocksuckers,690
code,691
codes,692
cofee,693
coffee,694
coherent,695
coincidence,696
coke,697
cokehead,698
colar,699
cold,700
collapse,701
collect,702
collection,703
college,704
colombiano,705
com,706
combinations,707
comcast,708
come,709
comedy,710
comes,711
comfort,712
comforting,713
comic,714
coming,715
comment,716
commentary,717
commented,718
commenting,719
comments,720
commercials,721
commericals,722
commit,723
commodity,724
common,725
communicate,726
communist,727
communists,728
communities,729
community,730
companies,731
company,732
comparable,733
compared,734
comparison,735
compass,736
compassion,737
compensate,738
compete,739
competent,740
competition,741
competitive,742
compile,743
compiles,744
complain,745
complaining,746
complains,747
complaints,748
complete,749
completely,750
compliance,751
complicated,752
complicating,753
composed,754
composite,755
comprehend,756
comprehension,757
comprised,758
compromise,759
compromised,760
computer,761
concept,762
concerned,763
concerning,764
conclusion,765
conclusive,766
condemning,767
condition,768
conditions,769
conduct,770
confederate,771
confidence,772
confident,773
configuration,774
confirmed,775
confirms,776
confiscated,777
conflict,778
confused,779
confusing,780
congratulations,781
congregate,782
congregation,783
congress,784
conjuring,785
connections,786
connects,787
consensus,788
consequence,789
consequences,790
conservative,791
conservatives,792
consider,793
considerable,794
considered,795
considering,796
considers,797
consistently,798
console,799
conspiracy,800
constant,801
constituents,802
constitutes,803
constitution,804
constitutionality,805
construction,806
consumer,807
consumption,808
contact,809
contained,810
containing,811
content,812
contests,813
context,814
continually,815
continue,816
continues,817
contracts,818
contradictory,819
contribute,820
contributes,821
contribution,822
control,823
controlled,824
controlling,825
controversial,826
controversy,827
conveniently,828
convert,829
converted,830
convicted,831
conviction,832
convictions,833
cool,834
cooler,835
coordination,836
cop,837
coparsedonedigit,838
copies,839
cops,840
copulating,841
copy,842
copying,843
copyright,844
copyrighted,845
copywritten,846
corel,847
cornerstone,848
corporate,849
corporates,850
corporations,851
correct,852
corrected,853
correctly,854
corrupt,855
corruption,856
corwin,857
cost,858
costs,859
costume,860
couch,861
couldn,862
counsel,863
counterparts,864
countries,865
country,866
county,867
couple,868
coupling,869
course,870
courses,871
court,872
courtesy,873
cover,874
coverage,875
covers,876
cowsay,877
crack,878
cracked,879
craft,880
crap,881
crash,882
crashing,883
crate,884
crazy,885
cream,886
create,887
created,888
creating,889
creative,890
creatures,891
credit,892
creditor,893
credits,894
creed,895
crime,896
crimes,897
criminal,898
criminals,899
criticize,900
critics,901
crook,902
cross,903
crowd,904
crucifixion,905
cruelty,906
crying,907
cuba,908
cue,909
culprits,910
cult,911
cultural,912
culture,913
cunts,914
cup,915
curb,916
cure,917
curing,918
currency,919
current,920
currently,921
curse,922
curtain,923
curtis,924
curve,925
custom,926
cut,927
cute,928
cuts,929
cycle,930
cycles,931
cyprots,932
daft,933
dagger,934
daily,935
dal,936
damage,937
damn,938
damned,939
dance,940
dangerous,941
darcine,942
dark,943
darkshroud,944
darth,945
darwinism,946
daschle,947
data,948
david,949
day,950
days,951
dc,952
dea,953
dead,954
deadpan,955
deaf,956
deal,957
dealers,958
deals,959
dear,960
death,961
deaths,962
debate,963
debated,964
debt,965
december,966
decent,967
decide,968
decided,969
decision,970
decisions,971
declare,972
declared,973
decrease,974
deduct,975
deep,976
deeper,977
default,978
defective,979
defendent,980
defense,981
deficit,982
deficits,983
defined,984
definitely,985
deformities,986
defunct,987
degree,988
degrees,989
delete,990
deliberately,991
deliver,992
dell,993
dem,994
demand,995
demanding,996
demands,997
demint,998
democracy,999
democrat,1000
democratic,1001
democrats,1002
demoed,1003
dems,1004
denied,1005
denier,1006
denis,1007
department,1008
departments,1009
depends,1010
deployment,1011
depravity,1012
depreciation,1013
depressed,1014
depression,1015
deprogrammed,1016
described,1017
deserves,1018
deserving,1019
design,1020
desirable,1021
desire,1022
desires,1023
desks,1024
desperate,1025
desperately,1026
despite,1027
destroy,1028
destroyed,1029
destroying,1030
destruction,1031
detective,1032
determined,1033
detour,1034
detroit,1035
devalue,1036
developer,1037
developing,1038
development,1039
device,1040
devices,1041
devised,1042
devoted,1043
dhs,1044
diagnosed,1045
dialing,1046
dick,1047
dickhead,1048
did,1049
didn,1050
didnt,1051
die,1052
difference,1053
different,1054
difficult,1055
difficulties,1056
dig,1057
digg,1058
digger,1059
diggers,1060
digging,1061
diggs,1062
digital,1063
diminutive,1064
dimona,1065
dinosaur,1066
directed,1067
directly,1068
directors,1069
directory,1070
dirty,1071
disabled,1072
disagree,1073
disappear,1074
disappeared,1075
disappointed,1076
discipline,1077
disclosing,1078
discourse,1079
discover,1080
discovered,1081
discrimination,1082
discriminatory,1083
discuss,1084
discussed,1085
discussion,1086
disease,1087
diseases,1088
disgrace,1089
disgusting,1090
disordered,1091
disorders,1092
displayed,1093
disputes,1094
disqualification,1095
disregard,1096
distracted,1097
distribute,1098
distributed,1099
distributes,1100
distribution,1101
disturbing,1102
diverging,1103
diversity,1104
divinity,1105
division,1106
dns,1107
doable,1108
doccasionally,1109
doccers,1110
doctor,1111
doctors,1112
doctrine,1113
document,1114
documentaries,1115
documentary,1116
documented,1117
does,1118
doesn,1119
dog,1120
dogs,1121
doing,1122
doings,1123
dollar,1124
dollars,1125
doma,1126
domain,1127
domains,1128
domestic,1129
domesticated,1130
domination,1131
don,1132
dont,1133
doom,1134
door,1135
doors,1136
doosh,1137
dope,1138
doses,1139
double,1140
doubt,1141
douche,1142
douchebag,1143
dough,1144
downey,1145
download,1146
downloading,1147
downloads,1148
dozen,1149
dp,1150
dragon,1151
drastic,1152
draw,1153
drawer,1154
dream,1155
dress,1156
drink,1157
drinker,1158
drinking,1159
drive,1160
drivel,1161
driven,1162
driver,1163
drivers,1164
drives,1165
driving,1166
drm,1167
drool,1168
drop,1169
dropped,1170
dropping,1171
drug,1172
drugs,1173
drunk,1174
dry,1175
ds,1176
duct,1177
dude,1178
dugg,1179
dugout,1180
dumb,1181
dumber,1182
dumbs,1183
dumbya,1184
dump,1185
dunno,1186
duplicate,1187
duplicates,1188
dust,1189
duty,1190
dvd,1191
dwindling,1192
dying,1193
eager,1194
earc,1195
early,1196
earned,1197
earnings,1198
earth,1199
ease,1200
easier,1201
easily,1202
east,1203
easy,1204
eat,1205
ebonics,1206
ebook,1207
ebooks,1208
echelons,1209
eclectic,1210
economic,1211
economics,1212
economists,1213
economy,1214
ecstasy,1215
ed,1216
edit,1217
editor,1218
editorial,1219
edmonds,1220
educated,1221
education,1222
eeepc,1223
effect,1224
effective,1225
effort,1226
efforts,1227
ego,1228
egypt,1229
ehhhhh,1230
elderly,1231
elected,1232
election,1233
electric,1234
electrical,1235
electronic,1236
elementary,1237
eligible,1238
ellis,1239
em,1240
email,1241
embargo,1242
embarrass,1243
embarrassment,1244
embarrassments,1245
emergency,1246
eminem,1247
emissions,1248
emmanuel,1249
emotional,1250
employed,1251
employees,1252
employers,1253
employment,1254
encarta,1255
encounter,1256
encourage,1257
encourages,1258
end,1259
ending,1260
endorsed,1261
ends,1262
energy,1263
enforced,1264
enforcement,1265
engaged,1266
engine,1267
engineering,1268
engineeringaficionado,1269
england,1270
english,1271
enhanced,1272
enhancement,1273
enjoy,1274
enjoyed,1275
enron,1276
ensure,1277
enthusiasm,1278
entire,1279
entirely,1280
entirety,1281
entrpeneur,1282
enviro,1283
environment,1284
ep,1285
epic,1286
episode,1287
equal,1288
equally,1289
equals,1290
equation,1291
equipment,1292
equivalent,1293
er,1294
erase,1295
ericsccparsedonedigitdemocrats,1296
erode,1297
errands,1298
errors,1299
escape,1300
especially,1301
essence,1302
essentially,1303
established,1304
estimate,1305
et,1306
ethanol,1307
ethics,1308
ethnic,1309
etiquette,1310
europeans,1311
evaporate,1312
evasion,1313
event,1314
events,1315
eventually,1316
evidence,1317
evidently,1318
evil,1319
evolution,1320
ex,1321
exact,1322
exacting,1323
exactly,1324
examined,1325
example,1326
examples,1327
excellent,1328
exceptional,1329
excesses,1330
excessive,1331
excuse,1332
execs,1333
execute,1334
executive,1335
executives,1336
exercise,1337
exhausted,1338
exhibitions,1339
exist,1340
existed,1341
existing,1342
exists,1343
exorbitant,1344
expect,1345
expectations,1346
expected,1347
expecting,1348
expense,1349
expenses,1350
expensive,1351
experience,1352
experiments,1353
explain,1354
explains,1355
explanation,1356
exploded,1357
explodes,1358
export,1359
exposed,1360
exposes,1361
express,1362
extended,1363
exterminated,1364
extinct,1365
extra,1366
extras,1367
extreme,1368
extremely,1369
extremes,1370
eye,1371
eyes,1372
fa,1373
face,1374
facebook,1375
faces,1376
facilities,1377
facility,1378
fact,1379
factor,1380
factors,1381
facts,1382
factually,1383
fag,1384
faggot,1385
fags,1386
fail,1387
failed,1388
failing,1389
fails,1390
failure,1391
fair,1392
fairly,1393
fake,1394
fallacy,1395
falls,1396
false,1397
families,1398
family,1399
fanboy,1400
fancy,1401
fannie,1402
fans,1403
fantastic,1404
fantasy,1405
fap,1406
fapping,1407
far,1408
farms,1409
fashion,1410
fast,1411
fastball,1412
faster,1413
fastest,1414
fat,1415
fatest,1416
fathers,1417
fatigue,1418
fault,1419
faults,1420
fauna,1421
favor,1422
favorite,1423
favorites,1424
favour,1425
favoured,1426
fear,1427
fears,1428
feasible,1429
feature,1430
features,1431
featuring,1432
fed,1433
federal,1434
fedex,1435
feed,1436
feeds,1437
feel,1438
feeling,1439
feels,1440
feet,1441
felines,1442
fella,1443
fellow,1444
felon,1445
felonies,1446
felt,1447
fema,1448
female,1449
females,1450
fertility,1451
fertilization,1452
fewer,1453
ff,1454
fffffsssorry,1455
ffs,1456
fiction,1457
field,1458
fight,1459
fighters,1460
fighting,1461
figure,1462
figured,1463
file,1464
files,1465
filetype,1466
filing,1467
filled,1468
fillion,1469
film,1470
filter,1471
filters,1472
final,1473
finally,1474
finances,1475
financial,1476
finding,1477
fine,1478
fing,1479
finish,1480
firearm,1481
firearms,1482
firebugs,1483
firefox,1484
fires,1485
firetrucks,1486
firm,1487
firms,1488
fiscal,1489
fist,1490
fix,1491
fixed,1492
fl,1493
flash,1494
flattery,1495
flavored,1496
flood,1497
flooded,1498
floods,1499
floor,1500
floppy,1501
flowers,1502
fly,1503
flyballs,1504
flying,1505
focus,1506
folks,1507
follow,1508
following,1509
food,1510
fool,1511
foolish,1512
foolishly,1513
foolishness,1514
fools,1515
football,1516
footprint,1517
force,1518
forced,1519
forces,1520
ford,1521
forecefully,1522
foreign,1523
forensic,1524
forest,1525
forever,1526
forfeit,1527
forget,1528
forgive,1529
forklift,1530
forks,1531
form,1532
format,1533
formats,1534
formatted,1535
fortunately,1536
forums,1537
forward,1538
fossil,1539
fought,1540
foul,1541
founding,1542
fox,1543
fp,1544
fparsedonedigit,1545
frame,1546
franklin,1547
fraud,1548
freak,1549
freakin,1550
freddie,1551
free,1552
freedom,1553
freely,1554
frequently,1555
freudian,1556
friend,1557
friends,1558
frontpage,1559
frost,1560
frowns,1561
fta,1562
ftp,1563
fu,1564
fuck,1565
fucked,1566
fuckin,1567
fucking,1568
fucktard,1569
fuel,1570
fuels,1571
fulfill,1572
fully,1573
fun,1574
function,1575
functioning,1576
functions,1577
fundamental,1578
funding,1579
funds,1580
fungi,1581
fungieparsedonedigit,1582
funnier,1583
funny,1584
furious,1585
fusion,1586
future,1587
futuristic,1588
fuuuuuuuuuuuuuuuuuuuuuuuuuuuuuuuckwatch,1589
fuzzy,1590
fæces,1591
gain,1592
gained,1593
gains,1594
galactica,1595
gallon,1596
gamble,1597
game,1598
games,1599
gamevee,1600
gaming,1601
ganged,1602
gaqua,1603
gas,1604
gate,1605
gates,1606
gather,1607
gave,1608
gay,1609
gbvista,1610
gdp,1611
gear,1612
gee,1613
geek,1614
general,1615
generalizing,1616
generally,1617
generated,1618
generation,1619
genitalia,1620
genitals,1621
genius,1622
genuine,1623
geo,1624
geoblocking,1625
german,1626
germans,1627
germany,1628
gestapo,1629
gets,1630
getting,1631
getup,1632
giants,1633
gifts,1634
gin,1635
girl,1636
girls,1637
given,1638
gives,1639
giving,1640
glad,1641
glasses,1642
global,1643
globe,1644
glowing,1645
gm,1646
gmail,1647
gneural,1648
goat,1649
goatee,1650
god,1651
goddamn,1652
goes,1653
goggles,1654
goin,1655
going,1656
gold,1657
golden,1658
gone,1659
gonna,1660
good,1661
goods,1662
google,1663
gop,1664
gorilla,1665
got,1666
gotta,1667
governed,1668
government,1669
gpparsedonedigitx,1670
grabber,1671
grad,1672
grades,1673
graduate,1674
grammar,1675
grand,1676
grandparents,1677
grandstanding,1678
granny,1679
grant,1680
granted,1681
grants,1682
grasp,1683
great,1684
greatest,1685
greed,1686
greedy,1687
green,1688
greeter,1689
gregg,1690
grievance,1691
gross,1692
ground,1693
group,1694
groups,1695
grow,1696
growing,1697
grown,1698
grows,1699
gsp,1700
guard,1701
guess,1702
guilty,1703
guitar,1704
gump,1705
gun,1706
guns,1707
guy,1708
guys,1709
ha,1710
habit,1711
hack,1712
hackers,1713
hacks,1714
hah,1715
haha,1716
hahah,1717
hahahahaha,1718
hahahahi,1719
haircut,1720
half,1721
hall,1722
hamas,1723
hammer,1724
hand,1725
handed,1726
handicapped,1727
handing,1728
handle,1729
handling,1730
hang,1731
hannah,1732
happen,1733
happened,1734
happening,1735
happens,1736
happiness,1737
happy,1738
harbor,1739
harboring,1740
hard,1741
harder,1742
hardly,1743
hardware,1744
harmful,1745
harmless,1746
harness,1747
harrison,1748
harvard,1749
hasn,1750
hat,1751
hate,1752
hated,1753
hatred,1754
haven,1755
havent,1756
having,1757
hazard,1758
head,1759
headed,1760
headline,1761
heads,1762
headshot,1763
health,1764
healthcare,1765
healthier,1766
healthy,1767
heaps,1768
hear,1769
heard,1770
hears,1771
heart,1772
heath,1773
heavy,1774
heck,1775
hedge,1776
hefty,1777
heheh,1778
height,1779
held,1780
helicopter,1781
hell,1782
hello,1783
helluva,1784
helmsley,1785
help,1786
helping,1787
herbs,1788
hero,1789
heroes,1790
heroin,1791
herpes,1792
hes,1793
hey,1794
hezbollah,1795
hi,1796
hidden,1797
hide,1798
high,1799
higher,1800
highest,1801
highlights,1802
highly,1803
hijab,1804
hilarious,1805
hilariously,1806
hill,1807
hint,1808
hippocratic,1809
hiring,1810
history,1811
hit,1812
hitler,1813
hitters,1814
hmm,1815
hmmm,1816
hmo,1817
hmos,1818
hold,1819
holder,1820
holding,1821
hole,1822
holes,1823
hollywood,1824
holocaust,1825
holy,1826
home,1827
homeless,1828
homers,1829
homerun,1830
hominem,1831
homosexual,1832
homosexuality,1833
homosexuals,1834
honest,1835
honestly,1836
honesty,1837
honey,1838
honored,1839
hook,1840
hooker,1841
hoopla,1842
hooray,1843
hoot,1844
hope,1845
hopeless,1846
hoping,1847
horizon,1848
horizontal,1849
horizontally,1850
horrible,1851
horrific,1852
horror,1853
hospital,1854
hot,1855
hottest,1856
hour,1857
hours,1858
house,1859
houses,1860
housing,1861
houstonpress,1862
howard,1863
htc,1864
htpc,1865
hubris,1866
huffington,1867
huge,1868
human,1869
humanity,1870
hummers,1871
humor,1872
humorous,1873
hundreds,1874
hungry,1875
hunt,1876
hunter,1877
hurricane,1878
hurried,1879
hurt,1880
hurts,1881
husband,1882
hybrid,1883
hybrids,1884
hydro,1885
hype,1886
hypocrisy,1887
hysterical,1888
iajdsiofajsuparsedtwodigitsiparsedfivedigits,1889
ianal,1890
iasoparsedfourdigits,1891
icbms,1892
ice,1893
iceberg,1894
icon,1895
idea,1896
ideal,1897
ideals,1898
ideas,1899
identity,1900
ideology,1901
idiot,1902
idiotic,1903
idiots,1904
ifpa,1905
ignorance,1906
ignore,1907
ignored,1908
ignoring,1909
ii,1910
ilk,1911
illegal,1912
illness,1913
illnesses,1914
illogical,1915
im,1916
image,1917
imagery,1918
images,1919
imagine,1920
imbalance,1921
imho,1922
immigrants,1923
immortal,1924
immune,1925
immunity,1926
impact,1927
impared,1928
impartial,1929
impending,1930
implanting,1931
implement,1932
implemented,1933
important,1934
impose,1935
imposed,1936
impossible,1937
impressive,1938
improve,1939
improvements,1940
improving,1941
inaccuracy,1942
inaccurate,1943
inch,1944
inciting,1945
inclination,1946
include,1947
included,1948
includes,1949
including,1950
incoherent,1951
income,1952
incoming,1953
incorrect,1954
increase,1955
increased,1956
increases,1957
increasing,1958
incredible,1959
incredibly,1960
incumbents,1961
indefinitely,1962
independence,1963
independent,1964
indian,1965
indians,1966
indication,1967
individual,1968
individuals,1969
induces,1970
industrial,1971
industry,1972
ineligible,1973
infamous,1974
infection,1975
infections,1976
influence,1977
influences,1978
info,1979
information,1980
informative,1981
informed,1982
infrastructure,1983
infringe,1984
ing,1985
inhaling,1986
inherit,1987
inhofe,1988
initiative,1989
injure,1990
injured,1991
injury,1992
innings,1993
innnovators,1994
innocent,1995
innovation,1996
innovative,1997
input,1998
insane,1999
insecurities,2000
insignificant,2001
insignificantly,2002
insinuation,2003
inspections,2004
install,2005
installation,2006
installing,2007
installment,2008
instant,2009
instantly,2010
instead,2011
instinct,2012
institutions,2013
instruction,2014
insult,2015
insurance,2016
int,2017
integrate,2018
intelligence,2019
intelligent,2020
intelligentsia,2021
intend,2022
intense,2023
intensity,2024
interception,2025
interesting,2026
internal,2027
internet,2028
internets,2029
interpretation,2030
intervention,2031
interventionist,2032
intoxicated,2033
intrepidia,2034
intrinsic,2035
intro,2036
introduced,2037
introduction,2038
invade,2039
invaluable,2040
invented,2041
invest,2042
investigate,2043
investigated,2044
investigating,2045
investigation,2046
investment,2047
invisible,2048
invoked,2049
involved,2050
involvement,2051
involves,2052
iparsedthreedigits,2053
iphone,2054
ipod,2055
ipvparsedonedigit,2056
iq,2057
iran,2058
iranain,2059
iranian,2060
irish,2061
ironic,2062
irrational,2063
irrelevant,2064
irrelevent,2065
irresponsible,2066
irvine,2067
ish,2068
islam,2069
islamic,2070
island,2071
isn,2072
isnt,2073
isolate,2074
isps,2075
israel,2076
issue,2077
isyeah,2078
ivy,2079
ixam,2080
ixquick,2081
jack,2082
jackals,2083
jacket,2084
jail,2085
jakarta,2086
january,2087
japan,2088
japanese,2089
jason,2090
jealous,2091
jefferson,2092
jessica,2093
jesus,2094
jesusneverexisted,2095
jewish,2096
jews,2097
jfc,2098
jimmy,2099
jinandjuice,2100
job,2101
jobs,2102
jogging,2103
john,2104
join,2105
joined,2106
joke,2107
jokes,2108
jon,2109
joomla,2110
journalist,2111
journalists,2112
jr,2113
judge,2114
judging,2115
jumbo,2116
jump,2117
june,2118
junior,2119
junk,2120
jury,2121
just,2122
justice,2123
justices,2124
justification,2125
justify,2126
justifying,2127
juvenile,2128
kabbalah,2129
kanye,2130
karl,2131
kate,2132
katt,2133
kde,2134
keepers,2135
keeps,2136
keg,2137
kegs,2138
ken,2139
kenneth,2140
kenyans,2141
kept,2142
kerrigore,2143
ketchup,2144
kevin,2145
key,2146
keyboard,2147
keynesianism,2148
keys,2149
kick,2150
kicked,2151
kid,2152
kidd,2153
kidding,2154
kids,2155
kill,2156
killed,2157
killing,2158
killings,2159
kills,2160
kilo,2161
kimmel,2162
kind,2163
kinda,2164
kindergarten,2165
kindle,2166
kinds,2167
kingdom,2168
kinseyincanada,2169
kkk,2170
knew,2171
knock,2172
knocked,2173
know,2174
knowing,2175
knowingly,2176
knowledge,2177
known,2178
knows,2179
kool,2180
koranimals,2181
korea,2182
kotaku,2183
krause,2184
krazy,2185
kroeger,2186
krugman,2187
kung,2188
kyl,2189
lab,2190
labor,2191
labyrinth,2192
laced,2193
lack,2194
laid,2195
lake,2196
lamb,2197
lame,2198
land,2199
language,2200
languages,2201
lantern,2202
lap,2203
large,2204
largely,2205
largest,2206
larry,2207
lasers,2208
late,2209
lately,2210
later,2211
laugh,2212
laughable,2213
laughing,2214
laughter,2215
launched,2216
laundry,2217
law,2218
lawmakers,2219
lawn,2220
laws,2221
lawyers,2222
lay,2223
layer,2224
layoff,2225
ld,2226
leach,2227
leaches,2228
lead,2229
leaders,2230
leadership,2231
league,2232
leaked,2233
leaps,2234
learn,2235
learned,2236
leash,2237
leave,2238
leaves,2239
leaving,2240
ledger,2241
leed,2242
leeds,2243
leet,2244
left,2245
lefties,2246
leftist,2247
leftists,2248
leftost,2249
legal,2250
legalization,2251
legalize,2252
legalized,2253
legalizing,2254
legally,2255
legislation,2256
legislative,2257
legit,2258
lego,2259
legs,2260
lemur,2261
lenders,2262
lends,2263
leona,2264
leopard,2265
lesbians,2266
lessons,2267
lest,2268
let,2269
lets,2270
letting,2271
level,2272
levels,2273
lgbt,2274
li,2275
liar,2276
libel,2277
liberal,2278
liberties,2279
libs,2280
libtards,2281
licencing,2282
license,2283
licensed,2284
lie,2285
lies,2286
life,2287
lifehacker,2288
lift,2289
light,2290
like,2291
likely,2292
likeness,2293
likes,2294
lil,2295
limited,2296
limits,2297
limo,2298
lincoln,2299
line,2300
lines,2301
link,2302
linked,2303
links,2304
list,2305
listen,2306
listened,2307
listening,2308
lists,2309
literal,2310
literally,2311
little,2312
live,2313
lives,2314
living,2315
ll,2316
load,2317
loan,2318
loans,2319
local,2320
locally,2321
locked,2322
log,2323
logic,2324
logo,2325
logon,2326
lol,2327
lold,2328
lolwatdammit,2329
long,2330
longer,2331
longstanding,2332
look,2333
looked,2334
looking,2335
looks,2336
lookup,2337
lookups,2338
looses,2339
lord,2340
los,2341
lose,2342
loser,2343
losing,2344
loss,2345
losses,2346
lost,2347
lot,2348
lots,2349
lousy,2350
love,2351
loved,2352
loveless,2353
lovelyness,2354
loves,2355
low,2356
lowcountry,2357
lower,2358
lowering,2359
loyola,2360
luck,2361
lucky,2362
lucy,2363
lump,2364
lunch,2365
lying,2366
lyrics,2367
mac,2368
macbook,2369
macbooks,2370
machine,2371
machines,2372
macintosh,2373
madness,2374
mae,2375
mah,2376
mail,2377
maimed,2378
main,2379
maine,2380
mainstream,2381
maintenance,2382
major,2383
majoring,2384
majority,2385
make,2386
makers,2387
makes,2388
making,2389
malaria,2390
male,2391
malfunctioning,2392
malls,2393
man,2394
managed,2395
mandated,2396
mandates,2397
mandatory,2398
maniac,2399
manifesto,2400
manipulating,2401
mans,2402
mantra,2403
manufacture,2404
manufacturers,2405
marcia,2406
marginalizing,2407
marijuana,2408
market,2409
marketing,2410
marq,2411
marriage,2412
marriages,2413
married,2414
marry,2415
martinez,2416
marxism,2417
marxists,2418
mash,2419
mass,2420
massively,2421
master,2422
match,2423
mate,2424
material,2425
math,2426
matter,2427
matters,2428
maximum,2429
maybe,2430
mayer,2431
mayor,2432
mba,2433
mccain,2434
mcdonalds,2435
mcmansions,2436
mead,2437
meager,2438
mean,2439
meanie,2440
means,2441
meant,2442
measurement,2443
mechanical,2444
media,2445
medicaid,2446
medical,2447
medicare,2448
medication,2449
medications,2450
medicine,2451
meds,2452
meet,2453
meh,2454
mel,2455
melbourne,2456
meltdown,2457
members,2458
membership,2459
meme,2460
memorable,2461
memories,2462
memorization,2463
men,2464
mental,2465
mentality,2466
mentally,2467
mention,2468
mentioned,2469
merch,2470
merdieselnail,2471
merely,2472
mesmerizing,2473
mess,2474
message,2475
messed,2476
messiuh,2477
metal,2478
meth,2479
methanol,2480
method,2481
methods,2482
mets,2483
mexico,2484
michael,2485
microbiology,2486
microcosim,2487
microorganism,2488
microsecond,2489
microsoft,2490
mid,2491
middle,2492
mighty,2493
mike,2494
miknarf,2495
mile,2496
mileage,2497
military,2498
milk,2499
million,2500
millionaire,2501
millions,2502
mind,2503
minded,2504
minerals,2505
miners,2506
mini,2507
minimal,2508
minimizes,2509
minimum,2510
minnesota,2511
minor,2512
minority,2513
minute,2514
minutes,2515
mirrored,2516
miserable,2517
misguided,2518
misinterpret,2519
misleading,2520
misrepresenting,2521
miss,2522
missed,2523
missing,2524
mission,2525
mistake,2526
mistaken,2527
mmm,2528
moan,2529
moans,2530
mob,2531
mobile,2532
model,2533
modernization,2534
molester,2535
mom,2536
moment,2537
moms,2538
monarchy,2539
money,2540
mongers,2541
monitor,2542
monkeybusiness,2543
monster,2544
montana,2545
month,2546
months,2547
mootools,2548
moral,2549
morality,2550
morally,2551
morals,2552
moreso,2553
morning,2554
moron,2555
morons,2556
mortgage,2557
mortgages,2558
mother,2559
motherf,2560
motherfuckers,2561
mothers,2562
motion,2563
motivations,2564
motofone,2565
motorola,2566
mouths,2567
moved,2568
movement,2569
moveon,2570
movie,2571
movies,2572
moving,2573
mowe,2574
mozart,2575
mpaa,2576
mpparsedonedigit,2577
mpparsedonedigits,2578
mpxparsedthreedigits,2579
mrbabyman,2580
ms,2581
muahahahahaha,2582
muck,2583
mucking,2584
muhammad,2585
mumbai,2586
mumbo,2587
munchies,2588
muppets,2589
murder,2590
murdered,2591
murderous,2592
music,2593
muslim,2594
muslims,2595
mvc,2596
mweather,2597
mypc,2598
mystery,2599
mytown,2600
nah,2601
nail,2602
named,2603
nancy,2604
narcotics,2605
nathan,2606
nation,2607
national,2608
nationalist,2609
nationalization,2610
nationhood,2611
nations,2612
natives,2613
natural,2614
naturally,2615
nature,2616
nazi,2617
nearly,2618
necessarily,2619
necessary,2620
need,2621
needed,2622
needs,2623
negate,2624
negative,2625
negligible,2626
neighborhood,2627
neighborhoods,2628
neighbors,2629
neo,2630
net,2631
netted,2632
network,2633
networks,2634
new,2635
news,2636
newses,2637
newspapers,2638
newsworthy,2639
ng,2640
nice,2641
nicely,2642
niconiconico,2643
nietzsche,2644
night,2645
nightmare,2646
ninja,2647
nintendo,2648
nite,2649
nobel,2650
noble,2651
nodes,2652
nodparsedtwodigits,2653
noise,2654
nokia,2655
non,2656
nonconformist,2657
noob,2658
nooooo,2659
noooooo,2660
nope,2661
normal,2662
normally,2663
north,2664
northeast,2665
northwatuppa,2666
norton,2667
nose,2668
note,2669
nothingness,2670
notice,2671
notting,2672
noumuon,2673
noun,2674
novels,2675
november,2676
noxious,2677
nparsedthreedigits,2678
nsw,2679
ntfs,2680
nuclear,2681
nuke,2682
number,2683
numbers,2684
nut,2685
nutcases,2686
nuts,2687
nvidia,2688
nwo,2689
o_o,2690
o_parsedonedigit,2691
oak,2692
oaksterdam,2693
oath,2694
obam,2695
obama,2696
object,2697
objectively,2698
obligation,2699
obligatory,2700
obscure,2701
obvious,2702
obviously,2703
occasional,2704
occupation,2705
occurred,2706
ocean,2707
offending,2708
offensive,2709
offer,2710
office,2711
officers,2712
official,2713
oh,2714
ohshi,2715
oifdasparsedonedigitifasparsedthreedigits,2716
oil,2717
ok,2718
okay,2719
oklahoma,2720
old,2721
ones,2722
online,2723
onlywire,2724
ooh,2725
ooooooohhhhhhh,2726
op,2727
opelz,2728
open,2729
opened,2730
opens,2731
opera,2732
operating,2733
opinion,2734
opportunity,2735
oppose,2736
opposed,2737
opposing,2738
oprah,2739
opt,2740
opted,2741
optimally,2742
option,2743
options,2744
orange,2745
order,2746
ordinary,2747
oregon,2748
oregonian,2749
org,2750
orientation,2751
original,2752
os,2753
osama,2754
oscar,2755
osx,2756
ot,2757
oui,2758
outcome,2759
outcry,2760
outright,2761
outside,2762
overall,2763
overhaul,2764
overkill,2765
overload,2766
overpowered,2767
overreaction,2768
overthrow,2769
overtime,2770
overused,2771
owl,2772
owner,2773
owners,2774
owning,2775
owns,2776
pack,2777
package,2778
packaging,2779
packed,2780
packet,2781
packing,2782
padded,2783
page,2784
pages,2785
paid,2786
pair,2787
palin,2788
palmero,2789
palooza,2790
panda,2791
pandas,2792
pandering,2793
pandora,2794
pants,2795
paper,2796
paperwork,2797
par,2798
parachute,2799
paragraph,2800
parallel,2801
parent,2802
parents,2803
park,2804
parole,2805
parseddigits,2806
parseddigitsdparsedonedigitc,2807
parseddigitsebc,2808
parseddigitsjkasdaopd,2809
parsedfivedigits,2810
parsedfourdigits,2811
parsedfourdigitsathlon,2812
parsedfourdigitsoijdf,2813
parsedfourdigitswho,2814
parsedonedigit,2815
parsedonedigitchan,2816
parsedonedigitcparseddigitsa,2817
parsedonedigitd,2818
parsedonedigitdfparsedonedigit,2819
parsedonedigitebparsedonedigit,2820
parsedonedigitgw,2821
parsedonedigitst,2822
parsedonedigitth,2823
parsedonedigitx,2824
parsedthreedigits,2825
parsedthreedigitsd,2826
parsedthreedigitsk,2827
parsedthreedigitskz,2828
parsedthreedigitslbs,2829
parsedtime,2830
parsedtwodigits,2831
parsedtwodigitsaparsedonedigit,2832
parsedtwodigitsgb,2833
parsedtwodigitsgrand,2834
parsedtwodigitsk,2835
parsedtwodigitsmillion,2836
parsedtwodigitss,2837
particular,2838
particularly,2839
parties,2840
partisan,2841
partner,2842
partners,2843
parts,2844
party,2845
pass,2846
passed,2847
passenger,2848
passes,2849
passwindow,2850
password,2851
past,2852
pasteurization,2853
patently,2854
path,2855
pathetic,2856
patrick,2857
patriot,2858
patterns,2859
paul,2860
pawn,2861
pay,2862
paygrade,2863
payment,2864
payments,2865
pays,2866
pc,2867
pcp,2868
peace,2869
peaceful,2870
peaches,2871
pearl,2872
pedobears,2873
pedophiles,2874
peds,2875
peers,2876
pelosi,2877
pelt,2878
penalizes,2879
penalty,2880
penance,2881
penises,2882
people,2883
percent,2884
percentages,2885
perception,2886
perfect,2887
perfectly,2888
performed,2889
periods,2890
permanence,2891
permissible,2892
permissions,2893
perpetuates,2894
person,2895
persona,2896
personal,2897
personality,2898
personally,2899
persons,2900
perversity,2901
pet,2902
peter,2903
pets,2904
pgood,2905
ph,2906
pharma,2907
pharmaceutical,2908
phelps,2909
phone,2910
phones,2911
photo,2912
photos,2913
phrase,2914
physical,2915
physically,2916
pic,2917
picard,2918
picked,2919
picker,2920
pics,2921
picture,2922
pie,2923
piece,2924
pieces,2925
pills,2926
pilot,2927
pink,2928
pint,2929
pipe,2930
pirate,2931
pissed,2932
pissing,2933
pistol,2934
pitcher,2935
pitchers,2936
pitches,2937
pitching,2938
pitt,2939
place,2940
placement,2941
plain,2942
plan,2943
plane,2944
planet,2945
planets,2946
planning,2947
plant,2948
plants,2949
platform,2950
play,2951
played,2952
player,2953
players,2954
playing,2955
pleaded,2956
plenty,2957
plug,2958
plural,2959
plurality,2960
plus,2961
pm,2962
pnac,2963
pocket,2964
pocketbook,2965
pockets,2966
point,2967
points,2968
poison,2969
poisoning,2970
poitier,2971
pole,2972
poles,2973
police,2974
policy,2975
political,2976
politically,2977
politicians,2978
politiciansgo,2979
politics,2980
ponzi,2981
poor,2982
poorer,2983
pop,2984
popular,2985
population,2986
pork,2987
porn,2988
pornography,2989
portion,2990
position,2991
positions,2992
possession,2993
possessive,2994
possible,2995
possibly,2996
post,2997
posted,2998
poster,2999
posting,3000
postponed,3001
pot,3002
potentially,3003
potheads,3004
pounds,3005
power,3006
powerful,3007
pox,3008
ppl,3009
practical,3010
practice,3011
practiced,3012
practicing,3013
praying,3014
pre,3015
preaching,3016
precedent,3017
precisely,3018
predicting,3019
preference,3020
preferential,3021
pregnant,3022
preinstalled,3023
premise,3024
premiums,3025
preparation,3026
present,3027
presented,3028
preserve,3029
presidency,3030
president,3031
press,3032
presses,3033
pretend,3034
pretends,3035
pretty,3036
prevent,3037
previous,3038
price,3039
prices,3040
prick,3041
priest,3042
primarily,3043
principles,3044
print,3045
printed,3046
printing,3047
prior,3048
priority,3049
prison,3050
prisoners,3051
prisons,3052
privacy,3053
private,3054
privately,3055
privilege,3056
prize,3057
pro,3058
probably,3059
probed,3060
problem,3061
problems,3062
probs,3063
procedures,3064
process,3065
procreate,3066
produce,3067
produced,3068
producer,3069
product,3070
production,3071
productive,3072
products,3073
professional,3074
professionally,3075
professors,3076
profit,3077
profitable,3078
profitactually,3079
profiteer,3080
program,3081
programs,3082
progress,3083
project,3084
projects,3085
prominent,3086
promise,3087
promised,3088
promotes,3089
promoting,3090
promotion,3091
proof,3092
prop,3093
propaganda,3094
propeller,3095
proper,3096
properly,3097
properties,3098
property,3099
prophet,3100
proponents,3101
proportion,3102
proposed,3103
props,3104
prosecution,3105
prosecutors,3106
prostitue,3107
prostitute,3108
protect,3109
protecting,3110
protectionism,3111
protein,3112
prove,3113
proved,3114
proven,3115
provide,3116
provided,3117
providing,3118
provision,3119
provisions,3120
proxies,3121
proxy,3122
ps,3123
psa,3124
pseudo,3125
psn,3126
psst,3127
psych,3128
psychiatric,3129
psychiatrist,3130
psycho,3131
psychological,3132
public,3133
publicity,3134
publicly,3135
pubs,3136
pudge,3137
pull,3138
pulled,3139
pulling,3140
punch,3141
pundits,3142
punished,3143
punishment,3144
purchases,3145
pure,3146
purse,3147
pursued,3148
pursuits,3149
push,3150
pushed,3151
pussy,3152
puts,3153
putting,3154
puzzle,3155
pv,3156
pyramid,3157
qld,3158
qm,3159
quakeholio,3160
quality,3161
quantities,3162
quantity,3163
quantum,3164
question,3165
questioned,3166
questioning,3167
questions,3168
quick,3169
quiet,3170
quit,3171
quite,3172
quote,3173
quoted,3174
qwest,3175
rabbit,3176
race,3177
racism,3178
racist,3179
radical,3180
raffled,3181
rafikichi,3182
raging,3183
rahm,3184
raids,3185
raise,3186
raised,3187
raising,3188
rajim,3189
ram,3190
ramen,3191
rampant,3192
ranch,3193
random,3194
range,3195
ranging,3196
ranked,3197
ranking,3198
rant,3199
ranting,3200
rape,3201
rapidly,3202
rarely,3203
rate,3204
rates,3205
rating,3206
rational,3207
raving,3208
ray,3209
reaction,3210
reactor,3211
read,3212
readable,3213
readers,3214
reading,3215
readjust,3216
ready,3217
real,3218
realise,3219
reality,3220
realize,3221
realized,3222
really,3223
reason,3224
reasonable,3225
reasonably,3226
reasons,3227
recall,3228
receive,3229
received,3230
receives,3231
receiving,3232
recent,3233
recently,3234
recession,3235
recipe,3236
recognise,3237
recognize,3238
record,3239
recorded,3240
recording,3241
records,3242
recover,3243
recovery,3244
red,3245
redeye,3246
reduce,3247
reduction,3248
reeve,3249
reference,3250
refers,3251
reflected,3252
refreshing,3253
refused,3254
regard,3255
regarding,3256
regardless,3257
regimes,3258
region,3259
regret,3260
regular,3261
regularly,3262
regulation,3263
rehabilitation,3264
reilly,3265
reinstate,3266
reinvestment,3267
rejected,3268
related,3269
relationship,3270
relatively,3271
release,3272
released,3273
releases,3274
relegated,3275
relevant,3276
relics,3277
relief,3278
religion,3279
religions,3280
religious,3281
reloading,3282
relying,3283
remains,3284
remaking,3285
remember,3286
reminded,3287
reminds,3288
remorse,3289
removal,3290
remove,3291
removed,3292
render,3293
rendition,3294
renegotiate,3295
renovate,3296
renovation,3297
renovations,3298
rent,3299
repair,3300
repayment,3301
repeal,3302
repealed,3303
repeat,3304
repeatedly,3305
replace,3306
replenished,3307
reports,3308
represent,3309
representation,3310
represents,3311
reproach,3312
reptilians,3313
republic,3314
republican,3315
republicans,3316
republicrats,3317
republithug,3318
requests,3319
require,3320
required,3321
requires,3322
rescue,3323
research,3324
reserve,3325
reserved,3326
resign,3327
resin,3328
resource,3329
resources,3330
respect,3331
responding,3332
response,3333
responsibility,3334
responsible,3335
rest,3336
restriction,3337
restrictions,3338
result,3339
results,3340
retarded,3341
retire,3342
retrace,3343
retribution,3344
return,3345
returned,3346
revealing,3347
revenge,3348
reverse,3349
reversing,3350
reviever,3351
review,3352
reviewer,3353
reviews,3354
revolt,3355
revolution,3356
rewarding,3357
riaa,3358
rib,3359
rich,3360
rick,3361
rid,3362
ridden,3363
ride,3364
ridiculous,3365
rifle,3366
rifles,3367
rig,3368
right,3369
rights,3370
rino,3371
rinse,3372
ripp,3373
rips,3374
rise,3375
risks,3376
rivals,3377
river,3378
roaches,3379
road,3380
roar,3381
robert,3382
robocop,3383
robotfindskitten,3384
robots,3385
robs,3386
rochester,3387
rock,3388
rocks,3389
rocky,3390
rodriguez,3391
roid,3392
role,3393
roll,3394
romance,3395
ron,3396
room,3397
root,3398
rope,3399
rose,3400
roughly,3401
roundup,3402
rove,3403
royalties,3404
rss,3405
rugburn,3406
ruined,3407
rule,3408
rulers,3409
rules,3410
run,3411
running,3412
runs,3413
rural,3414
rush,3415
russian,3416
rustproofing,3417
ruth,3418
ryan,3419
sacrifice,3420
sad,3421
sadly,3422
safari,3423
safe,3424
safely,3425
sahfaaari,3426
said,3427
sake,3428
salaries,3429
sales,3430
salt,3431
sand,3432
sandiego,3433
santa,3434
saps,3435
sarc,3436
sarcasm,3437
sarcasmi,3438
sarcastic,3439
satellite,3440
satisfied,3441
satisfy,3442
saudi,3443
save,3444
saving,3445
saw,3446
say,3447
sayglobal,3448
saying,3449
sayings,3450
says,3451
scale,3452
scam,3453
scandal,3454
scandinavia,3455
scarce,3456
scares,3457
scenario,3458
scene,3459
sceptical,3460
scheme,3461
schiff,3462
school,3463
schoolgirl,3464
schoolgirls,3465
schools,3466
schwarzy,3467
science,3468
scientifically,3469
scientists,3470
scientology,3471
scott,3472
scratching,3473
screen,3474
screw,3475
screwed,3476
scroll,3477
scumbag,3478
sea,3479
search,3480
searched,3481
season,3482
seat,3483
seated,3484
secessionist,3485
second,3486
secondly,3487
seconds,3488
secrecy,3489
secret,3490
secretary,3491
secrets,3492
sect,3493
sectarian,3494
section,3495
sector,3496
secure,3497
secured,3498
security,3499
seeing,3500
seen,3501
seinfeld,3502
seized,3503
selected,3504
selection,3505
self,3506
selfish,3507
sell,3508
sellers,3509
selling,3510
semi,3511
sen,3512
senate,3513
send,3514
senior,3515
sense,3516
sensible,3517
sensitivity,3518
sentence,3519
sentencing,3520
sentience,3521
seoul,3522
serendipitous,3523
seriously,3524
served,3525
server,3526
servers,3527
service,3528
services,3529
set,3530
setting,3531
settings,3532
seven,3533
seventy,3534
severe,3535
sex,3536
sexual,3537
sexually,3538
sexy,3539
sh,3540
shacknews,3541
shadows,3542
shady,3543
shall,3544
sham,3545
shame,3546
shaq,3547
share,3548
shared,3549
shareholders,3550
sharers,3551
shares,3552
sharing,3553
sharks,3554
sharpton,3555
sheep,3556
sheesh,3557
sheik,3558
sheriff,3559
shi,3560
shift,3561
shiny,3562
ship,3563
shit,3564
shitty,3565
shock,3566
shocking,3567
shoot,3568
shooting,3569
shoots,3570
shops,3571
short,3572
shortfall,3573
shot,3574
shotgun,3575
shoulders,3576
shouldn,3577
shout,3578
shouted,3579
shouts,3580
shove,3581
shoved,3582
showing,3583
shows,3584
shparsedonedigitts,3585
shrek,3586
shugashack,3587
shut,3588
shuttle,3589
sibel,3590
sick,3591
sickness,3592
sickthoughts,3593
sides,3594
sideswiped,3595
sift,3596
sighted,3597
sign,3598
signed,3599
significance,3600
significant,3601
significantly,3602
silence,3603
silk,3604
silly,3605
silver,3606
silverlight,3607
similar,3608
simple,3609
simply,3610
simpson,3611
simpsons,3612
singing,3613
single,3614
singular,3615
sink,3616
sir,3617
sirius,3618
site,3619
sites,3620
size,3621
skeptical,3622
skews,3623
skill,3624
skirt,3625
skittlesusamarket,3626
slammed,3627
slap,3628
slaughters,3629
slave,3630
slavery,3631
sleek,3632
sleep,3633
sleeves,3634
slept,3635
slice,3636
slideshows,3637
slightest,3638
slip,3639
slow,3640
slumdog,3641
slums,3642
small,3643
smallest,3644
smallpox,3645
smart,3646
smile,3647
smoke,3648
smoked,3649
smoking,3650
snake,3651
snakes,3652
snap,3653
sniper,3654
snobby,3655
snoobish,3656
snoopy,3657
soccer,3658
social,3659
socialblade,3660
socialist,3661
society,3662
sodade,3663
software,3664
solar,3665
sold,3666
soldiers,3667
solid,3668
solution,3669
solved,3670
somebody,3671
somethin,3672
somewhat,3673
sone,3674
song,3675
songs,3676
sony,3677
soon,3678
sooner,3679
sooni,3680
sooo,3681
soooo,3682
sorry,3683
sort,3684
sorts,3685
sosa,3686
soul,3687
sound,3688
sounds,3689
soundtrack,3690
source,3691
sourced,3692
sources,3693
south,3694
southern,3695
soviet,3696
space,3697
spamming,3698
spar,3699
sparing,3700
speak,3701
speaking,3702
speaks,3703
special,3704
specialized,3705
species,3706
specif,3707
specific,3708
specifically,3709
spectre,3710
speech,3711
speed,3712
speedo,3713
spell,3714
spend,3715
spending,3716
spends,3717
spendulous,3718
spent,3719
spewing,3720
spiral,3721
spite,3722
splains,3723
splicing,3724
split,3725
splitting,3726
spoiled,3727
spoiler,3728
spoils,3729
spoofed,3730
sport,3731
spread,3732
spreading,3733
sqeaking,3734
squad,3735
square,3736
squealing,3737
squeezing,3738
st,3739
stadiums,3740
staff,3741
stage,3742
stagflation,3743
stand,3744
standard,3745
standards,3746
standing,3747
standpoint,3748
stands,3749
stapp,3750
star,3751
stare,3752
start,3753
started,3754
starting,3755
starts,3756
starve,3757
starving,3758
stashed,3759
state,3760
stated,3761
statement,3762
statements,3763
staters,3764
states,3765
static,3766
station,3767
statistically,3768
status,3769
stay,3770
stays,3771
stds,3772
steal,3773
stealing,3774
stearns,3775
steel,3776
steger,3777
step,3778
stereotype,3779
stern,3780
steve,3781
steven,3782
stfu,3783
stick,3784
sticking,3785
stifled,3786
stimulates,3787
stimulative,3788
stimulus,3789
stinger,3790
stock,3791
stoner,3792
stones,3793
stoning,3794
stood,3795
stop,3796
stopped,3797
store,3798
stored,3799
storeowner,3800
stores,3801
stories,3802
story,3803
straight,3804
strains,3805
strange,3806
strap,3807
straps,3808
streaming,3809
street,3810
streetaddress,3811
streets,3812
strength,3813
stressed,3814
strictly,3815
strike,3816
strikeouts,3817
strikes,3818
string,3819
stripper,3820
strippers,3821
strong,3822
stronger,3823
strparsedonedigitfehe,3824
structure,3825
struggling,3826
stuck,3827
student,3828
students,3829
studied,3830
studies,3831
study,3832
stuff,3833
stupid,3834
style,3835
subconscious,3836
subject,3837
subjugation,3838
submission,3839
submissions,3840
submit,3841
submitted,3842
subs,3843
subsidies,3844
subsidise,3845
substance,3846
substantial,3847
substantially,3848
substitute,3849
subsumed,3850
subterranean,3851
subtleties,3852
subway,3853
success,3854
successful,3855
suck,3856
sucked,3857
sucks,3858
sudden,3859
suddenly,3860
sue,3861
sues,3862
suffer,3863
suggest,3864
suggestion,3865
suggests,3866
suicidal,3867
suicide,3868
sulphur,3869
sum,3870
summed,3871
sumo,3872
super,3873
superior,3874
superman,3875
supply,3876
support,3877
supported,3878
supporter,3879
supporters,3880
supports,3881
suppose,3882
supposed,3883
supposedly,3884
suppress,3885
sure,3886
surfaces,3887
surfstang,3888
surpass,3889
surprise,3890
surprised,3891
surprises,3892
surrender,3893
surrounded,3894
surveying,3895
suspect,3896
suspense,3897
swap,3898
swat,3899
swear,3900
sweat,3901
swig,3902
swim,3903
swinging,3904
swollen,3905
symbol,3906
sync,3907
systems,3908
tab,3909
table,3910
tactics,3911
taken,3912
takes,3913
taking,3914
tale,3915
talent,3916
taliban,3917
talk,3918
talked,3919
talking,3920
talks,3921
tank,3922
tanning,3923
tape,3924
tapes,3925
target,3926
targets,3927
tasteless,3928
taught,3929
tax,3930
taxes,3931
taxpayers,3932
tbh,3933
teachers,3934
teaches,3935
teaching,3936
teams,3937
technique,3938
technology,3939
techs,3940
teh,3941
tekhpoynt,3942
television,3943
tell,3944
tellin,3945
telling,3946
tells,3947
temperatures,3948
temporarily,3949
temporary,3950
tend,3951
tendencies,3952
tends,3953
tens,3954
term,3955
terminal,3956
terms,3957
terrible,3958
terroist,3959
terrorism,3960
test,3961
testimony,3962
tests,3963
texas,3964
text,3965
texting,3966
thank,3967
thanks,3968
thanparsedfourdigits,3969
thanx,3970
thats,3971
thc,3972
theater,3973
theaters,3974
theirs,3975
theme,3976
theory,3977
therapy,3978
therefor,3979
theres,3980
thet,3981
theyll,3982
thier,3983
thing,3984
things,3985
think,3986
thinking,3987
thinks,3988
thirds,3989
thirsty,3990
thomas,3991
thorazine,3992
thought,3993
thoughts,3994
thousand,3995
thousands,3996
thread,3997
threat,3998
threatened,3999
threatening,4000
threatens,4001
threesome,4002
throw,4003
throwing,4004
thrown,4005
thunder,4006
thunderbird,4007
tibetans,4008
ticket,4009
tickets,4010
tie,4011
tier,4012
tiger,4013
tight,4014
tilt,4015
time,4016
times,4017
timing,4018
tip,4019
titanic,4020
title,4021
tobacco,4022
today,4023
toilet,4024
told,4025
tolerate,4026
tomorrow,4027
tone,4028
tonnes,4029
took,4030
tool,4031
tor,4032
torn,4033
torrent,4034
torture,4035
torturing,4036
totally,4037
touchdown,4038
touched,4039
touching,4040
tough,4041
town,4042
tpb,4043
trace,4044
traced,4045
track,4046
tractors,4047
trade,4048
trading,4049
traditional,4050
traditionally,4051
traffic,4052
tragic,4053
trailer,4054
training,4055
trans,4056
transportation,4057
transsexual,4058
trap,4059
trappings,4060
trash,4061
travesty,4062
treasury,4063
treat,4064
treated,4065
treatment,4066
treatments,4067
treaty,4068
trend,4069
trendy,4070
trentadue,4071
trial,4072
trials,4073
tried,4074
tries,4075
trillion,4076
trolling,4077
trolls,4078
troop,4079
troops,4080
tropic,4081
trouble,4082
troubling,4083
trough,4084
truck,4085
true,4086
truly,4087
trust,4088
trusted,4089
truth,4090
truths,4091
try,4092
trying,4093
ts,4094
tty,4095
tubatechno,4096
tucker,4097
tune,4098
turbines,4099
turd,4100
turf,4101
turk,4102
turn,4103
turned,4104
turning,4105
turns,4106
tv,4107
twice,4108
twisted,4109
twisting,4110
twitter,4111
type,4112
types,4113
typical,4114
typing,4115
tyrants,4116
ugh,4117
ugly,4118
uhbama,4119
uhhh,4120
uk,4121
ultimately,4122
um,4123
umm,4124
unclaimed,4125
undead,4126
undercover,4127
underestimate,4128
undergrad,4129
undermines,4130
understand,4131
understandable,4132
understanding,4133
understood,4134
underway,4135
undistorted,4136
undoubtedly,4137
unemployed,4138
unfortunately,4139
unhappy,4140
unhealthy,4141
uni,4142
uniform,4143
unintended,4144
union,4145
unipolar,4146
unique,4147
unite,4148
united,4149
universal,4150
university,4151
unjust,4152
unknown,4153
unless,4154
unlike,4155
unlucky,4156
unmannedmissionhope,4157
unreasonable,4158
unstated,4159
untie,4160
update,4161
updates,4162
upgraded,4163
upgrading,4164
upheld,4165
uphill,4166
uploading,4167
upper,4168
ups,4169
upscale,4170
uptick,4171
usa,4172
usage,4173
use,4174
used,4175
useful,4176
useless,4177
user,4178
username,4179
users,4180
uses,4181
using,4182
usps,4183
usual,4184
usually,4185
utilizing,4186
utorrent,4187
utterly,4188
vacation,4189
vaccines,4190
vader,4191
vagina,4192
vague,4193
valentine,4194
valid,4195
value,4196
valued,4197
values,4198
vampires,4199
vandalism,4200
variety,4201
vase,4202
vast,4203
vastly,4204
ve,4205
vegas,4206
vehicle,4207
vehicles,4208
velocity,4209
vending,4210
venomous,4211
verb,4212
verses,4213
version,4214
versus,4215
vhs,4216
vibrating,4217
vicious,4218
victim,4219
victims,4220
victoria,4221
victory,4222
video,4223
view,4224
viewer,4225
viewing,4226
vigor,4227
vinegar,4228
violence,4229
violent,4230
virtual,4231
virtually,4232
virus,4233
visible,4234
visit,4235
visiting,4236
vista,4237
vitriolandangst,4238
vitro,4239
voice,4240
volt,4241
volunteering,4242
vote,4243
voted,4244
voters,4245
voyeur,4246
vw,4247
vying,4248
wait,4249
waited,4250
waiting,4251
wake,4252
walk,4253
walked,4254
walking,4255
walks,4256
wall,4257
wallpaper,4258
walls,4259
walmart,4260
wanna,4261
wannabes,4262
want,4263
wanted,4264
wanting,4265
wants,4266
war,4267
warming,4268
warning,4269
warrant,4270
warrants,4271
wars,4272
washington,4273
wasn,4274
waste,4275
wasted,4276
wasting,4277
watch,4278
watched,4279
watchin,4280
watching,4281
watchmen,4282
water,4283
watermelons,4284
wave,4285
way,4286
ways,4287
wazoo,4288
weak,4289
wealth,4290
weapons,4291
wear,4292
wears,4293
weather,4294
web,4295
webdesigners,4296
webkit,4297
webscriptions,4298
website,4299
websites,4300
wee,4301
weed,4302
week,4303
weekend,4304
weeks,4305
weighing,4306
weight,4307
weinbergnot,4308
weird,4309
welcome,4310
welcoming,4311
went,4312
weren,4313
west,4314
western,4315
whaaa,4316
whaaaa,4317
whacks,4318
whats,4319
whatsoever,4320
wheels,4321
whilst,4322
whiners,4323
whining,4324
whip,4325
whipped,4326
white,4327
whiteness,4328
whyve,4329
wicked,4330
wide,4331
widely,4332
wife,4333
wifi,4334
wii,4335
wiki,4336
wikipedia,4337
wild,4338
williams,4339
willing,4340
win,4341
wind,4342
winded,4343
window,4344
windows,4345
windy,4346
wine,4347
winge,4348
wings,4349
winmo,4350
winner,4351
winning,4352
winslet,4353
wipe,4354
wiretapping,4355
wise,4356
wish,4357
wishing,4358
witch,4359
withdrew,4360
withholds,4361
withstand,4362
wives,4363
woh,4364
wolfowitz,4365
woman,4366
women,4367
won,4368
wonder,4369
wonderful,4370
wondering,4371
wont,4372
woods,4373
woodsoh,4374
woodsparsedonedigit,4375
woooooo,4376
woot,4377
word,4378
wording,4379
words,4380
wore,4381
work,4382
worked,4383
working,4384
works,4385
world,4386
worlds,4387
worried,4388
worries,4389
worrisome,4390
worry,4391
worse,4392
worship,4393
worst,4394
worth,4395
worthless,4396
worthy,4397
wouldn,4398
wounds,4399
wow,4400
woz,4401
wparsedonedigit,4402
wrist,4403
write,4404
writer,4405
writers,4406
writers_guild_of,4407
written,4408
wrong,4409
wsads,4410
wtf,4411
wussy,4412
wwe,4413
xbox,4414
xdsorry,4415
xkcd,4416
xm,4417
xp,4418
xparsedonedigit,4419
xparsedthreedigits,4420
xvid,4421
xvparsedfourdigits,4422
ya,4423
yahoo,4424
yankees,4425
yapping,4426
yay,4427
yeah,4428
year,4429
years,4430
yeast,4431
yelling,4432
yelp,4433
yen,4434
yep,4435
yes,4436
yessss,4437
yesterday,4438
york,4439
young,4440
youre,4441
yummy,4442
zendezparsedonedigit,4443
zero,4444
zip,4445
zipline,4446
zog,4447
zombie,4448
zombies,4449
zoned,4450
zoo,4451
