abandoned,0
ability,1
able,2
abroad,3
abrogated,4
absolutely,5
absurd,6
abundance,7
abuse,8
abused,9
abuses,10
accept,11
acceptable,12
acceptance,13
accepted,14
access,15
accident,16
accidents,17
acclimatized,18
according,19
account,20
accountable,21
accrued,22
accuracy,23
accurate,24
accusations,25
accusing,26
accutane,27
acid,28
acidparsedonedigit,29
acorn,30
act,31
acting,32
action,33
actions,34
activated,35
active,36
activist,37
activities,38
activity,39
actor,40
acts,41
actual,42
actuality,43
actually,44
ad,45
adapt,46
adapted,47
add,48
added,49
adding,50
addition,51
additionally,52
address,53
addressed,54
addresses,55
adequately,56
adhd,57
admin,58
administration,59
administrative,60
admires,61
admission,62
admitted,63
adobe,64
adopt,65
ads,66
advance,67
advanced,68
advancing,69
advantage,70
advertising,71
aeroflop,72
aeroflot,73
affairs,74
affect,75
affected,76
afford,77
afghanistan,78
afp,79
afraid,80
africa,81
afterlife,82
afternoon,83
age,84
aged,85
agencies,86
agency,87
agenda,88
agendas,89
agents,90
ages,91
aggressive,92
agm,93
ago,94
agree,95
agreeing,96
agriculture,97
ahaha,98
ahh,99
ahhhhhhhhhhhhhhhhhhhhhhhhhhhhhhhhhhhhhhhhhhhhhhhhhhhhh,100
aid,101
aids,102
aim,103
air,104
airplane,105
aka,106
al,107
alaska,108
album,109
alcohol,110
alert,111
ales,112
alex,113
alexx,114
alittle,115
alliance,116
allied,117
allies,118
allow,119
allowed,120
allowing,121
allows,122
alot,123
alternate,124
alternative,125
amazes,126
amazing,127
amazingly,128
ambulances,129
amendment,130
america,131
american,132
americans,133
ammunition,134
amnesty,135
amp,136
amtrak,137
ana,138
analogies,139
analyzed,140
andrew,141
android,142
angeles,143
anger,144
angle,145
animal,146
animals,147
ankle,148
annoyances,149
annoying,150
annul,151
anon,152
answer,153
answering,154
anti,155
antiquated,156
antiwar,157
anymore,158
anytime,159
aparsedtwodigits,160
apart,161
aphrodite,162
apocalypse,163
apologize,164
apology,165
apostrophe,166
app,167
appalled,168
apparently,169
appeal,170
appear,171
appearance,172
appears,173
appetite,174
apple,175
applied,176
apply,177
appreciate,178
approach,179
approaching,180
approval,181
apps,182
april,183
aprobation,184
apt,185
arab,186
arabia,187
arabians,188
archie,189
architechts,190
area,191
aren,192
argue,193
arguing,194
argument,195
arizona,196
arlington,197
arms,198
array,199
arrested,200
arrestee,201
arresting,202
arrow,203
article,204
articles,205
artificial,206
artificially,207
artsy,208
asap,209
ascii,210
ashamed,211
ashcroft,212
aside,213
ask,214
asks,215
asm,216
aspen,217
ass,218
assaulting,219
assembly,220
assertion,221
assessments,222
assets,223
assholes,224
associate,225
assume,226
assuming,227
assure,228
asterisked,229
asthma,230
astley,231
astounds,232
atm,233
atmospheric,234
atom,235
atomic,236
attached,237
attack,238
attacked,239
attacking,240
attacks,241
attatched,242
attempt,243
attention,244
attic,245
aud,246
audience,247
authentication,248
author,249
authorities,250
authority,251
authorized,252
authorizes,253
authors,254
auto,255
automatically,256
automation,257
available,258
average,259
aviator,260
avoid,261
avoidance,262
avoided,263
avowed,264
award,265
awards,266
aware,267
away,268
awesome,269
awesoome,270
awkward,271
awol,272
ayway,273
az,274
babe,275
baby,276
background,277
backs,278
backwards,279
bacon,280
bacteria,281
bad,282
badass,283
badly,284
bag,285
bags,286
bail,287
bailout,288
bailouts,289
baiting,290
balances,291
bale,292
ball,293
balloon,294
balls,295
ballz,296
ban,297
bands,298
bandwagon,299
bandwidth,300
bank,301
bankers,302
banking,303
banks,304
banned,305
banner,306
banning,307
bans,308
bar,309
barbarians,310
barely,311
bargain,312
baron,313
barracks,314
barrel,315
barry,316
base,317
baseball,318
based,319
basement,320
basic,321
basically,322
basics,323
basis,324
bastard,325
bastardizing,326
batshit,327
batteries,328
battery,329
battle,330
battlestar,331
bbc,332
beach,333
beam,334
bear,335
beat,336
beatings,337
beautiful,338
bed,339
beds,340
beenthe,341
beer,342
beers,343
beethoven,344
begets,345
begin,346
begining,347
behave,348
behaves,349
beholden,350
believe,351
believes,352
bell,353
belly,354
belt,355
belts,356
bench,357
benefits,358
benifits,359
benign,360
benjamin,361
bent,362
benz,363
best,364
bested,365
bestiality,366
bet,367
beta,368
betcha,369
bethesda,370
better,371
bible,372
biden,373
bidgtls,374
biff,375
big,376
bigger,377
biggest,378
billion,379
billions,380
binary,381
bird,382
birds,383
bisexual,384
bit,385
bitch,386
bitching,387
bite,388
bittorent,389
bj,390
black,391
blackface,392
blacklabelsar,393
blame,394
blamed,395
blamefor,396
blanks,397
blast,398
bleed,399
blemish,400
blessed,401
blew,402
blind,403
blindly,404
bliss,405
bll,406
blog,407
blogpost,408
blogs,409
blogspam,410
bloom,411
blow,412
blowhards,413
blue,414
bluemotion,415
blurred,416
board,417
boat,418
boating,419
boatload,420
bobby,421
bodies,422
body,423
bogus,424
bollocks,425
bomb,426
bombing,427
bombula,428
boner,429
bong,430
bonus,431
book,432
bookmarked,433
books,434
border,435
bored,436
borg,437
borne,438
boss,439
bosworth,440
bother,441
bothered,442
bottle,443
bought,444
bounce,445
bounds,446
bovine,447
bowtie,448
box,449
boy,450
bparsedtwodigitsc,451
bparsedtwodigitsm,452
brad,453
bragged,454
brain,455
brains,456
brake,457
brandon,458
brave,459
braves,460
bravo,461
break,462
breaking,463
breaks,464
breakthroughs,465
breeding,466
brewers,467
bribe,468
brick,469
briefcase,470
briefly,471
bright,472
bring,473
bringing,474
brings,475
broke,476
broken,477
bros,478
brother,479
brothers,480
browser,481
browsers,482
bs,483
btw,484
bubble,485
bubbles,486
buchanan,487
bucks,488
budget,489
buffet,490
bug,491
buggers,492
build,493
builder,494
builders,495
building,496
buildings,497
built,498
bull,499
bullets,500
bullshit,501
bum,502
bumble,503
bunch,504
bundle,505
bunker,506
bureau,507
buried,508
buries,509
burn,510
burried,511
burrito,512
burrying,513
bury,514
bush,515
business,516
bust,517
busted,518
butt,519
butts,520
buy,521
buyers,522
buying,523
bypass,524
ca,525
cabinet,526
cafeteria,527
cage,528
cages,529
cali,530
calibrated,531
california,532
called,533
calls,534
cambodia,535
came,536
camel,537
camera,538
caminiti,539
camp,540
campaign,541
camps,542
canada,543
canals,544
cancel,545
cancer,546
candles,547
cannabis,548
canseco,549
cap,550
capable,551
capitalism,552
capitalization,553
caps,554
captain,555
capture,556
captured,557
car,558
carbon,559
carcinogens,560
card,561
cardinals,562
care,563
career,564
careful,565
cares,566
carry,567
carrying,568
cars,569
cartridge,570
case,571
cases,572
cash,573
cashparsedonedigitgold,574
casual,575
cat,576
catalog,577
catch,578
catchup,579
catechism,580
categorically,581
category,582
catering,583
catholic,584
cats,585
caught,586
cause,587
caused,588
causes,589
causing,590
ce,591
celebrity,592
cell,593
cellphones,594
cemetery,595
census,596
cent,597
center,598
centers,599
centigrade,600
centrist,601
cents,602
century,603
ceo,604
certain,605
certainly,606
certified,607
chad,608
chain,609
chairman,610
challenging,611
champion,612
chance,613
chances,614
change,615
changed,616
changes,617
changing,618
channels,619
character,620
characteristic,621
charge,622
charged,623
charger,624
chargers,625
charges,626
chastise,627
cheap,628
cheaper,629
cheated,630
cheaters,631
cheating,632
check,633
checker,634
cheer,635
cheers,636
chemical,637
chemically,638
cheney,639
cherry,640
chicago,641
chickens,642
chief,643
child,644
childish,645
children,646
chimp,647
chimps,648
china,649
chinese,650
choice,651
choose,652
chosen,653
christ,654
christian,655
christianity,656
christians,657
christmas,658
christopher,659
chuck,660
church,661
cia,662
circumstances,663
citations,664
cite,665
cites,666
cities,667
citizen,668
citizens,669
city,670
civil,671
civilians,672
claim,673
claimed,674
claiming,675
claptrap,676
class,677
classes,678
classic,679
classify,680
claus,681
clause,682
clean,683
cleaned,684
clear,685
clearly,686
clever,687
click,688
climate,689
climber,690
clinical,691
clinton,692
close,693
closed,694
closing,695
clothes,696
cloths,697
cloud,698
clown,699
clownhall,700
clowns,701
club,702
clump,703
clutters,704
coalition,705
cocaine,706
cockcroft,707
cockmeats,708
cocks,709
cocksuckers,710
code,711
codes,712
coherent,713
coincidence,714
coke,715
cokehead,716
colar,717
cold,718
collapse,719
collect,720
collection,721
college,722
colleges,723
colombiano,724
com,725
combinations,726
comcast,727
come,728
comedy,729
comes,730
comfort,731
comic,732
coming,733
comment,734
commentary,735
commented,736
commenting,737
comments,738
commercial,739
commericals,740
commit,741
committed,742
common,743
communicate,744
communist,745
communists,746
communities,747
community,748
companies,749
company,750
comparable,751
compared,752
comparison,753
compass,754
compassion,755
compensate,756
compete,757
competent,758
competition,759
competitive,760
compile,761
compiles,762
complain,763
complaining,764
complains,765
complaints,766
complete,767
completely,768
compliance,769
complicated,770
composite,771
comprehend,772
comprehension,773
comprised,774
compromise,775
compromised,776
computer,777
concept,778
concerned,779
concerning,780
concerns,781
conclusion,782
conclusive,783
condition,784
conditions,785
conduct,786
conducting,787
confederate,788
confidence,789
confident,790
configuration,791
confirmed,792
confirms,793
confiscated,794
conflict,795
confused,796
congratulations,797
congress,798
conjuring,799
connected,800
connections,801
consensus,802
consequence,803
consequences,804
conservative,805
conservatives,806
consider,807
considerable,808
considered,809
considering,810
consistently,811
console,812
constant,813
constituents,814
constitutes,815
constitution,816
constitutional,817
constitutionality,818
construct,819
constructing,820
construction,821
consumer,822
consumption,823
containing,824
content,825
continually,826
continue,827
continues,828
contracts,829
contradictory,830
contrary,831
contribute,832
contributes,833
contribution,834
control,835
controlled,836
controller,837
controlling,838
controversial,839
controversy,840
conveniently,841
convert,842
converted,843
convicted,844
conviction,845
convictions,846
cool,847
cooler,848
coordination,849
cop,850
coparsedonedigit,851
copies,852
cops,853
copulating,854
copy,855
copying,856
copyright,857
copyrighted,858
copywritten,859
corel,860
cornerstone,861
corollary,862
corporate,863
corporates,864
corporations,865
correct,866
corrected,867
correctly,868
corrupt,869
corruption,870
corwin,871
cost,872
costs,873
costume,874
couch,875
couldn,876
counsel,877
counterparts,878
countries,879
country,880
counts,881
county,882
couple,883
coupon,884
course,885
courses,886
court,887
courtesy,888
cover,889
coverage,890
covers,891
cowsay,892
crack,893
cracked,894
crap,895
crash,896
crashing,897
crate,898
crazy,899
cream,900
create,901
created,902
creating,903
creative,904
creativity,905
creatures,906
credibility,907
credit,908
creed,909
crime,910
crimes,911
criminal,912
criminals,913
critics,914
crook,915
cross,916
crowd,917
crucifixion,918
cruelty,919
crying,920
cuba,921
cue,922
culprits,923
cult,924
cultural,925
culture,926
cunts,927
cup,928
curb,929
cure,930
curing,931
currency,932
current,933
currently,934
curry,935
curse,936
curtain,937
curtis,938
curve,939
cut,940
cute,941
cuts,942
cycle,943
cycles,944
cyprots,945
daft,946
dagger,947
daily,948
dal,949
damage,950
damn,951
damned,952
dance,953
dangerous,954
darcine,955
dark,956
darth,957
darwinism,958
daschle,959
data,960
datum,961
david,962
day,963
days,964
dc,965
dea,966
dead,967
deadpan,968
deaf,969
deal,970
dealers,971
deals,972
dear,973
death,974
deaths,975
debate,976
debated,977
debt,978
december,979
decide,980
decided,981
decimate,982
decision,983
decisions,984
declare,985
declined,986
decrease,987
deep,988
deeper,989
default,990
defective,991
defendent,992
defense,993
deficits,994
defined,995
definitely,996
defunct,997
degree,998
degrees,999
delete,1000
deliberately,1001
deliver,1002
dell,1003
dem,1004
demand,1005
demanding,1006
demands,1007
democratic,1008
democrats,1009
dems,1010
denied,1011
denier,1012
denis,1013
dep,1014
department,1015
departments,1016
depends,1017
deployment,1018
depravity,1019
depreciation,1020
depression,1021
deprogrammed,1022
deserves,1023
deserving,1024
design,1025
desirable,1026
desire,1027
desires,1028
desks,1029
desperate,1030
desperately,1031
despite,1032
destroy,1033
destroyed,1034
destroying,1035
destruction,1036
detective,1037
determined,1038
detour,1039
devalue,1040
developer,1041
development,1042
device,1043
devices,1044
devious,1045
devised,1046
devoted,1047
dhs,1048
diagnosed,1049
dialing,1050
dick,1051
dickhead,1052
dickwad,1053
did,1054
didn,1055
didnt,1056
die,1057
difference,1058
different,1059
difficult,1060
difficulties,1061
dig,1062
digg,1063
digger,1064
diggers,1065
digging,1066
diggs,1067
digital,1068
diminutive,1069
dimona,1070
dinosaur,1071
directed,1072
direction,1073
directors,1074
directory,1075
dirty,1076
disability,1077
disabled,1078
disagree,1079
disappear,1080
disappeared,1081
disappointed,1082
discipline,1083
disclosing,1084
discourse,1085
discover,1086
discovered,1087
discrimination,1088
discuss,1089
discussed,1090
discussion,1091
disease,1092
diseases,1093
disgrace,1094
disgusting,1095
disordered,1096
disorders,1097
displayed,1098
disputes,1099
disregard,1100
dissident,1101
distribute,1102
distributes,1103
distribution,1104
disturbing,1105
diverging,1106
diversity,1107
dns,1108
doable,1109
doccasionally,1110
doccers,1111
doctor,1112
doctors,1113
doctrine,1114
documentaries,1115
documentary,1116
documented,1117
does,1118
doesn,1119
dog,1120
dogs,1121
doing,1122
doings,1123
dollar,1124
dollars,1125
doma,1126
domain,1127
domains,1128
domestic,1129
domesticated,1130
domination,1131
don,1132
dont,1133
doom,1134
door,1135
doors,1136
doosh,1137
dope,1138
doses,1139
double,1140
doubt,1141
douche,1142
douchebag,1143
dough,1144
downey,1145
download,1146
downloading,1147
downloads,1148
dozen,1149
dr,1150
draino,1151
drastic,1152
draw,1153
drawer,1154
dream,1155
dress,1156
drink,1157
drinker,1158
drinking,1159
drinks,1160
drive,1161
drivel,1162
driven,1163
driver,1164
drives,1165
driving,1166
drm,1167
drop,1168
dropped,1169
dropping,1170
drug,1171
drugs,1172
drumroll,1173
drunk,1174
dry,1175
ds,1176
dtv,1177
duct,1178
dude,1179
dugg,1180
dugout,1181
dumb,1182
dumber,1183
dumbs,1184
dumbya,1185
dump,1186
dunno,1187
duplicate,1188
duplicates,1189
dust,1190
duty,1191
dvd,1192
dying,1193
eager,1194
earc,1195
early,1196
earmark,1197
earned,1198
earnings,1199
earth,1200
easier,1201
easily,1202
easy,1203
eat,1204
ebonics,1205
ebooks,1206
echelons,1207
eclectic,1208
economic,1209
economics,1210
economists,1211
economy,1212
ed,1213
edit,1214
editor,1215
edmonds,1216
educated,1217
eeepc,1218
effect,1219
effective,1220
effects,1221
efficiency,1222
effort,1223
ego,1224
egypt,1225
ehhhhh,1226
elderly,1227
elected,1228
election,1229
electric,1230
electrical,1231
electronic,1232
elementary,1233
eligible,1234
eliminating,1235
ellis,1236
em,1237
email,1238
embargo,1239
embarrass,1240
embarrassment,1241
embarrassments,1242
emergency,1243
eminem,1244
emissions,1245
emmanuel,1246
emotional,1247
employed,1248
employees,1249
encounter,1250
encourage,1251
encourages,1252
end,1253
ending,1254
endorsed,1255
ends,1256
energy,1257
enforced,1258
enforcement,1259
engine,1260
england,1261
english,1262
enhanced,1263
enhancement,1264
enjoy,1265
enjoyed,1266
enron,1267
ensure,1268
enthusiasm,1269
entire,1270
entirely,1271
entirety,1272
entrenched,1273
entrpeneur,1274
enviro,1275
environment,1276
ep,1277
epic,1278
episode,1279
equal,1280
equally,1281
equals,1282
equation,1283
equipment,1284
equivalent,1285
er,1286
erase,1287
ericsccparsedonedigitdemocrats,1288
erode,1289
errands,1290
errors,1291
escape,1292
especially,1293
essentially,1294
established,1295
estimate,1296
et,1297
ethics,1298
ethnic,1299
etiquette,1300
europeans,1301
evaporate,1302
evasion,1303
event,1304
eventually,1305
everybody,1306
evidence,1307
evidently,1308
evil,1309
evolution,1310
ex,1311
exact,1312
exacting,1313
exactly,1314
examined,1315
example,1316
examples,1317
excellent,1318
exceptional,1319
excesses,1320
excessive,1321
excuse,1322
execs,1323
executable,1324
executive,1325
executives,1326
exhausted,1327
exist,1328
existed,1329
existing,1330
exists,1331
exorbitant,1332
expectations,1333
expected,1334
expecting,1335
expense,1336
expenses,1337
expensive,1338
experience,1339
experiments,1340
explain,1341
explains,1342
explanation,1343
exploded,1344
explodes,1345
export,1346
exposed,1347
exposes,1348
express,1349
extended,1350
exterminated,1351
extinct,1352
extra,1353
extras,1354
extreme,1355
extremely,1356
extremes,1357
eye,1358
eyes,1359
fa,1360
face,1361
facebook,1362
facepalm,1363
faces,1364
facilities,1365
facility,1366
fact,1367
factors,1368
facts,1369
factually,1370
fag,1371
faggot,1372
fags,1373
fail,1374
failed,1375
failing,1376
fails,1377
failure,1378
fair,1379
fairly,1380
fake,1381
fallacy,1382
falls,1383
false,1384
families,1385
family,1386
fan,1387
fanboy,1388
fancy,1389
fannie,1390
fans,1391
fantastic,1392
fantasy,1393
fantatics,1394
far,1395
fares,1396
farfromperfectx,1397
farm,1398
farms,1399
fashion,1400
fast,1401
fastball,1402
faster,1403
fastest,1404
fat,1405
fathers,1406
fatigue,1407
fault,1408
fauna,1409
faux,1410
favor,1411
favorite,1412
favoured,1413
fbi,1414
fear,1415
fears,1416
feasible,1417
feature,1418
features,1419
featuring,1420
feb,1421
fed,1422
federal,1423
fedex,1424
feed,1425
feeds,1426
feel,1427
feeling,1428
feels,1429
feet,1430
felines,1431
fella,1432
fellow,1433
felon,1434
felonies,1435
felt,1436
fema,1437
female,1438
females,1439
fertility,1440
fertilization,1441
fewer,1442
ff,1443
ffs,1444
fiction,1445
field,1446
fight,1447
fighting,1448
fights,1449
figure,1450
figured,1451
figuring,1452
file,1453
filetype,1454
filing,1455
filled,1456
fillion,1457
film,1458
filters,1459
final,1460
financial,1461
finding,1462
fine,1463
fing,1464
finger,1465
firearm,1466
firearms,1467
firebugs,1468
firefox,1469
firetrucks,1470
firm,1471
fiscal,1472
fish,1473
fix,1474
fl,1475
flash,1476
flashing,1477
flattery,1478
flavored,1479
flood,1480
flooded,1481
floor,1482
flowers,1483
fly,1484
flyballs,1485
flying,1486
focus,1487
folks,1488
follow,1489
following,1490
food,1491
fool,1492
foolish,1493
fools,1494
football,1495
footprint,1496
force,1497
forced,1498
forces,1499
forcing,1500
ford,1501
forecefully,1502
forehead,1503
foreign,1504
forensic,1505
forever,1506
forfeit,1507
forget,1508
forgive,1509
forklift,1510
forks,1511
form,1512
format,1513
formats,1514
fortunately,1515
forums,1516
forward,1517
fought,1518
foul,1519
founding,1520
fox,1521
foxit,1522
fp,1523
fparsedonedigit,1524
frame,1525
franklin,1526
fraud,1527
freak,1528
freakin,1529
freddie,1530
free,1531
freedom,1532
freely,1533
frequently,1534
freudian,1535
fridayparsedfourdigits,1536
friend,1537
friends,1538
frontpage,1539
frost,1540
fta,1541
fuck,1542
fucked,1543
fuckin,1544
fucking,1545
fucktard,1546
fuel,1547
fulfill,1548
fully,1549
fun,1550
function,1551
functioning,1552
fundamental,1553
funding,1554
fungi,1555
fungieparsedonedigit,1556
funnier,1557
funny,1558
furious,1559
furnish,1560
fusion,1561
future,1562
futuregen,1563
futuristic,1564
fuuuuuuuuuuuuuuuuuuuuuuuuuuuuuuuckwatch,1565
fuzzy,1566
fæces,1567
gaiden,1568
gained,1569
gains,1570
galactica,1571
galaxy,1572
gallon,1573
gamble,1574
game,1575
games,1576
gamevee,1577
gaming,1578
gaqua,1579
gas,1580
gate,1581
gates,1582
gather,1583
gave,1584
gay,1585
gbvista,1586
gdp,1587
gee,1588
geek,1589
geeze,1590
generalizing,1591
generally,1592
generated,1593
generation,1594
genitalia,1595
genitals,1596
genius,1597
genuine,1598
geoblocking,1599
german,1600
germans,1601
germany,1602
gestapo,1603
gets,1604
getting,1605
getup,1606
giants,1607
gift,1608
gifts,1609
gin,1610
girl,1611
girls,1612
given,1613
gives,1614
giving,1615
glad,1616
glasses,1617
glitz,1618
global,1619
globe,1620
glove,1621
glowing,1622
gm,1623
gmail,1624
gneural,1625
goal,1626
goat,1627
goatee,1628
god,1629
goddamn,1630
godwin,1631
goes,1632
goggles,1633
going,1634
gold,1635
golden,1636
goldmine,1637
gone,1638
gonna,1639
good,1640
goods,1641
google,1642
gop,1643
gorilla,1644
got,1645
gotta,1646
governed,1647
government,1648
gpparsedonedigitx,1649
grabber,1650
grad,1651
graduate,1652
grammar,1653
grand,1654
granny,1655
granted,1656
graphic,1657
grasp,1658
grateful,1659
great,1660
greatest,1661
greed,1662
greedy,1663
green,1664
greeter,1665
gregg,1666
grievance,1667
gross,1668
ground,1669
group,1670
groups,1671
grow,1672
growing,1673
grown,1674
grows,1675
gsp,1676
guard,1677
guess,1678
guilty,1679
guitar,1680
gulag,1681
gun,1682
guns,1683
guy,1684
guys,1685
ha,1686
habit,1687
hack,1688
hackers,1689
hacks,1690
hah,1691
haha,1692
hahah,1693
hahahahaha,1694
hahahahi,1695
hailed,1696
haircut,1697
half,1698
hall,1699
hamas,1700
hammer,1701
hand,1702
handed,1703
handicapped,1704
handle,1705
handles,1706
handling,1707
hang,1708
hannah,1709
happen,1710
happened,1711
happening,1712
happens,1713
happily,1714
happiness,1715
happy,1716
harbinger,1717
harbor,1718
harboring,1719
hard,1720
harder,1721
hardly,1722
hardware,1723
harmful,1724
harmless,1725
harness,1726
harrison,1727
harvard,1728
hasn,1729
hat,1730
hate,1731
hated,1732
hatred,1733
haven,1734
having,1735
hazard,1736
head,1737
headed,1738
headline,1739
headquarters,1740
heads,1741
headshot,1742
health,1743
healthcare,1744
healthier,1745
hear,1746
heard,1747
hearing,1748
heart,1749
heath,1750
heck,1751
hefty,1752
heheh,1753
height,1754
held,1755
helicopter,1756
hell,1757
hello,1758
helluva,1759
helmsley,1760
help,1761
helpful,1762
helping,1763
herbs,1764
heroes,1765
herpes,1766
hes,1767
hey,1768
hi,1769
hidden,1770
hide,1771
high,1772
higher,1773
highlights,1774
hijab,1775
hilarious,1776
hilariously,1777
hill,1778
hint,1779
hippocratic,1780
hiring,1781
history,1782
hit,1783
hitler,1784
hitters,1785
hmm,1786
hmmm,1787
hold,1788
holder,1789
holding,1790
hole,1791
holes,1792
holocaust,1793
holy,1794
home,1795
homeland,1796
homeless,1797
homers,1798
homerun,1799
hominem,1800
homosexual,1801
homosexuality,1802
homosexuals,1803
honest,1804
honestly,1805
honesty,1806
honey,1807
honored,1808
hook,1809
hooker,1810
hoopla,1811
hooray,1812
hoot,1813
hope,1814
hopeless,1815
hoping,1816
horizon,1817
horizontal,1818
horizontally,1819
horrible,1820
horrific,1821
horror,1822
hospital,1823
host,1824
hot,1825
hotel,1826
hour,1827
hours,1828
house,1829
houses,1830
housing,1831
houstonpress,1832
howard,1833
htc,1834
htpc,1835
hubris,1836
huffington,1837
huffingtonpost,1838
huge,1839
human,1840
humanitarian,1841
humanity,1842
hummers,1843
humor,1844
humorous,1845
hundreds,1846
hungry,1847
hunt,1848
hunter,1849
hurricane,1850
hurried,1851
hurt,1852
hurts,1853
husband,1854
hybrid,1855
hybrids,1856
hype,1857
hypocrisy,1858
hysterical,1859
iajdsiofajsuparsedtwodigitsiparsedfivedigits,1860
ianal,1861
iasoparsedfourdigits,1862
icbms,1863
ice,1864
iceberg,1865
icon,1866
idea,1867
ideal,1868
ideals,1869
ideas,1870
identity,1871
ideology,1872
idiot,1873
idiotic,1874
idiots,1875
ifpa,1876
ignorance,1877
ignored,1878
ignoring,1879
ii,1880
ilk,1881
illegal,1882
illinois,1883
illness,1884
illnesses,1885
im,1886
image,1887
imagery,1888
images,1889
imaginary,1890
imagine,1891
imbalance,1892
imho,1893
immigrants,1894
immortal,1895
immune,1896
immunity,1897
impact,1898
impared,1899
impartial,1900
impending,1901
implanting,1902
implement,1903
implemented,1904
import,1905
important,1906
impose,1907
impossible,1908
impressive,1909
improvement,1910
improving,1911
inaccuracy,1912
inaccurate,1913
inch,1914
inciting,1915
inclination,1916
include,1917
including,1918
incoherent,1919
income,1920
incoming,1921
inconvenienced,1922
incorrect,1923
increase,1924
increased,1925
increases,1926
increasingly,1927
incredible,1928
incredibly,1929
incumbents,1930
indefinitely,1931
independent,1932
indian,1933
indians,1934
indication,1935
individual,1936
individuals,1937
induces,1938
inducing,1939
industrial,1940
industry,1941
ineligible,1942
infamous,1943
infection,1944
infections,1945
inflation,1946
influence,1947
influences,1948
info,1949
information,1950
informative,1951
informed,1952
infrastructure,1953
infringe,1954
ing,1955
inhaling,1956
inherit,1957
inhofe,1958
initiative,1959
initiatives,1960
injure,1961
injured,1962
injury,1963
innings,1964
innnovators,1965
innocent,1966
innovation,1967
input,1968
insane,1969
insecure,1970
insecurities,1971
insignificantly,1972
insinuation,1973
inspections,1974
inspiring,1975
install,1976
installation,1977
installations,1978
installment,1979
instant,1980
instantly,1981
instead,1982
instinct,1983
institute,1984
institutes,1985
institution,1986
insult,1987
insurance,1988
int,1989
integrate,1990
intelligence,1991
intelligent,1992
intelligentsia,1993
intend,1994
intended,1995
intense,1996
intensity,1997
interception,1998
interdependent,1999
interested,2000
interesting,2001
internal,2002
internet,2003
internets,2004
interpretation,2005
interventionist,2006
interview,2007
intoxicated,2008
intrepidia,2009
intrinsic,2010
intro,2011
introduced,2012
invade,2013
invaluable,2014
invented,2015
invest,2016
investigate,2017
investigated,2018
investigating,2019
investigation,2020
investigations,2021
investment,2022
invisible,2023
invoked,2024
involved,2025
involvement,2026
involves,2027
iparsedthreedigits,2028
iphone,2029
ipod,2030
ipvparsedonedigit,2031
iq,2032
iran,2033
iranain,2034
iranian,2035
irish,2036
ironic,2037
irrational,2038
irrelevant,2039
irrelevent,2040
irresponsible,2041
irvine,2042
ish,2043
islam,2044
islamic,2045
island,2046
isn,2047
isnt,2048
isolate,2049
isps,2050
israel,2051
issue,2052
isyeah,2053
ivy,2054
ixam,2055
ixquick,2056
jack,2057
jackals,2058
jackass,2059
jacket,2060
jail,2061
jakarta,2062
january,2063
japan,2064
japanese,2065
jefferson,2066
jenkees,2067
jessica,2068
jesus,2069
jesusneverexisted,2070
jewish,2071
jews,2072
jfc,2073
jimmy,2074
jinandjuice,2075
job,2076
jobs,2077
jogging,2078
john,2079
join,2080
joined,2081
joke,2082
jokes,2083
jolly,2084
jon,2085
joomla,2086
journalist,2087
jr,2088
judge,2089
judging,2090
jumbo,2091
jump,2092
june,2093
junk,2094
jury,2095
just,2096
justice,2097
justices,2098
justification,2099
justify,2100
justifying,2101
juvenile,2102
kabbalah,2103
kanye,2104
karl,2105
kate,2106
katt,2107
kde,2108
keepers,2109
keeps,2110
keg,2111
kegs,2112
ken,2113
kennedy,2114
kenneth,2115
kenyans,2116
kept,2117
kerrigore,2118
ketchup,2119
kevin,2120
key,2121
keyboard,2122
keynesianism,2123
keys,2124
kick,2125
kicked,2126
kicks,2127
kid,2128
kidd,2129
kidding,2130
kids,2131
kiiiiiinda,2132
kill,2133
killed,2134
killer,2135
killing,2136
killings,2137
kills,2138
kimmel,2139
kind,2140
kinda,2141
kindergarten,2142
kindle,2143
kinds,2144
kingdom,2145
kinseyincanada,2146
kkk,2147
knew,2148
know,2149
knowing,2150
knowingly,2151
knowledge,2152
known,2153
knows,2154
kool,2155
koranimals,2156
korea,2157
kotaku,2158
krause,2159
krazy,2160
kroeger,2161
krugman,2162
kyl,2163
lab,2164
label,2165
labor,2166
labyrinth,2167
laced,2168
lack,2169
laffer,2170
laid,2171
lake,2172
lamb,2173
lame,2174
land,2175
language,2176
languages,2177
lantern,2178
lap,2179
large,2180
largely,2181
larry,2182
lasers,2183
lastly,2184
late,2185
lately,2186
later,2187
laugh,2188
laughable,2189
laughing,2190
laughter,2191
launched,2192
laundry,2193
law,2194
lawn,2195
laws,2196
lawyers,2197
lay,2198
layer,2199
laying,2200
layoff,2201
ld,2202
leach,2203
leaches,2204
lead,2205
leaders,2206
leadership,2207
league,2208
leaked,2209
leaps,2210
learn,2211
learned,2212
lease,2213
leash,2214
leave,2215
leaving,2216
ledger,2217
leeds,2218
leet,2219
left,2220
lefties,2221
leftist,2222
leftost,2223
legal,2224
legalization,2225
legalize,2226
legalized,2227
legally,2228
legislation,2229
legislative,2230
legit,2231
lego,2232
legs,2233
lemur,2234
lenders,2235
lends,2236
leona,2237
leopard,2238
lesbians,2239
lessons,2240
lest,2241
let,2242
lets,2243
letter,2244
letting,2245
level,2246
levels,2247
lgbt,2248
li,2249
liar,2250
libel,2251
liberal,2252
liberation,2253
liberties,2254
libraries,2255
libs,2256
licencing,2257
license,2258
licensed,2259
lie,2260
lies,2261
life,2262
lift,2263
light,2264
like,2265
likely,2266
likeness,2267
likes,2268
lil,2269
limited,2270
limo,2271
lincoln,2272
line,2273
lines,2274
link,2275
linked,2276
links,2277
list,2278
listen,2279
listened,2280
listening,2281
lists,2282
literal,2283
literally,2284
literate,2285
little,2286
live,2287
lives,2288
living,2289
ll,2290
load,2291
loan,2292
local,2293
localization,2294
locally,2295
locked,2296
log,2297
logic,2298
logon,2299
lol,2300
lold,2301
lolwatdammit,2302
long,2303
longer,2304
longstanding,2305
look,2306
looked,2307
looking,2308
looks,2309
lookup,2310
lookups,2311
loose,2312
looses,2313
lord,2314
los,2315
lose,2316
loser,2317
loses,2318
losing,2319
loss,2320
losses,2321
lost,2322
lot,2323
lots,2324
lousy,2325
love,2326
loved,2327
loveless,2328
lovelyness,2329
loves,2330
low,2331
lowcountry,2332
lower,2333
lowered,2334
lowering,2335
loyola,2336
luck,2337
lucky,2338
lucy,2339
lump,2340
lunch,2341
lures,2342
lying,2343
lyrics,2344
mac,2345
macbook,2346
macbooks,2347
machine,2348
machines,2349
macintosh,2350
mae,2351
magnificent,2352
mah,2353
mail,2354
main,2355
maine,2356
mainstream,2357
major,2358
majoring,2359
majority,2360
make,2361
makers,2362
makes,2363
making,2364
malaria,2365
male,2366
malfunctioning,2367
malls,2368
man,2369
managed,2370
management,2371
mandated,2372
maniac,2373
manifesto,2374
manipulating,2375
mans,2376
mantra,2377
manual,2378
manufacture,2379
manufacturers,2380
manufacturing,2381
marching,2382
marcia,2383
marginal,2384
marginalizing,2385
margins,2386
marijuana,2387
mario,2388
market,2389
marketing,2390
marq,2391
marriage,2392
marriages,2393
married,2394
marry,2395
marshalls,2396
martinez,2397
marxism,2398
marxists,2399
maryland,2400
mash,2401
mass,2402
massively,2403
master,2404
mate,2405
material,2406
math,2407
matter,2408
matters,2409
mattoon,2410
maximum,2411
maybe,2412
mayer,2413
mayor,2414
mba,2415
mccain,2416
mcdonalds,2417
mcmansions,2418
mead,2419
meager,2420
mean,2421
meanie,2422
means,2423
meant,2424
measurement,2425
mechanical,2426
media,2427
medical,2428
medication,2429
medications,2430
medicine,2431
meds,2432
meet,2433
meh,2434
mel,2435
melbourne,2436
members,2437
membership,2438
meme,2439
memorable,2440
memories,2441
memorization,2442
men,2443
mental,2444
mentality,2445
mentally,2446
mention,2447
mentioned,2448
merch,2449
merdieselnail,2450
merely,2451
mesmerizing,2452
message,2453
messed,2454
messiuh,2455
meth,2456
methanol,2457
method,2458
methods,2459
mets,2460
mexican,2461
mexico,2462
michael,2463
microbiology,2464
microcosim,2465
microorganism,2466
microsoft,2467
mid,2468
middle,2469
mighty,2470
mike,2471
miknarf,2472
mile,2473
mileage,2474
military,2475
milk,2476
million,2477
millionaire,2478
millions,2479
mind,2480
minded,2481
minerals,2482
mini,2483
minimal,2484
minimizes,2485
minimum,2486
minnesota,2487
minor,2488
minority,2489
minute,2490
minutes,2491
miracle,2492
mirrored,2493
miserable,2494
misguided,2495
misinterpret,2496
misleading,2497
misrepresenting,2498
miss,2499
missed,2500
missing,2501
mistake,2502
mistaken,2503
mix,2504
mmm,2505
moan,2506
moans,2507
mob,2508
mobile,2509
model,2510
modern,2511
mom,2512
moment,2513
moms,2514
monarchy,2515
money,2516
mongers,2517
monitor,2518
monkeybusiness,2519
monster,2520
montana,2521
month,2522
months,2523
mootools,2524
moral,2525
morality,2526
morally,2527
morals,2528
moreso,2529
mormon,2530
moron,2531
morons,2532
mortgage,2533
mother,2534
motherfuckers,2535
motion,2536
motivation,2537
motivations,2538
motive,2539
motofone,2540
motorola,2541
moved,2542
movement,2543
moveon,2544
movie,2545
moving,2546
mowe,2547
mozart,2548
mpaa,2549
mpparsedonedigit,2550
mpxparsedthreedigits,2551
mrbabyman,2552
ms,2553
muahahahahaha,2554
muck,2555
mud,2556
muhammad,2557
mumbai,2558
mumbo,2559
munchies,2560
murder,2561
murdered,2562
murderous,2563
music,2564
muslim,2565
muslims,2566
mvc,2567
mweather,2568
mypc,2569
mystery,2570
mytown,2571
nah,2572
nail,2573
nailed,2574
naive,2575
named,2576
narcotics,2577
nasa,2578
nathan,2579
nation,2580
national,2581
nationalist,2582
nationalization,2583
nationalized,2584
nationhood,2585
nations,2586
natives,2587
natural,2588
naturally,2589
nature,2590
nazi,2591
near,2592
nearly,2593
necessarily,2594
necessary,2595
need,2596
needed,2597
needs,2598
neely,2599
negate,2600
negative,2601
negligible,2602
neighborhood,2603
neighborhoods,2604
neighbors,2605
neo,2606
nes,2607
net,2608
netted,2609
network,2610
networks,2611
new,2612
news,2613
newspapers,2614
newsworthy,2615
ng,2616
nice,2617
nicely,2618
niconiconico,2619
nietzsche,2620
night,2621
nightmare,2622
ninja,2623
nintendo,2624
nite,2625
nobel,2626
noble,2627
nobodies,2628
nodes,2629
noise,2630
nokia,2631
nominees,2632
non,2633
nonconformist,2634
noob,2635
nooooo,2636
noooooo,2637
normal,2638
normally,2639
north,2640
northeast,2641
northwatuppa,2642
norton,2643
nose,2644
note,2645
nothingness,2646
nothings,2647
notice,2648
notting,2649
noumuon,2650
noun,2651
novels,2652
november,2653
nparsedthreedigits,2654
nuke,2655
number,2656
numbers,2657
nut,2658
nutcases,2659
nuts,2660
nvidia,2661
nwo,2662
o_parsedonedigit,2663
oak,2664
oaksterdam,2665
oath,2666
obam,2667
obama,2668
object,2669
objectively,2670
obligation,2671
obligatory,2672
obscure,2673
obsolete,2674
obvious,2675
obviously,2676
occasional,2677
occur,2678
occurred,2679
oceanic,2680
offensive,2681
offer,2682
office,2683
officer,2684
officers,2685
official,2686
officials,2687
oh,2688
ohshi,2689
oifdasparsedonedigitifasparsedthreedigits,2690
oil,2691
ok,2692
okay,2693
oklahoma,2694
old,2695
ones,2696
online,2697
onlywire,2698
ooh,2699
ooooooohhhhhhh,2700
op,2701
opelz,2702
open,2703
opens,2704
opera,2705
operating,2706
opinion,2707
opponents,2708
opportunity,2709
oppose,2710
opposed,2711
opposing,2712
oppurtunity,2713
oprah,2714
optimal,2715
optimally,2716
option,2717
options,2718
orange,2719
order,2720
ordinary,2721
oregon,2722
oregonian,2723
org,2724
organization,2725
orientation,2726
original,2727
os,2728
osama,2729
oscar,2730
osx,2731
ot,2732
oui,2733
outcome,2734
outcry,2735
outer,2736
outright,2737
outrun,2738
outside,2739
overall,2740
overhaul,2741
overkill,2742
overload,2743
overpowered,2744
overpriced,2745
overreaction,2746
overtime,2747
overused,2748
owl,2749
owner,2750
owners,2751
owning,2752
owns,2753
pack,2754
package,2755
packaging,2756
packed,2757
packet,2758
packing,2759
padded,2760
page,2761
pages,2762
paid,2763
paint,2764
pair,2765
palestinians,2766
palmero,2767
palooza,2768
pandering,2769
pandora,2770
paper,2771
paperwork,2772
par,2773
parachute,2774
paragraph,2775
parallel,2776
parent,2777
parents,2778
park,2779
parole,2780
parseddigits,2781
parseddigitsdparsedonedigitc,2782
parseddigitsebc,2783
parseddigitsjkasdaopd,2784
parsedfivedigits,2785
parsedfourdigits,2786
parsedfourdigitsathlon,2787
parsedfourdigitsoijdf,2788
parsedfourdigitswho,2789
parsedonedigit,2790
parsedonedigitchan,2791
parsedonedigitcparseddigitsa,2792
parsedonedigitd,2793
parsedonedigitdfparsedonedigit,2794
parsedonedigitebparsedonedigit,2795
parsedonedigitgw,2796
parsedonedigitst,2797
parsedonedigitth,2798
parsedonedigitx,2799
parsedthreedigits,2800
parsedthreedigitsd,2801
parsedthreedigitskz,2802
parsedthreedigitslbs,2803
parsedthreedigitsmpg,2804
parsedtime,2805
parsedtwodigits,2806
parsedtwodigitsaparsedonedigit,2807
parsedtwodigitsgrand,2808
parsedtwodigitsmillion,2809
parsedtwodigitss,2810
particular,2811
particularly,2812
parties,2813
partisan,2814
partner,2815
partners,2816
parts,2817
party,2818
pass,2819
passed,2820
passenger,2821
passes,2822
passwindow,2823
password,2824
past,2825
pasteurization,2826
patent,2827
patently,2828
path,2829
pathetic,2830
patrick,2831
patriot,2832
patterns,2833
paul,2834
pawn,2835
pay,2836
paygrade,2837
payment,2838
payments,2839
pays,2840
pc,2841
peace,2842
peaches,2843
pearl,2844
pedantic,2845
pedobears,2846
pedophiles,2847
peds,2848
peers,2849
pelt,2850
penalty,2851
penance,2852
penises,2853
people,2854
percentage,2855
percentages,2856
perception,2857
perfect,2858
perfectly,2859
performed,2860
periods,2861
permanence,2862
permissions,2863
perpetuates,2864
person,2865
persona,2866
personal,2867
personality,2868
personally,2869
persons,2870
perversity,2871
pesticides,2872
pet,2873
peter,2874
pets,2875
pgood,2876
ph,2877
pharma,2878
pharmaceutical,2879
phelps,2880
phenomena,2881
phone,2882
phones,2883
photo,2884
photos,2885
phrase,2886
physical,2887
physically,2888
pic,2889
picard,2890
pick,2891
picked,2892
picker,2893
pics,2894
picture,2895
pie,2896
piece,2897
pieces,2898
pile,2899
pills,2900
pilot,2901
pinch,2902
pink,2903
pint,2904
pipe,2905
pirate,2906
pissed,2907
pissing,2908
pistol,2909
pit,2910
pitcher,2911
pitchers,2912
pitches,2913
pitching,2914
pitt,2915
place,2916
placement,2917
placing,2918
plain,2919
plan,2920
plane,2921
planet,2922
planets,2923
planning,2924
plant,2925
plants,2926
platform,2927
platformers,2928
play,2929
played,2930
player,2931
players,2932
playing,2933
pleaded,2934
plenty,2935
plug,2936
plural,2937
plurality,2938
plus,2939
pm,2940
pnac,2941
pocket,2942
pocketbook,2943
point,2944
points,2945
poison,2946
poisoning,2947
poisonous,2948
poitier,2949
pole,2950
poles,2951
police,2952
policies,2953
policy,2954
political,2955
politically,2956
politicians,2957
politiciansgo,2958
politics,2959
ponzi,2960
poor,2961
poorer,2962
pop,2963
pope,2964
popular,2965
population,2966
pork,2967
porn,2968
pornography,2969
position,2970
positions,2971
possession,2972
possessive,2973
possible,2974
possibly,2975
post,2976
posted,2977
poster,2978
posters,2979
posting,2980
postponed,2981
pot,2982
potentially,2983
potheads,2984
pounds,2985
power,2986
powerful,2987
powerplant,2988
pox,2989
ppl,2990
practical,2991
practice,2992
practiced,2993
practicing,2994
praise,2995
praying,2996
pre,2997
preaching,2998
precedent,2999
precisely,3000
predators,3001
predicting,3002
preference,3003
preferential,3004
pregnant,3005
preinstalled,3006
premise,3007
preparation,3008
presence,3009
present,3010
presented,3011
preserve,3012
presidency,3013
president,3014
press,3015
presses,3016
presumably,3017
pretend,3018
pretends,3019
pretty,3020
prevent,3021
prevention,3022
previous,3023
price,3024
prices,3025
prick,3026
priest,3027
principles,3028
print,3029
printed,3030
printing,3031
prior,3032
priority,3033
prison,3034
prisoner,3035
prisoners,3036
prisons,3037
privacy,3038
private,3039
privately,3040
privilege,3041
prize,3042
pro,3043
probability,3044
probably,3045
probed,3046
problem,3047
problems,3048
probs,3049
procedures,3050
process,3051
procreate,3052
produce,3053
produced,3054
producer,3055
product,3056
production,3057
productive,3058
products,3059
professional,3060
professionally,3061
professors,3062
profit,3063
profitable,3064
profitactually,3065
profiteer,3066
program,3067
programs,3068
progress,3069
project,3070
projects,3071
prominent,3072
promise,3073
promised,3074
promotes,3075
promoting,3076
promotion,3077
promptly,3078
proof,3079
prop,3080
propaganda,3081
propeller,3082
proper,3083
properly,3084
properties,3085
property,3086
prophet,3087
proponents,3088
proportion,3089
proposed,3090
props,3091
prosecution,3092
prosecutions,3093
prosecutors,3094
prostitue,3095
prostitute,3096
protect,3097
protecting,3098
protectionism,3099
protectionist,3100
prove,3101
proved,3102
proven,3103
provide,3104
provided,3105
providing,3106
provision,3107
provisions,3108
proxies,3109
ps,3110
psa,3111
pseudo,3112
psn,3113
psst,3114
psuedo,3115
psych,3116
psychiatrist,3117
psycho,3118
psychological,3119
psychopathic,3120
public,3121
publicity,3122
publicly,3123
publishing,3124
pubs,3125
pudge,3126
pull,3127
pulled,3128
pulling,3129
punch,3130
pundits,3131
punished,3132
purchases,3133
pure,3134
purse,3135
pursued,3136
pursuits,3137
push,3138
pushed,3139
pussy,3140
pussys,3141
puts,3142
putting,3143
puzzle,3144
pv,3145
pyramid,3146
qm,3147
quakeholio,3148
quality,3149
quantities,3150
quantity,3151
quantum,3152
question,3153
questioned,3154
questions,3155
quick,3156
quiet,3157
quit,3158
quite,3159
quote,3160
quoted,3161
qwest,3162
rabbit,3163
race,3164
racism,3165
racist,3166
radiative,3167
radical,3168
radicals,3169
raffled,3170
rafikichi,3171
raging,3172
rahm,3173
raids,3174
rail,3175
raise,3176
raising,3177
rajim,3178
ram,3179
ramen,3180
rampant,3181
ranch,3182
range,3183
ranging,3184
ranked,3185
ranking,3186
rant,3187
ranting,3188
rape,3189
rapidly,3190
rarely,3191
rate,3192
rates,3193
rating,3194
rational,3195
raving,3196
ray,3197
razor,3198
reaction,3199
reactor,3200
read,3201
readable,3202
reader,3203
readers,3204
reading,3205
real,3206
realise,3207
reality,3208
realize,3209
realizing,3210
really,3211
reason,3212
reasonable,3213
reasonably,3214
reasons,3215
recall,3216
receive,3217
received,3218
receives,3219
recent,3220
recently,3221
recession,3222
recipe,3223
recognise,3224
recognize,3225
record,3226
recorded,3227
recording,3228
records,3229
red,3230
redeye,3231
reduce,3232
reduction,3233
reeve,3234
reference,3235
refers,3236
reflected,3237
refreshing,3238
refused,3239
refuses,3240
regard,3241
regarding,3242
regardless,3243
regimes,3244
region,3245
regret,3246
regular,3247
regularly,3248
regulation,3249
rehabilitation,3250
reilly,3251
reinstate,3252
rejected,3253
related,3254
relationship,3255
relatively,3256
release,3257
released,3258
releases,3259
relegated,3260
relevant,3261
relief,3262
religion,3263
religious,3264
reloading,3265
relying,3266
remained,3267
remains,3268
remaking,3269
remember,3270
reminded,3271
reminds,3272
remorse,3273
removed,3274
render,3275
rendition,3276
renegotiate,3277
renovating,3278
rent,3279
repayment,3280
repealed,3281
repeat,3282
replace,3283
replenished,3284
reported,3285
reporters,3286
reports,3287
repost,3288
represent,3289
representation,3290
represents,3291
reproach,3292
republic,3293
republican,3294
republicans,3295
republicrats,3296
republithug,3297
requests,3298
require,3299
required,3300
rescue,3301
research,3302
reserve,3303
reserved,3304
resign,3305
resin,3306
resort,3307
resource,3308
resources,3309
respect,3310
responding,3311
response,3312
responsibility,3313
responsible,3314
rest,3315
restoration,3316
restoring,3317
restriction,3318
restrictions,3319
results,3320
retard,3321
retarded,3322
retire,3323
retrace,3324
retribution,3325
return,3326
returned,3327
revealing,3328
revenge,3329
revenues,3330
reverse,3331
reversing,3332
reviever,3333
review,3334
reviews,3335
revolution,3336
rewarding,3337
riaa,3338
rib,3339
rich,3340
rick,3341
rid,3342
ridden,3343
ride,3344
ridiculous,3345
rifle,3346
rifles,3347
rig,3348
right,3349
rights,3350
riled,3351
rino,3352
rinse,3353
ripp,3354
rips,3355
rise,3356
rivals,3357
river,3358
road,3359
roar,3360
robbots,3361
robbottodays,3362
robert,3363
robocop,3364
robotfindskitten,3365
robots,3366
robs,3367
rochester,3368
rock,3369
rocks,3370
rocky,3371
rodriguez,3372
roid,3373
role,3374
roll,3375
romance,3376
ron,3377
ronald,3378
room,3379
root,3380
rope,3381
rose,3382
rotate,3383
round,3384
roundup,3385
rove,3386
royalties,3387
rss,3388
rufies,3389
rugburn,3390
ruined,3391
rulers,3392
rules,3393
run,3394
runners,3395
running,3396
runs,3397
rural,3398
rush,3399
rushycontin,3400
russian,3401
rustproofing,3402
ruth,3403
ryan,3404
sacrifice,3405
sad,3406
sadly,3407
safari,3408
safely,3409
safety,3410
said,3411
sake,3412
salaries,3413
sales,3414
sand,3415
santa,3416
saps,3417
sarc,3418
sarcasm,3419
sarcasmi,3420
sarcastic,3421
sat,3422
satellite,3423
satisfied,3424
satisfy,3425
saudi,3426
save,3427
saving,3428
saw,3429
say,3430
saying,3431
sayings,3432
says,3433
scale,3434
scam,3435
scandal,3436
scandinavia,3437
scarce,3438
scares,3439
scenario,3440
sceptical,3441
scheme,3442
schiff,3443
scholar,3444
school,3445
schoolgirl,3446
schoolgirls,3447
schools,3448
schwarzy,3449
science,3450
scientifically,3451
scientists,3452
scientology,3453
scott,3454
scratching,3455
screen,3456
screwed,3457
scumbag,3458
sea,3459
search,3460
searched,3461
season,3462
seat,3463
seated,3464
sec,3465
secessionist,3466
second,3467
secondly,3468
seconds,3469
secrecy,3470
secret,3471
secrets,3472
sect,3473
section,3474
sector,3475
secure,3476
secured,3477
security,3478
seeing,3479
seen,3480
seinfeld,3481
seized,3482
selection,3483
self,3484
selfish,3485
sell,3486
sellers,3487
selling,3488
sells,3489
semi,3490
sen,3491
senate,3492
send,3493
senior,3494
sense,3495
sensible,3496
sensitivity,3497
sentence,3498
sentencing,3499
sentience,3500
seoul,3501
serendipitous,3502
seriously,3503
server,3504
servers,3505
service,3506
services,3507
set,3508
setting,3509
settings,3510
seven,3511
seventy,3512
severe,3513
sewer,3514
sex,3515
sexual,3516
sexually,3517
sexy,3518
sh,3519
shacknews,3520
shadows,3521
shady,3522
shall,3523
sham,3524
shame,3525
shaq,3526
share,3527
shared,3528
shareholders,3529
sharers,3530
shares,3531
sharing,3532
sharks,3533
sharp,3534
sharpton,3535
sheep,3536
sheesh,3537
sheriff,3538
shi,3539
shift,3540
shiny,3541
ship,3542
shit,3543
shitty,3544
shock,3545
shocking,3546
shoot,3547
shooting,3548
shoots,3549
shops,3550
short,3551
shortfall,3552
shot,3553
shotgun,3554
shoulders,3555
shouldn,3556
shout,3557
shouts,3558
shove,3559
shoved,3560
showed,3561
showing,3562
shows,3563
shparsedonedigitts,3564
shrek,3565
shugashack,3566
shut,3567
shuttle,3568
sibel,3569
sick,3570
sickness,3571
sickthoughts,3572
sides,3573
sideswiped,3574
sift,3575
sighted,3576
sign,3577
signed,3578
significant,3579
significantly,3580
silence,3581
silk,3582
silly,3583
silver,3584
silverlight,3585
similar,3586
simple,3587
simply,3588
simpson,3589
simpsons,3590
sincerely,3591
single,3592
singular,3593
sir,3594
sirius,3595
site,3596
sites,3597
size,3598
skeptical,3599
skews,3600
skill,3601
skirt,3602
slap,3603
slaughters,3604
slave,3605
slavery,3606
sleek,3607
sleep,3608
sleeves,3609
slept,3610
slice,3611
slideshows,3612
slightest,3613
slinging,3614
slip,3615
slipped,3616
slow,3617
slumdog,3618
slums,3619
small,3620
smallpox,3621
smart,3622
smashing,3623
smells,3624
smile,3625
smithsonian,3626
smoke,3627
smoked,3628
smoking,3629
snake,3630
snakes,3631
snap,3632
sniper,3633
snobby,3634
snoobish,3635
snoopy,3636
soccer,3637
socialblade,3638
socialism,3639
socialist,3640
socially,3641
society,3642
sociopath,3643
socks,3644
sodade,3645
software,3646
sold,3647
soldiers,3648
solution,3649
solved,3650
somebody,3651
someplace,3652
somethin,3653
somewhat,3654
sone,3655
song,3656
songs,3657
sony,3658
soon,3659
sooner,3660
sooni,3661
sooo,3662
sore,3663
sorry,3664
sort,3665
sorts,3666
sosa,3667
soul,3668
sound,3669
sounds,3670
soundtrack,3671
source,3672
sourced,3673
south,3674
southern,3675
soviet,3676
sowell,3677
space,3678
spam,3679
spamming,3680
spar,3681
sparing,3682
spc,3683
speak,3684
speaking,3685
speaks,3686
special,3687
species,3688
specific,3689
specifically,3690
spectre,3691
speech,3692
speed,3693
speedo,3694
spell,3695
spend,3696
spending,3697
spends,3698
spendulous,3699
spent,3700
spewing,3701
spikes,3702
spiral,3703
spite,3704
splains,3705
splicing,3706
split,3707
splitting,3708
spoiled,3709
spoiler,3710
spoils,3711
spoofed,3712
sport,3713
spread,3714
spyware,3715
sqeaking,3716
squad,3717
square,3718
squealing,3719
squeezing,3720
squirrel,3721
st,3722
staff,3723
stage,3724
stagflation,3725
stand,3726
standard,3727
standards,3728
standing,3729
standpoint,3730
stands,3731
stapp,3732
star,3733
stare,3734
start,3735
started,3736
starting,3737
starts,3738
starve,3739
starving,3740
stashed,3741
state,3742
stated,3743
statement,3744
statements,3745
staters,3746
states,3747
static,3748
status,3749
stay,3750
stays,3751
stds,3752
steal,3753
stealing,3754
steger,3755
step,3756
steps,3757
stereotype,3758
stern,3759
steve,3760
steven,3761
stfu,3762
stick,3763
stifled,3764
stimulates,3765
stimulative,3766
stimulus,3767
stoner,3768
stones,3769
stoning,3770
stop,3771
stopped,3772
store,3773
stored,3774
storeowner,3775
stories,3776
story,3777
straight,3778
strains,3779
strange,3780
strap,3781
straps,3782
streaming,3783
street,3784
streetaddress,3785
streets,3786
strength,3787
stressed,3788
strictly,3789
strike,3790
strikeouts,3791
strikes,3792
string,3793
stripper,3794
strippers,3795
strong,3796
stronger,3797
strparsedonedigitfehe,3798
structure,3799
struggling,3800
stuck,3801
student,3802
students,3803
studied,3804
studies,3805
study,3806
stuff,3807
stupid,3808
stupidest,3809
style,3810
subconscious,3811
subject,3812
subjugation,3813
submission,3814
submissions,3815
submit,3816
submitted,3817
subs,3818
subsidies,3819
subsidise,3820
subsidy,3821
substance,3822
substantially,3823
substitute,3824
subterranean,3825
subtleties,3826
subway,3827
success,3828
successful,3829
suck,3830
sucked,3831
sucking,3832
sucks,3833
sudden,3834
suddenly,3835
sue,3836
sues,3837
suffer,3838
suffered,3839
suggestion,3840
suggests,3841
suicidal,3842
suicide,3843
suleman,3844
sulphur,3845
sum,3846
summed,3847
summer,3848
sumo,3849
super,3850
superior,3851
superman,3852
supply,3853
support,3854
supported,3855
supporter,3856
supporters,3857
supports,3858
suppose,3859
supposed,3860
supposedly,3861
suppress,3862
sure,3863
surely,3864
surfaces,3865
surfstang,3866
surpass,3867
surprised,3868
surrender,3869
surrounded,3870
surveying,3871
suspect,3872
suspense,3873
swap,3874
swear,3875
sweat,3876
swig,3877
swinging,3878
swollen,3879
symbol,3880
sync,3881
systems,3882
tab,3883
table,3884
tactics,3885
taken,3886
takes,3887
taking,3888
tale,3889
talent,3890
taliban,3891
talk,3892
talked,3893
talking,3894
talks,3895
tank,3896
tanning,3897
tanukiparsedonedigiteven,3898
tape,3899
tapes,3900
target,3901
targets,3902
tasteless,3903
taught,3904
tax,3905
taxation,3906
taxes,3907
taxpayers,3908
tbh,3909
teachers,3910
teaches,3911
teaching,3912
teams,3913
technique,3914
technology,3915
techs,3916
teh,3917
television,3918
tell,3919
telling,3920
tells,3921
tempered,3922
temporarily,3923
temporary,3924
tend,3925
tendencies,3926
tends,3927
tens,3928
term,3929
terminal,3930
terms,3931
terrible,3932
terroist,3933
terrorism,3934
terrorist,3935
test,3936
testimony,3937
tests,3938
texas,3939
text,3940
texting,3941
tham,3942
thank,3943
thanks,3944
thanparsedfourdigits,3945
thats,3946
thc,3947
theater,3948
theaters,3949
theft,3950
theirs,3951
theme,3952
theory,3953
therapy,3954
therefor,3955
thet,3956
thier,3957
thing,3958
things,3959
think,3960
thinking,3961
thinks,3962
thomas,3963
thorazine,3964
thought,3965
thoughts,3966
thousand,3967
thousands,3968
thread,3969
threat,3970
threatening,3971
threatens,3972
threesome,3973
throw,3974
throwing,3975
thrown,3976
thunder,3977
thunderbird,3978
tibetans,3979
ticket,3980
tickets,3981
tie,3982
tier,3983
tiger,3984
tigers,3985
tight,3986
tilt,3987
time,3988
times,3989
timing,3990
tip,3991
tired,3992
title,3993
tobacco,3994
today,3995
toilet,3996
told,3997
tolerate,3998
tomorrow,3999
tone,4000
tonnes,4001
took,4002
tool,4003
tor,4004
torrent,4005
torture,4006
torturing,4007
totally,4008
touchdown,4009
touched,4010
touching,4011
tough,4012
toys,4013
tpb,4014
trace,4015
tractors,4016
trade,4017
trading,4018
traditional,4019
traditionally,4020
traffic,4021
tragic,4022
trailer,4023
trained,4024
training,4025
trains,4026
trans,4027
transition,4028
translated,4029
transportation,4030
transsexual,4031
trap,4032
trappings,4033
trash,4034
treasury,4035
treat,4036
treated,4037
treatment,4038
treatments,4039
treaty,4040
trend,4041
trendy,4042
trentadue,4043
trial,4044
trials,4045
tried,4046
tries,4047
trillion,4048
trolling,4049
trolls,4050
troop,4051
troops,4052
tropic,4053
trouble,4054
troubling,4055
trough,4056
truck,4057
true,4058
truly,4059
trunk,4060
trust,4061
trusted,4062
truth,4063
truths,4064
try,4065
trying,4066
ts,4067
tty,4068
tubatechno,4069
tucker,4070
tune,4071
turbines,4072
turd,4073
turk,4074
turn,4075
turned,4076
turning,4077
turns,4078
tv,4079
twice,4080
twisted,4081
twisting,4082
twitter,4083
types,4084
typical,4085
typing,4086
tyrants,4087
ugh,4088
ugly,4089
uhbama,4090
uhhh,4091
uk,4092
ultimately,4093
um,4094
umm,4095
unbelievable,4096
unclaimed,4097
undead,4098
undercover,4099
underestimate,4100
undergrad,4101
undermines,4102
understand,4103
understanding,4104
understood,4105
underway,4106
undistorted,4107
undoubtedly,4108
unfortunately,4109
unhappy,4110
uni,4111
uniform,4112
union,4113
unipolar,4114
unique,4115
unite,4116
united,4117
universe,4118
university,4119
unjust,4120
unknown,4121
unless,4122
unlike,4123
unmannedmissionhope,4124
unreasonable,4125
unrelatedgold,4126
unstated,4127
untie,4128
update,4129
upgrade,4130
upgraded,4131
upgrading,4132
upheld,4133
uphill,4134
uploading,4135
upper,4136
ups,4137
upscale,4138
urban,4139
urge,4140
usa,4141
use,4142
used,4143
useful,4144
useless,4145
user,4146
username,4147
users,4148
uses,4149
using,4150
usps,4151
usual,4152
usually,4153
utilizing,4154
utorrent,4155
utterly,4156
vacation,4157
vaccines,4158
vader,4159
vagina,4160
valentine,4161
valid,4162
value,4163
valued,4164
values,4165
vampires,4166
vandalism,4167
vase,4168
vast,4169
vastly,4170
ve,4171
vegas,4172
vehicle,4173
vehicles,4174
velocity,4175
vending,4176
venomous,4177
verb,4178
verizon,4179
verses,4180
version,4181
versus,4182
vespertine,4183
veterans,4184
vhs,4185
vibrant,4186
vibrating,4187
vicious,4188
victim,4189
victims,4190
victoria,4191
victory,4192
video,4193
view,4194
viewing,4195
vigor,4196
vinegar,4197
violence,4198
violent,4199
virtual,4200
virtually,4201
virus,4202
visible,4203
visit,4204
visiting,4205
vista,4206
vitriolandangst,4207
vitro,4208
volt,4209
volunteering,4210
vote,4211
voted,4212
voters,4213
voyeur,4214
vw,4215
wade,4216
wait,4217
waited,4218
waiting,4219
wake,4220
walk,4221
walked,4222
walking,4223
walks,4224
wall,4225
wallpaper,4226
walls,4227
walmart,4228
wanna,4229
wannabes,4230
want,4231
wanted,4232
wanting,4233
wants,4234
war,4235
warning,4236
warrant,4237
wars,4238
washington,4239
wasn,4240
waste,4241
wasted,4242
wasting,4243
watch,4244
watched,4245
watchin,4246
watching,4247
watchmen,4248
water,4249
watermelons,4250
watershed,4251
wave,4252
way,4253
ways,4254
wazoo,4255
weak,4256
wealth,4257
weapons,4258
wear,4259
wears,4260
weather,4261
web,4262
webdesigners,4263
webkit,4264
webscriptions,4265
website,4266
websites,4267
wee,4268
weed,4269
week,4270
weekend,4271
weeks,4272
weighing,4273
weight,4274
weinbergnot,4275
weird,4276
welcome,4277
welcoming,4278
welfare,4279
went,4280
weren,4281
west,4282
western,4283
whaaa,4284
whaaaa,4285
whacks,4286
whats,4287
whatsoever,4288
whatwe,4289
wheels,4290
whilst,4291
whiners,4292
whining,4293
whip,4294
white,4295
whiteness,4296
whomever,4297
wide,4298
widely,4299
wife,4300
wifi,4301
wii,4302
wiki,4303
wikipedia,4304
wild,4305
wildland,4306
wildlife,4307
williams,4308
willing,4309
win,4310
wind,4311
winded,4312
window,4313
windows,4314
windowsuntil,4315
windy,4316
wine,4317
wings,4318
winmo,4319
winner,4320
winning,4321
winslet,4322
wipe,4323
wiretapping,4324
wise,4325
wish,4326
wishing,4327
witch,4328
withdrew,4329
withot,4330
withstand,4331
wives,4332
woh,4333
woman,4334
women,4335
won,4336
wonder,4337
wonderful,4338
woo,4339
wood,4340
woods,4341
woodsoh,4342
woodsparsedonedigit,4343
woooooo,4344
woot,4345
word,4346
words,4347
wore,4348
work,4349
worked,4350
working,4351
workplace,4352
works,4353
world,4354
worlds,4355
worried,4356
worries,4357
worry,4358
worse,4359
worship,4360
worst,4361
worth,4362
worthless,4363
worthy,4364
wouldn,4365
wounds,4366
wow,4367
wparsedonedigit,4368
wrist,4369
write,4370
writer,4371
writers,4372
writers_guild_of,4373
written,4374
wrong,4375
wsads,4376
wtf,4377
wussy,4378
xbox,4379
xdsorry,4380
xkcd,4381
xm,4382
xp,4383
xparsedonedigit,4384
xparsedthreedigits,4385
xvid,4386
xvparsedfourdigits,4387
ya,4388
yahoo,4389
yahtzee,4390
yankees,4391
yapping,4392
yay,4393
yeah,4394
year,4395
years,4396
yeast,4397
yeeeeeahhhh,4398
yelling,4399
yelp,4400
yen,4401
yep,4402
yes,4403
yesterday,4404
york,4405
young,4406
youre,4407
youth,4408
yummy,4409
zendezparsedonedigit,4410
zero,4411
zip,4412
zipline,4413
zog,4414
zombie,4415
zombies,4416
zoned,4417
zoo,4418
