abandoned,0
ability,1
able,2
abroad,3
abrogated,4
absolute,5
absolutely,6
absurd,7
abundance,8
abuse,9
abused,10
abuses,11
accept,12
acceptable,13
acceptance,14
accepted,15
access,16
accident,17
accidentally,18
accidents,19
acclimatized,20
accomplishment,21
according,22
account,23
accountable,24
accrued,25
accumulation,26
accuracy,27
accurate,28
accusations,29
accusing,30
accutane,31
achieving,32
acid,33
acidparsedonedigit,34
acknowledges,35
acorn,36
act,37
acting,38
action,39
actions,40
activated,41
active,42
activist,43
activities,44
activity,45
actor,46
acts,47
actual,48
actuality,49
actuall,50
actually,51
ad,52
adapt,53
adapted,54
add,55
added,56
adding,57
addition,58
additional,59
additionally,60
address,61
addressed,62
adhd,63
adjustable,64
adjustments,65
admin,66
administered,67
administration,68
administrative,69
admires,70
admission,71
admitted,72
adobe,73
adopt,74
ads,75
advance,76
advanced,77
advancing,78
advantage,79
advertising,80
aeroflop,81
aeroflot,82
affairs,83
affect,84
affected,85
afford,86
affordable,87
afghanistan,88
afraid,89
africa,90
afternoon,91
ag,92
age,93
aged,94
agencies,95
agency,96
agenda,97
agendas,98
agents,99
aggressive,100
agm,101
ago,102
agree,103
agreed,104
agreeing,105
agriculture,106
ahaha,107
ahh,108
ahhhhhhhhhhhhhhhhhhhhhhhhhhhhhhhhhhhhhhhhhhhhhhhhhhhhh,109
aid,110
aids,111
aim,112
air,113
airplane,114
aka,115
al,116
alaska,117
album,118
alcohol,119
alert,120
ales,121
alex,122
alexx,123
alittle,124
alliance,125
allied,126
allies,127
allow,128
allowed,129
allowing,130
allows,131
alot,132
alternate,133
alternative,134
amazes,135
amazing,136
amazingly,137
ambulances,138
amendment,139
america,140
american,141
americans,142
ammunition,143
amnesty,144
amp,145
amtrak,146
ana,147
analogies,148
analysis,149
analyst,150
analyzed,151
ancient,152
andrew,153
angeles,154
anger,155
angle,156
animal,157
animals,158
ankle,159
annoyances,160
annoying,161
annul,162
answer,163
answering,164
anti,165
antiquated,166
antiwar,167
anymore,168
anytime,169
apart,170
aphrodite,171
apocalypse,172
apologize,173
apology,174
apostrophe,175
app,176
appalled,177
apparently,178
appeal,179
appearance,180
appears,181
appetite,182
applauded,183
apple,184
applications,185
applied,186
apply,187
appreciate,188
approach,189
approaching,190
appropriately,191
approval,192
apps,193
april,194
aprobation,195
apt,196
arab,197
arabia,198
arabians,199
archie,200
architechts,201
area,202
aren,203
argue,204
arguing,205
argument,206
arise,207
arizona,208
arlington,209
arms,210
array,211
arrested,212
arrestee,213
arresting,214
arrow,215
article,216
articles,217
artificial,218
artificially,219
artsy,220
ascii,221
ashamed,222
ashcroft,223
aside,224
ask,225
asks,226
asm,227
aspen,228
ass,229
assaulting,230
assembly,231
assertion,232
assessments,233
assets,234
assholes,235
associate,236
associated,237
association,238
assume,239
assuming,240
assure,241
asterisked,242
asthma,243
astounds,244
athlete,245
athletic,246
atm,247
atmospheric,248
atom,249
atomic,250
attached,251
attack,252
attacked,253
attacking,254
attacks,255
attatched,256
attempt,257
attending,258
attention,259
aud,260
audience,261
aus,262
australia,263
australian,264
authentication,265
author,266
authority,267
authorized,268
authorizes,269
authors,270
auto,271
automatically,272
automation,273
av,274
available,275
average,276
avoid,277
avoidance,278
avoided,279
avowed,280
award,281
awards,282
aware,283
away,284
awesome,285
awesoome,286
awkward,287
awol,288
awwwwww,289
ayway,290
az,291
babe,292
baby,293
background,294
backs,295
backwards,296
bacon,297
bacteria,298
bad,299
badass,300
badly,301
bag,302
bags,303
bail,304
bailout,305
bailouts,306
baiting,307
balances,308
bale,309
balk,310
ball,311
balloon,312
balls,313
ballz,314
ban,315
bands,316
bandwagon,317
bandwidth,318
bank,319
bankers,320
banking,321
banks,322
banned,323
banner,324
banning,325
bans,326
bar,327
barbarians,328
barely,329
bargain,330
barracks,331
barrel,332
barry,333
base,334
baseball,335
based,336
basement,337
basic,338
basically,339
basics,340
basis,341
bastard,342
bastardizing,343
batshit,344
batteries,345
battery,346
bbc,347
beach,348
bear,349
beat,350
beatings,351
beautiful,352
bed,353
beer,354
beers,355
beethoven,356
beg,357
begets,358
begin,359
begining,360
behave,361
behaves,362
behavior,363
beholden,364
beings,365
belief,366
believability,367
believe,368
believes,369
bell,370
belly,371
belt,372
belts,373
bench,374
benefits,375
benifits,376
benign,377
benjamin,378
bent,379
benz,380
best,381
bested,382
bestiality,383
bet,384
beta,385
betcha,386
bethesda,387
better,388
bible,389
bidgtls,390
biff,391
big,392
bigger,393
biggest,394
billion,395
billions,396
bills,397
bird,398
bisexual,399
bit,400
bitch,401
bitching,402
bite,403
bittorent,404
bj,405
black,406
blackface,407
blacklabelsar,408
blame,409
blamed,410
blames,411
blanks,412
blast,413
bleed,414
blemish,415
blessed,416
blew,417
blind,418
blinded,419
blindly,420
bliss,421
bll,422
blog,423
blogs,424
blogspam,425
bloom,426
blow,427
blowhards,428
blue,429
blurred,430
board,431
boat,432
boating,433
boatload,434
bobby,435
bodies,436
body,437
bogus,438
bollocks,439
bollywood,440
bomb,441
bombing,442
bombula,443
boner,444
bong,445
bonus,446
book,447
bookmarked,448
books,449
bored,450
borg,451
born,452
borne,453
boss,454
bosworth,455
bother,456
bothered,457
bottle,458
bought,459
bounce,460
bounds,461
bovine,462
bowtie,463
box,464
boy,465
bparsedtwodigitsm,466
brad,467
bragged,468
brain,469
brains,470
brake,471
brandon,472
brave,473
braves,474
break,475
breaking,476
breaks,477
breakthroughs,478
breeding,479
brewers,480
bribe,481
brick,482
briefcase,483
briefly,484
bright,485
bring,486
bringing,487
brings,488
broke,489
broken,490
bros,491
brother,492
brothers,493
browser,494
browsers,495
brute,496
bs,497
btw,498
bubble,499
bubbles,500
buchanan,501
bucks,502
budget,503
buffet,504
bug,505
buggers,506
build,507
builder,508
builders,509
building,510
buildings,511
built,512
bull,513
bullets,514
bullshit,515
bum,516
bumble,517
bunch,518
bundle,519
bunker,520
bureau,521
buried,522
buries,523
burn,524
burning,525
burried,526
burrito,527
burrying,528
bury,529
bush,530
business,531
businesses,532
businessman,533
bust,534
busted,535
butt,536
butts,537
buy,538
buyers,539
buying,540
bypass,541
cabinet,542
cages,543
cahoots,544
cali,545
calibrated,546
california,547
called,548
calls,549
cambodia,550
camcorder,551
came,552
camel,553
camera,554
caminiti,555
camp,556
campaign,557
camps,558
canada,559
canals,560
cancel,561
cancer,562
candles,563
cannabis,564
canseco,565
cap,566
capable,567
capitalism,568
capitalization,569
caps,570
captain,571
capture,572
captured,573
car,574
carbon,575
carcinogens,576
card,577
cardinals,578
care,579
career,580
careful,581
cares,582
carmen,583
carnival,584
carry,585
carrying,586
cars,587
cartridge,588
case,589
cases,590
cash,591
cashparsedonedigitgold,592
casual,593
cat,594
catalog,595
catastrophic,596
catch,597
catechism,598
categorically,599
category,600
catering,601
catholic,602
cats,603
caught,604
cause,605
caused,606
causes,607
celebrity,608
cell,609
cellphones,610
cemetery,611
census,612
cent,613
center,614
centers,615
centigrade,616
centrist,617
cents,618
century,619
ceo,620
certain,621
certainly,622
certainty,623
certifiable,624
certified,625
chad,626
chain,627
chair,628
chairman,629
challenging,630
chance,631
chances,632
change,633
changed,634
changes,635
changing,636
channels,637
character,638
characteristic,639
charge,640
charged,641
charger,642
chargers,643
charges,644
chastise,645
cheap,646
cheaper,647
cheated,648
cheaters,649
cheating,650
check,651
checker,652
cheer,653
cheers,654
chemically,655
cheney,656
chernobyl,657
cherry,658
chew,659
chicago,660
chickens,661
chief,662
child,663
childish,664
children,665
chimp,666
china,667
chinese,668
choice,669
choose,670
chosen,671
christ,672
christian,673
christianity,674
christians,675
christmas,676
christopher,677
chuck,678
church,679
churches,680
cia,681
citations,682
cite,683
cites,684
cities,685
citizen,686
citizens,687
city,688
civil,689
civilians,690
claim,691
claimed,692
claiming,693
claptrap,694
class,695
classes,696
classify,697
claus,698
clause,699
clean,700
cleaned,701
clear,702
clearly,703
clever,704
click,705
clicks,706
client,707
clients,708
climate,709
climber,710
clinton,711
close,712
closed,713
closing,714
clothes,715
cloths,716
cloud,717
clown,718
clownhall,719
clowns,720
club,721
clump,722
clutters,723
coal,724
coalition,725
cocaine,726
cockmeats,727
cocksuckers,728
code,729
codes,730
cofee,731
coffee,732
coherent,733
coincidence,734
coke,735
cokehead,736
colar,737
cold,738
collapse,739
collect,740
collection,741
college,742
colleges,743
colombiano,744
com,745
comcast,746
come,747
comedy,748
comes,749
comfort,750
comforting,751
coming,752
comment,753
commentary,754
commenting,755
comments,756
commercial,757
commercials,758
commericals,759
commit,760
committed,761
commodity,762
common,763
communicate,764
communist,765
communists,766
communities,767
community,768
companies,769
company,770
comparable,771
compared,772
comparison,773
compass,774
compassion,775
compensate,776
compete,777
competent,778
competition,779
competitive,780
complain,781
complaining,782
complains,783
complaints,784
complete,785
completely,786
compliance,787
complicated,788
complicating,789
composed,790
comprehend,791
comprehension,792
comprised,793
compromise,794
compromised,795
computer,796
concept,797
concerned,798
concerning,799
concerns,800
conclusion,801
conclusive,802
condemning,803
condition,804
conditions,805
conduct,806
conducting,807
confederate,808
confidence,809
confident,810
configuration,811
confirmed,812
confiscated,813
conflict,814
confused,815
confusing,816
congratulations,817
congregate,818
congregation,819
congress,820
connected,821
connections,822
connects,823
consensus,824
consequence,825
consequences,826
conservative,827
conservatives,828
consider,829
considerable,830
considered,831
considering,832
considers,833
consistently,834
console,835
conspiracy,836
constant,837
constituents,838
constitutes,839
constitution,840
constitutional,841
constitutionality,842
construct,843
constructing,844
construction,845
consumer,846
consumption,847
contact,848
contained,849
containing,850
content,851
contests,852
context,853
continually,854
continue,855
continues,856
contracts,857
contradictory,858
contrary,859
contribute,860
contributes,861
contribution,862
control,863
controlled,864
controller,865
controlling,866
controversial,867
controversy,868
conveniently,869
convert,870
converted,871
convicted,872
conviction,873
convictions,874
cool,875
cooler,876
coordination,877
cop,878
coparsedonedigit,879
copies,880
cops,881
copy,882
copying,883
copyright,884
copyrighted,885
copywritten,886
corel,887
cornerstone,888
corollary,889
corporate,890
corporates,891
corporations,892
correct,893
correctly,894
corrupt,895
corruption,896
cost,897
costs,898
couch,899
couldn,900
counsel,901
counterparts,902
countries,903
country,904
counts,905
county,906
couple,907
coupling,908
coupon,909
course,910
court,911
courtesy,912
cover,913
coverage,914
covers,915
cowsay,916
crack,917
cracked,918
craft,919
crap,920
crash,921
crashing,922
crate,923
crazy,924
cream,925
create,926
created,927
creating,928
creative,929
creativity,930
creatures,931
credibility,932
credit,933
creditor,934
credits,935
creed,936
crime,937
crimes,938
criminal,939
criminals,940
criticize,941
critics,942
crook,943
cross,944
crowd,945
crucifixion,946
crying,947
cuba,948
cue,949
culprits,950
cult,951
cultural,952
culture,953
cunts,954
cup,955
curb,956
cure,957
curing,958
currency,959
current,960
curry,961
curse,962
curtain,963
curtis,964
curve,965
custom,966
cut,967
cute,968
cuts,969
cycle,970
cycles,971
cyprots,972
daft,973
dagger,974
daily,975
dal,976
damage,977
damn,978
damned,979
dance,980
dangerous,981
darcine,982
dark,983
darkshroud,984
darth,985
darwinism,986
daschle,987
data,988
datum,989
david,990
day,991
days,992
dea,993
dead,994
deaf,995
deal,996
dealers,997
deals,998
dear,999
death,1000
deaths,1001
debate,1002
debated,1003
debt,1004
december,1005
decent,1006
decide,1007
decided,1008
decimate,1009
decision,1010
decisions,1011
declare,1012
declared,1013
declined,1014
decrease,1015
deduct,1016
deep,1017
deeper,1018
default,1019
defective,1020
defendent,1021
defense,1022
deficit,1023
deficits,1024
defined,1025
definitely,1026
deformities,1027
defunct,1028
degrees,1029
delete,1030
deliberately,1031
deliver,1032
dell,1033
demand,1034
demands,1035
demint,1036
democracy,1037
democrat,1038
democratic,1039
democrats,1040
demoed,1041
dems,1042
denied,1043
denier,1044
denis,1045
dep,1046
department,1047
departments,1048
depends,1049
deployment,1050
depravity,1051
depreciation,1052
depressed,1053
depression,1054
deprogrammed,1055
described,1056
deserves,1057
deserving,1058
design,1059
desirable,1060
desire,1061
desks,1062
desperate,1063
desperately,1064
despite,1065
destroy,1066
destroyed,1067
destroying,1068
destruction,1069
detective,1070
determined,1071
detour,1072
detroit,1073
devalue,1074
developer,1075
developing,1076
development,1077
devious,1078
devised,1079
devoted,1080
dhs,1081
diagnosed,1082
dialing,1083
dick,1084
dickhead,1085
dickwad,1086
did,1087
didn,1088
didnt,1089
die,1090
difference,1091
different,1092
difficult,1093
difficulties,1094
dig,1095
digg,1096
digger,1097
diggers,1098
digging,1099
diggs,1100
digital,1101
diminutive,1102
dimona,1103
dinosaur,1104
directed,1105
direction,1106
directly,1107
directors,1108
dirty,1109
disability,1110
disabled,1111
disagree,1112
disappeared,1113
disappointed,1114
discipline,1115
disclosing,1116
discourse,1117
discover,1118
discovered,1119
discrimination,1120
discriminatory,1121
discuss,1122
discussed,1123
discussion,1124
disease,1125
diseases,1126
disgrace,1127
disgusting,1128
disordered,1129
disorders,1130
displayed,1131
disputes,1132
disqualification,1133
disregard,1134
dissident,1135
distracted,1136
distribute,1137
distributed,1138
distribution,1139
disturbing,1140
diverging,1141
diversity,1142
divinity,1143
division,1144
doable,1145
doccasionally,1146
doccers,1147
doctor,1148
doctors,1149
doctrine,1150
document,1151
documentaries,1152
documentary,1153
does,1154
doesn,1155
dog,1156
dogs,1157
doing,1158
doings,1159
dollar,1160
dollars,1161
domain,1162
domestic,1163
domesticated,1164
domination,1165
don,1166
dont,1167
door,1168
doors,1169
dope,1170
doses,1171
double,1172
doubt,1173
douche,1174
dough,1175
downey,1176
download,1177
downloading,1178
downloads,1179
dozen,1180
dp,1181
dr,1182
dragon,1183
draino,1184
drastic,1185
draw,1186
drawer,1187
dream,1188
dress,1189
drink,1190
drinker,1191
drinking,1192
drinks,1193
drive,1194
drivel,1195
driven,1196
driver,1197
drivers,1198
drives,1199
driving,1200
drm,1201
drool,1202
drop,1203
dropped,1204
dropping,1205
drug,1206
drugs,1207
drumroll,1208
drunk,1209
dry,1210
ds,1211
dtv,1212
dude,1213
dugg,1214
dumb,1215
dumber,1216
dumbs,1217
dumbya,1218
dump,1219
dunno,1220
duplicate,1221
duplicates,1222
dust,1223
duty,1224
dvd,1225
dwindling,1226
eager,1227
earc,1228
early,1229
earmark,1230
earned,1231
earnings,1232
earth,1233
ease,1234
easier,1235
easily,1236
east,1237
easy,1238
eat,1239
ebonics,1240
ebook,1241
ebooks,1242
echelons,1243
eclectic,1244
economic,1245
economics,1246
economists,1247
economy,1248
ecstasy,1249
ed,1250
edit,1251
editor,1252
editorial,1253
edmonds,1254
educated,1255
education,1256
eeepc,1257
effect,1258
effective,1259
effects,1260
efficiency,1261
effort,1262
efforts,1263
ego,1264
egypt,1265
ehhhhh,1266
elected,1267
election,1268
electric,1269
electrical,1270
electronic,1271
elementary,1272
eligible,1273
eliminating,1274
em,1275
email,1276
embargo,1277
embarrass,1278
embarrassment,1279
embarrassments,1280
emergency,1281
eminem,1282
emissions,1283
emmanuel,1284
emotional,1285
employed,1286
employees,1287
employers,1288
employment,1289
encarta,1290
encounter,1291
encourage,1292
encourages,1293
end,1294
ending,1295
endorsed,1296
ends,1297
energy,1298
enforced,1299
enforcement,1300
engaged,1301
engine,1302
engineering,1303
engineeringaficionado,1304
english,1305
enhanced,1306
enhancement,1307
enjoy,1308
enjoyed,1309
enron,1310
enthusiasm,1311
entire,1312
entirely,1313
entrenched,1314
enviro,1315
environment,1316
ep,1317
episode,1318
equal,1319
equally,1320
equals,1321
equation,1322
equipment,1323
equivalent,1324
er,1325
erase,1326
ericsccparsedonedigitdemocrats,1327
erode,1328
errands,1329
errors,1330
escape,1331
especially,1332
essence,1333
essentially,1334
established,1335
estimate,1336
et,1337
ethanol,1338
ethics,1339
ethnic,1340
etiquette,1341
europeans,1342
evaporate,1343
evasion,1344
events,1345
eventually,1346
everybody,1347
evidence,1348
evidently,1349
evil,1350
evolution,1351
ex,1352
exact,1353
exacting,1354
exactly,1355
examined,1356
example,1357
examples,1358
excellent,1359
exceptional,1360
excesses,1361
excessive,1362
excuse,1363
execs,1364
executable,1365
execute,1366
executive,1367
executives,1368
exercise,1369
exhausted,1370
exhibitions,1371
exist,1372
existed,1373
existing,1374
exists,1375
expect,1376
expectations,1377
expected,1378
expecting,1379
expense,1380
expensive,1381
experience,1382
experiments,1383
explain,1384
explains,1385
explanation,1386
exploded,1387
explodes,1388
export,1389
exposed,1390
exposes,1391
express,1392
extended,1393
exterminated,1394
extinct,1395
extra,1396
extras,1397
extreme,1398
extremely,1399
extremes,1400
eye,1401
eyes,1402
fa,1403
face,1404
facebook,1405
facepalm,1406
facilities,1407
facility,1408
fact,1409
factor,1410
factors,1411
facts,1412
factually,1413
fag,1414
faggot,1415
fags,1416
fail,1417
failed,1418
failing,1419
fails,1420
failure,1421
fair,1422
fairly,1423
fake,1424
fallacy,1425
falls,1426
families,1427
family,1428
fan,1429
fanboy,1430
fancy,1431
fannie,1432
fans,1433
fantastic,1434
fantasy,1435
fantatics,1436
fap,1437
fapping,1438
far,1439
fares,1440
farfromperfectx,1441
farm,1442
farms,1443
fashion,1444
fast,1445
fastball,1446
faster,1447
fastest,1448
fat,1449
fatest,1450
fathers,1451
fatigue,1452
fault,1453
faults,1454
fauna,1455
faux,1456
favor,1457
favorite,1458
favorites,1459
favour,1460
fbi,1461
fear,1462
fears,1463
feasible,1464
feature,1465
features,1466
featuring,1467
feb,1468
fed,1469
federal,1470
fedex,1471
feed,1472
feeds,1473
feel,1474
feeling,1475
feels,1476
feet,1477
felines,1478
fella,1479
fellow,1480
felon,1481
felonies,1482
felt,1483
fema,1484
female,1485
fertility,1486
fertilization,1487
fewer,1488
ff,1489
fffffsssorry,1490
ffs,1491
fiction,1492
field,1493
fight,1494
fighters,1495
fighting,1496
fights,1497
figure,1498
figured,1499
figuring,1500
file,1501
files,1502
filetype,1503
filing,1504
filled,1505
fillion,1506
film,1507
filter,1508
filters,1509
final,1510
finally,1511
finances,1512
financial,1513
finding,1514
fine,1515
fing,1516
finger,1517
finish,1518
firearm,1519
firearms,1520
firebugs,1521
firefox,1522
fires,1523
firetrucks,1524
firm,1525
firms,1526
fiscal,1527
fish,1528
fist,1529
fix,1530
fixed,1531
fl,1532
flash,1533
flashing,1534
flattery,1535
flavored,1536
flood,1537
flooded,1538
floods,1539
floor,1540
floppy,1541
flowers,1542
fly,1543
flyballs,1544
flying,1545
focus,1546
folks,1547
follow,1548
following,1549
food,1550
fool,1551
foolish,1552
foolishly,1553
foolishness,1554
fools,1555
football,1556
footprint,1557
force,1558
forced,1559
forces,1560
forcing,1561
ford,1562
forecefully,1563
forehead,1564
foreign,1565
forensic,1566
forest,1567
forever,1568
forfeit,1569
forget,1570
forgive,1571
forklift,1572
forks,1573
form,1574
format,1575
formats,1576
formatted,1577
fortunately,1578
forums,1579
forward,1580
fossil,1581
fought,1582
foul,1583
founding,1584
fox,1585
foxit,1586
fp,1587
fparsedonedigit,1588
frame,1589
franklin,1590
fraud,1591
freak,1592
freakin,1593
freddie,1594
free,1595
freedom,1596
freely,1597
frequently,1598
fridayparsedfourdigits,1599
friend,1600
friends,1601
frost,1602
frowns,1603
ftp,1604
fu,1605
fuck,1606
fucked,1607
fuckin,1608
fucking,1609
fucktard,1610
fuel,1611
fuels,1612
fulfill,1613
fully,1614
fun,1615
function,1616
functions,1617
fundamental,1618
funding,1619
funds,1620
fungi,1621
fungieparsedonedigit,1622
funnier,1623
funny,1624
furious,1625
furnish,1626
future,1627
futuregen,1628
futuristic,1629
fuuuuuuuuuuuuuuuuuuuuuuuuuuuuuuuckwatch,1630
fuzzy,1631
gaiden,1632
gain,1633
gained,1634
gains,1635
galaxy,1636
gallon,1637
gamble,1638
game,1639
games,1640
gamevee,1641
gaming,1642
ganged,1643
gaqua,1644
gas,1645
gate,1646
gates,1647
gather,1648
gave,1649
gay,1650
gbvista,1651
gdp,1652
gear,1653
gee,1654
geek,1655
geeze,1656
general,1657
generalizing,1658
generally,1659
generated,1660
generation,1661
genitalia,1662
genius,1663
genuine,1664
geo,1665
geoblocking,1666
german,1667
germans,1668
germany,1669
gestapo,1670
gets,1671
getting,1672
getup,1673
giants,1674
gift,1675
gifts,1676
gin,1677
girl,1678
girls,1679
given,1680
gives,1681
giving,1682
glad,1683
glasses,1684
glitz,1685
global,1686
globe,1687
glove,1688
glowing,1689
gm,1690
gmail,1691
gneural,1692
goal,1693
goat,1694
goatee,1695
god,1696
goddamn,1697
godwin,1698
goes,1699
goin,1700
going,1701
gold,1702
golden,1703
goldmine,1704
gone,1705
gonna,1706
good,1707
goods,1708
google,1709
gop,1710
gorilla,1711
got,1712
gotta,1713
governed,1714
government,1715
grabber,1716
grad,1717
grades,1718
graduate,1719
grammar,1720
grand,1721
grandparents,1722
grandstanding,1723
granny,1724
grant,1725
granted,1726
grants,1727
graphic,1728
grasp,1729
grateful,1730
great,1731
greatest,1732
greed,1733
greedy,1734
green,1735
greeter,1736
gregg,1737
grievance,1738
gross,1739
ground,1740
group,1741
groups,1742
grow,1743
growing,1744
grown,1745
grows,1746
gsp,1747
guard,1748
guess,1749
guilty,1750
guitar,1751
gulag,1752
gump,1753
gun,1754
guns,1755
guy,1756
guys,1757
ha,1758
habit,1759
hack,1760
hackers,1761
hacks,1762
hah,1763
haha,1764
hahah,1765
hahahahaha,1766
hailed,1767
haircut,1768
half,1769
hall,1770
hamas,1771
hammer,1772
hand,1773
handed,1774
handicapped,1775
handing,1776
handle,1777
handles,1778
handling,1779
hang,1780
hannah,1781
happen,1782
happened,1783
happening,1784
happens,1785
happily,1786
happiness,1787
happy,1788
harbinger,1789
harbor,1790
harboring,1791
hard,1792
harder,1793
hardly,1794
hardware,1795
harmful,1796
harmless,1797
harness,1798
harrison,1799
harvard,1800
hasn,1801
hat,1802
hate,1803
hated,1804
hatred,1805
haven,1806
havent,1807
having,1808
hazard,1809
head,1810
headed,1811
headquarters,1812
heads,1813
headshot,1814
health,1815
healthcare,1816
healthier,1817
healthy,1818
heaps,1819
hear,1820
heard,1821
hearing,1822
hears,1823
heath,1824
heavy,1825
heck,1826
hedge,1827
hefty,1828
heheh,1829
height,1830
held,1831
helicopter,1832
hell,1833
hello,1834
helluva,1835
helmsley,1836
help,1837
helpful,1838
herbs,1839
hero,1840
heroes,1841
heroin,1842
herpes,1843
hes,1844
hey,1845
hezbollah,1846
hi,1847
hidden,1848
hide,1849
high,1850
higher,1851
highest,1852
highlights,1853
highly,1854
hilarious,1855
hilariously,1856
hill,1857
hint,1858
hippocratic,1859
hiring,1860
history,1861
hit,1862
hitler,1863
hitters,1864
hmm,1865
hmmm,1866
hmo,1867
hmos,1868
hold,1869
holder,1870
holding,1871
hole,1872
holes,1873
hollywood,1874
holocaust,1875
holy,1876
home,1877
homeland,1878
homeless,1879
homers,1880
homerun,1881
hominem,1882
homosexual,1883
homosexuality,1884
homosexuals,1885
honest,1886
honestly,1887
honesty,1888
honey,1889
honored,1890
hook,1891
hooker,1892
hoopla,1893
hooray,1894
hoot,1895
hope,1896
hoping,1897
horizon,1898
horizontal,1899
horrible,1900
horrific,1901
horror,1902
host,1903
hot,1904
hotel,1905
hottest,1906
hour,1907
hours,1908
house,1909
houses,1910
housing,1911
howard,1912
htc,1913
htpc,1914
hubris,1915
huffington,1916
huffingtonpost,1917
huge,1918
human,1919
humanitarian,1920
humanity,1921
hummers,1922
humor,1923
humorous,1924
hundreds,1925
hungry,1926
hunt,1927
hunter,1928
hurried,1929
hurt,1930
husband,1931
hybrid,1932
hybrids,1933
hydro,1934
hype,1935
hypocrisy,1936
hysterical,1937
iajdsiofajsuparsedtwodigitsiparsedfivedigits,1938
ianal,1939
iasoparsedfourdigits,1940
icbms,1941
ice,1942
iceberg,1943
icon,1944
idea,1945
ideal,1946
ideals,1947
ideas,1948
identity,1949
ideology,1950
idiot,1951
idiotic,1952
idiots,1953
ifpa,1954
ignorance,1955
ignore,1956
ignored,1957
ignoring,1958
ii,1959
ilk,1960
illegal,1961
illinois,1962
illness,1963
illnesses,1964
illogical,1965
im,1966
image,1967
imaginary,1968
imagine,1969
imho,1970
immigrants,1971
immortal,1972
immune,1973
immunity,1974
impact,1975
impartial,1976
impending,1977
implement,1978
implemented,1979
import,1980
important,1981
impose,1982
imposed,1983
impossible,1984
impressive,1985
improve,1986
improvement,1987
improvements,1988
inaccuracy,1989
inaccurate,1990
inch,1991
inciting,1992
inclination,1993
include,1994
included,1995
includes,1996
including,1997
incoherent,1998
income,1999
incoming,2000
inconvenienced,2001
incorrect,2002
increase,2003
increased,2004
increases,2005
increasing,2006
increasingly,2007
incredible,2008
incredibly,2009
incumbents,2010
indefinitely,2011
independence,2012
independent,2013
indian,2014
indians,2015
indication,2016
individual,2017
individuals,2018
induces,2019
inducing,2020
industrial,2021
industry,2022
ineligible,2023
infamous,2024
infection,2025
infections,2026
inflation,2027
influence,2028
influences,2029
info,2030
information,2031
informative,2032
informed,2033
infrastructure,2034
infringe,2035
ing,2036
inhaling,2037
inhofe,2038
initiative,2039
initiatives,2040
injure,2041
injured,2042
injury,2043
innings,2044
innnovators,2045
innocent,2046
innovation,2047
innovative,2048
input,2049
insane,2050
insecure,2051
insecurities,2052
insignificant,2053
insignificantly,2054
insinuation,2055
inspections,2056
inspiring,2057
install,2058
installation,2059
installations,2060
installing,2061
installment,2062
instant,2063
instantly,2064
instead,2065
instinct,2066
institute,2067
institutes,2068
institution,2069
institutions,2070
instruction,2071
insult,2072
insurance,2073
int,2074
integrate,2075
intelligence,2076
intelligent,2077
intelligentsia,2078
intend,2079
intended,2080
intense,2081
intensity,2082
interception,2083
interdependent,2084
interested,2085
interesting,2086
internal,2087
internet,2088
internets,2089
interpretation,2090
intervention,2091
interventionist,2092
interview,2093
intoxicated,2094
intrepidia,2095
intrinsic,2096
intro,2097
introduced,2098
introduction,2099
invade,2100
invaluable,2101
invented,2102
invest,2103
investigate,2104
investigated,2105
investigating,2106
investigation,2107
investigations,2108
investment,2109
invisible,2110
invoked,2111
involved,2112
involvement,2113
involves,2114
iparsedthreedigits,2115
iphone,2116
ipod,2117
iq,2118
iran,2119
irish,2120
irrational,2121
irrelevant,2122
irrelevent,2123
irresponsible,2124
irvine,2125
ish,2126
islam,2127
islamic,2128
island,2129
isn,2130
isnt,2131
isps,2132
israel,2133
issue,2134
ivy,2135
ixam,2136
ixquick,2137
jack,2138
jackals,2139
jackass,2140
jacket,2141
jail,2142
january,2143
japan,2144
japanese,2145
jason,2146
jealous,2147
jefferson,2148
jenkees,2149
jessica,2150
jesus,2151
jesusneverexisted,2152
jewish,2153
jews,2154
jfc,2155
jimmy,2156
jinandjuice,2157
job,2158
jobs,2159
jogging,2160
john,2161
join,2162
joined,2163
joke,2164
jokes,2165
jolly,2166
jon,2167
joomla,2168
journalist,2169
journalists,2170
jr,2171
judge,2172
judging,2173
jumbo,2174
jump,2175
june,2176
junior,2177
junk,2178
jury,2179
just,2180
justice,2181
justices,2182
justification,2183
justify,2184
justifying,2185
kanye,2186
karl,2187
kate,2188
katt,2189
kde,2190
keepers,2191
keeps,2192
keg,2193
kegs,2194
ken,2195
kennedy,2196
kenneth,2197
kept,2198
kerrigore,2199
ketchup,2200
kevin,2201
key,2202
keyboard,2203
keynesianism,2204
kick,2205
kicked,2206
kicks,2207
kid,2208
kidd,2209
kidding,2210
kids,2211
kiiiiiinda,2212
kill,2213
killed,2214
killer,2215
killing,2216
killings,2217
kills,2218
kilo,2219
kimmel,2220
kind,2221
kinda,2222
kindergarten,2223
kindle,2224
kinds,2225
kingdom,2226
kinseyincanada,2227
kkk,2228
knew,2229
knock,2230
knocked,2231
know,2232
knowing,2233
knowingly,2234
knowledge,2235
known,2236
knows,2237
kool,2238
koranimals,2239
korea,2240
kotaku,2241
krause,2242
krazy,2243
kroeger,2244
krugman,2245
kung,2246
kyl,2247
lab,2248
label,2249
labor,2250
labyrinth,2251
laced,2252
lack,2253
laffer,2254
laid,2255
lake,2256
lamb,2257
land,2258
language,2259
lantern,2260
lap,2261
large,2262
largely,2263
largest,2264
larry,2265
lasers,2266
lastly,2267
late,2268
lately,2269
later,2270
laugh,2271
laughable,2272
laughing,2273
launched,2274
laundry,2275
law,2276
lawmakers,2277
lawn,2278
laws,2279
lawyers,2280
lay,2281
layer,2282
laying,2283
layoff,2284
ld,2285
leach,2286
leaches,2287
lead,2288
leaders,2289
leadership,2290
league,2291
leaked,2292
leaps,2293
learn,2294
learned,2295
lease,2296
leash,2297
leave,2298
leaves,2299
ledger,2300
leed,2301
leeds,2302
leet,2303
left,2304
lefties,2305
leftist,2306
leftists,2307
leftost,2308
legal,2309
legalize,2310
legalized,2311
legalizing,2312
legally,2313
legislation,2314
legislative,2315
legit,2316
lego,2317
legs,2318
lemur,2319
lenders,2320
lends,2321
leona,2322
leopard,2323
lesbians,2324
lest,2325
let,2326
lets,2327
letter,2328
letting,2329
level,2330
levels,2331
li,2332
liar,2333
libel,2334
liberal,2335
liberation,2336
liberties,2337
libraries,2338
libs,2339
libtards,2340
licencing,2341
license,2342
licensed,2343
lie,2344
lies,2345
life,2346
lifehacker,2347
lift,2348
light,2349
like,2350
likely,2351
likeness,2352
lil,2353
limited,2354
limits,2355
line,2356
lines,2357
link,2358
linked,2359
links,2360
list,2361
listen,2362
listened,2363
listening,2364
lists,2365
literal,2366
literate,2367
little,2368
live,2369
lives,2370
living,2371
ll,2372
load,2373
loan,2374
loans,2375
local,2376
localization,2377
locked,2378
log,2379
logic,2380
logo,2381
logon,2382
lol,2383
lold,2384
long,2385
longer,2386
longstanding,2387
look,2388
looking,2389
looks,2390
loose,2391
lord,2392
los,2393
lose,2394
loser,2395
loses,2396
losing,2397
loss,2398
losses,2399
lost,2400
lot,2401
lots,2402
love,2403
loved,2404
loveless,2405
lovelyness,2406
loves,2407
low,2408
lowcountry,2409
lower,2410
lowered,2411
lowering,2412
loyola,2413
luck,2414
lump,2415
lunch,2416
lures,2417
lying,2418
lyrics,2419
mac,2420
macbook,2421
macbooks,2422
machine,2423
machines,2424
macintosh,2425
madness,2426
mae,2427
magnificent,2428
mail,2429
maimed,2430
main,2431
maine,2432
mainstream,2433
maintenance,2434
major,2435
majoring,2436
majority,2437
make,2438
makers,2439
makes,2440
making,2441
malaria,2442
male,2443
malfunctioning,2444
malls,2445
man,2446
managed,2447
management,2448
mandated,2449
mandates,2450
mandatory,2451
maniac,2452
manifesto,2453
manipulating,2454
mantra,2455
manual,2456
manufacture,2457
manufacturers,2458
manufacturing,2459
marching,2460
marginal,2461
marginalizing,2462
margins,2463
marijuana,2464
mario,2465
market,2466
marketing,2467
marq,2468
marriage,2469
marriages,2470
married,2471
marry,2472
marshalls,2473
martinez,2474
marxism,2475
marxists,2476
maryland,2477
mash,2478
mass,2479
massively,2480
master,2481
match,2482
mate,2483
material,2484
math,2485
matter,2486
matters,2487
mattoon,2488
maximum,2489
maybe,2490
mayer,2491
mayor,2492
mba,2493
mccain,2494
mcdonalds,2495
mcmansions,2496
mead,2497
mean,2498
meanie,2499
means,2500
meant,2501
measurement,2502
mechanical,2503
media,2504
medicaid,2505
medical,2506
medicare,2507
medication,2508
medications,2509
medicine,2510
meet,2511
meh,2512
mel,2513
melbourne,2514
meltdown,2515
members,2516
membership,2517
meme,2518
memorization,2519
men,2520
mental,2521
mentality,2522
mentally,2523
mention,2524
mentioned,2525
merch,2526
merdieselnail,2527
merely,2528
mess,2529
message,2530
messed,2531
messiuh,2532
metal,2533
meth,2534
methanol,2535
method,2536
methods,2537
mets,2538
mexican,2539
mexico,2540
michael,2541
microbiology,2542
microcosim,2543
microorganism,2544
microsecond,2545
microsoft,2546
mid,2547
middle,2548
mighty,2549
mike,2550
miknarf,2551
mile,2552
mileage,2553
military,2554
milk,2555
million,2556
millionaire,2557
millions,2558
mind,2559
minded,2560
minerals,2561
miners,2562
mini,2563
minimal,2564
minimizes,2565
minimum,2566
minnesota,2567
minor,2568
minority,2569
minute,2570
minutes,2571
miracle,2572
miserable,2573
misguided,2574
misinterpret,2575
misleading,2576
misrepresenting,2577
miss,2578
missed,2579
missing,2580
mission,2581
mistake,2582
mistaken,2583
mix,2584
mmm,2585
moan,2586
moans,2587
mob,2588
mobile,2589
model,2590
modern,2591
modernization,2592
molester,2593
mom,2594
moment,2595
moms,2596
monarchy,2597
money,2598
mongers,2599
monitor,2600
monster,2601
montana,2602
month,2603
months,2604
mootools,2605
moral,2606
morality,2607
morally,2608
morals,2609
mormon,2610
morning,2611
moron,2612
morons,2613
mortgage,2614
mortgages,2615
mother,2616
motherf,2617
motherfuckers,2618
mothers,2619
motion,2620
motivation,2621
motivations,2622
motive,2623
motofone,2624
mouths,2625
moved,2626
movement,2627
moveon,2628
movie,2629
movies,2630
moving,2631
mowe,2632
mozart,2633
mpaa,2634
mpparsedonedigit,2635
mpparsedonedigits,2636
mrbabyman,2637
ms,2638
muahahahahaha,2639
muck,2640
mucking,2641
mud,2642
muhammad,2643
mumbai,2644
mumbo,2645
muppets,2646
murder,2647
murdered,2648
murderous,2649
music,2650
muslim,2651
muslims,2652
mystery,2653
nah,2654
nail,2655
nailed,2656
naive,2657
named,2658
nancy,2659
narcotics,2660
nasa,2661
nathan,2662
nation,2663
national,2664
nationalist,2665
nationalization,2666
nationalized,2667
nationhood,2668
nations,2669
natives,2670
natural,2671
naturally,2672
nature,2673
nazi,2674
near,2675
necessarily,2676
necessary,2677
need,2678
needed,2679
needs,2680
neely,2681
negate,2682
negative,2683
negligible,2684
neighborhoods,2685
neighbors,2686
neo,2687
nes,2688
net,2689
network,2690
networks,2691
new,2692
news,2693
newses,2694
newspapers,2695
ng,2696
nice,2697
niconiconico,2698
nietzsche,2699
night,2700
nightmare,2701
ninja,2702
nintendo,2703
nite,2704
nobel,2705
noble,2706
nobodies,2707
nodparsedtwodigits,2708
nominees,2709
non,2710
nonconformist,2711
noob,2712
noooooo,2713
nope,2714
normal,2715
normally,2716
north,2717
northwatuppa,2718
norton,2719
nose,2720
note,2721
nothingness,2722
nothings,2723
notice,2724
notting,2725
noumuon,2726
noun,2727
novels,2728
noxious,2729
nsw,2730
ntfs,2731
nuclear,2732
nuke,2733
number,2734
numbers,2735
nut,2736
nutcases,2737
nuts,2738
nvidia,2739
nwo,2740
o_o,2741
o_parsedonedigit,2742
oak,2743
oath,2744
obam,2745
obama,2746
object,2747
objectively,2748
obligation,2749
obscure,2750
obsolete,2751
obvious,2752
obviously,2753
occasional,2754
occupation,2755
occur,2756
occurred,2757
ocean,2758
oceanic,2759
offending,2760
offensive,2761
offer,2762
office,2763
officer,2764
officers,2765
official,2766
officials,2767
oh,2768
ohshi,2769
oifdasparsedonedigitifasparsedthreedigits,2770
oil,2771
ok,2772
okay,2773
oklahoma,2774
old,2775
ones,2776
online,2777
ooh,2778
ooooooohhhhhhh,2779
op,2780
opelz,2781
open,2782
opened,2783
opens,2784
opera,2785
operating,2786
opinion,2787
opponents,2788
opportunity,2789
oppose,2790
opposed,2791
opposing,2792
oppurtunity,2793
opt,2794
opted,2795
optimal,2796
optimally,2797
options,2798
orange,2799
order,2800
ordinary,2801
oregon,2802
oregonian,2803
org,2804
organization,2805
orientation,2806
original,2807
os,2808
osama,2809
oscar,2810
osx,2811
ot,2812
outcome,2813
outer,2814
outright,2815
outrun,2816
outside,2817
overall,2818
overhaul,2819
overkill,2820
overload,2821
overpowered,2822
overpriced,2823
overreaction,2824
overthrow,2825
overtime,2826
overused,2827
owl,2828
owner,2829
owners,2830
owning,2831
owns,2832
pack,2833
package,2834
packaging,2835
packed,2836
packet,2837
packing,2838
padded,2839
page,2840
pages,2841
paid,2842
paint,2843
pair,2844
palestinians,2845
palin,2846
palmero,2847
palooza,2848
panda,2849
pandas,2850
pandering,2851
pants,2852
paper,2853
parachute,2854
paragraph,2855
parallel,2856
parent,2857
parents,2858
park,2859
parole,2860
parseddigits,2861
parseddigitsjkasdaopd,2862
parsedfivedigits,2863
parsedfourdigits,2864
parsedfourdigitsathlon,2865
parsedfourdigitsoijdf,2866
parsedfourdigitswho,2867
parsedonedigit,2868
parsedonedigitchan,2869
parsedonedigitd,2870
parsedonedigitth,2871
parsedonedigitx,2872
parsedthreedigits,2873
parsedthreedigitsk,2874
parsedthreedigitskz,2875
parsedthreedigitsmpg,2876
parsedtime,2877
parsedtwodigits,2878
parsedtwodigitsgb,2879
parsedtwodigitsk,2880
parsedtwodigitss,2881
particular,2882
particularly,2883
parties,2884
partisan,2885
parts,2886
party,2887
pass,2888
passed,2889
passenger,2890
passes,2891
passwindow,2892
password,2893
past,2894
pasteurization,2895
patent,2896
patently,2897
path,2898
pathetic,2899
patrick,2900
patriot,2901
paul,2902
pay,2903
paygrade,2904
payment,2905
payments,2906
pays,2907
pc,2908
pcp,2909
peace,2910
peaceful,2911
peaches,2912
pearl,2913
pedantic,2914
pedophiles,2915
peds,2916
peers,2917
pelosi,2918
pelt,2919
penalizes,2920
penalty,2921
penance,2922
penises,2923
people,2924
percent,2925
percentage,2926
percentages,2927
perception,2928
perfect,2929
perfectly,2930
performed,2931
periods,2932
permanence,2933
permissible,2934
permissions,2935
perpetuates,2936
person,2937
persona,2938
personal,2939
personality,2940
personally,2941
persons,2942
perversity,2943
pesticides,2944
pet,2945
peter,2946
pets,2947
ph,2948
pharma,2949
phelps,2950
phenomena,2951
phone,2952
phones,2953
photo,2954
photos,2955
phrase,2956
physical,2957
physically,2958
picard,2959
pick,2960
picked,2961
picker,2962
pics,2963
picture,2964
pie,2965
piece,2966
pieces,2967
pile,2968
pills,2969
pilot,2970
pinch,2971
pint,2972
pipe,2973
pirate,2974
pissed,2975
pissing,2976
pistol,2977
pit,2978
pitcher,2979
pitchers,2980
pitches,2981
pitching,2982
pitt,2983
place,2984
placement,2985
placing,2986
plain,2987
plan,2988
plane,2989
planet,2990
planets,2991
planning,2992
plant,2993
plants,2994
platform,2995
platformers,2996
play,2997
played,2998
player,2999
players,3000
playing,3001
pleaded,3002
plenty,3003
plug,3004
plural,3005
plurality,3006
plus,3007
pm,3008
pnac,3009
pocket,3010
pockets,3011
point,3012
points,3013
poison,3014
poisoning,3015
poisonous,3016
poitier,3017
pole,3018
poles,3019
police,3020
policies,3021
policy,3022
political,3023
politically,3024
politicians,3025
politiciansgo,3026
politics,3027
ponzi,3028
poor,3029
poorer,3030
pop,3031
pope,3032
popular,3033
population,3034
pork,3035
porn,3036
pornography,3037
portion,3038
position,3039
positions,3040
possession,3041
possessive,3042
possible,3043
possibly,3044
post,3045
posted,3046
poster,3047
posters,3048
posting,3049
postponed,3050
pot,3051
potentially,3052
potheads,3053
pounds,3054
power,3055
powerful,3056
powerplant,3057
pox,3058
ppl,3059
practical,3060
practice,3061
practiced,3062
practicing,3063
praise,3064
praying,3065
pre,3066
preaching,3067
precedent,3068
precisely,3069
predators,3070
predicting,3071
preference,3072
preferential,3073
pregnant,3074
preinstalled,3075
premise,3076
premiums,3077
preparation,3078
presence,3079
present,3080
presented,3081
preserve,3082
presidency,3083
president,3084
press,3085
presses,3086
presumably,3087
pretend,3088
pretends,3089
pretty,3090
prevent,3091
prevention,3092
price,3093
prices,3094
prick,3095
priest,3096
primarily,3097
principles,3098
print,3099
printed,3100
printing,3101
prior,3102
priority,3103
prison,3104
prisoner,3105
prisoners,3106
prisons,3107
privacy,3108
private,3109
privately,3110
privilege,3111
prize,3112
pro,3113
probability,3114
probably,3115
probed,3116
problem,3117
problems,3118
probs,3119
procedures,3120
process,3121
procreate,3122
produce,3123
produced,3124
producer,3125
product,3126
production,3127
productive,3128
products,3129
professional,3130
professionally,3131
professors,3132
profit,3133
profitable,3134
profiteer,3135
program,3136
programs,3137
progress,3138
project,3139
projects,3140
prominent,3141
promise,3142
promised,3143
promotes,3144
promoting,3145
promptly,3146
proof,3147
prop,3148
propaganda,3149
propeller,3150
proper,3151
properly,3152
properties,3153
property,3154
prophet,3155
proponents,3156
proportion,3157
proposed,3158
props,3159
prosecution,3160
prosecutions,3161
prosecutors,3162
prostitue,3163
protect,3164
protecting,3165
protectionism,3166
protectionist,3167
protein,3168
prove,3169
proved,3170
proven,3171
provide,3172
provided,3173
providing,3174
provision,3175
provisions,3176
proxy,3177
ps,3178
psa,3179
pseudo,3180
psn,3181
psst,3182
psuedo,3183
psychiatric,3184
psychiatrist,3185
psycho,3186
psychological,3187
psychopathic,3188
public,3189
publicity,3190
publicly,3191
publishing,3192
pubs,3193
pudge,3194
pull,3195
pulled,3196
pulling,3197
punch,3198
pundits,3199
punished,3200
punishment,3201
purchases,3202
pure,3203
purse,3204
pursued,3205
pursuits,3206
push,3207
pushed,3208
pussy,3209
pussys,3210
puts,3211
putting,3212
puzzle,3213
pv,3214
pyramid,3215
qld,3216
qm,3217
quality,3218
quantities,3219
quantity,3220
quantum,3221
question,3222
questioned,3223
questioning,3224
questions,3225
quick,3226
quiet,3227
quit,3228
quite,3229
quote,3230
quoted,3231
qwest,3232
rabbit,3233
race,3234
racism,3235
racist,3236
radiative,3237
radical,3238
radicals,3239
raffled,3240
rafikichi,3241
raging,3242
rahm,3243
raids,3244
rail,3245
raise,3246
raised,3247
raising,3248
rajim,3249
ram,3250
ramen,3251
rampant,3252
ranch,3253
random,3254
range,3255
ranked,3256
ranking,3257
rant,3258
ranting,3259
rape,3260
rapidly,3261
rarely,3262
rate,3263
rates,3264
rating,3265
rational,3266
raving,3267
ray,3268
razor,3269
reaction,3270
read,3271
reader,3272
readers,3273
reading,3274
readjust,3275
ready,3276
real,3277
reality,3278
realize,3279
realized,3280
realizing,3281
really,3282
reason,3283
reasonable,3284
reasonably,3285
reasons,3286
recall,3287
receive,3288
received,3289
receives,3290
receiving,3291
recent,3292
recently,3293
recession,3294
recipe,3295
recognise,3296
recognize,3297
record,3298
recorded,3299
recording,3300
records,3301
recover,3302
recovery,3303
red,3304
redeye,3305
reduce,3306
reduction,3307
reeve,3308
reference,3309
refers,3310
reflected,3311
refreshing,3312
refused,3313
refuses,3314
regard,3315
regarding,3316
regardless,3317
regimes,3318
region,3319
regret,3320
regular,3321
regularly,3322
regulation,3323
rehabilitation,3324
reilly,3325
reinstate,3326
reinvestment,3327
rejected,3328
related,3329
relatively,3330
release,3331
released,3332
relegated,3333
relevant,3334
relics,3335
relief,3336
religion,3337
religions,3338
religious,3339
relying,3340
remained,3341
remains,3342
remaking,3343
remember,3344
reminded,3345
reminds,3346
remorse,3347
removal,3348
remove,3349
removed,3350
render,3351
rendition,3352
renegotiate,3353
renovate,3354
renovating,3355
renovation,3356
renovations,3357
rent,3358
repair,3359
repayment,3360
repeal,3361
repeat,3362
repeatedly,3363
replace,3364
replenished,3365
reported,3366
reporters,3367
reports,3368
repost,3369
represent,3370
representation,3371
represents,3372
reproach,3373
reptilians,3374
republic,3375
republican,3376
republicans,3377
republithug,3378
require,3379
required,3380
requires,3381
rescue,3382
research,3383
reserve,3384
reserved,3385
resign,3386
resin,3387
resort,3388
resource,3389
resources,3390
respect,3391
responding,3392
response,3393
responsibility,3394
responsible,3395
rest,3396
restoration,3397
restoring,3398
restriction,3399
restrictions,3400
result,3401
results,3402
retard,3403
retarded,3404
retire,3405
retrace,3406
retribution,3407
return,3408
returned,3409
revealing,3410
revenge,3411
revenues,3412
reverse,3413
reversing,3414
reviever,3415
review,3416
reviewer,3417
reviews,3418
revolt,3419
revolution,3420
rewarding,3421
riaa,3422
rib,3423
rich,3424
rick,3425
rid,3426
ridden,3427
ride,3428
ridiculous,3429
rifle,3430
rifles,3431
rig,3432
right,3433
rights,3434
riled,3435
rino,3436
rinse,3437
ripp,3438
rips,3439
rise,3440
risks,3441
rivals,3442
river,3443
roaches,3444
road,3445
roar,3446
robbots,3447
robbottodays,3448
robert,3449
robocop,3450
robotfindskitten,3451
robots,3452
robs,3453
rochester,3454
rock,3455
rocks,3456
rocky,3457
rodriguez,3458
roid,3459
role,3460
roll,3461
romance,3462
ron,3463
ronald,3464
room,3465
root,3466
rope,3467
rose,3468
rotate,3469
roughly,3470
round,3471
roundup,3472
rove,3473
royalties,3474
rss,3475
rufies,3476
rugburn,3477
ruined,3478
rule,3479
rules,3480
run,3481
runners,3482
running,3483
runs,3484
rural,3485
rush,3486
rushycontin,3487
russian,3488
rustproofing,3489
ruth,3490
ryan,3491
sacrifice,3492
sad,3493
sadly,3494
safari,3495
safe,3496
safely,3497
safety,3498
sahfaaari,3499
said,3500
sake,3501
salaries,3502
sales,3503
salt,3504
sand,3505
sandiego,3506
santa,3507
saps,3508
sarc,3509
sarcasm,3510
sarcasmi,3511
sarcastic,3512
sat,3513
satellite,3514
satisfied,3515
saudi,3516
save,3517
saving,3518
saw,3519
say,3520
sayglobal,3521
saying,3522
sayings,3523
says,3524
scale,3525
scam,3526
scandal,3527
scandinavia,3528
scarce,3529
scenario,3530
scene,3531
sceptical,3532
scheme,3533
schiff,3534
scholar,3535
school,3536
schoolgirls,3537
schools,3538
schwarzy,3539
science,3540
scientifically,3541
scientists,3542
scientology,3543
scott,3544
scratching,3545
screen,3546
screw,3547
screwed,3548
scroll,3549
sea,3550
search,3551
season,3552
seat,3553
seated,3554
sec,3555
secessionist,3556
second,3557
secondly,3558
seconds,3559
secrecy,3560
secret,3561
secretary,3562
secrets,3563
sect,3564
sectarian,3565
section,3566
sector,3567
secure,3568
secured,3569
security,3570
seeing,3571
seen,3572
seinfeld,3573
seized,3574
selected,3575
self,3576
selfish,3577
sell,3578
sellers,3579
selling,3580
sells,3581
semi,3582
sen,3583
senate,3584
send,3585
senior,3586
sense,3587
sensible,3588
sensitivity,3589
sentence,3590
sentencing,3591
sentience,3592
seoul,3593
serendipitous,3594
seriously,3595
served,3596
server,3597
servers,3598
service,3599
services,3600
set,3601
settings,3602
seven,3603
seventy,3604
severe,3605
sewer,3606
sex,3607
sexual,3608
sexually,3609
sexy,3610
sh,3611
shadows,3612
shady,3613
shall,3614
sham,3615
shame,3616
share,3617
shared,3618
shareholders,3619
sharers,3620
sharing,3621
sharks,3622
sharp,3623
sharpton,3624
sheesh,3625
sheik,3626
sheriff,3627
shi,3628
shift,3629
shiny,3630
ship,3631
shit,3632
shitty,3633
shock,3634
shocking,3635
shoot,3636
shooting,3637
shops,3638
short,3639
shortfall,3640
shot,3641
shotgun,3642
shoulders,3643
shouted,3644
shouts,3645
shoved,3646
showed,3647
showing,3648
shows,3649
shparsedonedigitts,3650
shrek,3651
shut,3652
shuttle,3653
sibel,3654
sick,3655
sickness,3656
sickthoughts,3657
sides,3658
sideswiped,3659
sift,3660
sighted,3661
sign,3662
signed,3663
significance,3664
significant,3665
significantly,3666
silence,3667
silk,3668
silly,3669
silver,3670
similar,3671
simple,3672
simply,3673
simpson,3674
simpsons,3675
sincerely,3676
singing,3677
single,3678
singular,3679
sink,3680
sir,3681
sirius,3682
site,3683
sites,3684
size,3685
skeptical,3686
skews,3687
skill,3688
skirt,3689
skittlesusamarket,3690
slammed,3691
slap,3692
slaughters,3693
slavery,3694
sleek,3695
sleep,3696
sleeves,3697
slept,3698
slice,3699
slightest,3700
slinging,3701
slip,3702
slipped,3703
slow,3704
slumdog,3705
slums,3706
small,3707
smallest,3708
smallpox,3709
smart,3710
smashing,3711
smells,3712
smithsonian,3713
smoke,3714
smoked,3715
smoking,3716
snake,3717
snakes,3718
snap,3719
sniper,3720
snobby,3721
snoobish,3722
soccer,3723
social,3724
socialblade,3725
socialism,3726
socialist,3727
socially,3728
society,3729
sociopath,3730
socks,3731
sodade,3732
software,3733
solar,3734
sold,3735
soldiers,3736
solid,3737
solution,3738
somebody,3739
someplace,3740
somewhat,3741
sone,3742
song,3743
songs,3744
sony,3745
soon,3746
sooner,3747
sooni,3748
sooo,3749
soooo,3750
sore,3751
sorry,3752
sort,3753
sorts,3754
sosa,3755
soul,3756
sound,3757
sounds,3758
soundtrack,3759
source,3760
sourced,3761
sources,3762
south,3763
soviet,3764
sowell,3765
space,3766
spam,3767
spamming,3768
spar,3769
sparing,3770
spc,3771
speak,3772
speaking,3773
speaks,3774
special,3775
specialized,3776
species,3777
specif,3778
specific,3779
specifically,3780
spectre,3781
speech,3782
speed,3783
speedo,3784
spell,3785
spend,3786
spending,3787
spends,3788
spendulous,3789
spent,3790
spewing,3791
spikes,3792
spiral,3793
splains,3794
splicing,3795
split,3796
splitting,3797
spoiled,3798
spoiler,3799
spoils,3800
spoofed,3801
sport,3802
spread,3803
spreading,3804
spyware,3805
sqeaking,3806
squad,3807
square,3808
squealing,3809
squirrel,3810
st,3811
stadiums,3812
staff,3813
stage,3814
stagflation,3815
stand,3816
standard,3817
standards,3818
standing,3819
standpoint,3820
stands,3821
stapp,3822
star,3823
start,3824
started,3825
starting,3826
starts,3827
starve,3828
starving,3829
state,3830
stated,3831
statement,3832
statements,3833
staters,3834
states,3835
static,3836
station,3837
statistically,3838
status,3839
stay,3840
stays,3841
stds,3842
steal,3843
stealing,3844
stearns,3845
steel,3846
step,3847
steps,3848
stereotype,3849
stern,3850
steve,3851
stfu,3852
stick,3853
sticking,3854
stimulates,3855
stimulative,3856
stimulus,3857
stinger,3858
stock,3859
stoner,3860
stones,3861
stoning,3862
stood,3863
stop,3864
stopped,3865
store,3866
stored,3867
storeowner,3868
stores,3869
stories,3870
story,3871
straight,3872
strains,3873
strange,3874
strap,3875
straps,3876
streaming,3877
street,3878
streets,3879
strength,3880
stressed,3881
strictly,3882
strike,3883
strikeouts,3884
strikes,3885
string,3886
stripper,3887
strippers,3888
strong,3889
stronger,3890
strparsedonedigitfehe,3891
structure,3892
struggling,3893
stuck,3894
student,3895
students,3896
studied,3897
studies,3898
study,3899
stuff,3900
stupid,3901
stupidest,3902
style,3903
subconscious,3904
subject,3905
subjugation,3906
submission,3907
submit,3908
submitted,3909
subs,3910
subsidies,3911
subsidise,3912
subsidy,3913
substance,3914
substantial,3915
substantially,3916
substitute,3917
subsumed,3918
subterranean,3919
subtleties,3920
subway,3921
success,3922
successful,3923
suck,3924
sucked,3925
sucking,3926
sucks,3927
sudden,3928
sue,3929
sues,3930
suffer,3931
suffered,3932
suggest,3933
suggestion,3934
suggests,3935
suicide,3936
suleman,3937
sulphur,3938
sum,3939
summer,3940
sumo,3941
super,3942
superior,3943
superman,3944
supply,3945
support,3946
supported,3947
supporter,3948
supporters,3949
supports,3950
supposed,3951
supposedly,3952
sure,3953
surely,3954
surfaces,3955
surfstang,3956
surpass,3957
surprise,3958
surprised,3959
surprises,3960
surrender,3961
surrounded,3962
surveying,3963
suspect,3964
suspense,3965
swap,3966
swat,3967
swear,3968
sweat,3969
swig,3970
swim,3971
swinging,3972
swollen,3973
symbol,3974
systems,3975
table,3976
tactics,3977
taken,3978
takes,3979
taking,3980
tale,3981
talent,3982
taliban,3983
talk,3984
talked,3985
talking,3986
talks,3987
tank,3988
tanukiparsedonedigiteven,3989
tape,3990
tapes,3991
target,3992
targets,3993
tasteless,3994
taught,3995
tax,3996
taxation,3997
taxes,3998
taxpayers,3999
tbh,4000
teachers,4001
teaches,4002
teaching,4003
teams,4004
technique,4005
technology,4006
techs,4007
teh,4008
tekhpoynt,4009
television,4010
tell,4011
tellin,4012
telling,4013
tells,4014
temperatures,4015
tempered,4016
temporarily,4017
temporary,4018
tend,4019
tendencies,4020
tends,4021
tens,4022
term,4023
terminal,4024
terms,4025
terrible,4026
terroist,4027
terrorism,4028
terrorist,4029
test,4030
testimony,4031
tests,4032
texas,4033
text,4034
texting,4035
tham,4036
thank,4037
thanks,4038
thanparsedfourdigits,4039
thanx,4040
thats,4041
thc,4042
theater,4043
theaters,4044
theft,4045
theirs,4046
theme,4047
theory,4048
therapy,4049
therefor,4050
theres,4051
theyll,4052
thier,4053
thing,4054
things,4055
think,4056
thinking,4057
thinks,4058
thirds,4059
thirsty,4060
thomas,4061
thorazine,4062
thought,4063
thoughts,4064
thousand,4065
thousands,4066
thread,4067
threat,4068
threatened,4069
threatening,4070
threatens,4071
threesome,4072
throw,4073
thrown,4074
thunder,4075
thunderbird,4076
tibetans,4077
ticket,4078
tickets,4079
tier,4080
tiger,4081
tigers,4082
tight,4083
tilt,4084
time,4085
times,4086
timing,4087
tip,4088
tired,4089
titanic,4090
title,4091
tobacco,4092
today,4093
toilet,4094
told,4095
tomorrow,4096
tone,4097
tonnes,4098
took,4099
tool,4100
torn,4101
torrent,4102
torture,4103
torturing,4104
totally,4105
touchdown,4106
touched,4107
touching,4108
tough,4109
town,4110
toys,4111
trace,4112
traced,4113
track,4114
tractors,4115
trade,4116
trading,4117
traditional,4118
traditionally,4119
traffic,4120
trailer,4121
trained,4122
training,4123
trains,4124
trans,4125
transition,4126
translated,4127
transportation,4128
transsexual,4129
trap,4130
trappings,4131
trash,4132
travesty,4133
treasury,4134
treat,4135
treated,4136
treatment,4137
treatments,4138
treaty,4139
trend,4140
trendy,4141
trentadue,4142
trial,4143
trials,4144
tried,4145
tries,4146
trillion,4147
trolling,4148
trolls,4149
troop,4150
troops,4151
tropic,4152
trouble,4153
troubling,4154
trough,4155
truck,4156
true,4157
truly,4158
trunk,4159
trust,4160
trusted,4161
truth,4162
truths,4163
try,4164
trying,4165
ts,4166
tty,4167
tubatechno,4168
tucker,4169
tune,4170
turbines,4171
turd,4172
turf,4173
turk,4174
turn,4175
turned,4176
turning,4177
turns,4178
tv,4179
twice,4180
twisted,4181
twisting,4182
twitter,4183
type,4184
types,4185
typical,4186
typing,4187
tyrants,4188
ugh,4189
uhbama,4190
uhhh,4191
uk,4192
ultimately,4193
um,4194
umm,4195
unbelievable,4196
unclaimed,4197
undead,4198
underestimate,4199
undermines,4200
understand,4201
understandable,4202
understanding,4203
understood,4204
underway,4205
undoubtedly,4206
unemployed,4207
unfortunately,4208
unhealthy,4209
uni,4210
unintended,4211
union,4212
unipolar,4213
unite,4214
united,4215
universal,4216
universe,4217
university,4218
unjust,4219
unknown,4220
unless,4221
unlucky,4222
unmannedmissionhope,4223
unreasonable,4224
unrelatedgold,4225
unstated,4226
untie,4227
update,4228
updates,4229
upgrade,4230
upgraded,4231
upgrading,4232
upheld,4233
uphill,4234
uploading,4235
upper,4236
ups,4237
upscale,4238
uptick,4239
urban,4240
urge,4241
usa,4242
usage,4243
use,4244
used,4245
useless,4246
user,4247
username,4248
users,4249
uses,4250
using,4251
usps,4252
usual,4253
usually,4254
utilizing,4255
utorrent,4256
utterly,4257
vacation,4258
vaccines,4259
vader,4260
vagina,4261
vague,4262
valentine,4263
valid,4264
value,4265
valued,4266
values,4267
vampires,4268
vandalism,4269
variety,4270
vast,4271
vastly,4272
ve,4273
vegas,4274
vehicle,4275
vehicles,4276
velocity,4277
vending,4278
venomous,4279
verb,4280
verizon,4281
verses,4282
version,4283
vespertine,4284
veterans,4285
vhs,4286
vibrant,4287
vibrating,4288
vicious,4289
victim,4290
victims,4291
victoria,4292
victory,4293
video,4294
view,4295
viewer,4296
viewing,4297
vigor,4298
vinegar,4299
violence,4300
violent,4301
virtual,4302
virtually,4303
virus,4304
visible,4305
vista,4306
vitriolandangst,4307
vitro,4308
voice,4309
volt,4310
volunteering,4311
vote,4312
voted,4313
voters,4314
voyeur,4315
vying,4316
wade,4317
wait,4318
waited,4319
waiting,4320
walk,4321
walked,4322
walking,4323
walks,4324
wall,4325
wallpaper,4326
walmart,4327
wanna,4328
wannabes,4329
want,4330
wanted,4331
wanting,4332
wants,4333
war,4334
warming,4335
warning,4336
warrant,4337
warrants,4338
wars,4339
washington,4340
wasn,4341
waste,4342
wasted,4343
wasting,4344
watch,4345
watched,4346
watchin,4347
watching,4348
watchmen,4349
water,4350
watermelons,4351
watershed,4352
wave,4353
way,4354
ways,4355
wazoo,4356
weak,4357
wealth,4358
weapons,4359
wear,4360
wears,4361
weather,4362
web,4363
webdesigners,4364
webkit,4365
webscriptions,4366
website,4367
websites,4368
wee,4369
weed,4370
week,4371
weeks,4372
weighing,4373
weight,4374
weird,4375
welcome,4376
welcoming,4377
welfare,4378
went,4379
weren,4380
west,4381
western,4382
whaaa,4383
whaaaa,4384
whacks,4385
whats,4386
whatsoever,4387
whatwe,4388
wheels,4389
whiners,4390
whining,4391
whip,4392
whipped,4393
white,4394
whiteness,4395
whomever,4396
whyve,4397
wicked,4398
wide,4399
widely,4400
wife,4401
wifi,4402
wii,4403
wiki,4404
wikipedia,4405
wild,4406
wildland,4407
wildlife,4408
williams,4409
willing,4410
win,4411
wind,4412
winded,4413
window,4414
windows,4415
windowsuntil,4416
windy,4417
wine,4418
winge,4419
wings,4420
winmo,4421
winner,4422
winning,4423
winslet,4424
wipe,4425
wiretapping,4426
wise,4427
wish,4428
wishing,4429
witch,4430
withdrew,4431
withholds,4432
withot,4433
withstand,4434
wives,4435
wolfowitz,4436
woman,4437
women,4438
won,4439
wonder,4440
wonderful,4441
wondering,4442
wont,4443
woo,4444
wood,4445
woods,4446
woodsoh,4447
woodsparsedonedigit,4448
woooooo,4449
woot,4450
word,4451
wording,4452
words,4453
wore,4454
work,4455
worked,4456
working,4457
workplace,4458
works,4459
world,4460
worlds,4461
worried,4462
worries,4463
worrisome,4464
worry,4465
worse,4466
worship,4467
worst,4468
worth,4469
worthless,4470
worthy,4471
wouldn,4472
wow,4473
woz,4474
wparsedonedigit,4475
wrist,4476
write,4477
writer,4478
writers,4479
writers_guild_of,4480
written,4481
wrong,4482
wsads,4483
wtf,4484
wussy,4485
wwe,4486
xbox,4487
xdsorry,4488
xm,4489
xp,4490
xparsedonedigit,4491
xparsedthreedigits,4492
xvid,4493
ya,4494
yahoo,4495
yahtzee,4496
yankees,4497
yapping,4498
yay,4499
yeah,4500
year,4501
years,4502
yeast,4503
yeeeeeahhhh,4504
yelling,4505
yelp,4506
yen,4507
yep,4508
yes,4509
yessss,4510
yesterday,4511
york,4512
young,4513
youre,4514
youth,4515
yummy,4516
zendezparsedonedigit,4517
zero,4518
zip,4519
zipline,4520
zog,4521
zombie,4522
zombies,4523
zoo,4524
