abandoned,0
ability,1
able,2
abroad,3
abrogated,4
absolute,5
absolutely,6
absurd,7
abuse,8
abused,9
abuses,10
accept,11
acceptable,12
acceptance,13
accepted,14
access,15
accident,16
accidentally,17
accomplishment,18
according,19
account,20
accrued,21
accumulation,22
accuracy,23
accurate,24
accusations,25
accusing,26
accutane,27
achieving,28
acid,29
acidparsedonedigit,30
acknowledges,31
acorn,32
act,33
acting,34
action,35
actions,36
activated,37
active,38
activist,39
activities,40
activity,41
actor,42
acts,43
actual,44
actuality,45
actuall,46
actually,47
ad,48
adapt,49
add,50
added,51
adding,52
additional,53
additionally,54
address,55
addressed,56
addresses,57
adequately,58
adhd,59
adjustable,60
adjustments,61
admin,62
administered,63
administration,64
administrative,65
admission,66
admitted,67
adobe,68
adopt,69
ads,70
advance,71
advanced,72
advancing,73
advantage,74
advertising,75
affairs,76
affect,77
affected,78
afford,79
affordable,80
afghanistan,81
afp,82
afraid,83
africa,84
afterlife,85
afternoon,86
ag,87
age,88
aged,89
agencies,90
agency,91
agenda,92
agendas,93
agents,94
ages,95
aggressive,96
agm,97
ago,98
agree,99
agreed,100
agreeing,101
agriculture,102
ahaha,103
ahh,104
ahhhhhhhhhhhhhhhhhhhhhhhhhhhhhhhhhhhhhhhhhhhhhhhhhhhhh,105
aid,106
aids,107
aim,108
air,109
airplane,110
aka,111
al,112
alaska,113
album,114
alcohol,115
alert,116
ales,117
alex,118
alexx,119
alittle,120
alliance,121
allied,122
allies,123
allow,124
allowed,125
allowing,126
allows,127
alot,128
alternate,129
alternative,130
amazes,131
amazing,132
amazingly,133
ambulances,134
amendment,135
america,136
american,137
americans,138
ammunition,139
amnesty,140
amp,141
amtrak,142
ana,143
analogies,144
analysis,145
analyst,146
analyzed,147
ancient,148
andrew,149
android,150
anger,151
angle,152
animal,153
animals,154
ankle,155
annoyances,156
annoying,157
annul,158
anon,159
answer,160
answering,161
anti,162
antiquated,163
antiwar,164
anymore,165
anytime,166
aparsedtwodigits,167
apart,168
aphrodite,169
apocalypse,170
apologize,171
apology,172
apostrophe,173
app,174
appalled,175
apparently,176
appeal,177
appear,178
appearance,179
appears,180
appetite,181
applauded,182
apple,183
applications,184
apply,185
appreciate,186
approach,187
approaching,188
appropriately,189
approval,190
apps,191
april,192
aprobation,193
apt,194
arab,195
arabia,196
arabians,197
archie,198
architechts,199
area,200
aren,201
argue,202
arguing,203
argument,204
arise,205
arizona,206
arlington,207
arms,208
array,209
arrested,210
arrestee,211
arresting,212
arrow,213
article,214
articles,215
artificial,216
artificially,217
artsy,218
asap,219
ascii,220
ashamed,221
ashcroft,222
aside,223
ask,224
asks,225
asm,226
aspen,227
ass,228
assaulting,229
assertion,230
assessments,231
assets,232
assholes,233
associate,234
associated,235
association,236
assume,237
assuming,238
assure,239
asterisked,240
asthma,241
astley,242
astounds,243
athlete,244
athletic,245
atm,246
atmospheric,247
atom,248
atomic,249
attached,250
attack,251
attacked,252
attacking,253
attacks,254
attatched,255
attempt,256
attending,257
attention,258
attic,259
aud,260
audience,261
aus,262
australia,263
australian,264
authentication,265
author,266
authorities,267
authority,268
authorized,269
authorizes,270
authors,271
auto,272
automatically,273
automation,274
av,275
available,276
average,277
aviator,278
avoid,279
avoidance,280
avoided,281
avowed,282
award,283
awards,284
aware,285
away,286
awesome,287
awesoome,288
awkward,289
awol,290
awwwwww,291
ayway,292
az,293
babe,294
baby,295
background,296
backs,297
backwards,298
bacon,299
bad,300
badass,301
badly,302
bag,303
bags,304
bail,305
bailout,306
bailouts,307
baiting,308
balances,309
bale,310
balk,311
ball,312
balloon,313
balls,314
ballz,315
ban,316
bands,317
bandwagon,318
bandwidth,319
bank,320
bankers,321
banking,322
banks,323
banned,324
banner,325
banning,326
bans,327
bar,328
barbarians,329
barely,330
bargain,331
baron,332
barracks,333
barrel,334
barry,335
base,336
baseball,337
based,338
basement,339
basic,340
basically,341
basics,342
basis,343
bastard,344
bastardizing,345
batshit,346
batteries,347
battle,348
battlestar,349
bbc,350
beach,351
beam,352
bear,353
beat,354
beatings,355
beautiful,356
bed,357
beds,358
beenthe,359
beer,360
beers,361
beethoven,362
beg,363
begets,364
begin,365
begining,366
behave,367
behaves,368
behavior,369
beholden,370
beings,371
belief,372
believability,373
believe,374
believes,375
bell,376
belly,377
belts,378
bench,379
benefits,380
benifits,381
benign,382
benjamin,383
bent,384
best,385
bested,386
bestiality,387
bet,388
beta,389
betcha,390
bethesda,391
better,392
bible,393
biden,394
bidgtls,395
biff,396
big,397
bigger,398
biggest,399
billion,400
billions,401
bills,402
binary,403
bird,404
birds,405
bit,406
bitch,407
bitching,408
bite,409
bittorent,410
bj,411
black,412
blackface,413
blacklabelsar,414
blame,415
blamed,416
blamefor,417
blames,418
blanks,419
blast,420
bleed,421
blessed,422
blew,423
blind,424
blinded,425
blindly,426
bliss,427
bll,428
blog,429
blogpost,430
blogs,431
blogspam,432
bloom,433
blow,434
blowhards,435
blue,436
bluemotion,437
blurred,438
board,439
boat,440
boatload,441
bobby,442
body,443
bollocks,444
bollywood,445
bomb,446
bombing,447
bombula,448
boner,449
bong,450
bonus,451
book,452
bookmarked,453
books,454
border,455
bored,456
borg,457
born,458
borne,459
bosworth,460
bother,461
bothered,462
bottle,463
bought,464
bounce,465
bounds,466
bowtie,467
box,468
boy,469
bparsedtwodigitsc,470
bparsedtwodigitsm,471
brad,472
bragged,473
brain,474
brains,475
brake,476
brandon,477
brave,478
braves,479
bravo,480
break,481
breaking,482
breaks,483
breakthroughs,484
breeding,485
brewers,486
bribe,487
brick,488
briefcase,489
briefly,490
bright,491
bring,492
bringing,493
brings,494
broke,495
broken,496
bros,497
brother,498
brothers,499
browser,500
browsers,501
brute,502
bs,503
btw,504
bubble,505
bubbles,506
buchanan,507
bucks,508
budget,509
buffet,510
bug,511
buggers,512
build,513
builder,514
builders,515
building,516
buildings,517
built,518
bull,519
bullets,520
bullshit,521
bum,522
bumble,523
bunch,524
bunker,525
bureau,526
buried,527
buries,528
burn,529
burning,530
burried,531
burrito,532
burrying,533
bury,534
bush,535
business,536
businesses,537
businessman,538
bust,539
busted,540
butt,541
buy,542
buyers,543
buying,544
bypass,545
ca,546
cabinet,547
cafeteria,548
cage,549
cages,550
cahoots,551
cali,552
california,553
called,554
calls,555
cambodia,556
camcorder,557
came,558
camel,559
camera,560
camp,561
campaign,562
camps,563
canada,564
canals,565
cancel,566
cancer,567
candles,568
cannabis,569
cap,570
capable,571
capitalism,572
caps,573
capture,574
captured,575
car,576
carbon,577
carcinogens,578
card,579
cardinals,580
care,581
career,582
careful,583
cares,584
carmen,585
carnival,586
carry,587
carrying,588
cars,589
case,590
cases,591
cash,592
cashparsedonedigitgold,593
casual,594
cat,595
catalog,596
catastrophic,597
catch,598
catchup,599
catechism,600
categorically,601
category,602
catering,603
catholic,604
cats,605
caught,606
cause,607
caused,608
causes,609
causing,610
ce,611
celebrity,612
cell,613
cemetery,614
census,615
cent,616
center,617
centers,618
centigrade,619
centrist,620
cents,621
century,622
ceo,623
certain,624
certainly,625
certainty,626
certifiable,627
chad,628
chain,629
chair,630
chairman,631
challenging,632
champion,633
chance,634
chances,635
change,636
changed,637
changes,638
changing,639
channels,640
character,641
characteristic,642
charge,643
charged,644
charger,645
chargers,646
charges,647
chastise,648
cheap,649
cheaper,650
cheated,651
cheaters,652
cheating,653
check,654
checker,655
cheer,656
cheers,657
chemical,658
chemically,659
cheney,660
chernobyl,661
cherry,662
chew,663
chicago,664
chickens,665
chief,666
child,667
childish,668
children,669
chimp,670
chimps,671
china,672
chinese,673
choice,674
choose,675
chosen,676
christ,677
christian,678
christianity,679
christians,680
christmas,681
christopher,682
chuck,683
church,684
churches,685
cia,686
circumstances,687
cites,688
cities,689
citizen,690
citizens,691
city,692
civil,693
civilians,694
claim,695
claimed,696
claiming,697
claptrap,698
class,699
classes,700
classic,701
classify,702
claus,703
clause,704
clean,705
cleaned,706
clear,707
clearly,708
clever,709
click,710
clicks,711
client,712
clients,713
climate,714
climber,715
clinical,716
clinton,717
close,718
closed,719
closing,720
clothes,721
cloths,722
cloud,723
clown,724
clownhall,725
club,726
clump,727
clutters,728
coal,729
coalition,730
cocaine,731
cockcroft,732
cocks,733
cocksuckers,734
code,735
codes,736
cofee,737
coffee,738
coherent,739
coincidence,740
coke,741
cokehead,742
colar,743
cold,744
collapse,745
collection,746
college,747
colleges,748
colombiano,749
com,750
combinations,751
comcast,752
come,753
comedy,754
comes,755
comfort,756
comforting,757
comic,758
coming,759
comment,760
commented,761
commenting,762
comments,763
commercial,764
commercials,765
commericals,766
commit,767
committed,768
commodity,769
common,770
communicate,771
communist,772
communists,773
communities,774
community,775
companies,776
company,777
comparable,778
compared,779
comparison,780
compass,781
compassion,782
compensate,783
compete,784
competition,785
competitive,786
compile,787
compiles,788
complain,789
complaining,790
complains,791
complete,792
completely,793
compliance,794
complicated,795
complicating,796
composed,797
composite,798
comprehend,799
comprehension,800
comprised,801
compromise,802
compromised,803
computer,804
concept,805
concerned,806
concerning,807
concerns,808
conclusion,809
conclusive,810
condemning,811
condition,812
conditions,813
conducting,814
confederate,815
confidence,816
confident,817
confirms,818
confiscated,819
confused,820
confusing,821
congratulations,822
congregate,823
congregation,824
congress,825
conjuring,826
connected,827
connections,828
connects,829
consensus,830
consequence,831
consequences,832
conservative,833
conservatives,834
consider,835
considerable,836
considered,837
considering,838
considers,839
consistently,840
console,841
conspiracy,842
constant,843
constituents,844
constitutes,845
constitution,846
constitutional,847
constitutionality,848
construct,849
constructing,850
construction,851
consumer,852
consumption,853
contact,854
contained,855
containing,856
content,857
contests,858
context,859
continually,860
continue,861
continues,862
contracts,863
contradictory,864
contrary,865
contribute,866
contribution,867
control,868
controlled,869
controller,870
controlling,871
controversial,872
controversy,873
conveniently,874
convert,875
converted,876
convicted,877
conviction,878
cool,879
cooler,880
cop,881
coparsedonedigit,882
copies,883
cops,884
copulating,885
copy,886
copying,887
copyright,888
copyrighted,889
copywritten,890
corel,891
cornerstone,892
corollary,893
corporate,894
corporates,895
corporations,896
correct,897
corrected,898
correctly,899
corrupt,900
corruption,901
corwin,902
cost,903
costs,904
costume,905
couch,906
couldn,907
counsel,908
counterparts,909
countries,910
country,911
counts,912
county,913
couple,914
coupling,915
coupon,916
course,917
courses,918
court,919
cover,920
coverage,921
covers,922
cowsay,923
crack,924
cracked,925
craft,926
crap,927
crash,928
crashing,929
crate,930
crazy,931
cream,932
create,933
created,934
creating,935
creative,936
creativity,937
creatures,938
credibility,939
credit,940
creditor,941
credits,942
creed,943
crime,944
crimes,945
criminal,946
criminals,947
criticize,948
critics,949
crook,950
cross,951
crowd,952
crucifixion,953
cruelty,954
crying,955
cuba,956
cue,957
culprits,958
cult,959
cultural,960
culture,961
cunts,962
cup,963
curb,964
cure,965
curing,966
currency,967
current,968
currently,969
curry,970
curse,971
curtain,972
curtis,973
curve,974
custom,975
cut,976
cute,977
cuts,978
cycle,979
cycles,980
cyprots,981
daft,982
dagger,983
daily,984
dal,985
damage,986
damn,987
damned,988
dance,989
dangerous,990
darcine,991
dark,992
darkshroud,993
darth,994
darwinism,995
daschle,996
data,997
datum,998
david,999
day,1000
days,1001
dc,1002
dea,1003
dead,1004
deadpan,1005
deaf,1006
deal,1007
dealers,1008
deals,1009
dear,1010
death,1011
debate,1012
debated,1013
debt,1014
decent,1015
decide,1016
decided,1017
decimate,1018
decision,1019
decisions,1020
declare,1021
declared,1022
declined,1023
decrease,1024
deduct,1025
deep,1026
deeper,1027
default,1028
defective,1029
defendent,1030
defense,1031
deficit,1032
deficits,1033
definitely,1034
deformities,1035
defunct,1036
degree,1037
degrees,1038
deliberately,1039
deliver,1040
dell,1041
dem,1042
demand,1043
demanding,1044
demands,1045
demint,1046
democracy,1047
democrat,1048
democratic,1049
democrats,1050
demoed,1051
dems,1052
denied,1053
denier,1054
dep,1055
department,1056
departments,1057
depends,1058
deployment,1059
depreciation,1060
depressed,1061
depression,1062
deprogrammed,1063
described,1064
deserves,1065
design,1066
desirable,1067
desire,1068
desires,1069
desks,1070
desperate,1071
desperately,1072
despite,1073
destroy,1074
destroyed,1075
destroying,1076
destruction,1077
detective,1078
determined,1079
detour,1080
detroit,1081
devalue,1082
developer,1083
developing,1084
development,1085
device,1086
devices,1087
devious,1088
devised,1089
devoted,1090
dhs,1091
dick,1092
dickhead,1093
dickwad,1094
did,1095
didn,1096
didnt,1097
die,1098
difference,1099
different,1100
difficult,1101
difficulties,1102
dig,1103
digg,1104
digger,1105
diggers,1106
digging,1107
diggs,1108
digital,1109
diminutive,1110
dimona,1111
dinosaur,1112
directed,1113
direction,1114
directly,1115
directors,1116
directory,1117
dirty,1118
disability,1119
disabled,1120
disagree,1121
disappear,1122
disappeared,1123
disappointed,1124
discipline,1125
disclosing,1126
discourse,1127
discover,1128
discovered,1129
discrimination,1130
discriminatory,1131
discuss,1132
discussed,1133
discussion,1134
disease,1135
diseases,1136
disgrace,1137
disordered,1138
disorders,1139
displayed,1140
disputes,1141
disqualification,1142
disregard,1143
dissident,1144
distracted,1145
distribute,1146
distributed,1147
distributes,1148
distribution,1149
disturbing,1150
diverging,1151
diversity,1152
divinity,1153
division,1154
dns,1155
doable,1156
doccasionally,1157
doccers,1158
doctor,1159
doctors,1160
doctrine,1161
document,1162
documentaries,1163
documentary,1164
documented,1165
does,1166
doesn,1167
dog,1168
dogs,1169
doing,1170
dollar,1171
dollars,1172
doma,1173
domain,1174
domains,1175
domestic,1176
domesticated,1177
domination,1178
don,1179
dont,1180
doom,1181
door,1182
doors,1183
doosh,1184
dope,1185
double,1186
doubt,1187
douche,1188
douchebag,1189
dough,1190
downey,1191
download,1192
downloading,1193
downloads,1194
dozen,1195
dp,1196
dr,1197
dragon,1198
draino,1199
drastic,1200
draw,1201
drawer,1202
dream,1203
dress,1204
drink,1205
drinker,1206
drinking,1207
drinks,1208
drive,1209
drivel,1210
driven,1211
driver,1212
drivers,1213
drives,1214
driving,1215
drm,1216
drool,1217
drop,1218
dropped,1219
dropping,1220
drug,1221
drugs,1222
drumroll,1223
drunk,1224
ds,1225
dtv,1226
duct,1227
dude,1228
dugg,1229
dugout,1230
dumb,1231
dumber,1232
dumbs,1233
dumbya,1234
dunno,1235
duplicate,1236
duplicates,1237
dust,1238
duty,1239
dvd,1240
dwindling,1241
dying,1242
eager,1243
earc,1244
early,1245
earmark,1246
earned,1247
earnings,1248
earth,1249
ease,1250
easier,1251
easily,1252
east,1253
easy,1254
eat,1255
ebonics,1256
ebook,1257
ebooks,1258
echelons,1259
eclectic,1260
economic,1261
economics,1262
economists,1263
economy,1264
ecstasy,1265
ed,1266
edit,1267
editor,1268
editorial,1269
edmonds,1270
educated,1271
education,1272
effect,1273
effective,1274
effects,1275
efficiency,1276
effort,1277
efforts,1278
ego,1279
egypt,1280
ehhhhh,1281
elderly,1282
elected,1283
election,1284
electric,1285
electrical,1286
electronic,1287
elementary,1288
eligible,1289
eliminating,1290
ellis,1291
em,1292
email,1293
embargo,1294
embarrass,1295
embarrassment,1296
embarrassments,1297
emergency,1298
eminem,1299
emissions,1300
emmanuel,1301
emotional,1302
employed,1303
employees,1304
employers,1305
employment,1306
encarta,1307
encounter,1308
encourage,1309
encourages,1310
end,1311
ending,1312
ends,1313
energy,1314
enforced,1315
enforcement,1316
engaged,1317
engine,1318
engineering,1319
engineeringaficionado,1320
england,1321
english,1322
enhanced,1323
enhancement,1324
enjoy,1325
enjoyed,1326
enron,1327
ensure,1328
enthusiasm,1329
entire,1330
entirely,1331
entirety,1332
entrenched,1333
entrpeneur,1334
enviro,1335
environment,1336
ep,1337
epic,1338
episode,1339
equal,1340
equally,1341
equals,1342
equation,1343
equipment,1344
equivalent,1345
er,1346
erase,1347
ericsccparsedonedigitdemocrats,1348
erode,1349
errands,1350
errors,1351
escape,1352
especially,1353
essence,1354
essentially,1355
established,1356
estimate,1357
et,1358
ethanol,1359
ethics,1360
ethnic,1361
etiquette,1362
europeans,1363
evaporate,1364
evasion,1365
event,1366
events,1367
eventually,1368
everybody,1369
evidence,1370
evil,1371
evolution,1372
ex,1373
exact,1374
exacting,1375
exactly,1376
example,1377
examples,1378
excellent,1379
exceptional,1380
excesses,1381
excessive,1382
excuse,1383
execs,1384
executable,1385
execute,1386
executive,1387
executives,1388
exercise,1389
exhausted,1390
exhibitions,1391
exist,1392
existed,1393
existing,1394
exists,1395
exorbitant,1396
expect,1397
expectations,1398
expected,1399
expecting,1400
expense,1401
expenses,1402
expensive,1403
experience,1404
experiments,1405
explain,1406
explains,1407
explanation,1408
exploded,1409
explodes,1410
export,1411
exposed,1412
exposes,1413
express,1414
extended,1415
exterminated,1416
extinct,1417
extra,1418
extras,1419
extreme,1420
extremely,1421
extremes,1422
eye,1423
eyes,1424
fa,1425
face,1426
facebook,1427
facepalm,1428
faces,1429
facilities,1430
facility,1431
fact,1432
factor,1433
factors,1434
facts,1435
factually,1436
fag,1437
faggot,1438
fags,1439
fail,1440
failed,1441
failing,1442
fails,1443
failure,1444
fair,1445
fairly,1446
fake,1447
fallacy,1448
falls,1449
false,1450
families,1451
family,1452
fan,1453
fanboy,1454
fancy,1455
fannie,1456
fans,1457
fantastic,1458
fantasy,1459
fantatics,1460
fap,1461
fapping,1462
far,1463
fares,1464
farfromperfectx,1465
farm,1466
farms,1467
fashion,1468
fast,1469
fastball,1470
fastest,1471
fat,1472
fatest,1473
fathers,1474
fatigue,1475
fault,1476
faults,1477
faux,1478
favor,1479
favorite,1480
favorites,1481
favour,1482
favoured,1483
fbi,1484
fear,1485
fears,1486
feasible,1487
feature,1488
features,1489
featuring,1490
feb,1491
fed,1492
federal,1493
fedex,1494
feed,1495
feeds,1496
feel,1497
feeling,1498
feels,1499
feet,1500
fella,1501
fellow,1502
felon,1503
felonies,1504
felt,1505
fema,1506
females,1507
fertility,1508
fertilization,1509
fewer,1510
ff,1511
fffffsssorry,1512
ffs,1513
fiction,1514
field,1515
fight,1516
fighters,1517
fighting,1518
fights,1519
figure,1520
figured,1521
figuring,1522
file,1523
files,1524
fillion,1525
film,1526
filter,1527
filters,1528
final,1529
finally,1530
finances,1531
financial,1532
finding,1533
fine,1534
fing,1535
finger,1536
finish,1537
firearm,1538
firearms,1539
firebugs,1540
firefox,1541
fires,1542
firetrucks,1543
firm,1544
firms,1545
fiscal,1546
fish,1547
fist,1548
fix,1549
fixed,1550
fl,1551
flash,1552
flashing,1553
flattery,1554
flood,1555
flooded,1556
floods,1557
floor,1558
floppy,1559
flowers,1560
fly,1561
flyballs,1562
flying,1563
focus,1564
follow,1565
following,1566
food,1567
fool,1568
foolish,1569
foolishly,1570
foolishness,1571
fools,1572
football,1573
footprint,1574
force,1575
forced,1576
forces,1577
forcing,1578
forecefully,1579
forehead,1580
foreign,1581
forest,1582
forever,1583
forfeit,1584
forget,1585
forgive,1586
forklift,1587
forks,1588
form,1589
format,1590
formats,1591
formatted,1592
fortunately,1593
forums,1594
forward,1595
fossil,1596
fought,1597
foul,1598
founding,1599
fox,1600
foxit,1601
fp,1602
fparsedonedigit,1603
frame,1604
franklin,1605
fraud,1606
freak,1607
freakin,1608
freddie,1609
free,1610
freedom,1611
freely,1612
frequently,1613
freudian,1614
fridayparsedfourdigits,1615
friend,1616
friends,1617
frontpage,1618
frost,1619
frowns,1620
fta,1621
ftp,1622
fu,1623
fuck,1624
fucked,1625
fuckin,1626
fucking,1627
fuel,1628
fuels,1629
fulfill,1630
fully,1631
fun,1632
function,1633
functioning,1634
functions,1635
funding,1636
funds,1637
fungi,1638
fungieparsedonedigit,1639
funnier,1640
funny,1641
furious,1642
furnish,1643
fusion,1644
future,1645
futuregen,1646
futuristic,1647
fuuuuuuuuuuuuuuuuuuuuuuuuuuuuuuuckwatch,1648
fuzzy,1649
fæces,1650
gaiden,1651
gain,1652
gained,1653
gains,1654
galactica,1655
galaxy,1656
gallon,1657
gamble,1658
game,1659
games,1660
gamevee,1661
gaming,1662
ganged,1663
gas,1664
gate,1665
gates,1666
gather,1667
gave,1668
gay,1669
gbvista,1670
gdp,1671
gear,1672
geek,1673
geeze,1674
general,1675
generalizing,1676
generally,1677
generated,1678
generation,1679
genitals,1680
genius,1681
genuine,1682
geo,1683
german,1684
germans,1685
gestapo,1686
gets,1687
getting,1688
getup,1689
giants,1690
gift,1691
gifts,1692
gin,1693
girl,1694
girls,1695
given,1696
gives,1697
giving,1698
glad,1699
glasses,1700
glitz,1701
global,1702
globe,1703
glove,1704
glowing,1705
gm,1706
gmail,1707
gneural,1708
goal,1709
goat,1710
goatee,1711
god,1712
goddamn,1713
godwin,1714
goes,1715
goggles,1716
goin,1717
going,1718
gold,1719
golden,1720
goldmine,1721
gone,1722
gonna,1723
good,1724
goods,1725
google,1726
gop,1727
gorilla,1728
got,1729
gotta,1730
governed,1731
government,1732
gpparsedonedigitx,1733
grabber,1734
grad,1735
grades,1736
graduate,1737
grammar,1738
grand,1739
grandparents,1740
grandstanding,1741
granny,1742
grant,1743
granted,1744
grants,1745
graphic,1746
grasp,1747
grateful,1748
great,1749
greatest,1750
greed,1751
greedy,1752
green,1753
greeter,1754
gregg,1755
grievance,1756
gross,1757
ground,1758
group,1759
groups,1760
grow,1761
growing,1762
grown,1763
grows,1764
gsp,1765
guard,1766
guess,1767
guilty,1768
guitar,1769
gulag,1770
gump,1771
gun,1772
guns,1773
guy,1774
guys,1775
ha,1776
habit,1777
hack,1778
hackers,1779
hacks,1780
hah,1781
haha,1782
hahahahaha,1783
hahahahi,1784
hailed,1785
haircut,1786
half,1787
hall,1788
hamas,1789
hammer,1790
hand,1791
handed,1792
handicapped,1793
handing,1794
handle,1795
handles,1796
hang,1797
hannah,1798
happen,1799
happened,1800
happening,1801
happens,1802
happily,1803
happiness,1804
happy,1805
harbinger,1806
harbor,1807
harboring,1808
hard,1809
harder,1810
hardly,1811
hardware,1812
harmful,1813
harmless,1814
harness,1815
harrison,1816
harvard,1817
hasn,1818
hat,1819
hate,1820
hated,1821
hatred,1822
haven,1823
havent,1824
having,1825
hazard,1826
head,1827
headed,1828
headline,1829
headquarters,1830
heads,1831
headshot,1832
health,1833
healthcare,1834
healthier,1835
healthy,1836
heaps,1837
hear,1838
heard,1839
hearing,1840
hears,1841
heart,1842
heath,1843
heavy,1844
heck,1845
hedge,1846
hefty,1847
held,1848
helicopter,1849
hell,1850
hello,1851
helluva,1852
helmsley,1853
help,1854
helpful,1855
helping,1856
herbs,1857
hero,1858
heroes,1859
heroin,1860
herpes,1861
hes,1862
hey,1863
hezbollah,1864
hi,1865
hidden,1866
hide,1867
high,1868
higher,1869
highest,1870
highlights,1871
highly,1872
hijab,1873
hilarious,1874
hilariously,1875
hill,1876
hint,1877
hippocratic,1878
hiring,1879
history,1880
hit,1881
hitler,1882
hitters,1883
hmm,1884
hmmm,1885
hmo,1886
hmos,1887
hold,1888
holder,1889
holding,1890
hole,1891
holes,1892
hollywood,1893
holocaust,1894
holy,1895
home,1896
homeland,1897
homeless,1898
homers,1899
hominem,1900
homosexual,1901
homosexuality,1902
homosexuals,1903
honest,1904
honestly,1905
honesty,1906
honey,1907
honored,1908
hook,1909
hooker,1910
hoopla,1911
hooray,1912
hoot,1913
hope,1914
hopeless,1915
hoping,1916
horizon,1917
horizontal,1918
horizontally,1919
horrible,1920
horrific,1921
horror,1922
hospital,1923
host,1924
hot,1925
hotel,1926
hottest,1927
hour,1928
hours,1929
house,1930
houses,1931
housing,1932
houstonpress,1933
htc,1934
htpc,1935
hubris,1936
huffington,1937
huffingtonpost,1938
huge,1939
human,1940
humanitarian,1941
humanity,1942
hummers,1943
humor,1944
humorous,1945
hundreds,1946
hungry,1947
hunt,1948
hunter,1949
hurricane,1950
hurried,1951
hurt,1952
hurts,1953
husband,1954
hybrid,1955
hybrids,1956
hydro,1957
hype,1958
hypocrisy,1959
hysterical,1960
iajdsiofajsuparsedtwodigitsiparsedfivedigits,1961
ianal,1962
iasoparsedfourdigits,1963
icbms,1964
ice,1965
iceberg,1966
icon,1967
idea,1968
ideal,1969
ideals,1970
ideas,1971
identity,1972
ideology,1973
idiot,1974
idiotic,1975
idiots,1976
ifpa,1977
ignorance,1978
ignore,1979
ignoring,1980
ii,1981
ilk,1982
illegal,1983
illinois,1984
illnesses,1985
illogical,1986
im,1987
image,1988
imagery,1989
images,1990
imaginary,1991
imagine,1992
imbalance,1993
imho,1994
immigrants,1995
immune,1996
immunity,1997
impact,1998
impared,1999
impartial,2000
impending,2001
implanting,2002
implement,2003
implemented,2004
import,2005
important,2006
impose,2007
imposed,2008
impossible,2009
impressive,2010
improve,2011
improvement,2012
improvements,2013
improving,2014
inaccuracy,2015
inaccurate,2016
inciting,2017
inclination,2018
include,2019
included,2020
includes,2021
including,2022
incoherent,2023
income,2024
incoming,2025
inconvenienced,2026
incorrect,2027
increase,2028
increased,2029
increases,2030
increasing,2031
increasingly,2032
incredible,2033
incredibly,2034
incumbents,2035
indefinitely,2036
independence,2037
independent,2038
indian,2039
indians,2040
indication,2041
individual,2042
individuals,2043
induces,2044
inducing,2045
industry,2046
ineligible,2047
infamous,2048
inflation,2049
influences,2050
information,2051
informative,2052
informed,2053
infrastructure,2054
infringe,2055
ing,2056
inhaling,2057
inherit,2058
inhofe,2059
initiative,2060
initiatives,2061
injure,2062
innings,2063
innnovators,2064
innocent,2065
innovation,2066
innovative,2067
input,2068
insane,2069
insecure,2070
insignificant,2071
insignificantly,2072
insinuation,2073
inspections,2074
inspiring,2075
install,2076
installation,2077
installations,2078
installing,2079
installment,2080
instant,2081
instantly,2082
instead,2083
institute,2084
institutes,2085
institution,2086
institutions,2087
instruction,2088
insult,2089
insurance,2090
integrate,2091
intelligence,2092
intelligent,2093
intelligentsia,2094
intend,2095
intended,2096
intense,2097
interception,2098
interdependent,2099
interested,2100
interesting,2101
internal,2102
internet,2103
internets,2104
interpretation,2105
intervention,2106
interventionist,2107
interview,2108
intoxicated,2109
intrepidia,2110
intro,2111
introduced,2112
introduction,2113
invade,2114
invaluable,2115
invest,2116
investigate,2117
investigated,2118
investigation,2119
investigations,2120
investment,2121
invisible,2122
invoked,2123
involved,2124
involvement,2125
involves,2126
iparsedthreedigits,2127
iphone,2128
ipod,2129
ipvparsedonedigit,2130
iq,2131
iran,2132
iranain,2133
iranian,2134
irish,2135
ironic,2136
irrational,2137
irrelevant,2138
irrelevent,2139
irresponsible,2140
irvine,2141
ish,2142
islam,2143
islamic,2144
island,2145
isn,2146
isnt,2147
isolate,2148
isps,2149
israel,2150
issue,2151
isyeah,2152
ivy,2153
ixquick,2154
jack,2155
jackass,2156
jacket,2157
jail,2158
jakarta,2159
january,2160
japan,2161
japanese,2162
jason,2163
jealous,2164
jefferson,2165
jenkees,2166
jessica,2167
jesus,2168
jesusneverexisted,2169
jewish,2170
jews,2171
jfc,2172
jimmy,2173
jinandjuice,2174
job,2175
jobs,2176
jogging,2177
john,2178
join,2179
joined,2180
joke,2181
jokes,2182
jolly,2183
jon,2184
joomla,2185
journalist,2186
journalists,2187
jr,2188
judge,2189
judging,2190
jumbo,2191
jump,2192
junior,2193
junk,2194
just,2195
justice,2196
justices,2197
justification,2198
justify,2199
justifying,2200
juvenile,2201
kabbalah,2202
kanye,2203
karl,2204
kate,2205
katt,2206
kde,2207
keepers,2208
keeps,2209
keg,2210
kegs,2211
kennedy,2212
kenneth,2213
kenyans,2214
kept,2215
kerrigore,2216
ketchup,2217
kevin,2218
key,2219
keyboard,2220
keynesianism,2221
keys,2222
kick,2223
kicked,2224
kicks,2225
kid,2226
kidd,2227
kidding,2228
kids,2229
kiiiiiinda,2230
kill,2231
killed,2232
killer,2233
killing,2234
killings,2235
kilo,2236
kimmel,2237
kind,2238
kinda,2239
kindergarten,2240
kinds,2241
kingdom,2242
kinseyincanada,2243
kkk,2244
knew,2245
knock,2246
knocked,2247
know,2248
knowing,2249
knowingly,2250
knowledge,2251
known,2252
knows,2253
kool,2254
koranimals,2255
korea,2256
kotaku,2257
krause,2258
krazy,2259
kroeger,2260
krugman,2261
kung,2262
kyl,2263
lab,2264
label,2265
labor,2266
labyrinth,2267
laced,2268
lack,2269
laffer,2270
laid,2271
lamb,2272
lame,2273
land,2274
language,2275
languages,2276
lantern,2277
lap,2278
large,2279
largely,2280
largest,2281
larry,2282
lasers,2283
lastly,2284
late,2285
lately,2286
later,2287
laugh,2288
laughing,2289
laughter,2290
launched,2291
laundry,2292
law,2293
lawmakers,2294
lawn,2295
laws,2296
lawyers,2297
lay,2298
layer,2299
laying,2300
layoff,2301
ld,2302
leach,2303
leaches,2304
lead,2305
leaders,2306
leadership,2307
leaked,2308
leaps,2309
learn,2310
learned,2311
lease,2312
leash,2313
leave,2314
leaves,2315
leaving,2316
ledger,2317
leed,2318
leeds,2319
leet,2320
left,2321
lefties,2322
leftist,2323
leftists,2324
leftost,2325
legal,2326
legalization,2327
legalize,2328
legalized,2329
legalizing,2330
legally,2331
legislation,2332
legislative,2333
lego,2334
legs,2335
lemur,2336
lenders,2337
leona,2338
leopard,2339
lessons,2340
lest,2341
let,2342
lets,2343
letter,2344
letting,2345
level,2346
levels,2347
lgbt,2348
li,2349
liar,2350
libel,2351
liberal,2352
liberation,2353
liberties,2354
libraries,2355
libs,2356
libtards,2357
license,2358
lie,2359
lies,2360
life,2361
lifehacker,2362
lift,2363
light,2364
like,2365
likely,2366
likeness,2367
likes,2368
lil,2369
limited,2370
limits,2371
limo,2372
lincoln,2373
line,2374
lines,2375
link,2376
linked,2377
links,2378
list,2379
listen,2380
listened,2381
listening,2382
lists,2383
literal,2384
literally,2385
literate,2386
little,2387
live,2388
lives,2389
living,2390
ll,2391
load,2392
loan,2393
loans,2394
local,2395
localization,2396
locally,2397
locked,2398
logic,2399
logo,2400
lol,2401
lold,2402
lolwatdammit,2403
long,2404
longer,2405
longstanding,2406
look,2407
looked,2408
looking,2409
looks,2410
lookup,2411
lookups,2412
loose,2413
looses,2414
lord,2415
lose,2416
loser,2417
loses,2418
losing,2419
loss,2420
losses,2421
lost,2422
lot,2423
lots,2424
lousy,2425
love,2426
loved,2427
loveless,2428
lovelyness,2429
loves,2430
low,2431
lowcountry,2432
lower,2433
lowered,2434
lowering,2435
loyola,2436
luck,2437
lucky,2438
lucy,2439
lump,2440
lunch,2441
lures,2442
lying,2443
lyrics,2444
mac,2445
macbook,2446
macbooks,2447
machine,2448
machines,2449
macintosh,2450
madness,2451
mae,2452
magnificent,2453
mah,2454
mail,2455
maimed,2456
main,2457
maine,2458
mainstream,2459
maintenance,2460
major,2461
majoring,2462
majority,2463
make,2464
makers,2465
makes,2466
making,2467
malaria,2468
male,2469
malfunctioning,2470
malls,2471
man,2472
managed,2473
management,2474
mandates,2475
mandatory,2476
maniac,2477
manifesto,2478
manipulating,2479
mans,2480
mantra,2481
manual,2482
manufacture,2483
manufacturers,2484
manufacturing,2485
marching,2486
marcia,2487
marginal,2488
marginalizing,2489
margins,2490
marijuana,2491
mario,2492
market,2493
marketing,2494
marq,2495
marriage,2496
marriages,2497
married,2498
marry,2499
marshalls,2500
martinez,2501
marxism,2502
marxists,2503
maryland,2504
mash,2505
mass,2506
massively,2507
master,2508
match,2509
mate,2510
material,2511
math,2512
matter,2513
matters,2514
mattoon,2515
maybe,2516
mayer,2517
mayor,2518
mba,2519
mccain,2520
mcdonalds,2521
mcmansions,2522
meager,2523
mean,2524
means,2525
meant,2526
measurement,2527
mechanical,2528
media,2529
medicaid,2530
medical,2531
medicare,2532
medication,2533
medications,2534
medicine,2535
meds,2536
meet,2537
meh,2538
mel,2539
melbourne,2540
meltdown,2541
members,2542
membership,2543
meme,2544
memorable,2545
memories,2546
memorization,2547
men,2548
mental,2549
mentality,2550
mentally,2551
mention,2552
mentioned,2553
merch,2554
merdieselnail,2555
merely,2556
mesmerizing,2557
mess,2558
message,2559
messed,2560
metal,2561
meth,2562
method,2563
methods,2564
mets,2565
mexican,2566
mexico,2567
michael,2568
microcosim,2569
microorganism,2570
microsecond,2571
microsoft,2572
mid,2573
middle,2574
mighty,2575
mike,2576
miknarf,2577
mile,2578
mileage,2579
military,2580
million,2581
millionaire,2582
millions,2583
mind,2584
minded,2585
minerals,2586
miners,2587
mini,2588
minimal,2589
minimizes,2590
minimum,2591
minnesota,2592
minor,2593
minority,2594
minute,2595
minutes,2596
miracle,2597
mirrored,2598
miserable,2599
misguided,2600
misinterpret,2601
misleading,2602
misrepresenting,2603
miss,2604
missed,2605
missing,2606
mission,2607
mistake,2608
mistaken,2609
mix,2610
mmm,2611
moan,2612
moans,2613
mob,2614
mobile,2615
model,2616
modern,2617
modernization,2618
molester,2619
mom,2620
moment,2621
moms,2622
monarchy,2623
money,2624
mongers,2625
monitor,2626
monkeybusiness,2627
monster,2628
montana,2629
month,2630
months,2631
mootools,2632
moral,2633
morality,2634
morals,2635
moreso,2636
mormon,2637
morning,2638
moron,2639
morons,2640
mortgage,2641
mortgages,2642
mother,2643
motherf,2644
motherfuckers,2645
mothers,2646
motion,2647
motivation,2648
motivations,2649
motive,2650
motofone,2651
motorola,2652
mouths,2653
movement,2654
moveon,2655
movie,2656
movies,2657
moving,2658
mowe,2659
mozart,2660
mpparsedonedigit,2661
mpparsedonedigits,2662
mpxparsedthreedigits,2663
mrbabyman,2664
ms,2665
muahahahahaha,2666
mucking,2667
mud,2668
muhammad,2669
mumbai,2670
mumbo,2671
munchies,2672
muppets,2673
murder,2674
murdered,2675
murderous,2676
music,2677
muslim,2678
muslims,2679
mvc,2680
mweather,2681
mypc,2682
mytown,2683
nah,2684
nail,2685
nailed,2686
naive,2687
named,2688
nancy,2689
narcotics,2690
nasa,2691
nathan,2692
nation,2693
national,2694
nationalist,2695
nationalization,2696
nationalized,2697
nationhood,2698
nations,2699
natives,2700
natural,2701
nature,2702
nazi,2703
near,2704
nearly,2705
necessarily,2706
necessary,2707
need,2708
needed,2709
needs,2710
neely,2711
negate,2712
negative,2713
negligible,2714
neighborhood,2715
neighborhoods,2716
neighbors,2717
neo,2718
nes,2719
net,2720
netted,2721
network,2722
networks,2723
new,2724
news,2725
newses,2726
newspapers,2727
newsworthy,2728
ng,2729
nice,2730
nicely,2731
niconiconico,2732
night,2733
nightmare,2734
ninja,2735
nintendo,2736
nite,2737
nobel,2738
noble,2739
nobodies,2740
nodes,2741
nodparsedtwodigits,2742
noise,2743
nokia,2744
nominees,2745
non,2746
nonconformist,2747
noob,2748
nooooo,2749
noooooo,2750
nope,2751
normal,2752
normally,2753
north,2754
northeast,2755
northwatuppa,2756
norton,2757
nose,2758
note,2759
nothingness,2760
nothings,2761
notice,2762
notting,2763
noumuon,2764
noun,2765
novels,2766
november,2767
noxious,2768
nparsedthreedigits,2769
nsw,2770
ntfs,2771
nuclear,2772
nuke,2773
number,2774
numbers,2775
nut,2776
nutcases,2777
nuts,2778
nvidia,2779
nwo,2780
o_o,2781
o_parsedonedigit,2782
oak,2783
oaksterdam,2784
oath,2785
obam,2786
obama,2787
object,2788
objectively,2789
obligatory,2790
obscure,2791
obsolete,2792
obvious,2793
obviously,2794
occasional,2795
occupation,2796
occur,2797
occurred,2798
ocean,2799
oceanic,2800
offending,2801
offer,2802
office,2803
officer,2804
officers,2805
official,2806
officials,2807
oh,2808
ohshi,2809
oifdasparsedonedigitifasparsedthreedigits,2810
oil,2811
ok,2812
oklahoma,2813
old,2814
ones,2815
onlywire,2816
ooooooohhhhhhh,2817
op,2818
opelz,2819
open,2820
opened,2821
opens,2822
opera,2823
operating,2824
opinion,2825
opponents,2826
opportunity,2827
oppose,2828
opposed,2829
opposing,2830
oppurtunity,2831
oprah,2832
opt,2833
opted,2834
optimal,2835
optimally,2836
option,2837
options,2838
orange,2839
order,2840
ordinary,2841
oregon,2842
oregonian,2843
org,2844
organization,2845
orientation,2846
original,2847
os,2848
osama,2849
oscar,2850
osx,2851
ot,2852
oui,2853
outcome,2854
outcry,2855
outer,2856
outright,2857
outrun,2858
outside,2859
overall,2860
overhaul,2861
overkill,2862
overload,2863
overpowered,2864
overpriced,2865
overreaction,2866
overthrow,2867
overtime,2868
owl,2869
owner,2870
owners,2871
owning,2872
owns,2873
pack,2874
package,2875
packaging,2876
packed,2877
packing,2878
padded,2879
page,2880
pages,2881
paid,2882
paint,2883
pair,2884
palestinians,2885
palin,2886
palooza,2887
panda,2888
pandas,2889
pandering,2890
pandora,2891
pants,2892
paper,2893
paperwork,2894
par,2895
parachute,2896
paragraph,2897
parallel,2898
parent,2899
parents,2900
park,2901
parseddigits,2902
parseddigitsdparsedonedigitc,2903
parseddigitsebc,2904
parseddigitsjkasdaopd,2905
parsedfivedigits,2906
parsedfourdigits,2907
parsedfourdigitsathlon,2908
parsedfourdigitsoijdf,2909
parsedfourdigitswho,2910
parsedonedigit,2911
parsedonedigitcparseddigitsa,2912
parsedonedigitd,2913
parsedonedigitdfparsedonedigit,2914
parsedonedigitebparsedonedigit,2915
parsedonedigitgw,2916
parsedonedigitst,2917
parsedonedigitth,2918
parsedthreedigits,2919
parsedthreedigitsd,2920
parsedthreedigitsk,2921
parsedthreedigitskz,2922
parsedthreedigitslbs,2923
parsedthreedigitsmpg,2924
parsedtime,2925
parsedtwodigits,2926
parsedtwodigitsaparsedonedigit,2927
parsedtwodigitsgb,2928
parsedtwodigitsgrand,2929
parsedtwodigitsk,2930
parsedtwodigitsmillion,2931
parsedtwodigitss,2932
particular,2933
particularly,2934
partisan,2935
partner,2936
partners,2937
parts,2938
party,2939
pass,2940
passed,2941
passes,2942
passwindow,2943
password,2944
past,2945
patent,2946
patently,2947
path,2948
pathetic,2949
patrick,2950
patterns,2951
paul,2952
pawn,2953
pay,2954
paygrade,2955
payment,2956
payments,2957
pays,2958
pc,2959
pcp,2960
peace,2961
peaceful,2962
peaches,2963
pearl,2964
pedantic,2965
pedobears,2966
pedophiles,2967
peds,2968
peers,2969
pelosi,2970
pelt,2971
penalizes,2972
penance,2973
penises,2974
people,2975
percent,2976
percentage,2977
percentages,2978
perception,2979
perfect,2980
perfectly,2981
performed,2982
permissible,2983
permissions,2984
person,2985
persona,2986
personal,2987
personality,2988
personally,2989
persons,2990
perversity,2991
pesticides,2992
pet,2993
peter,2994
pets,2995
pgood,2996
ph,2997
pharma,2998
pharmaceutical,2999
phelps,3000
phenomena,3001
phone,3002
phones,3003
photo,3004
photos,3005
phrase,3006
physical,3007
physically,3008
pic,3009
pick,3010
picked,3011
picker,3012
pics,3013
picture,3014
pie,3015
piece,3016
pieces,3017
pile,3018
pills,3019
pilot,3020
pinch,3021
pink,3022
pint,3023
pipe,3024
pissed,3025
pissing,3026
pistol,3027
pit,3028
pitcher,3029
pitchers,3030
pitches,3031
pitching,3032
pitt,3033
place,3034
placement,3035
placing,3036
plain,3037
plan,3038
plane,3039
planet,3040
planning,3041
plant,3042
plants,3043
platform,3044
platformers,3045
play,3046
played,3047
player,3048
players,3049
playing,3050
pleaded,3051
plenty,3052
plug,3053
plural,3054
plurality,3055
plus,3056
pm,3057
pnac,3058
pocket,3059
pocketbook,3060
pockets,3061
point,3062
points,3063
poison,3064
poisonous,3065
poitier,3066
pole,3067
police,3068
policies,3069
political,3070
politically,3071
politicians,3072
politiciansgo,3073
politics,3074
ponzi,3075
poor,3076
poorer,3077
pop,3078
pope,3079
popular,3080
population,3081
pork,3082
porn,3083
pornography,3084
portion,3085
positions,3086
possession,3087
possessive,3088
possible,3089
possibly,3090
post,3091
posted,3092
posters,3093
posting,3094
postponed,3095
pot,3096
potentially,3097
potheads,3098
pounds,3099
power,3100
powerful,3101
powerplant,3102
pox,3103
ppl,3104
practical,3105
practice,3106
practiced,3107
practicing,3108
praise,3109
praying,3110
pre,3111
preaching,3112
precedent,3113
precisely,3114
predators,3115
predicting,3116
preference,3117
preferential,3118
pregnant,3119
preinstalled,3120
premise,3121
premiums,3122
preparation,3123
presence,3124
present,3125
presented,3126
preserve,3127
presidency,3128
president,3129
press,3130
presses,3131
presumably,3132
pretend,3133
pretends,3134
pretty,3135
prevent,3136
prevention,3137
previous,3138
price,3139
prices,3140
prick,3141
priest,3142
primarily,3143
principles,3144
print,3145
printed,3146
printing,3147
prior,3148
priority,3149
prison,3150
prisoner,3151
prisoners,3152
private,3153
privilege,3154
prize,3155
pro,3156
probability,3157
probably,3158
probed,3159
problem,3160
problems,3161
procedures,3162
process,3163
procreate,3164
produce,3165
producer,3166
product,3167
production,3168
productive,3169
professional,3170
professors,3171
profit,3172
profitable,3173
profitactually,3174
profiteer,3175
program,3176
programs,3177
progress,3178
project,3179
projects,3180
prominent,3181
promise,3182
promised,3183
promotes,3184
promoting,3185
promotion,3186
promptly,3187
proof,3188
propaganda,3189
proper,3190
properly,3191
properties,3192
property,3193
prophet,3194
proportion,3195
proposed,3196
props,3197
prosecution,3198
prosecutions,3199
prostitue,3200
prostitute,3201
protect,3202
protecting,3203
protectionism,3204
protectionist,3205
protein,3206
prove,3207
proved,3208
proven,3209
provide,3210
provided,3211
providing,3212
provision,3213
provisions,3214
proxies,3215
proxy,3216
ps,3217
psa,3218
pseudo,3219
psuedo,3220
psych,3221
psychiatric,3222
psychiatrist,3223
psycho,3224
psychological,3225
psychopathic,3226
public,3227
publicity,3228
publicly,3229
publishing,3230
pubs,3231
pull,3232
pulled,3233
pulling,3234
punch,3235
pundits,3236
punished,3237
punishment,3238
purchases,3239
pure,3240
purse,3241
pursuits,3242
push,3243
pushed,3244
pussy,3245
pussys,3246
puts,3247
putting,3248
puzzle,3249
pv,3250
pyramid,3251
qld,3252
qm,3253
quakeholio,3254
quality,3255
quantities,3256
quantity,3257
quantum,3258
question,3259
questioned,3260
questioning,3261
questions,3262
quick,3263
quiet,3264
quit,3265
quite,3266
quote,3267
quoted,3268
rabbit,3269
race,3270
racism,3271
racist,3272
radiative,3273
radical,3274
radicals,3275
raffled,3276
rafikichi,3277
rahm,3278
raids,3279
rail,3280
raise,3281
raised,3282
raising,3283
rajim,3284
ram,3285
rampant,3286
ranch,3287
random,3288
range,3289
ranging,3290
ranked,3291
ranking,3292
rant,3293
ranting,3294
rape,3295
rapidly,3296
rarely,3297
rate,3298
rates,3299
rating,3300
rational,3301
raving,3302
ray,3303
razor,3304
reactor,3305
read,3306
readable,3307
reader,3308
readers,3309
reading,3310
readjust,3311
ready,3312
real,3313
realise,3314
reality,3315
realize,3316
realized,3317
realizing,3318
really,3319
reason,3320
reasonable,3321
reasonably,3322
reasons,3323
recall,3324
receive,3325
received,3326
receives,3327
receiving,3328
recent,3329
recently,3330
recession,3331
recipe,3332
recognise,3333
recognize,3334
record,3335
recorded,3336
recording,3337
records,3338
recover,3339
recovery,3340
red,3341
redeye,3342
reduce,3343
reduction,3344
reeve,3345
reference,3346
refers,3347
reflected,3348
refused,3349
refuses,3350
regard,3351
regarding,3352
regardless,3353
region,3354
regret,3355
regular,3356
regularly,3357
regulation,3358
rehabilitation,3359
reilly,3360
reinstate,3361
reinvestment,3362
rejected,3363
related,3364
relationship,3365
relatively,3366
release,3367
released,3368
releases,3369
relegated,3370
relevant,3371
relics,3372
relief,3373
religion,3374
religions,3375
religious,3376
reloading,3377
relying,3378
remained,3379
remaking,3380
remember,3381
reminded,3382
reminds,3383
remorse,3384
removal,3385
remove,3386
removed,3387
render,3388
renegotiate,3389
renovate,3390
renovating,3391
renovation,3392
renovations,3393
rent,3394
repair,3395
repayment,3396
repeal,3397
repealed,3398
repeat,3399
repeatedly,3400
replace,3401
reported,3402
reporters,3403
reports,3404
repost,3405
represent,3406
represents,3407
reptilians,3408
republic,3409
republican,3410
republicans,3411
republicrats,3412
republithug,3413
requests,3414
required,3415
requires,3416
rescue,3417
research,3418
reserve,3419
reserved,3420
resign,3421
resin,3422
resort,3423
resource,3424
resources,3425
respect,3426
responding,3427
response,3428
responsibility,3429
responsible,3430
rest,3431
restoration,3432
restoring,3433
restriction,3434
restrictions,3435
result,3436
results,3437
retard,3438
retarded,3439
retrace,3440
retribution,3441
return,3442
returned,3443
revealing,3444
revenues,3445
reverse,3446
reversing,3447
reviever,3448
review,3449
reviewer,3450
reviews,3451
revolt,3452
revolution,3453
rewarding,3454
rib,3455
rich,3456
rick,3457
ridden,3458
ride,3459
ridiculous,3460
rifle,3461
rifles,3462
rig,3463
right,3464
rights,3465
riled,3466
rino,3467
rinse,3468
ripp,3469
rips,3470
rise,3471
risks,3472
rivals,3473
river,3474
roaches,3475
road,3476
roar,3477
robbots,3478
robbottodays,3479
robert,3480
robocop,3481
robotfindskitten,3482
robots,3483
robs,3484
rock,3485
rocks,3486
rocky,3487
roid,3488
role,3489
roll,3490
romance,3491
ron,3492
ronald,3493
room,3494
root,3495
rope,3496
rose,3497
rotate,3498
roughly,3499
round,3500
roundup,3501
rove,3502
royalties,3503
rss,3504
rufies,3505
rugburn,3506
ruined,3507
rule,3508
rulers,3509
rules,3510
run,3511
runners,3512
running,3513
runs,3514
rural,3515
rushycontin,3516
russian,3517
rustproofing,3518
ruth,3519
ryan,3520
sacrifice,3521
sad,3522
sadly,3523
safari,3524
safe,3525
safely,3526
safety,3527
sahfaaari,3528
said,3529
sake,3530
salaries,3531
sales,3532
salt,3533
sand,3534
sandiego,3535
santa,3536
saps,3537
sarc,3538
sarcasm,3539
sarcastic,3540
sat,3541
satisfied,3542
satisfy,3543
saudi,3544
save,3545
saving,3546
saw,3547
say,3548
sayglobal,3549
saying,3550
sayings,3551
says,3552
scale,3553
scam,3554
scandal,3555
scandinavia,3556
scarce,3557
scares,3558
scene,3559
scheme,3560
schiff,3561
scholar,3562
school,3563
schoolgirl,3564
schoolgirls,3565
schools,3566
schwarzy,3567
science,3568
scientists,3569
scientology,3570
scott,3571
scratching,3572
screen,3573
screw,3574
screwed,3575
scroll,3576
scumbag,3577
sea,3578
search,3579
searched,3580
season,3581
seat,3582
seated,3583
sec,3584
secessionist,3585
second,3586
secondly,3587
seconds,3588
secrecy,3589
secretary,3590
secrets,3591
sect,3592
sectarian,3593
section,3594
sector,3595
secure,3596
secured,3597
security,3598
seen,3599
seinfeld,3600
selected,3601
selection,3602
self,3603
selfish,3604
sell,3605
sellers,3606
selling,3607
sells,3608
semi,3609
sen,3610
senate,3611
send,3612
senior,3613
sense,3614
sensitivity,3615
sentence,3616
seoul,3617
serendipitous,3618
seriously,3619
served,3620
server,3621
servers,3622
service,3623
services,3624
set,3625
setting,3626
settings,3627
seven,3628
seventy,3629
severe,3630
sewer,3631
sex,3632
sexual,3633
sexually,3634
sexy,3635
sh,3636
shacknews,3637
shadows,3638
shady,3639
shall,3640
sham,3641
shame,3642
shaq,3643
share,3644
shared,3645
shareholders,3646
sharers,3647
shares,3648
sharing,3649
sharks,3650
sharp,3651
sharpton,3652
sheep,3653
sheesh,3654
sheik,3655
sheriff,3656
shi,3657
ship,3658
shit,3659
shitty,3660
shock,3661
shocking,3662
shoot,3663
shooting,3664
shoots,3665
shops,3666
short,3667
shortfall,3668
shot,3669
shotgun,3670
shoulders,3671
shouldn,3672
shout,3673
shouted,3674
shove,3675
shoved,3676
showed,3677
showing,3678
shows,3679
shparsedonedigitts,3680
shrek,3681
shugashack,3682
shut,3683
shuttle,3684
sibel,3685
sick,3686
sickness,3687
sickthoughts,3688
sides,3689
sideswiped,3690
sift,3691
sighted,3692
sign,3693
signed,3694
significance,3695
significant,3696
significantly,3697
silence,3698
silk,3699
silly,3700
silver,3701
silverlight,3702
similar,3703
simple,3704
simply,3705
simpson,3706
simpsons,3707
sincerely,3708
singing,3709
single,3710
singular,3711
sink,3712
sir,3713
site,3714
sites,3715
size,3716
skeptical,3717
skews,3718
skill,3719
skirt,3720
skittlesusamarket,3721
slammed,3722
slap,3723
slaughters,3724
slave,3725
slavery,3726
sleek,3727
sleep,3728
sleeves,3729
slept,3730
slice,3731
slideshows,3732
slightest,3733
slinging,3734
slip,3735
slipped,3736
slow,3737
slumdog,3738
slums,3739
small,3740
smallest,3741
smallpox,3742
smart,3743
smashing,3744
smells,3745
smile,3746
smithsonian,3747
smoke,3748
smoked,3749
smoking,3750
snake,3751
snakes,3752
snap,3753
sniper,3754
snobby,3755
snoobish,3756
snoopy,3757
soccer,3758
social,3759
socialblade,3760
socialism,3761
socialist,3762
socially,3763
society,3764
sociopath,3765
socks,3766
sodade,3767
software,3768
solar,3769
sold,3770
soldiers,3771
solid,3772
solution,3773
solved,3774
somebody,3775
someplace,3776
somethin,3777
somewhat,3778
song,3779
sony,3780
soon,3781
sooner,3782
sooni,3783
sooo,3784
soooo,3785
sore,3786
sorry,3787
sort,3788
sorts,3789
soul,3790
sound,3791
sounds,3792
soundtrack,3793
source,3794
sources,3795
south,3796
southern,3797
soviet,3798
sowell,3799
space,3800
spam,3801
spamming,3802
spar,3803
sparing,3804
spc,3805
speak,3806
speaking,3807
speaks,3808
special,3809
specialized,3810
species,3811
specif,3812
specific,3813
specifically,3814
spectre,3815
speech,3816
speed,3817
speedo,3818
spell,3819
spend,3820
spending,3821
spends,3822
spendulous,3823
spent,3824
spewing,3825
spikes,3826
spiral,3827
spite,3828
splains,3829
splicing,3830
split,3831
spoiled,3832
spoiler,3833
sport,3834
spread,3835
spreading,3836
spyware,3837
sqeaking,3838
squad,3839
square,3840
squealing,3841
squeezing,3842
squirrel,3843
st,3844
stadiums,3845
staff,3846
stage,3847
stagflation,3848
stand,3849
standard,3850
standards,3851
standing,3852
standpoint,3853
stands,3854
stapp,3855
star,3856
stare,3857
start,3858
started,3859
starting,3860
starts,3861
starve,3862
starving,3863
stashed,3864
state,3865
stated,3866
statement,3867
statements,3868
staters,3869
states,3870
static,3871
station,3872
statistically,3873
status,3874
stay,3875
stays,3876
stds,3877
steal,3878
stealing,3879
stearns,3880
steel,3881
steger,3882
step,3883
steps,3884
stereotype,3885
steve,3886
steven,3887
stfu,3888
stick,3889
sticking,3890
stifled,3891
stimulates,3892
stimulative,3893
stimulus,3894
stinger,3895
stock,3896
stoner,3897
stones,3898
stoning,3899
stood,3900
stop,3901
stopped,3902
store,3903
stored,3904
storeowner,3905
stores,3906
stories,3907
story,3908
straight,3909
strange,3910
straps,3911
streaming,3912
street,3913
streetaddress,3914
streets,3915
strength,3916
stressed,3917
strictly,3918
strike,3919
strikeouts,3920
strikes,3921
string,3922
stripper,3923
strippers,3924
strong,3925
stronger,3926
strparsedonedigitfehe,3927
structure,3928
struggling,3929
stuck,3930
student,3931
students,3932
studied,3933
studies,3934
study,3935
stuff,3936
stupid,3937
stupidest,3938
style,3939
subconscious,3940
subject,3941
subjugation,3942
submission,3943
submissions,3944
submit,3945
submitted,3946
subs,3947
subsidies,3948
subsidise,3949
subsidy,3950
substance,3951
substantial,3952
substantially,3953
substitute,3954
subsumed,3955
subtleties,3956
subway,3957
success,3958
successful,3959
suck,3960
sucked,3961
sucking,3962
sucks,3963
suddenly,3964
sue,3965
sues,3966
suffer,3967
suffered,3968
suggest,3969
suggestion,3970
suggests,3971
suicidal,3972
suicide,3973
suleman,3974
sulphur,3975
sum,3976
summed,3977
summer,3978
sumo,3979
super,3980
superior,3981
superman,3982
supply,3983
support,3984
supported,3985
supporters,3986
supports,3987
suppose,3988
supposed,3989
supposedly,3990
suppress,3991
sure,3992
surely,3993
surfaces,3994
surfstang,3995
surpass,3996
surprise,3997
surprised,3998
surprises,3999
surrender,4000
surrounded,4001
surveying,4002
suspect,4003
swap,4004
swat,4005
swear,4006
sweat,4007
swig,4008
swim,4009
swinging,4010
swollen,4011
symbol,4012
sync,4013
systems,4014
tab,4015
table,4016
tactics,4017
taken,4018
takes,4019
taking,4020
tale,4021
talent,4022
taliban,4023
talk,4024
talked,4025
talking,4026
talks,4027
tank,4028
tanning,4029
tanukiparsedonedigiteven,4030
tape,4031
tapes,4032
target,4033
taught,4034
tax,4035
taxation,4036
taxes,4037
taxpayers,4038
teachers,4039
teaches,4040
teaching,4041
teams,4042
technique,4043
technology,4044
teh,4045
tekhpoynt,4046
television,4047
tell,4048
tellin,4049
telling,4050
tells,4051
temperatures,4052
tempered,4053
temporary,4054
tend,4055
tendencies,4056
tens,4057
term,4058
terms,4059
terrible,4060
terroist,4061
terrorism,4062
terrorist,4063
test,4064
testimony,4065
texas,4066
text,4067
tham,4068
thank,4069
thanks,4070
thanparsedfourdigits,4071
thanx,4072
thats,4073
thc,4074
theater,4075
theaters,4076
theft,4077
theirs,4078
theme,4079
theory,4080
therapy,4081
therefor,4082
theres,4083
thet,4084
theyll,4085
thier,4086
thing,4087
things,4088
think,4089
thinking,4090
thinks,4091
thirds,4092
thirsty,4093
thomas,4094
thorazine,4095
thought,4096
thoughts,4097
thousand,4098
thousands,4099
thread,4100
threat,4101
threatened,4102
threatening,4103
threatens,4104
threesome,4105
throw,4106
throwing,4107
thrown,4108
thunder,4109
thunderbird,4110
tibetans,4111
ticket,4112
tickets,4113
tie,4114
tier,4115
tiger,4116
tigers,4117
tight,4118
tilt,4119
time,4120
times,4121
timing,4122
tip,4123
tired,4124
titanic,4125
title,4126
tobacco,4127
today,4128
toilet,4129
told,4130
tolerate,4131
tomorrow,4132
tone,4133
tonnes,4134
took,4135
tool,4136
tor,4137
torn,4138
torture,4139
torturing,4140
totally,4141
touchdown,4142
town,4143
toys,4144
tpb,4145
traced,4146
track,4147
tractors,4148
trade,4149
trading,4150
traditional,4151
traditionally,4152
traffic,4153
tragic,4154
trailer,4155
trained,4156
training,4157
trains,4158
trans,4159
transition,4160
translated,4161
transportation,4162
transsexual,4163
trap,4164
trappings,4165
trash,4166
travesty,4167
treasury,4168
treated,4169
treatment,4170
treatments,4171
treaty,4172
trend,4173
trendy,4174
trentadue,4175
trial,4176
trials,4177
tried,4178
tries,4179
trillion,4180
trolling,4181
trolls,4182
troop,4183
troops,4184
tropic,4185
trouble,4186
troubling,4187
trough,4188
truck,4189
true,4190
truly,4191
trunk,4192
trusted,4193
truth,4194
truths,4195
try,4196
trying,4197
ts,4198
tty,4199
tubatechno,4200
tucker,4201
tune,4202
turbines,4203
turd,4204
turf,4205
turk,4206
turn,4207
turned,4208
turning,4209
turns,4210
tv,4211
twice,4212
twisted,4213
twisting,4214
twitter,4215
type,4216
types,4217
typical,4218
typing,4219
tyrants,4220
ugh,4221
ugly,4222
uhbama,4223
uhhh,4224
uk,4225
ultimately,4226
um,4227
umm,4228
unbelievable,4229
unclaimed,4230
undead,4231
undercover,4232
underestimate,4233
undergrad,4234
undermines,4235
understand,4236
understandable,4237
understanding,4238
understood,4239
underway,4240
undistorted,4241
undoubtedly,4242
unemployed,4243
unfortunately,4244
unhappy,4245
unhealthy,4246
uni,4247
uniform,4248
unintended,4249
union,4250
unipolar,4251
unique,4252
unite,4253
united,4254
universal,4255
universe,4256
university,4257
unjust,4258
unknown,4259
unless,4260
unlike,4261
unlucky,4262
unmannedmissionhope,4263
unreasonable,4264
unrelatedgold,4265
unstated,4266
untie,4267
update,4268
updates,4269
upgrade,4270
upgraded,4271
upgrading,4272
upheld,4273
uphill,4274
uploading,4275
upper,4276
ups,4277
uptick,4278
urban,4279
urge,4280
usa,4281
usage,4282
use,4283
used,4284
useful,4285
useless,4286
user,4287
username,4288
users,4289
uses,4290
using,4291
usps,4292
usual,4293
usually,4294
utilizing,4295
utterly,4296
vacation,4297
vaccines,4298
vader,4299
vagina,4300
vague,4301
valentine,4302
valid,4303
value,4304
valued,4305
values,4306
vampires,4307
vandalism,4308
variety,4309
vase,4310
vast,4311
vastly,4312
ve,4313
vehicle,4314
vehicles,4315
velocity,4316
vending,4317
verb,4318
verizon,4319
verses,4320
version,4321
versus,4322
vespertine,4323
veterans,4324
vhs,4325
vibrant,4326
vibrating,4327
vicious,4328
victim,4329
victims,4330
victoria,4331
victory,4332
video,4333
view,4334
viewer,4335
viewing,4336
vigor,4337
vinegar,4338
violence,4339
violent,4340
virtual,4341
virtually,4342
virus,4343
visible,4344
visit,4345
visiting,4346
vista,4347
vitriolandangst,4348
vitro,4349
voice,4350
volt,4351
volunteering,4352
vote,4353
voted,4354
voters,4355
voyeur,4356
vw,4357
vying,4358
wade,4359
wait,4360
waited,4361
waiting,4362
wake,4363
walk,4364
walked,4365
walking,4366
walks,4367
wall,4368
wallpaper,4369
walls,4370
walmart,4371
wanna,4372
wannabes,4373
want,4374
wanted,4375
wants,4376
war,4377
warming,4378
warning,4379
warrant,4380
warrants,4381
wars,4382
washington,4383
wasn,4384
waste,4385
wasted,4386
wasting,4387
watch,4388
watched,4389
watchin,4390
watching,4391
watchmen,4392
water,4393
watershed,4394
wave,4395
way,4396
ways,4397
wazoo,4398
weak,4399
wealth,4400
weapons,4401
wear,4402
wears,4403
weather,4404
web,4405
webdesigners,4406
webkit,4407
webscriptions,4408
website,4409
websites,4410
wee,4411
weed,4412
week,4413
weekend,4414
weeks,4415
weighing,4416
weight,4417
weinbergnot,4418
weird,4419
welcome,4420
welcoming,4421
welfare,4422
went,4423
weren,4424
west,4425
western,4426
whaaa,4427
whaaaa,4428
whacks,4429
whats,4430
whatsoever,4431
whatwe,4432
wheels,4433
whilst,4434
whiners,4435
whining,4436
whip,4437
whipped,4438
white,4439
whiteness,4440
whomever,4441
whyve,4442
wicked,4443
wide,4444
widely,4445
wife,4446
wii,4447
wiki,4448
wikipedia,4449
wild,4450
wildland,4451
wildlife,4452
williams,4453
willing,4454
win,4455
wind,4456
winded,4457
window,4458
windows,4459
windowsuntil,4460
wine,4461
winge,4462
wings,4463
winmo,4464
winner,4465
winning,4466
winslet,4467
wipe,4468
wise,4469
wish,4470
wishing,4471
witch,4472
withdrew,4473
withholds,4474
withot,4475
withstand,4476
wives,4477
woh,4478
wolfowitz,4479
woman,4480
women,4481
won,4482
wonder,4483
wonderful,4484
wondering,4485
wont,4486
woo,4487
wood,4488
woods,4489
woodsoh,4490
woodsparsedonedigit,4491
woooooo,4492
woot,4493
word,4494
wording,4495
words,4496
work,4497
worked,4498
working,4499
workplace,4500
works,4501
world,4502
worlds,4503
worried,4504
worries,4505
worrisome,4506
worry,4507
worse,4508
worship,4509
worst,4510
worth,4511
worthless,4512
worthy,4513
wouldn,4514
wounds,4515
wow,4516
woz,4517
wrist,4518
write,4519
writer,4520
writers,4521
writers_guild_of,4522
written,4523
wrong,4524
wsads,4525
wtf,4526
wussy,4527
wwe,4528
xbox,4529
xdsorry,4530
xkcd,4531
xparsedonedigit,4532
xparsedthreedigits,4533
xvid,4534
xvparsedfourdigits,4535
ya,4536
yahoo,4537
yahtzee,4538
yapping,4539
yay,4540
yeah,4541
year,4542
years,4543
yeeeeeahhhh,4544
yelling,4545
yelp,4546
yen,4547
yep,4548
yes,4549
yessss,4550
yesterday,4551
young,4552
youre,4553
youth,4554
yummy,4555
zendezparsedonedigit,4556
zero,4557
zip,4558
zipline,4559
zog,4560
zombie,4561
zombies,4562
zoned,4563
zoo,4564
