abandoned,0
ability,1
able,2
abroad,3
abrogated,4
absolute,5
absolutely,6
absurd,7
abundance,8
abuse,9
abuses,10
accept,11
acceptable,12
acceptance,13
accepted,14
access,15
accident,16
accidentally,17
accidents,18
acclimatized,19
accomplishment,20
according,21
account,22
accountable,23
accrued,24
accumulation,25
accuracy,26
accurate,27
accusations,28
accusing,29
accutane,30
achieving,31
acid,32
acidparsedonedigit,33
acknowledges,34
acorn,35
act,36
acting,37
action,38
actions,39
active,40
activist,41
activities,42
activity,43
actor,44
acts,45
actual,46
actuality,47
actuall,48
actually,49
ad,50
adapt,51
adapted,52
add,53
adding,54
addition,55
additional,56
additionally,57
address,58
addressed,59
addresses,60
adequately,61
adhd,62
adjustable,63
adjustments,64
admin,65
administered,66
administration,67
administrative,68
admires,69
admission,70
admitted,71
adobe,72
adopt,73
ads,74
advanced,75
advancing,76
advantage,77
advertising,78
aeroflop,79
aeroflot,80
affairs,81
affected,82
afford,83
affordable,84
afghanistan,85
afp,86
afraid,87
africa,88
afterlife,89
ag,90
age,91
aged,92
agencies,93
agency,94
agenda,95
agendas,96
agents,97
ages,98
aggressive,99
agm,100
ago,101
agree,102
agreed,103
agreeing,104
agriculture,105
ahaha,106
ahh,107
ahhhhhhhhhhhhhhhhhhhhhhhhhhhhhhhhhhhhhhhhhhhhhhhhhhhhh,108
aid,109
aids,110
aim,111
air,112
airplane,113
aka,114
al,115
alaska,116
alcohol,117
ales,118
alex,119
alexx,120
alittle,121
alliance,122
allies,123
allow,124
allowed,125
allowing,126
allows,127
alot,128
alternate,129
alternative,130
amazes,131
amazing,132
amazingly,133
ambulances,134
amendment,135
america,136
american,137
americans,138
ammunition,139
amp,140
amtrak,141
ana,142
analogies,143
analysis,144
analyst,145
analyzed,146
ancient,147
andrew,148
android,149
angeles,150
anger,151
angle,152
animal,153
animals,154
ankle,155
annoyances,156
annoying,157
annul,158
anon,159
answer,160
answering,161
anti,162
antiquated,163
antiwar,164
anymore,165
anytime,166
aparsedtwodigits,167
apart,168
aphrodite,169
apocalypse,170
apologize,171
apology,172
apostrophe,173
app,174
appalled,175
apparently,176
appeal,177
appear,178
appearance,179
appears,180
applauded,181
apple,182
applications,183
applied,184
apply,185
appreciate,186
approach,187
approaching,188
appropriately,189
approval,190
apps,191
april,192
aprobation,193
apt,194
arabia,195
arabians,196
archie,197
architechts,198
area,199
aren,200
argue,201
arguing,202
argument,203
arise,204
arlington,205
arms,206
array,207
arrested,208
arrestee,209
arresting,210
arrow,211
article,212
articles,213
artificial,214
artificially,215
asap,216
ascii,217
ashamed,218
ashcroft,219
aside,220
ask,221
asks,222
asm,223
aspen,224
ass,225
assaulting,226
assembly,227
assertion,228
assessments,229
assets,230
associate,231
associated,232
association,233
assume,234
assuming,235
asterisked,236
asthma,237
astley,238
athlete,239
athletic,240
atm,241
atmospheric,242
atom,243
atomic,244
attached,245
attack,246
attacked,247
attacking,248
attacks,249
attatched,250
attempt,251
attending,252
attention,253
attic,254
aud,255
audience,256
aus,257
australia,258
australian,259
authentication,260
author,261
authorities,262
authority,263
authorized,264
authorizes,265
auto,266
automatically,267
automation,268
av,269
available,270
average,271
aviator,272
avoid,273
avoidance,274
avoided,275
avowed,276
award,277
awards,278
aware,279
away,280
awesome,281
awesoome,282
awwwwww,283
ayway,284
az,285
babe,286
baby,287
background,288
backs,289
backwards,290
bacon,291
bacteria,292
bad,293
bag,294
bags,295
bail,296
bailout,297
bailouts,298
baiting,299
bale,300
balk,301
ball,302
balloon,303
balls,304
ballz,305
ban,306
bands,307
bandwagon,308
bandwidth,309
bank,310
bankers,311
banking,312
banks,313
banned,314
banner,315
banning,316
bans,317
bar,318
barely,319
bargain,320
baron,321
barracks,322
barrel,323
base,324
baseball,325
based,326
basement,327
basic,328
basically,329
basics,330
basis,331
bastard,332
bastardizing,333
batshit,334
batteries,335
battery,336
battle,337
battlestar,338
bbc,339
beach,340
beam,341
bear,342
beat,343
beatings,344
beautiful,345
bed,346
beds,347
beenthe,348
beer,349
beers,350
beethoven,351
beg,352
begin,353
behaves,354
behavior,355
beholden,356
beings,357
belief,358
believability,359
believe,360
believes,361
bell,362
belly,363
belt,364
belts,365
bench,366
benefits,367
benifits,368
benign,369
benjamin,370
bent,371
benz,372
best,373
bested,374
bestiality,375
bet,376
beta,377
betcha,378
bethesda,379
better,380
bible,381
biden,382
biff,383
big,384
bigger,385
biggest,386
billion,387
billions,388
bills,389
binary,390
bird,391
birds,392
bisexual,393
bit,394
bitch,395
bitching,396
bite,397
bittorent,398
bj,399
black,400
blackface,401
blacklabelsar,402
blame,403
blamed,404
blamefor,405
blames,406
blanks,407
blast,408
blemish,409
blessed,410
blew,411
blind,412
blinded,413
blindly,414
bliss,415
bll,416
blog,417
blogpost,418
blogs,419
blogspam,420
bloom,421
blow,422
blowhards,423
blue,424
bluemotion,425
board,426
boat,427
boating,428
boatload,429
bobby,430
bodies,431
body,432
bogus,433
bollocks,434
bollywood,435
bomb,436
bombing,437
bombula,438
boner,439
bong,440
bonus,441
book,442
bookmarked,443
border,444
bored,445
borg,446
born,447
borne,448
boss,449
bother,450
bothered,451
bottle,452
bought,453
bounds,454
bovine,455
bowtie,456
box,457
boy,458
bparsedtwodigitsc,459
bparsedtwodigitsm,460
brad,461
brain,462
brains,463
brake,464
brandon,465
brave,466
braves,467
bravo,468
break,469
breaking,470
breakthroughs,471
breeding,472
brewers,473
bribe,474
brick,475
briefcase,476
briefly,477
bright,478
bring,479
bringing,480
broke,481
broken,482
bros,483
brother,484
brothers,485
browser,486
browsers,487
brute,488
bs,489
bubble,490
bubbles,491
buchanan,492
bucks,493
budget,494
buggers,495
build,496
builder,497
builders,498
building,499
buildings,500
built,501
bull,502
bullets,503
bullshit,504
bunch,505
bundle,506
bunker,507
bureau,508
buried,509
buries,510
burn,511
burning,512
burried,513
burrito,514
burrying,515
bury,516
bush,517
business,518
businesses,519
businessman,520
bust,521
busted,522
butt,523
butts,524
buy,525
buyers,526
buying,527
bypass,528
ca,529
cabinet,530
cafeteria,531
cage,532
cages,533
cahoots,534
cali,535
calibrated,536
california,537
called,538
calls,539
cambodia,540
camcorder,541
came,542
camel,543
camera,544
caminiti,545
camps,546
canada,547
canals,548
cancel,549
cancer,550
candles,551
cannabis,552
canseco,553
cap,554
capable,555
capitalism,556
capitalization,557
caps,558
captain,559
capture,560
captured,561
car,562
carbon,563
carcinogens,564
card,565
care,566
careful,567
cares,568
carmen,569
carnival,570
carry,571
carrying,572
cars,573
cartridge,574
case,575
cases,576
cash,577
cashparsedonedigitgold,578
casual,579
cat,580
catalog,581
catastrophic,582
catch,583
catchup,584
catechism,585
categorically,586
category,587
catering,588
catholic,589
cats,590
caught,591
cause,592
caused,593
causes,594
causing,595
ce,596
celebrity,597
cell,598
cellphones,599
cemetery,600
census,601
cent,602
center,603
centers,604
centigrade,605
centrist,606
cents,607
century,608
ceo,609
certain,610
certainly,611
certainty,612
certifiable,613
certified,614
chad,615
chain,616
chair,617
chairman,618
challenging,619
champion,620
chance,621
chances,622
change,623
changed,624
changes,625
changing,626
channels,627
character,628
characteristic,629
charge,630
charged,631
charger,632
chargers,633
charges,634
chastise,635
cheap,636
cheaper,637
cheating,638
check,639
checker,640
cheer,641
cheers,642
chemical,643
cheney,644
chernobyl,645
cherry,646
chew,647
chicago,648
chickens,649
chief,650
child,651
children,652
chimps,653
china,654
chinese,655
choice,656
choose,657
christ,658
christian,659
christianity,660
christians,661
christmas,662
chuck,663
church,664
churches,665
cia,666
circumstances,667
citations,668
cite,669
cites,670
cities,671
citizen,672
citizens,673
city,674
civil,675
civilians,676
claim,677
claimed,678
claiming,679
claptrap,680
class,681
classes,682
classic,683
classify,684
claus,685
clause,686
clean,687
cleaned,688
clear,689
clearly,690
clever,691
click,692
clicks,693
client,694
clients,695
climate,696
climber,697
clinical,698
clinton,699
close,700
closed,701
closing,702
clothes,703
cloths,704
cloud,705
clown,706
clownhall,707
clowns,708
club,709
clutters,710
coal,711
coalition,712
cocaine,713
cockcroft,714
cockmeats,715
cocks,716
cocksuckers,717
code,718
codes,719
cofee,720
coffee,721
coherent,722
coincidence,723
coke,724
cokehead,725
colar,726
cold,727
collapse,728
collect,729
collection,730
college,731
colleges,732
com,733
combinations,734
comcast,735
come,736
comedy,737
comes,738
comfort,739
comforting,740
comic,741
coming,742
comment,743
commentary,744
commented,745
commenting,746
comments,747
commercial,748
commercials,749
commit,750
committed,751
commodity,752
common,753
communicate,754
communist,755
communists,756
communities,757
community,758
companies,759
company,760
comparable,761
compared,762
comparison,763
compass,764
compassion,765
compensate,766
compete,767
competent,768
competitive,769
compile,770
compiles,771
complaining,772
complains,773
complaints,774
complete,775
completely,776
compliance,777
complicating,778
composed,779
composite,780
comprehension,781
comprised,782
compromise,783
computer,784
concept,785
concerned,786
concerns,787
conclusion,788
conclusive,789
condemning,790
condition,791
conditions,792
conduct,793
conducting,794
confidence,795
configuration,796
confirmed,797
confirms,798
confiscated,799
conflict,800
confused,801
confusing,802
congratulations,803
congregate,804
congregation,805
congress,806
conjuring,807
connected,808
connections,809
connects,810
consensus,811
consequences,812
conservative,813
conservatives,814
consider,815
considerable,816
considered,817
considering,818
considers,819
consistently,820
console,821
conspiracy,822
constant,823
constituents,824
constitutes,825
constitution,826
constitutional,827
constitutionality,828
construct,829
constructing,830
construction,831
consumer,832
consumption,833
contact,834
contained,835
containing,836
content,837
contests,838
context,839
continue,840
continues,841
contracts,842
contradictory,843
contrary,844
contribute,845
contributes,846
contribution,847
control,848
controlled,849
controller,850
controlling,851
controversial,852
controversy,853
conveniently,854
convert,855
converted,856
convicted,857
conviction,858
convictions,859
cool,860
cooler,861
coordination,862
cop,863
coparsedonedigit,864
copies,865
cops,866
copulating,867
copy,868
copying,869
copyright,870
copyrighted,871
corel,872
cornerstone,873
corollary,874
corporate,875
corporates,876
corporations,877
correct,878
corrected,879
correctly,880
corrupt,881
corruption,882
corwin,883
cost,884
costs,885
costume,886
couch,887
couldn,888
counsel,889
counterparts,890
countries,891
country,892
counts,893
county,894
couple,895
coupling,896
coupon,897
course,898
courses,899
court,900
courtesy,901
cover,902
coverage,903
covers,904
craft,905
crap,906
crash,907
crashing,908
crazy,909
cream,910
create,911
created,912
creating,913
creative,914
creativity,915
creatures,916
credibility,917
credit,918
creditor,919
credits,920
creed,921
crime,922
crimes,923
criminal,924
criminals,925
criticize,926
critics,927
crook,928
cross,929
crowd,930
crucifixion,931
cruelty,932
crying,933
cuba,934
cue,935
culprits,936
cult,937
culture,938
cunts,939
cup,940
curb,941
cure,942
currency,943
current,944
currently,945
curry,946
curse,947
curtain,948
curtis,949
curve,950
custom,951
cut,952
cute,953
cuts,954
cycle,955
cycles,956
cyprots,957
daft,958
dagger,959
daily,960
dal,961
damage,962
damn,963
damned,964
dance,965
dangerous,966
darcine,967
dark,968
darkshroud,969
darth,970
darwinism,971
data,972
datum,973
david,974
day,975
days,976
dc,977
dea,978
dead,979
deadpan,980
deaf,981
deal,982
dealers,983
deals,984
dear,985
death,986
deaths,987
debate,988
debated,989
debt,990
december,991
decent,992
decided,993
decimate,994
decision,995
decisions,996
declare,997
declared,998
declined,999
decrease,1000
deduct,1001
deep,1002
deeper,1003
default,1004
defective,1005
defense,1006
deficit,1007
deficits,1008
defined,1009
definitely,1010
deformities,1011
defunct,1012
degree,1013
degrees,1014
delete,1015
deliberately,1016
deliver,1017
dell,1018
dem,1019
demand,1020
demanding,1021
demands,1022
demint,1023
democracy,1024
democrat,1025
democratic,1026
democrats,1027
demoed,1028
dems,1029
denied,1030
denier,1031
denis,1032
dep,1033
department,1034
departments,1035
depends,1036
deployment,1037
depravity,1038
depreciation,1039
depressed,1040
depression,1041
deprogrammed,1042
described,1043
deserves,1044
deserving,1045
design,1046
desire,1047
desires,1048
desks,1049
desperate,1050
despite,1051
destroy,1052
destroyed,1053
destruction,1054
detective,1055
determined,1056
detour,1057
detroit,1058
devalue,1059
developer,1060
developing,1061
development,1062
device,1063
devices,1064
devious,1065
devoted,1066
dhs,1067
diagnosed,1068
dialing,1069
dick,1070
dickhead,1071
dickwad,1072
did,1073
didn,1074
didnt,1075
die,1076
difference,1077
different,1078
difficult,1079
difficulties,1080
dig,1081
digg,1082
digger,1083
diggers,1084
digging,1085
diggs,1086
digital,1087
dimona,1088
dinosaur,1089
direction,1090
directly,1091
directors,1092
directory,1093
dirty,1094
disability,1095
disabled,1096
disagree,1097
disappear,1098
disappeared,1099
disappointed,1100
discipline,1101
disclosing,1102
discourse,1103
discovered,1104
discrimination,1105
discriminatory,1106
discuss,1107
discussed,1108
discussion,1109
disease,1110
diseases,1111
disgusting,1112
disordered,1113
disorders,1114
disputes,1115
disqualification,1116
dissident,1117
distracted,1118
distribute,1119
distributed,1120
distributes,1121
distribution,1122
disturbing,1123
diverging,1124
diversity,1125
divinity,1126
division,1127
dns,1128
doable,1129
doccasionally,1130
doccers,1131
doctor,1132
doctors,1133
doctrine,1134
document,1135
documentaries,1136
documentary,1137
documented,1138
does,1139
doesn,1140
dog,1141
dogs,1142
doing,1143
doings,1144
dollar,1145
dollars,1146
doma,1147
domain,1148
domains,1149
domestic,1150
domesticated,1151
don,1152
dont,1153
doom,1154
door,1155
doors,1156
doosh,1157
dope,1158
doses,1159
double,1160
doubt,1161
douche,1162
douchebag,1163
dough,1164
downey,1165
download,1166
downloading,1167
downloads,1168
dozen,1169
dp,1170
dr,1171
dragon,1172
draino,1173
drastic,1174
draw,1175
drawer,1176
dream,1177
dress,1178
drink,1179
drinker,1180
drinking,1181
drinks,1182
drive,1183
drivel,1184
driver,1185
drivers,1186
drives,1187
driving,1188
drm,1189
drool,1190
drop,1191
dropped,1192
dropping,1193
drug,1194
drugs,1195
drumroll,1196
drunk,1197
dry,1198
dtv,1199
duct,1200
dude,1201
dugg,1202
dugout,1203
dumb,1204
dumber,1205
dumbs,1206
dump,1207
dunno,1208
duplicate,1209
duplicates,1210
dust,1211
duty,1212
dvd,1213
dwindling,1214
dying,1215
early,1216
earmark,1217
earned,1218
earnings,1219
earth,1220
ease,1221
easier,1222
easily,1223
east,1224
easy,1225
eat,1226
ebonics,1227
ebook,1228
echelons,1229
economic,1230
economics,1231
economists,1232
economy,1233
ecstasy,1234
ed,1235
edit,1236
editor,1237
editorial,1238
edmonds,1239
educated,1240
education,1241
eeepc,1242
effect,1243
effective,1244
effects,1245
efficiency,1246
effort,1247
efforts,1248
egypt,1249
ehhhhh,1250
elderly,1251
elected,1252
election,1253
electric,1254
electrical,1255
elementary,1256
eliminating,1257
ellis,1258
em,1259
email,1260
embargo,1261
embarrass,1262
embarrassment,1263
embarrassments,1264
emergency,1265
eminem,1266
emissions,1267
emmanuel,1268
emotional,1269
employed,1270
employees,1271
employers,1272
employment,1273
encarta,1274
encounter,1275
encourage,1276
encourages,1277
end,1278
ending,1279
endorsed,1280
ends,1281
energy,1282
enforced,1283
enforcement,1284
engaged,1285
engine,1286
engineering,1287
engineeringaficionado,1288
england,1289
english,1290
enjoy,1291
enjoyed,1292
enron,1293
ensure,1294
enthusiasm,1295
entire,1296
entirely,1297
entirety,1298
entrenched,1299
entrpeneur,1300
enviro,1301
environment,1302
ep,1303
epic,1304
episode,1305
equal,1306
equally,1307
equals,1308
equation,1309
equipment,1310
equivalent,1311
er,1312
erase,1313
ericsccparsedonedigitdemocrats,1314
erode,1315
errands,1316
errors,1317
escape,1318
especially,1319
essence,1320
established,1321
estimate,1322
et,1323
ethanol,1324
ethics,1325
ethnic,1326
etiquette,1327
europeans,1328
evaporate,1329
evasion,1330
event,1331
events,1332
eventually,1333
everybody,1334
evidence,1335
evidently,1336
evil,1337
evolution,1338
ex,1339
exact,1340
exactly,1341
examined,1342
example,1343
examples,1344
excellent,1345
excesses,1346
excessive,1347
excuse,1348
execs,1349
executable,1350
execute,1351
executive,1352
executives,1353
exercise,1354
exhausted,1355
exhibitions,1356
exist,1357
existed,1358
existing,1359
exists,1360
exorbitant,1361
expect,1362
expectations,1363
expected,1364
expecting,1365
expense,1366
expenses,1367
expensive,1368
experience,1369
experiments,1370
explains,1371
explanation,1372
exploded,1373
explodes,1374
export,1375
exposed,1376
exposes,1377
express,1378
extended,1379
exterminated,1380
extinct,1381
extra,1382
extras,1383
extreme,1384
extremely,1385
extremes,1386
eye,1387
eyes,1388
fa,1389
face,1390
facebook,1391
facepalm,1392
faces,1393
facilities,1394
facility,1395
fact,1396
factor,1397
factors,1398
facts,1399
fag,1400
faggot,1401
fags,1402
fail,1403
failed,1404
failing,1405
failure,1406
fair,1407
fairly,1408
fake,1409
fallacy,1410
falls,1411
false,1412
families,1413
family,1414
fan,1415
fanboy,1416
fancy,1417
fannie,1418
fans,1419
fantastic,1420
fantasy,1421
fantatics,1422
fap,1423
fapping,1424
far,1425
fares,1426
farfromperfectx,1427
farm,1428
farms,1429
fast,1430
faster,1431
fastest,1432
fat,1433
fatest,1434
fathers,1435
fault,1436
faults,1437
fauna,1438
faux,1439
favor,1440
favorites,1441
favour,1442
favoured,1443
fbi,1444
fear,1445
fears,1446
feasible,1447
feature,1448
features,1449
featuring,1450
feb,1451
fed,1452
federal,1453
fedex,1454
feed,1455
feeds,1456
feel,1457
feeling,1458
feels,1459
feet,1460
felines,1461
fella,1462
fellow,1463
felon,1464
felonies,1465
felt,1466
fema,1467
female,1468
females,1469
fertility,1470
fertilization,1471
fewer,1472
ff,1473
fffffsssorry,1474
ffs,1475
fiction,1476
field,1477
fight,1478
fighters,1479
fighting,1480
fights,1481
figure,1482
figured,1483
figuring,1484
file,1485
files,1486
filetype,1487
filing,1488
filled,1489
fillion,1490
film,1491
filter,1492
filters,1493
final,1494
finally,1495
finances,1496
financial,1497
finding,1498
fine,1499
fing,1500
finger,1501
finish,1502
firearm,1503
firearms,1504
firefox,1505
fires,1506
firetrucks,1507
firm,1508
firms,1509
fiscal,1510
fish,1511
fist,1512
fix,1513
fixed,1514
fl,1515
flash,1516
flashing,1517
flattery,1518
flavored,1519
flood,1520
flooded,1521
floods,1522
floor,1523
floppy,1524
flowers,1525
fly,1526
flying,1527
folks,1528
follow,1529
following,1530
food,1531
fool,1532
foolish,1533
foolishly,1534
foolishness,1535
fools,1536
football,1537
footprint,1538
force,1539
forced,1540
forces,1541
forcing,1542
ford,1543
forecefully,1544
forehead,1545
foreign,1546
forensic,1547
forest,1548
forever,1549
forfeit,1550
forget,1551
forgive,1552
form,1553
formatted,1554
fortunately,1555
forward,1556
fossil,1557
fought,1558
foul,1559
founding,1560
fox,1561
foxit,1562
fp,1563
fparsedonedigit,1564
frame,1565
franklin,1566
fraud,1567
freak,1568
freakin,1569
freddie,1570
free,1571
freedom,1572
frequently,1573
freudian,1574
fridayparsedfourdigits,1575
friend,1576
friends,1577
frontpage,1578
frost,1579
frowns,1580
fta,1581
ftp,1582
fu,1583
fuck,1584
fucked,1585
fuckin,1586
fucking,1587
fucktard,1588
fuel,1589
fuels,1590
fulfill,1591
fully,1592
fun,1593
function,1594
functioning,1595
functions,1596
fundamental,1597
funding,1598
funds,1599
fungieparsedonedigit,1600
funnier,1601
funny,1602
furious,1603
furnish,1604
fusion,1605
future,1606
futuregen,1607
futuristic,1608
fuuuuuuuuuuuuuuuuuuuuuuuuuuuuuuuckwatch,1609
fuzzy,1610
fæces,1611
gaiden,1612
gain,1613
gained,1614
gains,1615
galactica,1616
galaxy,1617
gallon,1618
gamble,1619
game,1620
games,1621
gamevee,1622
gaming,1623
ganged,1624
gaqua,1625
gas,1626
gate,1627
gave,1628
gay,1629
gbvista,1630
gdp,1631
gear,1632
gee,1633
geeze,1634
general,1635
generally,1636
generated,1637
generation,1638
genitalia,1639
genitals,1640
genius,1641
genuine,1642
geo,1643
geoblocking,1644
german,1645
germans,1646
germany,1647
gestapo,1648
gets,1649
getting,1650
getup,1651
giants,1652
gift,1653
gifts,1654
gin,1655
girl,1656
girls,1657
given,1658
gives,1659
giving,1660
glad,1661
glitz,1662
global,1663
globe,1664
glove,1665
gm,1666
gmail,1667
goal,1668
goat,1669
goatee,1670
god,1671
goddamn,1672
godwin,1673
goes,1674
goggles,1675
goin,1676
going,1677
gold,1678
golden,1679
goldmine,1680
gone,1681
gonna,1682
good,1683
goods,1684
google,1685
gop,1686
gorilla,1687
got,1688
gotta,1689
governed,1690
government,1691
gpparsedonedigitx,1692
grabber,1693
grades,1694
graduate,1695
grammar,1696
grand,1697
grandparents,1698
grandstanding,1699
granny,1700
grant,1701
granted,1702
grants,1703
graphic,1704
grasp,1705
grateful,1706
great,1707
greatest,1708
greed,1709
green,1710
gregg,1711
grievance,1712
gross,1713
ground,1714
group,1715
groups,1716
grow,1717
growing,1718
grows,1719
gsp,1720
guess,1721
guilty,1722
guitar,1723
gulag,1724
gump,1725
gun,1726
guns,1727
guy,1728
guys,1729
ha,1730
habit,1731
hack,1732
hacks,1733
hah,1734
haha,1735
hahah,1736
hahahahaha,1737
hahahahi,1738
hailed,1739
haircut,1740
half,1741
hamas,1742
hammer,1743
hand,1744
handed,1745
handicapped,1746
handing,1747
handle,1748
handles,1749
handling,1750
hang,1751
hannah,1752
happen,1753
happened,1754
happening,1755
happens,1756
happily,1757
happiness,1758
happy,1759
harbinger,1760
harbor,1761
harboring,1762
hard,1763
harder,1764
hardly,1765
hardware,1766
harmful,1767
harmless,1768
harness,1769
hasn,1770
hat,1771
hate,1772
hated,1773
hatred,1774
haven,1775
havent,1776
having,1777
hazard,1778
head,1779
headed,1780
headline,1781
headquarters,1782
heads,1783
headshot,1784
health,1785
healthcare,1786
healthier,1787
healthy,1788
heaps,1789
hear,1790
heard,1791
hearing,1792
hears,1793
heart,1794
heath,1795
heavy,1796
heck,1797
hedge,1798
hefty,1799
heheh,1800
height,1801
held,1802
helicopter,1803
hell,1804
hello,1805
helluva,1806
helmsley,1807
help,1808
helpful,1809
helping,1810
herbs,1811
hero,1812
heroes,1813
heroin,1814
herpes,1815
hes,1816
hey,1817
hezbollah,1818
hi,1819
hidden,1820
hide,1821
high,1822
higher,1823
highest,1824
highlights,1825
highly,1826
hijab,1827
hilarious,1828
hilariously,1829
hill,1830
hint,1831
hiring,1832
history,1833
hit,1834
hitler,1835
hitters,1836
hmm,1837
hmmm,1838
hmo,1839
hmos,1840
hold,1841
holder,1842
holding,1843
hole,1844
holes,1845
hollywood,1846
holocaust,1847
holy,1848
home,1849
homeland,1850
homeless,1851
homers,1852
homerun,1853
hominem,1854
homosexual,1855
homosexuality,1856
homosexuals,1857
honest,1858
honestly,1859
honesty,1860
honey,1861
honored,1862
hooker,1863
hooray,1864
hoot,1865
hope,1866
hopeless,1867
hoping,1868
horizon,1869
horizontal,1870
horizontally,1871
horrible,1872
horrific,1873
horror,1874
hospital,1875
host,1876
hot,1877
hotel,1878
hottest,1879
hour,1880
hours,1881
house,1882
houses,1883
housing,1884
houstonpress,1885
howard,1886
htc,1887
htpc,1888
hubris,1889
huffington,1890
huffingtonpost,1891
huge,1892
human,1893
humanitarian,1894
humanity,1895
hummers,1896
humor,1897
humorous,1898
hundreds,1899
hungry,1900
hunt,1901
hunter,1902
hurricane,1903
hurried,1904
hurts,1905
husband,1906
hybrid,1907
hybrids,1908
hydro,1909
hype,1910
hypocrisy,1911
hysterical,1912
iajdsiofajsuparsedtwodigitsiparsedfivedigits,1913
iasoparsedfourdigits,1914
icbms,1915
ice,1916
iceberg,1917
icon,1918
idea,1919
ideal,1920
ideals,1921
ideas,1922
ideology,1923
idiot,1924
idiotic,1925
idiots,1926
ifpa,1927
ignorance,1928
ignore,1929
ignored,1930
ignoring,1931
ii,1932
illegal,1933
illinois,1934
illness,1935
illnesses,1936
illogical,1937
im,1938
imagery,1939
images,1940
imaginary,1941
imagine,1942
imbalance,1943
imho,1944
immortal,1945
immune,1946
immunity,1947
impact,1948
impared,1949
impending,1950
implanting,1951
implemented,1952
import,1953
important,1954
impose,1955
imposed,1956
impossible,1957
impressive,1958
improve,1959
improvement,1960
improvements,1961
improving,1962
inaccuracy,1963
inaccurate,1964
inch,1965
inciting,1966
inclination,1967
include,1968
included,1969
includes,1970
including,1971
incoherent,1972
income,1973
incoming,1974
inconvenienced,1975
incorrect,1976
increase,1977
increased,1978
increases,1979
increasing,1980
increasingly,1981
incredible,1982
incredibly,1983
incumbents,1984
indefinitely,1985
independence,1986
independent,1987
indian,1988
indication,1989
individual,1990
individuals,1991
inducing,1992
industrial,1993
industry,1994
infection,1995
infections,1996
inflation,1997
influence,1998
influences,1999
info,2000
information,2001
informative,2002
informed,2003
infrastructure,2004
infringe,2005
ing,2006
inherit,2007
inhofe,2008
initiative,2009
initiatives,2010
injure,2011
injured,2012
injury,2013
innnovators,2014
innocent,2015
innovation,2016
innovative,2017
input,2018
insane,2019
insecure,2020
insecurities,2021
insignificant,2022
insignificantly,2023
inspections,2024
inspiring,2025
install,2026
installation,2027
installations,2028
installing,2029
installment,2030
instant,2031
instantly,2032
instead,2033
instinct,2034
institute,2035
institutes,2036
institution,2037
institutions,2038
instruction,2039
insult,2040
insurance,2041
int,2042
integrate,2043
intelligence,2044
intelligent,2045
intelligentsia,2046
intend,2047
intended,2048
intense,2049
intensity,2050
interdependent,2051
interested,2052
interesting,2053
internal,2054
internet,2055
internets,2056
intervention,2057
interventionist,2058
interview,2059
intoxicated,2060
intrepidia,2061
intrinsic,2062
intro,2063
introduced,2064
introduction,2065
invade,2066
invaluable,2067
invented,2068
invest,2069
investigate,2070
investigated,2071
investigating,2072
investigation,2073
investigations,2074
investment,2075
invoked,2076
involved,2077
involvement,2078
involves,2079
iparsedthreedigits,2080
iphone,2081
ipod,2082
ipvparsedonedigit,2083
iran,2084
iranain,2085
iranian,2086
ironic,2087
irrational,2088
irrelevant,2089
irrelevent,2090
irresponsible,2091
irvine,2092
ish,2093
islam,2094
island,2095
isn,2096
isnt,2097
isolate,2098
israel,2099
issue,2100
isyeah,2101
ivy,2102
ixam,2103
ixquick,2104
jack,2105
jackals,2106
jackass,2107
jail,2108
jakarta,2109
january,2110
japan,2111
japanese,2112
jason,2113
jealous,2114
jefferson,2115
jenkees,2116
jessica,2117
jesus,2118
jesusneverexisted,2119
jews,2120
jfc,2121
jimmy,2122
jinandjuice,2123
job,2124
jobs,2125
john,2126
join,2127
joined,2128
joke,2129
jokes,2130
jolly,2131
jon,2132
joomla,2133
journalist,2134
journalists,2135
jr,2136
judge,2137
judging,2138
jump,2139
june,2140
junior,2141
junk,2142
jury,2143
just,2144
justice,2145
justices,2146
justification,2147
justify,2148
justifying,2149
juvenile,2150
kabbalah,2151
kanye,2152
karl,2153
kate,2154
katt,2155
kde,2156
keepers,2157
keeps,2158
keg,2159
kegs,2160
ken,2161
kennedy,2162
kenneth,2163
kenyans,2164
kept,2165
kerrigore,2166
ketchup,2167
kevin,2168
key,2169
keyboard,2170
keynesianism,2171
keys,2172
kicked,2173
kicks,2174
kid,2175
kidd,2176
kidding,2177
kids,2178
kiiiiiinda,2179
kill,2180
killed,2181
killer,2182
killing,2183
killings,2184
kills,2185
kilo,2186
kimmel,2187
kind,2188
kinda,2189
kindergarten,2190
kindle,2191
kinds,2192
kingdom,2193
kinseyincanada,2194
kkk,2195
knew,2196
knock,2197
knocked,2198
know,2199
knowing,2200
knowingly,2201
knowledge,2202
known,2203
knows,2204
kool,2205
koranimals,2206
korea,2207
kotaku,2208
krause,2209
krazy,2210
kroeger,2211
krugman,2212
kung,2213
kyl,2214
lab,2215
label,2216
labor,2217
labyrinth,2218
laced,2219
lack,2220
laffer,2221
laid,2222
lake,2223
lamb,2224
lame,2225
land,2226
language,2227
languages,2228
lantern,2229
lap,2230
large,2231
largely,2232
largest,2233
larry,2234
lasers,2235
lastly,2236
late,2237
lately,2238
later,2239
laugh,2240
laughable,2241
laughing,2242
laughter,2243
launched,2244
law,2245
lawmakers,2246
lawn,2247
laws,2248
lawyers,2249
lay,2250
layer,2251
laying,2252
ld,2253
leach,2254
leaches,2255
lead,2256
leaders,2257
leadership,2258
league,2259
leaps,2260
learn,2261
learned,2262
lease,2263
leash,2264
leave,2265
leaves,2266
leaving,2267
ledger,2268
leed,2269
leeds,2270
leet,2271
left,2272
lefties,2273
leftist,2274
leftists,2275
leftost,2276
legal,2277
legalization,2278
legalize,2279
legalized,2280
legalizing,2281
legally,2282
legislation,2283
legislative,2284
legit,2285
lego,2286
legs,2287
lemur,2288
lenders,2289
lends,2290
leona,2291
leopard,2292
lesbians,2293
lessons,2294
lest,2295
let,2296
lets,2297
letter,2298
letting,2299
level,2300
levels,2301
lgbt,2302
li,2303
liar,2304
libel,2305
liberal,2306
liberation,2307
liberties,2308
libraries,2309
libs,2310
libtards,2311
licencing,2312
license,2313
licensed,2314
lie,2315
lies,2316
life,2317
lifehacker,2318
light,2319
like,2320
likely,2321
likes,2322
lil,2323
limited,2324
limits,2325
limo,2326
lincoln,2327
line,2328
lines,2329
link,2330
linked,2331
links,2332
list,2333
listen,2334
listened,2335
listening,2336
lists,2337
literally,2338
literate,2339
little,2340
live,2341
lives,2342
living,2343
ll,2344
load,2345
loan,2346
loans,2347
local,2348
localization,2349
locally,2350
locked,2351
log,2352
logic,2353
logo,2354
logon,2355
lol,2356
lold,2357
lolwatdammit,2358
long,2359
longer,2360
longstanding,2361
look,2362
looked,2363
looking,2364
looks,2365
lookup,2366
lookups,2367
loose,2368
looses,2369
lord,2370
los,2371
lose,2372
loser,2373
loses,2374
losing,2375
loss,2376
losses,2377
lost,2378
lot,2379
lots,2380
lousy,2381
love,2382
loved,2383
lovelyness,2384
loves,2385
low,2386
lowcountry,2387
lower,2388
lowered,2389
lowering,2390
loyola,2391
luck,2392
lucky,2393
lucy,2394
lump,2395
lunch,2396
lures,2397
lying,2398
lyrics,2399
mac,2400
macbook,2401
macbooks,2402
machine,2403
machines,2404
macintosh,2405
madness,2406
mae,2407
magnificent,2408
mah,2409
mail,2410
maimed,2411
main,2412
maine,2413
mainstream,2414
maintenance,2415
major,2416
majority,2417
make,2418
makers,2419
makes,2420
making,2421
malaria,2422
malfunctioning,2423
malls,2424
man,2425
managed,2426
management,2427
mandated,2428
mandates,2429
mandatory,2430
maniac,2431
manifesto,2432
manipulating,2433
mans,2434
mantra,2435
manual,2436
manufacture,2437
manufacturers,2438
manufacturing,2439
marching,2440
marcia,2441
marginal,2442
marginalizing,2443
margins,2444
marijuana,2445
mario,2446
market,2447
marketing,2448
marq,2449
marriage,2450
marriages,2451
married,2452
marry,2453
marshalls,2454
martinez,2455
marxists,2456
maryland,2457
mash,2458
mass,2459
massively,2460
master,2461
match,2462
mate,2463
material,2464
matter,2465
matters,2466
mattoon,2467
maximum,2468
maybe,2469
mayer,2470
mayor,2471
mba,2472
mcmansions,2473
mead,2474
meager,2475
mean,2476
meanie,2477
means,2478
meant,2479
measurement,2480
mechanical,2481
media,2482
medicaid,2483
medical,2484
medicare,2485
medication,2486
medications,2487
medicine,2488
meds,2489
meet,2490
meh,2491
mel,2492
melbourne,2493
meltdown,2494
members,2495
membership,2496
memorable,2497
memories,2498
memorization,2499
men,2500
mental,2501
mentality,2502
mentally,2503
mention,2504
mentioned,2505
merch,2506
merely,2507
mesmerizing,2508
mess,2509
message,2510
messed,2511
messiuh,2512
metal,2513
meth,2514
methanol,2515
methods,2516
mets,2517
mexican,2518
mexico,2519
michael,2520
microbiology,2521
microcosim,2522
microorganism,2523
microsecond,2524
microsoft,2525
mid,2526
middle,2527
mighty,2528
mike,2529
miknarf,2530
mile,2531
mileage,2532
military,2533
milk,2534
million,2535
millionaire,2536
mind,2537
minded,2538
minerals,2539
miners,2540
minimal,2541
minimizes,2542
minimum,2543
minnesota,2544
minor,2545
minority,2546
minute,2547
minutes,2548
miracle,2549
mirrored,2550
misleading,2551
misrepresenting,2552
miss,2553
missed,2554
missing,2555
mission,2556
mistake,2557
mix,2558
mmm,2559
moan,2560
moans,2561
mob,2562
mobile,2563
model,2564
modern,2565
modernization,2566
molester,2567
mom,2568
moment,2569
moms,2570
money,2571
mongers,2572
monitor,2573
monkeybusiness,2574
monster,2575
montana,2576
month,2577
months,2578
mootools,2579
moral,2580
morality,2581
morally,2582
morals,2583
moreso,2584
mormon,2585
morning,2586
moron,2587
morons,2588
mortgage,2589
mortgages,2590
mother,2591
motherf,2592
motherfuckers,2593
mothers,2594
motion,2595
motivation,2596
motivations,2597
motive,2598
motofone,2599
motorola,2600
mouths,2601
moved,2602
movement,2603
moveon,2604
movie,2605
movies,2606
moving,2607
mowe,2608
mozart,2609
mpaa,2610
mpparsedonedigit,2611
mpparsedonedigits,2612
mpxparsedthreedigits,2613
mrbabyman,2614
ms,2615
muahahahahaha,2616
muck,2617
mucking,2618
mud,2619
muhammad,2620
munchies,2621
muppets,2622
murder,2623
murdered,2624
murderous,2625
music,2626
muslim,2627
muslims,2628
mvc,2629
mweather,2630
mypc,2631
mystery,2632
mytown,2633
nah,2634
nailed,2635
naive,2636
named,2637
nancy,2638
narcotics,2639
nasa,2640
nathan,2641
nation,2642
national,2643
nationalization,2644
nationalized,2645
natives,2646
natural,2647
naturally,2648
nature,2649
nazi,2650
near,2651
nearly,2652
necessarily,2653
necessary,2654
need,2655
needed,2656
needs,2657
neely,2658
negate,2659
negative,2660
negligible,2661
neighborhood,2662
neighborhoods,2663
neighbors,2664
neo,2665
nes,2666
net,2667
netted,2668
network,2669
networks,2670
new,2671
news,2672
newses,2673
newspapers,2674
newsworthy,2675
nice,2676
nicely,2677
niconiconico,2678
nietzsche,2679
night,2680
nightmare,2681
ninja,2682
nintendo,2683
nite,2684
nobel,2685
noble,2686
nobodies,2687
nodes,2688
nodparsedtwodigits,2689
noise,2690
nokia,2691
nominees,2692
non,2693
nonconformist,2694
noob,2695
nooooo,2696
noooooo,2697
nope,2698
normal,2699
normally,2700
north,2701
northeast,2702
northwatuppa,2703
norton,2704
nose,2705
note,2706
nothingness,2707
nothings,2708
notice,2709
notting,2710
noumuon,2711
noun,2712
november,2713
noxious,2714
nparsedthreedigits,2715
nsw,2716
ntfs,2717
nuclear,2718
nuke,2719
number,2720
numbers,2721
nut,2722
nutcases,2723
nvidia,2724
nwo,2725
o_o,2726
oak,2727
oaksterdam,2728
oath,2729
obam,2730
obama,2731
object,2732
objectively,2733
obligation,2734
obligatory,2735
obscure,2736
obsolete,2737
obvious,2738
obviously,2739
occasional,2740
occupation,2741
occur,2742
occurred,2743
ocean,2744
oceanic,2745
offending,2746
offensive,2747
offer,2748
office,2749
officer,2750
officers,2751
officials,2752
oh,2753
ohshi,2754
oifdasparsedonedigitifasparsedthreedigits,2755
oil,2756
ok,2757
okay,2758
oklahoma,2759
old,2760
ones,2761
online,2762
onlywire,2763
ooh,2764
ooooooohhhhhhh,2765
op,2766
opelz,2767
open,2768
opened,2769
opens,2770
opera,2771
operating,2772
opinion,2773
opponents,2774
opportunity,2775
oppose,2776
opposed,2777
opposing,2778
oppurtunity,2779
oprah,2780
opt,2781
opted,2782
optimal,2783
option,2784
options,2785
orange,2786
order,2787
oregon,2788
oregonian,2789
org,2790
organization,2791
orientation,2792
original,2793
os,2794
osama,2795
oscar,2796
osx,2797
ot,2798
oui,2799
outcry,2800
outer,2801
outright,2802
outrun,2803
outside,2804
overall,2805
overhaul,2806
overload,2807
overpowered,2808
overpriced,2809
overreaction,2810
overthrow,2811
overtime,2812
overused,2813
owl,2814
owner,2815
owners,2816
owning,2817
owns,2818
pack,2819
package,2820
packed,2821
packet,2822
packing,2823
page,2824
pages,2825
paid,2826
paint,2827
pair,2828
palestinians,2829
palin,2830
palmero,2831
palooza,2832
panda,2833
pandas,2834
pandering,2835
pandora,2836
pants,2837
paper,2838
paperwork,2839
par,2840
parachute,2841
paragraph,2842
parallel,2843
parent,2844
parents,2845
park,2846
parole,2847
parseddigits,2848
parseddigitsdparsedonedigitc,2849
parseddigitsebc,2850
parseddigitsjkasdaopd,2851
parsedfivedigits,2852
parsedfourdigits,2853
parsedfourdigitsathlon,2854
parsedfourdigitsoijdf,2855
parsedfourdigitswho,2856
parsedonedigit,2857
parsedonedigitchan,2858
parsedonedigitcparseddigitsa,2859
parsedonedigitd,2860
parsedonedigitdfparsedonedigit,2861
parsedonedigitebparsedonedigit,2862
parsedonedigitgw,2863
parsedonedigitst,2864
parsedonedigitth,2865
parsedonedigitx,2866
parsedthreedigits,2867
parsedthreedigitsd,2868
parsedthreedigitsk,2869
parsedthreedigitslbs,2870
parsedthreedigitsmpg,2871
parsedtime,2872
parsedtwodigits,2873
parsedtwodigitsaparsedonedigit,2874
parsedtwodigitsgb,2875
parsedtwodigitsgrand,2876
parsedtwodigitsk,2877
parsedtwodigitsmillion,2878
parsedtwodigitss,2879
particular,2880
particularly,2881
parties,2882
partisan,2883
partner,2884
partners,2885
parts,2886
party,2887
pass,2888
passed,2889
passenger,2890
passes,2891
past,2892
pasteurization,2893
patent,2894
patently,2895
path,2896
pathetic,2897
patrick,2898
patriot,2899
patterns,2900
paul,2901
pawn,2902
pay,2903
payment,2904
payments,2905
pays,2906
pc,2907
pcp,2908
peace,2909
peaceful,2910
peaches,2911
pearl,2912
pedantic,2913
pedobears,2914
pedophiles,2915
peers,2916
pelosi,2917
penalizes,2918
penalty,2919
penance,2920
penises,2921
people,2922
percent,2923
percentage,2924
percentages,2925
perception,2926
perfect,2927
perfectly,2928
performed,2929
periods,2930
permanence,2931
permissible,2932
permissions,2933
perpetuates,2934
person,2935
persona,2936
personal,2937
personality,2938
personally,2939
persons,2940
pesticides,2941
pet,2942
peter,2943
pets,2944
pgood,2945
ph,2946
pharma,2947
pharmaceutical,2948
phelps,2949
phenomena,2950
phone,2951
phones,2952
photo,2953
photos,2954
phrase,2955
physical,2956
physically,2957
pic,2958
picard,2959
pick,2960
picked,2961
picker,2962
pics,2963
picture,2964
pie,2965
piece,2966
pieces,2967
pile,2968
pills,2969
pinch,2970
pink,2971
pint,2972
pipe,2973
pirate,2974
pissed,2975
pissing,2976
pit,2977
pitching,2978
pitt,2979
place,2980
placement,2981
placing,2982
plain,2983
plan,2984
plane,2985
planet,2986
planets,2987
planning,2988
plant,2989
plants,2990
platform,2991
platformers,2992
play,2993
played,2994
player,2995
players,2996
playing,2997
pleaded,2998
plenty,2999
plug,3000
plural,3001
plurality,3002
plus,3003
pm,3004
pnac,3005
pocket,3006
pocketbook,3007
pockets,3008
point,3009
points,3010
poison,3011
poisoning,3012
poisonous,3013
poitier,3014
pole,3015
poles,3016
police,3017
policies,3018
policy,3019
political,3020
politically,3021
politicians,3022
politiciansgo,3023
politics,3024
ponzi,3025
poor,3026
poorer,3027
pop,3028
pope,3029
popular,3030
population,3031
pork,3032
porn,3033
pornography,3034
portion,3035
position,3036
positions,3037
possession,3038
possessive,3039
possible,3040
possibly,3041
post,3042
posted,3043
poster,3044
posters,3045
posting,3046
postponed,3047
pot,3048
potentially,3049
potheads,3050
pounds,3051
power,3052
powerful,3053
powerplant,3054
pox,3055
ppl,3056
practical,3057
practice,3058
practiced,3059
practicing,3060
praise,3061
praying,3062
pre,3063
preaching,3064
precedent,3065
precisely,3066
predators,3067
predicting,3068
preference,3069
pregnant,3070
preinstalled,3071
premise,3072
premiums,3073
preparation,3074
presence,3075
present,3076
presidency,3077
president,3078
press,3079
presses,3080
presumably,3081
pretend,3082
pretends,3083
pretty,3084
prevent,3085
prevention,3086
previous,3087
price,3088
prices,3089
prick,3090
priest,3091
primarily,3092
principles,3093
print,3094
printing,3095
prior,3096
priority,3097
prison,3098
prisoner,3099
prisoners,3100
prisons,3101
privacy,3102
private,3103
privately,3104
privilege,3105
prize,3106
pro,3107
probability,3108
probably,3109
probed,3110
problem,3111
problems,3112
probs,3113
procedures,3114
process,3115
procreate,3116
produce,3117
produced,3118
producer,3119
product,3120
production,3121
productive,3122
products,3123
professional,3124
professionally,3125
professors,3126
profit,3127
profitactually,3128
profiteer,3129
program,3130
programs,3131
projects,3132
prominent,3133
promise,3134
promised,3135
promotes,3136
promoting,3137
promotion,3138
promptly,3139
proof,3140
prop,3141
propaganda,3142
propeller,3143
proper,3144
properly,3145
properties,3146
property,3147
prophet,3148
proponents,3149
proportion,3150
proposed,3151
props,3152
prosecution,3153
prosecutions,3154
prosecutors,3155
prostitue,3156
prostitute,3157
protect,3158
protecting,3159
protectionism,3160
protectionist,3161
protein,3162
prove,3163
proved,3164
proven,3165
provide,3166
provided,3167
providing,3168
provision,3169
provisions,3170
proxies,3171
proxy,3172
ps,3173
psa,3174
pseudo,3175
psn,3176
psst,3177
psuedo,3178
psych,3179
psychiatric,3180
psychiatrist,3181
psycho,3182
psychological,3183
psychopathic,3184
public,3185
publicity,3186
publicly,3187
publishing,3188
pudge,3189
pull,3190
pulled,3191
pulling,3192
pundits,3193
punishment,3194
purchases,3195
purse,3196
pursued,3197
pursuits,3198
push,3199
pushed,3200
pussy,3201
pussys,3202
puts,3203
putting,3204
puzzle,3205
pv,3206
pyramid,3207
qld,3208
qm,3209
quakeholio,3210
quality,3211
quantities,3212
quantity,3213
quantum,3214
question,3215
questioned,3216
questioning,3217
questions,3218
quick,3219
quiet,3220
quit,3221
quite,3222
quote,3223
quoted,3224
qwest,3225
rabbit,3226
race,3227
racism,3228
racist,3229
radiative,3230
radical,3231
radicals,3232
raffled,3233
rafikichi,3234
raging,3235
rahm,3236
raids,3237
rail,3238
raise,3239
raised,3240
raising,3241
rajim,3242
ram,3243
ramen,3244
rampant,3245
ranch,3246
random,3247
range,3248
ranging,3249
ranked,3250
ranking,3251
rant,3252
ranting,3253
rape,3254
rapidly,3255
rarely,3256
rate,3257
rates,3258
rating,3259
rational,3260
raving,3261
ray,3262
razor,3263
reaction,3264
reactor,3265
read,3266
readable,3267
reader,3268
reading,3269
readjust,3270
ready,3271
real,3272
realise,3273
reality,3274
realize,3275
realized,3276
realizing,3277
really,3278
reason,3279
reasonable,3280
reasonably,3281
reasons,3282
recall,3283
receive,3284
received,3285
receives,3286
receiving,3287
recent,3288
recently,3289
recession,3290
recipe,3291
recognize,3292
record,3293
recording,3294
records,3295
recover,3296
recovery,3297
red,3298
redeye,3299
reduce,3300
reduction,3301
reference,3302
refers,3303
refreshing,3304
refused,3305
refuses,3306
regard,3307
regarding,3308
regardless,3309
regimes,3310
region,3311
regret,3312
regular,3313
regularly,3314
rehabilitation,3315
reilly,3316
reinstate,3317
reinvestment,3318
rejected,3319
related,3320
relationship,3321
release,3322
released,3323
releases,3324
relevant,3325
relics,3326
religion,3327
religions,3328
religious,3329
reloading,3330
relying,3331
remained,3332
remains,3333
remaking,3334
remember,3335
reminded,3336
reminds,3337
remorse,3338
removal,3339
remove,3340
removed,3341
render,3342
rendition,3343
renegotiate,3344
renovate,3345
renovating,3346
renovation,3347
renovations,3348
rent,3349
repair,3350
repayment,3351
repeal,3352
repealed,3353
repeat,3354
repeatedly,3355
replace,3356
replenished,3357
reported,3358
reporters,3359
reports,3360
repost,3361
represent,3362
representation,3363
represents,3364
reproach,3365
reptilians,3366
republic,3367
republican,3368
republicans,3369
republicrats,3370
republithug,3371
requests,3372
require,3373
required,3374
requires,3375
rescue,3376
research,3377
reserve,3378
resign,3379
resin,3380
resort,3381
resource,3382
resources,3383
respect,3384
response,3385
responsibility,3386
responsible,3387
rest,3388
restoration,3389
restoring,3390
restriction,3391
restrictions,3392
result,3393
results,3394
retard,3395
retarded,3396
retire,3397
retrace,3398
return,3399
returned,3400
revealing,3401
revenge,3402
revenues,3403
reverse,3404
reviever,3405
review,3406
reviewer,3407
reviews,3408
revolt,3409
revolution,3410
rewarding,3411
riaa,3412
rib,3413
rich,3414
rick,3415
rid,3416
ride,3417
ridiculous,3418
rifle,3419
rifles,3420
rig,3421
right,3422
rights,3423
riled,3424
rino,3425
rinse,3426
ripp,3427
rips,3428
rise,3429
risks,3430
river,3431
roaches,3432
road,3433
roar,3434
robbots,3435
robbottodays,3436
robert,3437
robocop,3438
robots,3439
robs,3440
rochester,3441
rock,3442
rocks,3443
rocky,3444
rodriguez,3445
roid,3446
ron,3447
ronald,3448
room,3449
root,3450
rope,3451
rose,3452
rotate,3453
roughly,3454
round,3455
roundup,3456
rove,3457
royalties,3458
rss,3459
rufies,3460
rugburn,3461
ruined,3462
rule,3463
rulers,3464
rules,3465
run,3466
runners,3467
running,3468
rural,3469
rush,3470
rushycontin,3471
rustproofing,3472
ruth,3473
sacrifice,3474
sad,3475
sadly,3476
safari,3477
safe,3478
safely,3479
safety,3480
sahfaaari,3481
said,3482
sake,3483
salaries,3484
sales,3485
salt,3486
sand,3487
sandiego,3488
santa,3489
saps,3490
sarc,3491
sarcasm,3492
sarcasmi,3493
sarcastic,3494
sat,3495
satellite,3496
satisfied,3497
satisfy,3498
saudi,3499
save,3500
saving,3501
saw,3502
say,3503
sayglobal,3504
saying,3505
sayings,3506
says,3507
scale,3508
scam,3509
scandal,3510
scarce,3511
scares,3512
scenario,3513
scene,3514
sceptical,3515
scheme,3516
schiff,3517
scholar,3518
school,3519
schoolgirl,3520
schoolgirls,3521
schools,3522
schwarzy,3523
science,3524
scientifically,3525
scientists,3526
scientology,3527
scott,3528
scratching,3529
screen,3530
screw,3531
screwed,3532
scroll,3533
scumbag,3534
sea,3535
search,3536
searched,3537
seat,3538
seated,3539
sec,3540
secessionist,3541
second,3542
secondly,3543
seconds,3544
secrecy,3545
secret,3546
secretary,3547
secrets,3548
sectarian,3549
section,3550
sector,3551
secure,3552
secured,3553
security,3554
seeing,3555
seen,3556
seinfeld,3557
seized,3558
selected,3559
selection,3560
self,3561
selfish,3562
sell,3563
sellers,3564
selling,3565
sells,3566
semi,3567
sen,3568
senate,3569
send,3570
senior,3571
sense,3572
sensible,3573
sensitivity,3574
sentence,3575
sentencing,3576
sentience,3577
seoul,3578
serendipitous,3579
seriously,3580
served,3581
server,3582
servers,3583
service,3584
services,3585
set,3586
setting,3587
settings,3588
seven,3589
seventy,3590
severe,3591
sewer,3592
sex,3593
sexual,3594
sexually,3595
sexy,3596
shacknews,3597
shadows,3598
shady,3599
shall,3600
sham,3601
shame,3602
shaq,3603
share,3604
shared,3605
shareholders,3606
sharers,3607
shares,3608
sharks,3609
sharp,3610
sharpton,3611
sheep,3612
sheesh,3613
sheik,3614
sheriff,3615
shi,3616
shift,3617
shiny,3618
ship,3619
shit,3620
shitty,3621
shock,3622
shocking,3623
shooting,3624
shoots,3625
shops,3626
short,3627
shortfall,3628
shot,3629
shotgun,3630
shoulders,3631
shouldn,3632
shout,3633
shouted,3634
shouts,3635
shove,3636
shoved,3637
showed,3638
showing,3639
shows,3640
shparsedonedigitts,3641
shrek,3642
shugashack,3643
shut,3644
shuttle,3645
sibel,3646
sick,3647
sickness,3648
sickthoughts,3649
sides,3650
sideswiped,3651
sighted,3652
sign,3653
signed,3654
significance,3655
significant,3656
silence,3657
silk,3658
silly,3659
silver,3660
silverlight,3661
similar,3662
simple,3663
simply,3664
simpson,3665
simpsons,3666
sincerely,3667
singing,3668
single,3669
singular,3670
sink,3671
sir,3672
sirius,3673
site,3674
sites,3675
skeptical,3676
skews,3677
skill,3678
skirt,3679
skittlesusamarket,3680
slammed,3681
slap,3682
slaughters,3683
slave,3684
slavery,3685
sleek,3686
sleep,3687
sleeves,3688
slept,3689
slice,3690
slideshows,3691
slightest,3692
slinging,3693
slip,3694
slipped,3695
slow,3696
small,3697
smallest,3698
smallpox,3699
smashing,3700
smells,3701
smile,3702
smithsonian,3703
smoke,3704
smoked,3705
smoking,3706
snake,3707
snakes,3708
snap,3709
sniper,3710
snoobish,3711
snoopy,3712
soccer,3713
social,3714
socialblade,3715
socialism,3716
socially,3717
society,3718
sociopath,3719
socks,3720
sodade,3721
software,3722
solar,3723
sold,3724
soldiers,3725
solid,3726
solution,3727
solved,3728
somebody,3729
someplace,3730
somethin,3731
somewhat,3732
sone,3733
song,3734
songs,3735
sony,3736
soon,3737
sooni,3738
sooo,3739
soooo,3740
sore,3741
sorry,3742
sort,3743
sorts,3744
sosa,3745
soul,3746
sound,3747
sounds,3748
soundtrack,3749
source,3750
sourced,3751
sources,3752
south,3753
southern,3754
soviet,3755
sowell,3756
space,3757
spam,3758
spamming,3759
spar,3760
sparing,3761
spc,3762
speak,3763
speaking,3764
speaks,3765
special,3766
specialized,3767
species,3768
specif,3769
specific,3770
specifically,3771
spectre,3772
speech,3773
speed,3774
speedo,3775
spell,3776
spend,3777
spending,3778
spends,3779
spendulous,3780
spent,3781
spewing,3782
spikes,3783
spiral,3784
spite,3785
splains,3786
splicing,3787
split,3788
splitting,3789
spoiled,3790
spoils,3791
spoofed,3792
sport,3793
spread,3794
spreading,3795
spyware,3796
sqeaking,3797
squad,3798
square,3799
squealing,3800
squeezing,3801
squirrel,3802
st,3803
stadiums,3804
staff,3805
stage,3806
stagflation,3807
stand,3808
standard,3809
standards,3810
standing,3811
standpoint,3812
stands,3813
stapp,3814
star,3815
stare,3816
start,3817
started,3818
starting,3819
starts,3820
starve,3821
starving,3822
stashed,3823
state,3824
stated,3825
statement,3826
statements,3827
staters,3828
states,3829
station,3830
statistically,3831
status,3832
stay,3833
stays,3834
stds,3835
steal,3836
stealing,3837
stearns,3838
steel,3839
steger,3840
step,3841
steps,3842
stereotype,3843
stern,3844
steve,3845
steven,3846
stfu,3847
stick,3848
sticking,3849
stifled,3850
stimulates,3851
stimulative,3852
stimulus,3853
stinger,3854
stock,3855
stoner,3856
stones,3857
stoning,3858
stood,3859
stop,3860
stopped,3861
store,3862
storeowner,3863
stores,3864
stories,3865
story,3866
straight,3867
strains,3868
strange,3869
strap,3870
straps,3871
streaming,3872
street,3873
streetaddress,3874
streets,3875
strength,3876
stressed,3877
strictly,3878
strike,3879
strikeouts,3880
string,3881
stripper,3882
strippers,3883
strong,3884
stronger,3885
strparsedonedigitfehe,3886
structure,3887
struggling,3888
stuck,3889
student,3890
students,3891
studied,3892
studies,3893
study,3894
stuff,3895
stupid,3896
stupidest,3897
style,3898
subconscious,3899
subject,3900
subjugation,3901
submission,3902
submissions,3903
submit,3904
submitted,3905
subsidies,3906
subsidise,3907
subsidy,3908
substance,3909
substantial,3910
substitute,3911
subsumed,3912
subterranean,3913
subtleties,3914
success,3915
successful,3916
suck,3917
sucked,3918
sucking,3919
sucks,3920
sudden,3921
suddenly,3922
sue,3923
sues,3924
suffer,3925
suffered,3926
suggest,3927
suggests,3928
suicidal,3929
suicide,3930
suleman,3931
sulphur,3932
sum,3933
summed,3934
summer,3935
sumo,3936
super,3937
superior,3938
supply,3939
support,3940
supported,3941
supporter,3942
supporters,3943
supports,3944
suppose,3945
supposed,3946
supposedly,3947
suppress,3948
sure,3949
surely,3950
surfaces,3951
surfstang,3952
surpass,3953
surprise,3954
surprised,3955
surprises,3956
surrender,3957
surrounded,3958
surveying,3959
suspense,3960
swap,3961
swat,3962
swear,3963
sweat,3964
swig,3965
swim,3966
swollen,3967
symbol,3968
sync,3969
systems,3970
tab,3971
table,3972
tactics,3973
taken,3974
takes,3975
taking,3976
talent,3977
taliban,3978
talk,3979
talked,3980
talking,3981
talks,3982
tank,3983
tanning,3984
tanukiparsedonedigiteven,3985
tape,3986
tapes,3987
target,3988
targets,3989
tasteless,3990
taught,3991
tax,3992
taxation,3993
taxes,3994
taxpayers,3995
tbh,3996
teachers,3997
teaches,3998
teaching,3999
teams,4000
technique,4001
technology,4002
techs,4003
teh,4004
tekhpoynt,4005
television,4006
tell,4007
tellin,4008
telling,4009
tells,4010
temperatures,4011
tempered,4012
temporarily,4013
temporary,4014
tend,4015
tendencies,4016
tends,4017
tens,4018
term,4019
terminal,4020
terms,4021
terrible,4022
terroist,4023
terrorist,4024
test,4025
testimony,4026
tests,4027
texas,4028
text,4029
texting,4030
tham,4031
thank,4032
thanks,4033
thanparsedfourdigits,4034
thanx,4035
thats,4036
thc,4037
theater,4038
theaters,4039
theft,4040
theirs,4041
theme,4042
theory,4043
therapy,4044
therefor,4045
theres,4046
thet,4047
theyll,4048
thier,4049
thing,4050
things,4051
think,4052
thinking,4053
thinks,4054
thirds,4055
thirsty,4056
thomas,4057
thought,4058
thoughts,4059
thousand,4060
thousands,4061
thread,4062
threat,4063
threatened,4064
threatening,4065
threatens,4066
threesome,4067
throw,4068
throwing,4069
thrown,4070
thunder,4071
thunderbird,4072
tibetans,4073
ticket,4074
tickets,4075
tie,4076
tier,4077
tiger,4078
tigers,4079
tight,4080
tilt,4081
time,4082
times,4083
tip,4084
tired,4085
titanic,4086
title,4087
tobacco,4088
today,4089
toilet,4090
told,4091
tolerate,4092
tomorrow,4093
tone,4094
tonnes,4095
took,4096
tool,4097
tor,4098
torn,4099
torrent,4100
torture,4101
torturing,4102
totally,4103
touched,4104
touching,4105
tough,4106
town,4107
toys,4108
tpb,4109
trace,4110
traced,4111
track,4112
trade,4113
trading,4114
traditional,4115
traditionally,4116
traffic,4117
tragic,4118
trailer,4119
trained,4120
training,4121
trains,4122
trans,4123
transition,4124
translated,4125
transportation,4126
transsexual,4127
trap,4128
travesty,4129
treasury,4130
treat,4131
treatment,4132
treatments,4133
treaty,4134
trend,4135
trendy,4136
trentadue,4137
trial,4138
trials,4139
tried,4140
tries,4141
trillion,4142
trolling,4143
trolls,4144
troop,4145
troops,4146
tropic,4147
trouble,4148
troubling,4149
trough,4150
truck,4151
true,4152
truly,4153
trunk,4154
trust,4155
trusted,4156
truth,4157
truths,4158
try,4159
trying,4160
tubatechno,4161
tucker,4162
tune,4163
turbines,4164
turd,4165
turf,4166
turk,4167
turn,4168
turned,4169
turns,4170
tv,4171
twice,4172
twisted,4173
twisting,4174
twitter,4175
type,4176
types,4177
typical,4178
typing,4179
tyrants,4180
ugh,4181
ugly,4182
uhbama,4183
uhhh,4184
uk,4185
ultimately,4186
um,4187
umm,4188
unbelievable,4189
unclaimed,4190
undead,4191
undercover,4192
underestimate,4193
undergrad,4194
understand,4195
understandable,4196
understanding,4197
understood,4198
underway,4199
undistorted,4200
undoubtedly,4201
unemployed,4202
unfortunately,4203
unhappy,4204
unhealthy,4205
uni,4206
uniform,4207
unintended,4208
union,4209
unipolar,4210
unique,4211
unite,4212
united,4213
universal,4214
universe,4215
university,4216
unjust,4217
unknown,4218
unless,4219
unlike,4220
unlucky,4221
unmannedmissionhope,4222
unreasonable,4223
unrelatedgold,4224
unstated,4225
untie,4226
update,4227
updates,4228
upgrade,4229
upgraded,4230
upgrading,4231
upheld,4232
uploading,4233
upper,4234
ups,4235
upscale,4236
uptick,4237
urban,4238
urge,4239
usa,4240
usage,4241
use,4242
used,4243
useful,4244
useless,4245
user,4246
users,4247
uses,4248
using,4249
usps,4250
usual,4251
usually,4252
utilizing,4253
utorrent,4254
utterly,4255
vaccines,4256
vader,4257
vagina,4258
vague,4259
valentine,4260
valid,4261
value,4262
valued,4263
values,4264
vampires,4265
vandalism,4266
variety,4267
vase,4268
vast,4269
ve,4270
vegas,4271
vehicle,4272
vehicles,4273
vending,4274
venomous,4275
verb,4276
verizon,4277
verses,4278
version,4279
versus,4280
vespertine,4281
veterans,4282
vhs,4283
vibrant,4284
vibrating,4285
vicious,4286
victim,4287
victims,4288
victoria,4289
victory,4290
video,4291
view,4292
viewer,4293
viewing,4294
vinegar,4295
violence,4296
violent,4297
virtual,4298
virtually,4299
virus,4300
visit,4301
visiting,4302
vista,4303
vitriolandangst,4304
vitro,4305
voice,4306
volt,4307
volunteering,4308
vote,4309
voted,4310
voters,4311
voyeur,4312
vw,4313
vying,4314
wade,4315
wait,4316
waited,4317
waiting,4318
wake,4319
walked,4320
walking,4321
walks,4322
wall,4323
walls,4324
walmart,4325
wanna,4326
wannabes,4327
want,4328
wanted,4329
wanting,4330
wants,4331
war,4332
warming,4333
warning,4334
warrant,4335
warrants,4336
wars,4337
washington,4338
wasn,4339
waste,4340
wasted,4341
watch,4342
watched,4343
watchin,4344
watching,4345
watchmen,4346
water,4347
watermelons,4348
watershed,4349
wave,4350
way,4351
ways,4352
wazoo,4353
weak,4354
wealth,4355
weapons,4356
wear,4357
wears,4358
weather,4359
web,4360
webdesigners,4361
webkit,4362
website,4363
websites,4364
wee,4365
weed,4366
week,4367
weekend,4368
weeks,4369
weight,4370
weinbergnot,4371
weird,4372
welcome,4373
welcoming,4374
welfare,4375
went,4376
weren,4377
whacks,4378
whats,4379
whatwe,4380
wheels,4381
whilst,4382
whiners,4383
whining,4384
whip,4385
whipped,4386
white,4387
whomever,4388
whyve,4389
wicked,4390
wide,4391
widely,4392
wife,4393
wifi,4394
wii,4395
wikipedia,4396
wild,4397
wildland,4398
wildlife,4399
williams,4400
willing,4401
win,4402
wind,4403
window,4404
windows,4405
windowsuntil,4406
windy,4407
wine,4408
winge,4409
wings,4410
winmo,4411
winner,4412
winning,4413
winslet,4414
wipe,4415
wiretapping,4416
wise,4417
wish,4418
wishing,4419
witch,4420
withholds,4421
withot,4422
withstand,4423
wives,4424
woh,4425
wolfowitz,4426
woman,4427
women,4428
won,4429
wonder,4430
wonderful,4431
wondering,4432
wont,4433
woo,4434
wood,4435
woods,4436
woodsoh,4437
woodsparsedonedigit,4438
woooooo,4439
woot,4440
word,4441
wording,4442
words,4443
wore,4444
work,4445
worked,4446
working,4447
workplace,4448
works,4449
world,4450
worlds,4451
worried,4452
worries,4453
worrisome,4454
worry,4455
worse,4456
worship,4457
worst,4458
worth,4459
worthless,4460
worthy,4461
wouldn,4462
wounds,4463
wow,4464
woz,4465
wparsedonedigit,4466
wrist,4467
write,4468
writer,4469
writers,4470
writers_guild_of,4471
written,4472
wrong,4473
wsads,4474
wtf,4475
wussy,4476
wwe,4477
xbox,4478
xdsorry,4479
xkcd,4480
xm,4481
xp,4482
xparsedonedigit,4483
xparsedthreedigits,4484
xvid,4485
xvparsedfourdigits,4486
ya,4487
yahoo,4488
yahtzee,4489
yankees,4490
yapping,4491
yay,4492
yeah,4493
year,4494
years,4495
yeast,4496
yeeeeeahhhh,4497
yelling,4498
yelp,4499
yen,4500
yep,4501
yes,4502
yessss,4503
york,4504
young,4505
youth,4506
yummy,4507
zero,4508
zog,4509
zombie,4510
zombies,4511
zoned,4512
zoo,4513
