___________________________,0
_______________________________,1
abandon,2
abbas,3
abducted,4
abhorrent,5
ability,6
able,7
abolutely,8
aboriginal,9
aboroginals,10
aborogine,11
abortion,12
about,13
above,14
abraham,15
abroad,16
abrogate,17
abrogated,18
absence,19
absolute,20
absolutely,21
absolution,22
absurd,23
abu,24
abundant,25
abuse,26
abused,27
abusing,28
abysmally,29
academies,30
accept,31
acceptable,32
acceptance,33
accepted,34
access,35
accessible,36
accident,37
accommodate,38
accommodation,39
according,40
accordingly,41
account,42
accounted,43
accounts,44
accurate,45
accusation,46
accusations,47
accused,48
accusing,49
acer,50
acheive,51
achieve,52
achieving,53
acquire,54
across,55
act,56
acted,57
acting,58
action,59
actions,60
active,61
activist,62
activity,63
acts,64
actual,65
actually,66
acumen,67
acuses,68
acutely,69
acxts,70
ad,71
add,72
added,73
additionally,74
additionsal,75
address,76
addressed,77
addresses,78
addressing,79
adds,80
adduce,81
adequate,82
adjust,83
admin,84
administators,85
administration,86
administrative,87
administrators,88
admire,89
admission,90
admit,91
admitted,92
admitting,93
adolescence,94
adopting,95
adulation,96
adulthood,97
adults,98
advance,99
advanced,100
advantage,101
advert,102
advertise,103
advisers,104
advocate,105
advocating,106
aerial,107
afair,108
affair,109
affairs,110
affect,111
affinity,112
afflicting,113
afford,114
afghanistan,115
afghans,116
aforementioned,117
afraid,118
africa,119
african,120
afrikaaner,121
afrikaaners,122
after,123
afterwards,124
again,125
against,126
age,127
agenda,128
ages,129
aggression,130
aggressive,131
ago,132
agree,133
agreed,134
agreeing,135
agreement,136
agreements,137
agrees,138
ah,139
ahead,140
ahmadinejihad,141
ahmed,142
aid,143
aiejrlsk,144
aim,145
aimed,146
aims,147
aina,148
air,149
aircraft,150
aired,151
airlines,152
airport,153
al,154
alan,155
alans,156
alarming,157
alaska,158
albeit,159
albert,160
albright,161
alcohol,162
ali,163
aliens,164
alive,165
aliya,166
aljazeera,167
all,168
allah,169
allegations,170
alleged,171
allegedly,172
allende,173
alliance,174
allied,175
allience,176
allies,177
allocated,178
alloted,179
allow,180
allowed,181
allowing,182
allows,183
alluding,184
ally,185
almost,186
alone,187
along,188
alongside,189
alot,190
already,191
alright,192
also,193
alternating,194
alternatively,195
although,196
always,197
am,198
amaze,199
amazed,200
amazing,201
ambassador,202
ambitions,203
ambulance,204
amd,205
amendment,206
america,207
american,208
americancivilians,209
americans,210
amigo,211
amnesty,212
among,213
amongst,214
amount,215
amounted,216
amounts,217
amp,218
amsterdam,219
amusement,220
amusing,221
an,222
analagous,223
analogies,224
analogy,225
analysis,226
anarchists,227
anarchy,228
ancestors,229
ancestral,230
ancestry,231
ancient,232
and,233
andy,234
angel,235
angela,236
angeles,237
angels,238
anger,239
angle,240
anglia,241
anglicans,242
angola,243
angry,244
animal,245
animals,246
ann,247
anne,248
annexing,249
annhialate,250
annihilation,251
anniversary,252
annon,253
announced,254
annoyed,255
annual,256
another,257
anothers,258
answer,259
answered,260
answering,261
answers,262
anthony,263
anthropological,264
anti,265
antibiotics,266
antineocon,267
any,268
anybody,269
anybodys,270
anymore,271
anyone,272
anythig,273
anything,274
anytime,275
anyway,276
anywhere,277
apart,278
apartheid,279
apartheit,280
apartment,281
apatheid,282
aperthied,283
apolitical,284
apologies,285
apologise,286
apologists,287
apologize,288
apology,289
appalled,290
appalling,291
apparent,292
apparently,293
appealed,294
appear,295
appeared,296
appears,297
appease,298
appeasers,299
appeases,300
appetite,301
applauded,302
apple,303
apples,304
applicable,305
apply,306
applying,307
appointments,308
appolo,309
appreciate,310
apprehension,311
approach,312
approached,313
approaching,314
approve,315
approved,316
approving,317
approx,318
approximately,319
april,320
apropriate,321
aquaintance,322
arab,323
arabia,324
arabic,325
arabs,326
arafat,327
arbitray,328
arch,329
archives,330
are,331
area,332
areas,333
aren,334
arent,335
argentina,336
argue,337
argued,338
arguements,339
argues,340
arguing,341
argument,342
arguments,343
ariel,344
arm,345
armed,346
armenian,347
armies,348
arms,349
army,350
arnie,351
aropund,352
around,353
arranged,354
arrest,355
arrested,356
arrived,357
arriving,358
arrogance,359
arrogant,360
arrow,361
arrresting,362
arse,363
arsenals,364
art,365
article,366
articles,367
artillery,368
aryans,369
as,370
asa,371
asdf,372
ashanti,373
asia,374
asian,375
asians,376
aside,377
ask,378
asked,379
asking,380
aspect,381
aspirate,382
aspirational,383
aspirations,384
aspire,385
assault,386
assert,387
asserted,388
assesement,389
assess,390
assessing,391
assimilate,392
assimilated,393
assimilation,394
assist,395
assistance,396
associate,397
associated,398
association,399
assume,400
assumed,401
assuming,402
assumption,403
assumptions,404
assure,405
astonished,406
astonishing,407
astounding,408
astute,409
aswat,410
aswell,411
at,412
atheist,413
atlast,414
atleast,415
atom,416
atomic,417
atothez,418
atrocities,419
atrocity,420
atta,421
attack,422
attacked,423
attackers,424
attacking,425
attacks,426
attempt,427
attempting,428
attempts,429
attention,430
attest,431
attire,432
attitude,433
attitudes,434
attorney,435
attract,436
attracted,437
attraction,438
attracts,439
attribute,440
attributing,441
audiance,442
audited,443
august,444
austarlia,445
australia,446
australian,447
australians,448
australias,449
austria,450
austrians,451
authorities,452
authority,453
authors,454
automobile,455
available,456
availed,457
avalible,458
avenge,459
average,460
avert,461
avigdor,462
aviv,463
avoid,464
avoided,465
avoiding,466
await,467
awaiting,468
award,469
aware,470
away,471
awe,472
awful,473
axe,474
axegrinder,475
ay,476
az,477
azania,478
azar,479
baathists,480
babies,481
baby,482
babysitting,483
back,484
backed,485
background,486
backing,487
backwater,488
bad,489
baffles,490
bagdad,491
baggage,492
baghdad,493
bailiffs,494
balance,495
balfour,496
bali,497
balkan,498
ball,499
ballot,500
balls,501
ban,502
band,503
bang,504
bank,505
bankers,506
bankruptcy,507
bankstown,508
banned,509
banning,510
bar,511
barabism,512
barack,513
barbados,514
barbarians,515
barbaric,516
barbarism,517
barbarity,518
barking,519
barmy,520
barrel,521
barrier,522
bartering,523
base,524
baseball,525
based,526
bases,527
basest,528
bashing,529
basic,530
basically,531
basis,532
basra,533
bat,534
battles,535
bay,536
bbc,537
be,538
beach,539
beaches,540
bear,541
beard,542
bearded,543
bearing,544
beat,545
beating,546
beats,547
beause,548
beautiful,549
became,550
because,551
become,552
becomes,553
becoming,554
becuase,555
bed,556
beeb,557
beef,558
been,559
before,560
beforehand,561
began,562
beggars,563
begger,564
begin,565
beginning,566
begs,567
beharry,568
behave,569
behaved,570
behaving,571
behavior,572
behaviour,573
beheading,574
behind,575
behold,576
being,577
beings,578
belfer,579
belgiium,580
belief,581
beliefs,582
belies,583
believe,584
believed,585
believers,586
believes,587
believing,588
believs,589
belived,590
bellicose,591
belly,592
belong,593
belonging,594
belongs,595
ben,596
beneath,597
benefit,598
benefits,599
bennett,600
bennnett,601
benny,602
benz,603
berlusconi,604
bertie,605
besides,606
best,607
bested,608
bet,609
bethlehem,610
betrays,611
better,612
between,613
beyond,614
bho,615
big,616
bigger,617
biggest,618
bigot,619
bigotry,620
bigots,621
bill,622
bills,623
bin,624
binoculars,625
bird,626
birds,627
birth,628
bit,629
bitch,630
black,631
blackburn,632
blacks,633
blah,634
blair,635
blairparsedonedigit,636
blame,637
blamed,638
blames,639
blaming,640
blast,641
blaster,642
blatant,643
blatantly,644
blatter,645
bleat,646
bleating,647
bleeding,648
blending,649
blessed,650
blessing,651
blew,652
bliar,653
blind,654
blindly,655
blindness,656
blocade,657
blockaded,658
blocks,659
blood,660
bloodletting,661
bloodshed,662
bloody,663
blow,664
blowing,665
blows,666
blue,667
bnp,668
board,669
boarded,670
boards,671
boat,672
bold,673
bolshevik,674
bolster,675
bolton,676
bomb,677
bombarded,678
bombardment,679
bombardments,680
bombed,681
bomber,682
bombers,683
bombing,684
bombs,685
bon,686
bona,687
bones,688
bonhoeffer,689
bonuses,690
boo,691
book,692
boom,693
booming,694
booms,695
boosting,696
boot,697
booth,698
bootlickers,699
bordeauxparsedtwodigits,700
border,701
bordering,702
borders,703
bore,704
boring,705
born,706
borrower,707
both,708
bother,709
bothered,710
bothering,711
bottle,712
bottom,713
bouncy,714
bound,715
boundaries,716
boundary,717
bowing,718
bowl,719
bownding,720
box,721
boy,722
boycott,723
boycotting,724
boydavey,725
boys,726
brain,727
brainwashed,728
branch,729
branded,730
brandon,731
brave,732
bravery,733
brazeness,734
brazil,735
break,736
breaker,737
breakfast,738
breaking,739
breaks,740
breasts,741
breath,742
bribe,743
bribes,744
bribing,745
brick,746
brief,747
brilliant,748
brimstone,749
bring,750
bringing,751
brings,752
brit,753
britain,754
britains,755
britan,756
britian,757
british,758
britishness,759
britons,760
brits,761
broadcast,762
broadly,763
broke,764
broken,765
brother,766
brothers,767
brought,768
brown,769
brunt,770
brush,771
brutal,772
brutality,773
brutally,774
brutish,775
bs,776
btw,777
buddhist,778
buddy,779
budget,780
build,781
building,782
buildings,783
builds,784
built,785
bulgaria,786
bull,787
bullet,788
bullets,789
bum,790
bumpkins,791
bunch,792
bunfight,793
bunkers,794
burden,795
burger,796
buried,797
burma,798
bus,799
bush,800
business,801
busses,802
bust,803
busy,804
but,805
buy,806
buying,807
buys,808
bwahaha,809
by,810
bye,811
cabal,812
cable,813
caesar,814
cafe,815
cafes,816
cafta,817
cahvez,818
cake,819
calais,820
calculating,821
calendar,822
californian,823
caliphite,824
call,825
called,826
calling,827
calls,828
cambodia,829
camcorder,830
came,831
camera,832
camouflage,833
camp,834
campaign,835
campare,836
camps,837
campus,838
can,839
canaanintes,840
canaanite,841
canada,842
canadafreepress,843
canadians,844
cancel,845
cancer,846
candidates,847
cannanites,848
cannot,849
canons,850
cant,851
cap,852
capabilities,853
capable,854
capital,855
capitalist,856
capitalists,857
capitol,858
caps,859
captainlogic,860
captcha,861
captured,862
car,863
carbine,864
care,865
cared,866
careful,867
carefully,868
cares,869
carolina,870
carpet,871
carried,872
carry,873
carrying,874
cars,875
cartel,876
cartels,877
carter,878
carthy,879
carthyism,880
cartoon,881
cartoons,882
case,883
cases,884
cash,885
casinos,886
castro,887
casualties,888
cat,889
catastrophic,890
categories,891
category,892
catering,893
cathars,894
cathch,895
catholic,896
catholics,897
cats,898
caught,899
cause,900
caused,901
causes,902
causing,903
ceacefire,904
cease,905
ceasefire,906
ceding,907
celebrate,908
celebration,909
celebrations,910
celebrity,911
cellar,912
cells,913
celt,914
censorship,915
cent,916
center,917
central,918
centred,919
centredaily,920
centres,921
centuries,922
century,923
certai,924
certain,925
certainly,926
chain,927
chair,928
chairs,929
chalabi,930
challenge,931
challenged,932
challenging,933
chance,934
chancellor,935
chances,936
change,937
changed,938
changes,939
changing,940
channel,941
chaos,942
chap,943
chapel,944
chapin,945
chapter,946
character,947
characterful,948
characterise,949
characterised,950
characteristic,951
characters,952
charge,953
charged,954
charges,955
charismatic,956
charities,957
charity,958
charlesi,959
charters,960
chashews,961
chat,962
chavez,963
cheap,964
cheat,965
check,966
checked,967
checks,968
cheddi,969
cheering,970
cheerleaders,971
cheers,972
cheese,973
chemical,974
cheney,975
chicago,976
chief,977
child,978
childhood,979
childish,980
childline,981
children,982
china,983
chinese,984
chipmaker,985
chips,986
choeung,987
choice,988
choke,989
choose,990
choosen,991
chooses,992
choosing,993
choosy,994
chopped,995
chose,996
chosen,997
christ,998
christian,999
christianity,1000
christians,1001
christinaity,1002
christmas,1003
christrainanti,1004
chritians,1005
chrsitian,1006
chucked,1007
chucking,1008
chunk,1009
church,1010
churches,1011
churchill,1012
cia,1013
cientific,1014
cigar,1015
circle,1016
circles,1017
circling,1018
circumstance,1019
circumstances,1020
circus,1021
citation,1022
citations,1023
cite,1024
cited,1025
cities,1026
citizens,1027
citizenship,1028
city,1029
civil,1030
civilian,1031
civilians,1032
civilisation,1033
civilised,1034
civilized,1035
civilzed,1036
civlian,1037
claim,1038
claimed,1039
claiming,1040
claims,1041
clap,1042
clapped,1043
clarification,1044
clarify,1045
class,1046
classes,1047
classics,1048
classified,1049
classrooms,1050
claudius,1051
clause,1052
clean,1053
cleanse,1054
cleansed,1055
cleansing,1056
clear,1057
cleared,1058
clearing,1059
clearly,1060
clergy,1061
clever,1062
cliche,1063
clicking,1064
client,1065
cling,1066
clinton,1067
clocks,1068
close,1069
closed,1070
closely,1071
closet,1072
closure,1073
clout,1074
clue,1075
clueless,1076
cluster,1077
clutching,1078
cnn,1079
co,1080
coal,1081
coalition,1082
coastal,1083
cocaine,1084
codes,1085
coexistence,1086
coffin,1087
cognitive,1088
coherent,1089
coin,1090
coinciding,1091
coins,1092
cojones,1093
cold,1094
collaborated,1095
collaborators,1096
collapses,1097
collateral,1098
collatoral,1099
colleagues,1100
collection,1101
collectively,1102
college,1103
colleges,1104
collide,1105
colneljihadist,1106
colonalism,1107
colonel,1108
colonelartist,1109
colonial,1110
colonizers,1111
colt,1112
columbia,1113
column,1114
columnist,1115
com,1116
coma,1117
combat,1118
combatants,1119
combatting,1120
come,1121
comes,1122
comfortable,1123
comfortably,1124
comforting,1125
coming,1126
command,1127
commemorated,1128
commemorations,1129
comment,1130
comments,1131
commercial,1132
commie,1133
commies,1134
comming,1135
commission,1136
commit,1137
committing,1138
committment,1139
common,1140
communication,1141
communing,1142
communism,1143
communist,1144
communists,1145
communities,1146
community,1147
companies,1148
company,1149
comparatively,1150
compared,1151
compares,1152
comparing,1153
comparison,1154
compass,1155
compassionate,1156
compassionately,1157
compelled,1158
compensated,1159
compensation,1160
competed,1161
competent,1162
competition,1163
competitive,1164
complain,1165
complained,1166
complaining,1167
complaint,1168
complaints,1169
complete,1170
completely,1171
compliant,1172
comply,1173
comprehension,1174
comprised,1175
compromises,1176
computer,1177
computers,1178
con,1179
concatenate,1180
conceal,1181
concede,1182
conceived,1183
concentrated,1184
concept,1185
concepts,1186
concern,1187
concerned,1188
concerning,1189
concerns,1190
concesions,1191
concieved,1192
conclude,1193
concluded,1194
conclusion,1195
conclusions,1196
condaleeza,1197
condemn,1198
condemnation,1199
condemned,1200
condemning,1201
condescending,1202
condiderate,1203
conditions,1204
condones,1205
conduct,1206
conducted,1207
conference,1208
confession,1209
confirmed,1210
conflict,1211
conflicts,1212
confronted,1213
confronts,1214
confuse,1215
confused,1216
confuses,1217
congrats,1218
congratulations,1219
congress,1220
congressmen,1221
connections,1222
connects,1223
conquered,1224
conquest,1225
cons,1226
consent,1227
consequence,1228
consequences,1229
consequent,1230
consequently,1231
conservative,1232
conservbatives,1233
consider,1234
consideration,1235
considered,1236
considering,1237
consistent,1238
consistently,1239
consists,1240
conspiracy,1241
conspiratorial,1242
constant,1243
constitute,1244
constitution,1245
constitutionally,1246
construction,1247
constructively,1248
consulted,1249
contact,1250
containing,1251
contains,1252
contaminated,1253
contemporary,1254
contempory,1255
contempt,1256
conten,1257
context,1258
continent,1259
continously,1260
continually,1261
continue,1262
continued,1263
continuously,1264
contract,1265
contradictions,1266
contrary,1267
contrast,1268
contray,1269
contribute,1270
contributed,1271
contributes,1272
contributions,1273
contrived,1274
control,1275
controlled,1276
controlling,1277
controls,1278
conveniant,1279
convention,1280
conventional,1281
conversations,1282
convert,1283
conveys,1284
convicted,1285
conviction,1286
convictions,1287
convince,1288
convinced,1289
convoy,1290
cool,1291
cooperation,1292
cop,1293
cope,1294
copenhagen,1295
copied,1296
copies,1297
corner,1298
corporate,1299
corpses,1300
corpus,1301
correct,1302
correction,1303
correctly,1304
correlation,1305
corrupt,1306
corruption,1307
cos,1308
cost,1309
could,1310
couldn,1311
couldnt,1312
council,1313
count,1314
counter,1315
counterargument,1316
counting,1317
countries,1318
countruies,1319
country,1320
countrymen,1321
coup,1322
couple,1323
courage,1324
courageous,1325
course,1326
court,1327
courtesy,1328
courting,1329
courts,1330
cousin,1331
cover,1332
coverage,1333
covered,1334
covering,1335
cowardly,1336
cowards,1337
cowboy,1338
cowboys,1339
cows,1340
cp,1341
crackling,1342
crackpot,1343
cradle,1344
crane,1345
crap,1346
crass,1347
crazy,1348
create,1349
created,1350
creation,1351
creatures,1352
credit,1353
creeping,1354
cretin,1355
cretins,1356
cricism,1357
cricket,1358
crime,1359
crimes,1360
criminal,1361
criminalised,1362
criminals,1363
cripple,1364
crisis,1365
crisps,1366
criteria,1367
critical,1368
criticise,1369
criticised,1370
criticising,1371
criticism,1372
criticisms,1373
criticize,1374
criticized,1375
critique,1376
critiques,1377
critise,1378
cronies,1379
crook,1380
cross,1381
crossed,1382
crossing,1383
crucial,1384
crusade,1385
crush,1386
crushed,1387
cry,1388
crying,1389
ctoo,1390
cuba,1391
cuban,1392
culprit,1393
cult,1394
cultural,1395
culture,1396
cultures,1397
cup,1398
curious,1399
current,1400
currently,1401
cusp,1402
customs,1403
cut,1404
cuts,1405
cybersoldiers,1406
cyprus,1407
czech,1408
daddy,1409
daft,1410
dag,1411
dag_petersen,1412
dagnarius,1413
daily,1414
damage,1415
damages,1416
damned,1417
damnocrasy,1418
dan,1419
dancers,1420
dandy,1421
dane,1422
danes,1423
danger,1424
dangerous,1425
dangers,1426
danish,1427
danmark,1428
dare,1429
darfour,1430
daring,1431
dark,1432
darn,1433
dart,1434
darthvedder,1435
darwin,1436
data,1437
date,1438
dated,1439
daughters,1440
david,1441
davidson,1442
davison,1443
day,1444
days,1445
de,1446
dead,1447
deadlocked,1448
deadly,1449
deafening,1450
deal,1451
dealing,1452
dealings,1453
deals,1454
dealtwith,1455
dear,1456
death,1457
deaths,1458
debate,1459
debated,1460
debates,1461
debating,1462
debtor,1463
decade,1464
deceit,1465
deceive,1466
decency,1467
decent,1468
deception,1469
decide,1470
decided,1471
decides,1472
decision,1473
deck,1474
declaration,1475
declared,1476
declaring,1477
decline,1478
declined,1479
decontextualised,1480
decreasing,1481
dedicated,1482
deduce,1483
deep,1484
deeper,1485
defacating,1486
defacing,1487
defence,1488
defences,1489
defend,1490
defenders,1491
defending,1492
defense,1493
defent,1494
deficiency,1495
deficit,1496
deficits,1497
defination,1498
definatly,1499
defined,1500
defines,1501
defining,1502
definitely,1503
definition,1504
definitions,1505
defy,1506
degrade,1507
degree,1508
degrees,1509
dehumanization,1510
delegation,1511
deliberate,1512
deliberately,1513
delighted,1514
delightful,1515
delightfully,1516
deliver,1517
delivered,1518
delivering,1519
dell,1520
deluge,1521
delusional,1522
delve,1523
dem,1524
demand,1525
demanding,1526
demands,1527
demeaning,1528
demeans,1529
democracies,1530
democracy,1531
democrat,1532
democratic,1533
democratically,1534
democrats,1535
democtrats,1536
demographic,1537
demonizing,1538
demonstrate,1539
demonstrated,1540
demonstrates,1541
demonstrating,1542
demonstrations,1543
denial,1544
denied,1545
deniers,1546
denigrates,1547
denigration,1548
denmark,1549
denominations,1550
denoted,1551
dense,1552
denser,1553
density,1554
dent,1555
denverpost,1556
deny,1557
denying,1558
depending,1559
depends,1560
depicted,1561
depleted,1562
depose,1563
depressed,1564
depression,1565
depressives,1566
depth,1567
deputy,1568
deranged,1569
derived,1570
derring,1571
desade,1572
descended,1573
descends,1574
describe,1575
described,1576
desert,1577
deserve,1578
deserves,1579
designated,1580
designed,1581
desired,1582
desperate,1583
desperation,1584
despise,1585
despite,1586
destabilising,1587
destinations,1588
destroy,1589
destroyed,1590
destroying,1591
destruction,1592
destructive,1593
destrution,1594
detailing,1595
details,1596
detains,1597
detect,1598
detected,1599
detecting,1600
deter,1601
deterent,1602
determination,1603
determined,1604
deterrence,1605
deterrent,1606
deterrents,1607
detonates,1608
detonating,1609
detraction,1610
deutschmark,1611
devastate,1612
devastatingly,1613
develop,1614
developed,1615
developemental,1616
developing,1617
development,1618
developments,1619
device,1620
devices,1621
devil,1622
devoid,1623
dez,1624
di,1625
dialects,1626
diaries,1627
dick,1628
dickie,1629
dictated,1630
dictator,1631
dictatorial,1632
dictators,1633
dictatorship,1634
dictatorships,1635
did,1636
didn,1637
didnt,1638
die,1639
died,1640
dies,1641
diet,1642
differant,1643
difference,1644
differences,1645
different,1646
differes,1647
differing,1648
difficult,1649
difficulty,1650
diffuse,1651
digestion,1652
digging,1653
dignified,1654
dignity,1655
dim,1656
dinosaurs,1657
dioxin,1658
diplomacy,1659
diplomatic,1660
diplomats,1661
direct,1662
directed,1663
direction,1664
directly,1665
director,1666
dirty,1667
disagree,1668
disagreement,1669
disappointed,1670
disappointment,1671
disapprove,1672
disarming,1673
disaster,1674
disater,1675
disbelieve,1676
discourse,1677
discovered,1678
discovery,1679
discredit,1680
discrimination,1681
discuss,1682
discussing,1683
discussion,1684
discussions,1685
disease,1686
disengagement,1687
disengenious,1688
disengenous,1689
disgraceful,1690
disgusting,1691
dishonest,1692
dishonesty,1693
dishonour,1694
disinterest,1695
dislie,1696
dislike,1697
disliked,1698
dismiss,1699
dismissed,1700
disobey,1701
disparaging,1702
disparity,1703
dispicable,1704
displace,1705
displaced,1706
display,1707
disposal,1708
dispossession,1709
disproportionate,1710
disproportionately,1711
dispute,1712
disputed,1713
disputes,1714
distance,1715
distant,1716
distasteful,1717
distating,1718
distinguish,1719
distorter,1720
distortions,1721
distributed,1722
distributing,1723
districts,1724
divert,1725
divide,1726
divisive,1727
divorced,1728
djia,1729
dna,1730
do,1731
docks,1732
doctor,1733
doctors,1734
doctrine,1735
docu,1736
document,1737
documenting,1738
documents,1739
dod,1740
dodge,1741
does,1742
doesn,1743
doesnt,1744
dog,1745
dogs,1746
doing,1747
dollar,1748
dollars,1749
domestic,1750
dominant,1751
dominate,1752
domination,1753
don,1754
donald,1755
donated,1756
donations,1757
donator,1758
done,1759
dont,1760
doomed,1761
doorsteps,1762
doplomatic,1763
dostum,1764
dotted,1765
doubled,1766
doubt,1767
doubts,1768
dow,1769
down,1770
downhill,1771
downs,1772
downside,1773
downward,1774
dozen,1775
dozens,1776
dr,1777
draconian,1778
dragged,1779
drain,1780
drained,1781
dramatically,1782
draw,1783
drawers,1784
drawn,1785
draws,1786
dream,1787
dreidelspin,1788
dresden,1789
dress,1790
dresses,1791
drink,1792
drinking,1793
drive,1794
drivel,1795
driven,1796
driving,1797
drop,1798
dropped,1799
drove,1800
drug,1801
drums,1802
drunk,1803
dry,1804
du,1805
dubai,1806
dubya,1807
dude,1808
due,1809
duh,1810
dull,1811
dump,1812
dumped,1813
dunno,1814
duped,1815
duplicity,1816
dura,1817
during,1818
dutch,1819
duty,1820
dwarfs,1821
dying,1822
dynamic,1823
dysfunctional,1824
each,1825
eager,1826
earlier,1827
early,1828
earn,1829
earned,1830
earnings,1831
ears,1832
earth,1833
earthquake,1834
easily,1835
easing,1836
east,1837
eastern,1838
easy,1839
eat,1840
eating,1841
ebt,1842
ebts,1843
ecnomies,1844
economic,1845
economical,1846
economics,1847
economies,1848
economy,1849
ecstasy,1850
ed,1851
edcuated,1852
edited,1853
edition,1854
educate,1855
educated,1856
education,1857
educational,1858
eec,1859
effect,1860
effective,1861
effectively,1862
effects,1863
effort,1864
eg,1865
egeland,1866
egg,1867
ego,1868
egypt,1869
egyptians,1870
eh,1871
eight,1872
eighteen,1873
eighties,1874
eighty,1875
eire,1876
eith,1877
either,1878
ek,1879
elderly,1880
elect,1881
elected,1882
electing,1883
election,1884
elections,1885
electorate,1886
element,1887
elemets,1888
elephants,1889
else,1890
elsewhere,1891
em,1892
emailed,1893
embarrassing,1894
embarrassment,1895
embassy,1896
embraced,1897
emerged,1898
emigrants,1899
emigration,1900
emission,1901
emmigrated,1902
emmotional,1903
empathize,1904
emphasising,1905
empire,1906
empires,1907
employer,1908
empowering,1909
empt,1910
emptively,1911
empty,1912
en,1913
enacting,1914
encountered,1915
encourage,1916
encouraged,1917
encouragement,1918
encourages,1919
encouraging,1920
encourged,1921
end,1922
ended,1923
endless,1924
enemies,1925
enemy,1926
energy,1927
enforce,1928
enforcing,1929
engage,1930
engaged,1931
engaging,1932
engineered,1933
engineering,1934
engineers,1935
england,1936
english,1937
englishman,1938
englishmen,1939
engulfed,1940
enjoy,1941
enlighten,1942
enlightened,1943
enlightening,1944
enlightenment,1945
enlisted,1946
enormous,1947
enough,1948
enrichment,1949
enrolled,1950
enshrined,1951
entered,1952
entering,1953
entertainment,1954
entire,1955
entirely,1956
entirety,1957
entitled,1958
environment,1959
environmental,1960
envoy,1961
epic,1962
episode,1963
equal,1964
equality,1965
equally,1966
equivalence,1967
equivalent,1968
er,1969
era,1970
err,1971
erroneous,1972
error,1973
errors,1974
errr,1975
es,1976
especially,1977
essentially,1978
establish,1979
establishing,1980
establishment,1981
esteem,1982
estimate,1983
et,1984
etc,1985
ethnic,1986
ethnically,1987
ethnicity,1988
eu,1989
euarabia,1990
euphamistically,1991
euro,1992
euroleft,1993
eurolefties,1994
euroleftism,1995
eurolefty,1996
europe,1997
european,1998
europeans,1999
europes,2000
euros,2001
evastating,2002
even,2003
evening,2004
event,2005
events,2006
eventually,2007
ever,2008
every,2009
everybody,2010
everyday,2011
everyone,2012
everything,2013
everywhere,2014
evicted,2015
evicting,2016
evidece,2017
evidence,2018
evidenced,2019
evil,2020
evilize,2021
evils,2022
evo,2023
evolve,2024
evolved,2025
ex,2026
exact,2027
exactly,2028
exaggerated,2029
examine,2030
example,2031
examples,2032
exceeds,2033
excellent,2034
except,2035
exception,2036
exceptions,2037
exchange,2038
exchanged,2039
excited,2040
exciting,2041
excludes,2042
exclusive,2043
exclusively,2044
excrement,2045
excuse,2046
excuses,2047
executed,2048
exempt,2049
exept,2050
exercise,2051
exhausted,2052
exiled,2053
exist,2054
existence,2055
existential,2056
existing,2057
exists,2058
exiting,2059
expalined,2060
expanding,2061
expansion,2062
expansionist,2063
expat,2064
expect,2065
expectation,2066
expected,2067
expects,2068
expel,2069
expense,2070
expensive,2071
experience,2072
experienced,2073
expert,2074
explain,2075
explained,2076
explaining,2077
explains,2078
explanation,2079
explicitly,2080
exploded,2081
explored,2082
explorer,2083
explosively,2084
exports,2085
expose,2086
exposed,2087
exposes,2088
exposing,2089
expounded,2090
expressed,2091
expression,2092
extend,2093
extended,2094
extensively,2095
extent,2096
extermination,2097
external,2098
extinct,2099
extinction,2100
extraction,2101
extradition,2102
extreme,2103
extremely,2104
extremism,2105
extremist,2106
extremists,2107
exxon,2108
eye,2109
eyes,2110
eyewitnesses,2111
fabrication,2112
face,2113
faced,2114
faces,2115
facing,2116
fact,2117
factory,2118
facts,2119
factual,2120
factually,2121
fail,2122
failed,2123
failing,2124
failings,2125
fails,2126
failure,2127
fair,2128
faith,2129
falkenburg,2130
falklands,2131
fall,2132
falling,2133
falls,2134
false,2135
familiar,2136
families,2137
family,2138
fan,2139
fanatic,2140
fanatically,2141
fanatics,2142
fancied,2143
fancy,2144
fantasy,2145
far,2146
farc,2147
farce,2148
farmers,2149
fascinating,2150
fascism,2151
fascist,2152
fascists,2153
fashion,2154
fashioned,2155
fast,2156
fat,2157
father,2158
fault,2159
faults,2160
fauxtography,2161
favour,2162
favourable,2163
favoured,2164
favourite,2165
favours,2166
fear,2167
fearing,2168
fears,2169
feasibility,2170
feature,2171
featured,2172
fec,2173
fed,2174
federal,2175
feeble,2176
feed,2177
feeding,2178
feel,2179
feeling,2180
feelings,2181
feels,2182
fees,2183
feet,2184
feisal,2185
fellow,2186
felt,2187
female,2188
fence,2189
fervently,2190
few,2191
fewer,2192
ffs,2193
fgm,2194
fide,2195
field,2196
fields,2197
fifa,2198
fifties,2199
fight,2200
fighters,2201
fighting,2202
figure,2203
figurers,2204
figures,2205
fil,2206
fill,2207
filled,2208
final,2209
finally,2210
financed,2211
financial,2212
financing,2213
find,2214
finding,2215
findings,2216
finds,2217
fine,2218
fined,2219
finegold,2220
finger,2221
finish,2222
finished,2223
finn,2224
fire,2225
fired,2226
fires,2227
firing,2228
first,2229
fish,2230
fishy,2231
fit,2232
fits,2233
five,2234
fiver,2235
flag,2236
flagrant,2237
flags,2238
flames,2239
flashpoint,2240
flashpoints,2241
flaws,2242
fled,2243
fleeing,2244
fleet,2245
flies,2246
flight,2247
flights,2248
flimsiest,2249
flip,2250
floating,2251
flock,2252
flocked,2253
flopping,2254
flu,2255
flying,2256
fo,2257
focus,2258
focused,2259
fog,2260
folded,2261
folk,2262
follow,2263
followed,2264
following,2265
food,2266
fool,2267
foolish,2268
football,2269
for,2270
forbidden,2271
force,2272
forced,2273
forcefully,2274
forces,2275
forcible,2276
forcing,2277
ford,2278
forecast,2279
foreign,2280
foreigners,2281
forestation,2282
forever,2283
forgein,2284
forget,2285
forgien,2286
forgiven,2287
forgot,2288
form,2289
former,2290
formerusername,2291
forming,2292
forms,2293
forum,2294
forums,2295
forward,2296
fosters,2297
fought,2298
foul,2299
found,2300
foundation,2301
foundations,2302
foxnews,2303
fparsedonedigit,2304
fparsedtwodigits,2305
fragile,2306
frame,2307
franc,2308
france,2309
franjly,2310
frank,2311
frankly,2312
fraud,2313
free,2314
freed,2315
freedly,2316
freedom,2317
freedome,2318
freedumb,2319
freee,2320
freely,2321
freespeech,2322
french,2323
frequency,2324
frequently,2325
frequnetly,2326
fresh,2327
friday,2328
friend,2329
friends,2330
friendship,2331
fripono,2332
fro,2333
frolic,2334
from,2335
fromt,2336
front,2337
frozen,2338
fruitcakes,2339
frustrated,2340
frustration,2341
fueled,2342
fulfill,2343
fulfilling,2344
full,2345
fully,2346
fun,2347
fundamental,2348
funded,2349
fundementalist,2350
funding,2351
funds,2352
funny,2353
further,2354
fuss,2355
futile,2356
futility,2357
future,2358
fuzzy,2359
gagarin,2360
gain,2361
gaining,2362
gains,2363
galant,2364
galloway,2365
gallows,2366
gamble,2367
gambled,2368
game,2369
games,2370
gang,2371
gangs,2372
gangsterism,2373
gannet,2374
gannets,2375
gap,2376
garden,2377
gardens,2378
gas,2379
gasgoine,2380
gathered,2381
gathering,2382
gaurds,2383
gave,2384
gavin,2385
gavinukparsedonedigit,2386
gawd,2387
gay,2388
gays,2389
gaza,2390
gbparsedfivedigits,2391
gbparsedsixdigits,2392
gdp,2393
gen,2394
general,2395
generalised,2396
generalizations,2397
generally,2398
generate,2399
generation,2400
generational,2401
generations,2402
geneva,2403
genicides,2404
genius,2405
genocide,2406
genocides,2407
gentiles,2408
genuine,2409
geographic,2410
geology,2411
geoncide,2412
george,2413
georgia,2414
german,2415
germans,2416
germany,2417
germanys,2418
germmany,2419
get,2420
gets,2421
getting,2422
ghana,2423
ghe,2424
ghetto,2425
gibberish,2426
ginally,2427
girls,2428
give,2429
given,2430
gives,2431
giving,2432
gizelle,2433
glad,2434
gladio,2435
gleaning,2436
glee,2437
glitches,2438
global,2439
globalisation,2440
globe,2441
gloves,2442
glowingtrw,2443
gm,2444
gmt,2445
gnashing,2446
go,2447
goal,2448
goals,2449
god,2450
goerge,2451
goes,2452
goggles,2453
going,2454
golan,2455
goldman,2456
goldwater,2457
golf,2458
gone,2459
gonna,2460
good,2461
goodies,2462
goodness,2463
goodwill,2464
goofy,2465
google,2466
gore,2467
got,2468
gothicdumster,2469
gotten,2470
gov,2471
goverment,2472
govern,2473
governance,2474
governed,2475
government,2476
governments,2477
govt,2478
grab,2479
grabbing,2480
gracefully,2481
graffitti,2482
grand,2483
grandchildren,2484
granht,2485
grant,2486
granting,2487
granty,2488
grasp,2489
graves,2490
great,2491
greater,2492
greatness,2493
greece,2494
greedy,2495
greeks,2496
green,2497
grew,2498
greywolf,2499
grip,2500
groping,2501
ground,2502
groundhog,2503
grounds,2504
group,2505
groups,2506
growing,2507
grown,2508
growth,2509
grrr,2510
grumbles,2511
gt,2512
gtrandfather,2513
guarantee,2514
guaranteed,2515
guard,2516
guardian,2517
guerre,2518
guess,2519
guest,2520
guests,2521
guff,2522
guidance,2523
guilty,2524
guitarist,2525
gulf,2526
gullible,2527
gun,2528
guns,2529
gustav,2530
gutav,2531
guy,2532
guys,2533
gw,2534
ha,2535
haaretz,2536
hacked,2537
had,2538
hadn,2539
hafta,2540
hagar,2541
haifa,2542
hair,2543
hairs,2544
half,2545
hall,2546
ham,2547
hama,2548
hamas,2549
hammas,2550
hammer,2551
hamza,2552
hand,2553
handed,2554
handful,2555
handguns,2556
handicapped,2557
handing,2558
handling,2559
handpick,2560
handpicked,2561
hands,2562
handwringing,2563
handy,2564
handyman,2565
hang,2566
hanged,2567
hanging,2568
hangs,2569
haniyeh,2570
hankooki,2571
happen,2572
happened,2573
happening,2574
happens,2575
happily,2576
happy,2577
haram,2578
hard,2579
harder,2580
hardly,2581
harming,2582
harmonious,2583
haroon,2584
harpercollins,2585
harrassment,2586
harrison,2587
harry,2588
harshly,2589
harvest,2590
has,2591
hase,2592
hasn,2593
hate,2594
hated,2595
hath,2596
hatred,2597
haunting,2598
have,2599
haven,2600
having,2601
havn,2602
hawks,2603
he,2604
head,2605
heading,2606
headline,2607
headlines,2608
headquarters,2609
heads,2610
heal,2611
healing,2612
health,2613
healthcare,2614
healthy,2615
hear,2616
heard,2617
hearing,2618
hearings,2619
hears,2620
heart,2621
heartfelt,2622
heartland,2623
heat,2624
heaven,2625
heavens,2626
heavier,2627
heavy,2628
hebrew,2629
heck,2630
heh,2631
heir,2632
held,2633
helen,2634
helicopters,2635
hell,2636
hello,2637
help,2638
helpers,2639
helping,2640
hem,2641
hempel,2642
hence,2643
her,2644
here,2645
heres,2646
heritage,2647
hero,2648
heroes,2649
heroin,2650
herself,2651
hey,2652
hezbollah,2653
hi,2654
hidden,2655
hide,2656
hiding,2657
high,2658
higher,2659
highest,2660
highlighted,2661
highly,2662
hijacking,2663
hiking,2664
hilarious,2665
hill,2666
hillarious,2667
hillary,2668
him,2669
himself,2670
hindu,2671
hindus,2672
hint,2673
hip,2674
his,2675
hispanic,2676
historain,2677
historian,2678
historic,2679
historical,2680
historically,2681
history,2682
hit,2683
hitler,2684
hitlers,2685
hits,2686
hizbollah,2687
hmd,2688
hmm,2689
hmmm,2690
hodgepodge,2691
hogan,2692
hold,2693
holders,2694
holding,2695
holdings,2696
hole,2697
holes,2698
holiday,2699
holland,2700
holocaust,2701
holy,2702
hom,2703
home,2704
homeland,2705
homeless,2706
homes,2707
homework,2708
homosexuals,2709
honest,2710
honestly,2711
honestreporting,2712
hong,2713
honor,2714
honour,2715
hoo,2716
hook,2717
hooliganism,2718
hope,2719
hopefully,2720
hopeless,2721
hopelessly,2722
hoping,2723
horrendous,2724
horror,2725
horrors,2726
horse,2727
hos,2728
hospital,2729
hospitals,2730
host,2731
hostage,2732
hostilities,2733
hostility,2734
hosting,2735
hot,2736
hothousemat,2737
hotmousemat,2738
hounded,2739
hounding,2740
hour,2741
hours,2742
house,2743
houses,2744
housing,2745
how,2746
howard,2747
however,2748
howstuffwork,2749
hp,2750
huge,2751
hugely,2752
hugo,2753
huguenots,2754
huh,2755
huindreds,2756
hull,2757
human,2758
humanists,2759
humanitarian,2760
humanity,2761
humankind,2762
humans,2763
humberside,2764
humiliating,2765
humour,2766
humvees,2767
hundred,2768
hundreds,2769
hundredth,2770
hung,2771
hungarian,2772
hunger,2773
hurricane,2774
hurts,2775
husband,2776
hussain,2777
hussein,2778
hybrids,2779
hype,2780
hyperbolic,2781
hyphenated,2782
hypocricy,2783
hypocrisy,2784
hypocrites,2785
hypocritical,2786
hypocritically,2787
hypothetical,2788
hys,2789
hysteric,2790
hülsmeyer,2791
i_pardon_u,2792
ia,2793
ian,2794
ianpeter,2795
ias,2796
ic,2797
ice,2798
id,2799
idea,2800
ideals,2801
ideas,2802
identification,2803
identify,2804
identikit,2805
identity,2806
ideology,2807
idf,2808
idiology,2809
idiosyncracies,2810
idiotic,2811
idiots,2812
idol,2813
ie,2814
if,2815
ignorance,2816
ignorant,2817
ignore,2818
ignored,2819
ignores,2820
ignoring,2821
iht,2822
ii,2823
iii,2824
il,2825
ilk,2826
ill,2827
illegal,2828
illegitimate,2829
illiberal,2830
ills,2831
illuminating,2832
illustrate,2833
illustrates,2834
illustrative,2835
im,2836
image,2837
images,2838
imaginations,2839
imagine,2840
imams,2841
imemc,2842
immature,2843
immediate,2844
immediately,2845
immemorial,2846
immerse,2847
immigrant,2848
immigrants,2849
immigration,2850
imminence,2851
imminent,2852
immunity,2853
imo,2854
imoeachment,2855
impeachment,2856
imperative,2857
imperial,2858
imperialist,2859
implanted,2860
implausible,2861
implement,2862
implementaion,2863
implemented,2864
implicate,2865
implies,2866
implying,2867
importance,2868
important,2869
imports,2870
impose,2871
imposed,2872
imposing,2873
impotent,2874
impress,2875
impressed,2876
impression,2877
impressive,2878
imprisoned,2879
improper,2880
improved,2881
imran,2882
imrove,2883
imunity,2884
in,2885
inadequacy,2886
inadequate,2887
inappropriate,2888
inaugural,2889
incapacitated,2890
inceindary,2891
incessant,2892
inches,2893
incident,2894
incidental,2895
incidentally,2896
incidents,2897
incitement,2898
inciting,2899
included,2900
includes,2901
including,2902
inclusive,2903
inclusivity,2904
income,2905
incomes,2906
incompetence,2907
incompetent,2908
incomprehendible,2909
inconsistency,2910
inconvenient,2911
incorporated,2912
incorporation,2913
increase,2914
increased,2915
increasing,2916
increasingly,2917
incredibly,2918
incumbent,2919
incurred,2920
incurring,2921
incursion,2922
indeed,2923
independance,2924
independence,2925
independent,2926
india,2927
indian,2928
indians,2929
indicate,2930
indicated,2931
indicates,2932
indicating,2933
indifference,2934
indigenous,2935
indirect,2936
indirectly,2937
individual,2938
individualism,2939
individually,2940
individuals,2941
indo,2942
indoctrinated,2943
indonesia,2944
indonesians,2945
induced,2946
indulge,2947
industrial,2948
industries,2949
industry,2950
inentilaly,2951
inevitably,2952
inextricably,2953
infact,2954
infamous,2955
inferior,2956
inferred,2957
inferring,2958
infidels,2959
infiltrators,2960
infinitum,2961
inflation,2962
inflict,2963
influence,2964
influenced,2965
influences,2966
info,2967
inform,2968
information,2969
informative,2970
infringes,2971
ing,2972
inhabit,2973
inhabitants,2974
inherrent,2975
initial,2976
initially,2977
injured,2978
injury,2979
inner,2980
innocent,2981
innocents,2982
ins,2983
insanity,2984
inside,2985
insidious,2986
insight,2987
insightful,2988
insignificant,2989
insinuate,2990
insist,2991
insistence,2992
inspect,2993
inspecters,2994
inspections,2995
inspired,2996
inspires,2997
inspiring,2998
instability,2999
installations,3000
installed,3001
instance,3002
instances,3003
instead,3004
institute,3005
instituted,3006
institutional,3007
institutions,3008
instructions,3009
insultan,3010
insulting,3011
insults,3012
insurance,3013
insurgency,3014
insurgent,3015
insurgents,3016
insurrection,3017
integrating,3018
intel,3019
intellectual,3020
intellectually,3021
intellegence,3022
intelligence,3023
intelligent,3024
intend,3025
intended,3026
intensity,3027
intent,3028
intention,3029
inter,3030
interacted,3031
interaction,3032
interest,3033
interested,3034
interesting,3035
interests,3036
intermixed,3037
internal,3038
international,3039
internet,3040
internment,3041
interpal,3042
interpretation,3043
intervention,3044
interview,3045
interviewer,3046
interviews,3047
intially,3048
intifada,3049
intifadah,3050
intimate,3051
intimidation,3052
into,3053
intolerant,3054
inton,3055
intoxicating,3056
intresting,3057
intrigue,3058
intrinsic,3059
invade,3060
invaded,3061
invaders,3062
invading,3063
invasion,3064
invasions,3065
invectives,3066
invented,3067
inventing,3068
inventors,3069
invertebrate,3070
investigate,3071
investigated,3072
investigating,3073
investigation,3074
investment,3075
inveterate,3076
invitation,3077
invite,3078
invloved,3079
involved,3080
involvement,3081
involving,3082
ioc,3083
iran,3084
iranian,3085
iranians,3086
irans,3087
iraq,3088
iraqi,3089
iraqis,3090
ireland,3091
iris,3092
irish,3093
iron,3094
ironically,3095
irony,3096
irrelevant,3097
irritating,3098
is,3099
isa,3100
isareli,3101
ish,3102
ishmail,3103
islam,3104
islamaphobe,3105
islamic,3106
islamiphobe,3107
islamist,3108
islamists,3109
islamofacists,3110
islamofascism,3111
islamofascists,3112
island,3113
ismail,3114
isn,3115
isnt,3116
isolationist,3117
israel,3118
israeli,3119
israelians,3120
israelis,3121
israelnationalne,3122
israelnn,3123
israels,3124
isreal,3125
isreali,3126
issue,3127
issued,3128
issues,3129
it,3130
italian,3131
italians,3132
italy,3133
its,3134
itself,3135
itstoppedraining,3136
ive,3137
jacka,3138
jacked,3139
jail,3140
jailed,3141
jalabad,3142
james,3143
jamo,3144
jan,3145
january,3146
japan,3147
japanese,3148
jasb,3149
jazeera,3150
jd,3151
jeb,3152
jerk,3153
jerusalem,3154
jessica,3155
jesus,3156
jew,3157
jewish,3158
jews,3159
jewsih,3160
jihad,3161
jihadist,3162
jingly,3163
jj,3164
jla,3165
joan,3166
job,3167
jobless,3168
jobs,3169
jobsworth,3170
joe,3171
john,3172
johnny,3173
join,3174
joined,3175
joining,3176
joinining,3177
joint,3178
joke,3179
joking,3180
jong,3181
jordan,3182
jordanian,3183
jorge,3184
journal,3185
journalist,3186
journalists,3187
jowell,3188
joys,3189
jqack,3190
judaism,3191
judge,3192
judgement,3193
judicial,3194
juicy,3195
jump,3196
junior,3197
junk,3198
junta,3199
jury,3200
just,3201
justice,3202
justifiably,3203
justified,3204
justify,3205
justness,3206
karbala,3207
karbul,3208
karl,3209
kashmir,3210
kasparov,3211
kassam,3212
kassams,3213
kazahkstan,3214
kazakhstan,3215
keen,3216
keep,3217
keeping,3218
keeps,3219
kept,3220
kevin,3221
kgb,3222
khalilzad,3223
khan,3224
kick,3225
kicked,3226
kid,3227
kidding,3228
kidnapped,3229
kidnappings,3230
kids,3231
kiling,3232
kill,3233
killed,3234
killing,3235
killings,3236
kills,3237
kim,3238
kind,3239
kinda,3240
kindly,3241
kinds,3242
kinky,3243
kitchen,3244
kj,3245
kl,3246
knee,3247
knesset,3248
knew,3249
knickers,3250
knicknamed,3251
knife,3252
know,3253
knowledge,3254
known,3255
knows,3256
knucklescrapers,3257
knwo,3258
kong,3259
koran,3260
koranist,3261
korea,3262
korean,3263
koreans,3264
kosovo,3265
kreschev,3266
kristol,3267
kudos,3268
kurdish,3269
kuwaeit,3270
kuwait,3271
kuweit,3272
label,3273
labelling,3274
labor,3275
laboratory,3276
labour,3277
lacewing,3278
lack,3279
lad,3280
ladder,3281
laden,3282
lads,3283
lady,3284
lager,3285
lame,3286
lancaster,3287
lancs,3288
land,3289
landowners,3290
lands,3291
landscape,3292
language,3293
lankans,3294
lantau,3295
lap,3296
larceny,3297
large,3298
largely,3299
larger,3300
largest,3301
larnaca,3302
lasers,3303
last,3304
late,3305
later,3306
latest,3307
latimes,3308
latin,3309
latte,3310
laugh,3311
laughable,3312
laughed,3313
launched,3314
launches,3315
launching,3316
lauren,3317
laurie,3318
law,3319
laws,3320
lawyer,3321
lawyers,3322
lay,3323
lazily,3324
lbyia,3325
le,3326
lead,3327
leader,3328
leaders,3329
leadership,3330
leading,3331
leads,3332
learn,3333
learned,3334
learning,3335
learnt,3336
least,3337
leave,3338
leaving,3339
lebanese,3340
lebanon,3341
lecture,3342
led,3343
leers,3344
left,3345
leftie,3346
lefties,3347
leftist,3348
lefty,3349
legacy,3350
legal,3351
legendary,3352
legislation,3353
legitimacising,3354
legitimate,3355
legitimately,3356
legs,3357
leicester,3358
lenders,3359
leniency,3360
lennon,3361
lenovo,3362
less,3363
lesson,3364
lessons,3365
lest,3366
let,3367
lets,3368
letter,3369
letters,3370
letting,3371
level,3372
levelled,3373
levels,3374
levied,3375
lgf,3376
liable,3377
liar,3378
liars,3379
lib,3380
liberal,3381
liberals,3382
liberate,3383
liberation,3384
liberman,3385
library,3386
licenses,3387
licking,3388
lid,3389
lie,3390
lied,3391
liek,3392
lies,3393
life,3394
lifestyle,3395
light,3396
lighten,3397
lightening,3398
like,3399
liked,3400
likely,3401
likes,3402
likud,3403
lily,3404
limbo,3405
limit,3406
limitations,3407
limits,3408
lincoln,3409
lincolnshire,3410
line,3411
lines,3412
lining,3413
link,3414
linked,3415
links,3416
list,3417
listen,3418
listening,3419
litany,3420
lithe,3421
little,3422
littlegreenfootballs,3423
live,3424
lived,3425
lives,3426
living,3427
ll,3428
lmao,3429
load,3430
loaded,3431
loads,3432
loans,3433
loathed,3434
local,3435
location,3436
lock,3437
locked,3438
locking,3439
logic,3440
logical,3441
lol,3442
lombards,3443
london,3444
londonium,3445
lone,3446
loner,3447
long,3448
longer,3449
longtime,3450
lonney,3451
look,3452
looked,3453
looking,3454
looks,3455
looney,3456
loonies,3457
looooong,3458
loosened,3459
loosers,3460
looted,3461
looting,3462
lord,3463
los,3464
lose,3465
loser,3466
loses,3467
losing,3468
loss,3469
losses,3470
lost,3471
lot,3472
lots,3473
lousy,3474
love,3475
loved,3476
lovely,3477
loves,3478
loving,3479
low,3480
lower,3481
lowered,3482
lowering,3483
lowest,3484
loyalty,3485
lt,3486
lucilla,3487
luck,3488
lucky,3489
lucrative,3490
lugage,3491
lump,3492
lunatics,3493
lush,3494
lust,3495
lusts,3496
lutheran,3497
lwa,3498
lying,3499
lynch,3500
macademia,3501
macbeth,3502
macedonia,3503
machine,3504
machinery,3505
macmillan,3506
mad,3507
made,3508
madeleine,3509
madonna,3510
magazine,3511
magnitude,3512
mahler,3513
mail,3514
main,3515
mainland,3516
mainly,3517
mainstream,3518
maintaining,3519
maj,3520
major,3521
majority,3522
make,3523
makes,3524
making,3525
malaysia,3526
malchrome,3527
male,3528
males,3529
malfunction,3530
malls,3531
malt,3532
man,3533
manafacture,3534
manage,3535
managed,3536
management,3537
manages,3538
manchester,3539
mandate,3540
mandated,3541
mandatory,3542
mandela,3543
manic,3544
manicured,3545
mankind,3546
manner,3547
mans,3548
manual,3549
manufacturers,3550
many,3551
mao,3552
map,3553
mapp,3554
mar,3555
march,3556
marching,3557
marine,3558
mark,3559
market,3560
markets,3561
marley,3562
marquis,3563
marraiges,3564
marrakesh,3565
marriage,3566
married,3567
mars,3568
marshels,3569
martian,3570
martyr,3571
martyrdom,3572
marx,3573
marxist,3574
mary,3575
mash,3576
mass,3577
massacre,3578
massacred,3579
massacres,3580
massaged,3581
massing,3582
massive,3583
mastered,3584
match,3585
matches,3586
mate,3587
material,3588
matter,3589
matters,3590
mature,3591
maturity,3592
max,3593
maximum,3594
may,3595
maybe,3596
mayhem,3597
mb,3598
mc,3599
mcb,3600
mcbean,3601
mcdonald,3602
mcneil,3603
me,3604
mean,3605
meaning,3606
meaningful,3607
meanings,3608
means,3609
meant,3610
meanwhile,3611
measues,3612
measure,3613
mechanism,3614
media,3615
medias,3616
medical,3617
medicine,3618
medics,3619
medievil,3620
meet,3621
meeting,3622
meetings,3623
melanie,3624
melon,3625
member,3626
members,3627
memo,3628
memorial,3629
memorials,3630
memory,3631
men,3632
menhuin,3633
mens,3634
mensa,3635
mental,3636
mentally,3637
mention,3638
mentioned,3639
mentions,3640
mentors,3641
mercies,3642
merciful,3643
mere,3644
merely,3645
merest,3646
merge,3647
merit,3648
merits,3649
merkel,3650
mess,3651
message,3652
messiah,3653
met,3654
metallic,3655
methods,3656
mexico,3657
meyer,3658
michael,3659
micheal,3660
mickey,3661
micro,3662
microsoft,3663
mid,3664
middle,3665
might,3666
miimalising,3667
miles,3668
militant,3669
militants,3670
militarily,3671
militarised,3672
military,3673
militias,3674
millenia,3675
miller,3676
million,3677
millionaire,3678
millionairesse,3679
millions,3680
milosvic,3681
mind,3682
minded,3683
minds,3684
mine,3685
minefield,3686
miners,3687
mines,3688
minimal,3689
minimalised,3690
minister,3691
minor,3692
minority,3693
minute,3694
minutes,3695
mis,3696
miscarriage,3697
misconception,3698
misfits,3699
mish,3700
misinterpreted,3701
misinterprit,3702
misled,3703
misogyny,3704
misplaced,3705
misread,3706
misrepresent,3707
misrepresentation,3708
miss,3709
missed,3710
missile,3711
missiles,3712
missing,3713
missions,3714
missippi,3715
missus,3716
mist,3717
mistake,3718
mistress,3719
mistressofmydomain,3720
mistressofmydomains,3721
mists,3722
misunderstanding,3723
mitt,3724
mix,3725
mixed,3726
mixing,3727
mixture,3728
mm,3729
mmmmmm,3730
mn,3731
mne,3732
mobile,3733
mock,3734
mod,3735
modderated,3736
model,3737
moderated,3738
moderator,3739
modern,3740
modesty,3741
mods,3742
mohammad,3743
mohammed,3744
moist,3745
mom,3746
moment,3747
moments,3748
momment,3749
mommy,3750
mon,3751
monday,3752
mondial,3753
money,3754
mongering,3755
mongolia,3756
monkeys,3757
monologue,3758
monopulse,3759
monotonous,3760
monster,3761
month,3762
monthly,3763
months,3764
mood,3765
moods,3766
moon,3767
moore,3768
moot,3769
moral,3770
morale,3771
morales,3772
morass,3773
more,3774
morning,3775
morocco,3776
moronic,3777
morris,3778
mortgage,3779
moselms,3780
moses,3781
moshe,3782
moslems,3783
mosque,3784
mosques,3785
mossadeq,3786
most,3787
mostly,3788
mother,3789
mothers,3790
motivation,3791
motives,3792
mounted,3793
mouse,3794
moussaoui,3795
mouth,3796
mouths,3797
move,3798
moved,3799
movement,3800
movements,3801
moving,3802
mow,3803
mparsedfourdigits,3804
mparsedonedigitlparseddigitsjparsedonedigit,3805
mps,3806
mr,3807
mrjingles,3808
mrs,3809
ms,3810
msg,3811
msn,3812
msnbc,3813
mubashar,3814
much,3815
mud,3816
muddying,3817
mufti,3818
mugabe,3819
muhammad,3820
mullahs,3821
multi,3822
multiculrism,3823
mum,3824
mump,3825
murder,3826
murdered,3827
murderer,3828
murdering,3829
murderous,3830
murders,3831
museum,3832
museums,3833
mushy,3834
music,3835
muslim,3836
muslims,3837
musso,3838
must,3839
mutterings,3840
mutual,3841
mutually,3842
mutuals,3843
muzlins,3844
mwaaaaaaaahahahahahahahaaaaaaaaa,3845
my,3846
mylroie,3847
myself,3848
mystery,3849
myth,3850
nafta,3851
nafthe,3852
nahhh,3853
naighbor,3854
nail,3855
nails,3856
naive,3857
naiveté,3858
name,3859
named,3860
names,3861
napalm,3862
narrative,3863
narrow,3864
nasty,3865
nation,3866
national,3867
nationalists,3868
nationalities,3869
nationality,3870
nations,3871
nationstate,3872
native,3873
nato,3874
natural,3875
naturally,3876
nature,3877
nauseam,3878
navy,3879
naz,3880
nazi,3881
nazis,3882
nazism,3883
nbc,3884
nd,3885
ne,3886
near,3887
nearly,3888
nec,3889
necessarily,3890
neck,3891
need,3892
needed,3893
needn,3894
needs,3895
negate,3896
neglect,3897
neglected,3898
negotiate,3899
negotiating,3900
negotiation,3901
negotiations,3902
neighbors,3903
neighbours,3904
neil,3905
neither,3906
nelson,3907
neo,3908
neocons,3909
nerve,3910
netanyahu,3911
netherlanders,3912
network,3913
never,3914
new,3915
newborn,3916
newest,3917
newly,3918
newnight,3919
news,3920
newspaper,3921
newsparsedonedigit,3922
newsparsedtwodigits,3923
newsworthy,3924
next,3925
nice,3926
nieve,3927
nigeria,3928
nigeriam,3929
night,3930
nighthook,3931
nightmare,3932
nights,3933
nighttime,3934
nijmeijert,3935
nikki,3936
nine,3937
nip,3938
nit,3939
nixon,3940
nk,3941
no,3942
nobel,3943
noble,3944
nobody,3945
nobs,3946
nom,3947
nominal,3948
nomination,3949
non,3950
none,3951
nonsense,3952
nonsensical,3953
nonsnense,3954
nook,3955
noone,3956
nope,3957
nor,3958
norm,3959
normal,3960
normans,3961
norms,3962
norse,3963
north,3964
northern,3965
norwich,3966
nose,3967
not,3968
note,3969
noted,3970
notes,3971
nothing,3972
notice,3973
noticed,3974
noticing,3975
notion,3976
notions,3977
novel,3978
november,3979
now,3980
nowhere,3981
nowt,3982
noxious,3983
nr,3984
nsw,3985
nuclear,3986
nukes,3987
numbed,3988
number,3989
numbers,3990
numpty,3991
nut,3992
nutcase,3993
nutcases,3994
nutters,3995
nuttin,3996
nutty,3997
nytimes,3998
oaths,3999
ob,4000
obama,4001
obesity,4002
object,4003
objections,4004
objective,4005
objectives,4006
objects,4007
obligated,4008
obligation,4009
obligations,4010
oblige,4011
obliged,4012
obliterated,4013
oblivion,4014
observant,4015
observation,4016
observations,4017
obsessed,4018
obvioulsy,4019
obvious,4020
obviously,4021
oc,4022
occasion,4023
occasions,4024
occulted,4025
occupation,4026
occupations,4027
occupied,4028
occupiers,4029
occupy,4030
occupying,4031
occur,4032
occured,4033
occurs,4034
ocean,4035
october,4036
odd,4037
odious,4038
oecd,4039
of,4040
off,4041
offence,4042
offended,4043
offensive,4044
offer,4045
offered,4046
offering,4047
office,4048
officers,4049
offices,4050
official,4051
officials,4052
often,4053
oh,4054
ohj,4055
oil,4056
ok,4057
okay,4058
oklahoma,4059
old,4060
oldest,4061
olds,4062
ole,4063
olive,4064
olmert,4065
olympic,4066
olympics,4067
omri,4068
on,4069
once,4070
one,4071
ones,4072
ongoing,4073
only,4074
onto,4075
oona,4076
oozes,4077
opec,4078
open,4079
opened,4080
opening,4081
openly,4082
opens,4083
opera,4084
operation,4085
operations,4086
opinion,4087
opinions,4088
opponent,4089
opponents,4090
opportune,4091
opportunist,4092
opportunities,4093
opportunity,4094
opposed,4095
opposing,4096
opposite,4097
opposition,4098
oppressed,4099
oppressive,4100
opressed,4101
option,4102
optional,4103
opwn,4104
or,4105
oranges,4106
orbit,4107
orchards,4108
order,4109
ordered,4110
orders,4111
ordinance,4112
ordinary,4113
org,4114
organisation,4115
organisations,4116
organise,4117
organised,4118
organism,4119
organistion,4120
organization,4121
organizations,4122
organize,4123
orginal,4124
orif,4125
origianlly,4126
original,4127
originally,4128
originated,4129
originator,4130
orthodox,4131
orwell,4132
ostensibly,4133
other,4134
others,4135
otherwise,4136
othwerwise,4137
ottomans,4138
ouch,4139
ought,4140
our,4141
ours,4142
ourself,4143
ourselves,4144
out,4145
outbursts,4146
outer,4147
outlasting,4148
outlawing,4149
outlet,4150
outline,4151
outlined,4152
outnumbered,4153
outraged,4154
outrageous,4155
outs,4156
outside,4157
outsiders,4158
outspoken,4159
outstrip,4160
ovbious,4161
over,4162
overriding,4163
overs,4164
overseas,4165
overthrow,4166
overwhelming,4167
overwhelmingly,4168
ow,4169
owe,4170
own,4171
owned,4172
owner,4173
owners,4174
ownership,4175
oz,4176
ozy,4177
pack,4178
package,4179
packet,4180
page,4181
paid,4182
pain,4183
pains,4184
paint,4185
painting,4186
pakistan,4187
pakistani,4188
pale,4189
pales,4190
palestian,4191
palestians,4192
palestina,4193
palestinans,4194
palestine,4195
palestinian,4196
palestinians,4197
palin,4198
palis,4199
palistinians,4200
pallywood,4201
pals,4202
pan,4203
panna,4204
panned,4205
panorama,4206
paparazzi,4207
paper,4208
paradise,4209
paradises,4210
paragraphs,4211
paranoia,4212
parcel,4213
parent,4214
parenting,4215
parents,4216
paris,4217
park,4218
parker,4219
parliament,4220
parliment,4221
parseddigits,4222
parseddigitsbn,4223
parseddigitsth,4224
parsedfourdigits,4225
parsedfourdigitss,4226
parsedfourdigitsth,4227
parsedonedigit,4228
parsedonedigitbn,4229
parsedonedigitk,4230
parsedonedigitm,4231
parsedonedigitrd,4232
parsedonedigitth,4233
parsedsixdigits,4234
parsedthreedigits,4235
parsedthreedigitsk,4236
parsedthreedigitsm,4237
parsedtime,4238
parsedtwodigits,4239
parsedtwodigitsbn,4240
parsedtwodigitsk,4241
parsedtwodigitss,4242
parsedtwodigitsst,4243
parsedtwodigitsth,4244
part,4245
participate,4246
participated,4247
particular,4248
particularly,4249
parties,4250
partisan,4251
partition,4252
partly,4253
partnerships,4254
parts,4255
party,4256
pasha,4257
pass,4258
passed,4259
passengers,4260
passing,4261
passion,4262
passively,4263
passport,4264
past,4265
paste,4266
pastures,4267
pat,4268
patent,4269
path,4270
pathetic,4271
patronising,4272
pattern,4273
paul,4274
pax,4275
pay,4276
paying,4277
payment,4278
pc,4279
pea,4280
peace,4281
peaceful,4282
peacefully,4283
peaks,4284
peanuts,4285
pearls,4286
pears,4287
peasants,4288
pecans,4289
pedantic,4290
peer,4291
peking,4292
pen,4293
penal,4294
penalty,4295
penchant,4296
penetrate,4297
peninsula,4298
penny,4299
pension,4300
pensions,4301
pentagon,4302
people,4303
peoples,4304
per,4305
percent,4306
percentages,4307
perception,4308
perceptions,4309
perchance,4310
peres,4311
perfect,4312
perfectly,4313
perform,4314
performed,4315
performing,4316
perhaps,4317
period,4318
perish,4319
perishing,4320
perle,4321
permanent,4322
permission,4323
permit,4324
permitted,4325
perpetuating,4326
persecuted,4327
persecution,4328
person,4329
personal,4330
personalities,4331
personally,4332
personnel,4333
persons,4334
perspective,4335
perverse,4336
pet,4337
pete,4338
peters,4339
petition,4340
petra,4341
petty,4342
peu,4343
phenomenon,4344
phil,4345
philippines,4346
phillips,4347
philosopher,4348
philosophy,4349
phone,4350
phoneacians,4351
phoned,4352
phophorous,4353
photographer,4354
photographs,4355
photos,4356
phrase,4357
phrophet,4358
physically,4359
picayunities,4360
pick,4361
picking,4362
picture,4363
piece,4364
pig,4365
pigeonhole,4366
pillock,4367
pilot,4368
pilots,4369
piltdown,4370
pinko,4371
pinochet,4372
pipe,4373
pistol,4374
pit,4375
pity,4376
placard,4377
place,4378
places,4379
placing,4380
plain,4381
plaintive,4382
plan,4383
planes,4384
planet,4385
planned,4386
planning,4387
plans,4388
plant,4389
plants,4390
plaster,4391
play,4392
played,4393
player,4394
players,4395
playing,4396
plays,4397
pleaded,4398
plear,4399
pleasant,4400
please,4401
pleasure,4402
plenty,4403
ploughed,4404
ploy,4405
plus,4406
pm,4407
poem,4408
poindexter,4409
point,4410
pointed,4411
pointing,4412
pointless,4413
points,4414
poison,4415
poisonous,4416
poisons,4417
poland,4418
pole,4419
police,4420
policeman,4421
policies,4422
policy,4423
politcal,4424
political,4425
politically,4426
politicians,4427
politicos,4428
politics,4429
poll,4430
polluters,4431
pollution,4432
poochies,4433
pool,4434
pools,4435
poor,4436
poorly,4437
pop,4438
pope,4439
popping,4440
popular,4441
popularity,4442
populated,4443
population,4444
populations,4445
populist,4446
pork,4447
portray,4448
ports,4449
portugese,4450
posative,4451
posed,4452
position,4453
positions,4454
positive,4455
possession,4456
possibilities,4457
possibility,4458
possible,4459
possibly,4460
post,4461
posted,4462
poster,4463
posters,4464
posting,4465
postings,4466
posts,4467
posturing,4468
pot,4469
potemtial,4470
potential,4471
pound,4472
poverty,4473
power,4474
powerbase,4475
powered,4476
powerful,4477
powerfull,4478
powers,4479
ppa,4480
pr,4481
practical,4482
practice,4483
practiced,4484
practices,4485
pragmatic,4486
praised,4487
prank,4488
pray,4489
praying,4490
pre,4491
preach,4492
preaching,4493
precipitate,4494
precisely,4495
precision,4496
precludes,4497
predatory,4498
predicted,4499
prediction,4500
predictions,4501
prefer,4502
prefered,4503
prejudice,4504
prejudices,4505
premeditating,4506
premium,4507
prepare,4508
prepared,4509
prepartions,4510
preperation,4511
prerequisite,4512
presbyterians,4513
presence,4514
present,4515
presented,4516
president,4517
presnted,4518
press,4519
presso,4520
pressure,4521
pressurise,4522
prestwick,4523
presumably,4524
presume,4525
presure,4526
pretend,4527
pretending,4528
pretty,4529
preudo,4530
prevent,4531
preventing,4532
previous,4533
previously,4534
prey,4535
price,4536
prices,4537
pride,4538
prides,4539
primary,4540
prime,4541
primitive,4542
principle,4543
print,4544
printed,4545
printing,4546
prior,4547
prisions,4548
prison,4549
prisoners,4550
prisons,4551
private,4552
prize,4553
prized,4554
pro,4555
proactive,4556
probability,4557
probably,4558
problem,4559
problematic,4560
problems,4561
process,4562
proclaiming,4563
prodding,4564
produce,4565
produced,4566
produces,4567
production,4568
products,4569
profess,4570
professional,4571
professors,4572
profitibility,4573
profits,4574
profound,4575
profusely,4576
program,4577
programme,4578
programs,4579
progress,4580
progressiove,4581
progressive,4582
project,4583
projecting,4584
projects,4585
promised,4586
promote,4587
promoting,4588
promotion,4589
prompted,4590
promptly,4591
prone,4592
proof,4593
propably,4594
propaganda,4595
propagandist,4596
properly,4597
properties,4598
property,4599
prophecy,4600
propoganada,4601
propoganda,4602
proposal,4603
proscribed,4604
prosecuted,4605
prosperous,4606
protect,4607
protecting,4608
protection,4609
protector,4610
protects,4611
protest,4612
protestants,4613
protesters,4614
protestors,4615
protests,4616
proud,4617
prove,4618
proved,4619
proverb,4620
proves,4621
provide,4622
province,4623
provinces,4624
provocation,4625
provoke,4626
provoking,4627
pruduction,4628
ps,4629
psychology,4630
public,4631
publicity,4632
publicly,4633
published,4634
publisher,4635
publishing,4636
puddin,4637
puffing,4638
pull,4639
pulled,4640
pumping,4641
punished,4642
punishment,4643
pupil,4644
puppet,4645
purchase,4646
purchased,4647
purchasing,4648
pure,4649
purile,4650
purpose,4651
purposes,4652
pursuing,4653
push,4654
pushed,4655
pushing,4656
put,4657
putin,4658
puts,4659
putting,4660
puy,4661
puydedome,4662
pyongyang,4663
pyramid,4664
qaeda,4665
qassam,4666
quada,4667
quake,4668
qualification,4669
qualifications,4670
qualitavely,4671
quality,4672
quantify,4673
quarter,4674
quattro,4675
quayle,4676
qubal,4677
que,4678
quebec,4679
queda,4680
quell,4681
quelling,4682
quels,4683
question,4684
questioned,4685
questioning,4686
questions,4687
quick,4688
quickly,4689
quid,4690
quiet,4691
quips,4692
quit,4693
quite,4694
quitely,4695
quote,4696
quotes,4697
quoting,4698
rabbi,4699
rabble,4700
rabid,4701
rabin,4702
race,4703
racial,4704
racism,4705
racist,4706
radar,4707
radars,4708
radical,4709
radicalized,4710
radicals,4711
radio,4712
radioactive,4713
rafah,4714
rag,4715
rage,4716
raid,4717
rail,4718
rained,4719
raise,4720
raised,4721
raising,4722
rallied,4723
rally,4724
ran,4725
rancorous,4726
ranging,4727
rankings,4728
ranks,4729
ransomes,4730
rant,4731
ranting,4732
rape,4733
rapidly,4734
raping,4735
rashid,4736
rat,4737
rates,4738
rather,4739
ratify,4740
rational,4741
rattling,4742
ravi,4743
re,4744
reach,4745
reached,4746
reaching,4747
react,4748
reacted,4749
reaction,4750
reactions,4751
reactor,4752
read,4753
readers,4754
readiness,4755
reading,4756
readliy,4757
ready,4758
real,4759
realise,4760
realised,4761
realistic,4762
reality,4763
really,4764
ream,4765
reaping,4766
reason,4767
reasonable,4768
reasoning,4769
reasons,4770
rebates,4771
rebuild,4772
recall,4773
recalls,4774
receive,4775
received,4776
receives,4777
recent,4778
recently,4779
recieved,4780
recieves,4781
recipient,4782
reciprocating,4783
reckless,4784
recognise,4785
recognised,4786
recognising,4787
recognition,4788
recognizeable,4789
recollect,4790
record,4791
records,4792
recourse,4793
recovering,4794
recruit,4795
red,4796
redesignating,4797
redirected,4798
reduced,4799
redundant,4800
refer,4801
reference,4802
referenced,4803
references,4804
refering,4805
referring,4806
refers,4807
refinement,4808
reflected,4809
refugees,4810
refugess,4811
refuse,4812
refused,4813
refuses,4814
refusing,4815
refuted,4816
regard,4817
regarded,4818
regarding,4819
regards,4820
regime,4821
regimes,4822
region,4823
regional,4824
regions,4825
regret,4826
regretting,4827
regular,4828
regularly,4829
regulations,4830
reich,4831
reichspatent,4832
reign,4833
reins,4834
rekindle,4835
related,4836
relating,4837
relation,4838
relations,4839
relationship,4840
relationships,4841
relative,4842
relatives,4843
relativists,4844
relaunch,4845
release,4846
released,4847
relentless,4848
reliability,4849
reliable,4850
reliant,4851
relief,4852
religion,4853
religions,4854
religious,4855
religon,4856
rely,4857
remain,4858
remaining,4859
remains,4860
remark,4861
remarkable,4862
remarks,4863
remember,4864
remembers,4865
reminded,4866
reminds,4867
removal,4868
remove,4869
removed,4870
removing,4871
rented,4872
repeat,4873
repeated,4874
repeatedly,4875
repeating,4876
repeats,4877
rephrase,4878
replaced,4879
replies,4880
reply,4881
replying,4882
report,4883
reported,4884
reporters,4885
reports,4886
represent,4887
representative,4888
represents,4889
repression,4890
repressive,4891
reps,4892
republican,4893
republicans,4894
reputable,4895
reputation,4896
request,4897
require,4898
required,4899
requirement,4900
requires,4901
resarch,4902
research,4903
researching,4904
resent,4905
reserve,4906
reservoir,4907
resident,4908
residents,4909
resign,4910
resist,4911
resistance,4912
resolution,4913
resolutions,4914
resolved,4915
resort,4916
resource,4917
resourceful,4918
resources,4919
respect,4920
respectable,4921
respected,4922
respectfully,4923
respecting,4924
responce,4925
respond,4926
responded,4927
respondents,4928
responding,4929
responsability,4930
response,4931
responses,4932
responsibility,4933
responsible,4934
responsiblity,4935
rest,4936
restance,4937
restarted,4938
restaurants,4939
resting,4940
restock,4941
restrained,4942
restrict,4943
restricted,4944
restrictions,4945
result,4946
resulted,4947
retail,4948
retailer,4949
retaliate,4950
retaliation,4951
retiring,4952
retold,4953
retracts,4954
retrieve,4955
retrospect,4956
retry,4957
return,4958
returning,4959
revealed,4960
reveals,4961
revelation,4962
revenge,4963
review,4964
reviewed,4965
revive,4966
revolution,4967
revolutionary,4968
reward,4969
rewrite,4970
reza,4971
rhetoric,4972
rhodesia,4973
rhymes,4974
rice,4975
rich,4976
richard,4977
ricketts,4978
rid,4979
riddled,4980
ridiclus,4981
ridiculous,4982
ridiculously,4983
riding,4984
rifle,4985
rifles,4986
right,4987
righteous,4988
rightful,4989
rights,4990
ring,4991
rings,4992
riot,4993
rioting,4994
riotng,4995
riots,4996
rise,4997
risen,4998
rises,4999
risk,5000
risking,5001
rita,5002
rittaq,5003
road,5004
roadmap,5005
roadside,5006
roam,5007
robbie,5008
robert,5009
rock,5010
rocket,5011
rockets,5012
rocks,5013
rogue,5014
role,5015
roles,5016
roma,5017
roman,5018
romania,5019
romans,5020
romantic,5021
romney,5022
roof,5023
room,5024
rooming,5025
rooted,5026
rooting,5027
rosie,5028
round,5029
roundabouts,5030
rounded,5031
rounds,5032
rouser,5033
rout,5034
route,5035
routinely,5036
royal,5037
roybearparsedtwodigits,5038
rpg,5039
rsed,5040
rubber,5041
rubbing,5042
rubbish,5043
rubbu,5044
ruin,5045
ruining,5046
rule,5047
ruled,5048
rulers,5049
rules,5050
ruling,5051
rumbles,5052
rumsfeld,5053
rumsfeldt,5054
run,5055
running,5056
runs,5057
rural,5058
rush,5059
ruskies,5060
russia,5061
russian,5062
russians,5063
ruth,5064
ruthlessly,5065
rwanda,5066
ry,5067
sa,5068
saa,5069
sabra,5070
sabre,5071
sacking,5072
sacrifices,5073
sad,5074
sadam,5075
sadat,5076
saddam,5077
sadly,5078
saeed,5079
safe,5080
safeguard,5081
safely,5082
sahaf,5083
said,5084
saids,5085
sailors,5086
sake,5087
salafists,5088
salary,5089
sales,5090
salome,5091
samadashvili,5092
same,5093
sample,5094
sanctioned,5095
sanctioning,5096
sanctions,5097
sandbox,5098
sandwich,5099
sane,5100
sanitation,5101
sarah,5102
sarcastic,5103
sassanid,5104
sat,5105
satan,5106
satanic,5107
satellites,5108
satisfactory,5109
satisfy,5110
saturday,5111
saudi,5112
sauds,5113
savagery,5114
save,5115
saved,5116
saves,5117
saving,5118
saw,5119
saxon,5120
say,5121
saying,5122
says,5123
scale,5124
scales,5125
scam,5126
scapegoat,5127
scapegoated,5128
scared,5129
scaremongering,5130
scargill,5131
sceintist,5132
scenario,5133
scenarios,5134
scewed,5135
schemes,5136
scholars,5137
school,5138
schoolchildren,5139
schoolgirls,5140
schools,5141
schwartskopf,5142
science,5143
scienitst,5144
scientific,5145
scientist,5146
scientists,5147
score,5148
scores,5149
scot,5150
scotland,5151
scots,5152
scottish,5153
scottishness,5154
scrap,5155
scream,5156
screening,5157
screw,5158
screwed,5159
screwing,5160
script,5161
scrutiny,5162
scupper,5163
sea,5164
sealion,5165
sean,5166
searched,5167
searching,5168
season,5169
seat,5170
seats,5171
second,5172
secondary,5173
secret,5174
sect,5175
sectarian,5176
section,5177
sector,5178
secular,5179
secured,5180
security,5181
sedition,5182
see,5183
seed,5184
seeing,5185
seek,5186
seeking,5187
seem,5188
seems,5189
seen,5190
seeping,5191
seeps,5192
sees,5193
segregation,5194
seldom,5195
selection,5196
selective,5197
selectively,5198
selectiveness,5199
selector,5200
selects,5201
self,5202
sell,5203
seller,5204
sells,5205
semantics,5206
semetic,5207
semetism,5208
semite,5209
semites,5210
semitic,5211
semitism,5212
senate,5213
senators,5214
send,5215
sending,5216
senior,5217
sense,5218
sensible,5219
sensitive,5220
sensitivity,5221
sent,5222
sentence,5223
sentenced,5224
sentenceing,5225
sentences,5226
sentiments,5227
sep,5228
separating,5229
separatum,5230
sept,5231
september,5232
septmeber,5233
sequels,5234
serious,5235
seriously,5236
servants,5237
served,5238
serves,5239
service,5240
servicemen,5241
services,5242
servies,5243
serving,5244
sessions,5245
set,5246
settle,5247
settlement,5248
settlements,5249
settler,5250
settlers,5251
seven,5252
seventh,5253
several,5254
sex,5255
sexist,5256
sexual,5257
sfc,5258
shabby,5259
shades,5260
shah,5261
shakes,5262
shall,5263
shame,5264
shameful,5265
shankar,5266
shapes,5267
share,5268
shared,5269
sharia,5270
shariah,5271
sharing,5272
sharon,5273
shatilla,5274
she,5275
sheer,5276
sheesh,5277
sheikh,5278
sheiks,5279
sheilds,5280
shelling,5281
shelter,5282
shenanigans,5283
shia,5284
shias,5285
shields,5286
shifted,5287
shifting,5288
shining,5289
ship,5290
ships,5291
shock,5292
shoes,5293
shoot,5294
shooting,5295
shootings,5296
shoots,5297
short,5298
shortages,5299
shortcomingof,5300
shortlist,5301
shot,5302
should,5303
shouldn,5304
show,5305
showbiz,5306
showcase,5307
showed,5308
showing,5309
shown,5310
shows,5311
shrinking,5312
shunned,5313
shutting,5314
shy,5315
sick,5316
sickening,5317
sickeningly,5318
side,5319
sided,5320
sidelines,5321
sides,5322
sidestepped,5323
sidique,5324
sieging,5325
sight,5326
sighted,5327
sign,5328
signed,5329
significant,5330
significantly,5331
signing,5332
signs,5333
sikh,5334
sikhs,5335
silence,5336
silly,5337
simchaparsedonedigit,5338
similar,5339
similarly,5340
simon,5341
simonparsedtwodigits,5342
simple,5343
simpler,5344
simplest,5345
simplicity,5346
simply,5347
since,5348
singing,5349
single,5350
sinister,5351
sink,5352
sinking,5353
sir,5354
sis,5355
sisters,5356
sit,5357
site,5358
sites,5359
sits,5360
sitting,5361
situation,5362
situations,5363
six,5364
size,5365
sizeable,5366
sk,5367
skilled,5368
skills,5369
skimped,5370
skirmish,5371
skulls,5372
slams,5373
slaughtered,5374
slave,5375
slaves,5376
sleng,5377
slide,5378
slight,5379
slightly,5380
slinging,5381
slip,5382
slipping,5383
slot,5384
slowly,5385
small,5386
smallwa,5387
smashed,5388
smidgeon,5389
smoker,5390
smokescreen,5391
smuggling,5392
sneer,5393
sneering,5394
snideness,5395
snogging,5396
snow,5397
so,5398
soap,5399
social,5400
socialism,5401
socialist,5402
socialists,5403
society,5404
soemhow,5405
soil,5406
soilders,5407
sold,5408
soldier,5409
soldiers,5410
sole,5411
solely,5412
solid,5413
solidarity,5414
solomoron,5415
solution,5416
solve,5417
solved,5418
somali,5419
some,5420
somebody,5421
somehow,5422
someone,5423
somethihng,5424
something,5425
sometimes,5426
somewhere,5427
son,5428
song,5429
sons,5430
soon,5431
sooner,5432
sophistry,5433
soprano,5434
sorry,5435
sort,5436
sorted,5437
sorts,5438
sound,5439
sounds,5440
source,5441
sources,5442
south,5443
southern,5444
soviets,5445
sown,5446
space,5447
spaghetti,5448
spain,5449
spam,5450
spanish,5451
spartacus,5452
spawned,5453
speak,5454
speaking,5455
speaks,5456
special,5457
specific,5458
specifically,5459
spectacular,5460
speculation,5461
speculations,5462
speech,5463
speeches,5464
speed,5465
spell,5466
spelling,5467
spend,5468
spending,5469
spends,5470
spent,5471
spew,5472
spiked,5473
spin,5474
spinmeisters,5475
spiral,5476
spirit,5477
spirits,5478
spit,5479
splendid,5480
spoke,5481
spoken,5482
spokeswoman,5483
sport,5484
spot,5485
spots,5486
spout,5487
spray,5488
sprayed,5489
sprays,5490
spread,5491
spreading,5492
spree,5493
springs,5494
squad,5495
squandered,5496
square,5497
squeamish,5498
sri,5499
stabbing,5500
stability,5501
stable,5502
staff,5503
staffed,5504
stage,5505
stagnant,5506
stake,5507
stalin,5508
stalinism,5509
stalinist,5510
stalking,5511
stalling,5512
stamina,5513
stamp,5514
stance,5515
stand,5516
standards,5517
standing,5518
stands,5519
star,5520
starbucks,5521
stare,5522
stares,5523
stark,5524
start,5525
started,5526
starters,5527
starting,5528
starts,5529
starvation,5530
starved,5531
starving,5532
starwars,5533
stashed,5534
state,5535
stated,5536
statehood,5537
statement,5538
statementr,5539
statements,5540
states,5541
station,5542
stations,5543
statistics,5544
stats,5545
status,5546
stauts,5547
stay,5548
stayed,5549
steal,5550
stealth,5551
step,5552
stepping,5553
still,5554
stir,5555
stock,5556
stockpile,5557
stocks,5558
stolen,5559
stone,5560
stones,5561
stonings,5562
stood,5563
stop,5564
stoping,5565
stopped,5566
stopping,5567
stops,5568
stor,5569
store,5570
stores,5571
stories,5572
storm,5573
stormin,5574
story,5575
straight,5576
straightforward,5577
strand,5578
strangely,5579
strangulation,5580
straw,5581
straws,5582
street,5583
streets,5584
strenegh,5585
strengh,5586
strength,5587
stresses,5588
stressful,5589
stretch,5590
strike,5591
strikes,5592
strip,5593
strong,5594
strongest,5595
strongly,5596
struck,5597
structures,5598
stuart,5599
stub,5600
stuck,5601
students,5602
studied,5603
studies,5604
study,5605
stuff,5606
stupa,5607
stupid,5608
style,5609
sub,5610
subject,5611
subjects,5612
subjugated,5613
submit,5614
submitted,5615
subsequent,5616
subsidies,5617
substance,5618
substantial,5619
substantiate,5620
substantive,5621
substitute,5622
subtly,5623
suburban,5624
subvert,5625
succeed,5626
succeeding,5627
succesful,5628
success,5629
successes,5630
such,5631
sucide,5632
sudan,5633
sudaneese,5634
sudden,5635
suddenly,5636
sue,5637
suffer,5638
suffered,5639
suffering,5640
sufficient,5641
suggest,5642
suggested,5643
suggesting,5644
suggestion,5645
suggests,5646
suicide,5647
suicides,5648
suit,5649
suitable,5650
suits,5651
sultan,5652
sum,5653
sumatra,5654
summarising,5655
sunlight,5656
sunni,5657
sunnis,5658
super,5659
supereamists,5660
supplied,5661
supply,5662
supplying,5663
support,5664
supported,5665
supporter,5666
supporters,5667
supporting,5668
supports,5669
suppose,5670
supposed,5671
suppress,5672
supress,5673
supressor,5674
suprises,5675
sure,5676
surely,5677
surpirse,5678
surprise,5679
surprised,5680
surprising,5681
surrender,5682
surrounded,5683
surrounding,5684
surveillance,5685
surveys,5686
survival,5687
survive,5688
suspect,5689
suspense,5690
suspicious,5691
sustainable,5692
sustained,5693
sustaining,5694
suv,5695
svay,5696
swearing,5697
sweet,5698
swim,5699
swimmer,5700
swimming,5701
swimsuit,5702
swimsuits,5703
swinger,5704
swings,5705
swiss,5706
switched,5707
sword,5708
sy,5709
syllables,5710
symbol,5711
symbols,5712
sympathetic,5713
sympathiser,5714
sympathize,5715
sympathy,5716
synagogue,5717
syria,5718
syrian,5719
system,5720
systematically,5721
systems,5722
table,5723
tack,5724
tackle,5725
tactic,5726
tactics,5727
taheri,5728
taht,5729
tailor,5730
take,5731
taken,5732
takes,5733
taking,5734
talent,5735
taliban,5736
talibans,5737
talk,5738
talking,5739
talks,5740
talmud,5741
talmudist,5742
tame,5743
tanja,5744
tanks,5745
tantrums,5746
tar,5747
target,5748
targeted,5749
targets,5750
targetted,5751
targetting,5752
tariff,5753
tariffs,5754
tarred,5755
task,5756
tasks,5757
taste,5758
tatty,5759
taught,5760
tax,5761
taxation,5762
taxes,5763
teach,5764
teacher,5765
teachers,5766
teaches,5767
team,5768
tear,5769
tears,5770
technically,5771
techniques,5772
technology,5773
teenage,5774
teens,5775
teh,5776
tel,5777
telegraph,5778
telemobiloscope,5779
telephone,5780
television,5781
tell,5782
telling,5783
tells,5784
temper,5785
tempers,5786
temples,5787
tempted,5788
ten,5789
tenants,5790
tend,5791
tender,5792
tends,5793
tenet,5794
tenets,5795
tens,5796
tenuous,5797
teresa,5798
term,5799
terms,5800
terrible,5801
territories,5802
territory,5803
territroies,5804
terror,5805
terrorised,5806
terrorism,5807
terrorist,5808
terrorists,5809
tessa,5810
test,5811
tested,5812
testified,5813
teven,5814
thailand,5815
than,5816
thank,5817
thanked,5818
thankful,5819
thanks,5820
thanx,5821
that,5822
thatcher,5823
thats,5824
the,5825
theforevermanparsedonedigit,5826
their,5827
them,5828
themeselves,5829
themselves,5830
then,5831
theoretical,5832
theories,5833
theory,5834
there,5835
thereby,5836
therefore,5837
thereof,5838
theres,5839
these,5840
they,5841
thier,5842
thin,5843
thing,5844
thingie,5845
things,5846
think,5847
thinking,5848
thinks,5849
thinly,5850
third,5851
this,5852
tho,5853
thompson,5854
thoroughly,5855
those,5856
though,5857
thought,5858
thoughts,5859
thousand,5860
thousands,5861
thread,5862
threads,5863
threadstarter,5864
threat,5865
threatened,5866
threatening,5867
threatens,5868
threats,5869
three,5870
through,5871
throwing,5872
thrown,5873
thrust,5874
thu,5875
thursday,5876
thus,5877
thwarted,5878
tibet,5879
tibetan,5880
tidal,5881
tie,5882
tied,5883
ties,5884
tighten,5885
time,5886
times,5887
timesdispatch,5888
tiny,5889
tip,5890
tips,5891
tired,5892
tis,5893
title,5894
tko,5895
tnt,5896
to,5897
today,5898
todays,5899
toddy,5900
toe,5901
toed,5902
together,5903
toilet,5904
toilets,5905
tolarance,5906
told,5907
tolearance,5908
tolen,5909
tolerance,5910
tolerated,5911
toll,5912
tollerance,5913
tome,5914
tone,5915
tony,5916
tonys,5917
tonysilver,5918
too,5919
took,5920
tools,5921
top,5922
topic,5923
topless,5924
toronto,5925
torpor,5926
torture,5927
total,5928
totally,5929
touching,5930
tough,5931
tour,5932
tourism,5933
tourist,5934
tournament,5935
tours,5936
toward,5937
towards,5938
tower,5939
towering,5940
towns,5941
toxic,5942
toyhon,5943
traceable,5944
traces,5945
track,5946
trade,5947
traded,5948
trader,5949
traders,5950
tradition,5951
traditional,5952
tragedies,5953
tragedy,5954
tragic,5955
trail,5956
trained,5957
training,5958
transact,5959
transatlantic,5960
transcript,5961
transcripts,5962
transparent,5963
transport,5964
trap,5965
trash,5966
trashed,5967
travel,5968
travelled,5969
treason,5970
treat,5971
treated,5972
treaties,5973
treatment,5974
treatments,5975
treaty,5976
tree,5977
tremendous,5978
trial,5979
trials,5980
tribes,5981
tribunal,5982
trick,5983
tricks,5984
tried,5985
trigger,5986
trip,5987
triple,5988
trolls,5989
troop,5990
troops,5991
trotted,5992
trouble,5993
truce,5994
truck,5995
true,5996
truly,5997
truman,5998
trun,5999
trust,6000
truth,6001
try,6002
trying,6003
tsarion,6004
tsunami,6005
tubes,6006
tuesday,6007
tunes,6008
tungsram,6009
tunisia,6010
tuol,6011
turbulent,6012
turf,6013
turkey,6014
turmoil,6015
turn,6016
turned,6017
turning,6018
turns,6019
tv,6020
twice,6021
twin,6022
twins,6023
twist,6024
twisted,6025
two,6026
type,6027
typed,6028
types,6029
typical,6030
typically,6031
typo,6032
ubergunner,6033
uder,6034
ugandan,6035
ugly,6036
uk,6037
ulpan,6038
ulster,6039
ultimately,6040
ultras,6041
umproviked,6042
un,6043
unabashed,6044
unable,6045
unacceptable,6046
unarmed,6047
unbalanced,6048
unbearable,6049
unbelievable,6050
uncaring,6051
uncivilised,6052
unclear,6053
uncomfortable,6054
unconscionable,6055
uncontrollable,6056
unconventional,6057
undemocratic,6058
undeniably,6059
under,6060
underestanding,6061
undermine,6062
undermines,6063
understand,6064
understandable,6065
understanding,6066
understands,6067
understood,6068
undesired,6069
undeterred,6070
undoubtedly,6071
unecessary,6072
unemployment,6073
uneven,6074
unfair,6075
unfairly,6076
unfettered,6077
unfortunate,6078
unfortunately,6079
ungrateful,6080
unhappy,6081
unholy,6082
uni,6083
uninformed,6084
uninterupted,6085
union,6086
unionism,6087
unionists,6088
unit,6089
united,6090
universal,6091
universe,6092
universities,6093
university,6094
unjustifiable,6095
unjustified,6096
unless,6097
unlike,6098
unlikeable,6099
unlikely,6100
unnamed,6101
unneccessary,6102
unnecessary,6103
unorthodox,6104
unpleasant,6105
unpopular,6106
unpopulated,6107
unrealistic,6108
unreasonable,6109
unrelated,6110
unreliable,6111
unreported,6112
unspeakable,6113
unsubstantiated,6114
unsuitable,6115
until,6116
unto,6117
untrustworthy,6118
unwholesome,6119
unwilling,6120
up,6121
upcoming,6122
uphold,6123
upon,6124
uprooting,6125
upside,6126
upu,6127
upward,6128
upyerpipe,6129
uranium,6130
urges,6131
us,6132
usa,6133
usage,6134
usapears,6135
use,6136
used,6137
useless,6138
username,6139
uses,6140
using,6141
usual,6142
usually,6143
usuing,6144
utopia,6145
utter,6146
utterly,6147
vacancies,6148
vacation,6149
valid,6150
validated,6151
valise,6152
valuable,6153
value,6154
valued,6155
values,6156
vanunu,6157
variation,6158
variety,6159
various,6160
vast,6161
vat,6162
vatican,6163
vc,6164
ve,6165
vegetarian,6166
vehemently,6167
vehicles,6168
veiled,6169
vein,6170
venetians,6171
venezuala,6172
venezuela,6173
venezuelan,6174
vent,6175
venture,6176
veracity,6177
verbal,6178
verdict,6179
verge,6180
verifying,6181
versa,6182
verse,6183
versed,6184
version,6185
very,6186
vessel,6187
vested,6188
vests,6189
veto,6190
vexing,6191
via,6192
vice,6193
vicious,6194
victim,6195
victimhood,6196
victims,6197
victorian,6198
victories,6199
victory,6200
video,6201
videos,6202
view,6203
viewpoint,6204
views,6205
vigilant,6206
vile,6207
vina,6208
vindicationparsedthreedigits,6209
vindictiveness,6210
violate,6211
violating,6212
violence,6213
violent,6214
virgins,6215
virulently,6216
vis,6217
visit,6218
visited,6219
vitamin,6220
vitriolic,6221
viva,6222
viz,6223
vocal,6224
voice,6225
void,6226
volunteering,6227
voodoo,6228
vote,6229
voted,6230
voters,6231
votes,6232
voting,6233
vs,6234
vulgar,6235
vultures,6236
vw,6237
wacko,6238
waggy,6239
wahhabist,6240
wailing,6241
wait,6242
waited,6243
waiting,6244
wake,6245
wales,6246
walk,6247
walking,6248
wall,6249
walled,6250
walls,6251
walnuts,6252
wander,6253
wandering,6254
wanna,6255
want,6256
wanted,6257
wants,6258
war,6259
warents,6260
warmest,6261
warming,6262
warmonger,6263
warn,6264
warned,6265
warning,6266
warped,6267
warrant,6268
warrnet,6269
wars,6270
wart,6271
was,6272
wash,6273
washington,6274
wasn,6275
wasnt,6276
waste,6277
watch,6278
watching,6279
water,6280
watered,6281
waters,6282
watersports,6283
watson,6284
watt,6285
wave,6286
waves,6287
waving,6288
way,6289
wayne,6290
ways,6291
wayward,6292
wb,6293
wbos,6294
we,6295
weak,6296
weakens,6297
weakest,6298
weaklings,6299
weakness,6300
wealth,6301
wealthy,6302
weapon,6303
weaponry,6304
weapons,6305
wear,6306
wearing,6307
weather,6308
weave,6309
weaving,6310
web,6311
weblog,6312
website,6313
websites,6314
wednesday,6315
wee,6316
weed,6317
week,6318
weekend,6319
weeks,6320
weep,6321
weight,6322
weird,6323
weirdos,6324
welcome,6325
well,6326
wendy,6327
wendyisms,6328
wendyman,6329
wendymann,6330
went,6331
wepaons,6332
were,6333
weren,6334
werent,6335
west,6336
western,6337
westerner,6338
wests,6339
westward,6340
wether,6341
what,6342
whatever,6343
whats,6344
whatsoever,6345
wheedling,6346
when,6347
whenever,6348
where,6349
whereas,6350
wherever,6351
whether,6352
whic,6353
which,6354
whichester,6355
whichever,6356
while,6357
whilst,6358
whinger,6359
whining,6360
whip,6361
whisky,6362
white,6363
whites,6364
whitey,6365
who,6366
whoda,6367
whole,6368
whom,6369
whoops,6370
whose,6371
whosoever,6372
why,6373
wide,6374
widely,6375
wider,6376
widespread,6377
wife,6378
wikipedia,6379
wild,6380
will,6381
william,6382
williams,6383
willing,6384
willingly,6385
willingness,6386
win,6387
wing,6388
wingers,6389
wings,6390
winner,6391
winners,6392
winning,6393
wipe,6394
wiped,6395
wiping,6396
wisdom,6397
wish,6398
wishes,6399
wishywashyness,6400
with,6401
witha,6402
withdraw,6403
withdrawing,6404
withdrw,6405
withhold,6406
within,6407
without,6408
withstand,6409
witness,6410
witnesses,6411
witty,6412
wmd,6413
wmds,6414
woe,6415
woken,6416
wolfowitz,6417
woman,6418
women,6419
won,6420
wonder,6421
wondered,6422
wonderful,6423
wonderign,6424
wondering,6425
wonders,6426
wont,6427
wooden,6428
woolsey,6429
woolwich,6430
word,6431
worded,6432
words,6433
wore,6434
work,6435
worked,6436
worker,6437
workers,6438
workforce,6439
working,6440
works,6441
workshops,6442
world,6443
worlds,6444
worldwide,6445
worms,6446
worried,6447
worries,6448
worry,6449
worrying,6450
worse,6451
worship,6452
worst,6453
worth,6454
worthy,6455
would,6456
wouldn,6457
wounded,6458
wounding,6459
wow,6460
wp,6461
wragg,6462
wraggers,6463
wriggle,6464
write,6465
writes,6466
writing,6467
written,6468
wrong,6469
wrongdoing,6470
wrote,6471
wrt,6472
wsj,6473
wums,6474
wwii,6475
wwparsedonedigit,6476
www,6477
yank,6478
yanks,6479
yard,6480
yawn,6481
ye,6482
yeah,6483
year,6484
yearly,6485
years,6486
yeeessssssss,6487
yeh,6488
yehudi,6489
yellow,6490
yep,6491
yes,6492
yesterday,6493
yet,6494
yields,6495
yo,6496
yoav,6497
yoke,6498
yor,6499
york,6500
yorker,6501
yorkshire,6502
yossarian,6503
you,6504
young,6505
youngster,6506
your,6507
yours,6508
yourself,6509
yourselves,6510
youth,6511
yrs,6512
yummy,6513
zabacs,6514
zalmay,6515
zebra,6516
zebras,6517
zebrasviewpoint,6518
zeldalicious,6519
zero,6520
zi,6521
zidane,6522
zimbabwe,6523
zionist,6524
zionists,6525
zoltán,6526
zone,6527
zones,6528
