_____________________________________________,0
aaaahhhhhh,1
abandon,2
abducted,3
ability,4
able,5
abode,6
abolutely,7
aboriginal,8
abortion,9
about,10
above,11
abraham,12
abroad,13
abrupt,14
absence,15
absense,16
absolute,17
absolutely,18
absolution,19
absurd,20
abu,21
abuse,22
abysmally,23
academies,24
accept,25
acceptable,26
acceptance,27
accepted,28
accepting,29
access,30
accessible,31
accident,32
accommodate,33
accommodation,34
according,35
accordingly,36
account,37
accounts,38
accurate,39
accusation,40
accusations,41
accused,42
accusing,43
achieve,44
achieving,45
acknowleged,46
acquire,47
across,48
act,49
acted,50
acting,51
action,52
actions,53
active,54
activity,55
acts,56
actual,57
actualisation,58
actually,59
acumen,60
acuses,61
acutely,62
acxts,63
ad,64
add,65
added,66
additionally,67
additionsal,68
address,69
addressed,70
addresses,71
addressing,72
adds,73
adjust,74
administartion,75
administators,76
administration,77
administrative,78
administrators,79
admire,80
admission,81
admit,82
admitted,83
admitting,84
adopting,85
adulation,86
adults,87
advance,88
advances,89
advantage,90
adventure,91
advertise,92
advocate,93
advocating,94
aerial,95
afair,96
affair,97
affairs,98
affect,99
affinity,100
afflicting,101
afford,102
afghan,103
afghanistan,104
afghans,105
aforementioned,106
afraid,107
africa,108
african,109
after,110
again,111
against,112
age,113
agency,114
agenda,115
agendas,116
ages,117
aggression,118
aggressive,119
ago,120
agree,121
agreed,122
agreeing,123
agreement,124
agreements,125
agrees,126
ah,127
ahead,128
ahh,129
ahmed,130
aid,131
aiejrlsk,132
aim,133
aims,134
aina,135
air,136
aircraft,137
aired,138
airlines,139
airport,140
airports,141
airwaves,142
akin,143
al,144
alan,145
alans,146
alarming,147
albeit,148
albert,149
albright,150
alcohol,151
ales,152
ali,153
aliens,154
alike,155
alive,156
aliya,157
aljazeera,158
all,159
allah,160
allegations,161
alleged,162
allegedly,163
allende,164
alliance,165
allied,166
allies,167
allocated,168
alloted,169
allow,170
allowed,171
allowing,172
allows,173
allude,174
alluding,175
ally,176
almost,177
alone,178
along,179
alongside,180
alot,181
already,182
alright,183
also,184
alternating,185
although,186
altogether,187
always,188
am,189
amazed,190
amazing,191
ambassador,192
ambitions,193
ambulance,194
america,195
american,196
americancivilians,197
americans,198
americas,199
amerindian,200
amerindians,201
amigo,202
amnesty,203
amodel,204
among,205
amongst,206
amount,207
amounts,208
amp,209
amusement,210
amusing,211
an,212
analagous,213
analogies,214
analogy,215
analysis,216
anarchists,217
anarchy,218
ancestors,219
ancestral,220
ancestry,221
ancient,222
and,223
andrea,224
angel,225
angela,226
anger,227
angle,228
angles,229
anglicans,230
angry,231
animal,232
animals,233
ann,234
anne,235
annexing,236
annihilation,237
anniversary,238
announce,239
annoyed,240
annoying,241
annual,242
another,243
anothers,244
anothr,245
answer,246
answered,247
answering,248
answers,249
antagonistic,250
anthony,251
anti,252
antibiotics,253
any,254
anybody,255
anybodys,256
anyone,257
anythig,258
anything,259
anytime,260
anyway,261
anywhere,262
apart,263
apartheid,264
apartheit,265
apartment,266
apatheid,267
aperthied,268
apolitical,269
apologies,270
apologise,271
apologize,272
apology,273
appalled,274
appalling,275
apparent,276
apparently,277
appealed,278
appears,279
appeasers,280
appeases,281
appetite,282
applauded,283
apple,284
apples,285
apply,286
applying,287
appreciate,288
apprehension,289
approaching,290
approval,291
approve,292
approved,293
approving,294
approx,295
approximately,296
april,297
apropriate,298
aquaintance,299
arab,300
arabia,301
arabians,302
arabic,303
arabs,304
arafat,305
arbitray,306
arbs,307
arch,308
architects,309
are,310
area,311
areas,312
aren,313
arent,314
argue,315
argued,316
arguements,317
argues,318
arguing,319
argument,320
arguments,321
ariel,322
armed,323
armenian,324
armies,325
arms,326
army,327
arnie,328
aropund,329
around,330
arranged,331
arrest,332
arrested,333
arrived,334
arriving,335
arrogant,336
arrow,337
arrresting,338
art,339
article,340
articles,341
articulately,342
artificial,343
artillery,344
aryans,345
as,346
asdf,347
ashanti,348
asia,349
asian,350
asians,351
aside,352
ask,353
asked,354
asking,355
aspect,356
aspirational,357
aspire,358
asprin,359
assasination,360
assault,361
assembly,362
assert,363
assesement,364
assess,365
assessing,366
assimilate,367
assimilated,368
assimilation,369
assist,370
assistance,371
associate,372
associated,373
assume,374
assuming,375
assumption,376
assumptions,377
assure,378
astonishing,379
astounding,380
astute,381
aswat,382
aswell,383
at,384
ataturk,385
atlast,386
atleast,387
atom,388
atomic,389
atothez,390
atrocities,391
atrocity,392
atta,393
attack,394
attacked,395
attackers,396
attacking,397
attacks,398
attain,399
attempt,400
attempting,401
attempts,402
attention,403
attest,404
attire,405
attitude,406
attitudes,407
attorney,408
attract,409
attracted,410
attracts,411
attributable,412
attribute,413
attributing,414
audiance,415
audited,416
austarlia,417
australia,418
australian,419
australians,420
australias,421
austria,422
austrians,423
authorities,424
authority,425
authors,426
automobile,427
available,428
availed,429
avenge,430
average,431
avert,432
avigdor,433
aviv,434
avoid,435
avoided,436
avoiding,437
awaiting,438
award,439
aware,440
away,441
awe,442
awful,443
axe,444
ay,445
az,446
azania,447
azar,448
aziz,449
baader,450
baathists,451
babies,452
baby,453
back,454
backed,455
background,456
backing,457
bad,458
badly,459
baffles,460
bagdad,461
baggage,462
baghdad,463
bailiffs,464
bajore,465
balance,466
balancing,467
balfour,468
bali,469
balkan,470
ball,471
ballot,472
balls,473
ban,474
band,475
bang,476
banging,477
bank,478
bankers,479
bankruptcy,480
banning,481
bar,482
barabism,483
barack,484
barbados,485
barbarians,486
barbaric,487
barbarism,488
barbarity,489
bargain,490
barking,491
barmy,492
barrel,493
barrier,494
bartering,495
base,496
baseball,497
based,498
baseless,499
bases,500
bashing,501
basic,502
basically,503
basics,504
basiji,505
basis,506
basra,507
bat,508
batttle,509
bbc,510
be,511
beach,512
bear,513
beard,514
bearded,515
bearing,516
bears,517
beat,518
beating,519
beautiful,520
became,521
because,522
become,523
becomes,524
becoming,525
becuase,526
bed,527
beeb,528
beef,529
been,530
before,531
began,532
beggars,533
begger,534
begging,535
begin,536
beginning,537
beharry,538
behave,539
behaved,540
behavior,541
behaviour,542
beheading,543
behind,544
behold,545
being,546
beings,547
beirut,548
belfer,549
belgiium,550
belief,551
beliefs,552
believe,553
believed,554
believes,555
believing,556
believs,557
belittle,558
belived,559
bellicose,560
belly,561
belong,562
belonging,563
belongs,564
belt,565
ben,566
bending,567
beneath,568
benefit,569
benefits,570
bennett,571
bennnett,572
benny,573
benz,574
berlusconi,575
bertie,576
besides,577
best,578
bested,579
bet,580
bethlehem,581
betrays,582
better,583
between,584
beyond,585
bho,586
bias,587
big,588
bigger,589
biggest,590
bigot,591
bigoted,592
bigotry,593
bigots,594
bigotted,595
bill,596
billion,597
billions,598
bin,599
binoculars,600
birds,601
birth,602
bit,603
bites,604
bits,605
bizarre,606
black,607
blacks,608
blah,609
blair,610
blame,611
blamed,612
blast,613
blaster,614
blatant,615
blatantly,616
bleat,617
bleating,618
bleeding,619
blending,620
blessed,621
blew,622
bliar,623
blind,624
blindly,625
blockaded,626
blocks,627
blood,628
bloodshed,629
bloody,630
blow,631
blowing,632
blows,633
blue,634
blurt,635
bnp,636
board,637
boarders,638
boards,639
boat,640
body,641
bogus,642
bold,643
bolster,644
bolton,645
bomb,646
bombardment,647
bombed,648
bomber,649
bombers,650
bombing,651
bombings,652
bombs,653
bon,654
bona,655
bones,656
bonhoeffer,657
bonuses,658
book,659
boom,660
booming,661
booms,662
boosting,663
boot,664
bootlickers,665
boots,666
border,667
bordering,668
borders,669
bore,670
boring,671
boris,672
born,673
borrower,674
both,675
bother,676
bothered,677
bothering,678
bottle,679
bottom,680
bought,681
bound,682
boundaries,683
boundary,684
bowl,685
bownding,686
box,687
boy,688
boycott,689
boydavey,690
boys,691
brain,692
brainwashed,693
branch,694
branded,695
brandon,696
brats,697
brave,698
bravery,699
brazeness,700
breach,701
break,702
breaker,703
breaking,704
breath,705
breslan,706
brewers,707
briatain,708
bribe,709
bribes,710
bribing,711
brief,712
brigade,713
brilliant,714
brimstone,715
bring,716
bringing,717
brings,718
brit,719
britain,720
britan,721
british,722
britons,723
brits,724
broadcast,725
broadly,726
broke,727
broken,728
bronx,729
brother,730
brothers,731
brought,732
brown,733
brunt,734
brutal,735
brutality,736
brutally,737
brutish,738
bs,739
btw,740
bud,741
buddy,742
budget,743
buggars,744
build,745
building,746
buildings,747
builds,748
built,749
bulgaria,750
bull,751
bullet,752
bullets,753
bum,754
bummed,755
bunch,756
bunfight,757
bunker,758
burden,759
bureaucracy,760
burger,761
burka,762
burma,763
burn,764
bus,765
bush,766
business,767
busses,768
bust,769
busy,770
but,771
button,772
buy,773
buying,774
buys,775
by,776
bye,777
cabal,778
cabinet,779
cable,780
caesar,781
cahvez,782
cake,783
calais,784
calculating,785
calf,786
californian,787
caliphite,788
call,789
called,790
calling,791
calls,792
cambodia,793
camcorder,794
came,795
camera,796
camp,797
campagain,798
campaign,799
campare,800
campus,801
can,802
canaanintes,803
canaanite,804
canada,805
canadafreepress,806
canadian,807
canadians,808
cancel,809
cancer,810
candle,811
cannanites,812
cannot,813
canons,814
cant,815
cap,816
capabilities,817
capability,818
capital,819
capitalist,820
capitol,821
captainlogic,822
captcha,823
captured,824
car,825
carbine,826
care,827
cared,828
careful,829
cares,830
carolina,831
carpet,832
carried,833
carry,834
carrying,835
cars,836
cartel,837
cartels,838
carter,839
cartoon,840
cartoons,841
case,842
cases,843
cash,844
casinos,845
castro,846
casualties,847
casualty,848
cat,849
catastrophic,850
catch,851
categories,852
category,853
catering,854
cathars,855
cathch,856
catholic,857
catholics,858
caught,859
cause,860
caused,861
causes,862
causing,863
ceased,864
ceasefire,865
ceding,866
celebrate,867
celebrations,868
cell,869
cellar,870
censorship,871
cent,872
center,873
central,874
centredaily,875
centres,876
centuries,877
century,878
certain,879
certainly,880
chain,881
chair,882
chairs,883
chalabi,884
challenged,885
challenging,886
chance,887
chancellor,888
chances,889
change,890
changed,891
changes,892
changing,893
channel,894
chaos,895
chap,896
chapel,897
chapter,898
character,899
characterful,900
characterise,901
characterised,902
characteristic,903
characters,904
charge,905
charged,906
charges,907
charismatic,908
charities,909
charlesi,910
charters,911
chashews,912
chat,913
chavez,914
cheap,915
cheat,916
check,917
checked,918
checks,919
cheek,920
cheered,921
cheering,922
cheerleaders,923
cheers,924
cheese,925
cheney,926
chest,927
chicago,928
chicken,929
chief,930
child,931
childhood,932
childish,933
children,934
childs,935
china,936
chinese,937
chips,938
choice,939
choices,940
chomsky,941
choose,942
choosen,943
chooses,944
choosing,945
choosy,946
chopped,947
chore,948
chose,949
chosen,950
christian,951
christianity,952
christians,953
christmas,954
chritians,955
chrsitian,956
chucking,957
chunck,958
chunks,959
church,960
churches,961
churchill,962
cia,963
circle,964
circles,965
circumstance,966
circumstances,967
circus,968
citation,969
citations,970
cities,971
citizen,972
citizens,973
citizenship,974
city,975
civil,976
civilian,977
civilians,978
civilisation,979
civilised,980
civilized,981
civillian,982
civilzed,983
civlian,984
claim,985
claimed,986
claiming,987
claims,988
clamp,989
clap,990
clarification,991
class,992
classes,993
classics,994
classified,995
claudius,996
clause,997
cleanse,998
cleansed,999
cleansing,1000
clear,1001
cleared,1002
clearing,1003
clearly,1004
clergy,1005
clever,1006
cliche,1007
cliches,1008
clicking,1009
cling,1010
clinton,1011
clip,1012
close,1013
closed,1014
closely,1015
closet,1016
closure,1017
clould,1018
clout,1019
clue,1020
clueless,1021
clumsily,1022
cluster,1023
clutching,1024
cnn,1025
co,1026
coal,1027
coalition,1028
coastal,1029
cocaine,1030
codes,1031
coexistence,1032
coffee,1033
coffin,1034
cognitive,1035
cohabitate,1036
coherent,1037
cohesion,1038
coin,1039
coincidence,1040
coinciding,1041
cojones,1042
colaboration,1043
cold,1044
coleman,1045
collaborated,1046
collaboration,1047
collaborators,1048
collateral,1049
collatoral,1050
colleagues,1051
collection,1052
college,1053
colleges,1054
collide,1055
colneljihadist,1056
colonalism,1057
colonel,1058
colonelartist,1059
colonial,1060
colonialism,1061
colonialists,1062
colonised,1063
colonists,1064
colonized,1065
colonizers,1066
colours,1067
colt,1068
columbia,1069
column,1070
columnist,1071
com,1072
coma,1073
combat,1074
combatting,1075
combined,1076
combing,1077
come,1078
comes,1079
comfortable,1080
comfortably,1081
comforting,1082
comical,1083
coming,1084
command,1085
comment,1086
comments,1087
commercial,1088
commie,1089
comming,1090
commission,1091
commits,1092
committed,1093
committee,1094
committing,1095
committment,1096
common,1097
communication,1098
communist,1099
communities,1100
community,1101
companies,1102
company,1103
compare,1104
compared,1105
compares,1106
comparing,1107
comparison,1108
compass,1109
compassionate,1110
compelled,1111
competed,1112
competent,1113
competition,1114
competitor,1115
competitors,1116
complain,1117
complaining,1118
complaint,1119
complaints,1120
complete,1121
completely,1122
compliant,1123
comprehension,1124
comprised,1125
compromises,1126
computer,1127
computers,1128
con,1129
concede,1130
conceived,1131
concentrated,1132
concentration,1133
concept,1134
concern,1135
concerned,1136
concerning,1137
concerns,1138
concesions,1139
concieved,1140
concluded,1141
conclusion,1142
conclusions,1143
condaleeza,1144
condemn,1145
condemnation,1146
condemned,1147
condemning,1148
condescending,1149
conditions,1150
condone,1151
condones,1152
conduct,1153
conducted,1154
conference,1155
confession,1156
confident,1157
confirmed,1158
conflict,1159
conflicts,1160
confronts,1161
confuse,1162
confused,1163
confusing,1164
congrats,1165
congratulations,1166
congress,1167
congressmen,1168
conjecture,1169
connections,1170
conny,1171
conquer,1172
conquest,1173
cons,1174
consent,1175
consequence,1176
consequences,1177
consequently,1178
conservative,1179
conservbatives,1180
consider,1181
considerably,1182
consideration,1183
considered,1184
considering,1185
consistency,1186
consistent,1187
consistently,1188
consists,1189
consolidation,1190
conspiracy,1191
conspiratorial,1192
constant,1193
constitute,1194
constitution,1195
constitutional,1196
construction,1197
constructively,1198
consulate,1199
consult,1200
contact,1201
contain,1202
containing,1203
contains,1204
contemporary,1205
contempory,1206
contempt,1207
conten,1208
context,1209
continent,1210
continously,1211
continually,1212
continue,1213
continued,1214
continues,1215
continuously,1216
continuum,1217
contract,1218
contradiction,1219
contrary,1220
contrast,1221
contray,1222
contribute,1223
contributed,1224
contributes,1225
contributions,1226
contributors,1227
control,1228
controlled,1229
controlling,1230
controls,1231
controversial,1232
conveniant,1233
convenient,1234
convention,1235
conventional,1236
convert,1237
conveys,1238
convicted,1239
conviction,1240
convictions,1241
convince,1242
convinced,1243
convoy,1244
cool,1245
cop,1246
coppeliadee,1247
core,1248
corner,1249
corporate,1250
corporation,1251
corpses,1252
corpus,1253
correct,1254
corrected,1255
correction,1256
correctly,1257
correlation,1258
correspondent,1259
corrupt,1260
corruption,1261
cos,1262
cost,1263
costed,1264
cough,1265
could,1266
couldn,1267
couldnt,1268
council,1269
count,1270
counter,1271
counterargument,1272
counterparts,1273
counterpoints,1274
counting,1275
countries,1276
countruies,1277
country,1278
countrymen,1279
coup,1280
couple,1281
courage,1282
courageous,1283
course,1284
court,1285
courtesy,1286
courting,1287
courts,1288
cousins,1289
cover,1290
covered,1291
cowardly,1292
cowards,1293
cowboy,1294
cowboys,1295
cows,1296
crackpot,1297
cracks,1298
crap,1299
crass,1300
create,1301
created,1302
creating,1303
creation,1304
creatures,1305
credence,1306
credit,1307
creeping,1308
creole,1309
crescent,1310
cretin,1311
cretins,1312
cricism,1313
cricket,1314
crime,1315
crimes,1316
criminal,1317
criminals,1318
cripple,1319
crisis,1320
cristian,1321
criteria,1322
critical,1323
criticise,1324
criticised,1325
criticising,1326
criticism,1327
criticisms,1328
criticize,1329
criticized,1330
criticizing,1331
critique,1332
critiques,1333
critise,1334
crook,1335
crooked,1336
cross,1337
crossbones,1338
crossed,1339
crossing,1340
crusade,1341
crush,1342
cry,1343
cuba,1344
cuban,1345
culprit,1346
cult,1347
cultural,1348
culture,1349
cultures,1350
cup,1351
cure,1352
curious,1353
current,1354
currently,1355
cushion,1356
cusp,1357
custom,1358
customs,1359
cut,1360
cute,1361
cuts,1362
cybersoldiers,1363
cyprus,1364
dad,1365
daft,1366
dag,1367
dag_petersen,1368
dagnarius,1369
daily,1370
damage,1371
damages,1372
damned,1373
damnocrasy,1374
dan,1375
dancers,1376
dandy,1377
danes,1378
danger,1379
dangerous,1380
danish,1381
danmark,1382
dare,1383
darfour,1384
darfur,1385
dark,1386
darn,1387
dart,1388
darthvedder,1389
darvishi,1390
darwin,1391
data,1392
date,1393
dated,1394
daughters,1395
davidson,1396
davison,1397
dawson,1398
day,1399
days,1400
de,1401
dead,1402
deadlocked,1403
deadly,1404
deafening,1405
deal,1406
dealing,1407
dealings,1408
dealt,1409
dealtwith,1410
dear,1411
death,1412
deaths,1413
debate,1414
debated,1415
debates,1416
debating,1417
debtor,1418
debts,1419
decade,1420
deceipt,1421
deceit,1422
deceive,1423
december,1424
decency,1425
decent,1426
deception,1427
decide,1428
decided,1429
decides,1430
decision,1431
decisions,1432
deck,1433
declaration,1434
declared,1435
declaring,1436
decline,1437
decontextualised,1438
decreasing,1439
dedicated,1440
deep,1441
deeper,1442
defacating,1443
defacing,1444
defaluting,1445
defence,1446
defend,1447
defenders,1448
defending,1449
defense,1450
defent,1451
deficiency,1452
deficit,1453
deficits,1454
defination,1455
definatly,1456
define,1457
defines,1458
defining,1459
definitely,1460
definition,1461
definitions,1462
deflect,1463
deflection,1464
degrade,1465
dehumanization,1466
delegation,1467
deliberate,1468
deliberately,1469
delighted,1470
delightful,1471
delightfully,1472
delivered,1473
delude,1474
delusional,1475
delve,1476
demand,1477
demanding,1478
demands,1479
demise,1480
democracies,1481
democracy,1482
democrat,1483
democratic,1484
democratically,1485
democrats,1486
democtrats,1487
demographic,1488
demonizing,1489
demonstrate,1490
demonstrated,1491
demonstrates,1492
demonstrating,1493
denial,1494
denied,1495
denigrates,1496
denigration,1497
denmark,1498
denominations,1499
denoting,1500
denser,1501
dent,1502
denverpost,1503
deny,1504
denying,1505
department,1506
depend,1507
depends,1508
depicted,1509
deployment,1510
depository,1511
depression,1512
depressives,1513
depth,1514
deputy,1515
deranged,1516
derogatorily,1517
desade,1518
descended,1519
descends,1520
describe,1521
described,1522
deserve,1523
deserved,1524
deserves,1525
designated,1526
designed,1527
desire,1528
desired,1529
desperate,1530
desperation,1531
despise,1532
despite,1533
despose,1534
destabilising,1535
destroy,1536
destroyed,1537
destroying,1538
destruction,1539
destructive,1540
destrution,1541
detail,1542
detailing,1543
details,1544
detected,1545
deter,1546
determination,1547
determine,1548
determined,1549
determining,1550
deterrence,1551
deterrent,1552
deterrents,1553
detonates,1554
detonating,1555
detraction,1556
deutschmark,1557
devastated,1558
devastatingly,1559
develop,1560
developing,1561
development,1562
devices,1563
devil,1564
devoid,1565
di,1566
dialects,1567
diana,1568
diaries,1569
dick,1570
dickie,1571
dictated,1572
dictator,1573
dictatorial,1574
dictators,1575
dictatorship,1576
dictatorships,1577
did,1578
didn,1579
didnt,1580
die,1581
died,1582
dies,1583
diet,1584
differant,1585
difference,1586
differences,1587
different,1588
differes,1589
differing,1590
difficult,1591
difficulty,1592
digging,1593
digress,1594
dinner,1595
dinosaurs,1596
dipanna,1597
diplomacy,1598
diplomatic,1599
diplomats,1600
direct,1601
directed,1602
direction,1603
directly,1604
dirty,1605
disagree,1606
disagreement,1607
disappoint,1608
disappointed,1609
disappointment,1610
disapprove,1611
disarming,1612
disaster,1613
disater,1614
disbelieve,1615
disconnection,1616
discourse,1617
discover,1618
discovered,1619
discovery,1620
discrete,1621
discuss,1622
discussing,1623
discussion,1624
discussions,1625
disease,1626
diseases,1627
disengagement,1628
disengenious,1629
disgraceful,1630
dishonest,1631
dishonesty,1632
disinterest,1633
dislie,1634
dismiss,1635
dismissed,1636
disobey,1637
disparaging,1638
disparity,1639
dispicable,1640
disposal,1641
disproportionate,1642
disproportionately,1643
dispute,1644
disputes,1645
distance,1646
distasteful,1647
distating,1648
distinguish,1649
distorter,1650
distortions,1651
distract,1652
distributed,1653
distributing,1654
divert,1655
divide,1656
dividends,1657
divisive,1658
divorced,1659
djia,1660
dna,1661
do,1662
docks,1663
doctor,1664
doctors,1665
docu,1666
document,1667
documentated,1668
documented,1669
documenting,1670
dod,1671
dodge,1672
dodgy,1673
does,1674
doesn,1675
doesnt,1676
dog,1677
dogs,1678
doing,1679
dollar,1680
dollars,1681
domestic,1682
dominate,1683
don,1684
donald,1685
donated,1686
donations,1687
donator,1688
done,1689
dont,1690
donøt,1691
door,1692
doorsteps,1693
doplomatic,1694
dossier,1695
dostum,1696
dotted,1697
double,1698
doubt,1699
dow,1700
down,1701
downhill,1702
downs,1703
dozen,1704
dozens,1705
dr,1706
draconian,1707
draft,1708
drain,1709
drained,1710
dramatically,1711
draw,1712
drawers,1713
drawings,1714
drawn,1715
draws,1716
dream,1717
dreaming,1718
dreidelspin,1719
dresden,1720
dress,1721
dresses,1722
drink,1723
drinking,1724
drive,1725
drivel,1726
driven,1727
driver,1728
drives,1729
drone,1730
drop,1731
dropped,1732
drove,1733
drug,1734
drums,1735
drunk,1736
dry,1737
du,1738
dubai,1739
dubya,1740
duck,1741
ducks,1742
due,1743
duh,1744
dull,1745
dumber,1746
dump,1747
dumped,1748
dumps,1749
dunno,1750
duped,1751
duplicity,1752
dura,1753
during,1754
dutch,1755
duty,1756
dying,1757
dynamic,1758
each,1759
eager,1760
ear,1761
eard,1762
earlier,1763
early,1764
earn,1765
earned,1766
earning,1767
earnings,1768
ears,1769
earth,1770
earthquake,1771
easier,1772
easily,1773
east,1774
eastern,1775
easterners,1776
easy,1777
eat,1778
eating,1779
ebt,1780
ebts,1781
economic,1782
economical,1783
economics,1784
economies,1785
economy,1786
ecosystem,1787
ecstasy,1788
ed,1789
edcuated,1790
edition,1791
educate,1792
educated,1793
education,1794
educational,1795
eec,1796
effect,1797
effective,1798
effectively,1799
effects,1800
effort,1801
eg,1802
egeland,1803
egg,1804
ego,1805
egypt,1806
egyptians,1807
eh,1808
eight,1809
eighteen,1810
eighties,1811
eighty,1812
eire,1813
either,1814
elderly,1815
elect,1816
elected,1817
electing,1818
elections,1819
electorate,1820
elects,1821
element,1822
elemets,1823
elephants,1824
else,1825
elsewhere,1826
em,1827
emailed,1828
emanate,1829
embarrassing,1830
embarrassment,1831
embraced,1832
embracing,1833
embroiled,1834
emerged,1835
emigrating,1836
emission,1837
emmigrated,1838
empathize,1839
empire,1840
empires,1841
employed,1842
employer,1843
empowering,1844
empting,1845
empty,1846
en,1847
enacting,1848
encountered,1849
encourage,1850
encouraged,1851
encouragement,1852
end,1853
ended,1854
endless,1855
enemies,1856
enemy,1857
enemys,1858
energybulletin,1859
enforce,1860
enforcing,1861
engage,1862
engaged,1863
engagement,1864
engaging,1865
engineered,1866
engineering,1867
engineers,1868
england,1869
english,1870
engulfed,1871
enitrely,1872
enjoy,1873
enjoys,1874
enlightened,1875
enlightening,1876
enlisted,1877
enough,1878
enrichment,1879
enrolled,1880
enshrined,1881
ensure,1882
entered,1883
entering,1884
enterprise,1885
entertainment,1886
entire,1887
entirely,1888
entirety,1889
entitled,1890
entrapment,1891
environment,1892
environmental,1893
envoy,1894
epic,1895
episode,1896
equal,1897
equality,1898
equally,1899
equated,1900
equivalence,1901
equivalent,1902
er,1903
era,1904
erected,1905
erm,1906
err,1907
erroneous,1908
error,1909
errors,1910
es,1911
escalating,1912
especially,1913
essentially,1914
establish,1915
establishing,1916
esteem,1917
estimate,1918
estimated,1919
et,1920
eta,1921
etc,1922
ethnic,1923
ethnically,1924
ethnicity,1925
ethnicly,1926
eu,1927
euphamistically,1928
euro,1929
eurolefties,1930
europe,1931
european,1932
europeans,1933
europes,1934
euros,1935
even,1936
evening,1937
event,1938
events,1939
eventually,1940
ever,1941
every,1942
everybody,1943
everyday,1944
everyone,1945
everything,1946
everywhere,1947
evicted,1948
evidece,1949
evidence,1950
evidenced,1951
evil,1952
evilize,1953
evils,1954
evo,1955
evolve,1956
evolved,1957
ex,1958
exact,1959
exactly,1960
exaggerated,1961
examine,1962
example,1963
examples,1964
exceeds,1965
excellent,1966
except,1967
exception,1968
exceptions,1969
excessive,1970
exchange,1971
exchanged,1972
excited,1973
exciting,1974
excludes,1975
excuse,1976
excuses,1977
executed,1978
executive,1979
exempt,1980
exept,1981
exercise,1982
exerted,1983
exhausted,1984
exiled,1985
exist,1986
existence,1987
existential,1988
exists,1989
exiting,1990
expanding,1991
expansion,1992
expansionist,1993
expat,1994
expect,1995
expectation,1996
expected,1997
expects,1998
expel,1999
expense,2000
expensive,2001
experience,2002
experienced,2003
experts,2004
explain,2005
explained,2006
explaining,2007
explains,2008
explanation,2009
explicit,2010
explicitly,2011
exploded,2012
exploit,2013
explore,2014
explored,2015
explosively,2016
exports,2017
expose,2018
exposes,2019
exposing,2020
expounded,2021
expressed,2022
expressing,2023
expression,2024
extend,2025
extent,2026
extermination,2027
external,2028
extinct,2029
extinction,2030
extra,2031
extraction,2032
extradition,2033
extreme,2034
extremely,2035
extremisim,2036
extremist,2037
extremists,2038
exxon,2039
eye,2040
eyes,2041
eyewitnesses,2042
fabrication,2043
face,2044
faced,2045
faces,2046
facing,2047
fact,2048
factor,2049
factors,2050
factory,2051
facts,2052
factual,2053
factually,2054
fail,2055
failed,2056
failing,2057
failings,2058
fails,2059
failure,2060
fair,2061
faith,2062
falkenburg,2063
falklands,2064
fall,2065
falling,2066
falls,2067
false,2068
familiar,2069
families,2070
family,2071
famous,2072
fan,2073
fanatic,2074
fanatical,2075
fanatically,2076
fanatics,2077
fancied,2078
fancy,2079
fantasy,2080
far,2081
farc,2082
farce,2083
farm,2084
farmers,2085
fascinating,2086
fascism,2087
fascistic,2088
fashion,2089
fashioned,2090
fast,2091
fat,2092
father,2093
fault,2094
faults,2095
fauxtography,2096
favourable,2097
favourite,2098
favours,2099
fear,2100
fearing,2101
fears,2102
feature,2103
fed,2104
federal,2105
feeble,2106
feed,2107
feeding,2108
feel,2109
feeling,2110
feelings,2111
feels,2112
fees,2113
feet,2114
feisal,2115
fellas,2116
fellow,2117
felt,2118
female,2119
fence,2120
ferrari,2121
fervently,2122
few,2123
fewer,2124
ffs,2125
fgm,2126
fide,2127
field,2128
fields,2129
fight,2130
fighters,2131
fighting,2132
figure,2133
figurers,2134
figures,2135
fil,2136
fill,2137
filled,2138
final,2139
finally,2140
financed,2141
financial,2142
financing,2143
find,2144
finding,2145
findings,2146
finds,2147
fine,2148
finegold,2149
finger,2150
finish,2151
finished,2152
fire,2153
fired,2154
fires,2155
firework,2156
firing,2157
firmly,2158
first,2159
fish,2160
fit,2161
fits,2162
five,2163
flag,2164
flagrant,2165
flames,2166
flashpoint,2167
flashpoints,2168
flatter,2169
flaws,2170
fled,2171
fleeing,2172
fleet,2173
flesh,2174
flies,2175
flight,2176
flights,2177
flimsiest,2178
flip,2179
floating,2180
flock,2181
flocked,2182
flooded,2183
flopping,2184
fly,2185
flying,2186
fo,2187
focus,2188
focused,2189
folded,2190
folk,2191
follow,2192
followed,2193
followers,2194
following,2195
fond,2196
food,2197
fool,2198
foolish,2199
fools,2200
foot,2201
football,2202
footwear,2203
for,2204
force,2205
forced,2206
forcefully,2207
forces,2208
forcible,2209
forcing,2210
forecast,2211
foreign,2212
foreigners,2213
forest,2214
forever,2215
forgein,2216
forget,2217
forgien,2218
forgot,2219
form,2220
formation,2221
former,2222
formerusername,2223
forming,2224
forms,2225
formulaparsedonedigit_fan,2226
forum,2227
forumdudeparsedonedigit,2228
forums,2229
forward,2230
fought,2231
foul,2232
found,2233
foundations,2234
fox,2235
foxnews,2236
fparsedonedigit,2237
fparsedtwodigits,2238
fr,2239
fragile,2240
franc,2241
france,2242
frank,2243
frankly,2244
free,2245
freed,2246
freedly,2247
freedom,2248
freedome,2249
freedumb,2250
freee,2251
freely,2252
freespeech,2253
french,2254
frequency,2255
frequently,2256
frequnetly,2257
fresh,2258
friday,2259
friend,2260
friends,2261
fripono,2262
frist,2263
fro,2264
frolic,2265
from,2266
fromt,2267
front,2268
frought,2269
frozen,2270
frustrated,2271
frustration,2272
fueled,2273
fulfill,2274
full,2275
fully,2276
fun,2277
functioning,2278
fundamental,2279
fundamentalists,2280
funded,2281
funding,2282
funds,2283
funny,2284
furniture,2285
further,2286
furthermore,2287
fuss,2288
fussy,2289
futile,2290
futility,2291
future,2292
fuzzy,2293
fyi,2294
gagarin,2295
gain,2296
gained,2297
gains,2298
galant,2299
galloway,2300
gallows,2301
gambled,2302
game,2303
games,2304
gang,2305
gangs,2306
gangsterism,2307
gannet,2308
gannets,2309
gar,2310
garden,2311
gas,2312
gathered,2313
gathering,2314
gaul,2315
gaurds,2316
gave,2317
gavin,2318
gawd,2319
gay,2320
gays,2321
gaza,2322
gdp,2323
gen,2324
general,2325
generalised,2326
generalising,2327
generalizations,2328
generally,2329
generate,2330
generations,2331
genetic,2332
geneva,2333
genicides,2334
genius,2335
genocide,2336
genocides,2337
gentiles,2338
gentle,2339
genuine,2340
geoncide,2341
george,2342
georgia,2343
georgian,2344
german,2345
germans,2346
germany,2347
germmany,2348
get,2349
gets,2350
getting,2351
ghana,2352
ghandi,2353
gharib,2354
ghetto,2355
gibberish,2356
ginally,2357
girl,2358
girls,2359
give,2360
given,2361
gives,2362
giving,2363
gizelle,2364
glad,2365
gladio,2366
glaring,2367
glasgow,2368
gleaning,2369
glee,2370
glitches,2371
global,2372
globalisation,2373
globe,2374
glossed,2375
gloves,2376
glowingtrw,2377
gm,2378
gmt,2379
gnashing,2380
go,2381
goal,2382
goals,2383
god,2384
goerge,2385
goes,2386
going,2387
golan,2388
golden,2389
goldman,2390
goldwater,2391
gone,2392
gonna,2393
good,2394
goodies,2395
goodness,2396
goodwill,2397
google,2398
gore,2399
got,2400
gothicdumster,2401
gotten,2402
goverment,2403
govern,2404
governance,2405
governed,2406
government,2407
governments,2408
govt,2409
grab,2410
grabbing,2411
gracefully,2412
graffitti,2413
grand,2414
grandchildren,2415
granht,2416
grant,2417
granty,2418
grasp,2419
grass,2420
grave,2421
graves,2422
great,2423
greater,2424
greatest,2425
greatness,2426
greece,2427
greedy,2428
green,2429
grew,2430
greymatter,2431
greywolf,2432
grief,2433
groomed,2434
ground,2435
grounds,2436
group,2437
groups,2438
growing,2439
growl,2440
grown,2441
growth,2442
grrr,2443
grumbles,2444
gt,2445
gtrandfather,2446
guarantee,2447
guaranteed,2448
guardian,2449
guards,2450
guesing,2451
guess,2452
guessing,2453
guest,2454
guff,2455
guidance,2456
guilty,2457
guitarist,2458
gulf,2459
gun,2460
guns,2461
gunshot,2462
gurion,2463
gustav,2464
gutav,2465
guy,2466
guys,2467
gw,2468
gwb,2469
ha,2470
haaretz,2471
habit,2472
hacked,2473
had,2474
hadn,2475
hadnt,2476
haesten,2477
hagar,2478
haifa,2479
hairs,2480
half,2481
hall,2482
halt,2483
ham,2484
hamas,2485
hammas,2486
hammer,2487
hamza,2488
hand,2489
handed,2490
handedness,2491
handguns,2492
handing,2493
handling,2494
handpick,2495
hands,2496
handy,2497
handyman,2498
hang,2499
hanged,2500
hanging,2501
happen,2502
happened,2503
happening,2504
happens,2505
happily,2506
happiness,2507
happy,2508
hard,2509
harder,2510
hardly,2511
hardware,2512
harldy,2513
harm,2514
harming,2515
harmonious,2516
haroon,2517
harpercollins,2518
harsh,2519
harshly,2520
hart,2521
harvest,2522
has,2523
hase,2524
hasn,2525
hate,2526
hated,2527
haters,2528
hates,2529
hatred,2530
haunting,2531
have,2532
haven,2533
havenøt,2534
having,2535
havn,2536
hawks,2537
he,2538
head,2539
heading,2540
headline,2541
headlines,2542
heads,2543
heal,2544
health,2545
healthcare,2546
healthy,2547
hear,2548
heard,2549
hearing,2550
hearings,2551
hears,2552
heart,2553
heartedly,2554
heartfelt,2555
heartland,2556
heat,2557
heaven,2558
heavens,2559
heavier,2560
heavy,2561
hebrew,2562
heck,2563
heh,2564
heir,2565
heirarchy,2566
held,2567
helen,2568
hell,2569
hello,2570
help,2571
helpers,2572
helpful,2573
helping,2574
hem,2575
hempel,2576
hence,2577
her,2578
here,2579
hereditary,2580
heres,2581
hero,2582
heroes,2583
herself,2584
hey,2585
hezbollah,2586
hi,2587
hidden,2588
hide,2589
high,2590
higher,2591
highest,2592
highlighted,2593
highlights,2594
highly,2595
hiking,2596
hill,2597
hillarious,2598
hillary,2599
him,2600
himself,2601
hindu,2602
hindus,2603
hint,2604
hip,2605
hiroshima,2606
his,2607
hispanic,2608
historian,2609
historic,2610
historical,2611
historically,2612
history,2613
hit,2614
hitler,2615
hits,2616
hizbollah,2617
hmmmm,2618
ho,2619
hodgepodge,2620
hogan,2621
hold,2622
holders,2623
holding,2624
holdings,2625
hole,2626
holler,2627
hollywoodisation,2628
holocaust,2629
holy,2630
hom,2631
home,2632
homeland,2633
homeless,2634
homes,2635
homosexual,2636
homosexuals,2637
honest,2638
honestly,2639
honestreporting,2640
honor,2641
honour,2642
honourable,2643
hooliganism,2644
hope,2645
hopefully,2646
hopeless,2647
hopelessly,2648
hoping,2649
horrendous,2650
horrific,2651
horror,2652
horrors,2653
horse,2654
hos,2655
hospital,2656
hospitals,2657
host,2658
hostage,2659
hosted,2660
hostile,2661
hostilities,2662
hostility,2663
hosting,2664
hot,2665
hothousemat,2666
hours,2667
house,2668
houses,2669
housing,2670
how,2671
howard,2672
however,2673
howstuffwork,2674
hparsedonedigitgparseddigits,2675
huge,2676
hugely,2677
hugo,2678
huguenots,2679
huh,2680
huindreds,2681
human,2682
humanists,2683
humanitarian,2684
humanity,2685
humankind,2686
humans,2687
humvees,2688
hundred,2689
hundreds,2690
hundredth,2691
hung,2692
hunger,2693
hurricane,2694
hurt,2695
hurting,2696
hurts,2697
husband,2698
hussain,2699
hussein,2700
hype,2701
hyper,2702
hyperbolic,2703
hyphenated,2704
hypocricy,2705
hypocrites,2706
hypocritical,2707
hypothetical,2708
hys,2709
hysteria,2710
i_pardon_u,2711
ian,2712
ias,2713
ic,2714
ice,2715
id,2716
idea,2717
ideals,2718
identification,2719
identify,2720
identikit,2721
identity,2722
ideology,2723
idf,2724
idiot,2725
idiotic,2726
idiots,2727
ie,2728
if,2729
ignorance,2730
ignorant,2731
ignore,2732
ignored,2733
ignoring,2734
iht,2735
iirc,2736
il,2737
ilk,2738
ill,2739
illegal,2740
illegitimate,2741
illiberal,2742
ills,2743
illuminating,2744
illustrate,2745
illustrated,2746
illustrative,2747
im,2748
image,2749
images,2750
imaginable,2751
imaginations,2752
imagine,2753
imams,2754
imemc,2755
imf,2756
imho,2757
immature,2758
immediate,2759
immediately,2760
immemorial,2761
immigrant,2762
immigrants,2763
immigration,2764
imminence,2765
imminent,2766
immunity,2767
imo,2768
imoeachment,2769
impact,2770
impeachment,2771
imperfect,2772
imperial,2773
imperialist,2774
imperialistic,2775
imperils,2776
implanted,2777
implausible,2778
implement,2779
implementaion,2780
implemented,2781
implicate,2782
implies,2783
implying,2784
import,2785
importance,2786
important,2787
imports,2788
impose,2789
imposed,2790
imposing,2791
impossible,2792
impotence,2793
impotent,2794
impress,2795
impressed,2796
impression,2797
impressive,2798
imprisoned,2799
improper,2800
improved,2801
imunity,2802
in,2803
inadequacy,2804
inadequate,2805
inadvertently,2806
inappropriately,2807
inaugural,2808
inceindary,2809
incessant,2810
incharge,2811
inches,2812
incident,2813
incidental,2814
incidentally,2815
incidents,2816
incited,2817
incitement,2818
inciting,2819
include,2820
included,2821
includes,2822
including,2823
income,2824
incomes,2825
incompetent,2826
incomprehendible,2827
inconvenient,2828
incorporation,2829
increase,2830
increased,2831
increasing,2832
increasingly,2833
incredibly,2834
incurred,2835
incurring,2836
incursion,2837
indecent,2838
indeed,2839
indefensible,2840
independance,2841
independence,2842
independent,2843
india,2844
indian,2845
indians,2846
indicate,2847
indicated,2848
indicates,2849
indicating,2850
indifference,2851
indigenous,2852
indio,2853
indios,2854
indirect,2855
individual,2856
individuals,2857
indo,2858
indoctrinated,2859
indonesia,2860
indonesian,2861
indonesians,2862
induced,2863
inducing,2864
indulge,2865
industrial,2866
industries,2867
industry,2868
inentilaly,2869
inevitable,2870
inevitably,2871
inexcusable,2872
inextricably,2873
infact,2874
infamous,2875
infantilising,2876
inferior,2877
inferred,2878
inferring,2879
infidels,2880
inflation,2881
inflict,2882
influence,2883
influenced,2884
influences,2885
info,2886
inform,2887
information,2888
infrastucture,2889
ing,2890
inhabit,2891
inhabitant,2892
inhabitants,2893
inherrent,2894
inhuman,2895
inist,2896
initial,2897
initially,2898
injured,2899
inner,2900
innocent,2901
innocents,2902
ins,2903
insanity,2904
insecurity,2905
inside,2906
insidious,2907
insight,2908
insightful,2909
insignificant,2910
insinuate,2911
insist,2912
insisted,2913
insistence,2914
insisting,2915
inspect,2916
inspecters,2917
inspire,2918
inspired,2919
inspires,2920
inspiring,2921
instability,2922
install,2923
instance,2924
instances,2925
instead,2926
instigate,2927
institute,2928
instituted,2929
institution,2930
institutional,2931
institutions,2932
instruction,2933
instructions,2934
instructor,2935
insultan,2936
insulting,2937
insults,2938
insurance,2939
insurgency,2940
insurgent,2941
insurgents,2942
insurrection,2943
integrate,2944
integrating,2945
integration,2946
integrity,2947
intellectual,2948
intellectually,2949
intellegence,2950
intelligence,2951
intelligent,2952
intend,2953
intended,2954
intent,2955
inter,2956
interacted,2957
interest,2958
interested,2959
interesting,2960
interestingly,2961
interests,2962
intermixed,2963
internal,2964
international,2965
internet,2966
interpal,2967
interpretation,2968
interrupted,2969
intertwined,2970
intervention,2971
interview,2972
interviews,2973
intially,2974
intifada,2975
intifadah,2976
intimidation,2977
into,2978
intolerant,2979
inton,2980
intracacies,2981
intresting,2982
intrigue,2983
intrinsic,2984
introduce,2985
introduced,2986
invade,2987
invaded,2988
invaders,2989
invading,2990
invasion,2991
invasions,2992
invective,2993
invectives,2994
invented,2995
inventing,2996
invertebrate,2997
investigate,2998
investigated,2999
investigating,3000
investigation,3001
investment,3002
investors,3003
invite,3004
invloved,3005
involved,3006
involvement,3007
involving,3008
ira,3009
iran,3010
iranian,3011
iranians,3012
iraq,3013
iraqi,3014
iraqis,3015
ireland,3016
iris,3017
irish,3018
irna,3019
iron,3020
ironic,3021
ironically,3022
irony,3023
irrational,3024
irrelevant,3025
irritating,3026
irving,3027
is,3028
isa,3029
isareli,3030
islaam,3031
islam,3032
islamaphobe,3033
islamic,3034
islamificationism,3035
islamiphobe,3036
islamist,3037
islamists,3038
islamofascism,3039
islamofascists,3040
ismail,3041
isn,3042
isnt,3043
isolationist,3044
isr,3045
israel,3046
israeli,3047
israelians,3048
israelis,3049
israelnationalne,3050
israelnn,3051
israels,3052
isreal,3053
isreali,3054
isrealians,3055
issue,3056
issued,3057
issues,3058
it,3059
italians,3060
its,3061
itself,3062
ive,3063
jack,3064
jacka,3065
jacked,3066
jail,3067
jailed,3068
james,3069
jan,3070
jane,3071
japan,3072
japanese,3073
jazeera,3074
jazira,3075
jd,3076
jeb,3077
jerk,3078
jerusalem,3079
jessica,3080
jesus,3081
jew,3082
jewish,3083
jews,3084
jewsih,3085
jfks,3086
jihad,3087
jihadi,3088
jihadist,3089
jingles,3090
jingly,3091
jj,3092
joan,3093
job,3094
jobless,3095
jobs,3096
jobsworth,3097
joe,3098
john,3099
johnny,3100
join,3101
joined,3102
joining,3103
joinining,3104
joint,3105
joke,3106
jokes,3107
joking,3108
jong,3109
jordan,3110
jordanian,3111
journal,3112
journalist,3113
journalists,3114
jowell,3115
joys,3116
jqack,3117
judafacist,3118
judaism,3119
judge,3120
judgement,3121
judicial,3122
juicy,3123
jump,3124
jungle,3125
junta,3126
just,3127
justice,3128
justifications,3129
justified,3130
justify,3131
justness,3132
karbala,3133
kashmir,3134
kashmiri,3135
kashmiris,3136
kasparov,3137
kassam,3138
kassams,3139
kazahkstan,3140
kazakhstan,3141
keen,3142
keep,3143
keeping,3144
keeps,3145
kennedy,3146
kept,3147
kevin,3148
key,3149
kgb,3150
khalilzad,3151
khan,3152
kick,3153
kicking,3154
kid,3155
kidding,3156
kidnapped,3157
kids,3158
kiling,3159
kill,3160
killed,3161
killing,3162
killings,3163
kim,3164
kind,3165
kinda,3166
kindergarten,3167
kindly,3168
kinds,3169
king,3170
kinky,3171
kitchen,3172
kj,3173
kl,3174
knee,3175
knesset,3176
knew,3177
knickers,3178
knife,3179
knoll,3180
know,3181
knowledge,3182
known,3183
knows,3184
knucklescrapers,3185
knwo,3186
koran,3187
koranist,3188
korea,3189
korean,3190
koreans,3191
kosovo,3192
kowtow,3193
kreschev,3194
kristol,3195
kudos,3196
kurdish,3197
kurds,3198
kuwaeit,3199
kuwait,3200
kuweit,3201
kyoto,3202
label,3203
labelling,3204
labour,3205
lacewing,3206
lack,3207
ladder,3208
laden,3209
lady,3210
lager,3211
lame,3212
lancs,3213
land,3214
landowners,3215
lands,3216
language,3217
lankans,3218
larceny,3219
large,3220
largely,3221
largest,3222
larnaca,3223
lasers,3224
lashes,3225
last,3226
lasted,3227
late,3228
later,3229
latest,3230
latimes,3231
laugh,3232
laughable,3233
laughed,3234
laughing,3235
launched,3236
launches,3237
launching,3238
laurie,3239
lavat,3240
law,3241
laws,3242
lawyer,3243
lawyers,3244
lay,3245
le,3246
lead,3247
leader,3248
leaders,3249
leadership,3250
leading,3251
leads,3252
leaning,3253
learn,3254
learned,3255
learning,3256
learnt,3257
least,3258
leave,3259
leaving,3260
lebanese,3261
lebanon,3262
lecture,3263
led,3264
left,3265
leftie,3266
leftist,3267
lefty,3268
legacy,3269
legal,3270
legalities,3271
legendary,3272
legislation,3273
legitimacising,3274
legitimate,3275
legitimately,3276
legs,3277
leicester,3278
lenders,3279
leniency,3280
lennon,3281
less,3282
lessen,3283
lesser,3284
lesson,3285
lessons,3286
lest,3287
let,3288
lets,3289
letter,3290
letters,3291
letting,3292
level,3293
lgf,3294
liable,3295
liar,3296
liars,3297
liberal,3298
liberating,3299
liberman,3300
liberty,3301
library,3302
lid,3303
lie,3304
lied,3305
liek,3306
lies,3307
life,3308
lifestyle,3309
light,3310
lighten,3311
like,3312
liked,3313
likely,3314
likes,3315
likud,3316
lily,3317
limbo,3318
limit,3319
limitations,3320
line,3321
lines,3322
linguist,3323
link,3324
linked,3325
links,3326
lion,3327
list,3328
listen,3329
listening,3330
litany,3331
literally,3332
literature,3333
lithe,3334
little,3335
live,3336
lived,3337
lives,3338
living,3339
ll,3340
lmao,3341
loach,3342
load,3343
loads,3344
loans,3345
loathed,3346
lobbyists,3347
local,3348
locals,3349
location,3350
lock,3351
locked,3352
locking,3353
logic,3354
logical,3355
lol,3356
lombards,3357
london,3358
londonium,3359
loner,3360
long,3361
longer,3362
longtime,3363
lonney,3364
look,3365
looked,3366
looking,3367
looks,3368
looney,3369
loonies,3370
looooong,3371
loosers,3372
looted,3373
looting,3374
lord,3375
lose,3376
loser,3377
losers,3378
loses,3379
losing,3380
loss,3381
losses,3382
lost,3383
lot,3384
lots,3385
loud,3386
lousy,3387
love,3388
loved,3389
lovely,3390
low,3391
lower,3392
lowered,3393
lowering,3394
lowest,3395
lt,3396
lucky,3397
lucrative,3398
lugage,3399
lump,3400
lunatics,3401
lust,3402
lying,3403
lynch,3404
macademia,3405
macbeth,3406
macedonia,3407
machine,3408
machinery,3409
machines,3410
macmillan,3411
mad,3412
made,3413
madeleine,3414
madonna,3415
magazine,3416
magnitude,3417
mahler,3418
mail,3419
main,3420
mainland,3421
mainly,3422
mainstream,3423
maintain,3424
maintaining,3425
maj,3426
major,3427
majoritively,3428
majority,3429
make,3430
makes,3431
making,3432
malaysia,3433
male,3434
malfunction,3435
malfunctioning,3436
malls,3437
malt,3438
man,3439
manafacture,3440
manage,3441
managed,3442
management,3443
manages,3444
manchester,3445
mango,3446
manic,3447
manipulated,3448
mankind,3449
manner,3450
mans,3451
manual,3452
many,3453
mao,3454
map,3455
mar,3456
marach,3457
march,3458
marching,3459
marine,3460
mark,3461
market,3462
markets,3463
marley,3464
marquis,3465
marraiges,3466
marriage,3467
married,3468
marshals,3469
marshels,3470
martian,3471
martians,3472
martyr,3473
marxist,3474
mary,3475
mass,3476
massacre,3477
massacred,3478
massacres,3479
massaged,3480
massing,3481
massive,3482
masterclass,3483
mastered,3484
material,3485
matter,3486
matters,3487
max,3488
maximum,3489
may,3490
maybe,3491
mayhem,3492
mb,3493
mcb,3494
mcbean,3495
mcdonald,3496
mcneil,3497
me,3498
mean,3499
meaning,3500
meanings,3501
means,3502
meant,3503
meanwhile,3504
measues,3505
measure,3506
meat,3507
mechanism,3508
media,3509
medias,3510
medical,3511
medicine,3512
medics,3513
medievil,3514
meet,3515
meeting,3516
meetings,3517
meinhof,3518
melanie,3519
melon,3520
member,3521
membered,3522
members,3523
memory,3524
men,3525
menhuin,3526
mens,3527
mensa,3528
mental,3529
mentally,3530
mention,3531
mentioned,3532
mentions,3533
mentors,3534
mercies,3535
merciful,3536
mercy,3537
mere,3538
merely,3539
merge,3540
merit,3541
merits,3542
merkel,3543
mess,3544
message,3545
messages,3546
messiah,3547
mestizo,3548
met,3549
meta,3550
methods,3551
mexican,3552
mexicans,3553
mexico,3554
meyer,3555
miami,3556
michael,3557
micheal,3558
mickey,3559
mid,3560
middle,3561
might,3562
migrants,3563
migration,3564
miimalising,3565
miles,3566
militarised,3567
military,3568
militias,3569
millenia,3570
miller,3571
million,3572
millionairesse,3573
millions,3574
milosvic,3575
mind,3576
minded,3577
minds,3578
mine,3579
miners,3580
minimal,3581
minimalised,3582
minister,3583
minor,3584
minority,3585
minute,3586
minutes,3587
mis,3588
miscarriage,3589
misconception,3590
misfortune,3591
misinterprit,3592
misled,3593
misread,3594
misrepresent,3595
misrepresentation,3596
miss,3597
missed,3598
misses,3599
missile,3600
missiles,3601
missing,3602
missippparsedonedigit,3603
missus,3604
mistake,3605
mistakes,3606
mistress,3607
mistressofmydomain,3608
mistressofmydomains,3609
misunderstanding,3610
mitt,3611
mix,3612
mixed,3613
mixing,3614
mixture,3615
mmmmmm,3616
mn,3617
mne,3618
mob,3619
mobile,3620
mod,3621
modderated,3622
moderated,3623
moderator,3624
modern,3625
modesty,3626
mods,3627
mohammad,3628
mohammadans,3629
mohammed,3630
mom,3631
moment,3632
momment,3633
mommy,3634
mon,3635
monday,3636
mondial,3637
money,3638
mongering,3639
mongolia,3640
monkeys,3641
monologue,3642
monotonous,3643
monster,3644
month,3645
months,3646
mood,3647
moods,3648
moon,3649
moore,3650
moral,3651
morale,3652
morales,3653
morass,3654
more,3655
morning,3656
morris,3657
mortgage,3658
moselms,3659
moses,3660
moshe,3661
moslems,3662
mosque,3663
mosques,3664
most,3665
mostly,3666
mother,3667
mothers,3668
motivation,3669
motive,3670
motives,3671
motorcade,3672
mounted,3673
mouse,3674
moussaoui,3675
mouth,3676
move,3677
moved,3678
movement,3679
movements,3680
moving,3681
mow,3682
mparsedfourdigits,3683
mps,3684
mr,3685
mrjingles,3686
mrs,3687
ms,3688
msg,3689
msn,3690
msnbc,3691
mubashar,3692
much,3693
mud,3694
muddying,3695
mufti,3696
mugabe,3697
muhammad,3698
mullahs,3699
multi,3700
mum,3701
mump,3702
muppet,3703
murder,3704
murderer,3705
murdering,3706
murders,3707
murduch,3708
musab,3709
museums,3710
musharraf,3711
mushy,3712
music,3713
muslim,3714
muslims,3715
musso,3716
must,3717
mutterings,3718
mutual,3719
mutually,3720
mutuals,3721
muzlins,3722
mwaaaaaaaahahahahahahahaaaaaaaaa,3723
my,3724
mych,3725
mylroie,3726
myself,3727
mystery,3728
myth,3729
nafthe,3730
nagasaki,3731
nahhh,3732
naighbor,3733
nail,3734
nails,3735
naive,3736
naiveté,3737
name,3738
named,3739
names,3740
napalm,3741
narrative,3742
narrow,3743
nasty,3744
nation,3745
national,3746
nationalist,3747
nationalists,3748
nationalities,3749
nations,3750
nationstate,3751
native,3752
natives,3753
nato,3754
natural,3755
naturally,3756
nature,3757
nauseam,3758
naz,3759
nazi,3760
nazis,3761
nazism,3762
nbc,3763
ne,3764
near,3765
nearly,3766
neatly,3767
necessarily,3768
neck,3769
need,3770
needed,3771
needn,3772
needs,3773
negate,3774
neglect,3775
negotiate,3776
negotiation,3777
negotiations,3778
neighbors,3779
neighbours,3780
neil,3781
neither,3782
neo,3783
neocons,3784
nerve,3785
netanyahu,3786
netherlanders,3787
network,3788
neutral,3789
never,3790
new,3791
newest,3792
newly,3793
newnight,3794
news,3795
newsflash,3796
newspaper,3797
newsparsedonedigit,3798
newsparsedtwodigits,3799
next,3800
niaghbors,3801
nice,3802
nick,3803
nieve,3804
nigeria,3805
nigeriam,3806
night,3807
nighthook,3808
nightmare,3809
nijmeijert,3810
nikki,3811
nine,3812
nip,3813
nit,3814
nixon,3815
nk,3816
no,3817
nobel,3818
noble,3819
nobody,3820
nobs,3821
nologo,3822
nomatter,3823
nominal,3824
nomination,3825
non,3826
none,3827
nonsense,3828
nonsensical,3829
nonsnense,3830
nook,3831
noone,3832
nope,3833
nor,3834
norm,3835
normal,3836
norse,3837
north,3838
northern,3839
nose,3840
noses,3841
not,3842
note,3843
noted,3844
notes,3845
nothing,3846
notice,3847
noticed,3848
noticing,3849
noting,3850
notion,3851
notions,3852
noughts,3853
novel,3854
november,3855
now,3856
noxious,3857
nuclear,3858
nuke,3859
nukes,3860
numbed,3861
number,3862
numbers,3863
numbing,3864
numerous,3865
numpty,3866
nut,3867
nutcases,3868
nutters,3869
nuttin,3870
nutty,3871
nypd,3872
nytimes,3873
obama,3874
obesity,3875
object,3876
objecting,3877
objectives,3878
obligated,3879
obligation,3880
obligations,3881
oblige,3882
obliged,3883
observant,3884
observation,3885
obsessed,3886
obvioulsy,3887
obvious,3888
obviously,3889
oc,3890
occamøs,3891
occasion,3892
occasional,3893
occasions,3894
occulted,3895
occupation,3896
occupations,3897
occupied,3898
occupiers,3899
occupy,3900
occupying,3901
occur,3902
occured,3903
occurs,3904
ocean,3905
october,3906
odd,3907
oddly,3908
odds,3909
odious,3910
oecd,3911
of,3912
off,3913
offence,3914
offensive,3915
offer,3916
offered,3917
offering,3918
office,3919
officers,3920
offices,3921
official,3922
officials,3923
often,3924
oh,3925
ohj,3926
oil,3927
ok,3928
okay,3929
oklahoma,3930
old,3931
older,3932
oldest,3933
olds,3934
olive,3935
olympic,3936
omri,3937
on,3938
once,3939
one,3940
ones,3941
ongoing,3942
only,3943
onto,3944
onus,3945
oona,3946
oozes,3947
op,3948
opec,3949
open,3950
opened,3951
opening,3952
openly,3953
opera,3954
operation,3955
operations,3956
opinion,3957
opinions,3958
opponent,3959
opponents,3960
opportune,3961
opportunist,3962
opportunities,3963
opportunity,3964
opposed,3965
opposing,3966
opposite,3967
opposites,3968
opposition,3969
oppressed,3970
oppressive,3971
opressed,3972
option,3973
or,3974
oranges,3975
orbit,3976
orchards,3977
ordeals,3978
order,3979
ordered,3980
orders,3981
ordinance,3982
ordinary,3983
org,3984
organisation,3985
organisations,3986
organise,3987
organised,3988
organising,3989
organism,3990
organization,3991
organize,3992
organized,3993
orginal,3994
orientation,3995
orif,3996
origianlly,3997
original,3998
originally,3999
originated,4000
originator,4001
orthodox,4002
ostensibly,4003
oswald,4004
other,4005
others,4006
otherwise,4007
othwerwise,4008
otter,4009
ottoman,4010
ottomans,4011
ought,4012
our,4013
ours,4014
ourselves,4015
out,4016
outbursts,4017
outdated,4018
outer,4019
outlasting,4020
outlet,4021
outline,4022
outlined,4023
outnumbered,4024
outraged,4025
outrageous,4026
outright,4027
outs,4028
outsiders,4029
outspoken,4030
outstanding,4031
outstrip,4032
over,4033
overall,4034
overriding,4035
overs,4036
overseas,4037
oversight,4038
overthrow,4039
overwhelmingly,4040
own,4041
owned,4042
owner,4043
owners,4044
ownership,4045
ozy,4046
pace,4047
pacifists,4048
pack,4049
package,4050
page,4051
pageant,4052
paid,4053
pain,4054
painful,4055
painting,4056
pakistan,4057
pakistani,4058
pakistanis,4059
pakistans,4060
pale,4061
pales,4062
palestian,4063
palestians,4064
palestina,4065
palestine,4066
palestinian,4067
palestinians,4068
palestnians,4069
palin,4070
palis,4071
palistinians,4072
pallywood,4073
pals,4074
pan,4075
panicked,4076
panna,4077
panned,4078
panorama,4079
paparazzi,4080
paper,4081
papers,4082
paradise,4083
paradises,4084
parallel,4085
parallels,4086
paranoia,4087
parcel,4088
parent,4089
parents,4090
park,4091
parker,4092
parliament,4093
parseddigits,4094
parseddigitsbn,4095
parseddigitsth,4096
parsedfourdigits,4097
parsedfourdigitss,4098
parsedfourdigitsth,4099
parsedonedigit,4100
parsedonedigitbn,4101
parsedonedigitg,4102
parsedonedigitm,4103
parsedonedigitnd,4104
parsedonedigitrd,4105
parsedonedigitth,4106
parsedthreedigits,4107
parsedtime,4108
parsedtwodigits,4109
parsedtwodigitsm,4110
parsedtwodigitss,4111
parsedtwodigitsst,4112
parsedtwodigitsth,4113
part,4114
participants,4115
participate,4116
participated,4117
participle,4118
particular,4119
particularly,4120
parties,4121
partisan,4122
partition,4123
partly,4124
partnerships,4125
parts,4126
party,4127
pasha,4128
pass,4129
passed,4130
passes,4131
passing,4132
passport,4133
past,4134
pastures,4135
pat,4136
paternalism,4137
pathetic,4138
pattern,4139
paul,4140
pax,4141
pay,4142
paying,4143
payment,4144
pc,4145
pea,4146
peace,4147
peaceful,4148
peacefully,4149
peaks,4150
peanuts,4151
pearls,4152
pears,4153
peasants,4154
pecans,4155
pen,4156
penal,4157
penalty,4158
penchant,4159
penetrate,4160
peninsula,4161
penny,4162
pension,4163
pentagon,4164
people,4165
peoples,4166
per,4167
percent,4168
perception,4169
perceptions,4170
perchance,4171
peres,4172
perfect,4173
perfectly,4174
performing,4175
perhaps,4176
period,4177
perishing,4178
perle,4179
permanent,4180
permission,4181
permit,4182
permitted,4183
perpetrated,4184
perpetuating,4185
persecuted,4186
persecution,4187
person,4188
personal,4189
personalities,4190
personally,4191
personnel,4192
persons,4193
perspective,4194
persuaded,4195
perverse,4196
pet,4197
pete,4198
peters,4199
petition,4200
petra,4201
petty,4202
peu,4203
pfft,4204
phenomenon,4205
phil,4206
philippines,4207
phillips,4208
philosopher,4209
philosophy,4210
phone,4211
phoneacians,4212
phoned,4213
photographer,4214
photographs,4215
photos,4216
phrase,4217
phrases,4218
physical,4219
physically,4220
pick,4221
picking,4222
picture,4223
piece,4224
pieces,4225
pig,4226
pigeonhole,4227
pigs,4228
pillock,4229
pilot,4230
pilots,4231
pinochet,4232
pirlo,4233
pistol,4234
pit,4235
pity,4236
place,4237
places,4238
placing,4239
plain,4240
plaintive,4241
plan,4242
plane,4243
planes,4244
planet,4245
planned,4246
planners,4247
planning,4248
plans,4249
plant,4250
planted,4251
plants,4252
play,4253
played,4254
player,4255
players,4256
playing,4257
pleaded,4258
plear,4259
please,4260
pleasure,4261
plenty,4262
ploughed,4263
plus,4264
pm,4265
poem,4266
poindexter,4267
point,4268
pointed,4269
pointing,4270
pointless,4271
points,4272
poison,4273
poisonous,4274
poking,4275
polar,4276
pole,4277
police,4278
policeman,4279
policies,4280
policy,4281
polish,4282
politcal,4283
political,4284
politically,4285
politicians,4286
politics,4287
poll,4288
polls,4289
polluters,4290
pollution,4291
pond,4292
poochies,4293
pool,4294
poor,4295
poorly,4296
pop,4297
pope,4298
popular,4299
popularity,4300
populated,4301
population,4302
populations,4303
populist,4304
portray,4305
portrayed,4306
ports,4307
portuguese,4308
posession,4309
position,4310
positions,4311
positive,4312
possession,4313
possibility,4314
possible,4315
possibly,4316
post,4317
posted,4318
poster,4319
posters,4320
posting,4321
postings,4322
posts,4323
posturing,4324
pot,4325
potential,4326
pound,4327
pounding,4328
poverty,4329
power,4330
powerbase,4331
powered,4332
powerful,4333
powerfull,4334
powers,4335
ppa,4336
pr,4337
practical,4338
practice,4339
practiced,4340
practices,4341
pragmatic,4342
praise,4343
praised,4344
prank,4345
prattle,4346
praying,4347
pre,4348
preach,4349
preaching,4350
precipitate,4351
precise,4352
precisely,4353
precision,4354
precludes,4355
predatory,4356
predicted,4357
prediction,4358
predictions,4359
predominately,4360
prefer,4361
prefered,4362
preference,4363
prehaps,4364
prejudice,4365
prejudices,4366
prematurely,4367
premeditating,4368
premium,4369
prepare,4370
prepartions,4371
preperation,4372
prerequisite,4373
presbyterians,4374
presence,4375
present,4376
presentation,4377
presented,4378
president,4379
presidents,4380
presnted,4381
press,4382
presso,4383
pressure,4384
pressurise,4385
prestwick,4386
presumably,4387
presume,4388
pretend,4389
pretending,4390
pretext,4391
pretty,4392
preudo,4393
prevent,4394
prevented,4395
preventing,4396
previous,4397
previously,4398
price,4399
prices,4400
pride,4401
prides,4402
priest,4403
primary,4404
prime,4405
primitive,4406
princess,4407
principle,4408
print,4409
printed,4410
printing,4411
prior,4412
prisions,4413
prison,4414
prisons,4415
private,4416
prize,4417
pro,4418
proactive,4419
probability,4420
probably,4421
problem,4422
problems,4423
process,4424
proclaiming,4425
prodding,4426
prodi,4427
produce,4428
produced,4429
produces,4430
product,4431
production,4432
productive,4433
profess,4434
professional,4435
professors,4436
profitable,4437
profitibility,4438
profits,4439
profound,4440
profusely,4441
program,4442
programme,4443
progress,4444
progressive,4445
prohibit,4446
project,4447
projects,4448
prominent,4449
promised,4450
promote,4451
promoting,4452
promotion,4453
prompted,4454
promptly,4455
prone,4456
proof,4457
propably,4458
propaganda,4459
propagandist,4460
properly,4461
properties,4462
property,4463
prophecy,4464
propoganada,4465
propoganda,4466
proportion,4467
proposed,4468
proscribed,4469
prosecuted,4470
prosecutions,4471
prosperity,4472
prosperous,4473
protect,4474
protecting,4475
protection,4476
protector,4477
protects,4478
protest,4479
protestants,4480
protested,4481
protesters,4482
protestors,4483
protests,4484
proud,4485
prove,4486
proved,4487
proverb,4488
proves,4489
provide,4490
providing,4491
province,4492
provinces,4493
provocation,4494
provoke,4495
provoking,4496
prvent,4497
ps,4498
psychiatrists,4499
psychological,4500
psychologists,4501
psychology,4502
pu,4503
pub,4504
public,4505
publicity,4506
publicly,4507
published,4508
publisher,4509
publishing,4510
pubs,4511
puffing,4512
pull,4513
pulled,4514
pumping,4515
punishable,4516
punished,4517
punishment,4518
pupil,4519
puppet,4520
purchase,4521
purchased,4522
purchasing,4523
pure,4524
purely,4525
purile,4526
purpose,4527
purposes,4528
pursue,4529
push,4530
pushed,4531
pushing,4532
put,4533
putin,4534
puts,4535
putting,4536
puy,4537
puydedome,4538
pyongyang,4539
qaeda,4540
qassam,4541
quada,4542
quake,4543
qualification,4544
qualifications,4545
qualitavely,4546
quality,4547
quarter,4548
quattro,4549
quayle,4550
qubal,4551
que,4552
quebec,4553
queda,4554
quell,4555
quelling,4556
quels,4557
question,4558
questioned,4559
questioning,4560
questions,4561
quick,4562
quickly,4563
quips,4564
quit,4565
quite,4566
quitely,4567
quote,4568
quotes,4569
quoting,4570
rabbi,4571
rabble,4572
rabid,4573
rabin,4574
race,4575
racial,4576
racism,4577
racist,4578
radical,4579
radicalized,4580
radicals,4581
radio,4582
radioactive,4583
rafah,4584
rag,4585
rahman,4586
raid,4587
rail,4588
rained,4589
raise,4590
raised,4591
raising,4592
ran,4593
rancorous,4594
range,4595
ranging,4596
rankings,4597
ranks,4598
rant,4599
ranting,4600
rape,4601
raped,4602
rapid,4603
rapidly,4604
raping,4605
rashid,4606
rat,4607
rates,4608
rather,4609
ratify,4610
rating,4611
ratings,4612
rational,4613
rattling,4614
ravi,4615
ray,4616
razor,4617
re,4618
reached,4619
reaching,4620
react,4621
reacted,4622
reaction,4623
reactions,4624
read,4625
readers,4626
reading,4627
reads,4628
real,4629
realise,4630
realised,4631
realistic,4632
reality,4633
really,4634
ream,4635
reaping,4636
reaserch,4637
reason,4638
reasonable,4639
reasoning,4640
reasons,4641
rebounding,4642
rebuild,4643
rebuke,4644
recall,4645
recalls,4646
received,4647
recent,4648
recently,4649
recession,4650
recieved,4651
recieves,4652
recipient,4653
reckless,4654
recluse,4655
recognise,4656
recognised,4657
recognising,4658
recognition,4659
recognize,4660
recognizeable,4661
recollect,4662
recommendations,4663
record,4664
records,4665
recourse,4666
recovering,4667
recruit,4668
recrutment,4669
red,4670
reduced,4671
redundant,4672
reed,4673
refer,4674
referee,4675
reference,4676
referenced,4677
references,4678
referring,4679
refers,4680
refinanced,4681
reflected,4682
refuge,4683
refugees,4684
refugess,4685
refuse,4686
refused,4687
refuses,4688
refusing,4689
refute,4690
regard,4691
regarded,4692
regarding,4693
regards,4694
regime,4695
regimes,4696
region,4697
regional,4698
regret,4699
regular,4700
regularly,4701
regulations,4702
reich,4703
reign,4704
reinforcements,4705
reins,4706
rejected,4707
rejecting,4708
rekindle,4709
related,4710
relating,4711
relation,4712
relations,4713
relationship,4714
relationships,4715
relative,4716
relatives,4717
relaunch,4718
release,4719
released,4720
reliability,4721
reliable,4722
reliant,4723
relief,4724
religion,4725
religions,4726
religious,4727
reluctant,4728
rely,4729
remain,4730
remaining,4731
remains,4732
remark,4733
remarkable,4734
remarks,4735
remember,4736
remembered,4737
remembers,4738
reminded,4739
reminds,4740
removal,4741
remove,4742
removed,4743
removing,4744
renege,4745
renouncing,4746
rented,4747
repeat,4748
repeated,4749
repeatedly,4750
repeating,4751
repeats,4752
rephrase,4753
replace,4754
replaced,4755
replacing,4756
replies,4757
reply,4758
replying,4759
report,4760
reported,4761
reportedly,4762
reporters,4763
reports,4764
represent,4765
representation,4766
representative,4767
represents,4768
repressive,4769
reps,4770
republic,4771
republican,4772
republicans,4773
reputable,4774
reputation,4775
request,4776
require,4777
required,4778
requirement,4779
requires,4780
research,4781
researching,4782
reserve,4783
reservoir,4784
resident,4785
residents,4786
resign,4787
resist,4788
resistance,4789
resolution,4790
resolved,4791
resort,4792
resource,4793
resources,4794
respect,4795
respectable,4796
respected,4797
responce,4798
respond,4799
respondents,4800
responding,4801
response,4802
responsibility,4803
responsible,4804
rest,4805
restarted,4806
resting,4807
restored,4808
restricted,4809
result,4810
resulted,4811
resulting,4812
results,4813
retail,4814
retaliate,4815
retaliation,4816
retracts,4817
retrieve,4818
retrospect,4819
return,4820
returning,4821
revealed,4822
reveals,4823
revenge,4824
review,4825
reviewed,4826
revisionist,4827
revive,4828
revolution,4829
reward,4830
reza,4831
rhetoric,4832
rhymes,4833
rice,4834
rich,4835
richard,4836
richer,4837
richest,4838
ricketts,4839
rid,4840
riddance,4841
riddled,4842
ridiclus,4843
ridiculous,4844
ridiculously,4845
rifle,4846
rifles,4847
right,4848
rightful,4849
rights,4850
ring,4851
riot,4852
rioting,4853
riotng,4854
riots,4855
ripley,4856
ripped,4857
rise,4858
risen,4859
rises,4860
risible,4861
rising,4862
risk,4863
risking,4864
rita,4865
rittaq,4866
rjsc,4867
road,4868
roadmap,4869
roadside,4870
roam,4871
roar,4872
robert,4873
rock,4874
rocket,4875
rockets,4876
rocks,4877
rogue,4878
role,4879
rolling,4880
roma,4881
roman,4882
romania,4883
romans,4884
romney,4885
roof,4886
room,4887
rooming,4888
roosvelt,4889
root,4890
rooted,4891
ropert,4892
rose,4893
rosie,4894
rough,4895
round,4896
roundabouts,4897
rounds,4898
rouser,4899
rout,4900
route,4901
routinely,4902
royal,4903
roybearparsedtwodigits,4904
rpg,4905
rsed,4906
rubber,4907
rubbing,4908
rubbish,4909
ruin,4910
ruined,4911
ruining,4912
rule,4913
ruled,4914
rulers,4915
rules,4916
ruling,4917
rumbles,4918
rumsfeld,4919
rumsfeldt,4920
run,4921
running,4922
runs,4923
rural,4924
rush,4925
ruskies,4926
russia,4927
russian,4928
russians,4929
ruth,4930
rwanda,4931
ry,4932
sa,4933
saa,4934
sabra,4935
sabre,4936
sacrifices,4937
sad,4938
sadam,4939
sadat,4940
saddam,4941
sadly,4942
saeed,4943
safe,4944
safeguard,4945
sahaf,4946
said,4947
saids,4948
sailors,4949
sake,4950
salafists,4951
salaries,4952
salary,4953
sales,4954
salome,4955
samadashvili,4956
same,4957
sample,4958
sanctioned,4959
sanctioning,4960
sanctions,4961
sandbox,4962
sandwich,4963
sane,4964
sanitation,4965
sarah,4966
sarcastic,4967
sassanid,4968
sat,4969
satan,4970
satanic,4971
satellites,4972
satirist,4973
satisfactory,4974
satisfy,4975
saudi,4976
sauds,4977
savagery,4978
save,4979
saved,4980
saves,4981
saving,4982
saw,4983
say,4984
saying,4985
says,4986
scale,4987
scales,4988
scandal,4989
scandanavia,4990
scapegoat,4991
scapegoated,4992
scared,4993
scaremongering,4994
scargill,4995
sceintist,4996
scenario,4997
scenes,4998
sch,4999
scholars,5000
school,5001
schoolchildren,5002
schoolgirls,5003
schools,5004
science,5005
scientific,5006
scientist,5007
scientists,5008
score,5009
scores,5010
scot,5011
scotland,5012
scots,5013
scottish,5014
scottishness,5015
scrap,5016
scream,5017
screaming,5018
screening,5019
screwed,5020
screwing,5021
script,5022
scrutiny,5023
scum,5024
sea,5025
sealion,5026
sean,5027
search,5028
searched,5029
searching,5030
season,5031
seat,5032
seats,5033
second,5034
secondary,5035
seconds,5036
secs,5037
sect,5038
sectarian,5039
sector,5040
secular,5041
secured,5042
security,5043
sedition,5044
see,5045
seed,5046
seeing,5047
seek,5048
seeking,5049
seem,5050
seeme,5051
seems,5052
seen,5053
seeping,5054
sees,5055
segregation,5056
seldom,5057
selection,5058
selective,5059
selectively,5060
selectiveness,5061
selector,5062
self,5063
sell,5064
seller,5065
sells,5066
semantics,5067
semetic,5068
semetism,5069
semite,5070
semites,5071
semitic,5072
semitism,5073
senate,5074
senator,5075
senators,5076
send,5077
sending,5078
senior,5079
sense,5080
sensible,5081
sent,5082
sentence,5083
sentenced,5084
sentenceing,5085
sentences,5086
sentiments,5087
sep,5088
separating,5089
separation,5090
separatum,5091
sept,5092
septmeber,5093
sequels,5094
sequence,5095
serious,5096
seriously,5097
serve,5098
served,5099
serves,5100
service,5101
servicemen,5102
services,5103
servies,5104
set,5105
settle,5106
settlement,5107
settlements,5108
settler,5109
settlers,5110
settles,5111
seucrity,5112
seven,5113
several,5114
severely,5115
sex,5116
sexist,5117
sexual,5118
sh,5119
shabby,5120
shades,5121
shahab,5122
shall,5123
shalom,5124
shame,5125
shankar,5126
shapes,5127
share,5128
shared,5129
sharia,5130
shariah,5131
sharing,5132
sharon,5133
shatilla,5134
she,5135
sheer,5136
sheesh,5137
sheikh,5138
sheilds,5139
shelling,5140
shelter,5141
shenanigans,5142
shia,5143
shias,5144
shields,5145
shifted,5146
shifting,5147
shining,5148
shock,5149
shoe,5150
shoes,5151
shoot,5152
shooting,5153
shootings,5154
shoots,5155
short,5156
shortages,5157
shortcomingof,5158
shorter,5159
shot,5160
shots,5161
should,5162
shouldn,5163
shout,5164
show,5165
showbiz,5166
showed,5167
showing,5168
shown,5169
shows,5170
shrinking,5171
shunned,5172
shut,5173
shutting,5174
sick,5175
sickeningly,5176
side,5177
sided,5178
sidelines,5179
sides,5180
sidestepped,5181
sidique,5182
sieging,5183
sight,5184
sighted,5185
sign,5186
signed,5187
significant,5188
significantly,5189
sikh,5190
sikhs,5191
silence,5192
silliness,5193
silly,5194
silver,5195
simchaparsedonedigit,5196
similar,5197
simon,5198
simple,5199
simpler,5200
simplest,5201
simplify,5202
simply,5203
since,5204
single,5205
singular,5206
siniora,5207
sinister,5208
sink,5209
sinto,5210
sisters,5211
sit,5212
site,5213
sites,5214
sits,5215
sitting,5216
situation,5217
situations,5218
six,5219
sixty,5220
size,5221
sizeable,5222
sk,5223
skills,5224
skimped,5225
skull,5226
skulls,5227
slams,5228
slaughtered,5229
slave,5230
slaves,5231
slide,5232
slightly,5233
slighty,5234
slinging,5235
slip,5236
slipped,5237
slipping,5238
slow,5239
slowly,5240
slur,5241
small,5242
smashed,5243
smelly,5244
smicha,5245
smileys,5246
smililar,5247
smoke,5248
smoker,5249
smokescreen,5250
smuggling,5251
sneaked,5252
sneer,5253
sneering,5254
snideness,5255
snippet,5256
snogging,5257
snow,5258
so,5259
soap,5260
social,5261
socialism,5262
socialist,5263
societies,5264
society,5265
sodomy,5266
soemhow,5267
soil,5268
soilders,5269
sold,5270
soldier,5271
soldiers,5272
sole,5273
solely,5274
solid,5275
solomoron,5276
solution,5277
solve,5278
solved,5279
somalia,5280
some,5281
somebody,5282
somehow,5283
someone,5284
something,5285
sometimes,5286
somewhere,5287
son,5288
sonic,5289
sons,5290
soon,5291
sooner,5292
sophistry,5293
sorry,5294
sort,5295
sorted,5296
sorts,5297
sound,5298
sounds,5299
source,5300
sources,5301
south,5302
southern,5303
sovereign,5304
soverignty,5305
soviet,5306
soviets,5307
space,5308
spaghetti,5309
spain,5310
spam,5311
spaniards,5312
spanish,5313
spartacus,5314
speak,5315
speakin,5316
speaking,5317
speaks,5318
special,5319
specialist,5320
specific,5321
specifically,5322
spectating,5323
spectators,5324
speculations,5325
speech,5326
speed,5327
spell,5328
spelling,5329
spend,5330
spending,5331
spends,5332
spent,5333
spew,5334
spider,5335
spiked,5336
spin,5337
spinmeisters,5338
spirit,5339
spit,5340
splendid,5341
spoke,5342
spoken,5343
spokeswoman,5344
sponsors,5345
sport,5346
sportsfield,5347
spot,5348
spots,5349
spout,5350
spouts,5351
spray,5352
sprayed,5353
sprays,5354
spread,5355
spreading,5356
spree,5357
springs,5358
squad,5359
squandered,5360
square,5361
sri,5362
stabbing,5363
stability,5364
stable,5365
staff,5366
staffed,5367
stage,5368
stagnant,5369
stake,5370
stalin,5371
stalinist,5372
stamina,5373
stamp,5374
stance,5375
stand,5376
standard,5377
standards,5378
standing,5379
stands,5380
starbucks,5381
stare,5382
stares,5383
stark,5384
start,5385
started,5386
starters,5387
starting,5388
starts,5389
starvation,5390
starved,5391
starving,5392
starwars,5393
state,5394
stated,5395
statehood,5396
statement,5397
statements,5398
states,5399
station,5400
stats,5401
stay,5402
steadily,5403
steal,5404
stella,5405
step,5406
sticking,5407
still,5408
stir,5409
stlins,5410
stock,5411
stockpile,5412
stocks,5413
stole,5414
stolen,5415
stomachs,5416
stone,5417
stones,5418
stop,5419
stopped,5420
stopping,5421
stops,5422
stor,5423
store,5424
stores,5425
stories,5426
storm,5427
story,5428
straight,5429
straightforward,5430
strand,5431
strangely,5432
stranger,5433
strategic,5434
stratosphere,5435
straw,5436
strawman,5437
straws,5438
street,5439
streets,5440
strenegh,5441
strengh,5442
strength,5443
stresses,5444
stressful,5445
stretcher,5446
stretchers,5447
strike,5448
strikes,5449
strip,5450
stripping,5451
strong,5452
strongly,5453
struck,5454
structures,5455
stuart,5456
stub,5457
stuck,5458
stucked,5459
students,5460
studies,5461
study,5462
studying,5463
stuff,5464
stupid,5465
stupidity,5466
style,5467
sub,5468
subject,5469
subjective,5470
subjects,5471
subjugated,5472
subliminally,5473
submit,5474
submitted,5475
subsequent,5476
subsidies,5477
substance,5478
substantial,5479
substantive,5480
subtly,5481
subvert,5482
succeed,5483
succeeding,5484
succesfull,5485
success,5486
successes,5487
such,5488
sucide,5489
sucks,5490
sudan,5491
sudden,5492
suddenly,5493
suffer,5494
suffered,5495
suffering,5496
suggest,5497
suggested,5498
suggesting,5499
suggests,5500
suicide,5501
suicides,5502
suit,5503
suitable,5504
suits,5505
sultan,5506
sum,5507
sumatra,5508
sunlight,5509
sunnis,5510
superiority,5511
supplied,5512
supply,5513
supplying,5514
support,5515
supported,5516
supporter,5517
supporters,5518
supporting,5519
supports,5520
suppose,5521
supposed,5522
suppress,5523
supress,5524
supressor,5525
suprised,5526
suprises,5527
surbiton,5528
sure,5529
surely,5530
surpirse,5531
surpress,5532
surprise,5533
surprised,5534
surprising,5535
surrender,5536
surrounded,5537
surrounding,5538
surveillance,5539
surveys,5540
survival,5541
survive,5542
survived,5543
survivors,5544
suspect,5545
suspects,5546
suspense,5547
suspicious,5548
sustained,5549
sustaining,5550
suv,5551
swam,5552
swearing,5553
sweet,5554
sweets,5555
swim,5556
swimmer,5557
swimming,5558
swimsuit,5559
swimsuits,5560
swinger,5561
swings,5562
switched,5563
sword,5564
sy,5565
symbolic,5566
symbolism,5567
symbols,5568
sympathetic,5569
sympathiser,5570
sympathize,5571
sympathy,5572
synagogue,5573
syria,5574
syrian,5575
system,5576
systematically,5577
systems,5578
ta,5579
table,5580
tablets,5581
tack,5582
tactic,5583
taheri,5584
taht,5585
tailor,5586
take,5587
taken,5588
takeover,5589
takes,5590
taking,5591
taleban,5592
talent,5593
taliban,5594
talk,5595
talking,5596
talks,5597
talmud,5598
talmudist,5599
tanja,5600
tanks,5601
tantrums,5602
tao,5603
tapes,5604
taps,5605
target,5606
targeted,5607
targets,5608
targetted,5609
targetting,5610
tariff,5611
tariffs,5612
taste,5613
tatty,5614
taught,5615
tautological,5616
tax,5617
taxation,5618
taxes,5619
tb,5620
teach,5621
teacher,5622
teachers,5623
teaches,5624
teaching,5625
team,5626
teamed,5627
tear,5628
tearing,5629
tears,5630
technically,5631
techniques,5632
technology,5633
tedious,5634
teens,5635
teh,5636
tel,5637
telegrams,5638
telephone,5639
television,5640
tell,5641
telling,5642
tells,5643
temper,5644
temples,5645
tenants,5646
tender,5647
tends,5648
tenet,5649
tenets,5650
tens,5651
tensions,5652
tenuous,5653
teresa,5654
term,5655
terms,5656
terrible,5657
terrifying,5658
territories,5659
territory,5660
territroies,5661
terroism,5662
terror,5663
terrorised,5664
terrorism,5665
terrorist,5666
terrorists,5667
tessa,5668
test,5669
testified,5670
teven,5671
textbook,5672
textbooks,5673
th,5674
thailand,5675
than,5676
thank,5677
thanked,5678
thankful,5679
thanks,5680
thanx,5681
that,5682
thatcher,5683
thats,5684
the,5685
theatrics,5686
theforevermanparsedonedigit,5687
their,5688
them,5689
theme,5690
themeselves,5691
themselves,5692
then,5693
theocracy,5694
theoretical,5695
theories,5696
theory,5697
there,5698
thereby,5699
therefore,5700
therein,5701
theres,5702
these,5703
they,5704
thier,5705
thin,5706
thing,5707
thingie,5708
things,5709
think,5710
thinking,5711
thinks,5712
thinly,5713
third,5714
this,5715
tho,5716
thompson,5717
thoroughly,5718
those,5719
though,5720
thought,5721
thoughts,5722
thousand,5723
thousands,5724
thread,5725
threads,5726
threadstarter,5727
threat,5728
threatened,5729
threatening,5730
threats,5731
three,5732
threive,5733
through,5734
throughout,5735
throwing,5736
thrown,5737
thu,5738
thus,5739
thwarted,5740
tibet,5741
tibetan,5742
tidal,5743
tie,5744
tied,5745
ties,5746
tight,5747
tighten,5748
time,5749
times,5750
timesdispatch,5751
timewatch,5752
timor,5753
tiny,5754
tip,5755
tips,5756
tired,5757
title,5758
tko,5759
tnt,5760
to,5761
today,5762
todays,5763
toddy,5764
toe,5765
toed,5766
together,5767
tolarance,5768
told,5769
tolearance,5770
tolen,5771
tolerance,5772
tolerated,5773
toll,5774
tollerance,5775
tom,5776
tome,5777
tone,5778
tongue,5779
tonka,5780
tonker,5781
tony,5782
tonysilver,5783
too,5784
took,5785
tools,5786
top,5787
topic,5788
topless,5789
toronto,5790
torpor,5791
torture,5792
toss,5793
total,5794
totally,5795
touches,5796
touching,5797
tough,5798
tourism,5799
tours,5800
toward,5801
towards,5802
tower,5803
towering,5804
towns,5805
toxic,5806
toyhon,5807
traceable,5808
traces,5809
track,5810
trade,5811
traded,5812
traders,5813
tradition,5814
traditional,5815
trafalgar,5816
traffic,5817
tragedy,5818
tragic,5819
training,5820
transatlantic,5821
transcript,5822
transcripts,5823
transistor,5824
translation,5825
transparent,5826
transplanted,5827
transport,5828
transporter,5829
trap,5830
trash,5831
trashed,5832
travel,5833
travelgalparsedthreedigits,5834
travelled,5835
travelling,5836
treachery,5837
treason,5838
treat,5839
treated,5840
treaties,5841
treatment,5842
treatments,5843
treaty,5844
tree,5845
trembles,5846
tremendous,5847
trial,5848
trials,5849
tribes,5850
tribesmen,5851
tribunal,5852
trick,5853
tricks,5854
tried,5855
tripe,5856
triple,5857
trite,5858
trolls,5859
troop,5860
troops,5861
trouble,5862
trousers,5863
truce,5864
truck,5865
true,5866
truly,5867
truman,5868
trust,5869
truth,5870
try,5871
trying,5872
tsarion,5873
tsunami,5874
tubes,5875
tuesday,5876
tunes,5877
turk,5878
turkey,5879
turkish,5880
turmoil,5881
turn,5882
turned,5883
turning,5884
turns,5885
tv,5886
twin,5887
twist,5888
twisted,5889
twisting,5890
two,5891
twofold,5892
type,5893
typed,5894
types,5895
typical,5896
typo,5897
ubergunner,5898
uder,5899
uganda,5900
ugandan,5901
ugg,5902
ugly,5903
uk,5904
ukraine,5905
ukrainian,5906
ulpan,5907
ulster,5908
umproviked,5909
un,5910
unabashed,5911
unable,5912
unacceptable,5913
unanimous,5914
unarmed,5915
unbalanced,5916
unbearable,5917
unbelievable,5918
uncivilised,5919
uncle,5920
unclear,5921
uncomfortable,5922
unconscionable,5923
unconventional,5924
undemocratic,5925
undeniably,5926
under,5927
underlying,5928
undermine,5929
undermines,5930
undermining,5931
understand,5932
understanding,5933
understands,5934
undesired,5935
undeterred,5936
undoubtedly,5937
unecessary,5938
unemployment,5939
uneven,5940
unfair,5941
unfettered,5942
unfold,5943
unfortunate,5944
unfortunately,5945
unfortunatley,5946
unhappy,5947
unholy,5948
uni,5949
uninformed,5950
uninterupted,5951
union,5952
unionists,5953
unit,5954
united,5955
universal,5956
universe,5957
universities,5958
university,5959
unjustifiable,5960
unless,5961
unlike,5962
unlikeable,5963
unlikely,5964
unnamed,5965
unneccessary,5966
unnecessary,5967
unorthodox,5968
unpopulated,5969
unproven,5970
unrealistic,5971
unreliable,5972
unreported,5973
unspeakable,5974
unsubstantiated,5975
unsuccessful,5976
unsuitable,5977
until,5978
unto,5979
untrustworthy,5980
unwholesome,5981
up,5982
upcoming,5983
uphold,5984
upon,5985
uprooting,5986
upset,5987
upside,5988
upstarts,5989
upyerpipe,5990
uranium,5991
urban,5992
urgent,5993
us,5994
usa,5995
usage,5996
usapears,5997
use,5998
used,5999
useful,6000
useless,6001
username,6002
uses,6003
using,6004
usual,6005
usually,6006
usuing,6007
utilitarian,6008
utopia,6009
utter,6010
utterly,6011
vacancies,6012
vacation,6013
vagant,6014
valid,6015
valise,6016
valuable,6017
value,6018
valued,6019
vanunu,6020
variability,6021
various,6022
vast,6023
vatican,6024
vc,6025
ve,6026
vehemently,6027
vehicles,6028
veiled,6029
venetians,6030
venezuala,6031
venezuela,6032
venezuelan,6033
venezuelans,6034
vent,6035
venture,6036
veracity,6037
verb,6038
verbal,6039
verge,6040
verifying,6041
versa,6042
verse,6043
versed,6044
version,6045
very,6046
vested,6047
vestige,6048
vests,6049
veto,6050
vexing,6051
via,6052
vice,6053
vicious,6054
victim,6055
victimhood,6056
victims,6057
victorian,6058
victories,6059
victory,6060
video,6061
videos,6062
vietnam,6063
view,6064
viewpoint,6065
viewpoints,6066
views,6067
vile,6068
violate,6069
violating,6070
violation,6071
violence,6072
violent,6073
virgins,6074
virtualisation,6075
virulently,6076
vis,6077
visible,6078
visit,6079
visited,6080
visitors,6081
vitamin,6082
vitriolic,6083
viva,6084
viz,6085
vocal,6086
voice,6087
volunteering,6088
vomit,6089
vote,6090
voted,6091
voters,6092
votes,6093
vs,6094
vulgar,6095
vultures,6096
vw,6097
wacko,6098
waggy,6099
wahhabist,6100
wail,6101
wailing,6102
wait,6103
waited,6104
waiting,6105
wake,6106
wales,6107
walk,6108
wall,6109
walled,6110
walls,6111
walnuts,6112
wander,6113
wandering,6114
wanna,6115
want,6116
wanted,6117
wants,6118
war,6119
warden,6120
warents,6121
warfare,6122
warmest,6123
warming,6124
warmonger,6125
warned,6126
warped,6127
warrant,6128
warrants,6129
warrnet,6130
wars,6131
was,6132
washington,6133
wasn,6134
wasnt,6135
waste,6136
watch,6137
watches,6138
watching,6139
watchout,6140
water,6141
waters,6142
wave,6143
waves,6144
waving,6145
way,6146
wayne,6147
ways,6148
wayward,6149
wb,6150
wbos,6151
we,6152
weak,6153
weakened,6154
weakens,6155
weakness,6156
wealthy,6157
weapon,6158
weaponry,6159
weapons,6160
wear,6161
wearing,6162
weather,6163
weave,6164
web,6165
weblog,6166
website,6167
websites,6168
wednesday,6169
wee,6170
weed,6171
week,6172
weekend,6173
weeks,6174
weep,6175
weight,6176
weird,6177
weirdos,6178
welcome,6179
well,6180
weltanschauung,6181
wendy,6182
wendyisms,6183
wendyman,6184
wendymann,6185
went,6186
wepaons,6187
were,6188
weren,6189
werent,6190
west,6191
western,6192
wests,6193
westward,6194
wether,6195
wets,6196
what,6197
whatever,6198
whats,6199
whatsoever,6200
wheedling,6201
wheezing,6202
when,6203
whenever,6204
where,6205
whereas,6206
whether,6207
which,6208
whichester,6209
while,6210
whilst,6211
whinger,6212
whining,6213
whip,6214
whisky,6215
white,6216
whites,6217
whitey,6218
who,6219
whoda,6220
whole,6221
wholy,6222
whom,6223
whoops,6224
whose,6225
why,6226
wide,6227
widely,6228
wider,6229
widespread,6230
widow,6231
wiener,6232
wik,6233
wikipedia,6234
will,6235
william,6236
willing,6237
willingly,6238
willingness,6239
win,6240
wing,6241
wingers,6242
wings,6243
winners,6244
winning,6245
wioth,6246
wiped,6247
wish,6248
wishes,6249
with,6250
witha,6251
withdraw,6252
withdrawing,6253
withdrawn,6254
withdrawned,6255
withhold,6256
within,6257
without,6258
withref,6259
witness,6260
witnessed,6261
witnesses,6262
witty,6263
wmd,6264
wolfowitz,6265
woman,6266
women,6267
won,6268
wonder,6269
wondered,6270
wonderful,6271
wonderfully,6272
wonderign,6273
wondering,6274
wonders,6275
wont,6276
wooden,6277
woolsey,6278
woolwich,6279
word,6280
worded,6281
words,6282
wore,6283
work,6284
worked,6285
worker,6286
workers,6287
workforce,6288
working,6289
works,6290
workshops,6291
world,6292
worlds,6293
worldwide,6294
worms,6295
worry,6296
worse,6297
worst,6298
worth,6299
worthy,6300
would,6301
wouldn,6302
wouldnt,6303
wounded,6304
wow,6305
wp,6306
wragg,6307
wraggers,6308
wriggle,6309
write,6310
writes,6311
writing,6312
written,6313
wrong,6314
wrongdoing,6315
wrote,6316
wsj,6317
wtc,6318
wto,6319
wums,6320
wwii,6321
wwparsedonedigit,6322
www,6323
xavier,6324
ya,6325
yank,6326
yanks,6327
yard,6328
yawn,6329
yea,6330
yeah,6331
year,6332
yearly,6333
years,6334
yeeessssssss,6335
yeh,6336
yehudi,6337
yellow,6338
yep,6339
yes,6340
yesterday,6341
yet,6342
yield,6343
yields,6344
yoav,6345
yoke,6346
york,6347
yorker,6348
yossarian,6349
you,6350
young,6351
younger,6352
youngster,6353
your,6354
yours,6355
yourself,6356
yourselves,6357
yout,6358
youth,6359
yrs,6360
yummy,6361
yup,6362
yvonne,6363
zabak,6364
zalmay,6365
zarqawi,6366
zebra,6367
zebras,6368
zeldalicious,6369
zero,6370
zi,6371
zimbabwe,6372
zionism,6373
zionist,6374
zionists,6375
zone,6376
zones,6377
