_never_,0
abc,1
ability,2
able,3
abroad,4
absence,5
absent,6
absentee,7
abslutely,8
absolutely,9
accent,10
access,11
accidentally,12
accommodating,13
accomplishments,14
according,15
account,16
accountable,17
accurate,18
accurately,19
accusations,20
accusing,21
acknowleding,22
acquired,23
act,24
acting,25
action,26
actions,27
acts,28
actually,29
ad,30
add,31
address,32
addressing,33
administration,34
admit,35
admits,36
admitted,37
admitting,38
admittnig,39
ads,40
adult,41
advantages,42
adversary,43
advisers,44
advisor,45
afashionista,46
affairs,47
affiliation,48
afford,49
affordable,50
afgan,51
afganistan,52
afghan,53
afghanis,54
afghanistan,55
afraid,56
africa,57
african,58
ag,59
age,60
agencies,61
ago,62
agore,63
agree,64
agreed,65
agreeing,66
agreements,67
agrees,68
ah,69
ahahah,70
ahead,71
ahgparsedonedigit,72
ahmadinejad,73
ahmen,74
ahole,75
aid,76
ain,77
aint,78
air,79
airlines,80
airport,81
aisle,82
ajaxy,83
aka,84
akmujinadad,85
al,86
alanbenson,87
alexashrugged,88
alien,89
alienating,90
aligning,91
alindseyparsedonedigit,92
alive,93
alley,94
allies,95
allow,96
allowed,97
alpha,98
alphabet,99
alquaeda,100
alright,101
alt,102
alternative,103
alternatives,104
amazing,105
ambitions,106
amen,107
amercian,108
amercians,109
america,110
american,111
americans,112
ammendment,113
amy,114
analogies,115
analogy,116
analysis,117
analyst,118
anchors,119
andrewaparsedthreedigits,120
andrewsmith,121
androids,122
anger,123
angle,124
angry,125
anihilated,126
animations,127
anklets,128
annoy,129
annoyance,130
annoying,131
anothers,132
answer,133
answered,134
answering,135
answers,136
ant,137
antagonise,138
anthem,139
anti,140
ants,141
anwynparsedtwodigits,142
anxious,143
anymore,144
anyways,145
apart,146
appalling,147
apparently,148
appeal,149
appealed,150
appear,151
appearance,152
appearances,153
applaud,154
apple,155
applies,156
appointed,157
appointments,158
appropriate,159
apt,160
areas,161
aren,162
argh,163
argument,164
arpit,165
arrested,166
arrogance,167
arrogant,168
arrrrrrggggggghhhhh,169
articulate,170
articulating,171
artist,172
arugula,173
aside,174
asides,175
ask,176
asked,177
asking,178
asks,179
ass,180
assassination,181
asserting,182
assertion,183
assertive,184
assholes,185
assured,186
atl,187
attached,188
attack,189
attacked,190
attacking,191
attacks,192
attempt,193
attempts,194
attention,195
audience,196
augh,197
avatars,198
average,199
avg,200
avoid,201
avoided,202
avoiding,203
aw,204
away,205
awesme,206
awesome,207
awful,208
awfully,209
axis,210
baaaaack,211
babies,212
babs,213
baby,214
background,215
backhanded,216
backs,217
bad,218
badly,219
bag,220
bagdad,221
bail,222
bailout,223
bald,224
ball,225
ballots,226
balls,227
bama,228
banished,229
bankrupt,230
bankruptcy,231
banks,232
bar,233
barack,234
barackobama,235
barak,236
barbarakb,237
barbaranixon,238
barely,239
barnes,240
barr,241
barrackobama,242
barrel,243
barry,244
base,245
baseball,246
based,247
basic,248
bastard,249
bastards,250
battery,251
battle,252
battled,253
beacon,254
beacuse,255
bear,256
bears,257
beat,258
beating,259
beats,260
bed,261
bedtime,262
beer,263
begala,264
begin,265
beginning,266
behave,267
belicose,268
belief,269
believe,270
believes,271
believing,272
benderparsedtwodigits,273
benefit,274
benefits,275
bennet,276
bennett,277
bent,278
berg,279
bessemerprocess,280
best,281
bet,282
betray,283
better,284
beverage,285
bevjack,286
bias,287
biased,288
biases,289
bible,290
bid,291
biden,292
big,293
bigger,294
biggest,295
bile,296
bilksters,297
billion,298
bills,299
bin,300
bingo,301
bipartisan,302
bit,303
bite,304
bitter,305
bizarre,306
bjlayland,307
bk,308
black,309
blackberry,310
blah,311
blame,312
blank,313
blast,314
bleed,315
blendahtom,316
bless,317
blind,318
blink,319
blinked,320
blinking,321
blinks,322
blinky,323
block,324
blog,325
bloggers,326
blood,327
blowing,328
blunders,329
blunt,330
bo,331
board,332
bob,333
bobama,334
body,335
bold,336
bomb,337
bombing,338
bone,339
bones,340
boo,341
boobs,342
boone,343
booo,344
booty,345
bored,346
borger,347
boring,348
born,349
borrows,350
bosses,351
bothered,352
bottle,353
bottoms,354
bought,355
boy,356
boyfriend,357
bparsedonedigit,358
bra,359
bracelet,360
bracelets,361
brains,362
brainy,363
brave,364
breads,365
break,366
breaking,367
breaks,368
brian,369
brianmcalister,370
bridge,371
brilliant,372
bring,373
bringing,374
brings,375
broadband,376
broader,377
broke,378
broken,379
brooks,380
brought,381
brown,382
brutal,383
bs,384
btw,385
buddy,386
budget,387
budgets,388
building,389
built,390
bullet,391
bully,392
bummed,393
bump,394
burn,395
burning,396
bush,397
business,398
busy,399
butt,400
buy,401
buying,402
cage,403
cain,404
cains,405
cajones,406
called,407
calling,408
callow,409
calls,410
calm,411
came,412
camera,413
camp,414
campaign,415
campaigning,416
campaigns,417
camps,418
candidate,419
candidates,420
capitalist,421
capturing,422
car,423
card,424
cards,425
care,426
cares,427
caribou,428
carolina,429
carribugbee,430
carter,431
cartoon,432
casablanca,433
castellanos,434
cat,435
catch,436
catholic,437
caught,438
cause,439
cbrn,440
cbs,441
cbsnews,442
ceanders,443
celebrity,444
cell,445
central,446
centrist,447
century,448
ceos,449
certain,450
cgritter,451
chairman,452
challenge,453
chance,454
chances,455
change,456
changed,457
changes,458
changing,459
channel,460
channels,461
chapter,462
character,463
charge,464
charity,465
charles,466
charlie,467
chase,468
chasing,469
chat,470
cheap,471
check,472
checking,473
checks,474
cheered,475
cheers,476
cheese,477
chest,478
chevy,479
chicago,480
child,481
childhood,482
children,483
china,484
chine,485
chinese,486
chip,487
chips,488
choice,489
choices,490
choose,491
chooses,492
choosing,493
chop,494
choreography,495
chosen,496
chparsedonedigitryl,497
chris,498
chrisabraham,499
christ,500
chuck,501
chuckling,502
chug,503
chump,504
cindy,505
circle,506
circles,507
cites,508
citizens,509
citizensugar,510
citymama,511
civic,512
civil,513
civilised,514
ck,515
claim,516
claiming,517
claims,518
clancy,519
clarified,520
clarifies,521
clarity,522
class,523
classical,524
cld,525
clean,526
cleaning,527
clear,528
clearly,529
cliche,530
clients,531
climate,532
clinching,533
clinging,534
clint,535
clinton,536
clip,537
close,538
closer,539
closing,540
clubs,541
clue,542
clueless,543
cmarlowparsedthreedigits,544
cnn,545
coal,546
coast,547
coattails,548
cocktail,549
cogent,550
cognitive,551
coh,552
coincidence,553
colbert,554
cold,555
collapse,556
collapsing,557
collect,558
collected,559
college,560
collinkelley,561
color,562
colorful,563
column,564
com,565
comcast,566
come,567
comeback,568
comedy,569
comes,570
coming,571
comm,572
commanded,573
comment,574
commentary,575
commentator,576
commenting,577
comments,578
commission,579
commit,580
commitee,581
commitment,582
commits,583
committed,584
committee,585
communication,586
comp,587
companies,588
compare,589
compared,590
compares,591
comparing,592
comparitive,593
competent,594
complete,595
completely,596
compliment,597
complimenting,598
comprehensive,599
compromises,600
computer,601
concealer,602
conceding,603
concept,604
conches,605
concise,606
concrete,607
condescending,608
conditions,609
condoulo,610
confident,611
confirmation,612
confirmed,613
conflict,614
confrontation,615
confusion,616
congenial,617
congeniality,618
congrats,619
connecting,620
connor,621
consensus,622
conservative,623
conservatives,624
consider,625
considered,626
considering,627
consistently,628
conspicuousness,629
constant,630
constantly,631
constipated,632
construction,633
constructive,634
consult,635
consumers,636
contact,637
contemporary,638
contempt,639
contentious,640
contestants,641
context,642
continually,643
continues,644
continuing,645
continuously,646
contract,647
contraction,648
contracts,649
contrary,650
contrast,651
contributing,652
control,653
convention,654
conversation,655
convinced,656
convincing,657
convincingly,658
convoluted,659
cool,660
coolest,661
cooperate,662
coos,663
copying,664
core,665
corner,666
corporate,667
corps,668
corpse,669
correct,670
correction,671
corrections,672
correctly,673
corrupt,674
cost,675
costs,676
couldn,677
count,678
counter,679
countering,680
counterpoint,681
counterproductive,682
countries,683
country,684
counts,685
coup,686
couric,687
course,688
cover,689
coverage,690
covering,691
covert,692
coward,693
cptn,694
crack,695
cracked,696
cramp,697
crap,698
crappy,699
crawl,700
crazy,701
created,702
creature,703
credd,704
credibility,705
credible,706
credit,707
crediting,708
creep,709
creepy,710
cries,711
crime,712
crimes,713
cringing,714
crisis,715
crisp,716
criss,717
crooked,718
cross,719
crown,720
cruises,721
crunch,722
crush,723
crushing,724
crutch,725
csis,726
cspan,727
cudgel,728
cue,729
cuff,730
cuparsedtwodigits,731
curlingriver,732
curreent,733
current,734
cuss,735
cut,736
cuts,737
cutting,738
cuz,739
cw,740
cycle,741
dafur,742
daily,743
dalbee,744
damn,745
dang,746
dangerous,747
danny,748
daresay,749
darfur,750
dark,751
darth,752
data,753
date,754
dates,755
david,756
davidweiner,757
day,758
days,759
dc,760
ddrparsedonedigit,761
dead,762
deaf,763
deal,764
dealing,765
dear,766
death,767
debate,768
debated,769
debateokparsedtwodigits,770
debateparsedtwodigits,771
debater,772
debates,773
debatesparsedtwodigits,774
debatetweets,775
debating,776
debt,777
debte,778
decades,779
deception,780
decide,781
decided,782
decision,783
decisions,784
decisive,785
declare,786
decline,787
declined,788
decrease,789
decreasing,790
dee,791
deeper,792
def,793
defeat,794
defence,795
defends,796
defense,797
defensive,798
define,799
defined,800
defining,801
definitely,802
definition,803
deja,804
delay,805
delta,806
dem,807
demanded,808
demanding,809
demean,810
democracies,811
democracy,812
democrat,813
democratic,814
democrats,815
demographic,816
dems,817
dentures,818
deny,819
depends,820
depresing,821
depressed,822
depression,823
depth,824
deregulation,825
description,826
desire,827
desperate,828
despicable,829
destroying,830
destruct,831
detailed,832
details,833
determines,834
diaper,835
diarrhea,836
dibating,837
dick,838
dictator,839
did,840
didn,841
didnt,842
die,843
diebold,844
dies,845
diff,846
difference,847
differences,848
different,849
differentiating,850
difficult,851
dig,852
dignity,853
dinging,854
dingle,855
dinner,856
diplomacy,857
dir,858
dire,859
direct,860
direction,861
directly,862
directness,863
directors,864
dirt,865
dis,866
disabled,867
disagree,868
disagreement,869
disappear,870
disappointed,871
disappointing,872
disavian,873
discuss,874
discussion,875
discussions,876
disdain,877
disease,878
disgrace,879
disheartening,880
dishonor,881
dismissive,882
dismissiveness,883
disputed,884
disrespect,885
disrespectful,886
disrespecting,887
dissing,888
dissonance,889
distinctions,890
disturbed,891
diversions,892
divesnob,893
divided,894
divides,895
dizzy,896
dksnyder,897
dna,898
dno,899
doakes,900
doc,901
docmara,902
doctor,903
doctrine,904
dodging,905
does,906
doesn,907
doesnt,908
dogcatcher,909
doing,910
dollars,911
domestic,912
dominate,913
dominated,914
dominating,915
dominickevans,916
don,917
dont,918
door,919
doorley,920
dor,921
dorkus,922
dose,923
dosing,924
doubt,925
doubtful,926
douchebag,927
downsokc,928
downtalking,929
dr,930
draw,931
dream,932
dreams,933
dreck,934
dredging,935
dress,936
drilling,937
drills,938
drink,939
drinking,940
drives,941
driving,942
drones,943
droolfest,944
dropped,945
dropping,946
drops,947
drthomasho,948
drudge,949
drugs,950
drunk,951
drunnells,952
dubya,953
dude,954
duds,955
dull,956
dumb,957
dummy,958
dumping,959
dunked,960
dusty,961
dutch,962
duty,963
dvr,964
dweeb,965
dying,966
early,967
earmark,968
earmarks,969
earn,970
ears,971
earth,972
easiest,973
easily,974
east,975
eastasia,976
eastern,977
easy,978
eat,979
eaten,980
eating,981
economic,982
economy,983
ed,984
edge,985
edgeparsedtwodigits,986
editorial,987
educated,988
education,989
effect,990
effective,991
effing,992
efforts,993
egghead,994
ego,995
eh,996
elaineschoch,997
elder,998
elect,999
electd,1000
elected,1001
electing,1002
election,1003
electionparsedfourdigits,1004
electionparsedtwodigits,1005
electrical,1006
electricity,1007
eligible,1008
eliminating,1009
elitist,1010
eloquent,1011
em,1012
emailers,1013
embarassing,1014
emilychang,1015
emotion,1016
emotional,1017
emotive,1018
emphasis,1019
emphasize,1020
emphasizing,1021
empire,1022
emptively,1023
encourage,1024
end,1025
ending,1026
ends,1027
endtherobocalls,1028
enemies,1029
energy,1030
engage,1031
engaged,1032
enjoy,1033
enjoyed,1034
enjoying,1035
enlisted,1036
ennui,1037
enormously,1038
enslave,1039
entails,1040
entertaining,1041
entire,1042
entitlement,1043
environmental,1044
epic,1045
episode,1046
equating,1047
err,1048
ers,1049
escrow,1050
esonnenberg,1051
esoteric,1052
esp,1053
especially,1054
essential,1055
ethanol,1056
etherkiller,1057
eugene,1058
evading,1059
evening,1060
eventually,1061
everone,1062
everybody,1063
everytime,1064
evidence,1065
evil,1066
evolver,1067
exactly,1068
examine,1069
examples,1070
exceeed,1071
excellent,1072
exceptionalism,1073
excessive,1074
exciting,1075
existential,1076
existentialism,1077
exits,1078
exp,1079
expect,1080
expectations,1081
expected,1082
expense,1083
expensive,1084
experience,1085
experienced,1086
expert,1087
expertise,1088
experts,1089
explain,1090
explained,1091
explaining,1092
explore,1093
export,1094
exporter,1095
expounding,1096
expressing,1097
exprience,1098
extraction,1099
eye,1100
eyeblinking,1101
eyemakeup,1102
eyes,1103
eyetv,1104
face,1105
facebook,1106
fact,1107
factcheck,1108
factchecker,1109
factoryjoe,1110
facts,1111
fail,1112
failed,1113
failing,1114
failure,1115
fair,1116
fairly,1117
fake,1118
fakejohnmccain,1119
fakeness,1120
fakeobama,1121
fakeobamaparsedtwodigits,1122
fall,1123
falling,1124
false,1125
family,1126
fan,1127
far,1128
fare,1129
fashion,1130
fast,1131
faster,1132
fatal,1133
father,1134
faults,1135
faux,1136
fav,1137
favor,1138
favored,1139
fear,1140
fearmongering,1141
fears,1142
feathers,1143
fed,1144
federal,1145
feeble,1146
feed,1147
feedback,1148
feel,1149
feeling,1150
feels,1151
fell,1152
fellas,1153
felon,1154
fest,1155
festooned,1156
fiasco,1157
fibber,1158
fight,1159
fighters,1160
fighting,1161
figure,1162
filled,1163
final,1164
finally,1165
finance,1166
financial,1167
finds,1168
finger,1169
finish,1170
finished,1171
fired,1172
firefly,1173
fireside,1174
fiscal,1175
fiscally,1176
fist,1177
fit,1178
fix,1179
fixed,1180
flag,1181
flap,1182
flare,1183
flat,1184
flatline,1185
fletch,1186
flexibility,1187
flip,1188
floating,1189
floor,1190
flop,1191
flopped,1192
flowing,1193
flucked,1194
flustered,1195
fo,1196
focus,1197
focused,1198
focusing,1199
followed,1200
follower,1201
followers,1202
following,1203
fool,1204
fools,1205
foot,1206
footage,1207
forceful,1208
foreign,1209
foresight,1210
forever,1211
forever_trust,1212
forget,1213
foriegn,1214
format,1215
forth,1216
fortran,1217
forward,1218
fought,1219
fox,1220
foxnews,1221
fp,1222
fr,1223
framework,1224
frankly,1225
freaked,1226
freakin,1227
fred,1228
free,1229
freedom,1230
freeulysses,1231
freeze,1232
french,1233
frequent,1234
friday,1235
friend,1236
friends,1237
frm,1238
fruck,1239
frucked,1240
frustrating,1241
ftw,1242
fuck,1243
fucked,1244
fucking,1245
fuel,1246
fuelled,1247
fun,1248
function,1249
functionally,1250
fund,1251
fundamental,1252
fundamentalists,1253
fundamentally,1254
fundamentals,1255
funded,1256
funding,1257
funds,1258
funnier,1259
funny,1260
future,1261
fuzzy,1262
gaaaaaaah,1263
gaffe,1264
gained,1265
game,1266
garbage,1267
garrett,1268
gas,1269
gasbaggery,1270
gasp,1271
gave,1272
gazillion,1273
gd,1274
geas,1275
gee,1276
gen,1277
general,1278
generic,1279
genocide,1280
gent,1281
gentleman,1282
gentlemen,1283
gently,1284
georgia,1285
georgian,1286
geppetto,1287
gergen,1288
germany,1289
gesteves,1290
gets,1291
getting,1292
gi,1293
gibbs,1294
gibson,1295
gimme,1296
giuliani,1297
given,1298
gives,1299
giving,1300
glad,1301
glass,1302
global,1303
globalized,1304
globe,1305
gloreebeparsedtwodigits,1306
gloria,1307
glover,1308
glowing,1309
glueandglitter,1310
gmilf,1311
gminks,1312
gnimsh,1313
goc,1314
god,1315
godawful,1316
goes,1317
goin,1318
going,1319
golden,1320
golly,1321
gone,1322
gonna,1323
good,1324
goodbye,1325
goodnight,1326
google,1327
gop,1328
gorbatschow,1329
gore,1330
got,1331
gotta,1332
gov,1333
govern,1334
government,1335
govt,1336
grab,1337
graciously,1338
grad,1339
grades,1340
graduate,1341
graham,1342
gramps,1343
grampy,1344
grandpa,1345
granularity,1346
graph,1347
gray,1348
great,1349
greatest,1350
greed,1351
greenburg,1352
gremlin,1353
grid,1354
grieving,1355
grin,1356
grinning,1357
ground,1358
grow,1359
growing,1360
growth,1361
grpress,1362
grumpy,1363
guantanamo,1364
guarantee,1365
guard,1366
guess,1367
guessing,1368
guiliani,1369
guillliani,1370
guilty,1371
guliani,1372
gurgen,1373
guy,1374
guys,1375
gving,1376
gwb,1377
gwot,1378
ha,1379
haaaa,1380
hack,1381
hackparsedtwodigits,1382
hadn,1383
hah,1384
haha,1385
hahahah,1386
half,1387
hallelujah,1388
hammered,1389
hammering,1390
hand,1391
handle,1392
handled,1393
handling,1394
handouts,1395
hands,1396
handshake,1397
hang,1398
hangin,1399
happen,1400
happened,1401
happening,1402
happens,1403
happy,1404
harbor,1405
hard,1406
harder,1407
hardest,1408
hardly,1409
harm,1410
harping,1411
harsh,1412
harvard,1413
harverd,1414
hasn,1415
haste,1416
hatchet,1417
hatchett,1418
hate,1419
hates,1420
hating,1421
hats,1422
haunt,1423
haven,1424
having,1425
hawky,1426
hd,1427
hdtv,1428
head,1429
headache,1430
headed,1431
headon,1432
heads,1433
heal,1434
health,1435
healthcare,1436
hear,1437
heard,1438
hearing,1439
hears,1440
heart,1441
heartstring,1442
heartstrings,1443
heat,1444
heck,1445
heh,1446
height,1447
heights,1448
held,1449
hell,1450
help,1451
helped,1452
helping,1453
henry,1454
heres,1455
heritage,1456
hero,1457
heroes,1458
hes,1459
hesitation,1460
hexed,1461
hey,1462
hi,1463
hide,1464
hiding,1465
higgins,1466
high,1467
highest,1468
highway,1469
hilarious,1470
hillary,1471
hippie,1472
historical,1473
history,1474
hit,1475
hitler,1476
hmm,1477
hmmmm,1478
hnoftall,1479
hogging,1480
hold,1481
holding,1482
holds,1483
hole,1484
holes,1485
holocaust,1486
holy,1487
home,1488
homefront,1489
homeland,1490
homework,1491
honest,1492
honestly,1493
honor,1494
honoring,1495
honorless,1496
hook,1497
hoot,1498
hope,1499
hopefully,1500
hoping,1501
hornets,1502
horrible,1503
horse,1504
hot,1505
hothead,1506
hotly,1507
hour,1508
hours,1509
house,1510
houses,1511
housing,1512
howard,1513
hrc,1514
http,1515
huge,1516
hugs,1517
huh,1518
human,1519
humor,1520
humorous,1521
hunting,1522
hurt,1523
husband,1524
hyping,1525
hypocrisy,1526
ia,1527
ice,1528
idea,1529
idealistic,1530
ideas,1531
identifying,1532
ideological,1533
ideology,1534
idiot,1535
idiots,1536
ieds,1537
ignorance,1538
ignorant,1539
ignore,1540
ignoring,1541
ii,1542
ikr,1543
illusion,1544
im,1545
image,1546
imagine,1547
imarilove,1548
imed,1549
imo,1550
impacts,1551
impartially,1552
impeach,1553
implode,1554
imploding,1555
import,1556
importance,1557
important,1558
impose,1559
impossible,1560
impressed,1561
impressions,1562
impressive,1563
improper,1564
incapable,1565
included,1566
includes,1567
including,1568
income,1569
incompetence,1570
increases,1571
incursions,1572
ind,1573
indep,1574
indepedence,1575
independence,1576
independent,1577
independents,1578
indirectly,1579
individual,1580
inducing,1581
industrious,1582
industry,1583
inefficiency,1584
inevitable,1585
infants,1586
infinitelymeta,1587
inflation,1588
inflexible,1589
info,1590
infomania,1591
informal,1592
information,1593
infrastructure,1594
initial,1595
initially,1596
initials,1597
inner,1598
inserting,1599
inside,1600
insistence,1601
insisting,1602
inspired,1603
instance,1604
instead,1605
insult,1606
insulting,1607
insurance,1608
int,1609
intelligence,1610
intelligent,1611
intelligently,1612
intense,1613
interact,1614
interested,1615
interesting,1616
interests,1617
international,1618
internationally,1619
interrogation,1620
interromption,1621
interrupt,1622
interrupted,1623
interrupting,1624
interruptions,1625
interrupts,1626
interventions,1627
interview,1628
interviews,1629
intimidated,1630
introducing,1631
invade,1632
invading,1633
invasion,1634
invest,1635
investigations,1636
invite,1637
invited,1638
invoke,1639
involved,1640
ious,1641
iphone,1642
iran,1643
iranians,1644
iraq,1645
iraqis,1646
iraquis,1647
irish,1648
iron,1649
irony,1650
irrational,1651
irrelevant,1652
island,1653
isn,1654
isnt,1655
israel,1656
israelpattison,1657
isreal,1658
issue,1659
issues,1660
ita,1661
italian,1662
italy,1663
itchy,1664
item,1665
items,1666
ites,1667
itineraries,1668
ive,1669
jacka,1670
jackass,1671
jackson,1672
jail,1673
jalenjade,1674
janoss,1675
janosschumacher,1676
jaws,1677
jaymesiemer,1678
jennings,1679
jerk,1680
jerks,1681
jerry,1682
jesus,1683
jill,1684
jim,1685
jk,1686
jm,1687
jmccain,1688
job,1689
joberdorf,1690
jock,1691
joe,1692
john,1693
johnmccain,1694
johnny,1695
johnnys,1696
join,1697
joke,1698
jokes,1699
joking,1700
jottit,1701
jowyang,1702
jpippert,1703
jpmicek,1704
judgement,1705
judgment,1706
judgmt,1707
jugular,1708
juice,1709
juliani,1710
jump,1711
jumping,1712
just,1713
justified,1714
justingunn,1715
karate,1716
kassifan,1717
kathrynjones,1718
katiefavazza,1719
kcrusher,1720
kctrey,1721
keating,1722
keatingparsedonedigit,1723
keeping,1724
keeps,1725
keith,1726
kellyrenee,1727
kenbooth,1728
kenndey,1729
kennedy,1730
kenya,1731
kept,1732
kerry,1733
kettle,1734
kevinbinversie,1735
key,1736
kgb,1737
kicked,1738
kicking,1739
kid,1740
kidding,1741
kids,1742
kiilin,1743
kill,1744
killed,1745
killer,1746
killing,1747
kind,1748
kinda,1749
kissenger,1750
kisses,1751
kissing,1752
kissinger,1753
kitchen,1754
klingon,1755
knees,1756
knew,1757
knocked,1758
know,1759
knowing,1760
knowledge,1761
knowledgeable,1762
known,1763
knows,1764
korea,1765
koreans,1766
korym,1767
kramsey,1768
krississippi,1769
kudos,1770
lack,1771
lacked,1772
lacking,1773
laden,1774
ladin,1775
lame,1776
landing,1777
landslide,1778
lane,1779
language,1780
lapel,1781
laptop,1782
lar,1783
larison,1784
late,1785
lately,1786
later,1787
latest,1788
laugh,1789
laughable,1790
laughing,1791
laughterkey,1792
law,1793
lawn,1794
laying,1795
lazybuddhist,1796
lead,1797
leader,1798
leaders,1799
leadership,1800
leading,1801
league,1802
learn,1803
learned,1804
leave,1805
leaving,1806
lecturing,1807
leep,1808
left,1809
leg,1810
legitimize,1811
legitimizies,1812
legs,1813
leher,1814
lehrer,1815
length,1816
lerher,1817
lesson,1818
lessons,1819
let,1820
lethal,1821
lets,1822
lettig,1823
letting,1824
level,1825
leveraging,1826
lhc,1827
liable,1828
liar,1829
liberal,1830
liberty,1831
licking,1832
lie,1833
lieberman,1834
lies,1835
lieu,1836
lifestudentparsedtwodigits,1837
lifetime,1838
light,1839
likable,1840
like,1841
liked,1842
likes,1843
liking,1844
lil,1845
limited,1846
lindagoin,1847
lindsey,1848
line,1849
lines,1850
linking,1851
links,1852
lips,1853
lipstickvp,1854
lisa,1855
lisp,1856
list,1857
listen,1858
listened,1859
listening,1860
literally,1861
litterthisheart,1862
little,1863
live,1864
livechat,1865
lived,1866
lives,1867
ll,1868
lobbyist,1869
locked,1870
logic,1871
lol,1872
lols,1873
long,1874
look,1875
looked,1876
looking,1877
looks,1878
lookups,1879
loop,1880
loopholes,1881
loose,1882
looses,1883
loosing,1884
lord,1885
lose,1886
loser,1887
loses,1888
losing,1889
lost,1890
lot,1891
loud,1892
lousy,1893
love,1894
loved,1895
lover,1896
loving,1897
low,1898
lowered,1899
lucid,1900
luck,1901
lucky,1902
lumatts,1903
lurch,1904
luvs,1905
ly,1906
lying,1907
ma,1908
mac,1909
macain,1910
macartisan,1911
maccainshot,1912
machine,1913
machines,1914
mad,1915
maher,1916
mailourmilitary,1917
main,1918
mainstream,1919
mainstreet,1920
maintain,1921
major,1922
majority,1923
make,1924
makeitendnow,1925
makers,1926
makes,1927
makeup,1928
making,1929
malaise,1930
male,1931
mamalogues,1932
mamikaze,1933
man,1934
manage,1935
managed,1936
mandianajones,1937
manfactured,1938
manfacturing,1939
manipulative,1940
manners,1941
map,1942
margin,1943
mark,1944
market,1945
martinbowling,1946
marytrigiani,1947
mashing,1948
mashup,1949
mask,1950
master,1951
mat,1952
match,1953
matched,1954
mate,1955
materials,1956
math,1957
matt,1958
matter,1959
matthews,1960
matttbastard,1961
maverick,1962
maybe,1963
mc,1964
mcain,1965
mcains,1966
mcblinky,1967
mcbush,1968
mcc,1969
mccain,1970
mccaine,1971
mccainfacts,1972
mccainiacs,1973
mccains,1974
mccainshot,1975
mccainshots,1976
mccamus,1977
mcccain,1978
mclame,1979
mcpain,1980
mcpow,1981
mcsame,1982
mean,1983
meaningfully,1984
meant,1985
measured,1986
measuring,1987
media,1988
medical,1989
meds,1990
meet,1991
meeting,1992
meister,1993
mel,1994
melting,1995
membrane,1996
men,1997
mention,1998
mentioned,1999
mentioning,2000
mentions,2001
mercurymetro,2002
mess,2003
message,2004
messages,2005
met,2006
method,2007
meyers,2008
mgr,2009
mia,2010
mic,2011
michael,2012
michael_lehman,2013
michaelszeto,2014
michdot,2015
mics,2016
mid,2017
middle,2018
mikemadden,2019
milf,2020
militant,2021
military,2022
milk,2023
million,2024
milwaukee,2025
min,2026
mind,2027
minded,2028
mindlessly,2029
minds,2030
minerals,2031
minister,2032
mins,2033
minus,2034
minute,2035
minutes,2036
misanthropy,2037
miscalculated,2038
mischaracterization,2039
mischaracterizing,2040
misleading,2041
mispronounce,2042
mispronouncing,2043
misquotes,2044
misrepresentations,2045
misrepresentng,2046
miss,2047
missed,2048
missile,2049
missing,2050
mission,2051
mississippi,2052
mississippianna,2053
missle,2054
mistake,2055
mistakes,2056
misterrob,2057
mkantonelli,2058
mlive,2059
mnt,2060
mntions,2061
mo,2062
mod,2063
mode,2064
moderator,2065
moderators,2066
moire,2067
moired,2068
moldy,2069
mom,2070
moment,2071
momocrats,2072
mon,2073
money,2074
monger,2075
monitoring,2076
monotone,2077
montana,2078
moonpie,2079
moose,2080
mopped,2081
moritazul,2082
mother,2083
mountains,2084
mouth,2085
moved,2086
moving,2087
movingsideways,2088
mr,2089
ms,2090
msblog,2091
msgs,2092
msnbc,2093
mstparsedonedigitk,2094
mt,2095
muddle,2096
muddled,2097
multiple,2098
muppet,2099
muscular,2100
musharraf,2101
musharuf,2102
music,2103
myentirename,2104
naieve,2105
nailed,2106
naive,2107
namecalling,2108
names,2109
naming,2110
nanny,2111
nat,2112
nation,2113
national,2114
nations,2115
natl,2116
natural,2117
naval,2118
nbc,2119
near,2120
nearly,2121
neat,2122
necessity,2123
necklace,2124
need,2125
needed,2126
needs,2127
negative,2128
negitiatoins,2129
negotiating,2130
negotiation,2131
neighbor,2132
neighbors,2133
neil,2134
neo,2135
nerves,2136
nervous,2137
nest,2138
network,2139
new,2140
newamericancentury,2141
news,2142
newshour,2143
nh,2144
nice,2145
nicely,2146
nielsen,2147
night,2148
nightly,2149
niiice,2150
nin,2151
nixon,2152
nobamaparsedonedigitthismama,2153
nod,2154
nohype,2155
nom,2156
nominee,2157
non,2158
nonsense,2159
noooo,2160
nope,2161
normalization,2162
north,2163
northwest,2164
note,2165
noticed,2166
noticing,2167
notion,2168
noun,2169
november,2170
nprpolitics,2171
nuanced,2172
nubianvixen,2173
nuclear,2174
nukes,2175
number,2176
nurse,2177
nursing,2178
nutjob,2179
nuuuuuuu,2180
nyt,2181
obam,2182
obama,2183
obamanot,2184
obamarossa,2185
obamas,2186
obamashot,2187
obamba,2188
obamowned,2189
objective,2190
objectives,2191
obladen,2192
oblivious,2193
obscure,2194
observations,2195
observer,2196
obsessed,2197
obsessions,2198
obv,2199
obvious,2200
obviously,2201
occupation,2202
oct,2203
october,2204
oddly,2205
offended,2206
offense,2207
offensive,2208
office,2209
official,2210
officially,2211
offshore,2212
oh,2213
ohhh,2214
ohhhh,2215
oil,2216
ok,2217
okay,2218
olbermann,2219
old,2220
older,2221
oldest,2222
omaba,2223
omfg,2224
omg,2225
ones,2226
ongoing,2227
online,2228
ooh,2229
oohh,2230
oooh,2231
oooo,2232
oops,2233
open,2234
opinion,2235
opinions,2236
opponent,2237
opponents,2238
opportunity,2239
oppose,2240
opposed,2241
opposing,2242
opt,2243
orbitaldiamonds,2244
order,2245
ordianry,2246
ordinary,2247
org,2248
organization,2249
organizations,2250
orgs,2251
orgy,2252
original,2253
osagt,2254
osama,2255
osaoparsedonedigit,2256
osaqb,2257
ota,2258
ouch,2259
outcry,2260
outdebated,2261
outfit,2262
outright,2263
outsidel,2264
outsourcing,2265
outta,2266
overall,2267
overflight,2268
overload,2269
overplaying,2270
overseas,2271
oversight,2272
overwhelming,2273
owe,2274
oy,2275
pa,2276
pacific,2277
padding,2278
page,2279
pages,2280
pain,2281
paint,2282
pair,2283
pakistan,2284
pakistani,2285
paliin,2286
palin,2287
pamelalyn,2288
pamelawella,2289
pandering,2290
pants,2291
paper,2292
paperboard,2293
parachute,2294
parachutes,2295
parents,2296
parseddigits,2297
parseddigits_,2298
parseddigitspt,2299
parseddigitsst,2300
parsedfourdigits,2301
parsedfourdigitss,2302
parsedonedigit,2303
parsedonedigitb,2304
parsedonedigitcgparsedonedigit,2305
parsedonedigitchan,2306
parsedonedigitchn,2307
parsedonedigitcic,2308
parsedonedigitcparseddigitsl,2309
parsedonedigitfeparsedonedigithh,2310
parsedonedigitfrbparsedonedigitc,2311
parsedonedigitjdyparsedtwodigits,2312
parsedonedigitk,2313
parsedonedigitnd,2314
parsedonedigitpabty,2315
parsedonedigitpt,2316
parsedonedigitpts,2317
parsedonedigitqxcwr,2318
parsedonedigitrd,2319
parsedonedigitrlctd,2320
parsedonedigitst,2321
parsedonedigitt,2322
parsedonedigitvlxx,2323
parsedonedigitwparseddigitszaparsedonedigit,2324
parsedonedigitzhwparsedtwodigits,2325
parsedthreedigits,2326
parsedthreedigitsb,2327
parsedtime,2328
parsedtwodigits,2329
parsedtwodigitsb,2330
parsedtwodigitskgparsedonedigit,2331
parsedtwodigitsnparseddigitsw,2332
parsedtwodigitss,2333
parsedtwodigitsst,2334
parsedtwodigitsth,2335
participate,2336
participatory,2337
parties,2338
partisan,2339
partner,2340
partnering,2341
partners,2342
parts,2343
party,2344
pass,2345
passed,2346
passion,2347
passive,2348
past,2349
patience,2350
patraeus,2351
patrickruffini,2352
patriotism,2353
patrol,2354
patronizing,2355
paul,2356
pausing,2357
pavlicko,2358
pay,2359
pbs,2360
peace,2361
peacekeeper,2362
pedantic,2363
pedophile,2364
peeps,2365
penguins,2366
pens,2367
people,2368
peoples,2369
perceived,2370
percent,2371
perception,2372
percieved,2373
perfect,2374
performance,2375
perinandy,2376
period,2377
person,2378
personable,2379
personal,2380
personally,2381
perspective,2382
persuaded,2383
peru,2384
peter,2385
petraeus,2386
petreaus,2387
petty,2388
petulant,2389
pg,2390
philly,2391
phillyd,2392
phrase,2393
phrases,2394
pick,2395
picked,2396
pickens,2397
picking,2398
pie,2399
piece,2400
pilot,2401
pin,2402
pinned,2403
pinocchio,2404
pins,2405
pissed,2406
pissing,2407
pitiful,2408
pity,2409
pizza,2410
pjsmommy,2411
place,2412
places,2413
plan,2414
planes,2415
planet,2416
plans,2417
plant,2418
plants,2419
plastic,2420
play,2421
played,2422
playing,2423
plays,2424
pleasant,2425
pleasantly,2426
pledge,2427
pleeze,2428
plenty,2429
plotting,2430
ploys,2431
plugging,2432
plundering,2433
plus,2434
pocket,2435
podium,2436
point,2437
pointed,2438
pointing,2439
pointless,2440
points,2441
poker,2442
polar,2443
polfeeds,2444
police,2445
policies,2446
policing,2447
policy,2448
politcs,2449
polite,2450
political,2451
politically,2452
politics,2453
poll,2454
polled,2455
polling,2456
pompous,2457
poor,2458
poorly,2459
pope,2460
popular,2461
popularity,2462
population,2463
porch,2464
pork,2465
porky,2466
port,2467
position,2468
positions,2469
positive,2470
possible,2471
post,2472
postman,2473
posts,2474
pot,2475
potus,2476
pouncing,2477
pound,2478
pounding,2479
poured,2480
pow,2481
power,2482
powerful,2483
ppl,2484
practice,2485
praising,2486
praying,2487
pre,2488
preciouses,2489
precondition,2490
preconditions,2491
predator,2492
prep,2493
preparation,2494
prepare,2495
preparedness,2496
preparing,2497
prepped,2498
pres,2499
presence,2500
present,2501
presidency,2502
president,2503
presidential,2504
presidents,2505
press,2506
pretty,2507
prevented,2508
preview,2509
previous,2510
prez,2511
priceless,2512
prick,2513
pride,2514
primaries,2515
prime,2516
prior,2517
priorities,2518
priority,2519
prison,2520
prisoner,2521
prisoners,2522
pro,2523
prob,2524
probably,2525
probama,2526
problem,2527
problems,2528
problogger,2529
produce,2530
products,2531
professor,2532
professorial,2533
profit,2534
program,2535
programs,2536
progress,2537
progressive,2538
projecting,2539
promo,2540
promoting,2541
pron,2542
pronounce,2543
pronounced,2544
pronouncing,2545
pronunciation,2546
propaganda,2547
proposed,2548
prosperity,2549
protection,2550
protests,2551
proud,2552
prov,2553
prove,2554
proved,2555
proverbial,2556
provide,2557
proving,2558
prune,2559
pt,2560
pts,2561
pub,2562
public,2563
puke,2564
pulease,2565
pull,2566
pulled,2567
pulling,2568
pulse,2569
punch,2570
pundit,2571
pundits,2572
purple,2573
push,2574
pushed,2575
putin,2576
puts,2577
putting,2578
pwnd,2579
pwning,2580
qaeda,2581
quaeda,2582
qualified,2583
queda,2584
question,2585
questions,2586
quibbling,2587
quick,2588
quickly,2589
quiet,2590
quit,2591
quite,2592
quotable,2593
quote,2594
quoteable,2595
quoting,2596
race,2597
rachel,2598
racist,2599
rad,2600
radio,2601
raised,2602
raising,2603
ralphie,2604
ramble,2605
rambleing,2606
rambles,2607
rambling,2608
ran,2609
randy,2610
rapid,2611
raps,2612
rate,2613
rating,2614
ratings,2615
rcapote,2616
reach,2617
reaching,2618
reacting,2619
reaction,2620
read,2621
readers,2622
ready,2623
reagan,2624
real,2625
reality,2626
realize,2627
realized,2628
reall,2629
really,2630
reason,2631
reasons,2632
reasserting,2633
rebuttal,2634
rebutting,2635
recall,2636
recanting,2637
receives,2638
recent,2639
reception,2640
reckless,2641
recognition,2642
recognizing,2643
record,2644
recovery,2645
red,2646
reed,2647
reenlisting,2648
reference,2649
refers,2650
refine,2651
reform,2652
refreshing,2653
refund,2654
refute,2655
regained,2656
regan,2657
regard,2658
regarding,2659
regardless,2660
region,2661
register,2662
registration,2663
regret,2664
regulated,2665
regulation,2666
rehearsed,2667
reilly,2668
related,2669
relates,2670
relating,2671
relations,2672
relaxing,2673
relevancy,2674
relevant,2675
religious,2676
relocating,2677
remains,2678
remark,2679
remarks,2680
remember,2681
remembered,2682
remind,2683
reminded,2684
reminder,2685
reminds,2686
reminiscent,2687
remove,2688
removing,2689
renewable,2690
reorganization,2691
rep,2692
repeat,2693
repeated,2694
repeating,2695
rephrasing,2696
replacement,2697
report,2698
reporter,2699
reporting,2700
represent,2701
representation,2702
represented,2703
representing,2704
reps,2705
repub,2706
republican,2707
republicans,2708
repubs,2709
reputation,2710
requested,2711
rescue,2712
research,2713
reserve,2714
resist,2715
resolved,2716
resonates,2717
resources,2718
resp,2719
respect,2720
respected,2721
respectful,2722
respectfully,2723
respects,2724
respond,2725
responding,2726
response,2727
responses,2728
responsibilities,2729
responsibility,2730
responsible,2731
rest,2732
restore,2733
restoring,2734
result,2735
resumed,2736
ret,2737
retarded,2738
retire,2739
retort,2740
retroactively,2741
return,2742
returned,2743
retweet,2744
retweeting,2745
reuse,2746
revealing,2747
reverse,2748
reverting,2749
review,2750
revisionist,2751
revolutionary,2752
rewind,2753
rhetorical,2754
rich,2755
rid,2756
rides,2757
ridiculous,2758
riding,2759
right,2760
rights,2761
risk,2762
risks,2763
road,2764
roadkillrefugee,2765
robert,2766
robertbluey,2767
robinson,2768
robpierson,2769
robtornoe,2770
rock,2771
rocked,2772
rocking,2773
rocks,2774
rodgers,2775
roll,2776
rolled,2777
rolling,2778
rolls,2779
ronald,2780
room,2781
roosevelt,2782
root,2783
roots,2784
rosevelt,2785
round,2786
rove,2787
rss,2788
rt,2789
rtbmaleszyk,2790
rude,2791
rudy,2792
ruffle,2793
rufus,2794
rug,2795
rule,2796
rules,2797
run,2798
runaway,2799
runner,2800
running,2801
runs,2802
rural,2803
russia,2804
russian,2805
russians,2806
sa,2807
sack,2808
sacrifice,2809
sad,2810
sadly,2811
safe,2812
safely,2813
safer,2814
said,2815
sake,2816
saldarji,2817
salesman,2818
sameoldsame,2819
sample,2820
sanctions,2821
sappy,2822
sarah,2823
sarking,2824
saturday,2825
saw,2826
say,2827
saying,2828
says,2829
scalpel,2830
scapel,2831
scared,2832
scars,2833
scary,2834
scaryy,2835
scbalazs,2836
scheunemann,2837
schlep,2838
school,2839
schooling,2840
schtick,2841
science,2842
scientist,2843
scolding,2844
score,2845
scorecard,2846
scoring,2847
scot,2848
screen,2849
screw,2850
screwed,2851
screwing,2852
script,2853
scripted,2854
seal,2855
seals,2856
searching,2857
season,2858
seasonothebitch,2859
sec,2860
second,2861
secure,2862
security,2863
seeing,2864
seen,2865
sees,2866
selected,2867
selecting,2868
selection,2869
self,2870
sell,2871
sen,2872
senate,2873
senator,2874
send,2875
sends,2876
sense,2877
senseless,2878
sent,2879
sentence,2880
sentences,2881
separate,2882
seriously,2883
server,2884
service,2885
services,2886
set,2887
sexist,2888
sez,2889
sh,2890
shadow,2891
shake,2892
shakeup,2893
shaking,2894
shame,2895
shameful,2896
shapes,2897
sharks,2898
sharp,2899
sheesh,2900
sheess,2901
sheriff,2902
sherrif,2903
shia,2904
shine,2905
shining,2906
shirt,2907
shit,2908
shiz,2909
shocked,2910
shoes,2911
shook,2912
shoot,2913
shooting,2914
shore,2915
short,2916
shot,2917
shouldn,2918
showed,2919
showing,2920
shown,2921
shows,2922
shut,2923
sided,2924
sides,2925
sigh,2926
sight,2927
sign,2928
silent,2929
silly,2930
simple,2931
simplifying,2932
simplistic,2933
simply,2934
simpson,2935
sing,2936
single,2937
sings,2938
sir,2939
sit,2940
site,2941
sites,2942
sitting,2943
situation,2944
skeleton,2945
skin,2946
skipping,2947
skull,2948
slaaaaaammm,2949
slam,2950
slammed,2951
slamming,2952
slanted,2953
sleep,2954
sleeping,2955
slight,2956
slighted,2957
slightly,2958
slime,2959
slipped,2960
slogan,2961
slogans,2962
slow,2963
smarmy,2964
smart,2965
smarter,2966
smartly,2967
smb,2968
smearing,2969
smells,2970
smheadhunter,2971
smile,2972
smiles,2973
smiling,2974
smirk,2975
smirking,2976
smirks,2977
smoke,2978
smooth,2979
smoothest,2980
smug,2981
smugness,2982
snide,2983
snooksparsedtwodigits,2984
snore,2985
snow,2986
snuck,2987
snurl,2988
sob,2989
social,2990
society,2991
softball,2992
solar,2993
solder,2994
soldier,2995
soldiers,2996
solely,2997
soler,2998
solidified,2999
solution,3000
solutions,3001
son,3002
songbird,3003
songs,3004
soo,3005
soon,3006
sooo,3007
soooo,3008
sore,3009
sorry,3010
sort,3011
souls,3012
sound,3013
soundbite,3014
sounded,3015
sounding,3016
sounds,3017
south,3018
southern,3019
sp,3020
space,3021
spain,3022
spanparsedonedigit,3023
speak,3024
speaking,3025
speaks,3026
specific,3027
specifics,3028
speech,3029
speeches,3030
speed,3031
spend,3032
spending,3033
spends,3034
spent,3035
spew,3036
spice,3037
spin,3038
spinner,3039
spinning,3040
spoke,3041
spoken,3042
spoofs,3043
spots,3044
spouses,3045
springer,3046
spun,3047
stability,3048
stable,3049
staffer,3050
stage,3051
staged,3052
stalling,3053
stance,3054
stand,3055
standard,3056
standing,3057
stands,3058
star,3059
start,3060
started,3061
starting,3062
state,3063
statement,3064
statements,3065
states,3066
statistics,3067
status,3068
staunch,3069
stay,3070
stayed,3071
staying,3072
stealingsand,3073
step,3074
stereotype,3075
stevenbjohnson,3076
stick,3077
sticking,3078
stiff,3079
stillgray,3080
stinking,3081
stirred,3082
stole,3083
stones,3084
stonespiral,3085
stood,3086
stoopid,3087
stoops,3088
stop,3089
stopped,3090
stops,3091
storage,3092
stories,3093
storing,3094
storm,3095
story,3096
stoutware,3097
straight,3098
strained,3099
strait,3100
strategic,3101
strategies,3102
strategist,3103
strategy,3104
stray,3105
stream,3106
streaming,3107
street,3108
strength,3109
strengthened,3110
strengthens,3111
stressed,3112
stretch,3113
strikes,3114
strings,3115
strokes,3116
strong,3117
stronger,3118
strongest,3119
strongly,3120
stubborn,3121
stuck,3122
studied,3123
study,3124
stuff,3125
stumbled,3126
stumped,3127
stunt,3128
stupid,3129
stuttering,3130
style,3131
subcommittee,3132
subject,3133
subliminal,3134
subsidies,3135
substance,3136
substantive,3137
succeed,3138
succeeded,3139
success,3140
successes,3141
successful,3142
sucked,3143
sucking,3144
sucks,3145
sudden,3146
suffer,3147
suffering,3148
suffers,3149
suggest,3150
suggestion,3151
suicide,3152
suit,3153
suited,3154
sull,3155
summed,3156
sung,3157
sunk,3158
sunni,3159
sup,3160
superior,3161
superiority,3162
supes,3163
support,3164
supported,3165
supporter,3166
supporters,3167
supporting,3168
supports,3169
supposed,3170
suprised,3171
sure,3172
surely,3173
surge,3174
surprised,3175
surreal,3176
suspended,3177
suspension,3178
suticase,3179
swallow,3180
swayed,3181
sweet,3182
swift,3183
swiftfuel,3184
swiftly,3185
swipes,3186
sxephil,3187
sympathy,3188
symptom,3189
symptoms,3190
tackling,3191
taclke,3192
tactic,3193
tactics,3194
tag,3195
tags,3196
tail,3197
tails,3198
tailspin,3199
tainted,3200
taken,3201
takes,3202
taking,3203
taliban,3204
taling,3205
talk,3206
talked,3207
talking,3208
talks,3209
taller,3210
tally,3211
tangents,3212
tanner,3213
tap,3214
target,3215
tarheelcoxn,3216
task,3217
tax,3218
taxation,3219
taxdollars,3220
taxes,3221
taxing,3222
taxpayer,3223
taxpayers,3224
tayari,3225
tdefren,3226
tea,3227
teach,3228
teacher,3229
teaching,3230
team,3231
tears,3232
tech,3233
technology,3234
technosailor,3235
teen,3236
teenagers,3237
teeth,3238
telegraphic,3239
teleprompter,3240
television,3241
teling,3242
tell,3243
telling,3244
temper,3245
temporaryone,3246
tequila,3247
term,3248
terms,3249
territory,3250
terror,3251
terrorism,3252
terrorist,3253
terrorists,3254
terse,3255
test,3256
thang,3257
thank,3258
thanks,3259
thankya,3260
thats,3261
thay,3262
thedailydg,3263
theebaykparsedonedigitd,3264
theirs,3265
theme,3266
thepuck,3267
thing,3268
things,3269
think,3270
thinker,3271
thinking,3272
thinks,3273
thought,3274
thoughts,3275
thousands,3276
thread,3277
threads,3278
threat,3279
threaten,3280
threats,3281
throat,3282
throw,3283
throwing,3284
thursday,3285
thx,3286
tiak,3287
tie,3288
till,3289
time,3290
timeout,3291
times,3292
timeshifted,3293
timetable,3294
timid,3295
timing,3296
tiny,3297
tinyurl,3298
tip,3299
tired,3300
title,3301
tivo,3302
today,3303
todd,3304
toe,3305
told,3306
tolerance,3307
tom,3308
tomorrow,3309
tone,3310
tonight,3311
tonightâ,3312
took,3313
tool,3314
topic,3315
toromocho,3316
torture,3317
tortured,3318
total,3319
totally,3320
touch,3321
touching,3322
tough,3323
tougher,3324
track,3325
trade,3326
traditions,3327
trained,3328
training,3329
tranquilizer,3330
transcripts,3331
transition,3332
trap,3333
trashing,3334
travel,3335
traveler,3336
treasure,3337
treat,3338
treated,3339
treating,3340
trend,3341
trickle,3342
tricks,3343
tried,3344
tries,3345
trigger,3346
triggering,3347
trillion,3348
trip,3349
tripled,3350
trite,3351
troll,3352
troops,3353
trouble,3354
true,3355
truly,3356
trumps,3357
trust,3358
truth,3359
try,3360
trying,3361
tumbler,3362
tuned,3363
turbine,3364
turf,3365
turn,3366
turned,3367
turns,3368
tv,3369
tweet,3370
tweetdebate,3371
tweeting,3372
tweets,3373
tweetscan,3374
twennty,3375
twice,3376
twisted,3377
twit,3378
twitpic,3379
twitter,3380
twitterers,3381
twitterriffic,3382
tx,3383
ugh,3384
ughhh,3385
ugly,3386
uh,3387
uhh,3388
uhm,3389
ukrainian,3390
ultranurd,3391
um,3392
umm,3393
umph,3394
unable,3395
uncivility,3396
uncle,3397
unclear,3398
uncomfortable,3399
uncommitted,3400
unconditional,3401
undecided,3402
undecideds,3403
undergarments,3404
underminds,3405
undersatand,3406
understand,3407
understanding,3408
understands,3409
understatement,3410
uneventful,3411
unfortunately,3412
uniformed,3413
uniquely,3414
united,3415
unpleasant,3416
unreal,3417
unscripted,3418
unsettling,3419
unsustainably,3420
uppercut,3421
uppercuts,3422
ups,3423
upset,3424
ur,3425
uranium,3426
usa,3427
use,3428
used,3429
useful,3430
useless,3431
usermac,3432
username,3433
users,3434
uses,3435
using,3436
ussr,3437
ustoday,3438
ut,3439
utterly,3440
utters,3441
va,3442
vacay,3443
vader,3444
vain,3445
values,3446
variety,3447
ve,3448
veep,3449
venezuela,3450
verb,3451
verbatim,3452
version,3453
versus,3454
vertarans,3455
verterans,3456
vet,3457
veteran,3458
veterans,3459
vetoes,3460
vetoing,3461
vetran,3462
vetrans,3463
vets,3464
vey,3465
vice,3466
victory,3467
video,3468
vietnam,3469
view,3470
viewers,3471
violin,3472
violins,3473
virtually,3474
vis,3475
vision,3476
visiting,3477
voice,3478
void,3479
vomiting,3480
vote,3481
voted,3482
voter,3483
voters,3484
votes,3485
voting,3486
vp,3487
vps,3488
vs,3489
vu,3490
waging,3491
waht,3492
wait,3493
waiting,3494
waits,3495
wake,3496
walk,3497
walking,3498
wall,3499
wallet,3500
walter,3501
wanna,3502
want,3503
wanted,3504
wanting,3505
wants,3506
wapo,3507
war,3508
ware,3509
warfront,3510
warmonger,3511
warmongering,3512
warp,3513
warring,3514
warrior,3515
wars,3516
washed,3517
washington,3518
wasn,3519
waste,3520
watch,3521
watched,3522
watches,3523
watching,3524
water,3525
watts,3526
wave,3527
waving,3528
way,3529
ways,3530
wayyyy,3531
wcdarling,3532
weak,3533
weapon,3534
weaponry,3535
weapons,3536
wear,3537
wearing,3538
web,3539
webb,3540
webpage,3541
website,3542
week,3543
weeping,3544
weight,3545
weird,3546
welcome,3547
welfare,3548
went,3549
wet,3550
whaaat,3551
whale,3552
whales,3553
whatte,3554
wheelchairs,3555
whey,3556
whiie,3557
whine,3558
whistle,3559
whistling,3560
white,3561
whoa,3562
wi,3563
wife,3564
wih,3565
wilder,3566
wildest,3567
wildly,3568
william,3569
williams,3570
willing,3571
win,3572
wind,3573
windy,3574
winehouse,3575
wing,3576
winner,3577
winners,3578
winning,3579
wins,3580
wiping,3581
wire,3582
wise,3583
wisely,3584
wish,3585
wishes,3586
wolf,3587
woman,3588
women,3589
won,3590
wonder,3591
wondered,3592
wondering,3593
wonders,3594
wont,3595
woo,3596
woods,3597
word,3598
wordpress,3599
words,3600
wordy,3601
wore,3602
work,3603
worked,3604
worker,3605
workers,3606
working,3607
works,3608
world,3609
worried,3610
worry,3611
worrying,3612
worst,3613
worth,3614
wouldn,3615
wounds,3616
wow,3617
wrap,3618
wreck,3619
wreke,3620
wrekehavoc,3621
wrinkly,3622
wrong,3623
wrongheaded,3624
wrongly,3625
wtf,3626
www,3627
xd,3628
xrl,3629
ya,3630
yard,3631
yarg,3632
yawn,3633
yawning,3634
yay,3635
yea,3636
yeah,3637
year,3638
years,3639
yelling,3640
yep,3641
yer,3642
yes,3643
yesterday,3644
yikes,3645
young,3646
youre,3647
youtube,3648
yr,3649
yrs,3650
yup,3651
zi,3652
zillion,3653
zing,3654
zingers,3655
zombie,3656
zt,3657
