_never_,0
_â,1
abc,2
ability,3
able,4
abroad,5
absence,6
absent,7
absentee,8
absolutely,9
accent,10
access,11
accidentally,12
accommodating,13
accomplishment,14
accomplishments,15
according,16
account,17
accountable,18
accurate,19
accurately,20
accusations,21
accusing,22
acknowleding,23
acquired,24
act,25
acted,26
acting,27
action,28
actions,29
acts,30
actually,31
ad,32
add,33
address,34
addressing,35
administration,36
admit,37
admits,38
admitted,39
admitting,40
admittnig,41
ads,42
adult,43
advantage,44
advantages,45
adversary,46
advisers,47
advisor,48
advocating,49
afashionista,50
affairs,51
affiliation,52
afford,53
affordable,54
afgan,55
afganistan,56
afghan,57
afghanis,58
afghanistan,59
afraid,60
african,61
ag,62
age,63
agencies,64
ago,65
agore,66
agree,67
agreed,68
agreeing,69
agreements,70
agrees,71
ah,72
ahahah,73
ahead,74
ahgparsedonedigit,75
ahmadinejad,76
ahmen,77
ahole,78
aid,79
ain,80
aint,81
air,82
airlines,83
airport,84
aisle,85
ajaxy,86
aka,87
akmujinadad,88
al,89
alanbenson,90
alaska,91
alexashrugged,92
alien,93
alienating,94
aligning,95
alindseyparsedonedigit,96
alive,97
alley,98
allies,99
allow,100
allowed,101
alpha,102
alphabet,103
alquaeda,104
alright,105
alt,106
alternative,107
alternatives,108
amazing,109
amen,110
amercian,111
amercians,112
america,113
american,114
americans,115
ammendment,116
analogies,117
analogy,118
analysis,119
analyst,120
anchors,121
andrewaparsedthreedigits,122
andrewsmith,123
androids,124
anger,125
angle,126
angry,127
anihilated,128
anklets,129
annoy,130
annoyance,131
annoying,132
anothers,133
answer,134
answered,135
answering,136
answers,137
ant,138
antagonise,139
antes,140
anthem,141
anti,142
ants,143
anwynparsedtwodigits,144
anymore,145
apart,146
apologizing,147
appalling,148
apparently,149
appeal,150
appear,151
appearance,152
appearances,153
appears,154
applaud,155
applies,156
appointed,157
appointments,158
appropriate,159
apt,160
areas,161
aren,162
argh,163
argument,164
arpit,165
arrested,166
arrogance,167
arrogant,168
arrrrrrggggggghhhhh,169
articulate,170
articulating,171
asia,172
aside,173
asides,174
ask,175
asked,176
asking,177
asks,178
asleep,179
ass,180
assassination,181
asserting,182
assertion,183
asshole,184
assholes,185
assured,186
atl,187
atrocious,188
attached,189
attack,190
attacked,191
attacking,192
attacks,193
attempt,194
attempts,195
attention,196
audience,197
augh,198
autumm,199
avatars,200
average,201
avg,202
avoid,203
avoided,204
avoiding,205
aw,206
away,207
awesme,208
awesome,209
awful,210
awfully,211
awkwardly,212
awsome,213
axis,214
ayers,215
aãºn,216
baaaaack,217
babies,218
babs,219
baby,220
background,221
backhanded,222
backs,223
bad,224
badly,225
bag,226
bagdad,227
bail,228
bailout,229
bald,230
ball,231
ballots,232
balls,233
bama,234
banished,235
bankrupt,236
bankruptcy,237
banks,238
bar,239
barack,240
barackobama,241
barak,242
barbarakb,243
barbaranixon,244
barely,245
barnes,246
barr,247
barrackobama,248
barrel,249
barry,250
base,251
baseball,252
based,253
basic,254
bastard,255
bastards,256
battery,257
battle,258
battled,259
beacon,260
beacuse,261
bear,262
bears,263
beat,264
beating,265
beats,266
bed,267
bedtime,268
beeb,269
beer,270
begala,271
begin,272
beginning,273
behave,274
belicose,275
belief,276
believe,277
believes,278
believing,279
benderparsedtwodigits,280
benefit,281
benefits,282
bennet,283
bennett,284
bent,285
berg,286
bessemerprocess,287
best,288
bet,289
betray,290
better,291
bevjack,292
beware,293
bias,294
biased,295
biases,296
bible,297
bid,298
biden,299
big,300
bigger,301
biggest,302
bile,303
bilksters,304
billion,305
bills,306
bin,307
bingo,308
bipartisan,309
bit,310
bitch,311
bite,312
bitter,313
biz,314
bizarre,315
bjlayland,316
bk,317
black,318
blackberry,319
blah,320
blame,321
blank,322
blast,323
bleed,324
blendahtom,325
bless,326
blink,327
blinked,328
blinking,329
blinks,330
blinky,331
block,332
blog,333
bloggers,334
blood,335
blowing,336
blunders,337
blunt,338
bo,339
board,340
bob,341
bobama,342
body,343
bomb,344
bombing,345
bone,346
bones,347
boo,348
boobs,349
boone,350
booo,351
booty,352
bored,353
borger,354
boring,355
born,356
borrows,357
bosses,358
bother,359
bothered,360
bottle,361
boy,362
boyfriend,363
bparsedonedigit,364
bra,365
bracelet,366
bracelets,367
brains,368
brainy,369
brave,370
breads,371
break,372
breaking,373
breaks,374
brian,375
brianmcalister,376
bridge,377
brilliant,378
bring,379
bringing,380
brings,381
bro,382
broadband,383
broader,384
brokaw,385
broke,386
broken,387
brooks,388
brought,389
brown,390
brutal,391
bs,392
btw,393
buddy,394
budget,395
budgets,396
building,397
built,398
bullet,399
bully,400
bummer,401
bump,402
bums,403
bunker,404
burn,405
burning,406
bush,407
business,408
busy,409
butt,410
buy,411
buying,412
cage,413
cain,414
cains,415
cajones,416
called,417
calling,418
calls,419
calm,420
came,421
camera,422
camp,423
campaign,424
campaigning,425
campaigns,426
camps,427
candidate,428
candidates,429
candy,430
capturing,431
car,432
card,433
care,434
cares,435
caribou,436
carribugbee,437
carter,438
cartoon,439
casablanca,440
castellanos,441
cat,442
catch,443
catholic,444
caught,445
cause,446
caused,447
cbrn,448
cbs,449
cbsnews,450
cc,451
ceanders,452
cell,453
central,454
centrist,455
century,456
ceos,457
certain,458
cgritter,459
chairman,460
challenge,461
chance,462
chances,463
change,464
changed,465
changes,466
changing,467
channel,468
channels,469
chapter,470
character,471
charge,472
charity,473
charles,474
charlie,475
chase,476
chat,477
cheap,478
check,479
checking,480
checks,481
cheered,482
cheers,483
cheese,484
cheney,485
chest,486
chevy,487
chicago,488
child,489
childhood,490
children,491
china,492
chine,493
chinese,494
chip,495
chips,496
choice,497
choices,498
choose,499
chooses,500
choosing,501
choreography,502
chosen,503
chris,504
chrisabraham,505
christ,506
chuck,507
chuckling,508
chug,509
chump,510
church,511
cindy,512
circle,513
circles,514
citizens,515
citizensugar,516
citymama,517
civic,518
civil,519
civilised,520
ck,521
claim,522
claiming,523
claims,524
clancy,525
clarified,526
clarifies,527
clarifying,528
clarity,529
class,530
classical,531
claymaker,532
clean,533
cleaning,534
clear,535
clearly,536
cliche,537
clients,538
climate,539
clinching,540
clinging,541
clint,542
clinton,543
clip,544
close,545
closer,546
closing,547
clubs,548
clue,549
clueless,550
cmarlowparsedthreedigits,551
cnn,552
coal,553
coast,554
coattails,555
cogent,556
cognitive,557
coh,558
coincidence,559
colbert,560
cold,561
collapse,562
collapsing,563
collect,564
collected,565
college,566
collinkelley,567
colloquialisms,568
colorful,569
column,570
com,571
comcast,572
come,573
comeback,574
comedy,575
comes,576
coming,577
comm,578
commanded,579
comment,580
commentary,581
commentator,582
commenting,583
comments,584
commission,585
commit,586
commitment,587
commits,588
committed,589
committee,590
communication,591
comp,592
companies,593
compare,594
compared,595
compares,596
comparing,597
comparitive,598
competent,599
complete,600
completely,601
complex,602
compliment,603
complimenting,604
comprehensive,605
compromises,606
computer,607
conceding,608
concept,609
conches,610
concise,611
concrete,612
condescending,613
conditions,614
condoulo,615
confident,616
confirmed,617
conflict,618
cong,619
congenial,620
congeniality,621
congresmen,622
connecting,623
connor,624
consensus,625
conservation,626
conservative,627
conservatives,628
consider,629
considered,630
considering,631
consistently,632
conspicuousness,633
constant,634
constantly,635
constipated,636
constituencies,637
construction,638
constructive,639
consult,640
consumers,641
contact,642
contemporary,643
contempt,644
contentious,645
contestants,646
context,647
continually,648
continues,649
continuing,650
continuously,651
contract,652
contraction,653
contracts,654
contrary,655
contrast,656
contributing,657
control,658
controlling,659
controls,660
convention,661
conversation,662
convinced,663
convincing,664
convincingly,665
convoluted,666
cool,667
coolest,668
coos,669
copying,670
core,671
corner,672
corporate,673
corps,674
corpse,675
correct,676
corrections,677
correctly,678
corrupt,679
cost,680
costs,681
couldn,682
count,683
counter,684
countering,685
counterpoint,686
counterproductive,687
countries,688
country,689
counts,690
coup,691
course,692
cover,693
coverage,694
covering,695
covert,696
coward,697
cptn,698
cracked,699
crap,700
crappy,701
crawl,702
crazy,703
create,704
created,705
creating,706
creature,707
credibility,708
credible,709
credit,710
creep,711
creepy,712
cries,713
crime,714
crimes,715
cringing,716
crisis,717
crisp,718
criss,719
crooked,720
cross,721
crown,722
cruises,723
crunch,724
crush,725
crushing,726
crutch,727
csis,728
cspan,729
cudgel,730
cuff,731
cuparsedtwodigits,732
curlingriver,733
current,734
currently,735
cuss,736
cut,737
cuts,738
cuz,739
cw,740
cycle,741
cynparsedonedigitmatic,742
dad,743
dafur,744
daily,745
dalbee,746
damn,747
dang,748
dangerous,749
danny,750
daresay,751
darfur,752
dark,753
darth,754
data,755
date,756
dates,757
daugher,758
david,759
davidweiner,760
day,761
days,762
dc,763
ddrparsedonedigit,764
dead,765
deaf,766
deal,767
dealing,768
dear,769
death,770
debate,771
debated,772
debateokparsedtwodigits,773
debateparsedtwodigits,774
debater,775
debates,776
debatesparsedtwodigits,777
debatetweets,778
debating,779
debt,780
debte,781
decades,782
deception,783
decide,784
decided,785
decir,786
decision,787
decisions,788
decisive,789
declare,790
decline,791
declined,792
decrease,793
decreasing,794
dee,795
deeper,796
deer,797
defeat,798
defence,799
defends,800
defense,801
defensive,802
define,803
defining,804
definitely,805
definition,806
deja,807
delay,808
deliberately,809
delta,810
dem,811
demanded,812
demanding,813
demean,814
democracies,815
democracy,816
democrat,817
democratic,818
democrats,819
demographic,820
demonstrated,821
dems,822
dentures,823
depends,824
deploying,825
depressed,826
depression,827
depth,828
deregulation,829
descended,830
description,831
desperate,832
despicable,833
destroying,834
destruct,835
detailed,836
details,837
dial,838
diaper,839
dibating,840
dick,841
dictator,842
did,843
didn,844
didnt,845
die,846
diebold,847
dies,848
diff,849
difference,850
differences,851
different,852
differentiating,853
difficult,854
dig,855
dignity,856
dingle,857
dinner,858
diplomacy,859
dir,860
dire,861
direct,862
direction,863
directly,864
directness,865
directors,866
dirt,867
dis,868
disabled,869
disagree,870
disappear,871
disappointed,872
disappointing,873
disavian,874
disclaimers,875
discuss,876
discussion,877
discussions,878
disdain,879
disease,880
disgrace,881
disheartening,882
dishonor,883
dismissive,884
dismissiveness,885
disputed,886
disrespect,887
disrespectful,888
disrespecting,889
dissing,890
dissonance,891
distinctions,892
distracting,893
disturbed,894
diversions,895
divesnob,896
divided,897
divides,898
dizzy,899
dksnyder,900
dna,901
dno,902
doc,903
docmara,904
doctor,905
doctrine,906
dodging,907
does,908
doesn,909
doesnt,910
dogcatcher,911
doing,912
dollars,913
domestic,914
dominate,915
dominated,916
dominating,917
dominickevans,918
don,919
dont,920
door,921
dor,922
dorkus,923
dose,924
dosing,925
doubt,926
doubtful,927
douchebag,928
downsokc,929
downtalking,930
dr,931
draw,932
dream,933
dreams,934
dreck,935
dredging,936
dress,937
drill,938
drilling,939
drills,940
drink,941
drinking,942
drives,943
driving,944
droolfest,945
dropped,946
dropping,947
drops,948
drthomasho,949
drudge,950
drugs,951
drunk,952
drunnells,953
dubya,954
dude,955
duds,956
duh,957
dumb,958
dummy,959
dumping,960
dunk,961
dunked,962
dusty,963
dutch,964
duty,965
dvr,966
dweeb,967
dwight,968
dying,969
early,970
earmark,971
earmarks,972
earn,973
ears,974
earth,975
easiest,976
easily,977
east,978
eastasia,979
eastern,980
easy,981
eaten,982
eating,983
economic,984
economics,985
economy,986
ed,987
edge,988
edgeparsedtwodigits,989
editorial,990
educated,991
education,992
eeyore,993
effect,994
effective,995
effing,996
efforts,997
egghead,998
ego,999
eh,1000
elder,1001
elect,1002
electd,1003
elected,1004
electing,1005
election,1006
electionparsedtwodigits,1007
electrical,1008
electricity,1009
eligible,1010
eliminating,1011
eloquent,1012
em,1013
emailers,1014
embolden,1015
emilychang,1016
emotion,1017
emotional,1018
emotive,1019
emphasis,1020
emphasize,1021
emphasizing,1022
empire,1023
emptively,1024
encourage,1025
encouraging,1026
end,1027
ending,1028
ends,1029
endtherobocalls,1030
enemies,1031
enemy,1032
energy,1033
enforcement,1034
engage,1035
engaged,1036
enjoyed,1037
enjoying,1038
enlisted,1039
ennui,1040
enormously,1041
entire,1042
entitlement,1043
environmental,1044
epic,1045
episode,1046
equating,1047
err,1048
escrow,1049
esonnenberg,1050
esoteric,1051
esp,1052
especially,1053
ethanol,1054
etherkiller,1055
eugene,1056
evading,1057
evening,1058
eventually,1059
everone,1060
everybody,1061
everytime,1062
evidence,1063
evil,1064
evolver,1065
exactly,1066
examine,1067
example,1068
examples,1069
exceeed,1070
exceptionalism,1071
excessive,1072
exciting,1073
existential,1074
exits,1075
expect,1076
expectations,1077
expected,1078
expense,1079
expensive,1080
experience,1081
experienced,1082
expert,1083
expertise,1084
experts,1085
explain,1086
explained,1087
explaining,1088
explore,1089
export,1090
exporting,1091
expounding,1092
expressing,1093
exprience,1094
extraction,1095
eye,1096
eyemakeup,1097
eyes,1098
face,1099
facebook,1100
fact,1101
factcheck,1102
factchecker,1103
factor,1104
facts,1105
fail,1106
failed,1107
failing,1108
failure,1109
fair,1110
fairly,1111
fake,1112
fakejohnmccain,1113
fakeness,1114
fakeobama,1115
fakeobamaparsedtwodigits,1116
fall,1117
falling,1118
false,1119
falsehoods,1120
family,1121
fan,1122
fanatic,1123
far,1124
fare,1125
fashion,1126
fast,1127
faster,1128
fatal,1129
father,1130
faults,1131
fav,1132
favor,1133
favored,1134
fear,1135
fearmongering,1136
fears,1137
feathers,1138
fed,1139
federal,1140
feeble,1141
feed,1142
feedback,1143
feel,1144
feeling,1145
feels,1146
fell,1147
fellas,1148
felon,1149
felt,1150
fest,1151
festooned,1152
fiasco,1153
fibber,1154
fight,1155
fighters,1156
figure,1157
filled,1158
final,1159
finally,1160
finance,1161
financial,1162
finds,1163
finger,1164
finish,1165
finished,1166
fired,1167
firefly,1168
fireside,1169
firm,1170
fiscal,1171
fiscally,1172
fist,1173
fit,1174
fix,1175
fixed,1176
fixin,1177
flag,1178
flap,1179
flare,1180
flat,1181
fletch,1182
flexibility,1183
flip,1184
floating,1185
floor,1186
flop,1187
flopped,1188
flowing,1189
flucked,1190
flustered,1191
fo,1192
focus,1193
focused,1194
followed,1195
followers,1196
following,1197
fool,1198
fools,1199
foot,1200
footage,1201
forceful,1202
foreign,1203
foreigner,1204
foresight,1205
forever,1206
forever_trust,1207
forget,1208
foriegn,1209
format,1210
forth,1211
fortran,1212
forward,1213
fought,1214
fox,1215
foxnews,1216
fp,1217
fr,1218
frackity,1219
framework,1220
frankly,1221
freakin,1222
fred,1223
free,1224
freedom,1225
freeulysses,1226
freeze,1227
frequent,1228
friday,1229
friend,1230
friends,1231
frivolous,1232
fruck,1233
frucked,1234
frustrating,1235
ftw,1236
fuck,1237
fucked,1238
fucking,1239
fuel,1240
fuelled,1241
fun,1242
function,1243
functionally,1244
fund,1245
fundamental,1246
fundamentalists,1247
fundamentally,1248
fundamentals,1249
funded,1250
funding,1251
funds,1252
funnier,1253
funny,1254
futher,1255
future,1256
fuzzy,1257
gaaaaaaah,1258
gaffe,1259
gaining,1260
game,1261
garbage,1262
garrett,1263
gas,1264
gasbaggery,1265
gasp,1266
gave,1267
gaze,1268
gazillion,1269
gd,1270
geas,1271
gee,1272
geez,1273
gen,1274
general,1275
generic,1276
genocide,1277
gent,1278
gentleman,1279
gentlemen,1280
gently,1281
georgia,1282
georgian,1283
geppetto,1284
gergen,1285
gesteves,1286
gets,1287
getting,1288
gi,1289
gibbs,1290
gibson,1291
gimme,1292
giuliani,1293
given,1294
gives,1295
giving,1296
glad,1297
glance,1298
glass,1299
glazing,1300
global,1301
globalized,1302
globe,1303
gloreebeparsedtwodigits,1304
gloria,1305
glover,1306
glowing,1307
glueandglitter,1308
gmilf,1309
gminks,1310
gnimsh,1311
goc,1312
god,1313
godawful,1314
goes,1315
going,1316
golden,1317
golly,1318
gone,1319
gonna,1320
good,1321
goodbye,1322
google,1323
gop,1324
gorbatschow,1325
gore,1326
got,1327
gotta,1328
gov,1329
govern,1330
government,1331
govt,1332
grab,1333
graciously,1334
grad,1335
grades,1336
graduate,1337
graham,1338
grandfather,1339
grandpa,1340
granularity,1341
graph,1342
gray,1343
great,1344
greatest,1345
greed,1346
green,1347
greenburg,1348
gremlin,1349
grid,1350
grieving,1351
grin,1352
grinning,1353
ground,1354
grow,1355
growing,1356
growth,1357
grpress,1358
grrrrrrrrrrrrrrr,1359
grumpy,1360
guantanamo,1361
guarantee,1362
guard,1363
guerra,1364
guess,1365
guessing,1366
guiliani,1367
guillliani,1368
guilty,1369
guliani,1370
gurgen,1371
guy,1372
guys,1373
gving,1374
gwot,1375
ha,1376
haaaa,1377
hack,1378
hackparsedtwodigits,1379
hadn,1380
hah,1381
haha,1382
hahahah,1383
half,1384
hallelujah,1385
halperin,1386
hammered,1387
hammering,1388
hand,1389
handle,1390
handled,1391
handling,1392
handouts,1393
hands,1394
hang,1395
hangin,1396
happen,1397
happened,1398
happening,1399
happens,1400
happy,1401
harbor,1402
hard,1403
harder,1404
hardest,1405
hardly,1406
harm,1407
harping,1408
harsh,1409
harvard,1410
harverd,1411
hasn,1412
haste,1413
hatchet,1414
hatchett,1415
hate,1416
hates,1417
hating,1418
hats,1419
haunt,1420
haven,1421
having,1422
hawky,1423
hd,1424
hdtv,1425
head,1426
headache,1427
headed,1428
headlights,1429
headon,1430
heads,1431
heal,1432
health,1433
healthcare,1434
healthy,1435
hear,1436
heard,1437
hearing,1438
hears,1439
heart,1440
heartstring,1441
heartstrings,1442
heat,1443
heck,1444
heed,1445
heh,1446
height,1447
heights,1448
held,1449
hell,1450
help,1451
helped,1452
helping,1453
heritage,1454
hero,1455
heroes,1456
hes,1457
hexed,1458
hey,1459
hi,1460
hide,1461
hiding,1462
higgins,1463
high,1464
highest,1465
highway,1466
hilarious,1467
hillary,1468
hippie,1469
historical,1470
history,1471
hit,1472
hitler,1473
hits,1474
hmm,1475
hmmmm,1476
hnoftall,1477
hogging,1478
hold,1479
holding,1480
holds,1481
hole,1482
holes,1483
holocaust,1484
holy,1485
home,1486
homeland,1487
homework,1488
honest,1489
honestly,1490
honor,1491
honoring,1492
hook,1493
hope,1494
hopefully,1495
hoping,1496
hornets,1497
horrible,1498
horse,1499
hot,1500
hothead,1501
hotly,1502
hour,1503
hours,1504
house,1505
household,1506
houses,1507
housing,1508
howard,1509
hrc,1510
http,1511
huge,1512
hugs,1513
huh,1514
human,1515
humor,1516
humorous,1517
hunting,1518
hurt,1519
husband,1520
hyping,1521
hypocrisy,1522
ia,1523
ice,1524
idea,1525
idealistic,1526
ideas,1527
identifying,1528
ideological,1529
ideology,1530
idiot,1531
idiots,1532
ieds,1533
ignorance,1534
ignorant,1535
ignore,1536
ignored,1537
ignoring,1538
ikr,1539
illusion,1540
im,1541
image,1542
imagine,1543
imarilove,1544
imed,1545
imo,1546
impacts,1547
impartially,1548
impeach,1549
implode,1550
imploding,1551
import,1552
importance,1553
important,1554
impose,1555
impossible,1556
impressed,1557
impressions,1558
impressive,1559
improper,1560
inauguration,1561
incapable,1562
included,1563
includes,1564
including,1565
income,1566
incompetence,1567
increases,1568
incursions,1569
ind,1570
indep,1571
indepedence,1572
independence,1573
independent,1574
independents,1575
indirectly,1576
industrial,1577
industrious,1578
inefficiency,1579
inevitable,1580
infants,1581
inflation,1582
inflexible,1583
info,1584
informal,1585
information,1586
infrastructure,1587
inherently,1588
initial,1589
initially,1590
initials,1591
inner,1592
inserting,1593
inside,1594
insistence,1595
insisting,1596
inspired,1597
instance,1598
instead,1599
instructions,1600
insult,1601
insulting,1602
insurance,1603
int,1604
intelligence,1605
intelligent,1606
intelligently,1607
interact,1608
interested,1609
interesting,1610
interests,1611
interjections,1612
international,1613
internationally,1614
interrogation,1615
interromption,1616
interrupt,1617
interrupted,1618
interrupting,1619
interruptions,1620
interrupts,1621
intersting,1622
interventions,1623
interview,1624
interviews,1625
intimidated,1626
introducing,1627
invade,1628
invasion,1629
invest,1630
investigations,1631
invite,1632
invited,1633
involved,1634
ious,1635
iran,1636
iranians,1637
iraq,1638
iraqis,1639
iraquis,1640
irish,1641
iron,1642
irrational,1643
irrelevant,1644
island,1645
isn,1646
isnt,1647
israel,1648
israelpattison,1649
isreal,1650
issue,1651
issues,1652
ita,1653
italian,1654
italy,1655
itchy,1656
item,1657
ites,1658
itineraries,1659
ive,1660
jack,1661
jacka,1662
jackboots,1663
jackson,1664
jail,1665
jalenjade,1666
janoss,1667
jaws,1668
jaymesiemer,1669
jennings,1670
jerk,1671
jerks,1672
jerry,1673
jesus,1674
jill,1675
jim,1676
jk,1677
jlapplegate,1678
jm,1679
jmccain,1680
job,1681
joberdorf,1682
jobs,1683
jock,1684
joe,1685
john,1686
johnmccain,1687
johnny,1688
johnnys,1689
join,1690
joke,1691
jokes,1692
joking,1693
jottit,1694
jowyang,1695
jpippert,1696
juan,1697
judgement,1698
judgment,1699
judgmt,1700
jugular,1701
juliani,1702
jump,1703
jumping,1704
just,1705
justingunn,1706
kassifan,1707
kathrynjones,1708
katiefavazza,1709
kcrusher,1710
keating,1711
keatingparsedonedigit,1712
keeping,1713
keeps,1714
keith,1715
kellyrenee,1716
kenbooth,1717
kenndey,1718
kennedy,1719
kenya,1720
kept,1721
kerry,1722
kettle,1723
kevinbinversie,1724
key,1725
keys,1726
keystone,1727
kgb,1728
kicked,1729
kicking,1730
kid,1731
kidding,1732
kids,1733
kiilin,1734
kill,1735
killed,1736
killin,1737
killing,1738
kind,1739
kinda,1740
kissenger,1741
kissing,1742
kissinger,1743
kitchen,1744
klingon,1745
knees,1746
knew,1747
knocked,1748
know,1749
knowing,1750
knowledge,1751
knowledgeable,1752
known,1753
knows,1754
korea,1755
koreans,1756
korym,1757
kramsey,1758
krississippi,1759
kudos,1760
kwilsonparsedonedigitaustin,1761
la,1762
labor,1763
lack,1764
lacked,1765
lacking,1766
laden,1767
ladin,1768
lame,1769
land,1770
landing,1771
landslide,1772
lane,1773
language,1774
lapel,1775
laptop,1776
lar,1777
larison,1778
late,1779
lately,1780
later,1781
latest,1782
laugh,1783
laughable,1784
laughing,1785
laughterkey,1786
law,1787
lawn,1788
laying,1789
lazybuddhist,1790
lead,1791
leader,1792
leaders,1793
leadership,1794
league,1795
learn,1796
leave,1797
leaving,1798
lecturing,1799
leep,1800
left,1801
leg,1802
legislation,1803
legitimize,1804
legitimizies,1805
leher,1806
lehrer,1807
length,1808
lerher,1809
lesson,1810
lessons,1811
let,1812
lethal,1813
lets,1814
lettig,1815
letting,1816
level,1817
lhc,1818
liable,1819
liar,1820
liberal,1821
liberty,1822
libre,1823
licking,1824
lie,1825
lieberman,1826
lies,1827
lieu,1828
lifestudentparsedtwodigits,1829
lifetime,1830
light,1831
like,1832
liked,1833
likely,1834
likes,1835
liking,1836
lil,1837
limited,1838
lindagoin,1839
lindsey,1840
line,1841
lines,1842
linking,1843
links,1844
lips,1845
lipstickvp,1846
lisa,1847
lisp,1848
list,1849
listen,1850
listened,1851
listening,1852
little,1853
live,1854
livechat,1855
lived,1856
lives,1857
ll,1858
lobbyist,1859
locked,1860
lol,1861
lols,1862
lone,1863
long,1864
look,1865
looked,1866
looking,1867
looks,1868
lookups,1869
loop,1870
loopholes,1871
loose,1872
looses,1873
lord,1874
lose,1875
loser,1876
loses,1877
losing,1878
lost,1879
lot,1880
lots,1881
loud,1882
lousy,1883
love,1884
loved,1885
lover,1886
loving,1887
low,1888
lowered,1889
lucid,1890
luck,1891
lucky,1892
lumatts,1893
lurch,1894
luvs,1895
ly,1896
lying,1897
ma,1898
mabrahamparsedonedigit,1899
mac,1900
macain,1901
macartisan,1902
maccainshot,1903
machines,1904
mad,1905
maddow,1906
maher,1907
mailourmilitary,1908
main,1909
mainstream,1910
maintain,1911
major,1912
majority,1913
make,1914
makeitendnow,1915
makers,1916
makes,1917
making,1918
malaise,1919
male,1920
mamalogues,1921
mamikaze,1922
man,1923
manage,1924
managed,1925
mandianajones,1926
manfactured,1927
manfacturing,1928
manipulative,1929
manners,1930
map,1931
margin,1932
mark,1933
market,1934
markets,1935
martinbowling,1936
marytrigiani,1937
mashing,1938
mask,1939
master,1940
mat,1941
match,1942
matched,1943
mate,1944
materials,1945
math,1946
matt,1947
matter,1948
matthews,1949
matttbastard,1950
maverick,1951
maybe,1952
mc,1953
mcain,1954
mcains,1955
mcblinky,1956
mcbush,1957
mcc,1958
mccai,1959
mccain,1960
mccaine,1961
mccainfacts,1962
mccainiacs,1963
mccains,1964
mccainshot,1965
mccainshots,1966
mccamus,1967
mclame,1968
mclehrer,1969
mcpain,1970
mcpow,1971
mcsame,1972
mean,1973
meaningfully,1974
meant,1975
measured,1976
measuring,1977
media,1978
medializzy,1979
medical,1980
meet,1981
meeting,1982
meh,1983
meister,1984
mel,1985
melting,1986
membrane,1987
memorable,1988
men,1989
mention,1990
mentioned,1991
mentioning,1992
mentions,1993
mercurymetro,1994
mess,1995
message,1996
messages,1997
met,1998
method,1999
meyers,2000
mgr,2001
mia,2002
mic,2003
michael,2004
michael_lehman,2005
michaelszeto,2006
michdot,2007
mid,2008
middle,2009
mikemadden,2010
milf,2011
militant,2012
military,2013
milk,2014
million,2015
milwaukee,2016
min,2017
mind,2018
minded,2019
mindlessly,2020
minds,2021
minister,2022
mins,2023
minus,2024
minute,2025
minutes,2026
misanthropy,2027
miscalculated,2028
mischaracterization,2029
mischaracterizing,2030
misleading,2031
mispronounce,2032
mispronouncing,2033
misquotes,2034
misrepresentations,2035
misrepresentng,2036
miss,2037
missed,2038
missile,2039
missing,2040
mission,2041
mississippi,2042
mississippianna,2043
missle,2044
missouri,2045
mistake,2046
mistakes,2047
misterrob,2048
mistreated,2049
mkantonelli,2050
mlive,2051
mnt,2052
mntions,2053
mo,2054
mod,2055
mode,2056
moderating,2057
moderator,2058
moderators,2059
moire,2060
moldy,2061
mom,2062
moment,2063
momocrats,2064
mon,2065
money,2066
monger,2067
monotone,2068
montana,2069
moonpie,2070
moose,2071
mopped,2072
mother,2073
mouth,2074
moved,2075
moving,2076
movingsideways,2077
mr,2078
ms,2079
msblog,2080
msgs,2081
msnbc,2082
mstparsedonedigitk,2083
muddle,2084
muddled,2085
multiple,2086
muppet,2087
muscles,2088
muscular,2089
musharraf,2090
musharuf,2091
music,2092
myentirename,2093
naieve,2094
nailed,2095
nailing,2096
naive,2097
namecalling,2098
names,2099
nanny,2100
nasty,2101
nat,2102
nation,2103
national,2104
nations,2105
natl,2106
natural,2107
naval,2108
nay,2109
nbc,2110
near,2111
nearly,2112
neat,2113
necklace,2114
need,2115
needed,2116
needs,2117
negative,2118
negitiatoins,2119
negotiating,2120
negotiation,2121
neighbor,2122
neighbors,2123
neil,2124
neo,2125
nerves,2126
nervous,2127
nest,2128
network,2129
new,2130
newamericancentury,2131
news,2132
newshour,2133
nh,2134
nice,2135
nicely,2136
nielsen,2137
night,2138
nightly,2139
niiice,2140
nin,2141
nixon,2142
nod,2143
nohype,2144
nom,2145
nominee,2146
non,2147
nonsense,2148
noooo,2149
nope,2150
north,2151
northwest,2152
note,2153
notes,2154
notice,2155
noticing,2156
notion,2157
noun,2158
november,2159
nprpolitics,2160
nuanced,2161
nubianvixen,2162
nuclear,2163
nukes,2164
number,2165
nurse,2166
nursing,2167
nutjob,2168
nuts,2169
nuuuuuuu,2170
nyt,2171
obam,2172
obama,2173
obamanot,2174
obamarossa,2175
obamas,2176
obamashot,2177
obamba,2178
obamowned,2179
objecting,2180
objectives,2181
obladen,2182
oblivious,2183
obmet,2184
obscure,2185
observations,2186
observer,2187
observes,2188
obsessed,2189
obsessions,2190
obv,2191
obvious,2192
obviously,2193
occupation,2194
oct,2195
oddly,2196
ofcourse,2197
offended,2198
offense,2199
offensive,2200
offering,2201
office,2202
official,2203
officially,2204
offshore,2205
oh,2206
ohhh,2207
ohhhh,2208
oil,2209
ok,2210
okay,2211
ol,2212
olbermann,2213
old,2214
older,2215
oldest,2216
omaba,2217
omfg,2218
omg,2219
ones,2220
ongoing,2221
online,2222
ooh,2223
oohh,2224
oooh,2225
oops,2226
open,2227
opinion,2228
opinions,2229
opponent,2230
opponents,2231
opportunity,2232
opposed,2233
opposing,2234
opt,2235
optical,2236
orbitaldiamonds,2237
order,2238
ordianry,2239
ordinary,2240
org,2241
organization,2242
organizations,2243
orgs,2244
orgy,2245
original,2246
osagt,2247
osama,2248
osaoparsedonedigit,2249
osaqb,2250
ouch,2251
outdebated,2252
outfit,2253
outright,2254
outsidel,2255
outsourcing,2256
outta,2257
overall,2258
overflight,2259
overload,2260
overplaying,2261
overseas,2262
oversight,2263
overwhelming,2264
owe,2265
pa,2266
pacific,2267
padding,2268
page,2269
pages,2270
pain,2271
paint,2272
pair,2273
pakistan,2274
pakistani,2275
paliin,2276
palin,2277
pamelalyn,2278
pamelawella,2279
pandering,2280
pants,2281
paper,2282
paperboard,2283
para,2284
parachute,2285
parachutes,2286
parents,2287
parseddigits,2288
parseddigitspt,2289
parseddigitsst,2290
parsedfourdigits,2291
parsedfourdigitss,2292
parsedonedigit,2293
parsedonedigitam,2294
parsedonedigitb,2295
parsedonedigitcgparsedonedigit,2296
parsedonedigitchan,2297
parsedonedigitchn,2298
parsedonedigitcic,2299
parsedonedigitcparseddigitsl,2300
parsedonedigitdolsf,2301
parsedonedigitfeparsedonedigithh,2302
parsedonedigitfqparsedonedigitqy,2303
parsedonedigitfrbparsedonedigitc,2304
parsedonedigitjdyparsedtwodigits,2305
parsedonedigitk,2306
parsedonedigitln,2307
parsedonedigitnd,2308
parsedonedigitpt,2309
parsedonedigitpts,2310
parsedonedigitqparseddigitsfparsedonedigitd,2311
parsedonedigitqxcwr,2312
parsedonedigitrd,2313
parsedonedigitrlctd,2314
parsedonedigitst,2315
parsedonedigitt,2316
parsedonedigitvlts,2317
parsedonedigitwparseddigitszaparsedonedigit,2318
parsedonedigitzhwparsedtwodigits,2319
parsedthreedigits,2320
parsedthreedigitsb,2321
parsedthreedigitsm,2322
parsedtime,2323
parsedtwodigits,2324
parsedtwodigitsb,2325
parsedtwodigitskgparsedonedigit,2326
parsedtwodigitsnparseddigitsw,2327
parsedtwodigitss,2328
parsedtwodigitsst,2329
parsedtwodigitsth,2330
parsedtwodigitsvparsedonedigitkc,2331
participate,2332
participatory,2333
parties,2334
partisan,2335
partner,2336
parts,2337
party,2338
pass,2339
passed,2340
passion,2341
past,2342
patience,2343
patraeus,2344
patrickruffini,2345
patriotism,2346
patrol,2347
patronizing,2348
paul,2349
pausing,2350
pave,2351
pay,2352
paying,2353
pbs,2354
peace,2355
peacekeeper,2356
peeps,2357
penguins,2358
pens,2359
people,2360
peoples,2361
perceived,2362
percent,2363
perception,2364
percieved,2365
perfect,2366
performance,2367
perinandy,2368
person,2369
personable,2370
personal,2371
personally,2372
perspective,2373
persuaded,2374
peter,2375
petraeus,2376
petreaus,2377
petty,2378
phrase,2379
phrases,2380
pick,2381
picked,2382
pickens,2383
picking,2384
piece,2385
pilot,2386
pin,2387
pinned,2388
pinocchio,2389
pins,2390
pissed,2391
pissing,2392
pitiful,2393
pizza,2394
pjsmommy,2395
place,2396
places,2397
plan,2398
planes,2399
planet,2400
plans,2401
plant,2402
plants,2403
platform,2404
play,2405
played,2406
playing,2407
plays,2408
pleasant,2409
pleasantly,2410
pledge,2411
pleeze,2412
plenty,2413
plotting,2414
ploys,2415
plug,2416
plugging,2417
plundering,2418
plus,2419
pocket,2420
pockets,2421
podium,2422
point,2423
pointed,2424
pointing,2425
points,2426
poker,2427
polar,2428
polfeeds,2429
police,2430
policies,2431
policing,2432
policy,2433
politcs,2434
polite,2435
political,2436
politically,2437
politics,2438
poll,2439
polling,2440
pompous,2441
poor,2442
poorly,2443
pope,2444
poprl,2445
popular,2446
popularity,2447
population,2448
por,2449
porch,2450
pork,2451
porky,2452
port,2453
position,2454
positioning,2455
positions,2456
positive,2457
possible,2458
post,2459
postman,2460
posts,2461
pot,2462
potential,2463
potus,2464
pouncing,2465
pound,2466
pounding,2467
poured,2468
pow,2469
power,2470
powerful,2471
ppl,2472
practice,2473
praising,2474
praying,2475
pre,2476
preciouses,2477
precondition,2478
preconditions,2479
predator,2480
predicting,2481
pregnant,2482
prep,2483
preparation,2484
prepare,2485
preparedness,2486
preparing,2487
prepped,2488
pres,2489
presence,2490
present,2491
presidency,2492
president,2493
presidential,2494
presidents,2495
press,2496
pretty,2497
prevented,2498
preview,2499
previous,2500
prez,2501
price,2502
priceless,2503
prick,2504
pride,2505
primary,2506
prime,2507
prior,2508
priorities,2509
priority,2510
prison,2511
prisoner,2512
prisoners,2513
privilege,2514
pro,2515
prob,2516
probably,2517
probama,2518
problem,2519
problems,2520
problogger,2521
products,2522
professor,2523
professorial,2524
profit,2525
program,2526
programs,2527
progress,2528
progressive,2529
projecting,2530
promo,2531
promoting,2532
pron,2533
pronounce,2534
pronounced,2535
pronounces,2536
pronouncing,2537
pronunciation,2538
propaganda,2539
properly,2540
proposed,2541
prosperity,2542
protect,2543
protection,2544
protests,2545
proud,2546
prov,2547
prove,2548
proved,2549
proverbial,2550
provide,2551
proving,2552
provocative,2553
pt,2554
pts,2555
pub,2556
public,2557
publicly,2558
puke,2559
pulease,2560
pull,2561
pulled,2562
pulling,2563
pulse,2564
punch,2565
pundit,2566
pundits,2567
push,2568
pushed,2569
pushing,2570
putin,2571
puts,2572
putting,2573
pwnd,2574
qaeda,2575
quaeda,2576
qualified,2577
que,2578
queda,2579
queen,2580
question,2581
questions,2582
quibbling,2583
quick,2584
quickly,2585
quiet,2586
quit,2587
quite,2588
quotable,2589
quote,2590
quoteable,2591
quoting,2592
race,2593
rachel,2594
racist,2595
rad,2596
radio,2597
raised,2598
raising,2599
ralphie,2600
ramble,2601
rambleing,2602
rambles,2603
rambling,2604
ran,2605
randy,2606
rapid,2607
raps,2608
rate,2609
rating,2610
ratings,2611
rcapote,2612
reach,2613
reaching,2614
reacting,2615
reaction,2616
read,2617
readers,2618
ready,2619
reagan,2620
reaganomics,2621
real,2622
reality,2623
realize,2624
realized,2625
reall,2626
really,2627
reason,2628
reasons,2629
reasserting,2630
rebuttal,2631
rebutted,2632
rebutting,2633
recall,2634
recanting,2635
receives,2636
recent,2637
reception,2638
recession,2639
reckless,2640
recognition,2641
recognizing,2642
record,2643
recovery,2644
red,2645
redundancy,2646
reenlisting,2647
reference,2648
refers,2649
refine,2650
reform,2651
refreshing,2652
refund,2653
refute,2654
regained,2655
regan,2656
regard,2657
regarding,2658
regardless,2659
region,2660
register,2661
registration,2662
regret,2663
regulated,2664
regulation,2665
rehearsed,2666
reilly,2667
related,2668
relates,2669
relations,2670
relax,2671
relaxing,2672
relevancy,2673
relevant,2674
religious,2675
relocating,2676
relying,2677
remains,2678
remark,2679
remarks,2680
remember,2681
remembered,2682
remind,2683
reminded,2684
reminder,2685
reminds,2686
reminiscent,2687
remove,2688
removing,2689
renewable,2690
reorganization,2691
rep,2692
repeat,2693
repeated,2694
repeating,2695
rephrasing,2696
replacement,2697
report,2698
reporter,2699
reporting,2700
reports,2701
represent,2702
representation,2703
represented,2704
representing,2705
reps,2706
repub,2707
republican,2708
republicans,2709
repubs,2710
reputation,2711
requested,2712
rescue,2713
research,2714
reserve,2715
resist,2716
resolved,2717
resonates,2718
resp,2719
respect,2720
respected,2721
respectful,2722
respectfully,2723
respects,2724
respond,2725
responding,2726
response,2727
responses,2728
responsibility,2729
responsible,2730
rest,2731
restore,2732
restoring,2733
result,2734
resumed,2735
ret,2736
retarded,2737
retire,2738
retort,2739
retroactively,2740
return,2741
returned,2742
retweet,2743
retweeting,2744
reuse,2745
revealing,2746
reverse,2747
review,2748
revisionist,2749
revolutionary,2750
rewind,2751
rezko,2752
rich,2753
ricksanchezcnn,2754
rid,2755
rides,2756
ridiculous,2757
right,2758
rights,2759
risk,2760
risks,2761
road,2762
roadkillrefugee,2763
robert,2764
robertbluey,2765
robinson,2766
robpierson,2767
robtornoe,2768
rock,2769
rocked,2770
rocks,2771
rodgers,2772
rolled,2773
rolling,2774
rolls,2775
ronald,2776
room,2777
roosevelt,2778
root,2779
roots,2780
rosevelt,2781
rove,2782
rss,2783
rt,2784
rtbmaleszyk,2785
rubbish,2786
rude,2787
rudy,2788
ruffle,2789
rufus,2790
rug,2791
rule,2792
rules,2793
run,2794
runaway,2795
runner,2796
running,2797
runs,2798
rural,2799
russia,2800
russian,2801
russians,2802
sa,2803
sack,2804
sacrifice,2805
sad,2806
sadly,2807
safe,2808
safely,2809
safer,2810
said,2811
sake,2812
saldarji,2813
salesman,2814
salute,2815
sameoldsame,2816
sample,2817
sanctions,2818
sappy,2819
sarah,2820
sarking,2821
saw,2822
say,2823
saying,2824
says,2825
scalpel,2826
scapel,2827
scared,2828
scars,2829
scary,2830
scaryy,2831
scbalazs,2832
scheunemann,2833
schlep,2834
school,2835
schtick,2836
science,2837
scientist,2838
scolding,2839
score,2840
scorecard,2841
scoring,2842
scot,2843
screen,2844
screw,2845
screwed,2846
screwing,2847
script,2848
scripted,2849
scumbag,2850
sdi,2851
seal,2852
seals,2853
seanhackbarth,2854
search,2855
season,2856
seasonothebitch,2857
sec,2858
second,2859
secret,2860
secure,2861
security,2862
seeing,2863
seen,2864
sees,2865
seguã,2866
selected,2867
selecting,2868
selection,2869
self,2870
sell,2871
sen,2872
senate,2873
senator,2874
senators,2875
send,2876
sends,2877
sensationalism,2878
sense,2879
senseless,2880
sent,2881
sentence,2882
sentences,2883
separate,2884
seriously,2885
service,2886
services,2887
set,2888
sexist,2889
sez,2890
sh,2891
shake,2892
shakeup,2893
shaking,2894
shame,2895
shameful,2896
shapes,2897
sharks,2898
sharp,2899
sheesh,2900
sheess,2901
sheriff,2902
sherrif,2903
shia,2904
shine,2905
shining,2906
shirt,2907
shit,2908
shitty,2909
shiz,2910
shocked,2911
shoes,2912
shook,2913
shoot,2914
shooting,2915
shore,2916
short,2917
shot,2918
shouldn,2919
showed,2920
showing,2921
shown,2922
shows,2923
shut,2924
sick,2925
sided,2926
sides,2927
sidestepped,2928
sigh,2929
sign,2930
sigue,2931
silent,2932
silly,2933
simple,2934
simplifying,2935
simplistic,2936
simply,2937
simpson,2938
sing,2939
single,2940
sings,2941
sisterstalk,2942
sit,2943
site,2944
sites,2945
sitting,2946
situation,2947
skeleton,2948
skin,2949
skipping,2950
skull,2951
slaaaaaammm,2952
slam,2953
slamming,2954
slanted,2955
sleep,2956
sleeping,2957
slight,2958
slighted,2959
slightly,2960
slime,2961
slipped,2962
slogan,2963
slogans,2964
slow,2965
smarmy,2966
smart,2967
smartly,2968
smb,2969
smells,2970
smheadhunter,2971
smile,2972
smiles,2973
smirk,2974
smirking,2975
smirks,2976
smooth,2977
smoothest,2978
smug,2979
smugness,2980
snide,2981
snipr,2982
snooksparsedtwodigits,2983
snore,2984
snow,2985
snuck,2986
social,2987
softball,2988
solar,2989
solder,2990
soldier,2991
soldiers,2992
solely,2993
soler,2994
solidified,2995
solution,2996
solutions,2997
son,2998
songbird,2999
songs,3000
soo,3001
soon,3002
sooo,3003
soooo,3004
sore,3005
sorry,3006
sort,3007
souls,3008
sound,3009
soundbite,3010
sounded,3011
sounding,3012
sounds,3013
southern,3014
sp,3015
space,3016
spain,3017
spanparsedonedigit,3018
speak,3019
speaking,3020
speaks,3021
specific,3022
specifics,3023
speech,3024
speeches,3025
speed,3026
spend,3027
spending,3028
spends,3029
spent,3030
spew,3031
spice,3032
spike,3033
spin,3034
spinner,3035
spinning,3036
spoke,3037
spoken,3038
spoofs,3039
spots,3040
spouses,3041
springer,3042
stable,3043
staffer,3044
stage,3045
staged,3046
stand,3047
standing,3048
stands,3049
star,3050
staring,3051
start,3052
started,3053
starting,3054
starts,3055
state,3056
statement,3057
statements,3058
states,3059
statistics,3060
status,3061
stay,3062
stayed,3063
staying,3064
stealingsand,3065
step,3066
stereotype,3067
stevenbjohnson,3068
stick,3069
sticking,3070
stiff,3071
stillgray,3072
stinking,3073
stirred,3074
stole,3075
stones,3076
stonespiral,3077
stood,3078
stoopid,3079
stop,3080
stopped,3081
storage,3082
stories,3083
storing,3084
storm,3085
story,3086
stoutware,3087
straight,3088
strait,3089
straps,3090
strategic,3091
strategies,3092
strategist,3093
strategy,3094
stray,3095
stream,3096
streaming,3097
street,3098
strength,3099
strengthened,3100
strengthens,3101
stressed,3102
stressing,3103
stretch,3104
strides,3105
strikes,3106
stringing,3107
strings,3108
striper,3109
strokes,3110
strong,3111
stronger,3112
strongest,3113
strongly,3114
stubborn,3115
stubbornness,3116
stuck,3117
studied,3118
study,3119
stuff,3120
stumbled,3121
stump,3122
stumped,3123
stunt,3124
stupid,3125
stuttering,3126
style,3127
subcommittee,3128
subject,3129
subliminal,3130
subsidies,3131
substance,3132
substantive,3133
succeed,3134
succeeded,3135
success,3136
successes,3137
successful,3138
sucked,3139
sucking,3140
sucks,3141
sudden,3142
suffer,3143
suffering,3144
suffers,3145
suggest,3146
suggestion,3147
suicide,3148
suit,3149
suited,3150
sull,3151
summed,3152
sums,3153
sung,3154
sunk,3155
sunni,3156
sup,3157
superior,3158
superiority,3159
supes,3160
support,3161
supported,3162
supporters,3163
supporting,3164
supports,3165
supposed,3166
suprised,3167
sure,3168
surely,3169
surge,3170
surprise,3171
surprised,3172
surreal,3173
suspended,3174
suspension,3175
swallow,3176
swayed,3177
sweet,3178
swift,3179
swiftfuel,3180
swiftly,3181
symptom,3182
symptoms,3183
tabloid,3184
tackling,3185
taclke,3186
tactic,3187
tactical,3188
tactics,3189
tag,3190
tags,3191
tail,3192
tailspin,3193
tainted,3194
taken,3195
takes,3196
taking,3197
taliban,3198
taling,3199
talk,3200
talked,3201
talking,3202
talks,3203
taller,3204
tally,3205
tangents,3206
tank,3207
tanner,3208
tap,3209
target,3210
tarheelcoxn,3211
task,3212
tax,3213
taxation,3214
taxdollars,3215
taxes,3216
taxpayer,3217
taxpayers,3218
tayari,3219
tdefren,3220
tea,3221
teach,3222
teacher,3223
teaching,3224
team,3225
tears,3226
tech,3227
technology,3228
technosailor,3229
teen,3230
teenagers,3231
teeth,3232
teh,3233
telegraphic,3234
teleprompter,3235
television,3236
teling,3237
tell,3238
telling,3239
temper,3240
temporaryone,3241
tendancies,3242
tequila,3243
term,3244
terms,3245
territory,3246
terror,3247
terrorist,3248
terrorists,3249
terse,3250
test,3251
thang,3252
thank,3253
thanks,3254
thankya,3255
thats,3256
thay,3257
thedailydg,3258
theebaykparsedonedigitd,3259
theirs,3260
theme,3261
thepuck,3262
thing,3263
things,3264
think,3265
thinker,3266
thinking,3267
thinks,3268
thought,3269
thoughts,3270
thousands,3271
threads,3272
threat,3273
threaten,3274
threats,3275
throat,3276
throw,3277
throwing,3278
thursday,3279
thx,3280
tiak,3281
tie,3282
tied,3283
tight,3284
till,3285
time,3286
timeout,3287
times,3288
timeshifted,3289
timetable,3290
timid,3291
timing,3292
tiny,3293
tinyurl,3294
tip,3295
tired,3296
title,3297
tivo,3298
today,3299
todd,3300
toe,3301
told,3302
tolerance,3303
tom,3304
tone,3305
tonight,3306
tonightâ,3307
tonite,3308
took,3309
tool,3310
topic,3311
torture,3312
tortured,3313
total,3314
totally,3315
touch,3316
touching,3317
tough,3318
tougher,3319
toxic,3320
track,3321
tracks,3322
trade,3323
traditions,3324
trained,3325
training,3326
tranquilizer,3327
transcripts,3328
transition,3329
translation,3330
transparency,3331
trap,3332
trashing,3333
travel,3334
traveler,3335
treasure,3336
treat,3337
treating,3338
trend,3339
trickle,3340
tricks,3341
tried,3342
tries,3343
trigger,3344
triggering,3345
trillion,3346
trip,3347
tripled,3348
trite,3349
troll,3350
troop,3351
troops,3352
trouble,3353
true,3354
truly,3355
trumps,3356
trust,3357
truth,3358
try,3359
trying,3360
tune,3361
tunnel,3362
turbine,3363
turf,3364
turn,3365
turned,3366
turns,3367
tv,3368
tweet,3369
tweetdebate,3370
tweeting,3371
tweets,3372
twennty,3373
twice,3374
twisted,3375
twisting,3376
twit,3377
twitpic,3378
twitter,3379
twitterers,3380
tx,3381
ugh,3382
ughhh,3383
ugly,3384
uh,3385
uhh,3386
uhm,3387
ukrainian,3388
ultranurd,3389
um,3390
umm,3391
umph,3392
unable,3393
uncivility,3394
uncle,3395
uncomfortable,3396
uncommitted,3397
unconditional,3398
undecided,3399
undecideds,3400
undergarments,3401
underminds,3402
undersatand,3403
understand,3404
understanding,3405
understands,3406
understatement,3407
uneventful,3408
unfortunately,3409
uniformed,3410
uniquely,3411
united,3412
unnecessarily,3413
unreal,3414
unscripted,3415
unsettling,3416
unsustainably,3417
untasty,3418
uppercut,3419
uppercuts,3420
ups,3421
upset,3422
ur,3423
uranium,3424
usa,3425
use,3426
used,3427
useful,3428
useless,3429
username,3430
users,3431
uses,3432
using,3433
ussr,3434
ustoday,3435
ut,3436
utterly,3437
utters,3438
va,3439
vacay,3440
vader,3441
vain,3442
values,3443
variety,3444
ve,3445
veep,3446
venezuela,3447
verb,3448
verbatim,3449
vermontgmg,3450
version,3451
versus,3452
verterans,3453
vet,3454
veteran,3455
veterans,3456
vetoes,3457
vetoing,3458
vetran,3459
vetrans,3460
vets,3461
vice,3462
victory,3463
video,3464
viet,3465
vietnam,3466
view,3467
viewers,3468
violating,3469
violin,3470
violins,3471
virtually,3472
vis,3473
vision,3474
visiting,3475
voice,3476
void,3477
vote,3478
voted,3479
voter,3480
voters,3481
votes,3482
voting,3483
vp,3484
vps,3485
vs,3486
vu,3487
wage,3488
waging,3489
waht,3490
wait,3491
waiting,3492
waits,3493
wake,3494
walk,3495
walking,3496
wall,3497
wallet,3498
wanna,3499
want,3500
wanted,3501
wanting,3502
wants,3503
wapo,3504
war,3505
ware,3506
warming,3507
warmongering,3508
warp,3509
warring,3510
wars,3511
washed,3512
washington,3513
wasn,3514
waste,3515
watch,3516
watched,3517
watches,3518
watching,3519
water,3520
watts,3521
wave,3522
waving,3523
way,3524
ways,3525
wcdarling,3526
weak,3527
wealth,3528
weapon,3529
weaponry,3530
wear,3531
wearing,3532
webb,3533
webpage,3534
website,3535
week,3536
weeping,3537
weight,3538
weird,3539
welcome,3540
welfare,3541
went,3542
west,3543
wet,3544
whaaat,3545
whale,3546
whales,3547
whatte,3548
wheelchairs,3549
whiie,3550
whine,3551
whistle,3552
whistling,3553
white,3554
whoa,3555
wi,3556
wife,3557
wilder,3558
wildest,3559
wildly,3560
william,3561
williams,3562
win,3563
wind,3564
windy,3565
wing,3566
winner,3567
winners,3568
winning,3569
wins,3570
wiping,3571
wire,3572
wise,3573
wisely,3574
wish,3575
wishes,3576
wolf,3577
woman,3578
women,3579
won,3580
wonder,3581
wondered,3582
wondering,3583
wonders,3584
wont,3585
woo,3586
woods,3587
word,3588
words,3589
wordy,3590
wore,3591
work,3592
worked,3593
worker,3594
workers,3595
working,3596
works,3597
world,3598
worried,3599
worry,3600
worrying,3601
worst,3602
worth,3603
wouldn,3604
wounds,3605
wow,3606
wowza,3607
wrap,3608
wreck,3609
wreke,3610
wrekehavoc,3611
wrinkly,3612
wrong,3613
wrongheaded,3614
wrongly,3615
wtf,3616
www,3617
xd,3618
xrl,3619
ya,3620
yard,3621
yarg,3622
yawn,3623
yawning,3624
yay,3625
yea,3626
yeah,3627
year,3628
years,3629
yelling,3630
yep,3631
yer,3632
yes,3633
yesterday,3634
yikes,3635
yo,3636
young,3637
youre,3638
youth,3639
youtube,3640
yr,3641
yrs,3642
yup,3643
zi,3644
zillion,3645
zing,3646
zingers,3647
zt,3648
