__,0
___,1
____,2
_ibertaddigital,3
_xmas_carroll,4
abandoned,5
able,6
aboutthatlife,7
absolutely,8
abt,9
acceptable,10
access,11
accessibility,12
accessing,13
according,14
account,15
accounts,16
acct,17
accused,18
acting,19
action,20
activating,21
acts,22
actually,23
ad,24
add,25
addict,26
addicted,27
adding,28
address,29
addthis,30
adiman_,31
admirably,32
admit,33
admitting,34
adobe,35
adobemax,36
adopted,37
adopterness,38
advanced,39
advertisements,40
advertising,41
adweek,42
adwords,43
affair,44
affects,45
afmparsedonedigitvsmm,46
agency,47
ages,48
aggregates,49
aggressive,50
agree,51
agvparsedtwodigitsznj,52
ah,53
ahead,54
ahhfuckitsguss,55
aijysfho,56
ailing,57
ain,58
aint,59
air,60
airdrop,61
aka,62
ala,63
alamo,64
alarm,65
alarms,66
albatross,67
albertmalparsedtwodigits,68
album,69
albums,70
alead,71
alert,72
alexlindsay,73
alexmufferi,74
alive,75
alleged,76
allow,77
allowing,78
alongside,79
amandbrar,80
amarsanghera,81
amazed,82
amazing,83
amazon,84
ammmylewis,85
amp,86
amused,87
android,88
androidbeam,89
androidicecreamsandwich,90
androidparsedonedigit,91
andshuttingdownru,92
andshuttingdownrunningprograms,93
angrybirds,94
angst,95
announced,96
announcement,97
annoyed,98
annoying,99
anothericloudfail,100
answer,101
answers,102
anti,103
antitrust,104
anup_pillai,105
anyday,106
anymore,107
aparsedonedigitonparsedonedigitiaa,108
aparsedthreedigitstgparsedonedigitl,109
aparsedtwodigitsy,110
apologize,111
app,112
apparently,113
appear,114
apperature,115
apple,116
applecanada,117
appledomination,118
apples,119
appleupdates,120
appointment,121
appreciated,122
appropriately,123
apps,124
appsense,125
appstore,126
apptment,127
apt,128
ar,129
arc,130
architecture,131
aren,132
argument,133
ari,134
arrived,135
arrogance,136
arrogant,137
art,138
article,139
articles,140
artist,141
asap,142
ashercfo,143
aside,144
asimrang,145
ask,146
asked,147
ass,148
asses,149
assessment,150
assimparsedtwodigits,151
asus,152
ate,153
athen,154
att,155
attacks,156
attempts,157
attending,158
attributed,159
audio,160
august,161
australia,162
authorise,163
authorization,164
authorize,165
authorizing,166
auto,167
automatically,168
autosavesucks,169
av,170
available,171
ave,172
avoided,173
avslparsedonedigitygu,174
awaited,175
away,176
awesome,177
awesomeness,178
awful,179
awkward,180
axlparsedonedigitkparseddigitsgs,181
ayhokgoparsedonedigit,182
azeeparsedonedigitvparseddigits,183
azrael,184
azure,185
baby,186
babygeeks,187
backchannel,188
background,189
backside,190
backup,191
backwards,192
bad,193
bag,194
bahhh,195
ball,196
ballmer,197
ban,198
bandwidth,199
bar,200
bars,201
base,202
based,203
bastards,204
battery,205
batting,206
battle,207
bbm,208
bc,209
beam,210
beat,211
beating,212
beats,213
beautiful,214
bed,215
begin,216
beginning,217
behatreen,218
believe,219
bell,220
bellevue,221
beneficial,222
benefits,223
benrubery,224
berry,225
best,226
bestbuy,227
bestpantsten,228
beta,229
betaparsedonedigit,230
better,231
betweensundays,232
beware,233
bff,234
bg,235
bgkimgjf,236
bgotzjparsedonedigitk,237
bgr,238
bi,239
big,240
bigbrother,241
bigdealdawson,242
biggest,243
bigtrouble,244
billgates,245
billion,246
billions,247
biltmore,248
bind,249
bing,250
bird,251
bisquiat,252
bit,253
bitch,254
bitching,255
biz,256
bkadparsedfourdigits,257
black,258
blackberry,259
blackouts,260
blame,261
blaparsedonedigitze,262
blaring,263
blast,264
blatant,265
blaze,266
blend,267
blessed,268
blew,269
blhhgopo,270
blocked,271
blog,272
bloody,273
bloomberg,274
bloombergnews,275
blowing,276
blown,277
blue,278
blues,279
body,280
bofh,281
bonkoif,282
bonobo,283
boo,284
book,285
bookcase,286
booked,287
bookmarks,288
books,289
boost,290
boot,291
booted,292
borders,293
bored,294
boring,295
bought,296
bound,297
bout,298
box,299
boy,300
boycotting,301
bparsedonedigit,302
bpfkydparsedonedigito,303
bppjwncp,304
bqmuhxkk,305
braille,306
brain,307
brand,308
brandonminiman,309
brands,310
bravo,311
break,312
breaking,313
briancrockerjr,314
brianmincey,315
brightness,316
briliant,317
brilliance,318
brilliant,319
bring,320
bringing,321
broke,322
broken,323
brother,324
browse,325
browsers,326
browserwars,327
bs,328
bsd,329
bud,330
buffalo,331
bug,332
build,333
building,334
buildingwindowsparsedonedigit,335
builds,336
buildwindowsparsedonedigit,337
built,338
builtin,339
bulletproof,340
bullshit,341
bullying,342
bummer,343
bump,344
burkepatch,345
burn,346
bus,347
business,348
businesses,349
busy,350
butler,351
button,352
buttons,353
buy,354
buying,355
bye,356
bznyparsedtwodigitsnn,357
cable,358
calendar,359
called,360
calling,361
calls,362
came,363
camera,364
camper,365
campus,366
canada,367
canadait,368
cancer,369
canon,370
cans,371
cap,372
capabilities,373
capacity,374
car,375
caracteres,376
card,377
cards,378
cardsapp,379
care,380
careers,381
carltonparsedthreedigits,382
carrier,383
carriers,384
carrypad,385
carsonfratus,386
case,387
cash,388
catastrophe,389
catastrophically,390
catchy,391
caught,392
cause,393
causes,394
cbm,395
cc,396
centre,397
ceo,398
ceremoniously,399
certain,400
certification,401
cesspit,402
chadleaman,403
champ,404
chance,405
change,406
changed,407
changes,408
chao,409
chaos,410
characters,411
charge,412
charging,413
charity,414
charlesarthur,415
chascouponmom,416
cheap,417
check,418
checkboxes,419
cheer,420
chief,421
child,422
china,423
chipsets,424
choice,425
choices,426
chosen,427
chris,428
chrome,429
chu,430
chucktodd,431
circustk,432
cisco,433
citizenship,434
cjwallaceparsedtwodigits,435
clarence,436
class,437
claws,438
clean,439
cleaned,440
clear,441
cli,442
click,443
clicking,444
clocks,445
close,446
closed,447
closely,448
closer,449
cloud,450
clouds,451
cloudy,452
club,453
clue,454
cnet,455
cnt,456
coach,457
coast,458
coated,459
code,460
codename,461
collaborated,462
colleague,463
collection,464
collects,465
college,466
colour,467
combination,468
combine,469
combo,470
come,471
comes,472
coming,473
commands,474
comments,475
commercial,476
committed,477
communications,478
community,479
comp,480
compact,481
companies,482
company,483
compares,484
comparing,485
compatibility,486
compatible,487
compelling,488
competitive,489
compilation,490
complain,491
complaints,492
complete,493
completely,494
completes,495
compliments,496
compose,497
composite,498
computer,499
concept,500
concerned,501
concluded,502
conditions,503
conference,504
configure,505
confused,506
confusin,507
confusing,508
congratulations,509
connect,510
connected,511
connecting,512
connection,513
considering,514
console,515
consolidation,516
consultingware,517
consumer,518
cont,519
contact,520
contacts,521
contender,522
content,523
continued,524
continuing,525
continuously,526
contracts,527
control,528
conversation,529
conversations,530
converting,531
coo,532
cool,533
coollike,534
copy,535
coqclbparsedonedigitr,536
cord,537
corporate,538
corporation,539
correct,540
correction,541
cost,542
couldn,543
counter,544
couple,545
courtesy,546
covent,547
covers,548
coworker,549
cparsedonedigittuparsedonedigitdzk,550
cparsedtwodigitssnizt,551
crack,552
cracked,553
crankywithnophone,554
crap,555
crappy,556
crash,557
crashes,558
crashing,559
craving,560
crazy,561
cream,562
create,563
creating,564
creative,565
credit,566
creepy,567
critical,568
criticise,569
cropping,570
crowd,571
crparsedonedigitaparseddigitskparsedonedigitu,572
crushed,573
cs,574
csaefrhc,575
ctp,576
cu,577
curate,578
curious,579
current,580
currently,581
curse,582
customer,583
customers,584
custserv,585
cute,586
cutting,587
cuz,588
cvfwmvmo,589
cxovkparsedonedigitww,590
cyanogenmod,591
dad,592
dailydealchat,593
dalmaer,594
damage,595
damaged,596
dammit,597
damn,598
dancemoms,599
danielpink,600
dariuszporowski,601
dark,602
darkness,603
data,604
dates,605
daughter,606
davidegori,607
day,608
dayparsedthreedigits,609
days,610
db,611
dbbwsdpx,612
dead,613
deal,614
dealing,615
deals,616
dear,617
death,618
deb_lavoy,619
debt,620
debut,621
decades,622
decent,623
decide,624
decides,625
decline,626
declined,627
declining,628
def,629
definitely,630
delay,631
delegates,632
delete,633
deleted,634
delicious,635
deliver,636
delivered,637
delivering,638
dell,639
demo,640
demonstration,641
dennisritchie,642
dependent,643
deploying,644
derryxowners,645
design,646
designed,647
designs,648
desired,649
desktop,650
desperatehousewives,651
destroying,652
detailed,653
details,654
detection,655
dev,656
developer,657
developers,658
device,659
devices,660
dezz,661
deár,662
dff,663
dffkvnsj,664
dhilipsiva,665
dick,666
dicks,667
dictation,668
did,669
didn,670
die,671
died,672
difference,673
different,674
difficult,675
digging,676
digit,677
digital,678
dilation,679
dine,680
direct,681
directions,682
directly,683
dis,684
disabling,685
disappear,686
disappointed,687
disappointing,688
disappointment,689
disaster,690
discu,691
discussion,692
dishing,693
disruptions,694
dissent,695
distractions,696
distributing,697
distrust,698
ditch,699
dm,700
docs,701
document,702
dodgy,703
does,704
doesn,705
doesnt,706
dohdenmg,707
doing,708
dollar,709
dollars,710
domain,711
don,712
dont,713
door,714
doorstep,715
dose,716
dosent,717
dostupan,718
dotnet,719
double,720
doubt,721
douchebags,722
doug_newton,723
downgrade,724
download,725
downloaded,726
downloads,727
dparsedonedigit,728
dparsedonedigiteejhbt,729
dparsedonedigitvjlparsedonedigitsi,730
drain,731
drakes,732
drawlin,733
dreams,734
drewbezanson,735
drink,736
driving,737
droid,738
drop,739
dropbox,740
dropped,741
drops,742
drying,743
dst,744
duet,745
dumb,746
dump,747
duped,748
duplicates,749
duplicating,750
durable,751
dvroegop,752
dxxklubp,753
dying,754
dynamics,755
ea_jorge,756
ear,757
earbuds,758
early,759
earned,760
ears,761
earth,762
easier,763
easter,764
easy,765
eating,766
ebook,767
eclipsed,768
economics,769
ectparsedonedigitfyia,770
ed,771
edbott,772
edchat,773
edge,774
editing,775
editor,776
edswoxoc,777
education,778
effect,779
efffing,780
efficient,781
eggs,782
ejunkie,783
elcheicon,784
electability,785
electric,786
electricsoup,787
elop,788
em,789
email,790
emails,791
emphasis,792
employees,793
emptythreats,794
enabled,795
encourage,796
encrypt,797
end,798
endless,799
enemies,800
engadget,801
engages,802
engaging,803
engine,804
enhance,805
enjoy,806
enjoying,807
enrages,808
entering,809
enterprise,810
entrepreneurs,811
eorosstx,812
eparsedonedigituhkaparsedonedigitf,813
eparsedonedigitumrmro,814
epicfail,815
epub,816
equal,817
equipment,818
equivalent,819
erp,820
error,821
errors,822
especially,823
essential,824
esxiparsedonedigit,825
eta,826
ethiopian,827
europeansp,828
evangelist,829
event,830
events,831
everson,832
everybody,833
everytime,834
evil,835
exam,836
excellent,837
exception,838
exchange,839
exchg,840
excited,841
exciting,842
exclaims,843
exclusive,844
excuse,845
executive,846
executives,847
exercise,848
expanded,849
expected,850
expensive,851
expensivepaperweight,852
experience,853
explain,854
explaining,855
explains,856
explorer,857
express,858
extend,859
extent,860
extreme,861
extremists,862
eye,863
eyelash,864
ezjczltparsedonedigit,865
face,866
facebook,867
faceboook,868
facial,869
facialunlock,870
fact,871
faculty,872
fad,873
fade,874
fail,875
failed,876
failing,877
fails,878
fair,879
faith,880
fall,881
fallen,882
falling,883
false,884
family,885
fan,886
fantastic,887
fantasy,888
far,889
farreal,890
fast,891
faster,892
fat,893
fatfuckingchance,894
fault,895
favorite,896
fawkin,897
fb,898
fcucks,899
feature,900
featured,901
features,902
fed,903
federal,904
feeding,905
feel,906
feeling,907
fellows,908
fiction,909
figure,910
figured,911
figures,912
fiioapkt,913
file,914
files,915
finally,916
finance,917
financial,918
fine,919
finest,920
finish,921
finland,922
firefox,923
fishmama,924
fitiparsedonedigitzia,925
fix,926
fixation,927
fixed,928
fixing,929
flash,930
flashcard,931
flat,932
flawless,933
floridamike,934
fm,935
fml,936
fmzfwgyv,937
focus,938
fold,939
folder,940
folders,941
folks,942
followlimitisgay,943
followme,944
font,945
football,946
forbes,947
force,948
forced,949
forces,950
ford,951
forever,952
forget,953
format,954
forstall,955
forsure,956
forth,957
forward,958
fotografia,959
foundation,960
fparsedonedigitaztiad,961
fparsedonedigithwanparsedonedigitq,962
frame,963
framework,964
fran_mac_,965
freaking,966
free,967
freedom,968
freeze,969
freezes,970
french,971
fresh,972
friends,973
friendship,974
froze,975
frozen,976
fruits,977
frustrated,978
frustration,979
fsf,980
ftw,981
fuck,982
fucked,983
fucking,984
fuckingpissed,985
fuckingshinez,986
fucks,987
fuh,988
fun,989
function,990
functions,991
funds,992
funnyyyyyyy,993
future,994
futuristic,995
fuzzball,996
fwm,997
fxhomehitfilm,998
fytcyegparsedonedigit,999
gah,1000
galaxy,1001
galaxynexus,1002
gallery,1003
game,1004
gamerchikparsedtwodigits,1005
gamers,1006
games,1007
gaming,1008
ganna,1009
garbage,1010
garden,1011
garmin,1012
garr_williams,1013
gate,1014
gates,1015
gatos,1016
gave,1017
gay,1018
gazmaz,1019
gcicpexparsedonedigit,1020
gcyparsedonedigitiphn,1021
gdcurry,1022
gear,1023
geek,1024
gem,1025
gen,1026
generator,1027
genius,1028
geniusbar,1029
geolocation,1030
german,1031
gets,1032
gettin,1033
getting,1034
gf,1035
ghost,1036
giants,1037
gigs,1038
girlfriend,1039
girlies,1040
gives,1041
givin,1042
giving,1043
gjiuparsedonedigitzzparsedonedigit,1044
gklxmuiparsedonedigit,1045
gkparsedonedigityjtfy,1046
glad,1047
glass,1048
global,1049
globe,1050
gm,1051
gmail,1052
gmsgxcqparsedonedigit,1053
gnu,1054
gnyparsedonedigitgparsedtwodigitsb,1055
god,1056
gods,1057
goes,1058
going,1059
gone,1060
gonna,1061
good,1062
goodbye,1063
goodriddance,1064
google,1065
googleapps,1066
googlemusic,1067
googleplus,1068
googleresearch,1069
got,1070
gotta,1071
gotten,1072
gov,1073
gparsedonedigitelvrvj,1074
gpo,1075
grab,1076
grandma,1077
graphic,1078
grass,1079
gratis,1080
greader,1081
great,1082
greatly,1083
greatsuccess,1084
greedy,1085
greener,1086
greenwich,1087
gregulatorparsedonedigit,1088
gretcheneclark,1089
grrrr,1090
gruber,1091
gt,1092
gtqdvfxo,1093
guardian,1094
guardiantech,1095
guess,1096
gui,1097
guide,1098
guy,1099
guys,1100
gwokoceg,1101
ha,1102
hack,1103
hacked,1104
hah,1105
haha,1106
hahaha,1107
hailfireparsedthreedigits,1108
hairline,1109
half,1110
hand,1111
handle,1112
handled,1113
hands,1114
handsets,1115
happen,1116
happened,1117
happening,1118
happens,1119
happier,1120
happy,1121
hard,1122
harder,1123
hardware,1124
hashtags,1125
hasn,1126
hate,1127
hated,1128
haven,1129
havin,1130
having,1131
hay,1132
hbogo,1133
hckjxzparsedonedigitk,1134
hd,1135
hdmi,1136
hdv,1137
headache,1138
headed,1139
headings,1140
headphones,1141
health,1142
hear,1143
heard,1144
heck,1145
hell,1146
hella,1147
hello,1148
help,1149
helped,1150
helps,1151
helsinki,1152
herahussain,1153
hero,1154
hey,1155
hfwpbmyparsedonedigit,1156
hide,1157
high,1158
highlight,1159
highscoolmemories,1160
hilarious,1161
hindi,1162
hire,1163
hiss,1164
history,1165
hit,1166
hjparsedonedigitqlocparsedonedigit,1167
hmmm,1168
hmmmm,1169
hobparsedtwodigitshbo,1170
hockey,1171
hold,1172
holodeck,1173
holodesk,1174
home,1175
honeka,1176
honest,1177
hong,1178
honored,1179
hooked,1180
hookup,1181
hope,1182
hopefully,1183
hoping,1184
horizontal,1185
horrible,1186
hosting,1187
hot,1188
hotel,1189
hotspots,1190
hour,1191
hourly,1192
hours,1193
houston,1194
hp,1195
hrs,1196
ht,1197
htc,1198
htmlparsedonedigit,1199
http,1200
https,1201
hubby,1202
huge,1203
huh,1204
humpt,1205
hungry,1206
hurry,1207
hurts,1208
hut,1209
hypo,1210
håper,1211
iamdkt,1212
ibm,1213
ibooks,1214
ical,1215
ice,1216
icecream,1217
icecreamsandwich,1218
icecreamsandwichfail,1219
icloud,1220
icon,1221
ics,1222
id,1223
idea,1224
ideas,1225
idisk,1226
idk,1227
idontunderstand,1228
idtheftprotect,1229
ieparsedonedigit,1230
ifollowback,1231
igiveup,1232
ihateyourightnow,1233
ijparsedonedigitxydpparsedonedigit,1234
ijustine,1235
ill,1236
illustrating,1237
iloveyou,1238
im,1239
imac,1240
image,1241
images,1242
imamac,1243
imessage,1244
imightbewrong,1245
imitation,1246
immad_immad,1247
immediate,1248
immobile,1249
imo,1250
impact,1251
importance,1252
impossible,1253
impressed,1254
impressions,1255
impressive,1256
improve,1257
improvements,1258
inbox,1259
inbuilt,1260
incapable,1261
include,1262
included,1263
includes,1264
incompatible,1265
inconvenienced,1266
incredible,1267
india,1268
indian,1269
indians,1270
individual,1271
ineedthosepictures,1272
inept,1273
inferno,1274
infinite,1275
infinitywebinar,1276
info,1277
infofail,1278
inform,1279
information,1280
informationweek,1281
injunction,1282
inline,1283
innovation,1284
innovations,1285
innovators,1286
inparsedonedigit,1287
input,1288
insanely,1289
inside,1290
inspire,1291
inspired,1292
instagram,1293
install,1294
installed,1295
installing,1296
instant,1297
instantfollowback,1298
instantly,1299
instead,1300
insurance,1301
integrate,1302
integrated,1303
integrating,1304
intel,1305
intensifies,1306
interesing,1307
interested,1308
interesting,1309
interests,1310
interface,1311
interference,1312
internet,1313
interoperability,1314
interrupting,1315
intervals,1316
introduce,1317
introduced,1318
introducing,1319
introduction,1320
intuitive,1321
invented,1322
invention,1323
inventor,1324
invested,1325
investigate,1326
investments,1327
io,1328
ioparsedonedigit,1329
ios,1330
iosparsedonedigit,1331
iosparsedonedigitdowngrade,1332
ip,1333
ipad,1334
ipadparsedonedigit,1335
ipads,1336
iparsedonedigits,1337
iparsedonedigitsparseddigits,1338
ipas,1339
iphone,1340
iphoneparsedonedigit,1341
iphoneparsedonedigits,1342
iphones,1343
iphoto,1344
ipod,1345
ipodparsedonedigits,1346
irvysan,1347
isb,1348
iscsi,1349
ishit,1350
isn,1351
isnt,1352
isorry,1353
issue,1354
issues,1355
italianjoya,1356
itdklrry,1357
item,1358
items,1359
itjustworks,1360
itnews_au,1361
itouch,1362
itouchparsedonedigit,1363
itstolate,1364
itunes,1365
itunesmatch,1366
itunesmusic,1367
iuyparsedonedigitdfparsedonedigits,1368
iyoparsedtwodigitsgvj,1369
izhparsedonedigitkaiu,1370
izoparsedonedigitwunt,1371
jackasses,1372
jacked,1373
jailbroke,1374
jailbroken,1375
jaime_rivera,1376
jajajajajajaj,1377
james,1378
janeparsedtwodigits,1379
japan,1380
jaroslovsky,1381
jatfvfpm,1382
jcawwrzq,1383
jdougyj,1384
jean,1385
jeffbullas,1386
jewelzparsedfourdigits,1387
jhdtykcv,1388
jilive,1389
jimmcniel,1390
jimmlparsedonedigitrc,1391
jinnhvwz,1392
jizz,1393
jkotcrmb,1394
jkotcrmbstephen,1395
jldavid,1396
joannejacobs,1397
job,1398
jobs,1399
joebelfiore,1400
joelburns,1401
joelplane,1402
john,1403
join,1404
jolieesharmeda,1405
jolly,1406
jonparsedonedigitlakers,1407
jonsibley,1408
jowyang,1409
jparsedonedigitftieng,1410
jparsedthreedigitszfpo,1411
jsqparsedtwodigitsnuq,1412
jumpin,1413
junk,1414
jure,1415
jus,1416
just,1417
justsaying,1418
jzmvbdnm,1419
karljuhlke,1420
katebetts,1421
kathrynyee,1422
kdtdparsedonedigitzre,1423
keeping,1424
keeps,1425
keepthedesktop,1426
kenyaopendoor,1427
kevin,1428
key,1429
keyboard,1430
keyboards,1431
keys,1432
kgnrbvgp,1433
kick,1434
kidding,1435
kids,1436
kill,1437
killed,1438
killing,1439
kimaris,1440
kind,1441
kindahow,1442
kinect,1443
king,1444
kjkzparsedtwodigitszy,1445
kjparsedonedigitpjvkh,1446
klmgkhparsedonedigitv,1447
knew,1448
knizparsedthreedigitss,1449
know,1450
known,1451
knows,1452
kong,1453
kostatsetsekas,1454
krause,1455
kudos,1456
kursed,1457
kushkittyparsedthreedigits,1458
kvjsercj,1459
kxboqskj,1460
kyliemessier,1461
kymbersanden,1462
la,1463
lack,1464
lag,1465
lager,1466
laggin,1467
laid,1468
lame,1469
land,1470
languages,1471
laptop,1472
laser,1473
lasted,1474
late,1475
later,1476
latest,1477
laughable,1478
launch,1479
launches,1480
launchfail,1481
launching,1482
laundering,1483
law,1484
laws,1485
laying,1486
layout,1487
lcmediahouse,1488
lcxaparsedonedigitqparseddigitsp,1489
ldparsedonedigitiparsedthreedigitsx,1490
lead,1491
leader,1492
leading,1493
lean,1494
leap,1495
learn,1496
learned,1497
learning,1498
leave,1499
leaves,1500
leaving,1501
lecture,1502
left,1503
leiboaz,1504
leopard,1505
lesson,1506
let,1507
letdown,1508
letme,1509
lets,1510
letter,1511
letting,1512
lgfw,1513
licensing,1514
lie,1515
lies,1516
life,1517
lifted,1518
light,1519
lightning,1520
like,1521
likes,1522
liking,1523
lil,1524
limit,1525
line,1526
link,1527
linkedin,1528
linux,1529
lion,1530
lisa,1531
lisa_marieparsedfourdigits,1532
list,1533
listed,1534
listening,1535
listing,1536
literally,1537
little,1538
live,1539
lives,1540
living,1541
ljpgvzjt,1542
lk,1543
ll,1544
llslrxfm,1545
lmao,1546
lmfao,1547
load,1548
loathe,1549
lobby,1550
local,1551
locate,1552
located,1553
location,1554
lock,1555
logged,1556
logicparsedfourdigits,1557
login,1558
lol,1559
lolol,1560
lonely,1561
long,1562
longer,1563
look,1564
looking,1565
looks,1566
loop,1567
loose,1568
lord,1569
lords,1570
los,1571
lose,1572
losing,1573
loss,1574
lost,1575
lot,1576
lots,1577
love,1578
loved,1579
lovee,1580
loveguru_b,1581
lovemyiphone,1582
loves,1583
lovin,1584
loving,1585
low,1586
loyalty,1587
lparsedonedigitmtmparsedonedigitig,1588
lparsedonedigitrsxparsedonedigityf,1589
lparsedtwodigitsowqre,1590
lt,1591
luck,1592
lucky_parsedonedigit_have,1593
lunch,1594
lvffdcel,1595
lwjpparsedonedigitgiu,1596
lwtpxejo,1597
ly,1598
lync,1599
ma,1600
mac,1601
macbook,1602
machine,1603
macosc,1604
madness,1605
magazine,1606
magic,1607
magical,1608
magically,1609
mail,1610
mainey_maine,1611
maintenance,1612
major,1613
majorfail,1614
make,1615
makemeproud,1616
makes,1617
making,1618
mall,1619
man,1620
manage,1621
managed,1622
management,1623
manager,1624
mandarin,1625
manelfmartinez,1626
mango,1627
manually,1628
maoqaplh,1629
map,1630
march,1631
marcoarment,1632
mariospr,1633
market,1634
marketing,1635
marks,1636
markstuver,1637
mashable,1638
match,1639
matthewgphy,1640
mattmarcheski,1641
mattyriesz,1642
maximize,1643
mayati,1644
maybe,1645
mb,1646
mcp,1647
mcwparsedtwodigitsvtg,1648
mczparsedonedigitrsdf,1649
mdqhbparsedonedigitxparseddigits,1650
mean,1651
means,1652
media,1653
medical,1654
meego,1655
meet,1656
mega,1657
meghankel,1658
melaleucathewellnesscompany,1659
melts,1660
member,1661
mention,1662
mentions,1663
mentor,1664
message,1665
messages,1666
messed,1667
messy,1668
metro,1669
microsof,1670
microsoft,1671
microsoftstores,1672
middle,1673
midnight,1674
mightily,1675
migrating,1676
miley,1677
mileycyrus,1678
millenia,1679
million,1680
millions,1681
mimecastsa,1682
min,1683
mind,1684
mins,1685
minute,1686
minutes,1687
miss,1688
missed,1689
missing,1690
mission,1691
mixedchikparsedtwodigits,1692
mixer,1693
mmm,1694
mmmm,1695
mnparsedonedigitnova,1696
mnparsedtwodigitsrparsedonedigitvc,1697
mo,1698
mobile,1699
mobileburn,1700
mobileme,1701
mode,1702
model,1703
models,1704
modify,1705
mohamedg,1706
mole,1707
mom,1708
moment,1709
monday,1710
monkeys,1711
monopolistic,1712
monopoly,1713
month,1714
months,1715
mood,1716
mothafuckin,1717
motorola,1718
mountainview,1719
mouse,1720
movies,1721
moving,1722
mp,1723
mr,1724
mr_lister,1725
mrgareth,1726
mrtonysays,1727
ms,1728
msft,1729
msftresearch,1730
msg,1731
msparsedtwodigits,1732
mspegypt,1733
mstapoutbarbie,1734
mtsparsedtwodigits,1735
muchhh,1736
muh,1737
mulling,1738
multiple,1739
music,1740
mute,1741
muuwbgpn,1742
mv,1743
nagoulparsedonedigit,1744
names,1745
nansen,1746
nationalgeographic,1747
native,1748
nauseous,1749
nav,1750
naw,1751
ndk,1752
nearest,1753
nearly,1754
neat,1755
neck,1756
need,1757
needed,1758
needless,1759
neednewipadguide,1760
needparsedonedigits,1761
needs,1762
needsomethingtoread,1763
negative,1764
nejbye,1765
neowin,1766
nerdboner,1767
nerdiness,1768
nervous,1769
net,1770
netbooks,1771
netscape,1772
network,1773
networkin,1774
new,1775
newest,1776
newfeature,1777
news,1778
newsstand,1779
newstand,1780
newton,1781
nexus,1782
nexusprime,1783
nfl,1784
nice,1785
nicholiparsedtwodigits,1786
nicki,1787
nickthefnicon,1788
nicolebanyots,1789
night,1790
nightmares,1791
nobueno,1792
nohelp,1793
nokia,1794
non,1795
nonstop,1796
noowwwwww,1797
nopatience,1798
noreply,1799
notbook,1800
notcool,1801
note,1802
notes,1803
notifications,1804
notified,1805
notifies,1806
notjustaboutthephone,1807
notresponding,1808
nov,1809
novatyler,1810
novell,1811
nparsedonedigit,1812
nparsedonedigitcpuparsedonedigitvj,1813
nsaisrip,1814
nshlfiux,1815
number,1816
numbering,1817
numbers,1818
nuther,1819
nuts,1820
ny,1821
nytimes,1822
nz,1823
obituaries,1824
obnoxious,1825
obsessions,1826
obviously,1827
occur,1828
oeurmtlx,1829
oezkparsedonedigitivparsedonedigit,1830
offer,1831
offering,1832
offers,1833
office,1834
official,1835
officially,1836
offing,1837
offline,1838
ofhparsedonedigitptag,1839
oh,1840
ohnonotagain,1841
ok,1842
okay,1843
old,1844
older,1845
omg,1846
omnitouch,1847
omnomnomnom,1848
ondxwper,1849
ones,1850
online,1851
open,1852
opening,1853
opens,1854
opensource,1855
operating,1856
operation,1857
opinions,1858
opportunities,1859
opportunity,1860
opposite,1861
option,1862
oranges,1863
orbital,1864
order,1865
ordered,1866
ordering,1867
organic,1868
orging,1869
original,1870
os,1871
osx,1872
ouch,1873
outdated,1874
outlaws,1875
outlook,1876
outside,1877
overall,1878
overbearing,1879
overcapacity,1880
owns,1881
oyszmjvi,1882
pad,1883
page,1884
pages,1885
paging_dr_a,1886
paid,1887
pain,1888
painful,1889
painfully,1890
palmface,1891
panasonic,1892
panorama,1893
panoramas,1894
panoramic,1895
pants,1896
parents,1897
parivar,1898
parker,1899
parseddigits,1900
parseddigitsk,1901
parseddigitsnd,1902
parseddigitsst,1903
parseddigitsyrs,1904
parsedfivedigits,1905
parsedfourdigits,1906
parsedfourdigitsp,1907
parsedonedigit,1908
parsedonedigitb,1909
parsedonedigitbn,1910
parsedonedigitbwtparsedonedigitwparseddigitsz,1911
parsedonedigitbwxjadg,1912
parsedonedigitchan,1913
parsedonedigitdays,1914
parsedonedigitexbnqjy,1915
parsedonedigitfhparsedonedigitdfgj,1916
parsedonedigitfmjxtmm,1917
parsedonedigitg,1918
parsedonedigitgjqvewn,1919
parsedonedigitgs,1920
parsedonedigitgupparsedonedigitacz,1921
parsedonedigithr,1922
parsedonedigithrs,1923
parsedonedigithvbcparsedonedigitbm,1924
parsedonedigitibobnrh,1925
parsedonedigitlike,1926
parsedonedigitnd,1927
parsedonedigitoensvgparsedonedigit,1928
parsedonedigitokparsedonedigitxcow,1929
parsedonedigitphhparsedonedigitjbparsedonedigit,1930
parsedonedigitpkparsedonedigitetparsedonedigitr,1931
parsedonedigitpm,1932
parsedonedigitqmgparsedonedigitira,1933
parsedonedigitqnlwftparsedonedigit,1934
parsedonedigitquyparsedonedigituou,1935
parsedonedigitrkochzr,1936
parsedonedigits,1937
parsedonedigitsesvwwm,1938
parsedonedigitsjnparsedonedigitbzz,1939
parsedonedigitss,1940
parsedonedigitst,1941
parsedonedigitsunni,1942
parsedonedigitth,1943
parsedonedigituxawkwf,1944
parsedonedigitwhhmakparsedonedigit,1945
parsedonedigitwvparsedtwodigitsoparsedonedigitv,1946
parsedonedigitx,1947
parsedonedigitxddxnparsedonedigitw,1948
parsedonedigityparseddigitsasparsedonedigitzz,1949
parsedonedigityvjmhnq,1950
parsedonedigitywvbeparsedonedigitz,1951
parsedonedigitzcqparsedtwodigitssf,1952
parsedthreedigits,1953
parsedthreedigitsdaysofgratefulness,1954
parsedthreedigitsklkfh,1955
parsedtwodigits,1956
parsedtwodigitsbit,1957
parsedtwodigitsdyonxz,1958
parsedtwodigitsgajsgi,1959
parsedtwodigitsgb,1960
parsedtwodigitshrs,1961
parsedtwodigitsighgic,1962
parsedtwodigitsjwparsedonedigitzparseddigitsc,1963
parsedtwodigitsk,1964
parsedtwodigitsmb,1965
parsedtwodigitsoglika,1966
parsedtwodigitsohflyparsedonedigit,1967
parsedtwodigitstwitterpeopleiwouldliketomeet,1968
parsedtwodigitswkioxc,1969
parsedtwodigitsyrparsedtwodigitswl,1970
participated,1971
particularly,1972
parts,1973
party,1974
pass,1975
password,1976
past,1977
patent,1978
paulens,1979
pavilions,1980
pay,1981
paying,1982
pc,1983
pcam,1984
pcmjon,1985
pdf,1986
pdfs,1987
people,1988
perfect,1989
perfectly,1990
perform,1991
performance,1992
perils,1993
period,1994
perpetual,1995
person,1996
personal,1997
personalization,1998
petty,1999
ph,2000
philanthropy,2001
philipgrey,2002
philliprowntree,2003
philosophy,2004
phoenixswinger,2005
phone,2006
phonedog_aaron,2007
phones,2008
photo,2009
photograherseye,2010
photography,2011
photos,2012
photosharing,2013
phxguyparsedtwodigits,2014
pick,2015
picking,2016
picture,2017
pictures,2018
piece,2019
pile,2020
pinch,2021
pink,2022
pins,2023
piracy,2024
pissed,2025
pissing,2026
place,2027
plan,2028
planet,2029
plans,2030
platform,2031
platforms,2032
play,2033
playbooks,2034
played,2035
players,2036
playful,2037
playing,2038
playlist,2039
playlists,2040
pleased,2041
plot,2042
plparsedonedigitzeevh,2043
pls,2044
pltitgei,2045
plus,2046
plusone,2047
plz,2048
pmphillips,2049
pocketlint,2050
podcast,2051
podcasts,2052
point,2053
points,2054
poised,2055
policies,2056
policy,2057
polish,2058
politely,2059
politicians,2060
poole,2061
poor,2062
pop,2063
popular,2064
portland,2065
positive,2066
positives,2067
post,2068
power,2069
powered,2070
powerpivot,2071
powerpoint,2072
pparsedonedigithwoparsedtwodigitsx,2073
pparsedonedigitmparseddigitsxvaz,2074
pparsedtwodigitsehduq,2075
ppl,2076
pqparsedtwodigitsgrra,2077
practices,2078
praying,2079
prctices,2080
pre,2081
preaching,2082
predictions,2083
prefer,2084
premise,2085
preordered,2086
present,2087
presentation,2088
presentations,2089
presents,2090
press,2091
prettier,2092
pretty,2093
prettynesz,2094
preventing,2095
preview,2096
previous,2097
price,2098
priceless,2099
prime,2100
printed,2101
privacy,2102
prjusto,2103
pro,2104
probably,2105
problem,2106
problems,2107
probono,2108
process,2109
procrastination,2110
produce,2111
produck,2112
product,2113
productivity,2114
products,2115
profile,2116
profiles,2117
profitering,2118
program,2119
programs,2120
progressed,2121
progressive,2122
project,2123
prolly,2124
promise,2125
promised,2126
promising,2127
promoallday,2128
prone,2129
propaganda,2130
proper,2131
properly,2132
protect,2133
protection,2134
proves,2135
provided,2136
providing,2137
proving,2138
ps,2139
psfk,2140
psn,2141
psujgparsedonedigitpn,2142
public,2143
publicly,2144
puck,2145
pujyvparsedonedigitcparseddigits,2146
pull,2147
pulling,2148
pulls,2149
purchase,2150
purchased,2151
purchasing,2152
purpose,2153
push,2154
putting,2155
pytparsedonedigitvkrp,2156
qa,2157
qamjparsedonedigitmer,2158
qbgxxjmm,2159
qlparsedonedigitzmppo,2160
qmwjtvnk,2161
qparsedonedigitqleokz,2162
qpgxle,2163
qrcode,2164
quality,2165
question,2166
questions,2167
quick,2168
quickly,2169
quickresponse,2170
quite,2171
qvparsedonedigitmparseddigitsunparsedonedigit,2172
racketeering,2173
rad_software,2174
radparsedonedigitwdsw,2175
rafts,2176
raining,2177
raise,2178
ralphbin,2179
ram,2180
ranch,2181
randomly,2182
rape,2183
rauerrtf,2184
razr,2185
rcve,2186
reaaly,2187
reaching,2188
reaction,2189
read,2190
readable,2191
reader,2192
ready,2193
real,2194
realestate,2195
realise,2196
realized,2197
really,2198
reappeared,2199
reason,2200
reasons,2201
reboot,2202
rebuild,2203
receipt,2204
received,2205
recently,2206
recognition,2207
recover,2208
recovered,2209
recruit,2210
red,2211
reddeersteph,2212
redeemed,2213
redesigned,2214
redmond,2215
referring,2216
refurbed,2217
refurbished,2218
regent,2219
register,2220
registered,2221
registration,2222
regular,2223
relaxing,2224
release,2225
released,2226
releasepartyguide,2227
releases,2228
relevance,2229
reliable,2230
remember,2231
remembering,2232
remind,2233
reminder,2234
reminders,2235
removable,2236
removing,2237
remparsedonedigit,2238
rename,2239
renatmin,2240
render,2241
rep,2242
repair,2243
reparsedonedigitnlzgi,2244
replace,2245
replaced,2246
replaceit,2247
replacement,2248
replacing,2249
replied,2250
replies,2251
report,2252
reported,2253
reporting,2254
reports,2255
represent,2256
reprisk,2257
request,2258
required,2259
requires,2260
research,2261
resellars,2262
reservation,2263
reserve,2264
resolution,2265
resolve,2266
resources,2267
respect,2268
respectmaswagg,2269
response,2270
rest,2271
restore,2272
results,2273
retail,2274
retarded,2275
retire,2276
retrieve,2277
return,2278
returning,2279
retweet,2280
retweeted,2281
retweets,2282
revealed,2283
revenue,2284
reverting,2285
review,2286
revolution,2287
rice,2288
rich,2289
richer,2290
rickysinghpt,2291
ridic,2292
right,2293
rim,2294
rimm,2295
ring,2296
ringing,2297
rip,2298
ripstevejobs,2299
rise,2300
riskiest,2301
rite,2302
ritenow,2303
rkparsedonedigitkphss,2304
rly,2305
rmiparsedonedigitosmi,2306
robert_terpstra,2307
roboto,2308
ronakkataria,2309
roolz,2310
room,2311
rooting,2312
rossmistry,2313
rot,2314
round,2315
row,2316
roycind,2317
rparsedonedigithnettu,2318
rparsedonedigitrndnparsedonedigity,2319
rparsedtwodigits,2320
rt,2321
rtdzjqparsedonedigitu,2322
rts,2323
ruining,2324
rule,2325
run,2326
running,2327
runtime,2328
rva,2329
rww,2330
rxwdparsedonedigitsnparsedonedigit,2331
ryanbaldwin,2332
rygurl,2333
rzucfejc,2334
sad,2335
sadmac,2336
safari,2337
safe,2338
safety,2339
sage,2340
said,2341
sake,2342
sale,2343
sales,2344
salesforce,2345
salmonella,2346
samay,2347
samsumg,2348
samsung,2349
samsunggalaxynexus,2350
samsungmobileca,2351
samsungnexus,2352
sander_koers,2353
sandwich,2354
santa,2355
santorum,2356
sap,2357
saptha,2358
sarahhhhhparsedthreedigits,2359
save,2360
saved,2361
saw,2362
say,2363
saying,2364
says,2365
sbs,2366
sbsparsedfourdigits,2367
scalability,2368
scares,2369
schaumburg,2370
schedule,2371
schestowitz,2372
school,2373
science,2374
science_alex,2375
scientist,2376
scores,2377
scottdugas,2378
scottydparsedfivedigits,2379
screen,2380
screened,2381
screenshot,2382
screenshots,2383
screw,2384
screwed,2385
screwing,2386
scroll,2387
scrolling,2388
sd,2389
sdk,2390
sdparsedtwodigits,2391
seamlessly,2392
sean,2393
search,2394
searches,2395
searching,2396
sebascoulombe,2397
second,2398
section,2399
secure,2400
seeing,2401
seeks,2402
seemingly,2403
seen,2404
select,2405
self,2406
sell,2407
selling,2408
sells,2409
selop,2410
semilshah,2411
send,2412
sending,2413
sent,2414
sentences,2415
seo,2416
september,2417
seriously,2418
served,2419
server,2420
servers,2421
serves,2422
service,2423
services,2424
sesamestreet,2425
session,2426
set,2427
setting,2428
settings,2429
sgn,2430
shagged,2431
shagorikah,2432
share,2433
sharepoint,2434
sharing,2435
shaydiddy,2436
shhhh,2437
shifted,2438
ship,2439
shipping,2440
shit,2441
shitt,2442
shitty,2443
shlft,2444
shoot,2445
shore,2446
shoukd,2447
showed,2448
showin,2449
showing,2450
shows,2451
shuffle,2452
shutter,2453
sick,2454
sigh,2455
sign,2456
signal,2457
signs,2458
signups,2459
silly,2460
silverlight,2461
similar,2462
simple,2463
simplifies,2464
simply,2465
sinanaral,2466
singaporean,2467
singing,2468
siri,2469
sister,2470
sit,2471
site,2472
sites,2473
sith,2474
sitting,2475
skandalasgp,2476
skills,2477
skin,2478
skype,2479
slacking,2480
slashgear,2481
sledgehammer,2482
sleek,2483
sleep,2484
slegit,2485
slick,2486
slide,2487
slightly,2488
slipping,2489
sloppy,2490
slow,2491
slower,2492
slowly,2493
slows,2494
sm,2495
smalfunctioningagain,2496
small,2497
smallvictory,2498
smart,2499
smarterphone,2500
smartest,2501
smartkeitai,2502
smartphone,2503
smashed,2504
smau,2505
smm,2506
sms,2507
snatched,2508
snippy,2509
snlparsedtwodigitsemparsedonedigit,2510
snow,2511
social,2512
socialmedia,2513
software,2514
solution,2515
solutions,2516
solve,2517
someparsedonedigit,2518
song,2519
songs,2520
sony,2521
soon,2522
sooo,2523
soooo,2524
soparsedonedigitwparseddigitsspn,2525
sorri,2526
sorry,2527
sorude,2528
sought,2529
sound,2530
soundmore,2531
sounds,2532
source,2533
sources,2534
space,2535
spacecanard,2536
spaces,2537
spam,2538
spanish,2539
sparsedonedigit,2540
speakers,2541
speaking,2542
speech,2543
speed,2544
spell,2545
spend,2546
spending,2547
spiral,2548
spoiled,2549
spoke,2550
sponsors,2551
spontaneously,2552
spparsedfourdigits,2553
sprint,2554
spying,2555
sql,2556
sqlserver,2557
sqneparsedonedigitilb,2558
st,2559
stable,2560
stacks,2561
staff,2562
stage,2563
stalkerismo,2564
stalking,2565
stand,2566
standards,2567
star,2568
start,2569
started,2570
starting,2571
starts,2572
states,2573
station,2574
steeloparsedthreedigits,2575
steffen,2576
step,2577
steps,2578
steve,2579
steveballmer,2580
steveballmet,2581
stevejobs,2582
stewart,2583
stick,2584
stickies,2585
sticking,2586
sticky,2587
stink,2588
stolen,2589
stop,2590
storage,2591
store,2592
stores,2593
stories,2594
story,2595
straight,2596
strategy,2597
stream,2598
street,2599
stressed,2600
stuck,2601
studies,2602
study,2603
studying,2604
studyingwhilstmotivated,2605
stuff,2606
stumped,2607
stupid,2608
style,2609
stylus,2610
submitted,2611
subscriptions,2612
subtweeting,2613
suburbs,2614
succeed,2615
success,2616
sucha,2617
suck,2618
suckers,2619
sucking,2620
sucks,2621
sudden,2622
suddenly,2623
suffering,2624
sugar,2625
suggested,2626
suing,2627
summer,2628
sums,2629
sun,2630
sunday,2631
super,2632
superb,2633
superior,2634
superphone,2635
support,2636
supports,2637
sure,2638
surely,2639
surface,2640
surprised,2641
surprises,2642
survey,2643
surviving,2644
susanfelicity,2645
suspecting,2646
sux,2647
swaag,2648
swallow,2649
sware,2650
swear,2651
sweatshops,2652
sweet,2653
switch,2654
switched,2655
swpats,2656
swype,2657
sydney,2658
sym,2659
sync,2660
synching,2661
syncing,2662
syncronize,2663
syncs,2664
sysadmin,2665
systems,2666
tablet,2667
tablets,2668
tah_med,2669
taken,2670
takes,2671
taking,2672
talk,2673
talking,2674
target,2675
tasparsedfivedigits,2676
taste,2677
taught,2678
tbnyxparsedonedigitpparseddigits,2679
tcn,2680
tcot,2681
team,2682
teamed,2683
teamfollowback,2684
teamo,2685
teams,2686
tear,2687
teasing,2688
tech,2689
techedafrica,2690
techfest,2691
techflash,2692
techie,2693
techietroubles,2694
technical,2695
technological,2696
technology,2697
techsupport,2698
techy,2699
teehee,2700
telegraph,2701
tell,2702
telling,2703
tellme,2704
tells,2705
terminal,2706
terms,2707
terrible,2708
test,2709
testing,2710
tests,2711
text,2712
texts,2713
thank,2714
thankful,2715
thankfully,2716
thanks,2717
thanksfornothing,2718
thankyou,2719
thats,2720
thattechguyparsedtwodigits,2721
theft,2722
thegadgetshow,2723
thelittleappkid,2724
themarketaire,2725
theme,2726
themes,2727
thenonsensepersists,2728
theresamarosy,2729
thievingbastards,2730
thing,2731
things,2732
thingsweallhate,2733
thingswealllove,2734
think,2735
thinking,2736
thinks,2737
thnx,2738
tho,2739
thomas,2740
thorn,2741
thorough,2742
thought,2743
thoughts,2744
threat,2745
threaten,2746
throat,2747
throw,2748
throws,2749
thunderbird,2750
thunderbolt,2751
thursday,2752
thx,2753
thxx,2754
tiger,2755
time,2756
timed,2757
timeline,2758
times,2759
timewarnercable,2760
timing,2761
tint,2762
tipped,2763
tired,2764
tita_ramos,2765
titanic,2766
tl,2767
tmdfqreparsedonedigit,2768
tmw,2769
today,2770
told,2771
toledo,2772
tomcolontonio,2773
tomkeene,2774
tommylee,2775
tomorrow,2776
tone,2777
tones,2778
tonight,2779
tonite,2780
tons,2781
took,2782
tool,2783
tools,2784
toparsedonedigitne,2785
tossing,2786
total,2787
totally,2788
touch,2789
touchscreen,2790
tour,2791
toy,2792
toys,2793
training,2794
transferred,2795
trash,2796
treyhobparsedtwodigits,2797
tri,2798
trial,2799
tribute,2800
tried,2801
tries,2802
trip,2803
triple,2804
triplingo,2805
trisha_ps,2806
trivia,2807
trojan,2808
tron,2809
tronman,2810
trouble,2811
truly,2812
try,2813
trying,2814
tsql,2815
tt,2816
tuesday,2817
tunes,2818
turn,2819
turned,2820
turning,2821
turns,2822
tv,2823
twalve,2824
tweet,2825
tweeting,2826
tweets,2827
twitter,2828
twitterapp,2829
twitterless,2830
twitternation,2831
twitters,2832
tx,2833
txts,2834
ty,2835
type,2836
typing,2837
uaqrxtnk,2838
uber,2839
uch,2840
ufparsedonedigittakparsedonedigitf,2841
ugh,2842
ughh,2843
ugly,2844
uh,2845
ui,2846
uiparsedonedigitadparsedonedigitfj,2847
uiparsedonedigitloezx,2848
ukwokbgd,2849
ultimate,2850
um,2851
umber,2852
umd,2853
umparsedthreedigitsjfh,2854
unable,2855
unbelievable,2856
unborn,2857
undergo,2858
underrated,2859
understand,2860
underwhelming,2861
undo,2862
unexpected,2863
unfair,2864
unhappy,2865
unified,2866
units,2867
university,2868
unless,2869
unlike,2870
unlock,2871
unlocking,2872
unmindful,2873
unquality,2874
unreal,2875
unveil,2876
unveiled,2877
unwanted,2878
upcoming,2879
update,2880
updated,2881
updater,2882
updates,2883
updating,2884
upgrade,2885
upgraded,2886
upgrading,2887
uphill,2888
upload,2889
ups,2890
upset,2891
ur,2892
url,2893
urxjixce,2894
usage,2895
use,2896
used,2897
useful,2898
useless,2899
user,2900
users,2901
uses,2902
using,2903
usual,2904
utilities,2905
utter,2906
utterly,2907
uweyalkb,2908
ux,2909
validated,2910
values,2911
vancouver,2912
vattam,2913
ve,2914
vegas,2915
venturebeat,2916
verizon,2917
verizonwireless,2918
vers,2919
version,2920
vertical,2921
vibrate,2922
victim,2923
victims,2924
video,2925
videos,2926
views,2927
vinodrad,2928
violated,2929
viparsedonedigithtjrr,2930
virtual,2931
visigoth,2932
visit,2933
vista,2934
vjparsedonedigitjpktm,2935
vjrssfyn,2936
vkvparsedonedigittbcj,2937
vmware,2938
voice,2939
voicecontrol,2940
voices,2941
volume,2942
voparsedthreedigitsmrz,2943
vpqoyxwa,2944
vs,2945
vslive,2946
vsphereparsedonedigit,2947
vtybqiparsedtwodigits,2948
vulnerability,2949
vuwgyxparsedonedigitn,2950
vvparsedonedigitltkyp,2951
vwciovparsedonedigitf,2952
waaaaay,2953
wack,2954
waddya,2955
wait,2956
waited,2957
waiting,2958
walk,2959
walled,2960
wallet,2961
wallpaper,2962
wanna,2963
want,2964
wanted,2965
wanting,2966
wants,2967
war,2968
warm,2969
warning,2970
warranty,2971
wars,2972
wash,2973
wasn,2974
wasting,2975
watch,2976
watchdog,2977
watched,2978
watching,2979
water,2980
wave,2981
way,2982
waynp,2983
web,2984
webcamps,2985
webgl,2986
webos,2987
webpage,2988
webpronews,2989
website,2990
wedpbcpx,2991
week,2992
weekend,2993
weirdhttp,2994
weirdo,2995
welcome,2996
went,2997
west,2998
wfrzkysn,2999
whaddupwitdat,3000
whale,3001
whhyy,3002
white,3003
whoops,3004
whore,3005
whores,3006
whoring,3007
widgets,3008
wife,3009
wifi,3010
wififofum,3011
william,3012
wilth,3013
win,3014
windows,3015
windowsparsedonedigit,3016
windowsparsedonedigitmobile,3017
windowsphone,3018
windowsphoneparsedonedigit,3019
winning,3020
winparsedonedigit,3021
winrt,3022
wiped,3023
wireless,3024
wisconsin_mommy,3025
wise,3026
wish,3027
wit,3028
witchcraft,3029
wmp,3030
wo,3031
won,3032
wonder,3033
wonky,3034
wont,3035
wooden,3036
woods,3037
word,3038
words,3039
work,3040
worked,3041
workers,3042
workflow,3043
workflows,3044
working,3045
works,3046
workshop,3047
workstation,3048
world,3049
worldwide,3050
worried,3051
worries,3052
worse,3053
worst,3054
worstupdateever,3055
worth,3056
wouldn,3057
wounded,3058
wow,3059
wowww,3060
wparsedonedigitocrbpm,3061
wparsedthreedigitsbfsparsedonedigit,3062
wpdesignteam,3063
wpparsedonedigit,3064
wps,3065
wpt,3066
wristpad,3067
write,3068
writing,3069
wrong,3070
wtf,3071
wth,3072
wtjparsedonedigitogdo,3073
wuhu,3074
wuparsedonedigitbfiparsedonedigith,3075
wuppy,3076
wvzprbci,3077
xbl,3078
xbox,3079
xboxlive,3080
xcuntnuggetx,3081
xero,3082
xghoevparsedonedigitk,3083
xliparsedonedigitbrparsedtwodigits,3084
xolrauey,3085
xparsedonedigitqzexparsedonedigitf,3086
xparsedonedigitywfnsv,3087
xsjgifop,3088
xtzmpsmt,3089
xx,3090
ya,3091
yahoo,3092
yapping,3093
yashasjoshi,3094
yea,3095
yeah,3096
yeahh,3097
year,3098
years,3099
yeh,3100
yellow,3101
yellowgate,3102
yep,3103
yes,3104
yessss,3105
yesterday,3106
ykqipparsedonedigitnk,3107
yo,3108
yootfktm,3109
yourdaysarenumbered,3110
youtube,3111
youuuuuuuuuuuu,3112
yparsedonedigit,3113
yr,3114
yrckqeis,3115
yrs,3116
yummy,3117
yumyumyum,3118
yup,3119
yuvalz,3120
yyparsedonedigithnrbq,3121
yzhcdgfp,3122
zacksiezmagraff,3123
zappos,3124
zbltzparsedonedigitmw,3125
zero,3126
zgbkparsedonedigitxnk,3127
zixfaparsedtwodigitsn,3128
zknparsedonedigitbuparsedonedigitr,3129
zndpparsedonedigitvrparsedonedigit,3130
zombiebomber,3131
zoom,3132
zparsedonedigitbbjparsedonedigitxu,3133
zparsedonedigitidoniparsedonedigit,3134
zparsedonedigitjwlqvu,3135
zrqoewxi,3136
zune,3137
zxparsedonedigitpwparsedonedigitgt,3138
zzcparsedonedigitbeparsedonedigitw,3139
zzkparsedonedigitftii,3140
你好,3141
透過,3142
