__,0
___,1
____,2
______________,3
_ibertaddigital,4
_xmas_carroll,5
aaargh,6
abandoned,7
able,8
aboutthatlife,9
absolutely,10
abt,11
acceptable,12
access,13
accessibility,14
accessing,15
accompanying,16
according,17
account,18
accounts,19
acct,20
accused,21
action,22
activating,23
acts,24
actually,25
ad,26
add,27
addict,28
addicted,29
adding,30
address,31
addthis,32
adiman_,33
admirably,34
admit,35
admitting,36
adobe,37
adopted,38
adopterness,39
advanced,40
advertisements,41
advertising,42
adweek,43
adwords,44
affair,45
affects,46
afmparsedonedigitvsmm,47
agency,48
ages,49
aggregates,50
aggressive,51
agree,52
agvparsedtwodigitsznj,53
ah,54
ahead,55
ahhfuckitsguss,56
aijysfho,57
ailing,58
ain,59
aint,60
ainteeentrippin,61
air,62
airdrop,63
aka,64
ala,65
alamo,66
alarm,67
alarms,68
albatross,69
albertmalparsedtwodigits,70
album,71
albums,72
alead,73
alert,74
alexlindsay,75
alexmufferi,76
alive,77
alleged,78
allow,79
allowing,80
alongside,81
alright,82
amandbrar,83
amazing,84
amazon,85
ammmylewis,86
amp,87
amused,88
analytics,89
anas_monaffal,90
android,91
androidbeam,92
androidicecreamsandwich,93
androidparsedonedigit,94
andshuttingdownru,95
andshuttingdownrunningprograms,96
angrybirds,97
angst,98
announced,99
announcement,100
annoyed,101
annoying,102
anothericloudfail,103
answer,104
anti,105
antitrust,106
anup_pillai,107
anyday,108
anymore,109
aparsedonedigitonparsedonedigitiaa,110
aparsedthreedigitstgparsedonedigitl,111
aparsedtwodigitsy,112
apologize,113
apology,114
app,115
apparently,116
appear,117
apperature,118
apple,119
applecanada,120
appledomination,121
appletv,122
appleupdates,123
apply,124
appointment,125
appreciated,126
appropriately,127
apps,128
appsense,129
appstore,130
apptment,131
apt,132
arc,133
architecture,134
aren,135
argument,136
ari,137
arrived,138
arrives,139
arrogance,140
arrogant,141
art,142
article,143
articles,144
artist,145
asap,146
ashercfo,147
aside,148
ask,149
asked,150
ass,151
asses,152
assessment,153
assimparsedtwodigits,154
asus,155
ate,156
athen,157
att,158
attacks,159
attempts,160
attending,161
attributed,162
audio,163
august,164
australia,165
authorization,166
authorize,167
authorizing,168
automatically,169
autosavesucks,170
av,171
available,172
ave,173
avslparsedonedigitygu,174
avtar,175
awaited,176
away,177
awesome,178
awful,179
awkward,180
awsome,181
axlparsedonedigitkparseddigitsgs,182
ay,183
azeeparsedonedigitvparseddigits,184
azrael,185
azure,186
baby,187
babygeeks,188
backchannel,189
background,190
backside,191
backup,192
backwards,193
bad,194
baffles,195
bag,196
ball,197
ballmer,198
ban,199
bandwidth,200
bar,201
bars,202
base,203
based,204
bastards,205
batteries,206
battery,207
batting,208
battle,209
bbm,210
bc,211
beam,212
beat,213
beating,214
beats,215
beautiful,216
becuz,217
bed,218
beginning,219
behatreen,220
believe,221
bell,222
bellevue,223
beneficial,224
benefits,225
benrubery,226
best,227
bestbuy,228
bestpantsten,229
beta,230
betaparsedonedigit,231
better,232
betweensundays,233
beware,234
bff,235
bg,236
bgotzjparsedonedigitk,237
bgr,238
bi,239
big,240
bigbrother,241
bigdealdawson,242
biggest,243
bigmama,244
bigtrouble,245
billgates,246
billion,247
biltmore,248
bind,249
bing,250
bird,251
bisquiat,252
bit,253
bitch,254
bitching,255
bite,256
biz,257
bkadparsedfourdigits,258
blackberry,259
blackouts,260
blame,261
blameitontheiphone,262
blames,263
blaring,264
blast,265
blatant,266
blaze,267
blend,268
bless,269
blessed,270
blew,271
blhhgopo,272
blocked,273
blog,274
bloody,275
bloomberg,276
blowing,277
blown,278
blue,279
blues,280
bmann,281
bode,282
body,283
bofh,284
bonkoif,285
bonobo,286
boo,287
book,288
bookcase,289
booked,290
bookmarks,291
books,292
boost,293
boot,294
booted,295
borders,296
bored,297
boring,298
bottlenecks,299
bought,300
bound,301
bout,302
box,303
boy,304
boycotting,305
bparsedonedigit,306
bpfkydparsedonedigito,307
bppjwncp,308
bqmuhxkk,309
braille,310
brain,311
brand,312
brands,313
bravo,314
break,315
breaking,316
briancrockerjr,317
brianmincey,318
brick,319
bricked,320
brightness,321
briliant,322
brilliant,323
bring,324
bringing,325
bro,326
broke,327
broken,328
brother,329
browse,330
browsers,331
browserwars,332
bs,333
bsd,334
bud,335
buffalo,336
bug,337
build,338
building,339
buildingwindowsparsedonedigit,340
builds,341
buildwindowsparsedonedigit,342
built,343
builtin,344
bulletproof,345
bullshit,346
bullying,347
bummer,348
bump,349
burkepatch,350
burn,351
bus,352
business,353
businesses,354
businessuplift,355
busy,356
buttery,357
button,358
buttons,359
buy,360
buying,361
bye,362
bznyparsedtwodigitsnn,363
cable,364
calendar,365
called,366
calling,367
calls,368
came,369
camera,370
camper,371
campus,372
canada,373
canadait,374
canon,375
cans,376
cap,377
capabilities,378
capacity,379
car,380
caracteres,381
card,382
cards,383
cardsapp,384
care,385
careers,386
carltonparsedthreedigits,387
carrier,388
carriers,389
carrying,390
carrypad,391
carsonfratus,392
cartoon,393
case,394
cash,395
catastrophe,396
catastrophically,397
catchy,398
caught,399
cause,400
causes,401
cbm,402
cc,403
centre,404
ceo,405
ceremoniously,406
certain,407
certification,408
chadleaman,409
champ,410
chance,411
change,412
changed,413
changer,414
changes,415
chao,416
chaos,417
charge,418
charger,419
charging,420
charity,421
charlesarthur,422
chascouponmom,423
cheap,424
check,425
checkboxes,426
cheer,427
chief,428
child,429
china,430
chipsets,431
choice,432
choices,433
chosen,434
chris,435
chrome,436
chu,437
chucktodd,438
circustk,439
cisco,440
cjjparsedtwodigitsvparsedonedigiti,441
cjonncvk,442
cjwallaceparsedtwodigits,443
clarence,444
class,445
clean,446
cleaned,447
clear,448
cli,449
click,450
clicking,451
clocks,452
closed,453
closely,454
closer,455
closing,456
cloud,457
clouds,458
cloudy,459
clue,460
cnet,461
cnt,462
coach,463
coast,464
coated,465
code,466
codename,467
coldplay,468
collaborated,469
colleague,470
collection,471
collects,472
college,473
colour,474
combination,475
combine,476
combo,477
come,478
comes,479
coming,480
commands,481
comments,482
commercial,483
committed,484
communications,485
community,486
comp,487
compact,488
companies,489
company,490
compares,491
comparing,492
compatibility,493
compatible,494
compelling,495
competitive,496
compilation,497
complain,498
complete,499
completely,500
compose,501
composite,502
computer,503
concept,504
concerned,505
concluded,506
conditions,507
conference,508
configure,509
confused,510
confusin,511
confusing,512
congratulations,513
connect,514
connected,515
connecting,516
connection,517
considering,518
console,519
consolidation,520
consumer,521
cont,522
contact,523
contacts,524
contender,525
content,526
continuing,527
contracts,528
control,529
convenient,530
conversation,531
conversations,532
converting,533
coo,534
cool,535
coollike,536
copy,537
coqclbparsedonedigitr,538
cord,539
corporate,540
corporation,541
correct,542
correction,543
cost,544
couldn,545
couple,546
courtesy,547
covent,548
covers,549
coworker,550
cparsedtwodigitssnizt,551
crack,552
cracked,553
crankywithnophone,554
crap,555
crappy,556
crash,557
crashes,558
crashing,559
craving,560
crazy,561
cream,562
create,563
creating,564
creative,565
creepy,566
critical,567
criticise,568
cropping,569
crowd,570
crparsedonedigitaparseddigitskparsedonedigitu,571
crushed,572
cs,573
csaefrhc,574
ctp,575
cu,576
curate,577
curious,578
current,579
currently,580
curse,581
customer,582
customers,583
cute,584
cutting,585
cuz,586
cxovkparsedonedigitww,587
cyanogenmod,588
da,589
dad,590
dailydealchat,591
dalmaer,592
dam,593
damage,594
damaged,595
dammit,596
damn,597
dancemoms,598
dariuszporowski,599
dark,600
darkness,601
data,602
dates,603
daughter,604
davidegori,605
day,606
dayparsedthreedigits,607
days,608
db,609
dbbwsdpx,610
dead,611
deal,612
dealing,613
deals,614
dear,615
death,616
deb_lavoy,617
debt,618
debut,619
decades,620
decent,621
decide,622
decides,623
decision,624
decline,625
declined,626
declining,627
def,628
definitely,629
delay,630
delegates,631
delete,632
deleted,633
delicious,634
deliver,635
delivered,636
delivering,637
dell,638
demo,639
demonstration,640
dennisritchie,641
dependent,642
depreciate,643
derryxowners,644
design,645
designed,646
designs,647
desire,648
desired,649
desktop,650
desperatehousewives,651
destroying,652
detailed,653
details,654
detection,655
dev,656
developer,657
developers,658
device,659
devices,660
dezz,661
deár,662
dff,663
dhilipsiva,664
dick,665
dicks,666
dictation,667
did,668
didn,669
die,670
died,671
difference,672
different,673
difficult,674
difficulties,675
digging,676
digit,677
digital,678
dilation,679
dine,680
direct,681
directions,682
directly,683
dis,684
disabling,685
disappear,686
disappointed,687
disappointing,688
disappointment,689
disaster,690
discu,691
discussion,692
disruptions,693
dissent,694
distractions,695
distrust,696
ditch,697
djspparsedonedigitgparseddigitsb,698
dlparsedonedigitcrczy,699
docs,700
document,701
dodgy,702
does,703
doesn,704
doesnt,705
dohdenmg,706
doing,707
dollar,708
dollars,709
domain,710
don,711
dont,712
dontbemadatmebecause,713
door,714
doorstep,715
dose,716
dosent,717
dostupan,718
dotnet,719
double,720
doubt,721
doug_newton,722
downgrade,723
download,724
downloaded,725
downloads,726
dparsedonedigiteejhbt,727
dparsedonedigitvjlparsedonedigitsi,728
drain,729
drakes,730
drawlin,731
dream,732
dreams,733
drewbezanson,734
drink,735
driving,736
droid,737
drop,738
dropbox,739
dropped,740
drops,741
drying,742
dst,743
dubbe,744
duet,745
duff,746
dumb,747
dump,748
duped,749
duplicates,750
duplicating,751
durable,752
dvroegop,753
dxxklubp,754
dying,755
dynamics,756
ear,757
earbuds,758
early,759
earned,760
ears,761
earth,762
easier,763
easter,764
eating,765
ebook,766
eboyee,767
eclipsed,768
economics,769
ectparsedonedigitfyia,770
ed,771
edbott,772
edchat,773
edge,774
editing,775
editor,776
edswoxoc,777
education,778
effect,779
efficient,780
eggs,781
ejunkie,782
elcheicon,783
electability,784
electric,785
electricsoup,786
elegance,787
elop,788
em,789
email,790
emails,791
emphasis,792
employability,793
employee,794
employees,795
emptythreats,796
enabled,797
encourage,798
encrypt,799
end,800
endless,801
enemies,802
engadget,803
engages,804
engine,805
engt,806
enhance,807
enjoy,808
enjoying,809
enrages,810
entering,811
enterprise,812
entertaining,813
entrepreneurs,814
eorosstx,815
eparsedonedigituhkaparsedonedigitf,816
epicfail,817
equal,818
equipment,819
equivalent,820
ericgreenspan,821
erp,822
error,823
errors,824
especially,825
essential,826
ethiopian,827
evangelist,828
event,829
events,830
everettcoldwell,831
everson,832
everytime,833
evil,834
evo,835
excel,836
excellent,837
exchg,838
excited,839
exciting,840
exclaims,841
exclusive,842
excuse,843
executive,844
executives,845
exercise,846
exhibit,847
exorcist,848
expanded,849
expected,850
expensive,851
expensivepaperweight,852
experience,853
explain,854
explaining,855
explains,856
explorer,857
express,858
extend,859
extent,860
extremists,861
eye,862
eyelash,863
ezjczltparsedonedigit,864
face,865
facebook,866
faceboook,867
facetime,868
facial,869
facialunlock,870
fact,871
faculty,872
fad,873
fail,874
failed,875
failing,876
fails,877
faith,878
fall,879
fallen,880
falling,881
false,882
family,883
fan,884
fancy,885
fantastic,886
fantasy,887
far,888
farreal,889
fast,890
faster,891
fat,892
fault,893
favorite,894
fawkin,895
fb,896
fcucks,897
feature,898
featured,899
features,900
fed,901
federal,902
feeding,903
feel,904
feeling,905
fellows,906
fiction,907
figure,908
figured,909
figures,910
fiioapkt,911
file,912
files,913
finally,914
finance,915
financial,916
fine,917
finest,918
fingers,919
fingerscrossed,920
finish,921
finland,922
firefox,923
fitiparsedonedigitzia,924
fix,925
fixation,926
fixed,927
fixes,928
fixing,929
fixit,930
flash,931
flashcard,932
flat,933
flawless,934
floridamike,935
fm,936
fml,937
fmzfwgyv,938
focus,939
fold,940
folder,941
folders,942
folks,943
follow,944
followers,945
followlimitisgay,946
followme,947
font,948
football,949
force,950
forced,951
forces,952
ford,953
forever,954
forget,955
forgettin,956
format,957
forstall,958
forsure,959
forth,960
forward,961
fotografia,962
foundation,963
fparsedonedigitaztiad,964
fparsedonedigithwanparsedonedigitq,965
frame,966
framework,967
fran_mac_,968
freaking,969
free,970
freedom,971
freeze,972
freezes,973
french,974
fresh,975
friends,976
friendship,977
friggin,978
froze,979
frozen,980
fruits,981
frustrated,982
frustration,983
fsf,984
ftw,985
fu,986
fuck,987
fucked,988
fuckin,989
fucking,990
fuckingpissed,991
fuckingshinez,992
fucknwithfatty,993
fucks,994
fuh,995
fun,996
functions,997
funds,998
funny,999
future,1000
futuristic,1001
fuzzball,1002
fwm,1003
fxck,1004
fxhomehitfilm,1005
fytcyegparsedonedigit,1006
gah,1007
galaxy,1008
galaxynexus,1009
gallery,1010
game,1011
gamerchikparsedtwodigits,1012
gamers,1013
games,1014
gaming,1015
ganna,1016
garbage,1017
garden,1018
garmin,1019
garr_williams,1020
gate,1021
gates,1022
gatos,1023
gave,1024
gay,1025
gb,1026
gcyparsedonedigitiphn,1027
gdcurry,1028
gear,1029
geek,1030
gem,1031
gen,1032
generator,1033
genius,1034
geniusbar,1035
geolocation,1036
german,1037
getglue,1038
gets,1039
gettin,1040
getting,1041
gf,1042
ghost,1043
giant,1044
giants,1045
gigs,1046
girlfriend,1047
girlies,1048
gives,1049
givin,1050
giving,1051
gjiuparsedonedigitzzparsedonedigit,1052
gklxmuiparsedonedigit,1053
gkparsedonedigityjtfy,1054
glad,1055
glass,1056
global,1057
globe,1058
gm,1059
gmail,1060
gmsgxcqparsedonedigit,1061
gnu,1062
gnyparsedonedigitgparsedtwodigitsb,1063
god,1064
gods,1065
goes,1066
going,1067
gone,1068
gonna,1069
good,1070
goodbye,1071
goof,1072
googland,1073
google,1074
googlemusic,1075
googleplus,1076
googleresearch,1077
googles,1078
got,1079
gotta,1080
gotten,1081
gov,1082
gparsedonedigitelvrvj,1083
gpo,1084
gr,1085
grab,1086
grandma,1087
graphic,1088
grass,1089
gratis,1090
greader,1091
great,1092
greatly,1093
greatsuccess,1094
greedy,1095
greener,1096
greenwich,1097
gregulatorparsedonedigit,1098
ground,1099
gt,1100
gtqdvfxo,1101
guardian,1102
guardiantech,1103
guess,1104
gui,1105
guide,1106
guy,1107
guys,1108
gwokoceg,1109
ha,1110
hack,1111
hacked,1112
hah,1113
haha,1114
hairline,1115
half,1116
hand,1117
handle,1118
handled,1119
hands,1120
handy,1121
hangouts,1122
happen,1123
happened,1124
happens,1125
happier,1126
happy,1127
happyplace,1128
hard,1129
harder,1130
hardware,1131
hashtags,1132
hasn,1133
hate,1134
hated,1135
hater,1136
haven,1137
havin,1138
having,1139
hay,1140
hbogo,1141
hckjxzparsedonedigitk,1142
hd,1143
hdmi,1144
hdv,1145
headache,1146
headed,1147
headings,1148
headphones,1149
health,1150
hear,1151
heard,1152
heck,1153
hell,1154
hella,1155
hello,1156
help,1157
helped,1158
helps,1159
helsinki,1160
herahussain,1161
hero,1162
hey,1163
hfwpbmyparsedonedigit,1164
hide,1165
high,1166
highlight,1167
highscoolmemories,1168
hilarious,1169
hindi,1170
hire,1171
history,1172
hit,1173
hjparsedonedigitqlocparsedonedigit,1174
hk,1175
hmmm,1176
hmmmm,1177
hobparsedtwodigitshbo,1178
hockey,1179
hold,1180
holodeck,1181
holodesk,1182
home,1183
honeka,1184
honest,1185
hong,1186
honored,1187
hooked,1188
hookup,1189
hope,1190
hopefully,1191
hoping,1192
horizontal,1193
hosting,1194
hot,1195
hotel,1196
hotspots,1197
hour,1198
hourly,1199
hours,1200
houston,1201
hp,1202
hrs,1203
ht,1204
htc,1205
htmlparsedonedigit,1206
http,1207
https,1208
hubby,1209
huge,1210
huh,1211
humor,1212
humpt,1213
hungry,1214
hurry,1215
hurting,1216
hut,1217
hypo,1218
hypocritical,1219
håper,1220
iancollinsuk,1221
ibm,1222
ical,1223
ice,1224
icecream,1225
icecreamsandwich,1226
icecreamsandwichfail,1227
icloud,1228
icon,1229
ics,1230
id,1231
idea,1232
ideas,1233
idisk,1234
idk,1235
idontunderstand,1236
ieparsedonedigit,1237
ifollowback,1238
igiveup,1239
ijparsedonedigitxydpparsedonedigit,1240
ijustine,1241
iknparsedthreedigitsze,1242
ill,1243
illustrating,1244
iloveyou,1245
im,1246
imac,1247
image,1248
images,1249
imamac,1250
imessage,1251
imightbewrong,1252
imitation,1253
immad_immad,1254
immediate,1255
immobile,1256
imo,1257
impact,1258
importance,1259
impossible,1260
impressed,1261
impressions,1262
impressive,1263
improve,1264
improvements,1265
inbox,1266
inbuilt,1267
incapable,1268
include,1269
included,1270
includes,1271
incompatible,1272
inconvenienced,1273
incredible,1274
india,1275
indian,1276
indians,1277
individual,1278
ineedthosepictures,1279
ineedtoupdate,1280
inept,1281
inferno,1282
infinite,1283
infinitywebinar,1284
info,1285
infofail,1286
information,1287
informationweek,1288
injunction,1289
inline,1290
innovation,1291
innovations,1292
innovators,1293
inparsedonedigit,1294
input,1295
insane,1296
inside,1297
inspire,1298
inspired,1299
instagram,1300
install,1301
installed,1302
installing,1303
instant,1304
instantfollowback,1305
instantly,1306
instead,1307
insurance,1308
integrate,1309
integrated,1310
integrating,1311
intel,1312
intensifies,1313
interesing,1314
interested,1315
interesting,1316
interests,1317
interface,1318
interference,1319
internet,1320
interoperability,1321
intervals,1322
introduce,1323
introduced,1324
introduces,1325
introducing,1326
introduction,1327
invented,1328
invention,1329
inventor,1330
invested,1331
investigate,1332
investments,1333
ioparsedonedigit,1334
ios,1335
iosparsedonedigit,1336
iosparsedonedigitatemydingo,1337
iosparsedonedigitdowngrade,1338
ip,1339
ipad,1340
ipadparsedonedigit,1341
ipads,1342
iparsedonedigits,1343
iparsedonedigitsparseddigits,1344
iphone,1345
iphoneparsedonedigit,1346
iphoneparsedonedigits,1347
iphones,1348
ipod,1349
ipodparsedonedigits,1350
isb,1351
iscream,1352
ishit,1353
isn,1354
isnt,1355
isorry,1356
issue,1357
issues,1358
italianjoya,1359
itdklrry,1360
item,1361
items,1362
itnews_au,1363
itouch,1364
itouchparsedonedigit,1365
itstolate,1366
itunes,1367
itunesmatch,1368
itunesmusic,1369
iuyparsedonedigitdfparsedonedigits,1370
izhparsedonedigitkaiu,1371
izoparsedonedigitwunt,1372
jackasses,1373
jacked,1374
jailbroken,1375
jajajajajajaj,1376
jamaicanidler,1377
james,1378
japan,1379
jatfvfpm,1380
jdougyj,1381
jean,1382
jeffbullas,1383
jessecablek,1384
jewelzparsedfourdigits,1385
jhdtykcv,1386
jimmcniel,1387
jinnhvwz,1388
jkotcrmb,1389
jkotcrmbstephen,1390
jldavid,1391
joannejacobs,1392
job,1393
jobs,1394
joebelfiore,1395
joelburns,1396
joelplane,1397
john,1398
join,1399
jolieesharmeda,1400
jolly,1401
jonparsedonedigitlakers,1402
jonsibley,1403
jowyang,1404
jparsedonedigitftieng,1405
jparsedthreedigitszfpo,1406
jsqparsedtwodigitsnuq,1407
jumpin,1408
junk,1409
jure,1410
jus,1411
just,1412
justsaying,1413
jzmvbdnm,1414
karljuhlke,1415
katebetts,1416
kdtdparsedonedigitzre,1417
keeping,1418
keeps,1419
keepthedesktop,1420
kenyaopendoor,1421
kevin,1422
key,1423
keyboard,1424
keyboards,1425
keys,1426
kgnrbvgp,1427
kick,1428
kicked,1429
kidding,1430
kids,1431
kill,1432
killed,1433
killing,1434
kimaris,1435
kind,1436
kindahow,1437
kinect,1438
king,1439
kjkzparsedtwodigitszy,1440
kjparsedonedigitpjvkh,1441
knew,1442
knizparsedthreedigitss,1443
know,1444
known,1445
knows,1446
kong,1447
kostatsetsekas,1448
kudos,1449
kursed,1450
kushkittyparsedthreedigits,1451
kxboqskj,1452
kyliemessier,1453
kymbersanden,1454
la,1455
lack,1456
lacks,1457
lag,1458
lager,1459
laggin,1460
laid,1461
lame,1462
land,1463
languages,1464
laptop,1465
laser,1466
lasted,1467
late,1468
later,1469
latest,1470
laughable,1471
launch,1472
launches,1473
launchfail,1474
launching,1475
laundering,1476
law,1477
laws,1478
laying,1479
layout,1480
lcmediahouse,1481
lcxaparsedonedigitqparseddigitsp,1482
ldparsedonedigitiparsedthreedigitsx,1483
lead,1484
leading,1485
lean,1486
leap,1487
learn,1488
learned,1489
learning,1490
leave,1491
leaves,1492
leaving,1493
lecture,1494
left,1495
leopard,1496
lesson,1497
let,1498
letdown,1499
lets,1500
letting,1501
lfparsedtwodigitszkuz,1502
lgfw,1503
liciaparsedfourdigits,1504
lies,1505
life,1506
lifted,1507
light,1508
like,1509
likes,1510
liking,1511
lil,1512
limit,1513
line,1514
linkedin,1515
linux,1516
lion,1517
lisa,1518
lisa_marieparsedfourdigits,1519
list,1520
listening,1521
listing,1522
literally,1523
little,1524
live,1525
lives,1526
living,1527
ljpgvzjt,1528
lk,1529
ll,1530
llslrxfm,1531
lmao,1532
lmfao,1533
load,1534
loathe,1535
lobby,1536
local,1537
locate,1538
located,1539
location,1540
lock,1541
logged,1542
logicparsedfourdigits,1543
login,1544
lol,1545
lolol,1546
lonely,1547
long,1548
longer,1549
look,1550
looking,1551
looks,1552
loop,1553
loose,1554
lords,1555
los,1556
lose,1557
losing,1558
loss,1559
lost,1560
lot,1561
lots,1562
love,1563
loved,1564
lovee,1565
loveguru_b,1566
lovemyiphone,1567
loves,1568
lovin,1569
loving,1570
low,1571
loyalty,1572
lparsedonedigitmtmparsedonedigitig,1573
lparsedonedigitrsxparsedonedigityf,1574
lparsedtwodigitsowqre,1575
lt,1576
lucky_parsedonedigit_have,1577
lunch,1578
lwjpparsedonedigitgiu,1579
lwtpxejo,1580
ly,1581
lync,1582
ma,1583
mac,1584
macbook,1585
machine,1586
mack,1587
macosc,1588
macworld,1589
mad,1590
madness,1591
magazine,1592
magic,1593
magical,1594
magically,1595
mail,1596
mainey_maine,1597
maintenance,1598
major,1599
majorfail,1600
make,1601
makemeproud,1602
makes,1603
making,1604
mall,1605
man,1606
manage,1607
managed,1608
management,1609
mandarin,1610
manelfmartinez,1611
mango,1612
manually,1613
maoqaplh,1614
map,1615
march,1616
marcoarment,1617
mariospr,1618
market,1619
marketing,1620
markstuver,1621
mashable,1622
matthewgphy,1623
mattmarcheski,1624
maximize,1625
mayati,1626
maybe,1627
mb,1628
mbl,1629
mcp,1630
mcwparsedtwodigitsvtg,1631
mczparsedonedigitrsdf,1632
mdqhbparsedonedigitxparseddigits,1633
mean,1634
means,1635
meant,1636
media,1637
medical,1638
meego,1639
mega,1640
meghankel,1641
melaleucathewellnesscompany,1642
melts,1643
mention,1644
mentions,1645
mentor,1646
merchandising,1647
message,1648
messages,1649
messed,1650
messy,1651
metro,1652
microsoft,1653
microsoftstores,1654
middle,1655
midnight,1656
mightily,1657
mikeferri,1658
miley,1659
mileycyrus,1660
millenia,1661
million,1662
millions,1663
mimecastsa,1664
min,1665
mind,1666
mins,1667
minute,1668
minutes,1669
miss,1670
missed,1671
missing,1672
mission,1673
mixedchikparsedtwodigits,1674
mixer,1675
mmm,1676
mmmm,1677
mnparsedonedigitnova,1678
mnparsedtwodigitsrparsedonedigitvc,1679
mo,1680
mobile,1681
mobileburn,1682
mobileme,1683
mode,1684
model,1685
models,1686
modify,1687
mohamedg,1688
mole,1689
mom,1690
moment,1691
monday,1692
monkeys,1693
monopolistic,1694
monopoly,1695
month,1696
months,1697
mood,1698
morning,1699
moron,1700
mothafuckin,1701
motorola,1702
mountainview,1703
mouse,1704
movies,1705
moving,1706
mp,1707
mr,1708
mr_lister,1709
mrgareth,1710
mrtonysays,1711
ms,1712
msftresearch,1713
msg,1714
msparsedtwodigits,1715
mstapoutbarbie,1716
mswxparsedonedigiteoparsedonedigit,1717
mtsparsedtwodigits,1718
mtuparsedonedigittgxparsedonedigit,1719
muchhh,1720
muh,1721
mulling,1722
multiple,1723
music,1724
mute,1725
muuwbgpn,1726
mv,1727
nagoulparsedonedigit,1728
nam,1729
names,1730
nansen,1731
nationalgeographic,1732
native,1733
nauseous,1734
navigation,1735
naw,1736
nbparsedonedigitdhlsg,1737
ndk,1738
nearest,1739
nearly,1740
neat,1741
neck,1742
need,1743
needed,1744
needless,1745
needparsedonedigits,1746
needs,1747
negative,1748
nejbye,1749
neowin,1750
nerdboner,1751
nerdiness,1752
nervous,1753
net,1754
netbooks,1755
netscape,1756
network,1757
networkin,1758
new,1759
newest,1760
news,1761
newsstand,1762
newstand,1763
newton,1764
nexus,1765
nexusprime,1766
nfl,1767
nice,1768
nicholiparsedtwodigits,1769
nicki,1770
nickthefnicon,1771
nicolebanyots,1772
night,1773
nightmares,1774
nirvana,1775
nobueno,1776
nohelp,1777
nokia,1778
non,1779
nonstop,1780
noowwwwww,1781
nopatience,1782
noreply,1783
notcool,1784
note,1785
notes,1786
notifications,1787
notified,1788
notifies,1789
notjustaboutthephone,1790
notresponding,1791
nov,1792
novatyler,1793
novell,1794
november,1795
nowicanspendevenmoretimeonmyphone,1796
nparsedonedigit,1797
nparsedonedigitcpuparsedonedigitvj,1798
nsaisrip,1799
nshlfiux,1800
number,1801
numbering,1802
numbers,1803
nuther,1804
nuts,1805
ny,1806
nytimes,1807
nz,1808
obnoxious,1809
obsessions,1810
occur,1811
oeurmtlx,1812
oezkparsedonedigitivparsedonedigit,1813
offer,1814
offering,1815
offers,1816
office,1817
official,1818
officially,1819
offing,1820
offline,1821
ofhparsedonedigitptag,1822
oh,1823
ohnonotagain,1824
ok,1825
okay,1826
old,1827
older,1828
omfg,1829
omg,1830
omnitouch,1831
omnomnomnom,1832
ondxwper,1833
ones,1834
online,1835
oparsedonedigit,1836
open,1837
opening,1838
opens,1839
opensource,1840
operating,1841
opinions,1842
opportunities,1843
opportunity,1844
option,1845
orbital,1846
order,1847
ordered,1848
organic,1849
orging,1850
original,1851
os,1852
osx,1853
ouch,1854
ouparsedonedigitkparsedtwodigitsge,1855
outdated,1856
outlaws,1857
outlook,1858
outside,1859
overall,1860
overcapacity,1861
owner,1862
owns,1863
oyszmjvi,1864
pad,1865
page,1866
pages,1867
paging_dr_a,1868
paid,1869
pain,1870
painful,1871
painfully,1872
palmface,1873
panasonic,1874
panorama,1875
panoramas,1876
panoramic,1877
parents,1878
parivar,1879
parker,1880
parseddigits,1881
parseddigitsk,1882
parseddigitsnd,1883
parseddigitsst,1884
parseddigitsyrs,1885
parsedfivedigits,1886
parsedfourdigits,1887
parsedfourdigitsp,1888
parsedonedigit,1889
parsedonedigitaja,1890
parsedonedigitb,1891
parsedonedigitbn,1892
parsedonedigitbwtparsedonedigitwparseddigitsz,1893
parsedonedigitbwxjadg,1894
parsedonedigitchan,1895
parsedonedigitd,1896
parsedonedigitdays,1897
parsedonedigitexbnqjy,1898
parsedonedigitfhparsedonedigitdfgj,1899
parsedonedigitfmjxtmm,1900
parsedonedigitg,1901
parsedonedigitgjqvewn,1902
parsedonedigitgs,1903
parsedonedigitgupparsedonedigitacz,1904
parsedonedigithr,1905
parsedonedigithrs,1906
parsedonedigithvbcparsedonedigitbm,1907
parsedonedigitibobnrh,1908
parsedonedigitijkparsedonedigitvbparsedonedigit,1909
parsedonedigitlike,1910
parsedonedigitnd,1911
parsedonedigitnhuyfeh,1912
parsedonedigitoensvgparsedonedigit,1913
parsedonedigitokparsedonedigitxcow,1914
parsedonedigitphhparsedonedigitjbparsedonedigit,1915
parsedonedigitpkparsedonedigitetparsedonedigitr,1916
parsedonedigitpm,1917
parsedonedigitqmgparsedonedigitira,1918
parsedonedigitquyparsedonedigituou,1919
parsedonedigitrkochzr,1920
parsedonedigits,1921
parsedonedigitsesvwwm,1922
parsedonedigitsjnparsedonedigitbzz,1923
parsedonedigitss,1924
parsedonedigitst,1925
parsedonedigitsunni,1926
parsedonedigitth,1927
parsedonedigituhparsedonedigitaparseddigitsvt,1928
parsedonedigituxawkwf,1929
parsedonedigitvsaszyt,1930
parsedonedigitwhhmakparsedonedigit,1931
parsedonedigitwvparsedtwodigitsoparsedonedigitv,1932
parsedonedigitx,1933
parsedonedigitxddxnparsedonedigitw,1934
parsedonedigityparseddigitsasparsedonedigitzz,1935
parsedonedigityvjmhnq,1936
parsedonedigitywvbeparsedonedigitz,1937
parsedonedigitzcqparsedtwodigitssf,1938
parsedthreedigits,1939
parsedthreedigitsdaysofgratefulness,1940
parsedthreedigitsklkfh,1941
parsedtwodigits,1942
parsedtwodigitsbit,1943
parsedtwodigitsdyonxz,1944
parsedtwodigitsgajsgi,1945
parsedtwodigitsgb,1946
parsedtwodigitshrs,1947
parsedtwodigitsighgic,1948
parsedtwodigitsjwparsedonedigitzparseddigitsc,1949
parsedtwodigitsk,1950
parsedtwodigitsmb,1951
parsedtwodigitsoglika,1952
parsedtwodigitsohflyparsedonedigit,1953
parsedtwodigitstwitterpeopleiwouldliketomeet,1954
parsedtwodigitswkioxc,1955
parsedtwodigitsyrparsedtwodigitswl,1956
participated,1957
particularly,1958
parts,1959
party,1960
pass,1961
password,1962
past,1963
patent,1964
paulens,1965
pavilions,1966
pay,1967
paying,1968
paypal,1969
pc,1970
pcam,1971
pcmjon,1972
pdbfparsedonedigithparseddigitsf,1973
pdf,1974
people,1975
perfect,1976
perfectly,1977
perform,1978
performance,1979
perils,1980
period,1981
perpetual,1982
person,1983
personal,1984
personalization,1985
petty,1986
ph,1987
philanthropy,1988
philipgrey,1989
philliprowntree,1990
philosophy,1991
phoenixswinger,1992
phone,1993
phonedog_aaron,1994
phones,1995
photo,1996
photograherseye,1997
photography,1998
photos,1999
photosharing,2000
phxguyparsedtwodigits,2001
pick,2002
picking,2003
picture,2004
pictures,2005
piece,2006
pile,2007
pinch,2008
pink,2009
pins,2010
piracy,2011
pissed,2012
pissing,2013
place,2014
plan,2015
planet,2016
planned,2017
plans,2018
plate,2019
platform,2020
platforms,2021
play,2022
playbooks,2023
played,2024
players,2025
playful,2026
playing,2027
playlist,2028
playlists,2029
pleased,2030
pleasure,2031
plot,2032
pls,2033
pltitgei,2034
plus,2035
plz,2036
pmphillips,2037
pocketlint,2038
podcast,2039
podcasts,2040
point,2041
points,2042
poised,2043
policy,2044
polish,2045
politely,2046
politicians,2047
pondering,2048
poole,2049
poor,2050
pop,2051
popular,2052
ported,2053
portland,2054
positive,2055
positives,2056
post,2057
power,2058
powered,2059
powerpivot,2060
powerpoint,2061
pparsedonedigitj,2062
pparsedonedigitmparseddigitsxvaz,2063
pparsedtwodigitsehduq,2064
ppl,2065
pqparsedtwodigitsgrra,2066
practices,2067
praying,2068
prctices,2069
pre,2070
preaching,2071
prefer,2072
premise,2073
preorder,2074
preordered,2075
present,2076
presentation,2077
presentations,2078
presents,2079
press,2080
prettier,2081
pretty,2082
prettynesz,2083
preventing,2084
preview,2085
price,2086
priceless,2087
prime,2088
princessofchina,2089
printed,2090
privacy,2091
prjusto,2092
pro,2093
probably,2094
problem,2095
problems,2096
probono,2097
process,2098
processor,2099
procrastination,2100
produce,2101
produck,2102
product,2103
productive,2104
productivity,2105
products,2106
profile,2107
profitering,2108
program,2109
programs,2110
progressive,2111
project,2112
prolly,2113
promise,2114
promised,2115
promising,2116
promoallday,2117
prone,2118
propaganda,2119
proper,2120
properly,2121
props,2122
protect,2123
protection,2124
proves,2125
provided,2126
providing,2127
proving,2128
ps,2129
psfk,2130
psn,2131
psujgparsedonedigitpn,2132
public,2133
publicly,2134
puck,2135
pujyvparsedonedigitcparseddigits,2136
pull,2137
pulls,2138
purchase,2139
purchased,2140
purchasing,2141
purpose,2142
push,2143
putting,2144
pytparsedonedigitvkrp,2145
qa,2146
qamjparsedonedigitmer,2147
qbgxxjmm,2148
qmwjtvnk,2149
qparsedonedigitkecparsedonedigit,2150
qparsedonedigitqleokz,2151
qpgxle,2152
qrcode,2153
quality,2154
question,2155
quick,2156
quickly,2157
quickresponse,2158
quite,2159
qvparsedonedigitmparseddigitsunparsedonedigit,2160
racketeering,2161
rad_software,2162
radlerc,2163
radparsedonedigitwdsw,2164
rafts,2165
raining,2166
raise,2167
ralphbin,2168
ram,2169
ranch,2170
randomly,2171
rapidly,2172
rauerrtf,2173
razr,2174
rcve,2175
reaaly,2176
reaching,2177
reaction,2178
read,2179
readable,2180
reader,2181
readinglists,2182
ready,2183
real,2184
realestate,2185
realise,2186
realized,2187
really,2188
reappeared,2189
reason,2190
reasons,2191
rebuild,2192
receipt,2193
received,2194
recently,2195
recognition,2196
recover,2197
recovered,2198
recruit,2199
red,2200
reddeersteph,2201
redesigned,2202
redmond,2203
refurbed,2204
refurbished,2205
regent,2206
region,2207
register,2208
registered,2209
registration,2210
regular,2211
relaxing,2212
release,2213
released,2214
releasepartyguide,2215
releases,2216
reliable,2217
remember,2218
remind,2219
reminder,2220
reminders,2221
removable,2222
removing,2223
remparsedonedigit,2224
rename,2225
renatmin,2226
render,2227
rep,2228
repair,2229
replace,2230
replaced,2231
replaceit,2232
replacement,2233
replacing,2234
replied,2235
replies,2236
report,2237
reported,2238
reporting,2239
reports,2240
represent,2241
reprisk,2242
request,2243
required,2244
requires,2245
research,2246
resellars,2247
reservation,2248
reserve,2249
resolution,2250
resolve,2251
resources,2252
respect,2253
respectmaswagg,2254
response,2255
responsive,2256
rest,2257
restore,2258
restored,2259
restoring,2260
restrictions,2261
results,2262
retail,2263
retarded,2264
retrieve,2265
return,2266
returning,2267
retweeted,2268
retweets,2269
revealed,2270
revenue,2271
reverting,2272
review,2273
revolution,2274
rgbhhuqp,2275
rice,2276
richer,2277
rickysinghpt,2278
ridic,2279
right,2280
rihanna,2281
rim,2282
rimm,2283
ring,2284
ringing,2285
rip,2286
rise,2287
rite,2288
ritenow,2289
rkparsedonedigitkphss,2290
rly,2291
rmiparsedonedigitosmi,2292
robert_terpstra,2293
roboto,2294
rogerweir,2295
roll,2296
roolz,2297
room,2298
rooting,2299
rossmistry,2300
rot,2301
row,2302
roycind,2303
rparsedonedigithnettu,2304
rparsedonedigitjujsbr,2305
rparsedtwodigits,2306
rt,2307
rtdzjqparsedonedigitu,2308
rts,2309
ruining,2310
rule,2311
run,2312
running,2313
runtime,2314
rww,2315
rxwdparsedonedigitsnparsedonedigit,2316
rygurl,2317
rzucfejc,2318
sad,2319
sadmac,2320
safari,2321
safe,2322
safety,2323
sage,2324
said,2325
sake,2326
sale,2327
sales,2328
salesforce,2329
salmonella,2330
samay,2331
samsumg,2332
samsung,2333
samsunggalaxynexus,2334
samsungmobileca,2335
samsungnexus,2336
sander_koers,2337
sandwich,2338
santa,2339
santorum,2340
sap,2341
saptha,2342
sarahhhhhparsedthreedigits,2343
save,2344
saved,2345
saw,2346
sawyerhartman,2347
say,2348
saying,2349
says,2350
sbs,2351
sbsparsedfourdigits,2352
scalability,2353
scares,2354
schaumburg,2355
schedule,2356
schestowitz,2357
school,2358
science,2359
science_alex,2360
scientist,2361
scores,2362
scottdugas,2363
scream,2364
screen,2365
screened,2366
screenshot,2367
screenshots,2368
screw,2369
screwed,2370
screwing,2371
scroll,2372
scrolling,2373
sd,2374
sdk,2375
sdparsedtwodigits,2376
seamlessly,2377
sean,2378
search,2379
searches,2380
searching,2381
sebascoulombe,2382
second,2383
section,2384
secure,2385
seeing,2386
seeks,2387
seemingly,2388
seen,2389
select,2390
self,2391
sell,2392
selling,2393
sells,2394
selop,2395
semilshah,2396
send,2397
sending,2398
sense,2399
sent,2400
seo,2401
september,2402
sequence,2403
seriously,2404
served,2405
server,2406
servers,2407
serves,2408
service,2409
services,2410
sesamestreet,2411
set,2412
setting,2413
settings,2414
sgn,2415
shagorikah,2416
share,2417
sharepoint,2418
sharing,2419
shaydiddy,2420
shhhh,2421
shifted,2422
ship,2423
shipping,2424
shit,2425
shitt,2426
shitty,2427
shlft,2428
shoot,2429
shore,2430
shoukd,2431
showed,2432
showin,2433
showing,2434
shows,2435
shuffle,2436
shutter,2437
sick,2438
sigh,2439
sign,2440
signal,2441
signs,2442
signups,2443
silly,2444
silverlight,2445
similar,2446
simple,2447
simplifies,2448
simply,2449
sinanaral,2450
singaporean,2451
siri,2452
siriwho,2453
sit,2454
site,2455
sites,2456
sith,2457
sitting,2458
skandalasgp,2459
skills,2460
skin,2461
skype,2462
slacking,2463
sledgehammer,2464
sleep,2465
slegit,2466
slick,2467
slide,2468
slightly,2469
slipping,2470
sloppy,2471
slow,2472
slower,2473
slowly,2474
slows,2475
sm,2476
smalfunctioningagain,2477
small,2478
smallvictory,2479
smart,2480
smarterphone,2481
smartest,2482
smartkeitai,2483
smartphone,2484
smashed,2485
smau,2486
smm,2487
smooth,2488
sms,2489
snippy,2490
snlparsedtwodigitsemparsedonedigit,2491
snow,2492
socia,2493
social,2494
socialmedia,2495
software,2496
solution,2497
solutions,2498
solve,2499
someparsedonedigit,2500
song,2501
songs,2502
sony,2503
soon,2504
sooo,2505
soooo,2506
soparsedonedigitwparseddigitsspn,2507
sorri,2508
sorry,2509
sorude,2510
sought,2511
sound,2512
sounds,2513
source,2514
sources,2515
space,2516
spacecanard,2517
spaces,2518
spam,2519
spanish,2520
sparsedonedigit,2521
speakers,2522
speaking,2523
speech,2524
speed,2525
spell,2526
spend,2527
spending,2528
spiral,2529
spoiled,2530
spoke,2531
spongebob,2532
sponsors,2533
spontaneously,2534
sports,2535
spparsedfourdigits,2536
sprint,2537
spying,2538
sqlserver,2539
sqneparsedonedigitilb,2540
srbmparsedonedigitvparseddigitsk,2541
stable,2542
stacks,2543
staff,2544
stage,2545
stalking,2546
stand,2547
standards,2548
star,2549
start,2550
started,2551
starting,2552
starts,2553
states,2554
station,2555
steeloparsedthreedigits,2556
step,2557
steps,2558
steve,2559
steveballmer,2560
steveballmet,2561
stevejobs,2562
stewart,2563
stick,2564
sticking,2565
sticky,2566
stink,2567
stolen,2568
stop,2569
storage,2570
store,2571
stores,2572
stories,2573
story,2574
straight,2575
strangest,2576
strategy,2577
street,2578
stressed,2579
stuck,2580
students,2581
studies,2582
study,2583
studying,2584
studyingwhilstmotivated,2585
stuff,2586
stumped,2587
stupid,2588
style,2589
stylus,2590
submitted,2591
subscriptions,2592
subtweeting,2593
suburbs,2594
succeed,2595
succesfully,2596
success,2597
suck,2598
suckers,2599
sucking,2600
sucks,2601
suddenly,2602
suffering,2603
sugar,2604
suggested,2605
suing,2606
summer,2607
sums,2608
sun,2609
sunday,2610
super,2611
superior,2612
superphone,2613
support,2614
supports,2615
sure,2616
surely,2617
surface,2618
surprised,2619
surprises,2620
susanfelicity,2621
suspecting,2622
sux,2623
swaag,2624
swallow,2625
sware,2626
swear,2627
sweatshops,2628
sweet,2629
switch,2630
switched,2631
switching,2632
swpats,2633
swype,2634
sydney,2635
sync,2636
synching,2637
syncing,2638
syncronize,2639
syncs,2640
sysadmin,2641
systems,2642
tablet,2643
tablets,2644
taken,2645
takes,2646
taking,2647
talk,2648
talking,2649
target,2650
tasparsedfivedigits,2651
taste,2652
taught,2653
tbnyxparsedonedigitpparseddigits,2654
tcn,2655
tcot,2656
team,2657
teamed,2658
teamfollowback,2659
teamo,2660
teams,2661
tear,2662
teasing,2663
tech,2664
techedafrica,2665
techfest,2666
techflash,2667
technical,2668
technological,2669
technologies,2670
technology,2671
techsupport,2672
techy,2673
teehee,2674
telegraph,2675
tell,2676
telling,2677
tellme,2678
tells,2679
terminal,2680
terms,2681
terrible,2682
test,2683
tests,2684
text,2685
texts,2686
tha,2687
thank,2688
thankful,2689
thankfully,2690
thanks,2691
thanksfornothing,2692
thankyou,2693
thats,2694
thattechguyparsedtwodigits,2695
theft,2696
thegadgetshow,2697
thelittleappkid,2698
themarketaire,2699
theme,2700
themes,2701
theresamarosy,2702
thievingbastards,2703
thing,2704
things,2705
thingsweallhate,2706
thingswealllove,2707
think,2708
thinking,2709
thinks,2710
thnx,2711
tho,2712
thomas,2713
thorough,2714
thought,2715
thoughtful,2716
thoughts,2717
threat,2718
threaten,2719
throat,2720
throw,2721
throws,2722
thumbs,2723
thunderbird,2724
thunderbolt,2725
thx,2726
thxx,2727
tiger,2728
til,2729
time,2730
timed,2731
timeline,2732
times,2733
timewarnercable,2734
timing,2735
tint,2736
tipped,2737
tired,2738
tita_ramos,2739
titanic,2740
tl,2741
tmw,2742
today,2743
told,2744
toledo,2745
tomcolontonio,2746
tomkeene,2747
tommylee,2748
tomorrow,2749
tone,2750
tones,2751
tonight,2752
tonite,2753
tons,2754
took,2755
tool,2756
tools,2757
toparsedonedigitne,2758
tossing,2759
total,2760
totally,2761
touch,2762
touchscreen,2763
tour,2764
toy,2765
toys,2766
tragic,2767
training,2768
transferred,2769
trash,2770
treyhobparsedtwodigits,2771
tri,2772
trial,2773
tribute,2774
tried,2775
tries,2776
trip,2777
triple,2778
triplingo,2779
trisha_ps,2780
trivia,2781
trojan,2782
tron,2783
tronman,2784
trouble,2785
truly,2786
try,2787
trying,2788
tsql,2789
tt,2790
tuesday,2791
tunes,2792
turn,2793
turned,2794
turning,2795
turns,2796
tv,2797
twaeudbp,2798
twalve,2799
tweet,2800
tweeted,2801
tweeter,2802
tweeting,2803
tweets,2804
twitter,2805
twitterapp,2806
twitterer,2807
twitternation,2808
twitters,2809
twitterswag,2810
tx,2811
txts,2812
ty,2813
type,2814
typing,2815
uaqrxtnk,2816
uber,2817
uch,2818
ugh,2819
ughh,2820
ugly,2821
uh,2822
ui,2823
uiparsedonedigitadparsedonedigitfj,2824
uiparsedonedigitloezx,2825
ukwokbgd,2826
ultimate,2827
um,2828
umber,2829
umd,2830
umparsedthreedigitsjfh,2831
unable,2832
unbelievable,2833
unborn,2834
undergo,2835
underrated,2836
understand,2837
underwhelming,2838
undo,2839
unexpected,2840
unfair,2841
unhappy,2842
unified,2843
unless,2844
unlike,2845
unlock,2846
unlocking,2847
unmindful,2848
unproductive,2849
unquality,2850
unreal,2851
unveil,2852
unveiled,2853
unwanted,2854
upcoming,2855
update,2856
updated,2857
updater,2858
updates,2859
updating,2860
upgrade,2861
upgraded,2862
upgrades,2863
upgrading,2864
uphill,2865
upload,2866
ups,2867
upset,2868
ur,2869
url,2870
urxjixce,2871
usage,2872
use,2873
used,2874
useful,2875
useless,2876
user,2877
users,2878
uses,2879
using,2880
usual,2881
utilities,2882
utter,2883
utterly,2884
uweyalkb,2885
ux,2886
values,2887
vancouver,2888
vanillalatte_xd,2889
vattam,2890
ve,2891
vegas,2892
venturebeat,2893
verizon,2894
verizonwireless,2895
vers,2896
version,2897
vertical,2898
victim,2899
victims,2900
video,2901
views,2902
vinodrad,2903
violated,2904
viparsedonedigithtjrr,2905
virtual,2906
visigoth,2907
visit,2908
vista,2909
visual,2910
vjparsedonedigitjpktm,2911
vjrssfyn,2912
vkvparsedonedigittbcj,2913
voice,2914
voicecontrol,2915
voices,2916
volume,2917
voparsedthreedigitsmrz,2918
vpqoyxwa,2919
vs,2920
vslive,2921
vtybqiparsedtwodigits,2922
vulnerability,2923
vuwgyxparsedonedigitn,2924
vvparsedonedigitltkyp,2925
waaaaay,2926
waddya,2927
wait,2928
waited,2929
waiting,2930
walk,2931
walled,2932
wallet,2933
wallpaper,2934
wanna,2935
want,2936
wanted,2937
wanting,2938
wants,2939
war,2940
warm,2941
warning,2942
warranty,2943
wars,2944
wash,2945
wasn,2946
wasted,2947
wasting,2948
watch,2949
watchdog,2950
watched,2951
watching,2952
water,2953
wave,2954
way,2955
waynp,2956
web,2957
webcamps,2958
webgl,2959
webos,2960
webpage,2961
webpronews,2962
website,2963
wedpbcpx,2964
week,2965
weekend,2966
weirdhttp,2967
weirdo,2968
welcome,2969
welcomeskype,2970
wellisparsedtwodigits,2971
went,2972
west,2973
wfrzkysn,2974
whaddupwitdat,2975
whale,2976
whatchu,2977
white,2978
whoops,2979
whore,2980
whores,2981
whoring,2982
widget,2983
widgets,2984
wife,2985
wifi,2986
william,2987
wilth,2988
win,2989
windows,2990
windowsparsedonedigit,2991
windowsparsedonedigitmobile,2992
windowsphone,2993
windowsphoneparsedonedigit,2994
winning,2995
winparsedonedigit,2996
winrt,2997
wiped,2998
wireless,2999
wisconsin_mommy,3000
wise,3001
wish,3002
wit,3003
witchcraft,3004
wmp,3005
wo,3006
won,3007
wonder,3008
wondering,3009
wont,3010
wooden,3011
woods,3012
word,3013
words,3014
work,3015
worked,3016
workers,3017
workflow,3018
workflows,3019
working,3020
works,3021
workshop,3022
workstation,3023
world,3024
worldwide,3025
worried,3026
worries,3027
worse,3028
worst,3029
worstupdateever,3030
worth,3031
wouldn,3032
wounded,3033
wow,3034
wowww,3035
wparsedonedigitocrbpm,3036
wparsedthreedigitsbfsparsedonedigit,3037
wpdesignteam,3038
wpparsedonedigit,3039
wps,3040
wpt,3041
wristpad,3042
write,3043
wrong,3044
wtf,3045
wth,3046
wtjparsedonedigitogdo,3047
wuparsedonedigitbfiparsedonedigith,3048
wuppy,3049
wvzprbci,3050
wxbcparsedonedigituuw,3051
xbl,3052
xbox,3053
xboxlive,3054
xcuntnuggetx,3055
xero,3056
xghoevparsedonedigitk,3057
xliparsedonedigitbrparsedtwodigits,3058
xolrauey,3059
xparsedonedigitqzexparsedonedigitf,3060
xparsedonedigitywfnsv,3061
xsjgifop,3062
xtzmpsmt,3063
xvparsedonedigitqparseddigitsgfi,3064
xx,3065
yahoo,3066
yapping,3067
yashasjoshi,3068
yea,3069
yeah,3070
yeahh,3071
year,3072
years,3073
yeh,3074
yellow,3075
yellowgate,3076
yep,3077
yes,3078
yessss,3079
yesterday,3080
ykchtuparsedonedigith,3081
ykqipparsedonedigitnk,3082
yo,3083
yootfktm,3084
yourdaysarenumbered,3085
youtube,3086
youuuuuuuuuuuu,3087
yparsedonedigit,3088
yr,3089
yrckqeis,3090
yrs,3091
yummy,3092
yumyumyum,3093
yup,3094
yuvalz,3095
yyparsedonedigithnrbq,3096
yzhcdgfp,3097
zacksiezmagraff,3098
zappos,3099
zbltzparsedonedigitmw,3100
zero,3101
zgbkparsedonedigitxnk,3102
zixfaparsedtwodigitsn,3103
zknparsedonedigitbuparsedonedigitr,3104
zndpparsedonedigitvrparsedonedigit,3105
zombiebomber,3106
zoom,3107
zparsedonedigitbbjparsedonedigitxu,3108
zparsedonedigitidoniparsedonedigit,3109
zparsedonedigitjwlqvu,3110
zrqoewxi,3111
zune,3112
zxparsedonedigitpwparsedonedigitgt,3113
zzcparsedonedigitbeparsedonedigitw,3114
zzkparsedonedigitftii,3115
你好,3116
透過,3117
