__,0
___,1
____,2
______________,3
_ibertaddigital,4
_xmas_carroll,5
aaargh,6
abandoned,7
able,8
absolutely,9
abt,10
acceptable,11
access,12
accessibility,13
accessing,14
accompanying,15
according,16
account,17
accounts,18
acct,19
accused,20
acting,21
action,22
actually,23
ad,24
add,25
addict,26
addicted,27
adding,28
address,29
addthis,30
adiman_,31
admirably,32
admit,33
admitting,34
adobe,35
adobemax,36
adopted,37
adopterness,38
advanced,39
advertisements,40
advertising,41
adweek,42
affair,43
affects,44
afmparsedonedigitvsmm,45
agency,46
ages,47
aggregates,48
aggressive,49
agree,50
agvparsedtwodigitsznj,51
ah,52
ahead,53
ahhfuckitsguss,54
ailing,55
ain,56
aint,57
ainteeentrippin,58
air,59
airdrop,60
ala,61
alamo,62
alarm,63
alarms,64
albatross,65
album,66
albums,67
alead,68
alert,69
alexlindsay,70
alexmufferi,71
alive,72
alleged,73
allow,74
allowing,75
alongside,76
alright,77
amandbrar,78
amarsanghera,79
amazed,80
amazing,81
amazon,82
ammmylewis,83
amp,84
amused,85
analytics,86
anas_monaffal,87
android,88
androidbeam,89
androidicecreamsandwich,90
androidparsedonedigit,91
andshuttingdownru,92
angst,93
announced,94
announcement,95
annoyed,96
annoying,97
anothericloudfail,98
answer,99
answers,100
anti,101
antitrust,102
anup_pillai,103
anyday,104
anymore,105
aparsedthreedigitstgparsedonedigitl,106
aparsedtwodigitsy,107
apologize,108
apology,109
app,110
apparently,111
appear,112
apperature,113
apple,114
applecanada,115
appledomination,116
apples,117
appletv,118
appleupdates,119
apply,120
appointment,121
appreciated,122
appropriately,123
apps,124
appsense,125
appstore,126
apptment,127
apt,128
ar,129
arc,130
architecture,131
aren,132
argument,133
ari,134
arrived,135
arrives,136
arrogance,137
arrogant,138
art,139
article,140
articles,141
artist,142
asap,143
ashercfo,144
aside,145
asimrang,146
ask,147
asked,148
ass,149
asses,150
assessment,151
assimparsedtwodigits,152
asus,153
athen,154
att,155
attacks,156
attempts,157
attending,158
attributed,159
audio,160
august,161
australia,162
authorise,163
authorization,164
authorize,165
authorizing,166
auto,167
automatically,168
av,169
available,170
ave,171
avoided,172
avslparsedonedigitygu,173
avtar,174
away,175
awesome,176
awesomeness,177
awful,178
awkward,179
awsome,180
axlparsedonedigitkparseddigitsgs,181
ay,182
ayhokgoparsedonedigit,183
azeeparsedonedigitvparseddigits,184
azrael,185
azure,186
baby,187
babygeeks,188
backchannel,189
background,190
backside,191
backup,192
backwards,193
bad,194
baffles,195
bag,196
bahhh,197
ball,198
ballmer,199
ban,200
bandwidth,201
bar,202
bars,203
base,204
based,205
bastards,206
batteries,207
battery,208
batting,209
battle,210
bbm,211
bc,212
beam,213
beat,214
beating,215
beats,216
beautiful,217
becuz,218
bed,219
begin,220
beginning,221
behatreen,222
believe,223
bell,224
bellevue,225
beneficial,226
benefits,227
benrubery,228
berry,229
best,230
bestbuy,231
beta,232
better,233
betweensundays,234
beware,235
bff,236
bg,237
bgkimgjf,238
bgotzjparsedonedigitk,239
bgr,240
bi,241
big,242
bigbrother,243
bigdealdawson,244
biggest,245
bigmama,246
bigtrouble,247
billgates,248
billion,249
billions,250
biltmore,251
bind,252
bing,253
bird,254
bisquiat,255
bit,256
bitch,257
bitching,258
bite,259
biz,260
bkadparsedfourdigits,261
black,262
blackberry,263
blackouts,264
blame,265
blameitontheiphone,266
blames,267
blaparsedonedigitze,268
blaring,269
blast,270
blatant,271
blaze,272
blend,273
bless,274
blessed,275
blew,276
blocked,277
blog,278
bloody,279
bloomberg,280
bloombergnews,281
blowing,282
blown,283
blue,284
blues,285
bmann,286
bode,287
body,288
bofh,289
bonkoif,290
bonobo,291
boo,292
book,293
bookcase,294
booked,295
bookmarks,296
books,297
boost,298
boot,299
booted,300
borders,301
bored,302
boring,303
bottlenecks,304
bought,305
bound,306
bout,307
box,308
boy,309
boycotting,310
bparsedonedigit,311
bpfkydparsedonedigito,312
bppjwncp,313
bqmuhxkk,314
braille,315
brain,316
brand,317
brandonminiman,318
brands,319
bravo,320
break,321
breaking,322
briancrockerjr,323
brianmincey,324
brick,325
bricked,326
brightness,327
briliant,328
brilliance,329
brilliant,330
bring,331
bro,332
broke,333
broken,334
brother,335
browse,336
browserwars,337
bs,338
bsd,339
bud,340
buffalo,341
bug,342
build,343
buildingwindowsparsedonedigit,344
builds,345
buildwindowsparsedonedigit,346
built,347
builtin,348
bulletproof,349
bullshit,350
bullying,351
bummer,352
bump,353
burkepatch,354
burn,355
bus,356
business,357
businesses,358
businessuplift,359
busy,360
butler,361
buttery,362
button,363
buttons,364
buy,365
buying,366
bye,367
bznyparsedtwodigitsnn,368
cable,369
calendar,370
called,371
calling,372
calls,373
came,374
camera,375
camper,376
canada,377
canadait,378
cancer,379
canon,380
cans,381
cap,382
capabilities,383
capacity,384
car,385
card,386
cards,387
cardsapp,388
care,389
careers,390
carltonparsedthreedigits,391
carrier,392
carriers,393
carrying,394
carrypad,395
carsonfratus,396
cartoon,397
case,398
cash,399
catastrophe,400
catastrophically,401
catchy,402
caught,403
cause,404
causes,405
cbm,406
cc,407
centre,408
ceo,409
ceremoniously,410
certain,411
certification,412
cesspit,413
chadleaman,414
champ,415
chance,416
change,417
changed,418
changer,419
changes,420
chao,421
chaos,422
characters,423
charge,424
charger,425
charging,426
charity,427
charlesarthur,428
chascouponmom,429
cheap,430
check,431
checkboxes,432
cheer,433
chief,434
child,435
chipsets,436
choice,437
choices,438
chosen,439
chris,440
chrome,441
chu,442
chucktodd,443
circustk,444
cisco,445
citizenship,446
cjjparsedtwodigitsvparsedonedigiti,447
cjonncvk,448
class,449
claws,450
clean,451
cleaned,452
clear,453
cli,454
click,455
clicking,456
clocks,457
close,458
closed,459
closely,460
closer,461
closing,462
cloud,463
clouds,464
cloudy,465
club,466
clue,467
cnet,468
cnt,469
coach,470
coast,471
coated,472
code,473
codename,474
coldplay,475
collaborated,476
colleague,477
collection,478
collects,479
college,480
colour,481
combination,482
combine,483
combo,484
come,485
comes,486
coming,487
commands,488
commercial,489
committed,490
communications,491
community,492
comp,493
compact,494
companies,495
company,496
compares,497
comparing,498
compatibility,499
compatible,500
compelling,501
competitive,502
compilation,503
complain,504
complaints,505
complete,506
completely,507
completes,508
compliments,509
composite,510
computer,511
concept,512
concerned,513
concluded,514
conditions,515
conference,516
configure,517
confused,518
confusing,519
congratulations,520
connect,521
connected,522
connecting,523
connection,524
considering,525
console,526
consolidation,527
consultingware,528
consumer,529
cont,530
contact,531
contacts,532
contender,533
content,534
continued,535
continuing,536
continuously,537
control,538
convenient,539
conversation,540
conversations,541
converting,542
coo,543
cool,544
coollike,545
copy,546
coqclbparsedonedigitr,547
cord,548
corporate,549
corporation,550
correct,551
correction,552
cost,553
couldn,554
counter,555
couple,556
courtesy,557
covers,558
coworker,559
cparsedonedigittuparsedonedigitdzk,560
cparsedtwodigitssnizt,561
crack,562
cracked,563
crankywithnophone,564
crap,565
crappy,566
crash,567
crashes,568
crashing,569
craving,570
crazy,571
cream,572
create,573
creating,574
creative,575
credit,576
creepy,577
critical,578
criticise,579
cropping,580
crowd,581
crparsedonedigitaparseddigitskparsedonedigitu,582
cs,583
csaefrhc,584
ctp,585
cu,586
curate,587
curious,588
current,589
currently,590
curse,591
customer,592
customers,593
custserv,594
cute,595
cutting,596
cuz,597
cvfwmvmo,598
cxovkparsedonedigitww,599
cyanogenmod,600
da,601
dad,602
dailydealchat,603
dam,604
damage,605
damaged,606
dammit,607
damn,608
dancemoms,609
danielpink,610
dariuszporowski,611
dark,612
darkness,613
data,614
dates,615
daughter,616
davidegori,617
day,618
dayparsedthreedigits,619
days,620
db,621
dbbwsdpx,622
dead,623
deal,624
dealing,625
deals,626
dear,627
death,628
deb_lavoy,629
debt,630
debut,631
decent,632
decide,633
decides,634
decision,635
decline,636
declined,637
declining,638
def,639
definitely,640
delay,641
delegates,642
delete,643
deleted,644
delicious,645
deliver,646
delivered,647
delivering,648
dell,649
demo,650
demonstration,651
dennisritchie,652
dependent,653
deploying,654
depreciate,655
derryxowners,656
design,657
designs,658
desire,659
desktop,660
desperatehousewives,661
destroying,662
detailed,663
details,664
detection,665
dev,666
developer,667
device,668
devices,669
dezz,670
deár,671
dff,672
dffkvnsj,673
dhilipsiva,674
dick,675
did,676
didn,677
die,678
died,679
difference,680
different,681
difficult,682
difficulties,683
digging,684
digit,685
digital,686
dilation,687
dine,688
direct,689
dis,690
disappear,691
disappointed,692
disappointing,693
disappointment,694
discu,695
discussion,696
dishing,697
disruptions,698
dissent,699
distractions,700
distributing,701
distrust,702
ditch,703
djspparsedonedigitgparseddigitsb,704
dlparsedonedigitcrczy,705
dm,706
docs,707
document,708
dodgy,709
does,710
doesn,711
doesnt,712
dohdenmg,713
doing,714
dollar,715
dollars,716
don,717
dont,718
dontbemadatmebecause,719
door,720
doorstep,721
dose,722
dosent,723
dostupan,724
dotnet,725
double,726
doubt,727
douchebags,728
doug_newton,729
downgrade,730
download,731
downloaded,732
downloads,733
dparsedonedigit,734
dparsedonedigiteejhbt,735
dparsedonedigitvjlparsedonedigitsi,736
drain,737
drakes,738
drawlin,739
dream,740
dreams,741
drink,742
driving,743
droid,744
drop,745
dropped,746
drops,747
drying,748
dst,749
dubbe,750
duet,751
duff,752
dumb,753
dump,754
duped,755
duplicates,756
duplicating,757
durable,758
dvroegop,759
dxxklubp,760
dying,761
dynamics,762
ea_jorge,763
earbuds,764
early,765
earned,766
ears,767
earth,768
easier,769
easter,770
easy,771
eating,772
ebook,773
eboyee,774
eclipsed,775
economics,776
ectparsedonedigitfyia,777
ed,778
edbott,779
edchat,780
edge,781
editing,782
editor,783
edswoxoc,784
education,785
effect,786
efffing,787
efficient,788
eggs,789
ejunkie,790
elcheicon,791
electability,792
electric,793
electricsoup,794
elegance,795
elop,796
em,797
email,798
emails,799
employability,800
employee,801
employees,802
encourage,803
encrypt,804
end,805
endless,806
enemies,807
engadget,808
engages,809
engaging,810
engine,811
engt,812
enhance,813
enjoying,814
enterprise,815
entertaining,816
entrepreneurs,817
eorosstx,818
eparsedonedigituhkaparsedonedigitf,819
eparsedonedigitumrmro,820
epicfail,821
epub,822
equal,823
equipment,824
equivalent,825
ericgreenspan,826
erp,827
error,828
errors,829
especially,830
essential,831
esxiparsedonedigit,832
eta,833
ethiopian,834
europeansp,835
evangelist,836
event,837
events,838
everettcoldwell,839
everson,840
everybody,841
everytime,842
evil,843
evo,844
exam,845
excel,846
excellent,847
exception,848
exchange,849
excited,850
exciting,851
exclaims,852
exclusive,853
excuse,854
executive,855
executives,856
exercise,857
exhibit,858
exorcist,859
expanded,860
expected,861
expensive,862
expensivepaperweight,863
experience,864
explain,865
explaining,866
explains,867
explorer,868
extend,869
extent,870
extreme,871
extremists,872
eye,873
eyelash,874
ezjczltparsedonedigit,875
face,876
facebook,877
faceboook,878
facetime,879
facial,880
facialunlock,881
fact,882
faculty,883
fad,884
fade,885
fail,886
failed,887
failing,888
fails,889
fair,890
faith,891
fall,892
fallen,893
falling,894
false,895
family,896
fan,897
fancy,898
fantastic,899
fantasy,900
far,901
farreal,902
fast,903
faster,904
fat,905
fatfuckingchance,906
fault,907
favorite,908
fb,909
fcucks,910
feature,911
featured,912
features,913
fed,914
federal,915
feeding,916
feel,917
feeling,918
fellows,919
fiction,920
figure,921
figured,922
figures,923
fiioapkt,924
file,925
files,926
finally,927
finance,928
financial,929
fine,930
finest,931
fingers,932
fingerscrossed,933
finish,934
finland,935
firefox,936
fishmama,937
fitiparsedonedigitzia,938
fix,939
fixation,940
fixed,941
fixes,942
fixing,943
fixit,944
flash,945
flat,946
flawless,947
floridamike,948
fm,949
fml,950
fmzfwgyv,951
focus,952
fold,953
folder,954
folders,955
folks,956
follow,957
followers,958
followlimitisgay,959
followme,960
font,961
football,962
forbes,963
force,964
forced,965
forces,966
ford,967
forever,968
forget,969
forgettin,970
format,971
forstall,972
forsure,973
forward,974
fotografia,975
fparsedonedigitaztiad,976
fparsedonedigithwanparsedonedigitq,977
framework,978
freaking,979
free,980
freedom,981
freeze,982
freezes,983
french,984
fresh,985
friends,986
friendship,987
friggin,988
froze,989
frozen,990
fruits,991
frustrated,992
frustration,993
fsf,994
ftw,995
fu,996
fuck,997
fucked,998
fuckin,999
fucking,1000
fuckingpissed,1001
fuckingshinez,1002
fucknwithfatty,1003
fucks,1004
fuh,1005
fun,1006
function,1007
functions,1008
funny,1009
funnyyyyyyy,1010
future,1011
futuristic,1012
fuzzball,1013
fwm,1014
fxck,1015
fxhomehitfilm,1016
fytcyegparsedonedigit,1017
gah,1018
galaxy,1019
galaxynexus,1020
game,1021
gamerchikparsedtwodigits,1022
gamers,1023
games,1024
gaming,1025
ganna,1026
garbage,1027
garden,1028
garmin,1029
garr_williams,1030
gate,1031
gates,1032
gatos,1033
gave,1034
gay,1035
gazmaz,1036
gb,1037
gcicpexparsedonedigit,1038
gcyparsedonedigitiphn,1039
gdcurry,1040
gear,1041
geek,1042
gem,1043
gen,1044
genius,1045
geolocation,1046
german,1047
getglue,1048
gets,1049
gettin,1050
getting,1051
ghost,1052
giant,1053
giants,1054
gigs,1055
girlfriend,1056
girlies,1057
gives,1058
giving,1059
gjiuparsedonedigitzzparsedonedigit,1060
gklxmuiparsedonedigit,1061
gkparsedonedigityjtfy,1062
glad,1063
glass,1064
global,1065
globe,1066
gmail,1067
gmsgxcqparsedonedigit,1068
gnu,1069
gnyparsedonedigitgparsedtwodigitsb,1070
god,1071
gods,1072
goes,1073
going,1074
gone,1075
gonna,1076
good,1077
goodbye,1078
goodriddance,1079
goof,1080
googland,1081
google,1082
googleapps,1083
googlemusic,1084
googleplus,1085
googleresearch,1086
googles,1087
got,1088
gotta,1089
gotten,1090
gov,1091
gparsedonedigitelvrvj,1092
gr,1093
grab,1094
grandma,1095
graphic,1096
grass,1097
gratis,1098
greader,1099
great,1100
greatly,1101
greatsuccess,1102
greedy,1103
greener,1104
greenwich,1105
gregulatorparsedonedigit,1106
gretcheneclark,1107
ground,1108
grrrr,1109
gruber,1110
gt,1111
gtqdvfxo,1112
guardian,1113
guardiantech,1114
guess,1115
gui,1116
guide,1117
guy,1118
guys,1119
hack,1120
hacked,1121
hah,1122
haha,1123
hahaha,1124
hailfireparsedthreedigits,1125
hairline,1126
half,1127
hand,1128
handled,1129
hands,1130
handsets,1131
handy,1132
hangouts,1133
happen,1134
happened,1135
happening,1136
happens,1137
happy,1138
happyplace,1139
hard,1140
harder,1141
hashtags,1142
hasn,1143
hate,1144
hated,1145
hater,1146
haven,1147
havin,1148
having,1149
hay,1150
hbogo,1151
hckjxzparsedonedigitk,1152
hdmi,1153
hdv,1154
headache,1155
headed,1156
headings,1157
headphones,1158
health,1159
hear,1160
heard,1161
hell,1162
hella,1163
hello,1164
help,1165
helps,1166
helsinki,1167
herahussain,1168
hero,1169
hey,1170
hfwpbmyparsedonedigit,1171
hide,1172
high,1173
highscoolmemories,1174
hilarious,1175
hindi,1176
hire,1177
hiss,1178
history,1179
hit,1180
hjparsedonedigitqlocparsedonedigit,1181
hk,1182
hmmm,1183
hobparsedtwodigitshbo,1184
hockey,1185
hold,1186
holodeck,1187
holodesk,1188
home,1189
honeka,1190
honest,1191
honored,1192
hooked,1193
hookup,1194
hope,1195
hopefully,1196
hoping,1197
horizontal,1198
horrible,1199
hosting,1200
hot,1201
hotel,1202
hotspots,1203
hour,1204
hourly,1205
hours,1206
houston,1207
hp,1208
hrs,1209
ht,1210
htc,1211
htmlparsedonedigit,1212
http,1213
https,1214
hubby,1215
huge,1216
huh,1217
humor,1218
humpt,1219
hungry,1220
hurry,1221
hurting,1222
hurts,1223
hut,1224
hypo,1225
hypocritical,1226
håper,1227
iamdkt,1228
iancollinsuk,1229
ibm,1230
ibooks,1231
ical,1232
ice,1233
icecream,1234
icecreamsandwich,1235
icecreamsandwichfail,1236
icloud,1237
icon,1238
ics,1239
id,1240
idea,1241
ideas,1242
idisk,1243
idk,1244
idontunderstand,1245
idtheftprotect,1246
ieparsedonedigit,1247
ifollowback,1248
igiveup,1249
ihateyourightnow,1250
ijparsedonedigitxydpparsedonedigit,1251
ijustine,1252
iknparsedthreedigitsze,1253
illustrating,1254
iloveyou,1255
im,1256
imac,1257
image,1258
images,1259
imamac,1260
imessage,1261
imitation,1262
immad_immad,1263
immediate,1264
immobile,1265
imo,1266
impact,1267
importance,1268
impossible,1269
impressed,1270
impressive,1271
improve,1272
improvements,1273
inbox,1274
inbuilt,1275
incapable,1276
include,1277
included,1278
includes,1279
incompatible,1280
incredible,1281
india,1282
indian,1283
indians,1284
individual,1285
ineedthosepictures,1286
ineedtoupdate,1287
inept,1288
inferno,1289
infinite,1290
infinitywebinar,1291
info,1292
infofail,1293
inform,1294
informationweek,1295
injunction,1296
innovation,1297
innovations,1298
input,1299
insane,1300
insanely,1301
inside,1302
inspire,1303
inspired,1304
instagram,1305
install,1306
installed,1307
installing,1308
instant,1309
instantfollowback,1310
instantly,1311
instead,1312
insurance,1313
integrate,1314
integrated,1315
integrating,1316
intel,1317
intensifies,1318
interesing,1319
interested,1320
interesting,1321
interests,1322
interface,1323
interference,1324
internet,1325
interoperability,1326
interrupting,1327
intervals,1328
introduce,1329
introduced,1330
introduces,1331
introducing,1332
introduction,1333
intuitive,1334
invented,1335
invention,1336
inventor,1337
invested,1338
investigate,1339
investments,1340
io,1341
ioparsedonedigit,1342
ios,1343
iosparsedonedigit,1344
iosparsedonedigitatemydingo,1345
iosparsedonedigitdowngrade,1346
ip,1347
ipad,1348
ipadparsedonedigit,1349
ipads,1350
iparsedonedigits,1351
iparsedonedigitsparseddigits,1352
ipas,1353
iphone,1354
iphoneparsedonedigit,1355
iphoneparsedonedigits,1356
iphones,1357
iphoto,1358
ipod,1359
ipodparsedonedigits,1360
irvysan,1361
isb,1362
iscream,1363
iscsi,1364
ishit,1365
isn,1366
isnt,1367
isorry,1368
issue,1369
issues,1370
italianjoya,1371
itdklrry,1372
item,1373
items,1374
itjustworks,1375
itnews_au,1376
itouch,1377
itouchparsedonedigit,1378
itstolate,1379
itunes,1380
itunesmatch,1381
itunesmusic,1382
iuyparsedonedigitdfparsedonedigits,1383
iyoparsedtwodigitsgvj,1384
izhparsedonedigitkaiu,1385
izoparsedonedigitwunt,1386
jackasses,1387
jacked,1388
jailbroke,1389
jailbroken,1390
jaime_rivera,1391
jajajajajajaj,1392
jamaicanidler,1393
james,1394
janeparsedtwodigits,1395
japan,1396
jaroslovsky,1397
jcawwrzq,1398
jdougyj,1399
jean,1400
jeffbullas,1401
jessecablek,1402
jewelzparsedfourdigits,1403
jhdtykcv,1404
jilive,1405
jimmcniel,1406
jimmlparsedonedigitrc,1407
jinnhvwz,1408
jizz,1409
jkotcrmb,1410
jkotcrmbstephen,1411
jldavid,1412
joannejacobs,1413
job,1414
jobs,1415
joebelfiore,1416
joelburns,1417
joelplane,1418
john,1419
join,1420
jolieesharmeda,1421
jolly,1422
jonparsedonedigitlakers,1423
jonsibley,1424
jowyang,1425
jparsedonedigitftieng,1426
jparsedthreedigitszfpo,1427
jsqparsedtwodigitsnuq,1428
junk,1429
just,1430
justsaying,1431
jzmvbdnm,1432
karljuhlke,1433
katebetts,1434
kathrynyee,1435
kdtdparsedonedigitzre,1436
keeping,1437
keeps,1438
kenyaopendoor,1439
kevin,1440
key,1441
keyboard,1442
keyboards,1443
keys,1444
kgnrbvgp,1445
kick,1446
kicked,1447
kidding,1448
kids,1449
kill,1450
killed,1451
killing,1452
kimaris,1453
kind,1454
kindahow,1455
kinect,1456
king,1457
kjparsedonedigitpjvkh,1458
klmgkhparsedonedigitv,1459
knew,1460
knizparsedthreedigitss,1461
know,1462
known,1463
knows,1464
kostatsetsekas,1465
krause,1466
kudos,1467
kursed,1468
kushkittyparsedthreedigits,1469
kvjsercj,1470
kxboqskj,1471
kyliemessier,1472
kymbersanden,1473
la,1474
lack,1475
lacks,1476
lager,1477
laggin,1478
laid,1479
lame,1480
land,1481
languages,1482
laptop,1483
lasted,1484
late,1485
later,1486
latest,1487
laughable,1488
launch,1489
launchfail,1490
launching,1491
laundering,1492
law,1493
laws,1494
laying,1495
layout,1496
lcmediahouse,1497
lcxaparsedonedigitqparseddigitsp,1498
ldparsedonedigitiparsedthreedigitsx,1499
lead,1500
leader,1501
leading,1502
lean,1503
leap,1504
learn,1505
learned,1506
learning,1507
leave,1508
leaves,1509
leaving,1510
lecture,1511
left,1512
leiboaz,1513
leopard,1514
lesson,1515
let,1516
letdown,1517
letme,1518
lets,1519
letter,1520
letting,1521
lfparsedtwodigitszkuz,1522
lgfw,1523
licensing,1524
liciaparsedfourdigits,1525
lie,1526
lies,1527
life,1528
lifted,1529
light,1530
lightning,1531
like,1532
likes,1533
lil,1534
limit,1535
line,1536
link,1537
linkedin,1538
linux,1539
lion,1540
lisa,1541
list,1542
listed,1543
listening,1544
listing,1545
literally,1546
little,1547
live,1548
lives,1549
living,1550
ljpgvzjt,1551
lk,1552
ll,1553
lmao,1554
lmfao,1555
load,1556
loathe,1557
lobby,1558
local,1559
locate,1560
located,1561
location,1562
logged,1563
logicparsedfourdigits,1564
login,1565
lol,1566
lolol,1567
lonely,1568
long,1569
longer,1570
look,1571
looking,1572
looks,1573
loop,1574
loose,1575
lord,1576
los,1577
lose,1578
losing,1579
loss,1580
lost,1581
lot,1582
lots,1583
love,1584
loved,1585
lovee,1586
loveguru_b,1587
lovemyiphone,1588
loves,1589
lovin,1590
loving,1591
low,1592
loyalty,1593
lparsedonedigitmtmparsedonedigitig,1594
lparsedonedigitrsxparsedonedigityf,1595
lparsedtwodigitsowqre,1596
lt,1597
luck,1598
lucky_parsedonedigit_have,1599
lunch,1600
lvffdcel,1601
lwjpparsedonedigitgiu,1602
lwtpxejo,1603
ly,1604
lync,1605
ma,1606
mac,1607
macbook,1608
machine,1609
mack,1610
macosc,1611
macworld,1612
mad,1613
madness,1614
magazine,1615
magic,1616
magical,1617
magically,1618
mail,1619
mainey_maine,1620
major,1621
majorfail,1622
make,1623
makemeproud,1624
makes,1625
making,1626
mall,1627
man,1628
manage,1629
managed,1630
manager,1631
mandarin,1632
manelfmartinez,1633
mango,1634
manually,1635
maoqaplh,1636
map,1637
march,1638
marcoarment,1639
mariospr,1640
market,1641
marketing,1642
marks,1643
mashable,1644
match,1645
matthewgphy,1646
mattmarcheski,1647
mattyriesz,1648
maximize,1649
mayati,1650
maybe,1651
mb,1652
mbl,1653
mcp,1654
mcwparsedtwodigitsvtg,1655
mczparsedonedigitrsdf,1656
mdqhbparsedonedigitxparseddigits,1657
mean,1658
means,1659
meant,1660
media,1661
medical,1662
meego,1663
meet,1664
mega,1665
meghankel,1666
melaleucathewellnesscompany,1667
melts,1668
member,1669
mention,1670
mentions,1671
mentor,1672
merchandising,1673
message,1674
messages,1675
messed,1676
messy,1677
metro,1678
microsof,1679
microsoft,1680
microsoftstores,1681
middle,1682
midnight,1683
mightily,1684
migrating,1685
mikeferri,1686
mileycyrus,1687
millenia,1688
million,1689
millions,1690
mimecastsa,1691
min,1692
mind,1693
mins,1694
minute,1695
minutes,1696
miss,1697
missed,1698
missing,1699
mission,1700
mixedchikparsedtwodigits,1701
mmm,1702
mmmm,1703
mnparsedonedigitnova,1704
mo,1705
mobile,1706
mobileburn,1707
mobileme,1708
mode,1709
model,1710
models,1711
modify,1712
mohamedg,1713
mole,1714
mom,1715
moment,1716
monday,1717
monkeys,1718
monopolistic,1719
month,1720
months,1721
mood,1722
morning,1723
moron,1724
mothafuckin,1725
motorola,1726
mountainview,1727
mouse,1728
movies,1729
moving,1730
mp,1731
mr,1732
mr_lister,1733
mrgareth,1734
mrtonysays,1735
ms,1736
msft,1737
msftresearch,1738
msparsedtwodigits,1739
mspegypt,1740
mstapoutbarbie,1741
mswxparsedonedigiteoparsedonedigit,1742
mtsparsedtwodigits,1743
mtuparsedonedigittgxparsedonedigit,1744
muchhh,1745
muh,1746
mulling,1747
multiple,1748
music,1749
muuwbgpn,1750
mv,1751
nagoulparsedonedigit,1752
nam,1753
names,1754
nansen,1755
nationalgeographic,1756
nauseous,1757
nav,1758
navigation,1759
naw,1760
nbparsedonedigitdhlsg,1761
ndk,1762
nearest,1763
nearly,1764
neat,1765
neck,1766
need,1767
needed,1768
needless,1769
neednewipadguide,1770
needparsedonedigits,1771
needs,1772
needsomethingtoread,1773
nejbye,1774
neowin,1775
nerdboner,1776
nervous,1777
net,1778
netbooks,1779
netscape,1780
network,1781
new,1782
newest,1783
newfeature,1784
news,1785
newsstand,1786
newstand,1787
newton,1788
nexus,1789
nexusprime,1790
nfl,1791
nice,1792
nicholiparsedtwodigits,1793
nicki,1794
nickthefnicon,1795
night,1796
nightmares,1797
nirvana,1798
nobueno,1799
nokia,1800
non,1801
noowwwwww,1802
noreply,1803
notbook,1804
note,1805
notes,1806
notifications,1807
notified,1808
notifies,1809
notjustaboutthephone,1810
notresponding,1811
novatyler,1812
novell,1813
november,1814
nowicanspendevenmoretimeonmyphone,1815
nparsedonedigit,1816
nparsedonedigitcpuparsedonedigitvj,1817
nsaisrip,1818
nshlfiux,1819
number,1820
numbering,1821
numbers,1822
nuther,1823
nuts,1824
ny,1825
nytimes,1826
nz,1827
obituaries,1828
obnoxious,1829
obsessions,1830
obviously,1831
occur,1832
oeurmtlx,1833
oezkparsedonedigitivparsedonedigit,1834
offer,1835
offering,1836
offers,1837
office,1838
official,1839
officially,1840
offing,1841
offline,1842
ofhparsedonedigitptag,1843
oh,1844
ohnonotagain,1845
ok,1846
okay,1847
old,1848
older,1849
omfg,1850
omg,1851
omnitouch,1852
omnomnomnom,1853
ondxwper,1854
ones,1855
online,1856
oparsedonedigit,1857
open,1858
opening,1859
opens,1860
opensource,1861
operating,1862
operation,1863
opinions,1864
opportunities,1865
opportunity,1866
opposite,1867
option,1868
oranges,1869
order,1870
ordered,1871
ordering,1872
organic,1873
original,1874
os,1875
osx,1876
ouch,1877
ouparsedonedigitkparsedtwodigitsge,1878
outdated,1879
outlaws,1880
outlook,1881
outside,1882
overall,1883
overbearing,1884
overcapacity,1885
owner,1886
owns,1887
oyszmjvi,1888
pad,1889
page,1890
pages,1891
paging_dr_a,1892
paid,1893
pain,1894
painful,1895
painfully,1896
palmface,1897
panorama,1898
panoramas,1899
panoramic,1900
pants,1901
parents,1902
parivar,1903
parker,1904
parseddigits,1905
parseddigitsk,1906
parseddigitsnd,1907
parseddigitsyrs,1908
parsedfivedigits,1909
parsedfourdigits,1910
parsedonedigit,1911
parsedonedigitaja,1912
parsedonedigitb,1913
parsedonedigitbn,1914
parsedonedigitbwxjadg,1915
parsedonedigitchan,1916
parsedonedigitd,1917
parsedonedigitexbnqjy,1918
parsedonedigitfhparsedonedigitdfgj,1919
parsedonedigitg,1920
parsedonedigitgjqvewn,1921
parsedonedigitgs,1922
parsedonedigitgupparsedonedigitacz,1923
parsedonedigithr,1924
parsedonedigithrs,1925
parsedonedigithvbcparsedonedigitbm,1926
parsedonedigitibobnrh,1927
parsedonedigitijkparsedonedigitvbparsedonedigit,1928
parsedonedigitlike,1929
parsedonedigitnd,1930
parsedonedigitnhuyfeh,1931
parsedonedigitokparsedonedigitxcow,1932
parsedonedigitphhparsedonedigitjbparsedonedigit,1933
parsedonedigitpkparsedonedigitetparsedonedigitr,1934
parsedonedigitpm,1935
parsedonedigitqmgparsedonedigitira,1936
parsedonedigitqnlwftparsedonedigit,1937
parsedonedigitquyparsedonedigituou,1938
parsedonedigitrkochzr,1939
parsedonedigits,1940
parsedonedigitsesvwwm,1941
parsedonedigitsjnparsedonedigitbzz,1942
parsedonedigitst,1943
parsedonedigitsunni,1944
parsedonedigitth,1945
parsedonedigituhparsedonedigitaparseddigitsvt,1946
parsedonedigituxawkwf,1947
parsedonedigitvsaszyt,1948
parsedonedigitwhhmakparsedonedigit,1949
parsedonedigitwvparsedtwodigitsoparsedonedigitv,1950
parsedonedigitx,1951
parsedonedigitxddxnparsedonedigitw,1952
parsedonedigityparseddigitsasparsedonedigitzz,1953
parsedonedigityvjmhnq,1954
parsedonedigitywvbeparsedonedigitz,1955
parsedonedigitzcqparsedtwodigitssf,1956
parsedthreedigits,1957
parsedthreedigitsdaysofgratefulness,1958
parsedthreedigitsklkfh,1959
parsedtwodigits,1960
parsedtwodigitsbit,1961
parsedtwodigitsdyonxz,1962
parsedtwodigitsgajsgi,1963
parsedtwodigitsgb,1964
parsedtwodigitshrs,1965
parsedtwodigitsighgic,1966
parsedtwodigitsjwparsedonedigitzparseddigitsc,1967
parsedtwodigitsk,1968
parsedtwodigitsmb,1969
parsedtwodigitsoglika,1970
parsedtwodigitsohflyparsedonedigit,1971
parsedtwodigitstwitterpeopleiwouldliketomeet,1972
parsedtwodigitswkioxc,1973
parsedtwodigitsyrparsedtwodigitswl,1974
participated,1975
particularly,1976
party,1977
pass,1978
password,1979
past,1980
patent,1981
paulens,1982
pavilions,1983
pay,1984
paying,1985
paypal,1986
pc,1987
pcam,1988
pcmjon,1989
pdbfparsedonedigithparseddigitsf,1990
pdf,1991
pdfs,1992
people,1993
perfect,1994
perfectly,1995
perform,1996
perils,1997
period,1998
perpetual,1999
person,2000
personal,2001
personalization,2002
petty,2003
ph,2004
philanthropy,2005
philliprowntree,2006
philosophy,2007
phone,2008
phonedog_aaron,2009
phones,2010
photo,2011
photograherseye,2012
photography,2013
photos,2014
photosharing,2015
phxguyparsedtwodigits,2016
pick,2017
picking,2018
picture,2019
pictures,2020
piece,2021
pile,2022
pinch,2023
pink,2024
pins,2025
piracy,2026
pissed,2027
pissing,2028
place,2029
plan,2030
planet,2031
planned,2032
plans,2033
plate,2034
platform,2035
play,2036
playbooks,2037
played,2038
players,2039
playful,2040
playing,2041
playlist,2042
playlists,2043
pleased,2044
pleasure,2045
plot,2046
plparsedonedigitzeevh,2047
pls,2048
pltitgei,2049
plus,2050
plusone,2051
plz,2052
pmphillips,2053
pocketlint,2054
podcast,2055
podcasts,2056
point,2057
points,2058
poised,2059
policies,2060
policy,2061
polish,2062
politely,2063
politicians,2064
pondering,2065
poole,2066
poor,2067
popular,2068
ported,2069
portland,2070
positive,2071
positives,2072
post,2073
power,2074
powered,2075
powerpivot,2076
powerpoint,2077
pparsedonedigithwoparsedtwodigitsx,2078
pparsedonedigitj,2079
pparsedtwodigitsehduq,2080
ppl,2081
pqparsedtwodigitsgrra,2082
practices,2083
praying,2084
prctices,2085
pre,2086
preaching,2087
predictions,2088
prefer,2089
premise,2090
preorder,2091
preordered,2092
present,2093
presentation,2094
presentations,2095
presents,2096
press,2097
pretty,2098
prettynesz,2099
preventing,2100
preview,2101
previous,2102
price,2103
priceless,2104
prime,2105
princessofchina,2106
privacy,2107
prjusto,2108
pro,2109
probably,2110
problem,2111
problems,2112
probono,2113
process,2114
processor,2115
procrastination,2116
produce,2117
produck,2118
product,2119
productive,2120
productivity,2121
products,2122
profile,2123
profiles,2124
profitering,2125
program,2126
programs,2127
progressed,2128
progressive,2129
project,2130
prolly,2131
promised,2132
promising,2133
promoallday,2134
prone,2135
propaganda,2136
proper,2137
properly,2138
props,2139
protect,2140
protection,2141
proves,2142
provided,2143
providing,2144
proving,2145
ps,2146
psfk,2147
psn,2148
psujgparsedonedigitpn,2149
public,2150
publicly,2151
puck,2152
pujyvparsedonedigitcparseddigits,2153
pull,2154
pulling,2155
pulls,2156
purchase,2157
purchased,2158
purchasing,2159
purpose,2160
push,2161
putting,2162
qa,2163
qamjparsedonedigitmer,2164
qbgxxjmm,2165
qlparsedonedigitzmppo,2166
qmwjtvnk,2167
qparsedonedigitkecparsedonedigit,2168
qparsedonedigitqleokz,2169
qpgxle,2170
qrcode,2171
quality,2172
question,2173
questions,2174
quick,2175
quickly,2176
quickresponse,2177
quite,2178
racketeering,2179
rad_software,2180
radlerc,2181
radparsedonedigitwdsw,2182
rafts,2183
raining,2184
raise,2185
ralphbin,2186
ram,2187
ranch,2188
rape,2189
rapidly,2190
rauerrtf,2191
razr,2192
rcve,2193
reaaly,2194
reaching,2195
reaction,2196
read,2197
reader,2198
readinglists,2199
ready,2200
real,2201
realestate,2202
realise,2203
realized,2204
really,2205
reappeared,2206
reason,2207
reasons,2208
reboot,2209
received,2210
recognition,2211
recover,2212
recovered,2213
recruit,2214
red,2215
reddeersteph,2216
redeemed,2217
redesigned,2218
redmond,2219
referring,2220
refurbed,2221
refurbished,2222
regent,2223
region,2224
register,2225
registered,2226
regular,2227
relaxing,2228
release,2229
released,2230
releasepartyguide,2231
releases,2232
relevance,2233
reliable,2234
remember,2235
remembering,2236
remind,2237
reminder,2238
reminders,2239
removable,2240
removing,2241
remparsedonedigit,2242
rename,2243
renatmin,2244
render,2245
rep,2246
repair,2247
reparsedonedigitnlzgi,2248
replace,2249
replaced,2250
replaceit,2251
replacement,2252
replacing,2253
replied,2254
replies,2255
report,2256
reported,2257
reporting,2258
reports,2259
reprisk,2260
request,2261
required,2262
requires,2263
research,2264
resellars,2265
reservation,2266
resolution,2267
resolve,2268
resources,2269
respect,2270
respectmaswagg,2271
response,2272
responsive,2273
rest,2274
restore,2275
restored,2276
restoring,2277
restrictions,2278
results,2279
retail,2280
retarded,2281
retire,2282
retrieve,2283
return,2284
returning,2285
retweet,2286
retweeted,2287
retweets,2288
revealed,2289
revenue,2290
reverting,2291
review,2292
revolution,2293
rgbhhuqp,2294
rice,2295
rich,2296
richer,2297
rickysinghpt,2298
ridic,2299
right,2300
rihanna,2301
rim,2302
rimm,2303
ring,2304
ringing,2305
rip,2306
ripstevejobs,2307
rise,2308
riskiest,2309
rite,2310
ritenow,2311
rkparsedonedigitkphss,2312
rly,2313
rmiparsedonedigitosmi,2314
robert_terpstra,2315
roboto,2316
rogerweir,2317
roll,2318
ronakkataria,2319
roolz,2320
room,2321
rooting,2322
rossmistry,2323
rot,2324
round,2325
row,2326
roycind,2327
rparsedonedigithnettu,2328
rparsedonedigitjujsbr,2329
rparsedonedigitrndnparsedonedigity,2330
rt,2331
rtdzjqparsedonedigitu,2332
rts,2333
ruining,2334
rule,2335
run,2336
running,2337
rva,2338
rww,2339
rxwdparsedonedigitsnparsedonedigit,2340
ryanbaldwin,2341
rygurl,2342
rzucfejc,2343
sad,2344
sadmac,2345
safari,2346
safe,2347
safety,2348
sage,2349
said,2350
sake,2351
sale,2352
sales,2353
salesforce,2354
salmonella,2355
samay,2356
samsumg,2357
samsung,2358
samsunggalaxynexus,2359
samsungmobileca,2360
samsungnexus,2361
sander_koers,2362
sandwich,2363
santa,2364
santorum,2365
sap,2366
saptha,2367
sarahhhhhparsedthreedigits,2368
save,2369
saved,2370
saw,2371
sawyerhartman,2372
say,2373
saying,2374
says,2375
sbsparsedfourdigits,2376
scalability,2377
scares,2378
schaumburg,2379
schedule,2380
schestowitz,2381
school,2382
science,2383
science_alex,2384
scientist,2385
scores,2386
scottdugas,2387
scottydparsedfivedigits,2388
scream,2389
screen,2390
screened,2391
screenshot,2392
screenshots,2393
screw,2394
screwed,2395
screwing,2396
scrolling,2397
sd,2398
sdk,2399
sdparsedtwodigits,2400
sean,2401
search,2402
searches,2403
searching,2404
sebascoulombe,2405
second,2406
section,2407
secure,2408
seeing,2409
seeks,2410
seemingly,2411
seen,2412
select,2413
self,2414
sell,2415
selling,2416
sells,2417
selop,2418
send,2419
sending,2420
sense,2421
sent,2422
sentences,2423
seo,2424
september,2425
sequence,2426
seriously,2427
served,2428
server,2429
servers,2430
serves,2431
service,2432
services,2433
sesamestreet,2434
session,2435
set,2436
setting,2437
settings,2438
sgn,2439
shagged,2440
shagorikah,2441
share,2442
sharepoint,2443
sharing,2444
shaydiddy,2445
shifted,2446
ship,2447
shipping,2448
shit,2449
shitt,2450
shitty,2451
shlft,2452
shoot,2453
shore,2454
shoukd,2455
showed,2456
showin,2457
showing,2458
shows,2459
shuffle,2460
shutter,2461
sick,2462
sigh,2463
sign,2464
signal,2465
signups,2466
silly,2467
silverlight,2468
similar,2469
simple,2470
simplifies,2471
simply,2472
singaporean,2473
singing,2474
siri,2475
siriwho,2476
sister,2477
sit,2478
site,2479
sites,2480
skandalasgp,2481
skills,2482
skype,2483
slacking,2484
slashgear,2485
sledgehammer,2486
sleek,2487
sleep,2488
slegit,2489
slick,2490
slide,2491
slightly,2492
slipping,2493
sloppy,2494
slow,2495
slower,2496
slowly,2497
slows,2498
sm,2499
smalfunctioningagain,2500
small,2501
smallvictory,2502
smart,2503
smarterphone,2504
smartest,2505
smartphone,2506
smashed,2507
smau,2508
smm,2509
smooth,2510
sms,2511
snatched,2512
snippy,2513
snow,2514
socia,2515
social,2516
socialmedia,2517
software,2518
solution,2519
solutions,2520
someparsedonedigit,2521
songs,2522
sony,2523
soon,2524
sooo,2525
soooo,2526
soparsedonedigitwparseddigitsspn,2527
sorri,2528
sorry,2529
sorude,2530
sought,2531
sound,2532
soundmore,2533
sounds,2534
sources,2535
space,2536
spacecanard,2537
spaces,2538
spam,2539
spanish,2540
sparsedonedigit,2541
speakers,2542
speaking,2543
speech,2544
speed,2545
spell,2546
spend,2547
spending,2548
spiral,2549
spoiled,2550
spoke,2551
spongebob,2552
sponsors,2553
spontaneously,2554
sports,2555
spparsedfourdigits,2556
sprint,2557
spying,2558
sql,2559
sqlserver,2560
sqneparsedonedigitilb,2561
srbmparsedonedigitvparseddigitsk,2562
st,2563
stable,2564
stacks,2565
staff,2566
stage,2567
stalkerismo,2568
stalking,2569
stand,2570
star,2571
start,2572
started,2573
starting,2574
starts,2575
states,2576
station,2577
steeloparsedthreedigits,2578
steffen,2579
step,2580
steps,2581
steve,2582
steveballmer,2583
steveballmet,2584
stevejobs,2585
stewart,2586
stickies,2587
sticking,2588
sticky,2589
stink,2590
stolen,2591
stop,2592
storage,2593
store,2594
stores,2595
stories,2596
story,2597
straight,2598
strangest,2599
strategy,2600
stream,2601
street,2602
stuck,2603
students,2604
studies,2605
study,2606
studyingwhilstmotivated,2607
stuff,2608
stumped,2609
stupid,2610
style,2611
stylus,2612
submitted,2613
subscriptions,2614
subtweeting,2615
suburbs,2616
succeed,2617
succesfully,2618
success,2619
sucha,2620
suck,2621
suckers,2622
sucking,2623
sucks,2624
sudden,2625
suddenly,2626
suffering,2627
sugar,2628
suggested,2629
suing,2630
summer,2631
sums,2632
sun,2633
sunday,2634
super,2635
superb,2636
superior,2637
superphone,2638
support,2639
supports,2640
sure,2641
surely,2642
surface,2643
surprised,2644
surprises,2645
survey,2646
surviving,2647
susanfelicity,2648
suspecting,2649
sux,2650
swaag,2651
swallow,2652
sware,2653
swear,2654
sweet,2655
switch,2656
switched,2657
switching,2658
swpats,2659
swype,2660
sydney,2661
sym,2662
sync,2663
synching,2664
syncing,2665
syncronize,2666
syncs,2667
sysadmin,2668
systems,2669
tablet,2670
tablets,2671
tah_med,2672
taken,2673
taking,2674
talk,2675
talking,2676
target,2677
tasparsedfivedigits,2678
taste,2679
taught,2680
tbnyxparsedonedigitpparseddigits,2681
tcn,2682
tcot,2683
team,2684
teamed,2685
teamfollowback,2686
teamo,2687
teams,2688
tear,2689
teasing,2690
tech,2691
techedafrica,2692
techfest,2693
techflash,2694
techie,2695
techietroubles,2696
technical,2697
technological,2698
technologies,2699
technology,2700
techsupport,2701
techy,2702
teehee,2703
telegraph,2704
tell,2705
telling,2706
tellme,2707
tells,2708
terminal,2709
terms,2710
terrible,2711
test,2712
testing,2713
tests,2714
text,2715
texts,2716
tha,2717
thank,2718
thankful,2719
thankfully,2720
thanks,2721
thanksfornothing,2722
thankyou,2723
thats,2724
thattechguyparsedtwodigits,2725
theft,2726
thegadgetshow,2727
thelittleappkid,2728
themarketaire,2729
theme,2730
themes,2731
thenonsensepersists,2732
theresamarosy,2733
thievingbastards,2734
thing,2735
things,2736
thingswealllove,2737
think,2738
thinking,2739
thinks,2740
thnx,2741
tho,2742
thorn,2743
thorough,2744
thought,2745
thoughtful,2746
thoughts,2747
threat,2748
threaten,2749
throat,2750
throw,2751
throws,2752
thumbs,2753
thunderbird,2754
thunderbolt,2755
thursday,2756
thx,2757
thxx,2758
tiger,2759
til,2760
time,2761
timed,2762
timeline,2763
times,2764
timewarnercable,2765
timing,2766
tint,2767
tipped,2768
tired,2769
tita_ramos,2770
titanic,2771
tl,2772
tmdfqreparsedonedigit,2773
tmw,2774
today,2775
told,2776
toledo,2777
tomcolontonio,2778
tomkeene,2779
tommylee,2780
tomorrow,2781
tone,2782
tones,2783
tonight,2784
tonite,2785
tons,2786
took,2787
tool,2788
tools,2789
toparsedonedigitne,2790
total,2791
totally,2792
touch,2793
touchscreen,2794
tour,2795
toy,2796
toys,2797
tragic,2798
training,2799
transferred,2800
trash,2801
treyhobparsedtwodigits,2802
tri,2803
trial,2804
tribute,2805
tried,2806
tries,2807
triple,2808
trisha_ps,2809
trivia,2810
trojan,2811
tron,2812
tronman,2813
trouble,2814
truly,2815
try,2816
trying,2817
tsql,2818
tt,2819
tuesday,2820
tunes,2821
turn,2822
turned,2823
turning,2824
turns,2825
tv,2826
twaeudbp,2827
twalve,2828
tweet,2829
tweeted,2830
tweeter,2831
tweeting,2832
tweets,2833
twitter,2834
twitterapp,2835
twitterer,2836
twitterless,2837
twitternation,2838
twitters,2839
twitterswag,2840
tx,2841
txts,2842
ty,2843
type,2844
typing,2845
uaqrxtnk,2846
uch,2847
ufparsedonedigittakparsedonedigitf,2848
ugh,2849
ughh,2850
ugly,2851
uh,2852
ui,2853
uiparsedonedigitadparsedonedigitfj,2854
uiparsedonedigitloezx,2855
ukwokbgd,2856
ultimate,2857
um,2858
umber,2859
umparsedthreedigitsjfh,2860
unable,2861
unbelievable,2862
unborn,2863
undergo,2864
underrated,2865
undo,2866
unexpected,2867
unfair,2868
unhappy,2869
unified,2870
units,2871
university,2872
unless,2873
unlike,2874
unlock,2875
unmindful,2876
unproductive,2877
unquality,2878
unreal,2879
unveil,2880
unwanted,2881
update,2882
updated,2883
updater,2884
updates,2885
updating,2886
upgrade,2887
upgraded,2888
upgrades,2889
upgrading,2890
uphill,2891
upload,2892
ups,2893
ur,2894
url,2895
urxjixce,2896
usage,2897
use,2898
used,2899
useful,2900
useless,2901
user,2902
users,2903
uses,2904
using,2905
usual,2906
utilities,2907
utter,2908
utterly,2909
uweyalkb,2910
ux,2911
validated,2912
values,2913
vancouver,2914
vanillalatte_xd,2915
vattam,2916
ve,2917
vegas,2918
venturebeat,2919
verizon,2920
verizonwireless,2921
vers,2922
version,2923
vertical,2924
vibrate,2925
victim,2926
victims,2927
video,2928
videos,2929
views,2930
vinodrad,2931
violated,2932
viparsedonedigithtjrr,2933
virtual,2934
visigoth,2935
visit,2936
vista,2937
visual,2938
vjparsedonedigitjpktm,2939
vjrssfyn,2940
vkvparsedonedigittbcj,2941
vmware,2942
voice,2943
voicecontrol,2944
voices,2945
volume,2946
voparsedthreedigitsmrz,2947
vpqoyxwa,2948
vs,2949
vslive,2950
vsphereparsedonedigit,2951
vtybqiparsedtwodigits,2952
vulnerability,2953
vuwgyxparsedonedigitn,2954
vvparsedonedigitltkyp,2955
vwciovparsedonedigitf,2956
waaaaay,2957
wack,2958
waddya,2959
wait,2960
waited,2961
waiting,2962
walk,2963
walled,2964
wallet,2965
wallpaper,2966
wanna,2967
want,2968
wanted,2969
wants,2970
war,2971
warm,2972
warning,2973
wars,2974
wash,2975
wasn,2976
wasted,2977
wasting,2978
watch,2979
watchdog,2980
watched,2981
watching,2982
water,2983
wave,2984
way,2985
waynp,2986
web,2987
webcamps,2988
webgl,2989
webos,2990
webpage,2991
webpronews,2992
website,2993
wedpbcpx,2994
week,2995
weekend,2996
weirdhttp,2997
weirdo,2998
welcome,2999
welcomeskype,3000
wellisparsedtwodigits,3001
went,3002
west,3003
wfrzkysn,3004
whaddupwitdat,3005
whale,3006
whatchu,3007
whhyy,3008
white,3009
whoops,3010
whore,3011
whores,3012
widget,3013
widgets,3014
wife,3015
wifi,3016
wififofum,3017
william,3018
wilth,3019
win,3020
windows,3021
windowsparsedonedigit,3022
windowsparsedonedigitmobile,3023
windowsphone,3024
windowsphoneparsedonedigit,3025
winning,3026
winparsedonedigit,3027
wiped,3028
wireless,3029
wisconsin_mommy,3030
wise,3031
wish,3032
wit,3033
witchcraft,3034
wmp,3035
wo,3036
won,3037
wonder,3038
wondering,3039
wonky,3040
wont,3041
woods,3042
word,3043
words,3044
work,3045
worked,3046
workers,3047
workflow,3048
workflows,3049
working,3050
works,3051
workshop,3052
workstation,3053
world,3054
worldwide,3055
worried,3056
worries,3057
worse,3058
worst,3059
worstupdateever,3060
worth,3061
wouldn,3062
wounded,3063
wow,3064
wowww,3065
wparsedonedigitocrbpm,3066
wparsedthreedigitsbfsparsedonedigit,3067
wpdesignteam,3068
wpparsedonedigit,3069
wps,3070
wpt,3071
write,3072
writing,3073
wrong,3074
wtf,3075
wth,3076
wtjparsedonedigitogdo,3077
wuhu,3078
wuparsedonedigitbfiparsedonedigith,3079
wuppy,3080
wvzprbci,3081
wxbcparsedonedigituuw,3082
xbl,3083
xbox,3084
xcuntnuggetx,3085
xero,3086
xghoevparsedonedigitk,3087
xolrauey,3088
xparsedonedigitqzexparsedonedigitf,3089
xparsedonedigitywfnsv,3090
xsjgifop,3091
xtzmpsmt,3092
xvparsedonedigitqparseddigitsgfi,3093
xx,3094
ya,3095
yahoo,3096
yapping,3097
yashasjoshi,3098
yea,3099
yeah,3100
yeahh,3101
year,3102
years,3103
yeh,3104
yellow,3105
yellowgate,3106
yep,3107
yes,3108
yessss,3109
yesterday,3110
ykchtuparsedonedigith,3111
ykqipparsedonedigitnk,3112
yootfktm,3113
yourdaysarenumbered,3114
youtube,3115
youuuuuuuuuuuu,3116
yparsedonedigit,3117
yr,3118
yrs,3119
yummy,3120
yuvalz,3121
yyparsedonedigithnrbq,3122
yzhcdgfp,3123
zacksiezmagraff,3124
zappos,3125
zbltzparsedonedigitmw,3126
zero,3127
zgbkparsedonedigitxnk,3128
zixfaparsedtwodigitsn,3129
zknparsedonedigitbuparsedonedigitr,3130
zndpparsedonedigitvrparsedonedigit,3131
zombiebomber,3132
zoom,3133
zparsedonedigitidoniparsedonedigit,3134
zparsedonedigitjwlqvu,3135
zrqoewxi,3136
zune,3137
zxparsedonedigitpwparsedonedigitgt,3138
zzkparsedonedigitftii,3139
透過,3140
