__,0
___,1
____,2
______________,3
_ibertaddigital,4
_xmas_carroll,5
aaargh,6
able,7
aboutthatlife,8
absolutely,9
abt,10
access,11
accessibility,12
accessing,13
accompanying,14
according,15
account,16
accounts,17
acct,18
accused,19
acting,20
action,21
activating,22
acts,23
actually,24
ad,25
add,26
addict,27
addicted,28
adding,29
address,30
addthis,31
adiman_,32
admirably,33
admit,34
admitting,35
adobe,36
adobemax,37
adopted,38
adopterness,39
advertisements,40
advertising,41
adweek,42
adwords,43
affair,44
affects,45
agency,46
ages,47
aggregates,48
aggressive,49
agree,50
agvparsedtwodigitsznj,51
ah,52
ahead,53
ahhfuckitsguss,54
aijysfho,55
ailing,56
ain,57
ainteeentrippin,58
air,59
airdrop,60
aka,61
ala,62
alamo,63
alarm,64
alarms,65
albatross,66
albertmalparsedtwodigits,67
album,68
albums,69
alead,70
alert,71
alexlindsay,72
alexmufferi,73
alive,74
alleged,75
allow,76
allowing,77
alongside,78
alright,79
amandbrar,80
amarsanghera,81
amazed,82
amazing,83
amazon,84
ammmylewis,85
amp,86
amused,87
analytics,88
anas_monaffal,89
android,90
androidbeam,91
androidicecreamsandwich,92
androidparsedonedigit,93
andshuttingdownru,94
andshuttingdownrunningprograms,95
angrybirds,96
angst,97
announced,98
announcement,99
annoyed,100
annoying,101
answer,102
answers,103
anti,104
anup_pillai,105
anyday,106
anymore,107
aparsedonedigitonparsedonedigitiaa,108
aparsedthreedigitstgparsedonedigitl,109
apologize,110
apology,111
app,112
apparently,113
appear,114
apperature,115
apple,116
applecanada,117
apples,118
appletv,119
apply,120
appointment,121
appreciated,122
appropriately,123
apps,124
appsense,125
appstore,126
apt,127
ar,128
arc,129
architecture,130
aren,131
argument,132
ari,133
arrived,134
arrives,135
arrogance,136
arrogant,137
art,138
article,139
artist,140
asap,141
ashercfo,142
aside,143
asimrang,144
ask,145
asked,146
ass,147
asses,148
assimparsedtwodigits,149
asus,150
ate,151
att,152
attacks,153
attempts,154
attending,155
attributed,156
audio,157
august,158
australia,159
authorise,160
authorization,161
authorize,162
authorizing,163
auto,164
automatically,165
autosavesucks,166
av,167
available,168
ave,169
avoided,170
avslparsedonedigitygu,171
avtar,172
awaited,173
away,174
awesome,175
awesomeness,176
awful,177
awsome,178
axlparsedonedigitkparseddigitsgs,179
ay,180
ayhokgoparsedonedigit,181
azeeparsedonedigitvparseddigits,182
azrael,183
azure,184
babygeeks,185
backchannel,186
background,187
backside,188
backup,189
backwards,190
bad,191
baffles,192
bag,193
bahhh,194
ball,195
ballmer,196
ban,197
bandwidth,198
bar,199
bars,200
base,201
based,202
bastards,203
batteries,204
battery,205
batting,206
battle,207
bbm,208
bc,209
beam,210
beating,211
beats,212
beautiful,213
becuz,214
bed,215
begin,216
beginning,217
behatreen,218
believe,219
bell,220
bellevue,221
beneficial,222
benefits,223
benrubery,224
berry,225
best,226
bestbuy,227
bestpantsten,228
beta,229
betaparsedonedigit,230
better,231
betweensundays,232
beware,233
bff,234
bg,235
bgkimgjf,236
bgotzjparsedonedigitk,237
bgr,238
bi,239
big,240
bigbrother,241
bigdealdawson,242
biggest,243
bigmama,244
bigtrouble,245
billion,246
billions,247
biltmore,248
bind,249
bing,250
bird,251
bisquiat,252
bit,253
bitch,254
bitching,255
bite,256
biz,257
bkadparsedfourdigits,258
black,259
blackberry,260
blackouts,261
blame,262
blameitontheiphone,263
blames,264
blaparsedonedigitze,265
blaring,266
blast,267
blatant,268
blaze,269
blend,270
bless,271
blessed,272
blew,273
blhhgopo,274
blocked,275
blog,276
bloody,277
bloomberg,278
bloombergnews,279
blowing,280
blown,281
blue,282
blues,283
bmann,284
bode,285
body,286
bofh,287
bonkoif,288
bonobo,289
boo,290
book,291
bookcase,292
booked,293
bookmarks,294
boost,295
boot,296
booted,297
borders,298
bored,299
boring,300
bottlenecks,301
bought,302
bound,303
box,304
boy,305
boycotting,306
bparsedonedigit,307
bpfkydparsedonedigito,308
bppjwncp,309
bqmuhxkk,310
braille,311
brain,312
brand,313
brandonminiman,314
brands,315
bravo,316
break,317
breaking,318
briancrockerjr,319
brianmincey,320
brick,321
bricked,322
brightness,323
briliant,324
brilliance,325
brilliant,326
bring,327
bringing,328
bro,329
broke,330
broken,331
brother,332
browse,333
browsers,334
browserwars,335
bs,336
bsd,337
bud,338
bug,339
build,340
building,341
buildingwindowsparsedonedigit,342
builds,343
buildwindowsparsedonedigit,344
built,345
builtin,346
bulletproof,347
bullshit,348
bullying,349
bummer,350
bump,351
burkepatch,352
burn,353
bus,354
business,355
businesses,356
businessuplift,357
busy,358
butler,359
buttery,360
button,361
buttons,362
buy,363
buying,364
bye,365
cable,366
calendar,367
called,368
calling,369
calls,370
came,371
camera,372
camper,373
campus,374
canada,375
canadait,376
cancer,377
cans,378
cap,379
capabilities,380
capacity,381
car,382
caracteres,383
card,384
cards,385
cardsapp,386
care,387
careers,388
carltonparsedthreedigits,389
carrier,390
carriers,391
carrying,392
carrypad,393
carsonfratus,394
cartoon,395
case,396
cash,397
catastrophe,398
catastrophically,399
catchy,400
caught,401
cause,402
causes,403
cbm,404
cc,405
centre,406
ceo,407
ceremoniously,408
certain,409
certification,410
cesspit,411
champ,412
chance,413
change,414
changed,415
changer,416
changes,417
chao,418
chaos,419
characters,420
charge,421
charger,422
charging,423
chascouponmom,424
cheap,425
check,426
checkboxes,427
cheer,428
chief,429
child,430
china,431
chipsets,432
choice,433
choices,434
chosen,435
chris,436
chrome,437
chu,438
chucktodd,439
circustk,440
cisco,441
citizenship,442
cjjparsedtwodigitsvparsedonedigiti,443
cjonncvk,444
cjwallaceparsedtwodigits,445
clarence,446
class,447
claws,448
clean,449
cleaned,450
clear,451
cli,452
click,453
clicking,454
clocks,455
close,456
closed,457
closely,458
closer,459
closing,460
cloud,461
clouds,462
cloudy,463
club,464
clue,465
cnet,466
cnt,467
coach,468
coast,469
coated,470
code,471
codename,472
coldplay,473
collaborated,474
colleague,475
collection,476
college,477
colour,478
combination,479
combo,480
come,481
comes,482
coming,483
commands,484
comments,485
commercial,486
committed,487
communications,488
community,489
comp,490
companies,491
company,492
compares,493
comparing,494
compatibility,495
compatible,496
compelling,497
competitive,498
compilation,499
complain,500
complaints,501
complete,502
completely,503
completes,504
compliments,505
compose,506
composite,507
computer,508
concept,509
concerned,510
concluded,511
conditions,512
conference,513
configure,514
confused,515
confusin,516
confusing,517
connect,518
connected,519
connecting,520
connection,521
considering,522
console,523
consolidation,524
consultingware,525
cont,526
contact,527
contacts,528
contender,529
content,530
continued,531
continuing,532
continuously,533
contracts,534
control,535
convenient,536
conversation,537
conversations,538
converting,539
coo,540
cool,541
coollike,542
copy,543
coqclbparsedonedigitr,544
cord,545
corporate,546
corporation,547
correct,548
correction,549
couldn,550
counter,551
couple,552
courtesy,553
covent,554
coworker,555
cparsedonedigittuparsedonedigitdzk,556
cparsedtwodigitssnizt,557
crack,558
cracked,559
crankywithnophone,560
crap,561
crappy,562
crash,563
crashes,564
crashing,565
craving,566
crazy,567
cream,568
create,569
creating,570
creative,571
credit,572
creepy,573
critical,574
criticise,575
cropping,576
crowd,577
crparsedonedigitaparseddigitskparsedonedigitu,578
crushed,579
csaefrhc,580
ctp,581
cu,582
curate,583
curious,584
current,585
currently,586
curse,587
customer,588
customers,589
custserv,590
cute,591
cutting,592
cuz,593
cvfwmvmo,594
cxovkparsedonedigitww,595
cyanogenmod,596
da,597
dad,598
dailydealchat,599
dalmaer,600
dam,601
damage,602
damaged,603
dammit,604
damn,605
dancemoms,606
danielpink,607
dariuszporowski,608
dark,609
darkness,610
data,611
daughter,612
davidegori,613
day,614
days,615
db,616
dbbwsdpx,617
dead,618
deal,619
dealing,620
deals,621
dear,622
death,623
deb_lavoy,624
debt,625
debut,626
decades,627
decent,628
decide,629
decides,630
decision,631
decline,632
declined,633
declining,634
def,635
definitely,636
delay,637
delegates,638
delete,639
deleted,640
delicious,641
deliver,642
delivered,643
demo,644
demonstration,645
dependent,646
deploying,647
depreciate,648
design,649
designed,650
designs,651
desire,652
desired,653
desktop,654
desperatehousewives,655
destroying,656
detailed,657
details,658
detection,659
dev,660
developer,661
developers,662
device,663
devices,664
dezz,665
deár,666
dff,667
dffkvnsj,668
dhilipsiva,669
dick,670
dicks,671
dictation,672
did,673
didn,674
die,675
died,676
difference,677
different,678
difficult,679
difficulties,680
digging,681
digit,682
digital,683
dilation,684
dine,685
direct,686
directions,687
directly,688
dis,689
disabling,690
disappear,691
disappointed,692
disappointing,693
disaster,694
discu,695
discussion,696
dishing,697
disruptions,698
distractions,699
distributing,700
distrust,701
ditch,702
djspparsedonedigitgparseddigitsb,703
dlparsedonedigitcrczy,704
dm,705
docs,706
document,707
does,708
doesn,709
doesnt,710
dohdenmg,711
doing,712
dollar,713
dollars,714
domain,715
don,716
dont,717
dontbemadatmebecause,718
door,719
dose,720
dostupan,721
dotnet,722
double,723
doubt,724
douchebags,725
doug_newton,726
download,727
downloaded,728
downloads,729
dparsedonedigit,730
dparsedonedigiteejhbt,731
dparsedonedigitvjlparsedonedigitsi,732
drain,733
drakes,734
drawlin,735
dream,736
dreams,737
drewbezanson,738
drink,739
driving,740
droid,741
drop,742
dropbox,743
dropped,744
drops,745
drying,746
dst,747
dubbe,748
duet,749
duff,750
duplicates,751
duplicating,752
durable,753
dvroegop,754
dxxklubp,755
dying,756
dynamics,757
ea_jorge,758
ear,759
earbuds,760
early,761
earned,762
ears,763
earth,764
easier,765
easter,766
easy,767
eating,768
ebook,769
eboyee,770
eclipsed,771
economics,772
ectparsedonedigitfyia,773
ed,774
edbott,775
edchat,776
edge,777
editing,778
editor,779
edswoxoc,780
education,781
effect,782
efffing,783
efficient,784
eggs,785
ejunkie,786
elcheicon,787
electability,788
electric,789
electricsoup,790
elegance,791
elop,792
em,793
email,794
emails,795
emphasis,796
employability,797
employee,798
employees,799
emptythreats,800
enabled,801
encourage,802
encrypt,803
end,804
endless,805
engadget,806
engages,807
engaging,808
engine,809
engt,810
enhance,811
enjoy,812
enrages,813
entering,814
enterprise,815
entertaining,816
entrepreneurs,817
eorosstx,818
eparsedonedigituhkaparsedonedigitf,819
eparsedonedigitumrmro,820
epicfail,821
epub,822
equal,823
equipment,824
equivalent,825
ericgreenspan,826
error,827
errors,828
especially,829
essential,830
esxiparsedonedigit,831
eta,832
ethiopian,833
europeansp,834
evangelist,835
event,836
events,837
everettcoldwell,838
everson,839
everybody,840
everytime,841
evil,842
evo,843
exam,844
excel,845
excellent,846
exception,847
exchange,848
exchg,849
excited,850
exciting,851
exclaims,852
exclusive,853
excuse,854
executive,855
executives,856
exercise,857
exhibit,858
exorcist,859
expanded,860
expected,861
expensive,862
expensivepaperweight,863
experience,864
explain,865
explaining,866
explains,867
explorer,868
express,869
extend,870
extent,871
extreme,872
extremists,873
eye,874
eyelash,875
ezjczltparsedonedigit,876
face,877
facebook,878
faceboook,879
facetime,880
facial,881
facialunlock,882
fact,883
faculty,884
fad,885
fade,886
fail,887
failed,888
failing,889
fails,890
fair,891
faith,892
fall,893
fallen,894
falling,895
family,896
fan,897
fancy,898
fantastic,899
fantasy,900
far,901
farreal,902
fast,903
faster,904
fat,905
fatfuckingchance,906
fault,907
favorite,908
fawkin,909
fb,910
fcucks,911
feature,912
featured,913
features,914
fed,915
federal,916
feeding,917
feel,918
feeling,919
fellows,920
fiction,921
figure,922
figured,923
figures,924
fiioapkt,925
file,926
files,927
finally,928
finance,929
financial,930
fine,931
finest,932
fingers,933
fingerscrossed,934
finish,935
finland,936
firefox,937
fishmama,938
fix,939
fixation,940
fixed,941
fixes,942
fixing,943
fixit,944
flashcard,945
flat,946
flawless,947
floridamike,948
fm,949
fmzfwgyv,950
focus,951
fold,952
folder,953
folders,954
folks,955
follow,956
followers,957
followlimitisgay,958
font,959
football,960
forbes,961
force,962
forced,963
forces,964
ford,965
forever,966
forget,967
forgettin,968
format,969
forstall,970
forsure,971
forth,972
forward,973
fotografia,974
foundation,975
fparsedonedigitaztiad,976
fparsedonedigithwanparsedonedigitq,977
frame,978
framework,979
fran_mac_,980
free,981
freedom,982
freeze,983
freezes,984
french,985
fresh,986
friendship,987
friggin,988
froze,989
frozen,990
fruits,991
frustrated,992
frustration,993
fsf,994
fu,995
fuck,996
fucked,997
fuckin,998
fucking,999
fuckingpissed,1000
fuckingshinez,1001
fucknwithfatty,1002
fucks,1003
fuh,1004
fun,1005
function,1006
functions,1007
funds,1008
funny,1009
funnyyyyyyy,1010
future,1011
futuristic,1012
fwm,1013
fxck,1014
fxhomehitfilm,1015
fytcyegparsedonedigit,1016
gah,1017
galaxy,1018
galaxynexus,1019
gallery,1020
game,1021
gamerchikparsedtwodigits,1022
gamers,1023
gaming,1024
ganna,1025
garbage,1026
garden,1027
garmin,1028
garr_williams,1029
gate,1030
gates,1031
gave,1032
gay,1033
gazmaz,1034
gb,1035
gcicpexparsedonedigit,1036
gcyparsedonedigitiphn,1037
gdcurry,1038
gear,1039
geek,1040
gem,1041
gen,1042
generator,1043
genius,1044
geniusbar,1045
geolocation,1046
german,1047
getglue,1048
gets,1049
gettin,1050
getting,1051
gf,1052
giant,1053
giants,1054
gigs,1055
girlfriend,1056
girlies,1057
gives,1058
givin,1059
giving,1060
gjiuparsedonedigitzzparsedonedigit,1061
glad,1062
glass,1063
global,1064
globe,1065
gm,1066
gmail,1067
gmsgxcqparsedonedigit,1068
gnu,1069
gnyparsedonedigitgparsedtwodigitsb,1070
god,1071
gods,1072
goes,1073
going,1074
gone,1075
gonna,1076
good,1077
goodbye,1078
goodriddance,1079
goof,1080
googland,1081
google,1082
googleapps,1083
googlemusic,1084
googleplus,1085
googleresearch,1086
googles,1087
got,1088
gotta,1089
gotten,1090
gov,1091
gparsedonedigitelvrvj,1092
gpo,1093
gr,1094
grab,1095
grandma,1096
grass,1097
gratis,1098
greader,1099
great,1100
greatly,1101
greatsuccess,1102
greedy,1103
greener,1104
greenwich,1105
gregulatorparsedonedigit,1106
gretcheneclark,1107
ground,1108
grrrr,1109
gruber,1110
gt,1111
gtqdvfxo,1112
guardian,1113
guardiantech,1114
guess,1115
gui,1116
guide,1117
guy,1118
guys,1119
gwokoceg,1120
ha,1121
hack,1122
hacked,1123
haha,1124
hahaha,1125
hailfireparsedthreedigits,1126
hairline,1127
half,1128
hand,1129
handle,1130
handled,1131
hands,1132
handsets,1133
handy,1134
hangouts,1135
happen,1136
happened,1137
happening,1138
happens,1139
happier,1140
happy,1141
happyplace,1142
hard,1143
harder,1144
hardware,1145
hashtags,1146
hasn,1147
hate,1148
hated,1149
hater,1150
haven,1151
havin,1152
having,1153
hay,1154
hbogo,1155
hckjxzparsedonedigitk,1156
hd,1157
hdmi,1158
headache,1159
headings,1160
headphones,1161
health,1162
hear,1163
heard,1164
heck,1165
hell,1166
hella,1167
hello,1168
help,1169
helped,1170
helps,1171
helsinki,1172
herahussain,1173
hero,1174
hey,1175
hfwpbmyparsedonedigit,1176
hide,1177
high,1178
highlight,1179
highscoolmemories,1180
hilarious,1181
hindi,1182
hire,1183
hiss,1184
history,1185
hit,1186
hjparsedonedigitqlocparsedonedigit,1187
hk,1188
hmmm,1189
hmmmm,1190
hobparsedtwodigitshbo,1191
hockey,1192
hold,1193
holodeck,1194
holodesk,1195
home,1196
honeka,1197
honest,1198
hong,1199
honored,1200
hooked,1201
hookup,1202
hope,1203
hopefully,1204
hoping,1205
horrible,1206
hosting,1207
hot,1208
hotel,1209
hotspots,1210
hour,1211
hourly,1212
hours,1213
houston,1214
hp,1215
hrs,1216
htc,1217
htmlparsedonedigit,1218
http,1219
https,1220
hubby,1221
huge,1222
huh,1223
humor,1224
humpt,1225
hungry,1226
hurry,1227
hurting,1228
hurts,1229
hut,1230
hypo,1231
hypocritical,1232
håper,1233
iamdkt,1234
iancollinsuk,1235
ibooks,1236
ical,1237
ice,1238
icecream,1239
icecreamsandwich,1240
icecreamsandwichfail,1241
icloud,1242
icon,1243
ics,1244
idea,1245
ideas,1246
idisk,1247
idk,1248
idontunderstand,1249
idtheftprotect,1250
ieparsedonedigit,1251
ifollowback,1252
igiveup,1253
ihateyourightnow,1254
ijparsedonedigitxydpparsedonedigit,1255
ijustine,1256
iknparsedthreedigitsze,1257
ill,1258
illustrating,1259
iloveyou,1260
im,1261
imac,1262
image,1263
images,1264
imessage,1265
imightbewrong,1266
imitation,1267
immediate,1268
immobile,1269
imo,1270
impact,1271
importance,1272
impossible,1273
impressed,1274
impressions,1275
impressive,1276
improve,1277
improvements,1278
inbox,1279
inbuilt,1280
include,1281
included,1282
includes,1283
incompatible,1284
inconvenienced,1285
incredible,1286
indian,1287
indians,1288
individual,1289
ineedtoupdate,1290
inept,1291
inferno,1292
infinite,1293
infinitywebinar,1294
info,1295
infofail,1296
inform,1297
information,1298
informationweek,1299
injunction,1300
inline,1301
innovation,1302
innovations,1303
innovators,1304
inparsedonedigit,1305
input,1306
insane,1307
insanely,1308
inside,1309
inspire,1310
inspired,1311
instagram,1312
install,1313
installed,1314
installing,1315
instant,1316
instantfollowback,1317
instantly,1318
instead,1319
integrated,1320
integrating,1321
intensifies,1322
interesing,1323
interesting,1324
interests,1325
interference,1326
internet,1327
interoperability,1328
interrupting,1329
introduce,1330
introduced,1331
introduces,1332
introducing,1333
introduction,1334
intuitive,1335
invented,1336
invention,1337
invested,1338
investigate,1339
investments,1340
io,1341
ioparsedonedigit,1342
ios,1343
iosparsedonedigit,1344
iosparsedonedigitatemydingo,1345
iosparsedonedigitdowngrade,1346
ip,1347
ipad,1348
ipadparsedonedigit,1349
ipads,1350
iparsedonedigits,1351
iparsedonedigitsparseddigits,1352
ipas,1353
iphone,1354
iphoneparsedonedigit,1355
iphoneparsedonedigits,1356
iphones,1357
iphoto,1358
ipod,1359
ipodparsedonedigits,1360
irvysan,1361
isb,1362
iscream,1363
iscsi,1364
isn,1365
isnt,1366
isorry,1367
issue,1368
issues,1369
italianjoya,1370
itdklrry,1371
item,1372
items,1373
itjustworks,1374
itnews_au,1375
itouch,1376
itouchparsedonedigit,1377
itstolate,1378
itunes,1379
itunesmatch,1380
itunesmusic,1381
iuyparsedonedigitdfparsedonedigits,1382
iyoparsedtwodigitsgvj,1383
izhparsedonedigitkaiu,1384
izoparsedonedigitwunt,1385
jackasses,1386
jailbroke,1387
jailbroken,1388
jaime_rivera,1389
jajajajajajaj,1390
jamaicanidler,1391
james,1392
janeparsedtwodigits,1393
japan,1394
jaroslovsky,1395
jatfvfpm,1396
jcawwrzq,1397
jdougyj,1398
jean,1399
jeffbullas,1400
jessecablek,1401
jewelzparsedfourdigits,1402
jhdtykcv,1403
jilive,1404
jimmcniel,1405
jimmlparsedonedigitrc,1406
jinnhvwz,1407
jizz,1408
jkotcrmb,1409
jkotcrmbstephen,1410
jldavid,1411
joannejacobs,1412
job,1413
jobs,1414
joebelfiore,1415
joelburns,1416
joelplane,1417
john,1418
join,1419
jolieesharmeda,1420
jolly,1421
jonparsedonedigitlakers,1422
jonsibley,1423
jowyang,1424
jparsedonedigitftieng,1425
jsqparsedtwodigitsnuq,1426
jumpin,1427
jure,1428
jus,1429
just,1430
justsaying,1431
jzmvbdnm,1432
kathrynyee,1433
keeping,1434
keeps,1435
keepthedesktop,1436
kenyaopendoor,1437
kevin,1438
key,1439
keyboard,1440
keyboards,1441
keys,1442
kgnrbvgp,1443
kick,1444
kicked,1445
kids,1446
kill,1447
killed,1448
killing,1449
kimaris,1450
kind,1451
kindahow,1452
kinect,1453
king,1454
kjkzparsedtwodigitszy,1455
kjparsedonedigitpjvkh,1456
klmgkhparsedonedigitv,1457
knew,1458
knizparsedthreedigitss,1459
know,1460
known,1461
knows,1462
kong,1463
kostatsetsekas,1464
krause,1465
kudos,1466
kursed,1467
kushkittyparsedthreedigits,1468
kvjsercj,1469
kxboqskj,1470
kyliemessier,1471
kymbersanden,1472
la,1473
lack,1474
lacks,1475
lag,1476
lager,1477
laggin,1478
laid,1479
lame,1480
land,1481
languages,1482
laptop,1483
laser,1484
lasted,1485
late,1486
later,1487
latest,1488
laughable,1489
launch,1490
launches,1491
launching,1492
laundering,1493
law,1494
layout,1495
lcmediahouse,1496
lcxaparsedonedigitqparseddigitsp,1497
ldparsedonedigitiparsedthreedigitsx,1498
lead,1499
leader,1500
leading,1501
lean,1502
leap,1503
learn,1504
learned,1505
learning,1506
leave,1507
leaves,1508
lecture,1509
left,1510
leiboaz,1511
leopard,1512
lesson,1513
let,1514
letdown,1515
letme,1516
lets,1517
letter,1518
letting,1519
lfparsedtwodigitszkuz,1520
lgfw,1521
licensing,1522
liciaparsedfourdigits,1523
lie,1524
lies,1525
life,1526
lifted,1527
light,1528
lightning,1529
like,1530
likes,1531
liking,1532
lil,1533
limit,1534
line,1535
link,1536
linkedin,1537
linux,1538
lion,1539
lisa_marieparsedfourdigits,1540
list,1541
listed,1542
listening,1543
listing,1544
literally,1545
little,1546
live,1547
lives,1548
living,1549
ljpgvzjt,1550
lk,1551
ll,1552
llslrxfm,1553
lmao,1554
lmfao,1555
loathe,1556
local,1557
locate,1558
located,1559
location,1560
lock,1561
logged,1562
logicparsedfourdigits,1563
login,1564
lol,1565
lolol,1566
lonely,1567
long,1568
longer,1569
look,1570
looking,1571
looks,1572
loop,1573
loose,1574
lord,1575
lords,1576
lose,1577
losing,1578
loss,1579
lost,1580
lot,1581
lots,1582
love,1583
loved,1584
lovee,1585
loveguru_b,1586
lovemyiphone,1587
loves,1588
lovin,1589
loving,1590
low,1591
loyalty,1592
lparsedonedigitmtmparsedonedigitig,1593
lparsedonedigitrsxparsedonedigityf,1594
lparsedtwodigitsowqre,1595
lt,1596
luck,1597
lucky_parsedonedigit_have,1598
lunch,1599
lvffdcel,1600
lwjpparsedonedigitgiu,1601
ly,1602
lync,1603
ma,1604
mac,1605
macbook,1606
mack,1607
macosc,1608
macworld,1609
mad,1610
madness,1611
magazine,1612
magic,1613
magical,1614
magically,1615
mail,1616
mainey_maine,1617
maintenance,1618
major,1619
majorfail,1620
make,1621
makemeproud,1622
makes,1623
making,1624
mall,1625
man,1626
manage,1627
managed,1628
management,1629
manager,1630
mandarin,1631
manelfmartinez,1632
mango,1633
manually,1634
maoqaplh,1635
map,1636
march,1637
marcoarment,1638
mariospr,1639
market,1640
marketing,1641
marks,1642
markstuver,1643
mashable,1644
match,1645
matthewgphy,1646
mattmarcheski,1647
mattyriesz,1648
maximize,1649
maybe,1650
mb,1651
mbl,1652
mcp,1653
mcwparsedtwodigitsvtg,1654
mczparsedonedigitrsdf,1655
mdqhbparsedonedigitxparseddigits,1656
mean,1657
means,1658
meant,1659
media,1660
medical,1661
meego,1662
meet,1663
meghankel,1664
melaleucathewellnesscompany,1665
melts,1666
member,1667
mention,1668
mentions,1669
mentor,1670
merchandising,1671
message,1672
messages,1673
messed,1674
messy,1675
metro,1676
microsof,1677
microsoft,1678
microsoftstores,1679
middle,1680
midnight,1681
migrating,1682
mikeferri,1683
miley,1684
mileycyrus,1685
millenia,1686
million,1687
millions,1688
mimecastsa,1689
min,1690
mind,1691
mins,1692
minute,1693
minutes,1694
miss,1695
missed,1696
missing,1697
mixedchikparsedtwodigits,1698
mixer,1699
mmm,1700
mmmm,1701
mnparsedonedigitnova,1702
mnparsedtwodigitsrparsedonedigitvc,1703
mo,1704
mobile,1705
mobileburn,1706
mobileme,1707
mode,1708
model,1709
models,1710
modify,1711
mohamedg,1712
mole,1713
mom,1714
moment,1715
monday,1716
monkeys,1717
monopolistic,1718
monopoly,1719
month,1720
months,1721
mood,1722
morning,1723
moron,1724
mothafuckin,1725
motorola,1726
mountainview,1727
mouse,1728
movies,1729
moving,1730
mp,1731
mr,1732
mr_lister,1733
mrgareth,1734
mrtonysays,1735
ms,1736
msft,1737
msftresearch,1738
msg,1739
msparsedtwodigits,1740
mspegypt,1741
mswxparsedonedigiteoparsedonedigit,1742
mtsparsedtwodigits,1743
mtuparsedonedigittgxparsedonedigit,1744
muchhh,1745
muh,1746
multiple,1747
music,1748
mute,1749
muuwbgpn,1750
mv,1751
nagoulparsedonedigit,1752
nam,1753
names,1754
nansen,1755
nationalgeographic,1756
native,1757
nav,1758
navigation,1759
naw,1760
nbparsedonedigitdhlsg,1761
ndk,1762
nearest,1763
nearly,1764
neat,1765
neck,1766
need,1767
needed,1768
needless,1769
neednewipadguide,1770
needparsedonedigits,1771
needs,1772
needsomethingtoread,1773
negative,1774
nejbye,1775
neowin,1776
nerdboner,1777
nerdiness,1778
nervous,1779
net,1780
netbooks,1781
network,1782
networkin,1783
new,1784
newest,1785
newfeature,1786
news,1787
newsstand,1788
newstand,1789
newton,1790
nexus,1791
nexusprime,1792
nfl,1793
nice,1794
nicholiparsedtwodigits,1795
nicki,1796
nickthefnicon,1797
nicolebanyots,1798
night,1799
nightmares,1800
nirvana,1801
nobueno,1802
nohelp,1803
nokia,1804
non,1805
nonstop,1806
noowwwwww,1807
nopatience,1808
noreply,1809
notbook,1810
notcool,1811
note,1812
notes,1813
notifications,1814
notified,1815
notifies,1816
notjustaboutthephone,1817
notresponding,1818
nov,1819
novatyler,1820
november,1821
nowicanspendevenmoretimeonmyphone,1822
nparsedonedigit,1823
nparsedonedigitcpuparsedonedigitvj,1824
nsaisrip,1825
nshlfiux,1826
number,1827
numbering,1828
numbers,1829
nuts,1830
ny,1831
nytimes,1832
nz,1833
obituaries,1834
obnoxious,1835
obsessions,1836
obviously,1837
occur,1838
oeurmtlx,1839
oezkparsedonedigitivparsedonedigit,1840
offer,1841
offering,1842
offers,1843
office,1844
official,1845
officially,1846
offing,1847
offline,1848
ofhparsedonedigitptag,1849
oh,1850
ohnonotagain,1851
ok,1852
okay,1853
old,1854
older,1855
omfg,1856
omg,1857
omnitouch,1858
omnomnomnom,1859
ones,1860
online,1861
oparsedonedigit,1862
open,1863
opening,1864
opens,1865
opensource,1866
operating,1867
operation,1868
opinions,1869
opportunities,1870
opportunity,1871
opposite,1872
option,1873
oranges,1874
orbital,1875
order,1876
ordered,1877
ordering,1878
organic,1879
orging,1880
original,1881
os,1882
osx,1883
ouch,1884
ouparsedonedigitkparsedtwodigitsge,1885
outdated,1886
outlaws,1887
outlook,1888
outside,1889
overall,1890
overbearing,1891
overcapacity,1892
owner,1893
owns,1894
oyszmjvi,1895
pad,1896
page,1897
pages,1898
paging_dr_a,1899
paid,1900
pain,1901
painful,1902
painfully,1903
palmface,1904
panasonic,1905
panorama,1906
panoramas,1907
panoramic,1908
pants,1909
parents,1910
parivar,1911
parker,1912
parseddigits,1913
parseddigitsk,1914
parseddigitsst,1915
parseddigitsyrs,1916
parsedfivedigits,1917
parsedfourdigits,1918
parsedfourdigitsp,1919
parsedonedigit,1920
parsedonedigitaja,1921
parsedonedigitb,1922
parsedonedigitbn,1923
parsedonedigitbwtparsedonedigitwparseddigitsz,1924
parsedonedigitchan,1925
parsedonedigitd,1926
parsedonedigitdays,1927
parsedonedigitexbnqjy,1928
parsedonedigitfhparsedonedigitdfgj,1929
parsedonedigitfmjxtmm,1930
parsedonedigitg,1931
parsedonedigitgjqvewn,1932
parsedonedigitgs,1933
parsedonedigitgupparsedonedigitacz,1934
parsedonedigithr,1935
parsedonedigithrs,1936
parsedonedigitijkparsedonedigitvbparsedonedigit,1937
parsedonedigitlike,1938
parsedonedigitnhuyfeh,1939
parsedonedigitoensvgparsedonedigit,1940
parsedonedigitokparsedonedigitxcow,1941
parsedonedigitphhparsedonedigitjbparsedonedigit,1942
parsedonedigitpm,1943
parsedonedigitqnlwftparsedonedigit,1944
parsedonedigitquyparsedonedigituou,1945
parsedonedigitrkochzr,1946
parsedonedigits,1947
parsedonedigitsesvwwm,1948
parsedonedigitsjnparsedonedigitbzz,1949
parsedonedigitss,1950
parsedonedigitst,1951
parsedonedigitsunni,1952
parsedonedigitth,1953
parsedonedigituhparsedonedigitaparseddigitsvt,1954
parsedonedigituxawkwf,1955
parsedonedigitvsaszyt,1956
parsedonedigitwvparsedtwodigitsoparsedonedigitv,1957
parsedonedigitx,1958
parsedonedigitxddxnparsedonedigitw,1959
parsedonedigityparseddigitsasparsedonedigitzz,1960
parsedonedigityvjmhnq,1961
parsedonedigitywvbeparsedonedigitz,1962
parsedonedigitzcqparsedtwodigitssf,1963
parsedthreedigits,1964
parsedtwodigits,1965
parsedtwodigitsbit,1966
parsedtwodigitsdyonxz,1967
parsedtwodigitsgajsgi,1968
parsedtwodigitsgb,1969
parsedtwodigitshrs,1970
parsedtwodigitsighgic,1971
parsedtwodigitsjwparsedonedigitzparseddigitsc,1972
parsedtwodigitsk,1973
parsedtwodigitsmb,1974
parsedtwodigitsoglika,1975
parsedtwodigitsohflyparsedonedigit,1976
parsedtwodigitstwitterpeopleiwouldliketomeet,1977
parsedtwodigitswkioxc,1978
parsedtwodigitsyrparsedtwodigitswl,1979
participated,1980
particularly,1981
parts,1982
party,1983
pass,1984
password,1985
past,1986
patent,1987
paulens,1988
paying,1989
paypal,1990
pc,1991
pcam,1992
pcmjon,1993
pdbfparsedonedigithparseddigitsf,1994
pdf,1995
pdfs,1996
people,1997
perfect,1998
perfectly,1999
perform,2000
performance,2001
perils,2002
period,2003
perpetual,2004
person,2005
personal,2006
personalization,2007
petty,2008
philipgrey,2009
philliprowntree,2010
philosophy,2011
phoenixswinger,2012
phone,2013
phonedog_aaron,2014
phones,2015
photo,2016
photograherseye,2017
photography,2018
photos,2019
photosharing,2020
phxguyparsedtwodigits,2021
pick,2022
picking,2023
picture,2024
pictures,2025
piece,2026
pile,2027
pinch,2028
pink,2029
pins,2030
piracy,2031
pissed,2032
pissing,2033
place,2034
plan,2035
planet,2036
planned,2037
plans,2038
plate,2039
platform,2040
platforms,2041
play,2042
playbooks,2043
played,2044
players,2045
playful,2046
playing,2047
playlist,2048
playlists,2049
pleased,2050
pleasure,2051
plot,2052
plparsedonedigitzeevh,2053
plus,2054
plusone,2055
plz,2056
pmphillips,2057
pocketlint,2058
podcast,2059
podcasts,2060
point,2061
points,2062
poised,2063
policies,2064
policy,2065
polish,2066
politely,2067
pondering,2068
poole,2069
pop,2070
popular,2071
ported,2072
portland,2073
post,2074
power,2075
powered,2076
powerpivot,2077
powerpoint,2078
pparsedonedigithwoparsedtwodigitsx,2079
pparsedonedigitj,2080
pparsedonedigitmparseddigitsxvaz,2081
ppl,2082
pqparsedtwodigitsgrra,2083
practices,2084
praying,2085
prctices,2086
pre,2087
preaching,2088
predictions,2089
prefer,2090
premise,2091
preorder,2092
preordered,2093
present,2094
presentation,2095
presentations,2096
presents,2097
press,2098
prettier,2099
pretty,2100
prettynesz,2101
preventing,2102
preview,2103
previous,2104
price,2105
priceless,2106
prime,2107
princessofchina,2108
printed,2109
privacy,2110
pro,2111
probably,2112
problem,2113
problems,2114
probono,2115
process,2116
processor,2117
procrastination,2118
produck,2119
product,2120
productive,2121
productivity,2122
products,2123
profile,2124
profiles,2125
profitering,2126
program,2127
programs,2128
progressed,2129
progressive,2130
project,2131
prolly,2132
promise,2133
promised,2134
promising,2135
promoallday,2136
propaganda,2137
proper,2138
properly,2139
props,2140
protect,2141
protection,2142
proves,2143
provided,2144
providing,2145
proving,2146
ps,2147
psfk,2148
psn,2149
psujgparsedonedigitpn,2150
public,2151
publicly,2152
puck,2153
pull,2154
pulling,2155
pulls,2156
purchase,2157
purchased,2158
purchasing,2159
purpose,2160
push,2161
putting,2162
pytparsedonedigitvkrp,2163
qa,2164
qamjparsedonedigitmer,2165
qbgxxjmm,2166
qlparsedonedigitzmppo,2167
qmwjtvnk,2168
qparsedonedigitkecparsedonedigit,2169
qparsedonedigitqleokz,2170
qpgxle,2171
qrcode,2172
quality,2173
question,2174
questions,2175
quick,2176
quickly,2177
quickresponse,2178
quite,2179
qvparsedonedigitmparseddigitsunparsedonedigit,2180
racketeering,2181
radlerc,2182
raining,2183
raise,2184
ralphbin,2185
ram,2186
ranch,2187
randomly,2188
rape,2189
rapidly,2190
rauerrtf,2191
razr,2192
rcve,2193
reaching,2194
reaction,2195
read,2196
readable,2197
reader,2198
readinglists,2199
ready,2200
real,2201
realestate,2202
realise,2203
realized,2204
really,2205
reappeared,2206
reason,2207
reasons,2208
reboot,2209
rebuild,2210
receipt,2211
recently,2212
recognition,2213
recover,2214
recovered,2215
recruit,2216
red,2217
reddeersteph,2218
redeemed,2219
redesigned,2220
redmond,2221
referring,2222
refurbed,2223
refurbished,2224
regent,2225
region,2226
register,2227
registered,2228
registration,2229
relaxing,2230
release,2231
released,2232
releasepartyguide,2233
releases,2234
relevance,2235
reliable,2236
remember,2237
remembering,2238
reminder,2239
reminders,2240
removable,2241
removing,2242
remparsedonedigit,2243
rename,2244
renatmin,2245
rep,2246
repair,2247
reparsedonedigitnlzgi,2248
replace,2249
replaced,2250
replacement,2251
replacing,2252
replied,2253
replies,2254
report,2255
reported,2256
reporting,2257
reports,2258
represent,2259
reprisk,2260
request,2261
required,2262
requires,2263
research,2264
resellars,2265
reservation,2266
reserve,2267
resolution,2268
resolve,2269
resources,2270
respect,2271
respectmaswagg,2272
response,2273
responsive,2274
rest,2275
restore,2276
restored,2277
restoring,2278
restrictions,2279
results,2280
retail,2281
retarded,2282
retire,2283
retrieve,2284
return,2285
returning,2286
retweet,2287
retweeted,2288
retweets,2289
revealed,2290
revenue,2291
reverting,2292
review,2293
revolution,2294
rgbhhuqp,2295
rice,2296
rich,2297
rickysinghpt,2298
ridic,2299
right,2300
rihanna,2301
rim,2302
ring,2303
ringing,2304
rip,2305
ripstevejobs,2306
rise,2307
riskiest,2308
rite,2309
ritenow,2310
rkparsedonedigitkphss,2311
rly,2312
rmiparsedonedigitosmi,2313
robert_terpstra,2314
roboto,2315
rogerweir,2316
roll,2317
ronakkataria,2318
roolz,2319
room,2320
rooting,2321
rossmistry,2322
rot,2323
round,2324
roycind,2325
rparsedonedigithnettu,2326
rparsedonedigitjujsbr,2327
rparsedonedigitrndnparsedonedigity,2328
rparsedtwodigits,2329
rt,2330
rtdzjqparsedonedigitu,2331
rts,2332
ruining,2333
rule,2334
run,2335
running,2336
runtime,2337
rva,2338
rww,2339
ryanbaldwin,2340
rygurl,2341
rzucfejc,2342
sad,2343
sadmac,2344
safari,2345
safe,2346
safety,2347
said,2348
sake,2349
sale,2350
sales,2351
salesforce,2352
salmonella,2353
samay,2354
samsumg,2355
samsung,2356
samsunggalaxynexus,2357
samsungmobileca,2358
samsungnexus,2359
sander_koers,2360
sandwich,2361
santa,2362
santorum,2363
saptha,2364
sarahhhhhparsedthreedigits,2365
save,2366
saved,2367
saw,2368
sawyerhartman,2369
say,2370
saying,2371
says,2372
sbs,2373
sbsparsedfourdigits,2374
scalability,2375
scares,2376
schaumburg,2377
schedule,2378
schestowitz,2379
school,2380
science,2381
science_alex,2382
scientist,2383
scores,2384
scottydparsedfivedigits,2385
scream,2386
screen,2387
screened,2388
screenshot,2389
screenshots,2390
screw,2391
screwed,2392
screwing,2393
scroll,2394
sdk,2395
sdparsedtwodigits,2396
seamlessly,2397
sean,2398
search,2399
searches,2400
searching,2401
sebascoulombe,2402
second,2403
section,2404
secure,2405
seeing,2406
seeks,2407
seemingly,2408
seen,2409
select,2410
self,2411
sell,2412
selling,2413
sells,2414
selop,2415
semilshah,2416
send,2417
sending,2418
sense,2419
sent,2420
sentences,2421
seo,2422
september,2423
sequence,2424
seriously,2425
served,2426
server,2427
servers,2428
serves,2429
service,2430
services,2431
sesamestreet,2432
session,2433
set,2434
setting,2435
settings,2436
sgn,2437
shagged,2438
shagorikah,2439
share,2440
sharepoint,2441
sharing,2442
shaydiddy,2443
shhhh,2444
shifted,2445
ship,2446
shipping,2447
shit,2448
shitt,2449
shlft,2450
shoot,2451
shoukd,2452
showed,2453
showin,2454
showing,2455
shows,2456
shutter,2457
sick,2458
sigh,2459
sign,2460
signal,2461
signs,2462
signups,2463
silly,2464
silverlight,2465
similar,2466
simple,2467
simplifies,2468
simply,2469
sinanaral,2470
singaporean,2471
singing,2472
siri,2473
siriwho,2474
sister,2475
sit,2476
site,2477
sites,2478
sith,2479
sitting,2480
skandalasgp,2481
skills,2482
skin,2483
skype,2484
slacking,2485
slashgear,2486
sledgehammer,2487
sleek,2488
sleep,2489
slick,2490
slide,2491
slightly,2492
slipping,2493
sloppy,2494
slow,2495
slower,2496
slows,2497
sm,2498
smalfunctioningagain,2499
small,2500
smallvictory,2501
smart,2502
smarterphone,2503
smartest,2504
smartkeitai,2505
smartphone,2506
smashed,2507
smm,2508
smooth,2509
sms,2510
snatched,2511
snippy,2512
snlparsedtwodigitsemparsedonedigit,2513
snow,2514
socia,2515
social,2516
socialmedia,2517
software,2518
solution,2519
solutions,2520
solve,2521
someparsedonedigit,2522
song,2523
songs,2524
sony,2525
soon,2526
sooo,2527
soooo,2528
soparsedonedigitwparseddigitsspn,2529
sorri,2530
sorry,2531
sorude,2532
sought,2533
sound,2534
soundmore,2535
sounds,2536
source,2537
sources,2538
space,2539
spacecanard,2540
spanish,2541
sparsedonedigit,2542
speakers,2543
speaking,2544
speech,2545
speed,2546
spell,2547
spend,2548
spoke,2549
spongebob,2550
sponsors,2551
spontaneously,2552
sports,2553
spparsedfourdigits,2554
sprint,2555
spying,2556
sql,2557
sqlserver,2558
sqneparsedonedigitilb,2559
srbmparsedonedigitvparseddigitsk,2560
st,2561
stable,2562
stage,2563
stalkerismo,2564
stalking,2565
stand,2566
standards,2567
star,2568
start,2569
started,2570
starting,2571
starts,2572
states,2573
station,2574
steeloparsedthreedigits,2575
steffen,2576
step,2577
steve,2578
steveballmer,2579
stevejobs,2580
stewart,2581
stick,2582
stickies,2583
sticking,2584
sticky,2585
stink,2586
stolen,2587
stop,2588
storage,2589
store,2590
stores,2591
story,2592
straight,2593
strangest,2594
strategy,2595
stream,2596
street,2597
stressed,2598
stuck,2599
students,2600
studies,2601
study,2602
studying,2603
studyingwhilstmotivated,2604
stuff,2605
stumped,2606
stupid,2607
style,2608
stylus,2609
subscriptions,2610
subtweeting,2611
suburbs,2612
succeed,2613
succesfully,2614
success,2615
sucha,2616
suck,2617
suckers,2618
sucking,2619
sucks,2620
sudden,2621
suddenly,2622
suffering,2623
sugar,2624
suggested,2625
summer,2626
sums,2627
sun,2628
sunday,2629
superb,2630
superior,2631
support,2632
supports,2633
sure,2634
surely,2635
surface,2636
surprised,2637
surprises,2638
survey,2639
surviving,2640
susanfelicity,2641
suspecting,2642
sux,2643
swaag,2644
swallow,2645
sware,2646
sweatshops,2647
sweet,2648
switch,2649
switched,2650
switching,2651
swype,2652
sydney,2653
sym,2654
sync,2655
synching,2656
syncing,2657
syncronize,2658
syncs,2659
sysadmin,2660
systems,2661
tablet,2662
tablets,2663
tah_med,2664
taken,2665
takes,2666
taking,2667
talk,2668
talking,2669
target,2670
taste,2671
taught,2672
tcn,2673
tcot,2674
team,2675
teamed,2676
teamo,2677
teams,2678
tear,2679
teasing,2680
tech,2681
techedafrica,2682
techfest,2683
techflash,2684
techie,2685
techietroubles,2686
technical,2687
technological,2688
technologies,2689
technology,2690
techsupport,2691
techy,2692
teehee,2693
telegraph,2694
tell,2695
telling,2696
tellme,2697
tells,2698
terminal,2699
terms,2700
terrible,2701
test,2702
testing,2703
tests,2704
text,2705
texts,2706
tha,2707
thank,2708
thankful,2709
thankfully,2710
thanks,2711
thanksfornothing,2712
thankyou,2713
thats,2714
thattechguyparsedtwodigits,2715
theft,2716
thegadgetshow,2717
thelittleappkid,2718
themarketaire,2719
theme,2720
themes,2721
thenonsensepersists,2722
theresamarosy,2723
thievingbastards,2724
thing,2725
things,2726
thingsweallhate,2727
thingswealllove,2728
think,2729
thinking,2730
thinks,2731
tho,2732
thomas,2733
thorn,2734
thought,2735
thoughtful,2736
thoughts,2737
threat,2738
threaten,2739
throat,2740
throw,2741
throws,2742
thumbs,2743
thunderbird,2744
thunderbolt,2745
thursday,2746
thx,2747
thxx,2748
tiger,2749
til,2750
time,2751
timed,2752
timeline,2753
times,2754
timewarnercable,2755
timing,2756
tint,2757
tipped,2758
tired,2759
tita_ramos,2760
tl,2761
tmdfqreparsedonedigit,2762
tmw,2763
today,2764
told,2765
toledo,2766
tomcolontonio,2767
tomkeene,2768
tommylee,2769
tomorrow,2770
tone,2771
tones,2772
tonight,2773
tonite,2774
took,2775
tool,2776
tools,2777
toparsedonedigitne,2778
tossing,2779
total,2780
totally,2781
touch,2782
touchscreen,2783
tour,2784
toy,2785
toys,2786
tragic,2787
training,2788
transferred,2789
trash,2790
treyhobparsedtwodigits,2791
tri,2792
trial,2793
tried,2794
trip,2795
triple,2796
triplingo,2797
trisha_ps,2798
trivia,2799
trojan,2800
tron,2801
tronman,2802
trouble,2803
truly,2804
try,2805
trying,2806
tsql,2807
tt,2808
tuesday,2809
tunes,2810
turn,2811
turned,2812
turning,2813
turns,2814
tv,2815
twaeudbp,2816
twalve,2817
tweet,2818
tweeted,2819
tweeter,2820
tweets,2821
twitter,2822
twitterapp,2823
twitterer,2824
twitterless,2825
twitters,2826
twitterswag,2827
tx,2828
txts,2829
ty,2830
type,2831
typing,2832
uaqrxtnk,2833
uber,2834
uch,2835
ufparsedonedigittakparsedonedigitf,2836
ugh,2837
ughh,2838
ugly,2839
uh,2840
ui,2841
uiparsedonedigitadparsedonedigitfj,2842
uiparsedonedigitloezx,2843
ukwokbgd,2844
ultimate,2845
um,2846
umber,2847
umd,2848
umparsedthreedigitsjfh,2849
unable,2850
unbelievable,2851
unborn,2852
undergo,2853
underrated,2854
understand,2855
underwhelming,2856
undo,2857
unexpected,2858
unhappy,2859
unified,2860
units,2861
university,2862
unless,2863
unlike,2864
unlock,2865
unlocking,2866
unproductive,2867
unquality,2868
unreal,2869
unveil,2870
unveiled,2871
unwanted,2872
upcoming,2873
update,2874
updated,2875
updater,2876
updates,2877
updating,2878
upgrade,2879
upgraded,2880
upgrades,2881
upgrading,2882
uphill,2883
ups,2884
upset,2885
ur,2886
url,2887
urxjixce,2888
usage,2889
use,2890
used,2891
useful,2892
useless,2893
user,2894
users,2895
uses,2896
using,2897
usual,2898
utilities,2899
utter,2900
utterly,2901
uweyalkb,2902
ux,2903
validated,2904
values,2905
vancouver,2906
vanillalatte_xd,2907
vattam,2908
ve,2909
vegas,2910
venturebeat,2911
verizon,2912
verizonwireless,2913
vers,2914
version,2915
vibrate,2916
victim,2917
victims,2918
video,2919
videos,2920
views,2921
vinodrad,2922
viparsedonedigithtjrr,2923
virtual,2924
visigoth,2925
visual,2926
vjparsedonedigitjpktm,2927
vjrssfyn,2928
vkvparsedonedigittbcj,2929
vmware,2930
voice,2931
voicecontrol,2932
voices,2933
volume,2934
voparsedthreedigitsmrz,2935
vpqoyxwa,2936
vs,2937
vslive,2938
vsphereparsedonedigit,2939
vtybqiparsedtwodigits,2940
vulnerability,2941
vvparsedonedigitltkyp,2942
vwciovparsedonedigitf,2943
waaaaay,2944
wack,2945
waddya,2946
wait,2947
waited,2948
waiting,2949
walk,2950
wallet,2951
wallpaper,2952
wanna,2953
want,2954
wanted,2955
wanting,2956
wants,2957
war,2958
warm,2959
warning,2960
warranty,2961
wars,2962
wash,2963
wasn,2964
wasted,2965
wasting,2966
watch,2967
watched,2968
watching,2969
water,2970
wave,2971
way,2972
waynp,2973
web,2974
webcamps,2975
webgl,2976
webpage,2977
webpronews,2978
website,2979
wedpbcpx,2980
week,2981
weekend,2982
weirdhttp,2983
weirdo,2984
welcome,2985
welcomeskype,2986
wellisparsedtwodigits,2987
went,2988
west,2989
wfrzkysn,2990
whaddupwitdat,2991
whale,2992
whatchu,2993
whhyy,2994
white,2995
whoops,2996
whore,2997
whores,2998
whoring,2999
widget,3000
widgets,3001
wife,3002
wifi,3003
wififofum,3004
william,3005
wilth,3006
win,3007
windows,3008
windowsparsedonedigit,3009
windowsparsedonedigitmobile,3010
windowsphone,3011
windowsphoneparsedonedigit,3012
winning,3013
winparsedonedigit,3014
winrt,3015
wiped,3016
wireless,3017
wisconsin_mommy,3018
wise,3019
wish,3020
wit,3021
witchcraft,3022
wo,3023
won,3024
wonder,3025
wondering,3026
wonky,3027
wont,3028
wooden,3029
woods,3030
word,3031
words,3032
work,3033
worked,3034
workers,3035
workflow,3036
workflows,3037
working,3038
works,3039
workshop,3040
workstation,3041
world,3042
worldwide,3043
worried,3044
worries,3045
worse,3046
worst,3047
worstupdateever,3048
worth,3049
wouldn,3050
wow,3051
wowww,3052
wparsedonedigitocrbpm,3053
wparsedthreedigitsbfsparsedonedigit,3054
wpdesignteam,3055
wpparsedonedigit,3056
wps,3057
wpt,3058
wristpad,3059
write,3060
writing,3061
wrong,3062
wtf,3063
wth,3064
wtjparsedonedigitogdo,3065
wuhu,3066
wuparsedonedigitbfiparsedonedigith,3067
wuppy,3068
wvzprbci,3069
wxbcparsedonedigituuw,3070
xbl,3071
xbox,3072
xboxlive,3073
xcuntnuggetx,3074
xero,3075
xghoevparsedonedigitk,3076
xliparsedonedigitbrparsedtwodigits,3077
xolrauey,3078
xparsedonedigitqzexparsedonedigitf,3079
xparsedonedigitywfnsv,3080
xsjgifop,3081
xtzmpsmt,3082
xvparsedonedigitqparseddigitsgfi,3083
xx,3084
ya,3085
yahoo,3086
yapping,3087
yashasjoshi,3088
yea,3089
yeah,3090
yeahh,3091
year,3092
years,3093
yeh,3094
yellow,3095
yellowgate,3096
yep,3097
yes,3098
yessss,3099
yesterday,3100
ykchtuparsedonedigith,3101
ykqipparsedonedigitnk,3102
yo,3103
yootfktm,3104
yourdaysarenumbered,3105
youtube,3106
youuuuuuuuuuuu,3107
yparsedonedigit,3108
yr,3109
yrckqeis,3110
yrs,3111
yummy,3112
yumyumyum,3113
yup,3114
yuvalz,3115
yyparsedonedigithnrbq,3116
zacksiezmagraff,3117
zappos,3118
zbltzparsedonedigitmw,3119
zero,3120
zixfaparsedtwodigitsn,3121
zndpparsedonedigitvrparsedonedigit,3122
zombiebomber,3123
zoom,3124
zparsedonedigitbbjparsedonedigitxu,3125
zparsedonedigitidoniparsedonedigit,3126
zrqoewxi,3127
zune,3128
zxparsedonedigitpwparsedonedigitgt,3129
zzcparsedonedigitbeparsedonedigitw,3130
zzkparsedonedigitftii,3131
你好,3132
