_yoyo,0
absolutely,1
addicted,2
admit,3
ago,4
ah,5
ahem,6
ahisme,7
aid,8
air,9
airport,10
ako,11
alicia,12
alizegel,13
amazing,14
amen,15
america,16
amieyacula,17
amo,18
ampel,19
amwriting,20
amypookers,21
andrea,22
angry,23
antwun,24
anya,25
anymore,26
aparsedthreedigitsr,27
app,28
aren,29
argh,30
arrghh,31
arrivals,32
arrived,33
ashamed,34
ashbashparsedfourdigits,35
asher_ashy,36
ask,37
asleep,38
assumed,39
atlantic,40
atlanticgolf,41
att,42
aubreyoday,43
august,44
avaaz,45
away,46
awesome,47
awesomeee,48
aww,49
awww,50
awwwww,51
babies,52
baby,53
bad,54
badmood,55
bahahaha,56
band,57
bank,58
banned,59
baq,60
baseball,61
bastards,62
bat,63
bbparsedtwodigits,64
bbq,65
bcause,66
bcceq,67
beach,68
bear,69
bearly,70
beatrice,71
beautiful,72
beautifull,73
bed,74
bedtime,75
begins,76
best,77
better,78
bettis,79
bf,80
big,81
bike,82
biked,83
billy,84
birthday,85
bit,86
blender,87
blog,88
blogged,89
blogspot,90
blue,91
bluetree,92
blueturnsred,93
boa,94
board,95
bobby_doreparsedtwodigits,96
bom,97
book,98
booked,99
books,100
booty,101
born,102
bought,103
bout,104
bowt,105
boyfriend,106
bpp,107
bracelet,108
bras,109
brazil,110
break,111
breath,112
bringsdogtowork,113
british,114
britney,115
bro,116
brooklyn,117
brother,118
budget,119
bull,120
bums,121
bus,122
busy,123
butt,124
buttercupd,125
bwahahaha,126
calevans,127
cancelled,128
cancun,129
car,130
card,131
carolinamnz,132
caroons,133
case,134
cast,135
cause,136
cedar,137
celeb,138
celebrate,139
cell,140
ceremony,141
ch,142
chadwickhjones,143
chair,144
chance,145
change,146
changing,147
channel,148
chariberri,149
charming,150
chasing,151
chest,152
chicken,153
children,154
chilling,155
chloe,156
christmas,157
chubby,158
chug,159
church,160
cinderella,161
cinemar,162
city,163
ckparsedonedigitei,164
class,165
classy,166
clean,167
clear,168
clone,169
closed,170
closet,171
cockpit,172
code,173
coercion,174
coffee,175
color,176
com,177
come,178
coming,179
comment,180
common,181
communicate,182
community,183
commute,184
compared,185
concentrate,186
confessed,187
congrats,188
connected,189
consecutive,190
conservatives,191
considering,192
consist,193
contains,194
cook,195
cool,196
cools,197
cooool,198
corgreen,199
cos,200
costume,201
courtneyparsedthreedigits,202
cparsedonedigitjparsedtwodigits,203
cpjparsedonedigit,204
cptac,205
crazy,206
creative,207
crisp,208
crossed,209
crowd,210
crying,211
crystalroseparsedtwodigits,212
cuddle,213
currently,214
custody,215
cuwarrior,216
cycle,217
cycling,218
da,219
daaay,220
dad,221
damn,222
danheparsedtwodigits,223
daniel,224
daparsedtwodigits,225
dark,226
darker,227
day,228
days,229
dc,230
ddlovato,231
death,232
debbie,233
debbiefletcher,234
deefamouss,235
deep,236
deepndistant,237
definitely,238
dem,239
den,240
dentist,241
departures,242
desert,243
detailing,244
dey,245
dia,246
diamondlarry,247
did,248
didn,249
didnt,250
died,251
diet,252
dinner,253
dirtinmyi,254
dis,255
disorder,256
display,257
dnt,258
does,259
doesn,260
doing,261
don,262
dongwayne,263
dont,264
door,265
dorry,266
draw,267
dreaamara,268
dreams,269
drewfromtv,270
drinking,271
driver,272
dropbox,273
dropped,274
drown,275
drunk,276
dude,277
dunno,278
dwarf,279
dyee,280
eagles,281
earlier,282
earparsedtwodigits,283
eat,284
edits,285
emailed,286
emmalbishop,287
end,288
endless,289
energy,290
enjoyed,291
enjoying,292
entered,293
erm,294
erynmichael,295
escola,296
essteeyou,297
eu,298
excited,299
expect,300
experienced,301
expert,302
extremely,303
eye,304
eyepatch,305
eyeranprotestr,306
facebook,307
facility,308
fact,309
fair,310
fam,311
fama,312
family,313
famous,314
fan,315
fank,316
fans,317
fantastic,318
fanyjjang,319
far,320
faraday,321
fast,322
favorite,323
favorr,324
favs,325
february,326
feel,327
feeling,328
felt,329
film,330
films,331
final,332
financial,333
fine,334
fingers,335
finished,336
fishies,337
fiveparsedtwodigitsdesign,338
fix,339
flickrs,340
flu,341
fml,342
folder,343
followers,344
followfriday,345
food,346
forget,347
forth,348
forward,349
fparsedonedigitaparseddigitsyh,350
fr,351
frekin,352
fresh,353
friday,354
friends,355
fuck,356
fuckers,357
fucking,358
fuckyeahhappy,359
fun,360
funkyheff,361
funny,362
funy,363
gabor,364
game,365
games,366
gay,367
gems,368
gemstars,369
germany,370
gets,371
getting,372
gettting,373
gift,374
giparsedonedigitin,375
girl,376
glad,377
glee,378
goal,379
god,380
going,381
golf,382
gon,383
gone,384
gonna,385
good,386
goodnight,387
gop,388
gosh,389
gossip,390
got,391
gotta,392
grab,393
gramercy,394
grammar,395
grandma,396
great,397
greet,398
greetings,399
groupparsedonedigitcrew,400
growing,401
grr,402
grub,403
guess,404
guidoparsedtwodigits,405
guilty,406
guitar,407
guy,408
guys,409
gve,410
ha,411
haha,412
hahah,413
hahaha,414
hain,415
hair,416
hairbrush,417
halloween,418
hamburg,419
hands,420
hanging,421
happen,422
happy,423
happyhwife,424
happyprettyyou,425
hard,426
hardcorelomeli,427
harr,428
harry,429
hat,430
hate,431
hates,432
haven,433
having,434
head,435
headache,436
hear,437
heard,438
heavy,439
heck,440
hehe,441
hello,442
help,443
helpless,444
hey,445
heycassadee,446
hi,447
higgins,448
hmm,449
holds,450
holidays,451
home,452
homecoming,453
homes,454
homework,455
honey,456
hook,457
hope,458
hot,459
hours,460
house,461
http,462
hub,463
hug,464
huge,465
huhuu,466
human,467
humbracht,468
hungry,469
hurting,470
hurts,471
iamthemob,472
idk,473
ignore,474
ignoring,475
il,476
ill,477
illscarlett,478
im,479
imagine,480
imisss,481
impression,482
incredible,483
indoor,484
indraputra,485
inglorious,486
interesting,487
iowacodecamp,488
iphone,489
iranelection,490
iraq,491
isn,492
isotopp,493
issues,494
jackieloi,495
jackson,496
jagzparsedthreedigits,497
jake_diparsedthreedigits,498
jakieeeparsedtwodigits,499
janemcmurry,500
jasonmparsedthreedigits,501
jaxsk,502
jeaninedeal,503
jennihogan,504
jessybr,505
jesus,506
jkgirlalltheway,507
joejonasloverxo,508
johnny,509
joining,510
jordanknight,511
journey,512
jparsedonedigitzi,513
just,514
karinkydink,515
katecooperowen,516
kc,517
kebab,518
keema,519
kentruff,520
keyboard,521
kinakabahan,522
kind,523
kinda,524
kindasleepy,525
knees,526
knew,527
know,528
knows,529
knw,530
kuuipoparsedfourdigits,531
la,532
lack,533
lady,534
lagi,535
lalasarah,536
laptop,537
lata,538
later,539
learn,540
lease,541
leave,542
leeconti,543
left,544
leg,545
legs,546
lesliellyn,547
let,548
lets,549
librivoxateers,550
life,551
lifted,552
like,553
liked,554
lil,555
lilgreenfingers,556
lisa,557
list,558
listen,559
little,560
live,561
lives,562
ll,563
lloyddavis,564
lnk,565
lol,566
lols,567
long,568
loo,569
look,570
looking,571
looks,572
lookyparsedonedigit,573
lorraine,574
lose,575
lost,576
lot,577
lots,578
love,579
loved,580
lovely,581
loves,582
loveu,583
lparsedonedigitr,584
lt,585
lub,586
lucy,587
luk,588
lunchenda,589
lunches,590
luv,591
ly,592
lying,593
lyphpcp,594
ma,595
mad,596
maggagyal,597
make,598
makemeupparsedtwodigits,599
makes,600
man,601
march,602
marcoshaw,603
marketable,604
markkayeshow,605
marleyterrier,606
marly,607
marvetbritto,608
mary,609
massive,610
matter,611
maybe,612
mbp,613
mean,614
meaning,615
meet,616
melsieparsedtwodigits,617
memory,618
michael,619
michaelmagical,620
michigan,621
midnight,622
millajovovich,623
mind,624
minute,625
minutes,626
miss,627
missing,628
missy,629
mister,630
mitchelmusso,631
mmm,632
moderator,633
moegreeb,634
momma,635
money,636
months,637
monthsary,638
montreat,639
morning,640
morriscat,641
mother,642
motorcycle,643
mouth,644
movies,645
ms,646
mulator,647
muscle,648
music,649
musicgirlparsedthreedigits,650
mx,651
myloc,652
myprivatemuse,653
myselfffffff,654
myspace,655
na,656
named,657
natalie,658
natassiachloe,659
natta,660
nbc,661
nd,662
need,663
new,664
news,665
neww,666
nic_a_,667
nice,668
night,669
nightly,670
nise,671
nkotb,672
nl,673
nongling,674
note,675
nothin,676
noticed,677
nparsedtwodigitsmz,678
number,679
obama,680
occ,681
offers,682
office,683
officially,684
oh,685
ok,686
okay,687
old,688
olds,689
omegle,690
omg,691
ones,692
oowarai,693
ope,694
open,695
opened,696
opinion,697
opinions,698
orange,699
ordered,700
orinoco,701
oritsuru,702
orphan,703
orphesteude,704
osang,705
osangmeister,706
oth,707
outfits,708
outlet,709
outside,710
outta,711
owt,712
owwwieee,713
oz,714
pace,715
packed,716
packing,717
page,718
pal,719
paper,720
parents,721
parseddigitsth,722
parsedfivedigits,723
parsedfourdigits,724
parsedonedigit,725
parsedonedigitap,726
parsedonedigitbparseddigitszm,727
parsedonedigitdparseddigitsoparsedtwodigits,728
parsedonedigitgmicrocell,729
parsedonedigitgparseddigitshq,730
parsedonedigithgvt,731
parsedonedigitmorrow,732
parsedonedigitpopetorn,733
parsedonedigitwxparsedonedigitp,734
parsedthreedigits,735
parsedtime,736
parsedtwodigits,737
parsedtwodigitsbparsedthreedigits,738
parsedtwodigitscdnparsedonedigit,739
parsedtwodigitsmparseddigits,740
parsedtwodigitswparsedonedigitcparseddigits,741
parsedtwodigitswxcn,742
parts,743
passed,744
passes,745
past,746
people,747
perfect,748
periodd,749
person,750
perzonally,751
pex,752
pfshhh,753
phd,754
phone,755
photo,756
photojazz,757
photos,758
pic,759
picked,760
picking,761
pics,762
picturee,763
pictures,764
piece,765
pigments,766
pink,767
pirate,768
pita,769
pizza,770
place,771
plans,772
play,773
playing,774
plurk,775
podcast,776
poetryinsepia,777
point,778
popular,779
post,780
poster,781
potter,782
pr,783
pr_things,784
present,785
pretty,786
pro,787
problems,788
processing,789
professor,790
proposal,791
proud,792
psparsedonedigit,793
pumpkin,794
punching,795
pupp,796
purple,797
pusuit,798
qoo,799
qtt,800
qual,801
queenmotherblog,802
quick,803
quit,804
quiz,805
radioblogger,806
rain,807
rajeshlalwani,808
raspberries,809
rawr,810
read,811
reading,812
real,813
realbrookewhite,814
realized,815
really,816
recommend,817
record,818
rednecks,819
reduction,820
reference,821
registration,822
reikiawakening,823
related,824
relaxing,825
reminded,826
reported,827
republicans,828
resolution,829
rest,830
restaurant,831
restore,832
returnn,833
rid,834
riding,835
right,836
rings,837
ripped,838
ririardana,839
risk,840
roars,841
roasted,842
robertgirandola,843
rock,844
rt,845
rubs,846
rubyurl,847
run,848
s_lesley,849
sad,850
sadly,851
said,852
salesquotes,853
sand,854
sarah,855
saramadison,856
say,857
sayin,858
says,859
scalp,860
scared,861
scenery,862
school,863
scores,864
sea,865
seat,866
second,867
seen,868
sell,869
seriously,870
settled,871
shaking,872
sharing,873
shinny,874
shirt,875
shit,876
shitttt,877
shitty,878
shoots,879
shot,880
shoulders,881
shower,882
showing,883
shows,884
si,885
sick,886
signed,887
signs,888
simcards,889
sing,890
sis,891
sister,892
sit,893
sitting,894
skillet,895
skills,896
skype,897
sleep,898
sleeping,899
slept,900
slightly,901
sm,902
smart,903
smh,904
smile,905
smiths,906
smojica,907
smoking,908
snapped,909
snbz,910
sniffling,911
snsd,912
soaking,913
soccer,914
social,915
sofa,916
solobassteve,917
someday,918
somethin,919
songs,920
soon,921
sooo,922
soooo,923
sooooo,924
sore,925
sorry,926
sort,927
sounds,928
soundtrack,929
soup,930
space,931
spam,932
special,933
specialist,934
spell,935
spending,936
spent,937
splinter,938
sports,939
stalker,940
start,941
started,942
state,943
stay,944
stimulates,945
stop,946
story,947
strawberries,948
street,949
stress,950
strokes,951
strong,952
stuck,953
stuff,954
stupidd,955
stylish,956
sua,957
sumbody,958
summer,959
sumwhr,960
sunburned,961
sunday,962
sunny,963
sunnysiide,964
sunshine,965
super,966
superglrl,967
supports,968
surprisingly,969
surraoundings,970
sweet,971
sweetener,972
swimming,973
swine,974
switched,975
tackle,976
tail,977
taiwanfloods,978
taking,979
talented,980
talk,981
talkin,982
talking,983
tamsterparsedfourdigits,984
tass,985
taylor,986
tcot,987
te,988
teacher,989
team,990
technology,991
techs,992
telling,993
tep,994
terrible,995
tested,996
testing,997
text,998
texttt,999
thank,1000
thanks,1001
thanksgiving,1002
thankss,1003
thats,1004
thebeadgirl,1005
thee,1006
therezzza,1007
thesethreecities,1008
things,1009
think,1010
thinks,1011
thought,1012
throwing,1013
thx,1014
til,1015
till,1016
time,1017
times,1018
tinyurl,1019
tired,1020
today,1021
tofu,1022
togo,1023
toh,1024
told,1025
tom,1026
tommcfly,1027
tomorrow,1028
tonight,1029
tooday,1030
took,1031
tooth,1032
tough,1033
tour,1034
town,1035
tqjonesparsedtwodigits,1036
trainwreck,1037
transferred,1038
tried,1039
triggered,1040
trip,1041
trips,1042
true,1043
tuck,1044
tumblr,1045
tummy,1046
tuna,1047
turn,1048
turns,1049
tweamburke,1050
tweet,1051
twitgoo,1052
twitpic,1053
twitter,1054
twurl,1055
ugh,1056
ughh,1057
uk,1058
unbelievable,1059
underpaid,1060
understand,1061
unfortunately,1062
update,1063
updating,1064
ur,1065
usa,1066
use,1067
used,1068
uselessly,1069
users,1070
using,1071
usnoozin,1072
usually,1073
values,1074
vbrissaparsedtwodigits,1075
ve,1076
vickiheyworth,1077
vid,1078
video,1079
vinilereu,1080
vino,1081
violetposy,1082
voorhout,1083
vt,1084
wah,1085
wait,1086
waiting,1087
wak,1088
walkin,1089
walls,1090
wanna,1091
want,1092
wanted,1093
war,1094
wark,1095
warning,1096
wasn,1097
watch,1098
watching,1099
way,1100
wearing,1101
wedding,1102
weddings,1103
week,1104
weekend,1105
weekends,1106
weight,1107
wen,1108
went,1109
weren,1110
westparsedtwodigits,1111
wet,1112
whee,1113
white,1114
whitecoat,1115
whore,1116
whos,1117
whre,1118
wifi,1119
wig,1120
wil,1121
wild,1122
willsketchforcake,1123
win,1124
wind,1125
windmill,1126
window,1127
windows,1128
winnipeg,1129
wireless,1130
wisdom,1131
wish,1132
wishing,1133
woh,1134
woke,1135
woman,1136
won,1137
wonderful,1138
woooohhhoooo,1139
woooooooot,1140
woooot,1141
wore,1142
work,1143
working,1144
workk,1145
world,1146
worth,1147
wow,1148
wrap,1149
wtf,1150
wtff,1151
wuzzup,1152
www,1153
xkathyxtarax,1154
xoxo,1155
xspparsedonedigitrhparsedtwodigitsd,1156
xueparsedonedigittntparsedonedigitq,1157
xxxx,1158
ya,1159
yarn,1160
yay,1161
yea,1162
yeah,1163
yeahh,1164
year,1165
years,1166
yec,1167
yellowduckx,1168
yep,1169
yes,1170
yeshh,1171
ykoparsedonedigitdzg,1172
yoghurt,1173
yoo,1174
yu,1175
yum,1176
yup,1177
yuppp,1178
zbussey,1179
ze,1180
zen,1181
zgtdz,1182
zsa,1183
õddd,1184
