_com,0
aa,1
aaages,2
abbey,3
aber,4
abilities,5
abingdon,6
able,7
abort,8
aborted,9
about,10
abouts,11
above,12
abroad,13
absence,14
absolute,15
absolutely,16
absolutley,17
abstaining,18
abysmal,19
ac,20
academy,21
accepted,22
access,23
accessories,24
accident,25
accobatic,26
according,27
account,28
accountants,29
accumulated,30
ache,31
acheivable,32
aches,33
achievable,34
achieve,35
achievement,36
achievemnets,37
achiever,38
achieving,39
achievment,40
achilles,41
aching,42
achive,43
ackworth,44
across,45
act,46
acted,47
action,48
actual,49
actually,50
actualy,51
acute,52
adam,53
adapting,54
add,55
adding,56
addition,57
address,58
adds,59
adhering,60
adidas,61
adizero,62
adjust,63
adjusting,64
admin,65
admire,66
admit,67
admitted,68
adn,69
adolescents,70
adrift,71
advance,72
advantage,73
advantages,74
adventure,75
advert,76
advice,77
advise,78
advised,79
advocate,80
ady,81
aerobic,82
affair,83
affect,84
affiliated,85
afford,86
affy,87
afraid,88
after,89
afternoon,90
afterwards,91
afterwork,92
again,93
against,94
age,95
aged,96
agenda,97
ages,98
aggravated,99
aggression,100
aggressive,101
aggro,102
ago,103
agony,104
agree,105
agt,106
ah,107
aha,108
ahead,109
ahhh,110
ahhhh,111
ahve,112
aid,113
aids,114
ailments,115
aim,116
aiming,117
aint,118
air,119
airport,120
aka,121
alan,122
alan_every,123
alanm,124
alarm,125
albeit,126
alcohol,127
alex,128
ali,129
all,130
allegedly,131
alley,132
allow,133
allowed,134
allowing,135
allows,136
allstar,137
almost,138
alone,139
along,140
alongside,141
alot,142
alp,143
alps,144
already,145
also,146
alter,147
alternate,148
although,149
always,150
am,151
amateur,152
amazing,153
ambitions,154
ambulance,155
amongst,156
amount,157
amsterdam,158
amused,159
an,160
anaemia,161
anal,162
analysed,163
analysis,164
and,165
andrew,166
andy,167
angelic,168
angle,169
angry,170
aniversary,171
ankle,172
ankles,173
anna,174
annajo,175
annie,176
annoyed,177
annoyingly,178
another,179
answer,180
answers,181
ant,182
anthony,183
anti,184
anticipation,185
anticlockwise,186
antics,187
antsy,188
anxiety,189
any,190
anybody,191
anyhow,192
anymore,193
anyone,194
anything,195
anyway,196
anywhere,197
aorn,198
aparsedonedigit,199
apart,200
apartment,201
aplenty,202
apologies,203
apology,204
app,205
appalling,206
apparent,207
apparently,208
appealing,209
appear,210
appearance,211
appeared,212
appears,213
appetite,214
applicant,215
application,216
appreciate,217
appreciated,218
approach,219
approaching,220
approx,221
april,222
aqua,223
aquathlon,224
arabs,225
arch,226
archers,227
are,228
area,229
areas,230
aren,231
argie,232
argos,233
argued,234
argument,235
arm,236
arms,237
armstrong,238
around,239
arrange,240
arranged,241
arrangments,242
arround,243
arse,244
arsed,245
arsenal,246
artful,247
article,248
articles,249
arts,250
as,251
asap,252
ashamed,253
ashley,254
ask,255
asked,256
askern,257
asking,258
asleep,259
aspirant,260
aspiring,261
assistant,262
association,263
assume,264
assumed,265
assuming,266
astride,267
at,268
athlete,269
athletic,270
atleast,271
atmosphere,272
attachment,273
attack,274
attacks,275
attemp,276
attempt,277
attended,278
attention,279
attitude,280
august,281
aunt,282
australia,283
automatically,284
autumn,285
av,286
available,287
ave,288
average,289
averaged,290
averaging,291
avghr,292
avoid,293
avoided,294
awaits,295
awake,296
award,297
awards,298
aware,299
away,300
awayday,301
awesome,302
awful,303
awreness,304
ay,305
babble,306
babies,307
baby,308
bac,309
back,310
backing,311
backslash,312
backwards,313
bacon,314
bad,315
badly,316
badminton,317
bag,318
bagged,319
bags,320
bah,321
balance,322
ball,323
ballot,324
ballots,325
balls,326
banana,327
bandstand,328
bang,329
bank,330
banks,331
banksie,332
banter,333
bar,334
barclays,335
bare,336
barefoot,337
barely,338
bargain,339
bargains,340
barley,341
barman,342
barnes,343
barriers,344
base,345
based,346
baseline,347
basically,348
basics,349
basis,350
bat,351
batfink,352
bath,353
bathroom,354
baths,355
batteries,356
battersey,357
battle,358
batw,359
bay,360
bb,361
bbq,362
bd,363
be,364
beach,365
beachy,366
beaming,367
beans,368
beanz,369
bear,370
bearable,371
beast,372
beat,373
beaten,374
beats,375
beautiful,376
beav,377
became,378
because,379
beckham,380
become,381
becoming,382
bed,383
beders,384
been,385
beer,386
beers,387
before,388
beforehand,389
began,390
beginning,391
begins,392
begrudge,393
begs,394
behave,395
behaving,396
behind,397
being,398
bej,399
belated,400
beleive,401
belfast,402
believe,403
belive,404
bells,405
below,406
belt,407
bempton,408
bend,409
bending,410
bene,411
benefit,412
benefits,413
bent,414
benyo,415
bequathed,416
bequeath,417
bequeathed,418
bequeathing,419
bequethed,420
berkhamsted,421
berlin,422
bernard,423
berry,424
besides,425
best,426
bet,427
better,428
between,429
bex,430
beyond,431
bfb,432
bicton,433
bid,434
biddies,435
big,436
bigger,437
biggest,438
biggies,439
bigotted,440
bike,441
billie,442
billy,443
bin,444
bingham,445
bingo,446
birdcage,447
birmingham,448
birthday,449
birthdays,450
bishop,451
bit,452
bits,453
bizarre,454
bl,455
black,456
blackberry,457
blackheath,458
blackmail,459
blackpool,460
blah,461
blame,462
blast,463
blasted,464
blasting,465
bleeding,466
bleeped,467
bless,468
blessed,469
blessings,470
blew,471
blimey,472
bling,473
blinkin,474
bliss,475
blister,476
blisters,477
blizzard,478
blobby,479
block,480
blocks,481
blokes,482
blood,483
bloody,484
blooming,485
blousey,486
blow,487
blowing,488
blown,489
blubber,490
blue,491
blues,492
blxxdy,493
bm,494
bmi,495
boat,496
bob,497
bobble,498
bobby,499
bod,500
bodes,501
body,502
bog,503
boggy,504
bogs,505
boing,506
bold,507
bollox,508
bond,509
bones,510
bonfire,511
bongo,512
bonkers,513
boo,514
book,515
booked,516
booking,517
books,518
boost,519
booster,520
bootsie,521
booze,522
bore,523
bored,524
boris,525
born,526
borrow,527
boston,528
both,529
bother,530
bothered,531
bothering,532
bottle,533
bottleof,534
bottles,535
bottling,536
bought,537
bounce,538
bound,539
boundary,540
bounding,541
bourton,542
bout,543
bovvered,544
bow,545
bowi,546
bowl,547
bowland,548
boxes,549
boxing,550
boy,551
boyfriend,552
boys,553
bp,554
bparsedonedigit,555
br,556
brad,557
brain,558
brake,559
bramley,560
branch,561
bras,562
brasher,563
brat,564
brave,565
braver,566
brazilian,567
bread,568
break,569
breakfast,570
breaks,571
breakthrough,572
breast,573
breaststroke,574
breath,575
breathe,576
breezing,577
brendan,578
brian,579
bricks,580
brid,581
bridge,582
bridges,583
brief,584
briefcase,585
bright,586
brighton,587
brilliant,588
brilliantly,589
bring,590
bringing,591
brings,592
bristol,593
britain,594
british,595
brizzle,596
broadly,597
broke,598
broken,599
brolly,600
bronze,601
brook,602
brookwood,603
brother,604
brought,605
brownie,606
brownies,607
brownish,608
btw,609
bubbly,610
buck,611
bucket,612
buena,613
buff,614
bug,615
bugger,616
build,617
builder,618
building,619
built,620
bulk,621
bull,622
bullying,623
bum,624
bummer,625
bump,626
bumps,627
bumpy,628
bunch,629
bunged,630
bunny,631
burn,632
burst,633
bursting,634
burtonwood,635
burtyboy,636
bus,637
bush,638
bushed,639
bushes,640
bushey,641
bushy,642
business,643
bust,644
buster,645
busy,646
but,647
butcher,648
buti,649
butt,650
butter,651
butterfly,652
buttie,653
butty,654
buy,655
buys,656
buzzing,657
bw,658
by,659
byfleet,660
bypass,661
cab,662
cabbie,663
cactus,664
cadence,665
cake,666
cal,667
calcium,668
calculates,669
calculation,670
calculations,671
calculators,672
calf,673
calfs,674
call,675
calls,676
calm,677
calmed,678
calmer,679
calories,680
calves,681
camaraderie,682
camden,683
came,684
camera,685
cameron,686
camping,687
camps,688
campsite,689
can,690
canada,691
canal,692
canberra,693
cancelled,694
cancer,695
cannot,696
cannt,697
canoe,698
cant,699
canteen,700
cap,701
capital,702
caps,703
captain,704
car,705
caramel,706
caravan,707
carb,708
carbo,709
carbohydrate,710
carbs,711
cardiff,712
care,713
career,714
careful,715
careless,716
caribbean,717
caro,718
carole,719
carp,720
carriageway,721
carried,722
carry,723
carrying,724
cars,725
cartiledge,726
cartwheels,727
cas,728
case,729
cases,730
cashed,731
casual,732
cat,733
catch,734
catching,735
category,736
cath,737
caught,738
cause,739
caused,740
causes,741
causing,742
cautious,743
caz,744
cc,745
ccnba,746
ccoming,747
ceal,748
ceilidh,749
ceiling,750
celeb,751
celebrate,752
celebrating,753
celebrations,754
centre,755
centred,756
cereal,757
certain,758
certainly,759
certificate,760
certified,761
cew,762
cg,763
chains,764
chair,765
challenge,766
challenged,767
champagne,768
champers,769
championchip,770
championship,771
champs,772
chance,773
chances,774
change,775
changed,776
changes,777
changing,778
chap,779
character,780
charge,781
charges,782
charitable,783
charities,784
charity,785
charlie,786
charlton,787
charter,788
chasing,789
chat,790
chatty,791
cheap,792
cheapskates,793
cheat,794
check,795
checked,796
checking,797
cheeky,798
cheer,799
cheers,800
chelsea,801
cheques,802
chest,803
chi,804
chichester,805
chicken,806
chieftain,807
children,808
chill,809
chilly,810
chin,811
chip,812
chips,813
choc,814
chocolate,815
choked,816
chomping,817
chondroitin,818
choose,819
chr,820
chris,821
christmas,822
chuff,823
chuffed,824
chum,825
chunk,826
church,827
cinders,828
citibank,829
city,830
cj,831
cl,832
claim,833
claire,834
clairster,835
clan,836
clare,837
clarendon,838
clash,839
class,840
classy,841
cleadon,842
clear,843
cleared,844
clearly,845
clears,846
click,847
cliffs,848
climb,849
climbed,850
climber,851
climbing,852
clipped,853
clock,854
clocked,855
close,856
closer,857
closest,858
clothing,859
clouds,860
cloudy,861
club,862
clubbing,863
clubmate,864
clubmates,865
clue,866
clydesdale,867
cm,868
co,869
coach,870
coached,871
coaches,872
coaching,873
coal,874
coast,875
cockrell,876
coffee,877
cofident,878
cognitive,879
colchester,880
cold,881
colds,882
collapsed,883
colleague,884
collect,885
colon,886
colour,887
column,888
com,889
combination,890
combined,891
combining,892
come,893
comes,894
comfort,895
comfortable,896
comic,897
comig,898
coming,899
comment,900
commented,901
comments,902
commiserations,903
commitments,904
common,905
communication,906
community,907
compact,908
company,909
compare,910
compared,911
compensate,912
compete,913
competence,914
competing,915
competition,916
competitive,917
competitors,918
complain,919
complaining,920
complete,921
completed,922
completely,923
completing,924
completion,925
comprehended,926
computer,927
comunication,928
concentrate,929
concentrated,930
concern,931
concerned,932
conclusion,933
conclusions,934
concluson,935
conditioned,936
conditioner,937
conditioning,938
conditions,939
conducive,940
conference,941
confess,942
confidence,943
confident,944
confirm,945
confirmation,946
confirmations,947
confirmed,948
confirming,949
confused,950
congestion,951
congleton,952
congrats,953
congratulations,954
conjured,955
connected,956
connective,957
consciously,958
consecutive,959
consider,960
considerably,961
considered,962
considering,963
consistency,964
consistent,965
constant,966
consuming,967
contact,968
contacts,969
contemplating,970
content,971
contingent,972
continue,973
continued,974
contributed,975
contributes,976
contribution,977
control,978
controlled,979
conversation,980
convinced,981
cooke,982
cooked,983
cookie,984
cookies,985
cooking,986
cool,987
cooler,988
cope,989
copenhagen,990
copy,991
core,992
corner,993
coro,994
coronium,995
correct,996
corredor,997
corridor,998
cos,999
cost,1000
costume,1001
cosy,1002
cough,1003
cougie,1004
could,1005
couldgo,1006
couldn,1007
couldnt,1008
count,1009
counting,1010
country,1011
countryside,1012
county,1013
couple,1014
courage,1015
course,1016
court,1017
courtesy,1018
cover,1019
coverage,1020
covered,1021
covers,1022
cowhill,1023
coxy,1024
coz,1025
cp,1026
crab,1027
crack,1028
crackered,1029
cracking,1030
cramp,1031
cramped,1032
cranberry,1033
crap,1034
crapping,1035
crashed,1036
crashing,1037
crawl,1038
crawled,1039
crazed,1040
crazy,1041
cream,1042
creating,1043
creature,1044
credit,1045
creme,1046
cricket,1047
crikey,1048
crippled,1049
critters,1050
crocked,1051
cross,1052
crossed,1053
crossing,1054
crouch,1055
crowd,1056
crowds,1057
crucial,1058
cruel,1059
cruisin,1060
cruising,1061
crumbs,1062
crunch,1063
crxp,1064
cry,1065
cube,1066
cubes,1067
cubs,1068
culminating,1069
cunning,1070
cup,1071
cure,1072
cures,1073
current,1074
currently,1075
currrent,1076
curry,1077
curse,1078
cushion,1079
customer,1080
cut,1081
cwy,1082
cycle,1083
cycling,1084
cyclist,1085
dachshund,1086
dad,1087
daddy,1088
daily,1089
dalya,1090
damage,1091
damaged,1092
damn,1093
dampened,1094
dan,1095
daniel,1096
danny,1097
dark,1098
darlington,1099
darren,1100
dartford,1101
dartmoor,1102
dash,1103
date,1104
dates,1105
daughter,1106
daughters,1107
dave,1108
davey,1109
david,1110
davis,1111
day,1112
daylight,1113
days,1114
daz,1115
dazpd,1116
dd,1117
dead,1118
deadline,1119
deaf,1120
deal,1121
dear,1122
death,1123
debate,1124
debbo,1125
debenhams,1126
debs,1127
debster,1128
debstir,1129
dec,1130
decadent,1131
december,1132
decent,1133
decide,1134
decided,1135
decision,1136
decisions,1137
decreasing,1138
dedicated,1139
deep,1140
deeply,1141
def,1142
defect,1143
defer,1144
deffered,1145
deffo,1146
definately,1147
definitely,1148
definition,1149
definitive,1150
defo,1151
degeneration,1152
degrees,1153
delete,1154
delia,1155
delighted,1156
delivery,1157
delusional,1158
deminished,1159
demob,1160
demonstrated,1161
denied,1162
dense,1163
deny,1164
depending,1165
depends,1166
deposit,1167
depressing,1168
depth,1169
descent,1170
describing,1171
description,1172
deserve,1173
deserved,1174
designed,1175
desk,1176
desp,1177
despair,1178
desperate,1179
despite,1180
destiny,1181
details,1182
determination,1183
determined,1184
devastated,1185
develop,1186
devon,1187
dfd,1188
diabetes,1189
diabetic,1190
diagnosed,1191
diana,1192
diary,1193
did,1194
didds,1195
diddy,1196
didn,1197
didnt,1198
dids,1199
die,1200
died,1201
diet,1202
diff,1203
difference,1204
different,1205
difficult,1206
dig,1207
dilemma,1208
diligence,1209
diminished,1210
dinner,1211
dip,1212
diplomatic,1213
dipped,1214
dips,1215
direct,1216
direction,1217
directly,1218
director,1219
dirty,1220
disapointed,1221
disappointed,1222
disappointment,1223
discarded,1224
discharged,1225
discipline,1226
discount,1227
discussibg,1228
discussions,1229
disgracing,1230
disgusted,1231
dish,1232
dispirited,1233
displayed,1234
disposal,1235
distance,1236
distress,1237
divulge,1238
dn,1239
do,1240
docklands,1241
doctor,1242
documents,1243
dod,1244
doddle,1245
dodging,1246
dodgy,1247
doe,1248
does,1249
doesn,1250
doesnt,1251
dog,1252
dogs,1253
doing,1254
domestic,1255
don,1256
donate,1257
donating,1258
donation,1259
done,1260
dont,1261
donut,1262
doodle,1263
doom,1264
dooper,1265
door,1266
doors,1267
dor,1268
dorigo,1269
dork,1270
dot,1271
double,1272
doubt,1273
doubts,1274
douglas,1275
dover,1276
down,1277
downhill,1278
downlands,1279
downs,1280
downside,1281
downstairs,1282
dozen,1283
dragged,1284
dragging,1285
dramatically,1286
dread,1287
dreading,1288
dream,1289
dreampt,1290
dreams,1291
dreary,1292
dress,1293
drewton,1294
drier,1295
drill,1296
drink,1297
drinker,1298
drinking,1299
drinks,1300
drive,1301
drives,1302
drk,1303
drogo,1304
drool,1305
drop,1306
dropped,1307
dropping,1308
drops,1309
drown,1310
dry,1311
ds,1312
dual,1313
dublin,1314
duck,1315
due,1316
dull,1317
dump,1318
dumpling,1319
duncan,1320
dunk,1321
dunno,1322
during,1323
dusseldorf,1324
dust,1325
duster,1326
dustin,1327
duty,1328
dvd,1329
dwarfed,1330
dy,1331
dyslexia,1332
each,1333
eager,1334
ealing,1335
ear,1336
earlier,1337
earliest,1338
early,1339
earned,1340
ears,1341
earth,1342
ease,1343
easier,1344
easiest,1345
easily,1346
east,1347
eastenders,1348
easter,1349
eastleigh,1350
easy,1351
eat,1352
eaten,1353
eating,1354
eb,1355
ebb,1356
ebbs,1357
echo,1358
economist,1359
ecparsedonedigit,1360
ed,1361
edb,1362
eddie,1363
edge,1364
edges,1365
edinburgh,1366
edith,1367
eek,1368
effect,1369
effective,1370
effects,1371
efficacy,1372
effort,1373
efforts,1374
efort,1375
eg,1376
egged,1377
eggs,1378
eh,1379
ehrwise,1380
either,1381
elastiman,1382
eleanor,1383
eliminate,1384
eliminating,1385
elite,1386
elixir,1387
else,1388
elusive,1389
elysees,1390
em,1391
email,1392
emailed,1393
emailing,1394
embankment,1395
embarassing,1396
emergency,1397
emigrating,1398
emigration,1399
emily,1400
emma,1401
emotional,1402
emphasis,1403
empty,1404
enabled,1405
encounter,1406
encourage,1407
encouraged,1408
encouragement,1409
encouraging,1410
end,1411
ended,1412
endless,1413
ends,1414
endurance,1415
endured,1416
energy,1417
england,1418
enjoy,1419
enjoyable,1420
enjoyed,1421
enjoying,1422
enjoys,1423
enormously,1424
enough,1425
enter,1426
entered,1427
entering,1428
enters,1429
enticingly,1430
entirely,1431
entires,1432
entrants,1433
entries,1434
entry,1435
envelope,1436
epping,1437
eps,1438
equal,1439
equates,1440
equity,1441
equivalent,1442
er,1443
err,1444
error,1445
errors,1446
escape,1447
escaped,1448
esle,1449
esp,1450
especially,1451
essay,1452
essex,1453
estate,1454
estimated,1455
etc,1456
eternal,1457
eternally,1458
euph,1459
euros,1460
eve,1461
even,1462
evening,1463
event,1464
eventful,1465
events,1466
eventually,1467
ever,1468
everest,1469
every,1470
everybody,1471
everyne,1472
everyone,1473
everyones,1474
everything,1475
evidence,1476
evryone,1477
ex,1478
exactly,1479
exagerating,1480
example,1481
exams,1482
excel,1483
excellant,1484
excellent,1485
except,1486
exception,1487
exceptionally,1488
excited,1489
excitement,1490
exciting,1491
excluding,1492
excuse,1493
exercise,1494
exercises,1495
exersion,1496
exertion,1497
exhasted,1498
exhausted,1499
exhibiting,1500
exhuasted,1501
exist,1502
expecct,1503
expected,1504
expecting,1505
expects,1506
expensive,1507
experience,1508
experienced,1509
experiment,1510
explains,1511
expletives,1512
exploits,1513
expo,1514
extended,1515
extensions,1516
extra,1517
eye,1518
eyed,1519
eynsham,1520
fab,1521
fabric,1522
fabulous,1523
face,1524
facilities,1525
fact,1526
fading,1527
fail,1528
failed,1529
fails,1530
failure,1531
fainting,1532
fair,1533
fairing,1534
fairly,1535
fairs,1536
fairy,1537
faith,1538
fall,1539
fallback,1540
falling,1541
fame,1542
families,1543
family,1544
fan,1545
fancied,1546
fancy,1547
fanfare,1548
fans,1549
fantacised,1550
fantastic,1551
far,1552
farmed,1553
fartlek,1554
fast,1555
faster,1556
fastest,1557
fat,1558
fatbutfit,1559
fate,1560
fault,1561
fave,1562
favour,1563
favourite,1564
favourites,1565
fb,1566
fd,1567
fdone,1568
fear,1569
featured,1570
feb,1571
fed,1572
feed,1573
feedback,1574
feel,1575
feeling,1576
feels,1577
feelt,1578
feet,1579
fell,1580
fella,1581
fellow,1582
felt,1583
female,1584
fenn,1585
ferry,1586
festering,1587
fetch,1588
few,1589
ff,1590
fgfa,1591
fi,1592
fiddly,1593
fidgety,1594
field,1595
fife,1596
fifidella,1597
fight,1598
fighter,1599
figs,1600
figure,1601
figured,1602
files,1603
filled,1604
final,1605
finally,1606
find,1607
finding,1608
fine,1609
finger,1610
fingers,1611
finish,1612
finished,1613
finishing,1614
finishs,1615
finsihed,1616
fire,1617
fires,1618
first,1619
firstly,1620
firth,1621
fish,1622
fisrt,1623
fit,1624
fitness,1625
fitter,1626
fitting,1627
five,1628
fix,1629
fizz,1630
fkg,1631
flab,1632
flag,1633
flakes,1634
flamboro,1635
flapjack,1636
flash,1637
flat,1638
flats,1639
fleece,1640
fleet,1641
flexible,1642
flight,1643
flights,1644
flint,1645
flm,1646
flmers,1647
flmparsedtwodigits,1648
flms,1649
flora,1650
florida,1651
flows,1652
flu,1653
fluctuating,1654
fluid,1655
fly,1656
flyer,1657
flying,1658
fnick,1659
focus,1660
focussed,1661
folk,1662
folks,1663
follow,1664
followed,1665
following,1666
fond,1667
food,1668
foot,1669
football,1670
for,1671
force,1672
forced,1673
forecast,1674
forego,1675
forest,1676
forests,1677
forget,1678
forgetting,1679
forgive,1680
forgot,1681
fork,1682
form,1683
formula,1684
forth,1685
fortnight,1686
fortuna,1687
fortunately,1688
fortune,1689
forum,1690
forumites,1691
forums,1692
forward,1693
forwards,1694
fought,1695
found,1696
foundation,1697
four,1698
fox,1699
foz,1700
fp,1701
france,1702
freak,1703
fred,1704
free,1705
freebies,1706
frenchies,1707
frenchmen,1708
fresh,1709
freshness,1710
fretting,1711
fri,1712
friday,1713
fridays,1714
fridge,1715
friend,1716
friendly,1717
friends,1718
friendship,1719
frightened,1720
from,1721
front,1722
frosty,1723
frozen,1724
frubes,1725
frustrated,1726
frustrating,1727
frys,1728
fuel,1729
fulfill,1730
full,1731
fully,1732
fun,1733
funds,1734
funeral,1735
funny,1736
further,1737
furthest,1738
fuss,1739
future,1740
fw,1741
fwiw,1742
gadgets,1743
gagging,1744
gah,1745
gain,1746
gale,1747
gales,1748
gals,1749
game,1750
gamesmanship,1751
gang,1752
gap,1753
gaps,1754
garden,1755
garmin,1756
gathering,1757
gatorade,1758
gatton,1759
gave,1760
gb,1761
gc,1762
gd,1763
gdave,1764
gear,1765
gel,1766
gels,1767
generally,1768
generous,1769
genetically,1770
gentle,1771
gently,1772
geoff,1773
geordie,1774
george,1775
georgias,1776
gerroff,1777
get,1778
gets,1779
gettin,1780
getting,1781
gf,1782
gfa,1783
gfparsedtwodigits,1784
gg,1785
gif,1786
gift,1787
gifts,1788
giles,1789
gilzean,1790
gin,1791
ginger,1792
girl,1793
girlies,1794
girls,1795
girly,1796
git,1797
give,1798
given,1799
gives,1800
giving,1801
giz,1802
glad,1803
glance,1804
glasgow,1805
glass,1806
glasses,1807
glided,1808
glitzy,1809
gloom,1810
glory,1811
gloves,1812
glucosamine,1813
glue,1814
glute,1815
glycogen,1816
gm,1817
gnr,1818
go,1819
goal,1820
goalkeeper,1821
gobbling,1822
gobi,1823
goblins,1824
god,1825
godsend,1826
goes,1827
going,1828
gold,1829
golden,1830
golf,1831
gone,1832
gonna,1833
good,1834
goodnight,1835
goody,1836
google,1837
goose,1838
goslo,1839
got,1840
gotta,1841
gotten,1842
goup,1843
gps,1844
gr,1845
gradient,1846
gradually,1847
gram,1848
grandparent,1849
grandson,1850
grandstand,1851
granny,1852
grapes,1853
grass,1854
grateful,1855
gratitude,1856
gratton,1857
grattons,1858
grave,1859
gravis,1860
gravy,1861
great,1862
greater,1863
green,1864
greetings,1865
greg,1866
gremlins,1867
grew,1868
grief,1869
grim,1870
grin,1871
grinstead,1872
grip,1873
grit,1874
gritted,1875
grobelaar,1876
groin,1877
grotty,1878
ground,1879
group,1880
groups,1881
grow,1882
grrrrr,1883
grump,1884
grylls,1885
gt,1886
guarantee,1887
guaranteed,1888
guarentee,1889
guess,1890
guessing,1891
guilty,1892
guiness,1893
gun,1894
gutted,1895
gutter,1896
guy,1897
guys,1898
gweedore,1899
gym,1900
ha,1901
had,1902
hadn,1903
haha,1904
hahahaha,1905
hail,1906
hainault,1907
hairdresser,1908
hal,1909
half,1910
halfway,1911
halhigdon,1912
halifax,1913
hallo,1914
halt,1915
haltemprice,1916
halving,1917
ham,1918
hamburg,1919
hammer,1920
hampshire,1921
hampstead,1922
hamstring,1923
hana,1924
hancock,1925
hand,1926
handed,1927
handle,1928
hands,1929
handwritting,1930
hang,1931
hanging,1932
hangover,1933
hangovers,1934
hants,1935
happen,1936
happened,1937
happening,1938
happenings,1939
happens,1940
happiness,1941
happy,1942
hard,1943
harder,1944
hardest,1945
hardly,1946
harlow,1947
harpy,1948
harvel,1949
has,1950
hasn,1951
hasnt,1952
hassle,1953
hastings,1954
hat,1955
hate,1956
haunches,1957
have,1958
haven,1959
havent,1960
having,1961
hazelnuts,1962
hbos,1963
he,1964
head,1965
heading,1966
heal,1967
health,1968
healthier,1969
healthy,1970
hear,1971
heard,1972
hearing,1973
heart,1974
heat,1975
heated,1976
heath,1977
heavier,1978
heavy,1979
heckenhocker,1980
heckled,1981
hectic,1982
hee,1983
heel,1984
height,1985
held,1986
helen,1987
hell,1988
hellip,1989
hello,1990
helloooooooo,1991
help,1992
helped,1993
helpful,1994
helping,1995
helpline,1996
helps,1997
hen,1998
hence,1999
her,2000
here,2001
herself,2002
hertfordshire,2003
herts,2004
hey,2005
hh,2006
hi,2007
hic,2008
higdon,2009
high,2010
higher,2011
highest,2012
highlight,2013
higo,2014
hill,2015
hills,2016
hilly,2017
hillyi,2018
him,2019
himself,2020
hinder,2021
hip,2022
hippo,2023
hires,2024
his,2025
history,2026
hit,2027
hiya,2028
hm,2029
hmm,2030
hmmm,2031
hmmmm,2032
hmmmmm,2033
hmmmph,2034
hms,2035
ho,2036
hobble,2037
hobling,2038
hogweed,2039
hol,2040
hold,2041
holding,2042
holds,2043
holiday,2044
holly,2045
hollywood,2046
home,2047
honest,2048
honestly,2049
honey,2050
hong,2051
honoured,2052
hood,2053
hoops,2054
hoorah,2055
hoovering,2056
hope,2057
hopeful,2058
hopefully,2059
hopefuly,2060
hoping,2061
hopkinton,2062
hopping,2063
horizons,2064
horrendously,2065
horrible,2066
hospital,2067
host,2068
hostel,2069
hot,2070
hotel,2071
hotels,2072
hour,2073
hours,2074
house,2075
hove,2076
how,2077
howard,2078
howdy,2079
however,2080
howler,2081
hr,2082
hrm,2083
hrow,2084
hrr,2085
hrs,2086
hs,2087
hsbc,2088
ht,2089
htm,2090
html,2091
htp,2092
http,2093
hubbies,2094
hubby,2095
huge,2096
hughes,2097
hugs,2098
hull,2099
humid,2100
hummm,2101
humpless,2102
humpy,2103
hunchbacked,2104
hundred,2105
hundreds,2106
hung,2107
hunting,2108
hurrah,2109
hurray,2110
hurry,2111
hurt,2112
hurting,2113
hurts,2114
husband,2115
hybrid,2116
hyde,2117
hydrate,2118
hysterical,2119
hythe,2120
ian,2121
ibuprofen,2122
ice,2123
icey,2124
icing,2125
idea,2126
ideal,2127
ideally,2128
ideas,2129
identify,2130
if,2131
ill,2132
illness,2133
im,2134
images,2135
imagine,2136
imagined,2137
imelds,2138
imho,2139
immediately,2140
immersion,2141
impart,2142
impatient,2143
impeccable,2144
implies,2145
important,2146
impossible,2147
impressed,2148
impressive,2149
improve,2150
improved,2151
improvement,2152
improving,2153
in,2154
incarnation,2155
incase,2156
incentive,2157
incident,2158
inclines,2159
include,2160
included,2161
includes,2162
including,2163
inclusion,2164
incoherant,2165
increase,2166
increased,2167
increasing,2168
increasingly,2169
incredible,2170
indeed,2171
indifferent,2172
indoor,2173
induced,2174
infection,2175
infestation,2176
inflam,2177
inflammation,2178
inflammatories,2179
inflammed,2180
influence,2181
info,2182
inforces,2183
information,2184
ing,2185
initial,2186
injured,2187
injuries,2188
injury,2189
inn,2190
innocents,2191
inside,2192
insoles,2193
inspiration,2194
inspirational,2195
inspire,2196
inspired,2197
inspiring,2198
instead,2199
instills,2200
instructed,2201
instructer,2202
instructions,2203
instructor,2204
insulating,2205
intake,2206
intend,2207
intended,2208
intensity,2209
intention,2210
inter,2211
intercounties,2212
interest,2213
interested,2214
interesting,2215
intermeweb,2216
intermittent,2217
international,2218
internet,2219
interval,2220
intervals,2221
interview,2222
into,2223
intrigued,2224
intro,2225
introduce,2226
introducing,2227
invaluable,2228
invented,2229
invested,2230
invisible,2231
involve,2232
involved,2233
iphone,2234
ireland,2235
iron,2236
ironman,2237
irons,2238
irresistable,2239
irritating,2240
is,2241
ish,2242
isle,2243
isn,2244
isotonic,2245
issue,2246
issues,2247
it,2248
italian,2249
italy,2250
itc,2251
itching,2252
its,2253
itself,2254
iv,2255
ive,2256
jacket,2257
jackets,2258
jam,2259
jamaica,2260
james,2261
jamesk,2262
jamie,2263
jan,2264
jane,2265
janeeparsedonedigit,2266
january,2267
jap,2268
jaq,2269
jar,2270
jarred,2271
jase,2272
jason,2273
jbs,2274
jbss,2275
jd,2276
jdrf,2277
jealous,2278
jej,2279
jelly,2280
jellybabe,2281
jezza,2282
jj,2283
job,2284
jobs,2285
joby,2286
jock,2287
jog,2288
jogged,2289
jogger,2290
jogging,2291
jogs,2292
john,2293
johns,2294
join,2295
joined,2296
joining,2297
joint,2298
joints,2299
joke,2300
jokes,2301
jonahparsedonedigit,2302
jools,2303
journey,2304
journeys,2305
joy,2306
jpg,2307
jpvd,2308
jr,2309
jt,2310
judderman,2311
judging,2312
juice,2313
jules,2314
julie,2315
july,2316
jump,2317
jumping,2318
jumps,2319
june,2320
junior,2321
just,2322
justifiably,2323
justified,2324
kannouchi,2325
karate,2326
karen,2327
katepie,2328
katie,2329
katrina,2330
kattysparke,2331
katypie,2332
kbown,2333
keen,2334
keep,2335
keeping,2336
keeps,2337
ken,2338
kent,2339
kenyan,2340
kept,2341
kerb,2342
keryn,2343
key,2344
keyneshm,2345
khalid,2346
kick,2347
kid,2348
kidney,2349
kids,2350
kill,2351
killed,2352
killer,2353
kind,2354
kinda,2355
kinder,2356
kindly,2357
kingley,2358
kingston,2359
kinsey,2360
kip,2361
kirsty,2362
kit,2363
kitchen,2364
kk,2365
km,2366
knackered,2367
knee,2368
kneecap,2369
knees,2370
knew,2371
knock,2372
knocked,2373
knoe,2374
knots,2375
know,2376
knowing,2377
knowledge,2378
known,2379
knows,2380
kong,2381
kp,2382
kparsedonedigit,2383
kramer,2384
kwilter,2385
la,2386
labour,2387
laces,2388
lack,2389
ladders,2390
ladies,2391
lads,2392
lady,2393
laid,2394
lance,2395
land,2396
landed,2397
lane,2398
lap,2399
lapper,2400
laps,2401
laptop,2402
larder,2403
lardy,2404
larff,2405
large,2406
larger,2407
last,2408
lasted,2409
lasting,2410
lata,2411
late,2412
lately,2413
later,2414
latest,2415
laugh,2416
laughs,2417
law,2418
lawyers,2419
lay,2420
layer,2421
layers,2422
lazy,2423
lb,2424
lbs,2425
ld,2426
lead,2427
leaders,2428
leadership,2429
leading,2430
leaf,2431
league,2432
leagues,2433
learn,2434
learning,2435
learnt,2436
least,2437
leave,2438
leaves,2439
leaving,2440
led,2441
leeds,2442
left,2443
leg,2444
legends,2445
leggings,2446
legislate,2447
legless,2448
legs,2449
leicester,2450
leisure,2451
leith,2452
lend,2453
lenghts,2454
length,2455
lengths,2456
leotard,2457
lep,2458
less,2459
let,2460
letchworth,2461
lets,2462
letter,2463
letters,2464
lettice,2465
letting,2466
level,2467
levels,2468
lf,2469
lfm,2470
licence,2471
lid,2472
life,2473
lifetime,2474
lift,2475
lifted,2476
ligamant,2477
ligament,2478
ligaments,2479
light,2480
lighty,2481
like,2482
liked,2483
likely,2484
likelyhood,2485
likes,2486
likewise,2487
limited,2488
limper,2489
lincolnshire,2490
line,2491
lined,2492
lining,2493
link,2494
links,2495
lip,2496
lisbon,2497
lise,2498
list,2499
listen,2500
lite,2501
literally,2502
litres,2503
little,2504
live,2505
lived,2506
liverpool,2507
lives,2508
living,2509
livvy,2510
lizzyb,2511
ll,2512
llbe,2513
lll,2514
lloyds,2515
lm,2516
load,2517
loading,2518
loads,2519
local,2520
locally,2521
location,2522
loch,2523
log,2524
logbook,2525
logging,2526
logic,2527
logo,2528
lol,2529
london,2530
long,2531
longer,2532
longest,2533
loo,2534
look,2535
looked,2536
looking,2537
looks,2538
loon,2539
loop,2540
loose,2541
loosened,2542
loparsedtwodigits,2543
lor,2544
lord,2545
lorenzo,2546
lose,2547
losing,2548
lost,2549
lot,2550
lots,2551
lounge,2552
love,2553
loved,2554
lovely,2555
low,2556
lower,2557
lr,2558
ls,2559
lsd,2560
lsr,2561
lsrs,2562
lt,2563
ltsa,2564
ltsb,2565
lucazade,2566
lucinda,2567
luck,2568
luckily,2569
lucky,2570
lucozade,2571
lucy,2572
lunch,2573
lunches,2574
lunchtime,2575
lung,2576
lungs,2577
lurgified,2578
lurgy,2579
lurk,2580
lurking,2581
luton,2582
luxembourg,2583
luxury,2584
lwparsedonedigit,2585
lycra,2586
lyndy,2587
macc,2588
machine,2589
machines,2590
macmillan,2591
macs,2592
mad,2593
made,2594
mag,2595
magazine,2596
magic,2597
magnesium,2598
maidenhead,2599
mail,2600
mailed,2601
main,2602
maintain,2603
maintained,2604
major,2605
majority,2606
make,2607
maker,2608
makes,2609
making,2610
malarky,2611
male,2612
males,2613
mall,2614
malt,2615
malverns,2616
man,2617
manage,2618
managed,2619
management,2620
manager,2621
mankind,2622
mantra,2623
mantras,2624
many,2625
map,2626
maps,2627
mara,2628
marafuns,2629
maramates,2630
marathon,2631
marathoner,2632
marathoners,2633
marathons,2634
march,2635
marcus,2636
marders,2637
margin,2638
marigold,2639
mark,2640
marker,2641
markers,2642
market,2643
markings,2644
marl,2645
marmite,2646
marparsedtwodigitsindex,2647
marshalling,2648
marshals,2649
martial,2650
martin,2651
mashed,2652
massage,2653
masses,2654
massive,2655
massively,2656
masters,2657
match,2658
mate,2659
material,2660
maternity,2661
mates,2662
matie,2663
matt,2664
matter,2665
matttherat,2666
mava,2667
max,2668
maxine,2669
may,2670
maybe,2671
maylarch,2672
mayo,2673
mayor,2674
maze,2675
mb,2676
mc,2677
mcallister,2678
mcrae,2679
me,2680
meal,2681
mean,2682
meaning,2683
means,2684
meant,2685
meantime,2686
measures,2687
mecca,2688
med,2689
medal,2690
medals,2691
medical,2692
medium,2693
meerkat,2694
meet,2695
meeting,2696
meetings,2697
meg,2698
mega,2699
meldy,2700
melt,2701
members,2702
memory,2703
men,2704
mend,2705
meningitis,2706
mens,2707
mental,2708
mentally,2709
mention,2710
mentioned,2711
merchandise,2712
mercy,2713
merging,2714
merrier,2715
mess,2716
message,2717
metcheck,2718
method,2719
metres,2720
mhr,2721
miami,2722
mib,2723
mick,2724
mid,2725
midday,2726
middle,2727
midfoot,2728
midlands,2729
midnight,2730
midweek,2731
might,2732
mighty,2733
mike,2734
mikeb,2735
milage,2736
milan,2737
mild,2738
mildly,2739
mile,2740
mileage,2741
mileometer,2742
mileparsedtwodigits,2743
miler,2744
milers,2745
miles,2746
miling,2747
milk,2748
mill,2749
milton,2750
min,2751
mind,2752
mine,2753
minging,2754
mini,2755
minimal,2756
minimum,2757
minkey,2758
minkin,2759
minni,2760
minor,2761
mins,2762
minunte,2763
minus,2764
minute,2765
minutes,2766
mis,2767
miserable,2768
miss,2769
missed,2770
missing,2771
mission,2772
missp,2773
mist,2774
mistakes,2775
mistype,2776
mitten,2777
mix,2778
mixed,2779
mizuno,2780
ml,2781
mm,2782
mmm,2783
mn,2784
mnay,2785
mo,2786
mobile,2787
mode,2788
model,2789
models,2790
modes,2791
modest,2792
moggie,2793
mokina,2794
moment,2795
moments,2796
momentum,2797
mon,2798
monday,2799
mondays,2800
money,2801
monique,2802
monitor,2803
month,2804
monthly,2805
months,2806
monument,2807
mood,2808
moonlight,2809
moons,2810
moral,2811
morale,2812
more,2813
morecambe,2814
mornibg,2815
morning,2816
mornings,2817
morons,2818
mortals,2819
most,2820
mostly,2821
mother,2822
motion,2823
motivated,2824
motor,2825
mountain,2826
mouse,2827
mouth,2828
move,2829
moved,2830
moving,2831
mp,2832
mparsedonedigit,2833
mparsedtwodigits,2834
mph,2835
mpparsedonedigit,2836
mpw,2837
mr,2838
mrs,2839
mrsc,2840
mt,2841
mtr,2842
much,2843
mud,2844
mudchute,2845
muddy,2846
muff,2847
muffins,2848
mug,2849
multiple,2850
multiples,2851
mum,2852
mummy,2853
munter,2854
murderers,2855
muscle,2856
muscles,2857
mush,2858
music,2859
must,2860
muttering,2861
muv,2862
mvparsedtwodigits,2863
mwah,2864
my,2865
myasthenia,2866
myself,2867
mystery,2868
nah,2869
nail,2870
nailed,2871
nails,2872
nam,2873
name,2874
narrowly,2875
natalie,2876
national,2877
nationals,2878
nationwide,2879
natural,2880
naturally,2881
natwest,2882
naughty,2883
ndash,2884
near,2885
nearer,2886
nearest,2887
nearing,2888
nearly,2889
necessary,2890
need,2891
needed,2892
needing,2893
needs,2894
negative,2895
negotiate,2896
nelly,2897
nepal,2898
nerves,2899
nervous,2900
ness,2901
net,2902
neural,2903
neutral,2904
never,2905
nevermind,2906
new,2907
newark,2908
newbies,2909
news,2910
next,2911
nf,2912
nhs,2913
nice,2914
nicely,2915
nicest,2916
nick,2917
nickm,2918
nicks,2919
nicky,2920
niggle,2921
niggles,2922
niggly,2923
nigh,2924
night,2925
nightmare,2926
nights,2927
nikster,2928
nimbus,2929
nipple,2930
nippy,2931
nippynora,2932
nissed,2933
njord,2934
nl,2935
nmparsedonedigit,2936
nn,2937
no,2938
nobody,2939
noise,2940
nolan,2941
non,2942
none,2943
nope,2944
normal,2945
normally,2946
normski,2947
north,2948
northern,2949
nose,2950
nostalgic,2951
not,2952
note,2953
notebook,2954
notes,2955
nothing,2956
noticed,2957
notification,2958
notifications,2959
november,2960
novice,2961
novotel,2962
now,2963
nowt,2964
nts,2965
numb,2966
numbed,2967
number,2968
numbers,2969
nurofen,2970
nurse,2971
nutrition,2972
nutter,2973
ny,2974
nyc,2975
nytol,2976
nz,2977
oakley,2978
oakly,2979
objectives,2980
obliged,2981
obscene,2982
observations,2983
obsessive,2984
obstacles,2985
obviously,2986
occasion,2987
occasional,2988
occasionally,2989
occasions,2990
occured,2991
ock,2992
oct,2993
october,2994
odd,2995
oddly,2996
ode,2997
odeon,2998
of,2999
ofcourse,3000
off,3001
offer,3002
offered,3003
offering,3004
office,3005
official,3006
officially,3007
often,3008
oh,3009
ohamd,3010
oiks,3011
oj,3012
ojs,3013
ok,3014
okay,3015
ol,3016
old,3017
older,3018
oldies,3019
olympic,3020
olympics,3021
om,3022
omahd,3023
omen,3024
ometer,3025
on,3026
once,3027
one,3028
ones,3029
online,3030
only,3031
onto,3032
ontop,3033
onwards,3034
onyl,3035
oo,3036
ooh,3037
oooer,3038
oooh,3039
oooooh,3040
ooops,3041
oops,3042
op,3043
open,3044
opened,3045
opening,3046
operating,3047
opinion,3048
opportunity,3049
opporutunities,3050
opposed,3051
opposite,3052
opposition,3053
opted,3054
optimistic,3055
option,3056
options,3057
or,3058
orange,3059
order,3060
ordered,3061
org,3062
organisation,3063
organise,3064
organizing,3065
orient,3066
original,3067
orthotic,3068
osd,3069
osmotherley,3070
osteo,3071
ot,3072
other,3073
others,3074
otherwise,3075
ouch,3076
our,3077
ours,3078
ourselves,3079
out,3080
outbreak,3081
outfit,3082
outing,3083
outlet,3084
outlook,3085
outside,3086
outstanding,3087
ovaltine,3088
ovder,3089
over,3090
overall,3091
overdo,3092
overdone,3093
overhead,3094
overhearing,3095
overstretched,3096
overtake,3097
overtaken,3098
overtired,3099
overtook,3100
overtrained,3101
owe,3102
owing,3103
own,3104
owner,3105
ox,3106
oxford,3107
ozy,3108
ozzy,3109
pace,3110
paced,3111
pacemaker,3112
pacer,3113
pacers,3114
paces,3115
pacing,3116
pack,3117
packed,3118
packs,3119
padams,3120
paddington,3121
paddock,3122
page,3123
pages,3124
paid,3125
pain,3126
painful,3127
painfull,3128
painless,3129
pains,3130
paint,3131
painting,3132
pair,3133
pairs,3134
paltry,3135
panic,3136
panties,3137
paper,3138
paranoid,3139
parentcraft,3140
paris,3141
park,3142
parking,3143
parks,3144
parly,3145
parseddigits,3146
parseddigitsish,3147
parseddigitsk,3148
parseddigitsm,3149
parseddigitsmi,3150
parseddigitsmiles,3151
parseddigitsmph,3152
parseddigitsth,3153
parsedfivedigits,3154
parsedfourdigits,3155
parsedfourdigitsm,3156
parsedonedigit,3157
parsedonedigitam,3158
parsedonedigiter,3159
parsedonedigites,3160
parsedonedigitft,3161
parsedonedigitgram,3162
parsedonedigith,3163
parsedonedigithparsedtwodigits,3164
parsedonedigithr,3165
parsedonedigithrs,3166
parsedonedigitish,3167
parsedonedigitk,3168
parsedonedigitkm,3169
parsedonedigitlb,3170
parsedonedigitlbs,3171
parsedonedigitm,3172
parsedonedigitmin,3173
parsedonedigitmins,3174
parsedonedigitmm,3175
parsedonedigitmms,3176
parsedonedigitmph,3177
parsedonedigitn,3178
parsedonedigitnd,3179
parsedonedigitpm,3180
parsedonedigitrd,3181
parsedonedigitsecs,3182
parsedonedigitst,3183
parsedonedigitth,3184
parsedonedigitx,3185
parsedsixdigits,3186
parsedthreedigits,3187
parsedthreedigitsbpm,3188
parsedthreedigitsm,3189
parsedthreedigitsml,3190
parsedthreedigitss,3191
parsedthreedigitsyards,3192
parsedtime,3193
parsedtwodigits,3194
parsedtwodigitsam,3195
parsedtwodigitshrs,3196
parsedtwodigitsish,3197
parsedtwodigitsk,3198
parsedtwodigitskb,3199
parsedtwodigitskm,3200
parsedtwodigitsks,3201
parsedtwodigitslbs,3202
parsedtwodigitsm,3203
parsedtwodigitsmi,3204
parsedtwodigitsmile,3205
parsedtwodigitsmiler,3206
parsedtwodigitsmiles,3207
parsedtwodigitsmin,3208
parsedtwodigitsmins,3209
parsedtwodigitsmm,3210
parsedtwodigitsmnths,3211
parsedtwodigitsmparseddigitss,3212
parsedtwodigitsmpw,3213
parsedtwodigitsp,3214
parsedtwodigitspm,3215
parsedtwodigitsrd,3216
parsedtwodigitss,3217
parsedtwodigitssecs,3218
parsedtwodigitsst,3219
parsedtwodigitsth,3220
parsedtwodigitsxparsedthreedigits,3221
part,3222
partial,3223
participants,3224
particular,3225
particularly,3226
partly,3227
partner,3228
parts,3229
party,3230
passed,3231
passing,3232
past,3233
pasta,3234
paste,3235
pat,3236
patch,3237
path,3238
pathetic,3239
paths,3240
paul,3241
paula,3242
pavement,3243
pavements,3244
pavey,3245
paving,3246
pay,3247
paying,3248
payment,3249
payments,3250
pb,3251
pbs,3252
pc,3253
peak,3254
peaked,3255
peaks,3256
peaky,3257
peanut,3258
pearce,3259
peeekay,3260
peel,3261
peeled,3262
peeps,3263
peev,3264
pelt,3265
pen,3266
pengiun,3267
penny,3268
penquin,3269
pens,3270
people,3271
pepe,3272
per,3273
perceived,3274
perfect,3275
perfection,3276
perfectly,3277
performance,3278
performances,3279
perhaps,3280
period,3281
permanent,3282
permitting,3283
person,3284
personally,3285
perspective,3286
persuade,3287
perusing,3288
peter,3289
petrol,3290
pets,3291
pf,3292
pfitzinger,3293
ph,3294
phal,3295
phase,3296
phenomenal,3297
phew,3298
phil,3299
philpub,3300
phoenix,3301
phone,3302
phoned,3303
photo,3304
photos,3305
phsycological,3306
physical,3307
physically,3308
physio,3309
pick,3310
picked,3311
picking,3312
picnic,3313
pics,3314
picture,3315
pie,3316
piece,3317
pig,3318
pilates,3319
piles,3320
pilgrimage,3321
pills,3322
pimlico,3323
pinks,3324
pinpoint,3325
pints,3326
pip,3327
pit,3328
pitch,3329
pity,3330
pixels,3331
pizza,3332
pizzaman,3333
pj,3334
place,3335
placed,3336
places,3337
plan,3338
planned,3339
planning,3340
plans,3341
plasters,3342
plate,3343
plateau,3344
play,3345
played,3346
player,3347
players,3348
playing,3349
plays,3350
pleasant,3351
please,3352
pleased,3353
pleasing,3354
plenty,3355
plod,3356
plodder,3357
plodding,3358
plodette,3359
ploding,3360
plometrics,3361
plough,3362
plumetted,3363
plus,3364
plyometrics,3365
pm,3366
pmp,3367
podds,3368
podiatrist,3369
podretta,3370
point,3371
pointed,3372
pointing,3373
points,3374
poland,3375
polar,3376
police,3377
pollution,3378
poo,3379
pool,3380
poor,3381
poorly,3382
pop,3383
poparsedonedigit,3384
popped,3385
popping,3386
poppy,3387
pops,3388
popular,3389
populate,3390
porcus,3391
porridge,3392
port,3393
position,3394
positive,3395
poss,3396
possible,3397
possibly,3398
post,3399
posted,3400
posting,3401
postings,3402
posts,3403
potential,3404
potentially,3405
pound,3406
pounding,3407
pounds,3408
pouring,3409
poxy,3410
pp,3411
pparsedthreedigits,3412
ppb,3413
practical,3414
practise,3415
prague,3416
pram,3417
pray,3418
prayers,3419
pre,3420
precedents,3421
precisions,3422
predicitons,3423
predict,3424
predicted,3425
predicting,3426
prediction,3427
prefer,3428
preferably,3429
preferring,3430
premises,3431
prep,3432
preparation,3433
prepare,3434
prepared,3435
preregister,3436
present,3437
pressure,3438
presumably,3439
pretend,3440
pretty,3441
prevent,3442
previous,3443
previously,3444
price,3445
priceless,3446
pricy,3447
primarily,3448
primrose,3449
princess,3450
principle,3451
principles,3452
pringles,3453
printed,3454
priorities,3455
priority,3456
private,3457
prize,3458
prizes,3459
prob,3460
probably,3461
problem,3462
problems,3463
proceeds,3464
process,3465
productive,3466
profile,3467
profiting,3468
prog,3469
progress,3470
progressed,3471
progressive,3472
progressivly,3473
prohibition,3474
projecting,3475
prolonging,3476
promise,3477
promptly,3478
proof,3479
proper,3480
properly,3481
prospect,3482
proud,3483
pround,3484
prove,3485
provide,3486
providing,3487
provision,3488
provisional,3489
ps,3490
pseudo,3491
psi,3492
pub,3493
public,3494
puff,3495
puffy,3496
pug,3497
pugs,3498
pulled,3499
puma,3500
pun,3501
punching,3502
punishment,3503
purchased,3504
purely,3505
purpose,3506
purposes,3507
push,3508
pusher,3509
pushes,3510
pushing,3511
put,3512
puts,3513
putting,3514
pw,3515
qparsedonedigit,3516
qq,3517
quacks,3518
quad,3519
quads,3520
qualified,3521
qualify,3522
qualifying,3523
quality,3524
quarter,3525
quentin,3526
query,3527
question,3528
questions,3529
queue,3530
queueing,3531
queues,3532
quick,3533
quicker,3534
quickle,3535
quickly,3536
quid,3537
quids,3538
quiet,3539
quietly,3540
quite,3541
rabbit,3542
race,3543
raced,3544
racers,3545
races,3546
rach,3547
racing,3548
rackstraw,3549
railway,3550
rain,3551
raining,3552
rainy,3553
raise,3554
raised,3555
raising,3556
raks,3557
ramble,3558
rambling,3559
ramp,3560
ran,3561
range,3562
rapists,3563
rare,3564
rarity,3565
rat,3566
rate,3567
rated,3568
rather,3569
rattle,3570
ravenscourt,3571
rb,3572
rbs,3573
re,3574
reach,3575
reached,3576
reaching,3577
reaction,3578
read,3579
reading,3580
readings,3581
reads,3582
ready,3583
real,3584
realise,3585
realised,3586
realising,3587
realistically,3588
reality,3589
reall,3590
really,3591
rear,3592
rearly,3593
reason,3594
reasonably,3595
reasons,3596
rec,3597
recall,3598
recce,3599
receive,3600
received,3601
recent,3602
recently,3603
reckon,3604
reckoned,3605
recognise,3606
recommend,3607
recommended,3608
record,3609
records,3610
recorn,3611
recount,3612
recoup,3613
recover,3614
recovered,3615
recoveries,3616
recovering,3617
recovery,3618
recreational,3619
recuperate,3620
red,3621
reds,3622
reduce,3623
reduced,3624
reduces,3625
reducing,3626
reentering,3627
refered,3628
refereeing,3629
reflect,3630
reflective,3631
refreshed,3632
refueling,3633
refuelling,3634
regarding,3635
regardless,3636
regards,3637
regents,3638
regimen,3639
register,3640
registered,3641
registration,3642
regretted,3643
regroup,3644
regular,3645
rehearse,3646
rehydrate,3647
rehydrtaion,3648
reins,3649
rejected,3650
rejection,3651
rejections,3652
relates,3653
relative,3654
relatives,3655
relax,3656
relaxed,3657
relaxing,3658
relay,3659
relays,3660
relect,3661
relents,3662
relief,3663
religious,3664
relying,3665
remain,3666
remaining,3667
remains,3668
remarkable,3669
remedial,3670
remedy,3671
remember,3672
reminding,3673
reminds,3674
removed,3675
removing,3676
rep,3677
repair,3678
repaired,3679
repeated,3680
replace,3681
replacement,3682
replied,3683
replies,3684
reply,3685
replys,3686
report,3687
reports,3688
reps,3689
requesting,3690
require,3691
required,3692
research,3693
resembled,3694
reserved,3695
resident,3696
resiliency,3697
resistance,3698
respect,3699
responded,3700
responses,3701
responsibility,3702
rest,3703
rested,3704
restless,3705
result,3706
results,3707
resume,3708
retain,3709
retirement,3710
return,3711
returned,3712
revelation,3713
revenge,3714
revised,3715
reward,3716
rewarded,3717
rf,3718
rfg,3719
rfj,3720
rfl,3721
rhayader,3722
rhm,3723
rice,3724
rich,3725
richard,3726
richmond,3727
rick,3728
rid,3729
ride,3730
rides,3731
ridiculous,3732
riding,3733
rife,3734
right,3735
rightly,3736
rigorously,3737
ring,3738
ringing,3739
rings,3740
rink,3741
rio,3742
rioja,3743
risk,3744
rival,3745
rivals,3746
river,3747
riza,3748
rk,3749
rm,3750
road,3751
roads,3752
rob,3753
robin,3754
robinsonesque,3755
rochelle,3756
rocket,3757
rocking,3758
rocks,3759
roger,3760
roll,3761
rollick,3762
roma,3763
romantic,3764
ronnie,3765
roo,3766
roobarb,3767
roobarbs,3768
roobs,3769
room,3770
rooms,3771
rooting,3772
rossendale,3773
rotation,3774
rotterdam,3775
rough,3776
roughly,3777
round,3778
roundhay,3779
route,3780
routes,3781
rover,3782
row,3783
rowan,3784
rowing,3785
roz,3786
rub,3787
rubber,3788
rubbish,3789
ruby,3790
rue,3791
rugby,3792
ruined,3793
ruining,3794
ruislip,3795
rule,3796
rules,3797
rumbletum,3798
run,3799
runlikethewind,3800
runner,3801
runners,3802
running,3803
runny,3804
runs,3805
ruscr,3806
rush,3807
rushing,3808
rw,3809
rwc,3810
rythym,3811
sad,3812
saddle,3813
sadly,3814
safc,3815
safe,3816
safety,3817
said,3818
sailed,3819
sailing,3820
sainsbury,3821
sainsburys,3822
salad,3823
salt,3824
samba,3825
same,3826
sammy,3827
samples,3828
sandra,3829
sandstorms,3830
sandwich,3831
sandwiches,3832
sanis,3833
sanps,3834
sant,3835
santa,3836
sapping,3837
saqib,3838
sarah,3839
sarus,3840
sat,3841
satisfied,3842
saturday,3843
saturdays,3844
sauce,3845
savage,3846
saving,3847
saw,3848
say,3849
saying,3850
says,3851
sb,3852
sbf,3853
sc,3854
scale,3855
scare,3856
scared,3857
scarf,3858
scarily,3859
scary,3860
scene,3861
scenery,3862
schedule,3863
schedules,3864
scheme,3865
schiphol,3866
school,3867
sciatica,3868
score,3869
scorpions,3870
scotland,3871
scott,3872
screen,3873
screwed,3874
scrubs,3875
scrumptious,3876
sdi,3877
sea,3878
searching,3879
season,3880
seasons,3881
seat,3882
second,3883
secondary,3884
secondly,3885
seconds,3886
secs,3887
section,3888
sections,3889
securing,3890
see,3891
seeing,3892
seeking,3893
seem,3894
seemed,3895
seemingly,3896
seems,3897
seen,3898
seize,3899
selbs,3900
selby,3901
self,3902
sell,3903
semi,3904
semis,3905
send,3906
sending,3907
sense,3908
sensibility,3909
sensible,3910
sensitive,3911
sent,3912
separate,3913
sept,3914
september,3915
seren,3916
serious,3917
seriously,3918
service,3919
serviced,3920
sesamoid,3921
session,3922
sessions,3923
set,3924
sets,3925
settings,3926
settle,3927
settled,3928
seven,3929
several,3930
severe,3931
sewerby,3932
sezz,3933
sf,3934
shades,3935
shall,3936
shame,3937
shape,3938
share,3939
sharp,3940
sharpener,3941
sharpeners,3942
sharper,3943
sharply,3944
she,3945
sheep,3946
sheet,3947
shelter,3948
shields,3949
shift,3950
shifting,3951
shimmied,3952
shimms,3953
shimmy,3954
shin,3955
shins,3956
shiny,3957
shiraz,3958
shirl,3959
shirt,3960
shirts,3961
sho,3962
shocker,3963
shocking,3964
shoe,3965
shoes,3966
shona,3967
shoot,3968
shooting,3969
shop,3970
shopkeeper,3971
shopping,3972
shops,3973
short,3974
shorter,3975
shortly,3976
shorts,3977
shotokn,3978
shoukld,3979
should,3980
shoulder,3981
shoulders,3982
shouldn,3983
shout,3984
show,3985
showboat,3986
showed,3987
shower,3988
showered,3989
showerstuff,3990
shows,3991
shparsedonedigitte,3992
shuffled,3993
shuffler,3994
shy,3995
si,3996
sick,3997
side,3998
sign,3999
signals,4000
signed,4001
significant,4002
signing,4003
silence,4004
sill,4005
silly,4006
silver,4007
silverstone,4008
similar,4009
similarity,4010
simon,4011
simple,4012
simply,4013
since,4014
singapore,4015
single,4016
sink,4017
sir,4018
sis,4019
sister,4020
sit,4021
site,4022
sitting,4023
situated,4024
six,4025
size,4026
sized,4027
skating,4028
skidding,4029
skills,4030
skin,4031
skinny,4032
skip,4033
skipper,4034
skirt,4035
sky,4036
skye,4037
slacker,4038
slaps,4039
sleep,4040
sleeping,4041
sleepless,4042
sleepy,4043
sleet,4044
sleeve,4045
slept,4046
slight,4047
slightly,4048
slighty,4049
slimboyslim,4050
slipped,4051
sloping,4052
sloth,4053
slow,4054
slowed,4055
slowely,4056
slower,4057
slowest,4058
slowly,4059
small,4060
smaller,4061
smarter,4062
smell,4063
smelling,4064
smiffie,4065
smile,4066
smilin,4067
smiling,4068
smith,4069
smoke,4070
smoothie,4071
snail,4072
snakes,4073
sneak,4074
sneaking,4075
sneeky,4076
sniffles,4077
snifter,4078
snooze,4079
snow,4080
so,4081
soaked,4082
soapbox,4083
social,4084
sock,4085
socks,4086
sod,4087
sods,4088
sofa,4089
soft,4090
softener,4091
solely,4092
some,4093
somebody,4094
somehow,4095
someone,4096
somerset,4097
somethin,4098
something,4099
sometime,4100
sometimes,4101
somewhat,4102
somewhere,4103
son,4104
sons,4105
soon,4106
sooooo,4107
sooooooooo,4108
sorbothane,4109
sore,4110
soreness,4111
sores,4112
sorry,4113
sort,4114
sorted,4115
sound,4116
sounded,4117
sounds,4118
source,4119
south,4120
southerns,4121
sox,4122
spannerbparsedonedigittchbumfface,4123
spans,4124
spare,4125
spasming,4126
speak,4127
speaking,4128
special,4129
spectactularly,4130
spectacularly,4131
spectate,4132
spectating,4133
speed,4134
speediest,4135
speedwork,4136
speedy,4137
spelling,4138
spend,4139
spending,4140
spent,4141
spied,4142
spikes,4143
spill,4144
splash,4145
split,4146
splits,4147
spoke,4148
spoken,4149
sponsor,4150
sponsored,4151
sponsorship,4152
spoon,4153
sport,4154
sporting,4155
sportive,4156
sports,4157
spose,4158
spot,4159
spotted,4160
spray,4161
spread,4162
sprightly,4163
spring,4164
springbok,4165
sprint,4166
sprinted,4167
sprinting,4168
sprints,4169
sprouts,4170
spur,4171
spurs,4172
sq,4173
squad,4174
squash,4175
squeak,4176
squint,4177
ss,4178
ssing,4179
sswfw,4180
st,4181
stability,4182
stacks,4183
stadium,4184
staff,4185
stage,4186
stages,4187
stain,4188
stairs,4189
stalls,4190
stamina,4191
stamped,4192
stand,4193
standard,4194
standards,4195
standing,4196
stands,4197
star,4198
stare,4199
starp,4200
start,4201
started,4202
starting,4203
starts,4204
state,4205
statement,4206
statements,4207
static,4208
stating,4209
station,4210
stations,4211
statistics,4212
stats,4213
status,4214
stay,4215
stayed,4216
staying,4217
stays,4218
steadily,4219
steady,4220
steak,4221
steam,4222
steaming,4223
steep,4224
step,4225
stephen,4226
stepped,4227
steve,4228
stevi,4229
stick,4230
sticking,4231
stickless,4232
sticks,4233
sticky,4234
stiff,4235
stiffer,4236
stiffness,4237
still,4238
stinking,4239
stint,4240
stipulates,4241
stir,4242
stocks,4243
stoke,4244
stoker,4245
stomach,4246
stone,4247
stonking,4248
stop,4249
stoped,4250
stopped,4251
stopping,4252
stoppit,4253
stops,4254
stopwatch,4255
stored,4256
stores,4257
stories,4258
stormed,4259
storms,4260
story,4261
stourbridge,4262
straigh,4263
straight,4264
strain,4265
strange,4266
strategies,4267
strategy,4268
stratford,4269
streaks,4270
street,4271
streetlights,4272
strength,4273
strengthen,4274
stress,4275
stretch,4276
stretched,4277
stretches,4278
stretching,4279
strictly,4280
strides,4281
strips,4282
stroke,4283
strong,4284
stronger,4285
strongly,4286
structure,4287
struggle,4288
struggled,4289
struggling,4290
stubs,4291
stuck,4292
stuff,4293
stupid,4294
style,4295
stylish,4296
sub,4297
subconcious,4298
subconsciously,4299
subject,4300
subjects,4301
submerging,4302
subscriber,4303
substituted,4304
success,4305
successful,4306
such,4307
suck,4308
sucker,4309
suddenly,4310
sue,4311
suffer,4312
sufferers,4313
suffice,4314
suffolk,4315
suggest,4316
suggested,4317
suggesting,4318
suggestion,4319
suggestions,4320
suit,4321
suited,4322
suits,4323
sulk,4324
sullivan,4325
summary,4326
summer,4327
sun,4328
sunday,4329
sundays,4330
sunderland,4331
sunny,4332
super,4333
superdebbo,4334
supernova,4335
suposed,4336
supple,4337
supplements,4338
supply,4339
support,4340
supporter,4341
supporters,4342
supporting,4343
suppose,4344
supposed,4345
supposedly,4346
supreme,4347
sure,4348
surely,4349
surface,4350
surfaces,4351
surges,4352
surprise,4353
surprised,4354
surprisingly,4355
surrounding,4356
survive,4357
survived,4358
surviving,4359
susan,4360
susie,4361
susiebee,4362
suspect,4363
suspicious,4364
sussex,4365
sustinence,4366
sutts,4367
sw,4368
swallow,4369
swam,4370
swanny,4371
sweary,4372
sweat,4373
sweating,4374
sweaty,4375
swedwr,4376
sweep,4377
sweet,4378
sweeter,4379
sweetest,4380
sweets,4381
swerve,4382
swift,4383
swim,4384
swimming,4385
swims,4386
swin,4387
switch,4388
switching,4389
swparsedtwodigits,4390
sydney,4391
sympathize,4392
sympathy,4393
symptoms,4394
system,4395
table,4396
tablets,4397
tackling,4398
tactics,4399
tad,4400
tails,4401
take,4402
takeaway,4403
taken,4404
takes,4405
taking,4406
talent,4407
tales,4408
talk,4409
talking,4410
tall,4411
tallbird,4412
taller,4413
tallguy,4414
tamworth,4415
tank,4416
tape,4417
taper,4418
tapering,4419
target,4420
targeted,4421
targets,4422
tarkers,4423
tarmac,4424
tarpaulin,4425
task,4426
tasks,4427
taste,4428
tauts,4429
tavern,4430
taxes,4431
taxi,4432
taz,4433
tb,4434
tea,4435
teacher,4436
team,4437
teams,4438
technical,4439
teenage,4440
teeshirt,4441
teeth,4442
teh,4443
telephone,4444
tell,4445
telling,4446
tells,4447
telly,4448
temp,4449
temperatures,4450
temperorary,4451
tempo,4452
temporary,4453
tempted,4454
tempting,4455
tend,4456
tended,4457
tendency,4458
tender,4459
tendonitis,4460
tendonosis,4461
tennis,4462
tens,4463
tension,4464
tent,4465
tergat,4466
term,4467
terms,4468
test,4469
testicles,4470
testing,4471
tests,4472
text,4473
tf,4474
tfparsedonedigit,4475
thames,4476
than,4477
thanet,4478
thank,4479
thankful,4480
thankfully,4481
thanks,4482
thansk,4483
that,4484
thats,4485
the,4486
theatre,4487
their,4488
them,4489
themall,4490
themarathon,4491
themselves,4492
then,4493
theory,4494
therapist,4495
there,4496
thereabouts,4497
therefore,4498
theres,4499
thermals,4500
these,4501
they,4502
thigh,4503
thighs,4504
thing,4505
things,4506
think,4507
thinking,4508
thinks,4509
thinning,4510
third,4511
this,4512
thistle,4513
tho,4514
thomas,4515
thoroughly,4516
those,4517
thou,4518
though,4519
thought,4520
thoughts,4521
thread,4522
threads,4523
three,4524
threshold,4525
throbb,4526
through,4527
throughout,4528
throw,4529
throwaway,4530
throwing,4531
thrown,4532
thru,4533
thurs,4534
thursday,4535
thus,4536
tibial,4537
tick,4538
ticker,4539
tickets,4540
ticking,4541
tied,4542
tight,4543
tighten,4544
tightness,4545
tights,4546
til,4547
till,4548
tillyp,4549
tim,4550
time,4551
timely,4552
times,4553
timex,4554
timing,4555
tin,4556
tinge,4557
tinkerbelle,4558
tinribs,4559
tiny,4560
tip,4561
tipptop,4562
tips,4563
tired,4564
tiredness,4565
tissue,4566
tl,4567
tm,4568
tmap,4569
tmr,4570
to,4571
toasty,4572
today,4573
toddies,4574
toe,4575
toenail,4576
toenails,4577
toes,4578
together,4579
toilet,4580
toilets,4581
told,4582
tolerance,4583
tom,4584
tommorow,4585
tommorrow,4586
tomorrow,4587
tonight,4588
tonk,4589
tony,4590
too,4591
took,4592
toooo,4593
tooooo,4594
tootie,4595
tooting,4596
tootling,4597
top,4598
topics,4599
topped,4600
topping,4601
tops,4602
topsec,4603
torn,4604
tortoiseparsedtwodigits,4605
total,4606
totally,4607
totm,4608
tottenham,4609
tottering,4610
touch,4611
tough,4612
toughener,4613
toughest,4614
toulouse,4615
tourism,4616
towards,4617
towars,4618
towells,4619
tower,4620
town,4621
towners,4622
toyed,4623
tr,4624
tracey,4625
track,4626
tracking,4627
trafalgar,4628
traffic,4629
trail,4630
trailplus,4631
trails,4632
train,4633
trained,4634
trainers,4635
trainign,4636
training,4637
trains,4638
traning,4639
transport,4640
travel,4641
travelling,4642
travis,4643
treading,4644
treadmill,4645
treadmills,4646
tready,4647
treat,4648
treated,4649
treatment,4650
treddie,4651
treddy,4652
trees,4653
trendy,4654
trg,4655
tri,4656
trial,4657
triathlon,4658
triathlons,4659
trick,4660
tricks,4661
tricky,4662
tried,4663
tries,4664
trimpell,4665
trin,4666
trinity,4667
trip,4668
triple,4669
tripped,4670
trochanter,4671
trollers,4672
trophy,4673
trot,4674
trouble,4675
troubled,4676
trouty,4677
trucking,4678
true,4679
truely,4680
truleigh,4681
truly,4682
trumpets,4683
trunk,4684
trust,4685
truthful,4686
try,4687
trying,4688
ts,4689
tsb,4690
tt,4691
ttt,4692
tu,4693
tub,4694
tubby,4695
tube,4696
tues,4697
tuesday,4698
tumbridge,4699
tuning,4700
tunturi,4701
turbo,4702
turkey,4703
turn,4704
turned,4705
turning,4706
turnout,4707
turns,4708
tutu,4709
tv,4710
tw,4711
twelve,4712
twice,4713
twist,4714
twixt,4715
two,4716
type,4717
typical,4718
typically,4719
typo,4720
tyres,4721
uess,4722
ufrc,4723
uk,4724
ukathletics,4725
ultra,4726
ultrasound,4727
um,4728
umb,4729
umbongo,4730
unacceptable,4731
unbearable,4732
unchanged,4733
uncle,4734
uncomfortable,4735
under,4736
understand,4737
understandable,4738
understatements,4739
understood,4740
underwear,4741
undeserving,4742
undulating,4743
uneven,4744
unexpectly,4745
unfinished,4746
unfortunately,4747
unhappy,4748
unimpressed,4749
unique,4750
unit,4751
united,4752
unknown,4753
unless,4754
unlike,4755
unlikely,4756
unlucky,4757
unmbrella,4758
unrealistic,4759
unreliable,4760
unsuccessful,4761
unsure,4762
unsurprising,4763
until,4764
unto,4765
untrue,4766
up,4767
update,4768
updated,4769
updates,4770
updating,4771
uphill,4772
upon,4773
upped,4774
upright,4775
ups,4776
upset,4777
upwards,4778
urban,4779
ure,4780
url,4781
urwfrc,4782
us,4783
use,4784
used,4785
useful,4786
using,4787
usual,4788
usually,4789
ususally,4790
vale,4791
valentine,4792
value,4793
valuxian,4794
valve,4795
vanished,4796
varies,4797
various,4798
vaseline,4799
vb,4800
ve,4801
vegetarians,4802
veggies,4803
vengeance,4804
venom,4805
venomous,4806
ventured,4807
venue,4808
verdict,4809
verge,4810
versus,4811
very,4812
vest,4813
vet,4814
veteran,4815
veyr,4816
vflm,4817
via,4818
victory,4819
video,4820
vienna,4821
view,4822
viffer,4823
villager,4824
viola,4825
virgin,4826
virtual,4827
virus,4828
viruses,4829
visit,4830
visited,4831
visiting,4832
visits,4833
vital,4834
vitamin,4835
viz,4836
voice,4837
void,4838
volume,4839
vote,4840
voucher,4841
vrap,4842
vs,4843
wabo,4844
waddling,4845
wafting,4846
wages,4847
wagon,4848
wahey,4849
waht,4850
wait,4851
waiting,4852
wake,4853
waking,4854
waldorf,4855
wales,4856
walk,4857
walked,4858
walking,4859
walks,4860
wall,4861
wandering,4862
wanders,4863
wanna,4864
want,4865
wanted,4866
wanting,4867
wants,4868
ward,4869
wardi,4870
warm,4871
warmed,4872
warmer,4873
warming,4874
warning,4875
warrior,4876
wars,4877
was,4878
wasn,4879
wasps,4880
wasted,4881
wasting,4882
watch,4883
watched,4884
watches,4885
watching,4886
water,4887
watered,4888
waterloo,4889
waters,4890
waterstop,4891
watford,4892
wating,4893
waves,4894
waving,4895
way,4896
ways,4897
wc,4898
we,4899
weak,4900
weakness,4901
wealth,4902
wear,4903
wearing,4904
weather,4905
web,4906
website,4907
wed,4908
wedding,4909
wednesday,4910
weds,4911
wee,4912
week,4913
weekday,4914
weekend,4915
weekends,4916
weekly,4917
weeknights,4918
weeks,4919
weeman,4920
weetabix,4921
weigh,4922
weighs,4923
weight,4924
weird,4925
welcombe,4926
welcome,4927
welcomes,4928
well,4929
wellie,4930
wells,4931
wembley,4932
went,4933
were,4934
weren,4935
west,4936
westminster,4937
wet,4938
wetsuit,4939
wey,4940
what,4941
whatever,4942
whats,4943
whatsoever,4944
wheelchair,4945
wheldrake,4946
when,4947
whenever,4948
where,4949
whereabouts,4950
whereas,4951
wherever,4952
whether,4953
which,4954
while,4955
whiled,4956
whilst,4957
whisky,4958
whitby,4959
white,4960
who,4961
whole,4962
whopping,4963
whose,4964
whow,4965
why,4966
wi,4967
wicked,4968
wicking,4969
wider,4970
wife,4971
wifes,4972
wiff,4973
wilde,4974
will,4975
willy,4976
wilton,4977
wimbledon,4978
wimped,4979
win,4980
wincanton,4981
wind,4982
windermere,4983
window,4984
windows,4985
windsor,4986
windsurfing,4987
windy,4988
wine,4989
wings,4990
winner,4991
winning,4992
wins,4993
winter,4994
wintery,4995
wiped,4996
wise,4997
wish,4998
wished,4999
wishes,5000
wishful,5001
wit,5002
witch,5003
with,5004
within,5005
without,5006
wixey,5007
wobbly,5008
woke,5009
woking,5010
wokingham,5011
woman,5012
womble,5013
women,5014
won,5015
wonder,5016
wondered,5017
wonderful,5018
wondering,5019
wonders,5020
wont,5021
wood,5022
wooden,5023
woods,5024
woodwork,5025
woohoo,5026
wooing,5027
woony,5028
worcester,5029
word,5030
words,5031
wore,5032
work,5033
worked,5034
working,5035
workload,5036
workout,5037
workouts,5038
works,5039
world,5040
worldpay,5041
worms,5042
wormwood,5043
worried,5044
worries,5045
worry,5046
worrying,5047
worse,5048
worsened,5049
worst,5050
worth,5051
worthwhile,5052
wotsit,5053
would,5054
wouldn,5055
wound,5056
wow,5057
wp,5058
wrecked,5059
wristwatch,5060
write,5061
writing,5062
written,5063
wrong,5064
wrote,5065
ws,5066
wt,5067
wtf,5068
wtgy,5069
ww,5070
www,5071
wylls,5072
xc,5073
xfr,5074
xmas,5075
xparsedonedigit,5076
xpost,5077
xtrrea,5078
xv,5079
xx,5080
ya,5081
yachts,5082
yah,5083
yards,5084
yateley,5085
yay,5086
yeah,5087
year,5088
yeara,5089
years,5090
yeh,5091
yellow,5092
yep,5093
yer,5094
yes,5095
yesterday,5096
yesterdays,5097
yet,5098
yeterdays,5099
yikes,5100
yipee,5101
yippeee,5102
yoghurts,5103
yogs,5104
yomping,5105
york,5106
yorks,5107
you,5108
youll,5109
younger,5110
your,5111
youre,5112
yours,5113
yourself,5114
yourselves,5115
youself,5116
youth,5117
youths,5118
yr,5119
yrs,5120
yu,5121
yuk,5122
yum,5123
ywould,5124
zimchick,5125
zimmers,5126
zinc,5127
zip,5128
zone,5129
zzzzs,5130
