__parsedonedigit,0
abortion,1
about,2
absolutely,3
accannis,4
access,5
accident,6
according,7
aching,8
acia,9
actually,10
ad,11
adam,12
addiction,13
addictive,14
adidas,15
administration,16
adobe,17
ads,18
advice,19
africa,20
after,21
afternoon,22
again,23
ago,24
ah,25
aha,26
ahead,27
ahh,28
ahhgot,29
ahhh,30
aig,31
ain,32
al,33
ala,34
all,35
allen,36
almost,37
alone,38
alpha,39
already,40
also,41
although,42
alto,43
always,44
am,45
amandabittner,46
amazing,47
amazon,48
ambcharlesfield,49
american,50
amount,51
amp,52
amphitheatre,53
ampr,54
ampt,55
an,56
and,57
android,58
angry,59
animations,60
annamartinparsedthreedigits,61
announcement,62
annoying,63
another,64
answers,65
anti,66
any,67
anymore,68
anyone,69
anything,70
anyways,71
apart,72
apartment,73
apatow,74
api,75
apologies,76
app,77
appear,78
apple,79
applied,80
appreciate,81
apps,82
appt,83
are,84
aren,85
arg,86
argghhhh,87
arhh,88
around,89
arrival,90
arrrgh,91
article,92
aruj,93
as,94
asherroth,95
asked,96
ass,97
asses,98
assesment,99
assholes,100
at,101
atebits,102
athlete,103
atil,104
att,105
audiobook,106
available,107
avoided,108
awaiting,109
award,110
away,111
awesome,112
aww,113
back,114
bad,115
bags,116
bailout,117
ball,118
ballcom,119
balls,120
banana,121
bank,122
bankruptcy,123
barack,124
barbara,125
basketball,126
bastards,127
bathroom,128
bay,129
bayes,130
bball,131
be,132
beast,133
beautiful,134
became,135
because,136
bedroom,137
been,138
before,139
being,140
believe,141
best,142
beta,143
better,144
beyond,145
bflay,146
big,147
bike,148
bill,149
billions,150
bing,151
bio,152
bipart,153
bit,154
bitch,155
bitin,156
bitly,157
bitten,158
bitter,159
biz,160
blah,161
blech,162
blink,163
blknpreciousparsedonedigit,164
blocked,165
blondebroad,166
blood,167
bloomingdale,168
blow,169
blows,170
board,171
boarding,172
bob,173
bobby,174
bonjour,175
bonuses,176
book,177
books,178
boortz,179
booz,180
bored,181
boring,182
boss,183
bought,184
boyle,185
bparsedtwodigitspx,186
brand,187
break,188
breakers,189
bringing,190
brings,191
broken,192
broskiii,193
browser,194
bt,195
btw,196
bud,197
buffering,198
buffet,199
bug,200
buildin,201
bullshit,202
bummer,203
bumming,204
bunch,205
burger,206
burn,207
burning,208
bush,209
but,210
butt,211
buy,212
buzz,213
buzzupcom,214
by,215
bye,216
cable,217
calculus,218
call,219
calling,220
calls,221
campaign,222
can,223
cannot,224
canon,225
cant,226
car,227
card,228
cars,229
cartons,230
case,231
caseymercier,232
cash,233
cast,234
catch,235
cause,236
causin,237
cavs,238
cbs,239
cease,240
cell,241
changed,242
changing,243
channels,244
character,245
charade,246
charity,247
chart,248
cheap,249
cheaper,250
cheering,251
cheney,252
childs,253
china,254
chrysler,255
church,256
citi,257
civil,258
ck,259
cking,260
clashmore,261
class,262
classification,263
client,264
cligs,265
clinton,266
close,267
closer,268
club,269
coca,270
code,271
cola,272
cold,273
colin,274
collaboration,275
collapse,276
college,277
comcast,278
come,279
comes,280
coming,281
commencement,282
commercial,283
commercials,284
commerical,285
compared,286
complaining,287
complete,288
computer,289
concord,290
conducted,291
conference,292
connection,293
connections,294
consequences,295
conservatism,296
contact,297
contactsdoes,298
continual,299
cook,300
cookbook,301
cool,302
correspondents,303
could,304
couldn,305
country,306
course,307
cox,308
cparsedonedigithpp,309
cracka,310
crap,311
crappy,312
crashing,313
crazy,314
create,315
created,316
creates,317
criticalpath,318
crlane,319
crush,320
csparsedonedigit,321
culprits,322
cunt,323
cup,324
curses,325
curve,326
customer,327
cut,328
cute,329
cuz,330
cwongparsedtwodigits,331
dad,332
dame,333
damn,334
dan,335
danielpunkass,336
danny,337
dannygokey,338
date,339
dave,340
day,341
daybankrupt,342
days,343
dbroos,344
dead,345
deal,346
dear,347
dearest,348
debates,349
debt,350
decided,351
deep,352
default,353
definitely,354
defsounds,355
degrees,356
deleting,357
demos,358
dentist,359
dentistwho,360
designplay,361
desire,362
destroy,363
developer,364
device,365
devil,366
dick,367
did,368
didn,369
didnt,370
die,371
died,372
different,373
dime,374
dinner,375
dislike,376
dissapointed,377
division,378
djyq,379
dnc,380
do,381
docs,382
does,383
doesn,384
doing,385
dommm,386
don,387
done,388
dont,389
dood,390
doom,391
douchebaggery,392
down,393
downloading,394
dr,395
draw,396
drink,397
drive,398
drop,399
dropped,400
drove,401
dslreports,402
dude,403
dumber,404
dump,405
duo,406
dvr,407
dvyers,408
dwight,409
dx,410
dzmparsedonedigitt,411
ea,412
eagle,413
east,414
eat,415
economy,416
ed,417
editing,418
editor,419
edogparsedfourdigits,420
effects,421
effing,422
eggs,423
eh,424
ehfa,425
election,426
elkhorn,427
em,428
employees,429
empty,430
end,431
enjoy,432
enjoyable,433
enough,434
enuf,435
environment,436
epic,437
epkrparsedonedigitb,438
ereader,439
espn,440
espnjus,441
et,442
european,443
evelynbyrne,444
even,445
evening,446
ever,447
every,448
everyday,449
everyone,450
everything,451
evr,452
exam,453
excited,454
execs,455
expectations,456
expensive,457
experience,458
explain,459
explode,460
extra,461
eye,462
f__k,463
facebook,464
factory,465
fail,466
fair,467
faithbabywear,468
fake,469
fan,470
fantastic,471
far,472
fashion,473
fast,474
fav,475
favorite,476
federer,477
feel,478
feels,479
fest,480
festival,481
few,482
field,483
fieri,484
fifa,485
fighting,486
file,487
files,488
finally,489
finals,490
financial,491
find,492
finewhat,493
finished,494
firmly,495
first,496
five,497
fix,498
flay,499
flies,500
flight,501
flockofseagullsweregeopoliticallycorrect,502
flywire,503
fml,504
follow,505
font,506
food,507
for,508
forced,509
forever,510
fortune,511
forward,512
found,513
foxnews,514
fraggleparsedthreedigits,515
francisco,516
freakin,517
freaking,518
fredwilson,519
free,520
fricken,521
friday,522
friend,523
friggin,524
from,525
frustrating,526
fuck,527
fucked,528
fucker,529
fucking,530
fun,531
funfun,532
funny,533
furious,534
furkin,535
fuzz,536
fuzzball,537
fwixcom,538
game,539
gave,540
geldof,541
general,542
generate,543
generation,544
get,545
gets,546
getting,547
gift,548
girl,549
give,550
given,551
giving,552
glad,553
gladwell,554
gm,555
go,556
goddam,557
going,558
gokey,559
gonna,560
good,561
goodby,562
goodie,563
google,564
googleio,565
goooood,566
gop,567
got,568
gouged,569
government,570
govt,571
gparsedonedigit,572
gparsedonedigitruparsedonedigit,573
graduate,574
graphics,575
grateful,576
great,577
green,578
grr,579
gt,580
gt_,581
gta,582
guantanamo,583
guess,584
guessjust,585
guy,586
guys,587
hacking,588
had,589
haha,590
hahaha,591
half,592
hamilton,593
handout,594
happens,595
happy,596
harassed,597
hard,598
hardly,599
has,600
hate,601
hates,602
have,603
haven,604
having,605
hd,606
he,607
hear,608
heard,609
heck,610
hell,611
hello,612
helloleonie,613
help,614
helpful,615
hempz,616
her,617
here,618
hero,619
hey,620
hhrs,621
hi,622
hideous,623
high,624
higher,625
highlights,626
highly,627
hilariouslmao,628
hill,629
hills,630
him,631
himself,632
his,633
hitting,634
hmm,635
holders,636
holiday,637
home,638
homegrown,639
homepowell,640
hometown,641
honda,642
honor,643
hour,644
hours,645
house,646
how,647
howard,648
howdavidbeatsgoliath,649
hp,650
hr,651
html,652
htmlfiveappspotcom,653
http,654
hubby,655
huge,656
hurricane,657
hurts,658
hyzl,659
icecream,660
id,661
idea,662
idiot,663
idiots,664
idol,665
if,666
iheartseverus,667
ill,668
im,669
ima,670
impatiently,671
improvement,672
in,673
incredibly,674
indeed,675
india,676
indian,677
inevitable,678
infected,679
information,680
informative,681
inkscape,682
innovation,683
insane,684
insects,685
inside,686
install,687
instead,688
inter,689
interesting,690
internet,691
internets,692
into,693
invented,694
investing,695
investors,696
invite,697
ioparsedfourdigits,698
iphone,699
iran,700
irancraziness,701
iranelection,702
is,703
isgd,704
isn,705
it,706
itchy,707
its,708
itwill,709
jacked,710
james,711
jktweet,712
jlshack,713
join,714
jokes,715
jonduenas,716
jquery,717
jqueryspokenforjs,718
judd,719
junk,720
just,721
karizmakaze,722
karoli,723
karrisfoxy,724
katydids,725
kenburbary,726
kendra,727
kennedy,728
keynote,729
khalidparsedfourdigits,730
kick,731
kids,732
kill,733
kimblet,734
kinda,735
kindle,736
kindleparsedonedigit,737
kirstiealley,738
klunky,739
know,740
kobe,741
korea,742
kparsedonedigityk,743
kswedberg,744
ktmeq,745
lack,746
ladies,747
laker,748
lakers,749
lam,750
lambda,751
lambert,752
last,753
later,754
latex,755
lawnmowing,756
layoffs,757
le,758
lead,759
learning,760
lebron,761
lebronsh,762
led,763
lee,764
legalgeekery,765
lehman,766
less,767
let,768
lets,769
lewis,770
life,771
lifes,772
lift,773
like,774
liked,775
limit,776
limitations,777
line,778
link,779
linux,780
listening,781
literally,782
little,783
live,784
lived,785
ll,786
lmao,787
loan,788
lol,789
long,790
loo,791
look,792
looked,793
lookin,794
looking,795
looks,796
loooong,797
loooooooovvvvvveee,798
lost,799
lot,800
lots,801
louparsedthreedigits,802
love,803
loved,804
loves,805
lovin,806
loving,807
lparsedonedigitgy,808
lt,809
ltparsedonedigit,810
lucky,811
ludajuice,812
luke,813
lulswparsedonedigit,814
lyx,815
mac,816
made,817
mails,818
make,819
makes,820
making,821
malcolm,822
man,823
mandela,824
map,825
marchparsedtwodigits,826
market,827
marketing,828
marry,829
martinez,830
mashable,831
math,832
mathematics,833
matthewcyan,834
may,835
maybe,836
mbjthegreat,837
mcdonalds,838
me,839
meal,840
mean,841
means,842
meet,843
melo,844
memorial,845
mentioned,846
messenger,847
mets,848
michael,849
might,850
mikefish,851
military,852
milrockee,853
mine,854
mins,855
miserable,856
miss,857
mitzs,858
mkii,859
mlucparsedtwodigits,860
mmbarnhill,861
mmmkatz,862
mmmmmfamily,863
model,864
modems,865
monday,866
money,867
monkeys,868
monsta,869
month,870
months,871
montreal,872
more,873
morindparsedtwodigits,874
mosquito,875
most,876
mostvaluablepuppets,877
motors,878
move,879
movie,880
movies,881
moving,882
mr,883
msgs,884
mtvcom,885
much,886
muchasmuertes,887
muppet,888
murdering,889
museum,890
music,891
must,892
mustang,893
my,894
mylocme,895
nails,896
naive,897
named,898
nancy,899
nap,900
natural,901
nba,902
nbccom,903
ncaa,904
neal,905
need,906
needed,907
needs,908
nehsl,909
nelson,910
nenuah,911
nerd,912
net,913
never,914
new,915
news,916
newswow,917
next,918
nic,919
nice,920
nicer,921
niggas,922
night,923
nightmare,924
nike,925
nin,926
no,927
nobody,928
non,929
nooooooo,930
nor,931
normally,932
north,933
not,934
note,935
nothing,936
noticed,937
notre,938
now,939
np,940
nrparsedonedigitnparseddigits,941
nuclear,942
nuggets,943
number,944
nuts,945
obama,946
obamabidenpelosi,947
obsession,948
obviously,949
of,950
off,951
offense,952
office,953
official,954
oh,955
ohhdee,956
ok,957
old,958
oldie,959
omg,960
omgg,961
on,962
one,963
online,964
only,965
ooooh,966
oooooooh,967
oparsedonedigitd,968
open,969
operators,970
options,971
oqxgga,972
or,973
orli,974
other,975
oughta,976
our,977
out,978
outlet,979
outliers,980
outs,981
outta,982
ovation,983
over,984
own,985
owned,986
pages,987
palin,988
palo,989
parseddigits,990
parsedfivedigits,991
parsedfourdigits,992
parsedonedigit,993
parsedonedigitcparseddigitsuj,994
parsedonedigitcuig,995
parsedonedigitd,996
parsedonedigitdaymosquitos,997
parsedonedigitgezi,998
parsedonedigitgs,999
parsedonedigitjwshv,1000
parsedonedigitmoro,1001
parsedonedigitnsnr,1002
parsedonedigitpm,1003
parsedonedigitrd,1004
parsedonedigitst,1005
parsedonedigitueb,1006
parsedonedigitupwparsedonedigitp,1007
parsedonedigitzic,1008
parsedonedigitzlff,1009
parsedsixdigits,1010
parsedthreedigits,1011
parsedtwodigits,1012
parsedtwodigitscal,1013
parsedtwodigitsd,1014
parsedtwodigitsdit,1015
parsedtwodigitsepah,1016
parsedtwodigitsjparsedonedigitd,1017
parsedtwodigitsk,1018
parsedtwodigitsshi,1019
part,1020
partners,1021
party,1022
passionmodel,1023
pastrami,1024
pay,1025
pcyxjparsedonedigit,1026
pdhur,1027
pdubyad,1028
pelosi,1029
people,1030
peppers,1031
perfect,1032
person,1033
personalityhe,1034
pg,1035
pgparsedonedigitlt,1036
philip,1037
phoenix,1038
phone,1039
phones,1040
phoneughh,1041
photography,1042
phyremanparsedonedigit,1043
physical,1044
physics,1045
pic,1046
picked,1047
picking,1048
picks,1049
pictures,1050
pills,1051
pingfm,1052
pink,1053
pissed,1054
pittstock,1055
place,1056
places,1057
plan,1058
plane,1059
planning,1060
plans,1061
plant,1062
planted,1063
platform,1064
play,1065
played,1066
playing,1067
playoffs,1068
pleasant,1069
please,1070
pmillzz,1071
pockets,1072
point,1073
pointing,1074
ponzi,1075
popular,1076
porn,1077
possible,1078
powell,1079
powerful,1080
pparsedonedigit,1081
pparsedonedigitbparseddigitsfl,1082
pparsedonedigituparseddigitsh,1083
prayers,1084
prefer,1085
prepare,1086
president,1087
presser,1088
pretenious,1089
pretenses,1090
prettiest,1091
pretty,1092
price,1093
probably,1094
problems,1095
profile,1096
profits,1097
program,1098
programs,1099
promotions,1100
propre,1101
proudly,1102
provided,1103
prs,1104
psychemedia,1105
psyop,1106
public,1107
puppet,1108
put,1109
putting,1110
pyt,1111
python,1112
quaint,1113
quality,1114
quanttrader,1115
quite,1116
rachel,1117
radio,1118
rank,1119
rantsandraves,1120
raped,1121
rather,1122
rating,1123
re,1124
read,1125
reading,1126
ready,1127
real,1128
realized,1129
really,1130
reasonable,1131
receipes,1132
receivers,1133
recently,1134
recommend,1135
recorder,1136
regret,1137
related,1138
relief,1139
remorse,1140
repeatedly,1141
reps,1142
republic,1143
republican,1144
researchers,1145
result,1146
results,1147
resume,1148
retiring,1149
review,1150
revision,1151
rhino,1152
rich,1153
richardebaker,1154
richest,1155
rid,1156
riddance,1157
ride,1158
right,1159
road,1160
robin,1161
robmalon,1162
robynlyn,1163
rock,1164
rocked,1165
rocks,1166
roger,1167
roll,1168
roomies,1169
rt,1170
runner,1171
running,1172
sad,1173
safari,1174
safeway,1175
said,1176
same,1177
san,1178
sandbox,1179
sarah,1180
satisfying,1181
saturday,1182
saw,1183
say,1184
saying,1185
scams,1186
scandal,1187
scares,1188
scarey,1189
scary,1190
schemers,1191
school,1192
science,1193
scrapbooking,1194
scratch,1195
screams,1196
screen,1197
screw,1198
screwed,1199
search,1200
searches,1201
season,1202
see,1203
seeing,1204
seem,1205
seems,1206
seen,1207
sekseemess,1208
select,1209
sell,1210
sending,1211
sens,1212
sent,1213
seriously,1214
served,1215
service,1216
services,1217
servicethey,1218
session,1219
sethdaggett,1220
shade,1221
shame,1222
shannyoday,1223
shaunwoo,1224
she,1225
sheridanmarfil,1226
sherri,1227
shirts,1228
shit,1229
shitty,1230
shopping,1231
shoreline,1232
shorter,1233
should,1234
shout,1235
show,1236
shows,1237
shut,1238
sick,1239
side,1240
siding,1241
sign,1242
signal,1243
silverstein,1244
silversteini,1245
since,1246
singapore,1247
sitcom,1248
site,1249
sitting,1250
situation,1251
sketchbug,1252
skin,1253
slave,1254
sleep,1255
slide,1256
slightest,1257
slogan,1258
slow,1259
slowlythey,1260
small,1261
smartchickpdx,1262
smells,1263
smh,1264
snap,1265
snappy,1266
so,1267
social,1268
solid,1269
some,1270
someone,1271
something,1272
sometimes,1273
son,1274
sony,1275
soon,1276
sooo,1277
soooo,1278
soooooo,1279
sorry,1280
sounds,1281
south,1282
soyvparsedonedigit,1283
sparsedthreedigitsj,1284
speak,1285
speech,1286
speed,1287
spent,1288
spinach,1289
spinuzzi,1290
sport,1291
sports,1292
sportsguyparsedtwodigits,1293
spot,1294
springsingfiend,1295
spurs,1296
srsly,1297
stacks,1298
standing,1299
stanford,1300
star,1301
start,1302
started,1303
starting,1304
states,1305
stay,1306
stealing,1307
steep,1308
stellargirl,1309
stick,1310
still,1311
stimulus,1312
stinkin,1313
stop,1314
stopped,1315
studing,1316
stuff,1317
stupid,1318
style,1319
such,1320
suck,1321
sucks,1322
sum,1323
summer,1324
summize,1325
super,1326
superslow,1327
support,1328
supporting,1329
supposed,1330
survive,1331
susan,1332
svcs,1333
sweet,1334
take,1335
taking,1336
talk,1337
talking,1338
tamasha,1339
tattoooos,1340
taxes,1341
tbh,1342
tcot,1343
tea,1344
teach,1345
tell,1346
telling,1347
tells,1348
ten,1349
tennis,1350
terrifying,1351
terrysimpson,1352
test,1353
tests,1354
tethering,1355
texnparsedonedigitrds,1356
text,1357
than,1358
thank,1359
thanks,1360
that,1361
the,1362
the_real_usher,1363
their,1364
them,1365
then,1366
there,1367
these,1368
they,1369
thing,1370
things,1371
think,1372
thinks,1373
this,1374
those,1375
though,1376
three,1377
throttles,1378
through,1379
thursday,1380
tickets,1381
til,1382
time,1383
timeout,1384
times,1385
tinyurlcom,1386
tipping,1387
tired,1388
tivo,1389
tlot,1390
to,1391
today,1392
together,1393
told,1394
tommorow,1395
tomorrow,1396
tones,1397
tonight,1398
tonite,1399
tonyhawk,1400
too,1401
took,1402
tool,1403
tooth,1404
top,1405
totally,1406
tour,1407
toy,1408
training,1409
tree,1410
trek,1411
trend,1412
trial,1413
tribunals,1414
tricks,1415
tried,1416
trim,1417
trip,1418
trouble,1419
troubleeeee,1420
true,1421
truly,1422
try,1423
tsunami,1424
ttiv,1425
turmoil,1426
turns,1427
tv,1428
tw,1429
twdvrhtml,1430
tweets,1431
twice,1432
twitpiccom,1433
twitter,1434
two,1435
twtadcom,1436
twurlnl,1437
txt,1438
typeset,1439
uaw,1440
ugh,1441
ugly,1442
ui,1443
uk,1444
ummm,1445
under,1446
underestimated,1447
understand,1448
unemployed,1449
unfold,1450
unfortunate,1451
unhelpful,1452
united,1453
universal,1454
university,1455
universitys,1456
unlimited,1457
unprepared,1458
until,1459
up,1460
update,1461
upset,1462
upside,1463
us,1464
uscsportsparsedtwodigits,1465
use,1466
useless,1467
using,1468
vastly,1469
ve,1470
vehicle,1471
verse,1472
very,1473
via,1474
video,1475
videos,1476
vincentxparsedtwodigitsx,1477
vios,1478
viral,1479
visa,1480
vitamin,1481
vkerkez,1482
voice,1483
vote,1484
vparsedonedigitfhg,1485
vprpt,1486
vs,1487
wait,1488
walking,1489
want,1490
wantit,1491
wants,1492
warner,1493
warranty,1494
warren,1495
was,1496
waste,1497
wasted,1498
waster,1499
wat,1500
watch,1501
watched,1502
watchin,1503
watching,1504
water,1505
wave,1506
way,1507
we,1508
week,1509
weekend,1510
weka,1511
well,1512
went,1513
were,1514
weren,1515
what,1516
when,1517
whenever,1518
where,1519
which,1520
while,1521
white,1522
whitstyles,1523
who,1524
whoever,1525
whole,1526
whoopi,1527
whose,1528
why,1529
wieden,1530
wikipedia,1531
will,1532
williams,1533
win,1534
windows,1535
winer,1536
winner,1537
wish,1538
with,1539
without,1540
wolfram,1541
wolverine,1542
won,1543
wonder,1544
wonderful,1545
wondering,1546
woot,1547
word,1548
wordwhizkid,1549
work,1550
worked,1551
working,1552
world,1553
worse,1554
worst,1555
worth,1556
would,1557
wouldn,1558
wow,1559
wrist,1560
writers,1561
wrong,1562
wtf,1563
wtfffff,1564
wthi,1565
wwwdavehittcom,1566
wwwgoodbysilversteincom,1567
wwwmsnbcmsncom,1568
wwwnbccom,1569
wwwparsedtwodigitswolframalphacom,1570
wysiwyg,1571
xcparsedonedigitcparseddigits,1572
ya,1573
yahoo,1574
yankees,1575
yarnthing,1576
yay,1577
yea,1578
yeah,1579
yeahhhhhhhhh,1580
yearly,1581
years,1582
yearsgreat,1583
yeeeee,1584
yes,1585
yesterday,1586
yet,1587
yo,1588
york,1589
you,1590
your,1591
youtube,1592
yr,1593
zealots,1594
zero,1595
zomg,1596
zydrunas,1597
