__,0
___,1
______________,2
_xmas_carroll,3
aaargh,4
abandoned,5
able,6
aboutthatlife,7
absolutely,8
abt,9
acceptable,10
access,11
accessibility,12
accompanying,13
according,14
account,15
accounts,16
acct,17
acting,18
action,19
activating,20
acts,21
actually,22
ad,23
add,24
addicted,25
adding,26
address,27
addthis,28
adiman_,29
admitting,30
adobe,31
adobemax,32
adopted,33
advanced,34
advertisements,35
advertising,36
adweek,37
adwords,38
affair,39
affects,40
afmparsedonedigitvsmm,41
agency,42
ages,43
aggressive,44
agree,45
ah,46
ahead,47
ahhfuckitsguss,48
aijysfho,49
ain,50
aint,51
ainteeentrippin,52
air,53
airdrop,54
aka,55
ala,56
alarm,57
alarms,58
albatross,59
albertmalparsedtwodigits,60
album,61
albums,62
alert,63
alexlindsay,64
alexmufferi,65
alive,66
alleged,67
allow,68
allowing,69
alongside,70
alright,71
amarsanghera,72
amazed,73
amazing,74
amp,75
amused,76
analytics,77
anas_monaffal,78
android,79
androidbeam,80
androidicecreamsandwich,81
androidparsedonedigit,82
andshuttingdownru,83
andshuttingdownrunningprograms,84
angrybirds,85
announced,86
announcement,87
annoyed,88
annoying,89
anothericloudfail,90
answer,91
answers,92
anti,93
antitrust,94
anup_pillai,95
anyday,96
anymore,97
aparsedonedigitonparsedonedigitiaa,98
aparsedtwodigitsy,99
apologize,100
apology,101
app,102
apparently,103
appear,104
apple,105
appledomination,106
apples,107
appletv,108
appleupdates,109
apply,110
appointment,111
appreciated,112
appropriately,113
apps,114
appstore,115
apptment,116
apt,117
ar,118
architecture,119
aren,120
argument,121
ari,122
arrived,123
arrives,124
arrogance,125
arrogant,126
art,127
article,128
articles,129
artist,130
ashercfo,131
asimrang,132
ask,133
asked,134
ass,135
assessment,136
assimparsedtwodigits,137
ate,138
athen,139
att,140
attacks,141
attempts,142
attributed,143
audio,144
august,145
australia,146
authorise,147
authorization,148
authorize,149
authorizing,150
auto,151
automatically,152
autosavesucks,153
available,154
ave,155
avoided,156
avslparsedonedigitygu,157
avtar,158
awaited,159
away,160
awesome,161
awesomeness,162
awful,163
awkward,164
awsome,165
ay,166
ayhokgoparsedonedigit,167
azure,168
baby,169
babygeeks,170
backchannel,171
background,172
backside,173
backup,174
backwards,175
bad,176
baffles,177
bag,178
bahhh,179
ball,180
ballmer,181
ban,182
bandwidth,183
bar,184
base,185
batteries,186
battery,187
battle,188
bbm,189
bc,190
beam,191
beat,192
beating,193
beats,194
beautiful,195
becuz,196
bed,197
begin,198
behatreen,199
believe,200
bell,201
bellevue,202
beneficial,203
benefits,204
benrubery,205
berry,206
best,207
bestbuy,208
bestpantsten,209
beta,210
betaparsedonedigit,211
better,212
betweensundays,213
beware,214
bg,215
bgkimgjf,216
bgotzjparsedonedigitk,217
bgr,218
big,219
bigbrother,220
bigdealdawson,221
biggest,222
bigmama,223
bigtrouble,224
billgates,225
billion,226
billions,227
biltmore,228
bing,229
bird,230
bisquiat,231
bit,232
bitch,233
bitching,234
bite,235
biz,236
bkadparsedfourdigits,237
black,238
blackberry,239
blackouts,240
blameitontheiphone,241
blames,242
blaparsedonedigitze,243
blaring,244
blatant,245
blaze,246
blend,247
bless,248
blessed,249
blew,250
blhhgopo,251
blog,252
bloody,253
bloomberg,254
bloombergnews,255
blowing,256
blown,257
blue,258
blues,259
bmann,260
bode,261
body,262
boo,263
book,264
bookcase,265
bookmarks,266
books,267
boost,268
boot,269
booted,270
borders,271
bottlenecks,272
bought,273
bound,274
bout,275
boy,276
boycotting,277
bparsedonedigit,278
bpfkydparsedonedigito,279
braille,280
brain,281
brand,282
brandonminiman,283
bravo,284
break,285
breaking,286
briancrockerjr,287
brick,288
bricked,289
brightness,290
brilliance,291
brilliant,292
bring,293
bringing,294
bro,295
broke,296
browsers,297
browserwars,298
bs,299
bud,300
buffalo,301
bug,302
build,303
building,304
buildingwindowsparsedonedigit,305
buildwindowsparsedonedigit,306
built,307
builtin,308
bulletproof,309
bullshit,310
bullying,311
bump,312
burkepatch,313
burn,314
bus,315
business,316
businesses,317
businessuplift,318
busy,319
butler,320
buttery,321
button,322
buttons,323
buy,324
buying,325
bznyparsedtwodigitsnn,326
calendar,327
called,328
calling,329
calls,330
came,331
camera,332
campus,333
canada,334
cancer,335
canon,336
cap,337
capabilities,338
capacity,339
car,340
caracteres,341
card,342
cards,343
cardsapp,344
care,345
careers,346
carltonparsedthreedigits,347
carrier,348
carriers,349
carrying,350
carrypad,351
cartoon,352
case,353
cash,354
catastrophically,355
catchy,356
caught,357
cause,358
cbm,359
cc,360
centre,361
ceo,362
ceremoniously,363
certain,364
certification,365
cesspit,366
chadleaman,367
champ,368
change,369
changed,370
changer,371
chao,372
characters,373
charge,374
charger,375
charging,376
charity,377
charlesarthur,378
chascouponmom,379
cheap,380
check,381
cheer,382
chief,383
child,384
china,385
choice,386
choices,387
chris,388
chrome,389
chu,390
chucktodd,391
circustk,392
citizenship,393
cjjparsedtwodigitsvparsedonedigiti,394
cjonncvk,395
cjwallaceparsedtwodigits,396
clarence,397
class,398
claws,399
clean,400
clear,401
click,402
clicking,403
clocks,404
close,405
closed,406
closer,407
closing,408
cloud,409
clouds,410
cloudy,411
club,412
clue,413
cnt,414
coach,415
coast,416
coated,417
code,418
codename,419
coldplay,420
collection,421
collects,422
college,423
colour,424
combine,425
combo,426
come,427
comes,428
coming,429
commands,430
comments,431
commercial,432
communications,433
community,434
comp,435
compact,436
company,437
compares,438
comparing,439
compatibility,440
compatible,441
competitive,442
compilation,443
complain,444
complaints,445
complete,446
completely,447
completes,448
compliments,449
compose,450
composite,451
computer,452
concept,453
conditions,454
conference,455
confused,456
confusin,457
confusing,458
congratulations,459
connect,460
connected,461
connecting,462
connection,463
considering,464
console,465
consultingware,466
consumer,467
cont,468
contact,469
contacts,470
contender,471
content,472
continued,473
continuing,474
continuously,475
contracts,476
control,477
convenient,478
converting,479
coo,480
cool,481
coollike,482
copy,483
coqclbparsedonedigitr,484
cord,485
corporate,486
corporation,487
correct,488
cost,489
couldn,490
counter,491
couple,492
covent,493
covers,494
cparsedonedigittuparsedonedigitdzk,495
cparsedtwodigitssnizt,496
crack,497
cracked,498
crankywithnophone,499
crap,500
crappy,501
crash,502
crashes,503
crashing,504
craving,505
crazy,506
cream,507
create,508
creating,509
creative,510
credit,511
criticise,512
cropping,513
crowd,514
crparsedonedigitaparseddigitskparsedonedigitu,515
crushed,516
cs,517
ctp,518
cu,519
current,520
currently,521
curse,522
customer,523
customers,524
custserv,525
cutting,526
cuz,527
cvfwmvmo,528
cyanogenmod,529
da,530
dailydealchat,531
dalmaer,532
dam,533
damage,534
dammit,535
damn,536
dancemoms,537
danielpink,538
dark,539
data,540
dates,541
day,542
dayparsedthreedigits,543
days,544
dead,545
deal,546
dealing,547
deals,548
dear,549
death,550
debut,551
decades,552
decent,553
decide,554
decides,555
decision,556
declined,557
declining,558
def,559
definitely,560
delay,561
delete,562
deleted,563
delicious,564
deliver,565
delivered,566
delivering,567
dell,568
demo,569
dennisritchie,570
deploying,571
depreciate,572
derryxowners,573
design,574
designed,575
desire,576
desired,577
desktop,578
desperatehousewives,579
destroying,580
details,581
detection,582
dev,583
developers,584
device,585
devices,586
dffkvnsj,587
dhilipsiva,588
dick,589
dicks,590
dictation,591
did,592
didn,593
die,594
died,595
difference,596
different,597
difficult,598
difficulties,599
digging,600
digit,601
digital,602
dine,603
direct,604
directions,605
directly,606
dis,607
disabling,608
disappear,609
disappointed,610
disappointing,611
disappointment,612
disaster,613
discussion,614
dishing,615
disruptions,616
dissent,617
distractions,618
distributing,619
ditch,620
djspparsedonedigitgparseddigitsb,621
dlparsedonedigitcrczy,622
dm,623
docs,624
document,625
dodgy,626
does,627
doesn,628
doesnt,629
doing,630
dollar,631
dollars,632
domain,633
don,634
dont,635
dontbemadatmebecause,636
door,637
doorstep,638
dose,639
dosent,640
dostupan,641
dotnet,642
double,643
doubt,644
douchebags,645
doug_newton,646
downgrade,647
download,648
downloaded,649
downloads,650
dparsedonedigit,651
dparsedonedigiteejhbt,652
drain,653
drawlin,654
dream,655
dreams,656
drewbezanson,657
drink,658
droid,659
drop,660
dropbox,661
dropped,662
drops,663
drying,664
dst,665
dubbe,666
duet,667
duff,668
dumb,669
dump,670
duped,671
durable,672
dvroegop,673
dxxklubp,674
dying,675
dynamics,676
ea_jorge,677
ear,678
earbuds,679
earned,680
easier,681
easter,682
easy,683
ebook,684
eboyee,685
eclipsed,686
economics,687
edbott,688
edge,689
editing,690
editor,691
education,692
effect,693
efffing,694
eggs,695
elcheicon,696
electability,697
electric,698
electricsoup,699
elegance,700
elop,701
em,702
email,703
emails,704
emphasis,705
employability,706
employee,707
employees,708
emptythreats,709
enabled,710
encourage,711
encrypt,712
end,713
endless,714
enemies,715
engages,716
engaging,717
engt,718
enhance,719
enjoy,720
enjoying,721
enrages,722
entering,723
entertaining,724
entrepreneurs,725
eorosstx,726
eparsedonedigituhkaparsedonedigitf,727
eparsedonedigitumrmro,728
epicfail,729
epub,730
equal,731
equivalent,732
ericgreenspan,733
erp,734
error,735
errors,736
especially,737
essential,738
esxiparsedonedigit,739
eta,740
europeansp,741
evangelist,742
event,743
events,744
everettcoldwell,745
everson,746
everybody,747
everytime,748
evil,749
evo,750
exam,751
excel,752
excellent,753
exception,754
exchange,755
exchg,756
excited,757
exciting,758
exclaims,759
exclusive,760
executive,761
executives,762
exhibit,763
exorcist,764
expected,765
expensive,766
expensivepaperweight,767
experience,768
explain,769
explaining,770
explains,771
explorer,772
express,773
extend,774
extent,775
extreme,776
eye,777
ezjczltparsedonedigit,778
face,779
facebook,780
faceboook,781
facetime,782
facial,783
fact,784
faculty,785
fad,786
fade,787
fail,788
failed,789
failing,790
fails,791
fair,792
faith,793
fallen,794
false,795
family,796
fan,797
fancy,798
fantastic,799
far,800
farreal,801
fast,802
faster,803
fat,804
fatfuckingchance,805
fault,806
favorite,807
fawkin,808
fb,809
fcucks,810
feature,811
featured,812
features,813
federal,814
feel,815
feeling,816
fellows,817
fiction,818
figure,819
figured,820
figures,821
fiioapkt,822
file,823
files,824
finally,825
finance,826
financial,827
fine,828
finest,829
fingers,830
fingerscrossed,831
finish,832
finland,833
fishmama,834
fitiparsedonedigitzia,835
fix,836
fixed,837
fixes,838
fixing,839
fixit,840
flash,841
flashcard,842
flat,843
flawless,844
floridamike,845
fm,846
fml,847
fmzfwgyv,848
focus,849
fold,850
folder,851
folders,852
folks,853
follow,854
followers,855
followlimitisgay,856
followme,857
font,858
forbes,859
force,860
forces,861
ford,862
forever,863
forget,864
forgettin,865
format,866
forsure,867
forth,868
forward,869
fotografia,870
foundation,871
fparsedonedigitaztiad,872
fparsedonedigithwanparsedonedigitq,873
frame,874
framework,875
fran_mac_,876
freaking,877
free,878
freedom,879
freeze,880
freezes,881
fresh,882
friends,883
friendship,884
friggin,885
froze,886
frozen,887
fruits,888
frustrated,889
fsf,890
ftw,891
fu,892
fuck,893
fucked,894
fuckin,895
fucking,896
fuckingpissed,897
fuckingshinez,898
fucknwithfatty,899
fucks,900
fuh,901
fun,902
function,903
functions,904
funds,905
funny,906
funnyyyyyyy,907
future,908
futuristic,909
fuzzball,910
fwm,911
fxck,912
fxhomehitfilm,913
fytcyegparsedonedigit,914
galaxy,915
galaxynexus,916
gallery,917
game,918
gamers,919
games,920
gaming,921
ganna,922
garbage,923
garden,924
gate,925
gates,926
gatos,927
gave,928
gay,929
gazmaz,930
gb,931
gcicpexparsedonedigit,932
gcyparsedonedigitiphn,933
gear,934
geek,935
gen,936
generator,937
genius,938
geniusbar,939
geolocation,940
german,941
getglue,942
gets,943
gettin,944
getting,945
gf,946
ghost,947
giant,948
giants,949
gigs,950
gives,951
givin,952
giving,953
gjiuparsedonedigitzzparsedonedigit,954
gklxmuiparsedonedigit,955
gkparsedonedigityjtfy,956
glad,957
glass,958
globe,959
gm,960
gmail,961
gmsgxcqparsedonedigit,962
gnu,963
gnyparsedonedigitgparsedtwodigitsb,964
god,965
gods,966
goes,967
going,968
gone,969
gonna,970
good,971
goodbye,972
goodriddance,973
goof,974
googland,975
google,976
googleapps,977
googlemusic,978
googleplus,979
googleresearch,980
googles,981
got,982
gotta,983
gov,984
gparsedonedigitelvrvj,985
gpo,986
gr,987
grandma,988
graphic,989
grass,990
gratis,991
greader,992
great,993
greatly,994
greener,995
gretcheneclark,996
ground,997
grrrr,998
gruber,999
gt,1000
guardian,1001
guardiantech,1002
guess,1003
gui,1004
guide,1005
guy,1006
guys,1007
gwokoceg,1008
ha,1009
hack,1010
hacked,1011
hah,1012
haha,1013
hahaha,1014
hailfireparsedthreedigits,1015
hairline,1016
half,1017
hand,1018
handle,1019
handled,1020
hands,1021
handsets,1022
handy,1023
hangouts,1024
happen,1025
happened,1026
happening,1027
happens,1028
happier,1029
happy,1030
happyplace,1031
hard,1032
harder,1033
hardware,1034
hasn,1035
hate,1036
hated,1037
hater,1038
haven,1039
havin,1040
having,1041
hay,1042
hbogo,1043
hckjxzparsedonedigitk,1044
hd,1045
hdmi,1046
hdv,1047
headache,1048
headed,1049
headings,1050
hear,1051
heard,1052
heck,1053
hell,1054
hella,1055
hello,1056
help,1057
helped,1058
helps,1059
helsinki,1060
herahussain,1061
hey,1062
hfwpbmyparsedonedigit,1063
hide,1064
high,1065
highlight,1066
hilarious,1067
hindi,1068
hire,1069
hiss,1070
hit,1071
hjparsedonedigitqlocparsedonedigit,1072
hk,1073
hmmm,1074
hmmmm,1075
hobparsedtwodigitshbo,1076
hockey,1077
hold,1078
holodeck,1079
holodesk,1080
home,1081
honeka,1082
honest,1083
hong,1084
honored,1085
hooked,1086
hookup,1087
hope,1088
hopefully,1089
horizontal,1090
horrible,1091
hosting,1092
hot,1093
hotel,1094
hour,1095
hourly,1096
hours,1097
houston,1098
hp,1099
hrs,1100
ht,1101
htc,1102
htmlparsedonedigit,1103
http,1104
https,1105
hubby,1106
huge,1107
humor,1108
humpt,1109
hungry,1110
hurry,1111
hurting,1112
hurts,1113
hut,1114
hypo,1115
hypocritical,1116
iamdkt,1117
iancollinsuk,1118
ibm,1119
ibooks,1120
ice,1121
icecream,1122
icecreamsandwich,1123
icloud,1124
icon,1125
ics,1126
id,1127
idea,1128
idk,1129
idontunderstand,1130
idtheftprotect,1131
ieparsedonedigit,1132
igiveup,1133
ihateyourightnow,1134
ijparsedonedigitxydpparsedonedigit,1135
iknparsedthreedigitsze,1136
ill,1137
iloveyou,1138
im,1139
imac,1140
image,1141
images,1142
imamac,1143
imessage,1144
imightbewrong,1145
immad_immad,1146
immediate,1147
immobile,1148
imo,1149
importance,1150
impossible,1151
impressed,1152
impressions,1153
impressive,1154
improve,1155
improvements,1156
inbox,1157
inbuilt,1158
incapable,1159
include,1160
included,1161
includes,1162
incompatible,1163
inconvenienced,1164
incredible,1165
india,1166
indian,1167
indians,1168
individual,1169
ineedthosepictures,1170
ineedtoupdate,1171
inept,1172
inferno,1173
infinite,1174
info,1175
infofail,1176
inform,1177
information,1178
injunction,1179
inline,1180
innovations,1181
innovators,1182
inparsedonedigit,1183
input,1184
insane,1185
insanely,1186
inside,1187
inspire,1188
instagram,1189
install,1190
installed,1191
installing,1192
instantfollowback,1193
instead,1194
insurance,1195
integrate,1196
integrated,1197
integrating,1198
intel,1199
intensifies,1200
interesing,1201
interested,1202
interesting,1203
interface,1204
interference,1205
internet,1206
interoperability,1207
interrupting,1208
intervals,1209
introduce,1210
introduced,1211
introduces,1212
introducing,1213
introduction,1214
intuitive,1215
invented,1216
inventor,1217
invested,1218
investigate,1219
io,1220
ioparsedonedigit,1221
ios,1222
iosparsedonedigit,1223
iosparsedonedigitatemydingo,1224
iosparsedonedigitdowngrade,1225
ip,1226
ipad,1227
ipadparsedonedigit,1228
ipads,1229
ipas,1230
iphone,1231
iphoneparsedonedigit,1232
iphoneparsedonedigits,1233
iphones,1234
iphoto,1235
ipod,1236
irvysan,1237
isb,1238
iscream,1239
iscsi,1240
ishit,1241
isn,1242
isnt,1243
isorry,1244
issue,1245
issues,1246
italianjoya,1247
itdklrry,1248
item,1249
items,1250
itjustworks,1251
itnews_au,1252
itouch,1253
itunes,1254
itunesmatch,1255
itunesmusic,1256
iyoparsedtwodigitsgvj,1257
jacked,1258
jailbroke,1259
jailbroken,1260
jaime_rivera,1261
jamaicanidler,1262
james,1263
janeparsedtwodigits,1264
japan,1265
jaroslovsky,1266
jatfvfpm,1267
jcawwrzq,1268
jdougyj,1269
jeffbullas,1270
jessecablek,1271
jewelzparsedfourdigits,1272
jhdtykcv,1273
jilive,1274
jimmcniel,1275
jimmlparsedonedigitrc,1276
jinnhvwz,1277
jizz,1278
jldavid,1279
joannejacobs,1280
job,1281
jobs,1282
joebelfiore,1283
joelburns,1284
joelplane,1285
join,1286
jolieesharmeda,1287
jonparsedonedigitlakers,1288
jowyang,1289
jparsedonedigitftieng,1290
jparsedthreedigitszfpo,1291
jumpin,1292
junk,1293
jure,1294
jus,1295
just,1296
justsaying,1297
jzmvbdnm,1298
karljuhlke,1299
katebetts,1300
kathrynyee,1301
kdtdparsedonedigitzre,1302
keeping,1303
keeps,1304
keepthedesktop,1305
kenyaopendoor,1306
kevin,1307
keyboard,1308
kick,1309
kicked,1310
kidding,1311
kids,1312
kill,1313
killed,1314
killing,1315
kimaris,1316
kind,1317
kindahow,1318
kinect,1319
king,1320
kjkzparsedtwodigitszy,1321
klmgkhparsedonedigitv,1322
knew,1323
knizparsedthreedigitss,1324
know,1325
knows,1326
kong,1327
kostatsetsekas,1328
krause,1329
kursed,1330
kushkittyparsedthreedigits,1331
kvjsercj,1332
kxboqskj,1333
kyliemessier,1334
kymbersanden,1335
la,1336
lack,1337
lacks,1338
lag,1339
laid,1340
lame,1341
languages,1342
laptop,1343
laser,1344
lasted,1345
late,1346
laughable,1347
launch,1348
launches,1349
launchfail,1350
laundering,1351
law,1352
laws,1353
laying,1354
lcmediahouse,1355
lcxaparsedonedigitqparseddigitsp,1356
ldparsedonedigitiparsedthreedigitsx,1357
lead,1358
leader,1359
leading,1360
lean,1361
learn,1362
learned,1363
learning,1364
leave,1365
leaving,1366
lecture,1367
left,1368
leiboaz,1369
leopard,1370
lesson,1371
let,1372
letdown,1373
letme,1374
letter,1375
letting,1376
lfparsedtwodigitszkuz,1377
lgfw,1378
licensing,1379
liciaparsedfourdigits,1380
lie,1381
lies,1382
life,1383
lifted,1384
light,1385
lightning,1386
like,1387
liking,1388
lil,1389
limit,1390
line,1391
link,1392
linkedin,1393
lion,1394
lisa,1395
lisa_marieparsedfourdigits,1396
list,1397
listed,1398
listening,1399
listing,1400
literally,1401
little,1402
live,1403
lives,1404
living,1405
ljpgvzjt,1406
lk,1407
ll,1408
llslrxfm,1409
lmao,1410
load,1411
lobby,1412
local,1413
located,1414
location,1415
lock,1416
logged,1417
logicparsedfourdigits,1418
login,1419
lol,1420
lolol,1421
long,1422
longer,1423
look,1424
looking,1425
looks,1426
loop,1427
loose,1428
lord,1429
lords,1430
los,1431
lose,1432
losing,1433
loss,1434
lost,1435
lot,1436
lots,1437
love,1438
loved,1439
lovee,1440
loveguru_b,1441
lovemyiphone,1442
lovin,1443
loving,1444
low,1445
loyalty,1446
lparsedonedigitmtmparsedonedigitig,1447
lparsedonedigitrsxparsedonedigityf,1448
lparsedtwodigitsowqre,1449
lt,1450
luck,1451
lucky_parsedonedigit_have,1452
lunch,1453
lvffdcel,1454
lwjpparsedonedigitgiu,1455
lwtpxejo,1456
ly,1457
lync,1458
ma,1459
mac,1460
macbook,1461
machine,1462
mack,1463
macosc,1464
macworld,1465
mad,1466
madness,1467
magic,1468
magical,1469
mail,1470
mainey_maine,1471
maintenance,1472
major,1473
majorfail,1474
make,1475
makes,1476
making,1477
man,1478
manage,1479
managed,1480
management,1481
manager,1482
mandarin,1483
manelfmartinez,1484
mango,1485
map,1486
marcoarment,1487
mariospr,1488
market,1489
marketing,1490
marks,1491
markstuver,1492
mashable,1493
match,1494
mattmarcheski,1495
mattyriesz,1496
maximize,1497
mayati,1498
maybe,1499
mb,1500
mbl,1501
mcp,1502
mcwparsedtwodigitsvtg,1503
mdqhbparsedonedigitxparseddigits,1504
means,1505
meant,1506
media,1507
medical,1508
meet,1509
mega,1510
meghankel,1511
melts,1512
member,1513
mention,1514
mentions,1515
mentor,1516
merchandising,1517
message,1518
messages,1519
messed,1520
messy,1521
metro,1522
microsof,1523
microsoft,1524
microsoftstores,1525
middle,1526
mightily,1527
migrating,1528
mikeferri,1529
miley,1530
million,1531
millions,1532
min,1533
mins,1534
minute,1535
minutes,1536
miss,1537
missed,1538
missing,1539
mission,1540
mixedchikparsedtwodigits,1541
mixer,1542
mnparsedonedigitnova,1543
mnparsedtwodigitsrparsedonedigitvc,1544
mo,1545
mobile,1546
mode,1547
models,1548
modify,1549
mohamedg,1550
mole,1551
mom,1552
moment,1553
monopolistic,1554
monopoly,1555
months,1556
mood,1557
morning,1558
moron,1559
mothafuckin,1560
motorola,1561
mountainview,1562
mouse,1563
moving,1564
mp,1565
mrgareth,1566
mrtonysays,1567
ms,1568
msft,1569
msftresearch,1570
msg,1571
mspegypt,1572
mstapoutbarbie,1573
mswxparsedonedigiteoparsedonedigit,1574
mtuparsedonedigittgxparsedonedigit,1575
muh,1576
mulling,1577
multiple,1578
music,1579
mute,1580
muuwbgpn,1581
nam,1582
nansen,1583
nationalgeographic,1584
native,1585
nauseous,1586
nav,1587
navigation,1588
naw,1589
nbparsedonedigitdhlsg,1590
nearest,1591
neat,1592
neck,1593
need,1594
needed,1595
needless,1596
neednewipadguide,1597
needparsedonedigits,1598
needs,1599
needsomethingtoread,1600
negative,1601
nejbye,1602
neowin,1603
nerdboner,1604
nerdiness,1605
nervous,1606
net,1607
netbooks,1608
netscape,1609
network,1610
networkin,1611
new,1612
newfeature,1613
news,1614
newsstand,1615
newstand,1616
newton,1617
nexus,1618
nexusprime,1619
nfl,1620
nice,1621
nickthefnicon,1622
nicolebanyots,1623
night,1624
nirvana,1625
nobueno,1626
nohelp,1627
nokia,1628
nonstop,1629
noowwwwww,1630
nopatience,1631
noreply,1632
notbook,1633
notcool,1634
note,1635
notes,1636
notifications,1637
notified,1638
notifies,1639
notresponding,1640
nov,1641
novatyler,1642
novell,1643
november,1644
nowicanspendevenmoretimeonmyphone,1645
nparsedonedigitcpuparsedonedigitvj,1646
number,1647
numbers,1648
nuther,1649
nuts,1650
ny,1651
nytimes,1652
nz,1653
obituaries,1654
obsessions,1655
obviously,1656
oeurmtlx,1657
oezkparsedonedigitivparsedonedigit,1658
offer,1659
offers,1660
office,1661
official,1662
officially,1663
offing,1664
ofhparsedonedigitptag,1665
oh,1666
ok,1667
okay,1668
old,1669
older,1670
omfg,1671
omg,1672
omnitouch,1673
omnomnomnom,1674
ondxwper,1675
ones,1676
online,1677
oparsedonedigit,1678
open,1679
opening,1680
opens,1681
operating,1682
operation,1683
opinions,1684
opportunities,1685
opportunity,1686
opposite,1687
option,1688
oranges,1689
orbital,1690
order,1691
ordered,1692
ordering,1693
organic,1694
orging,1695
original,1696
os,1697
osx,1698
ouch,1699
ouparsedonedigitkparsedtwodigitsge,1700
outdated,1701
outlaws,1702
outlook,1703
outside,1704
overall,1705
overbearing,1706
owner,1707
owns,1708
pad,1709
page,1710
pages,1711
paid,1712
pain,1713
painful,1714
painfully,1715
palmface,1716
panasonic,1717
panorama,1718
panoramas,1719
pants,1720
parents,1721
parivar,1722
parker,1723
parseddigits,1724
parseddigitsk,1725
parseddigitsnd,1726
parseddigitsst,1727
parseddigitsyrs,1728
parsedfivedigits,1729
parsedfourdigits,1730
parsedfourdigitsp,1731
parsedonedigit,1732
parsedonedigitaja,1733
parsedonedigitb,1734
parsedonedigitbn,1735
parsedonedigitbwtparsedonedigitwparseddigitsz,1736
parsedonedigitbwxjadg,1737
parsedonedigitchan,1738
parsedonedigitd,1739
parsedonedigitdays,1740
parsedonedigitexbnqjy,1741
parsedonedigitfhparsedonedigitdfgj,1742
parsedonedigitfmjxtmm,1743
parsedonedigitg,1744
parsedonedigitgjqvewn,1745
parsedonedigitgs,1746
parsedonedigitgupparsedonedigitacz,1747
parsedonedigithr,1748
parsedonedigithrs,1749
parsedonedigithvbcparsedonedigitbm,1750
parsedonedigitibobnrh,1751
parsedonedigitijkparsedonedigitvbparsedonedigit,1752
parsedonedigitlike,1753
parsedonedigitnd,1754
parsedonedigitnhuyfeh,1755
parsedonedigitoensvgparsedonedigit,1756
parsedonedigitokparsedonedigitxcow,1757
parsedonedigitpkparsedonedigitetparsedonedigitr,1758
parsedonedigitpm,1759
parsedonedigitqmgparsedonedigitira,1760
parsedonedigitqnlwftparsedonedigit,1761
parsedonedigitquyparsedonedigituou,1762
parsedonedigitrkochzr,1763
parsedonedigits,1764
parsedonedigitsesvwwm,1765
parsedonedigitsjnparsedonedigitbzz,1766
parsedonedigitss,1767
parsedonedigitst,1768
parsedonedigitsunni,1769
parsedonedigitth,1770
parsedonedigituhparsedonedigitaparseddigitsvt,1771
parsedonedigituxawkwf,1772
parsedonedigitvsaszyt,1773
parsedonedigitwhhmakparsedonedigit,1774
parsedonedigitx,1775
parsedonedigitxddxnparsedonedigitw,1776
parsedonedigityparseddigitsasparsedonedigitzz,1777
parsedonedigitywvbeparsedonedigitz,1778
parsedonedigitzcqparsedtwodigitssf,1779
parsedthreedigits,1780
parsedthreedigitsdaysofgratefulness,1781
parsedthreedigitsklkfh,1782
parsedtwodigits,1783
parsedtwodigitsbit,1784
parsedtwodigitsgajsgi,1785
parsedtwodigitsgb,1786
parsedtwodigitshrs,1787
parsedtwodigitsjwparsedonedigitzparseddigitsc,1788
parsedtwodigitsmb,1789
parsedtwodigitsoglika,1790
parsedtwodigitstwitterpeopleiwouldliketomeet,1791
parsedtwodigitswkioxc,1792
parsedtwodigitsyrparsedtwodigitswl,1793
participated,1794
parts,1795
party,1796
pass,1797
password,1798
past,1799
patent,1800
paulens,1801
pavilions,1802
pay,1803
paying,1804
paypal,1805
pc,1806
pcmjon,1807
pdbfparsedonedigithparseddigitsf,1808
pdf,1809
pdfs,1810
people,1811
perfect,1812
performance,1813
period,1814
person,1815
personal,1816
petty,1817
ph,1818
philanthropy,1819
philipgrey,1820
philosophy,1821
phoenixswinger,1822
phone,1823
phonedog_aaron,1824
phones,1825
photo,1826
photography,1827
photos,1828
photosharing,1829
picture,1830
piece,1831
pile,1832
pinch,1833
pins,1834
piracy,1835
pissed,1836
pissing,1837
place,1838
plan,1839
planet,1840
planned,1841
plate,1842
platform,1843
platforms,1844
play,1845
playbooks,1846
played,1847
players,1848
playful,1849
playing,1850
playlist,1851
pleasure,1852
plparsedonedigitzeevh,1853
pls,1854
pltitgei,1855
plus,1856
plusone,1857
plz,1858
podcast,1859
podcasts,1860
point,1861
points,1862
poised,1863
policies,1864
polish,1865
politely,1866
politicians,1867
pondering,1868
poole,1869
poor,1870
pop,1871
ported,1872
portland,1873
positive,1874
positives,1875
post,1876
power,1877
powered,1878
powerpoint,1879
pparsedonedigithwoparsedtwodigitsx,1880
pparsedonedigitj,1881
pparsedonedigitmparseddigitsxvaz,1882
pparsedtwodigitsehduq,1883
ppl,1884
pqparsedtwodigitsgrra,1885
practices,1886
prctices,1887
pre,1888
preaching,1889
predictions,1890
prefer,1891
preorder,1892
presentation,1893
presentations,1894
presents,1895
press,1896
prettier,1897
pretty,1898
preventing,1899
preview,1900
previous,1901
price,1902
prime,1903
princessofchina,1904
printed,1905
privacy,1906
prjusto,1907
pro,1908
probably,1909
problem,1910
problems,1911
probono,1912
process,1913
processor,1914
procrastination,1915
produce,1916
product,1917
productive,1918
productivity,1919
products,1920
profile,1921
profiles,1922
profitering,1923
program,1924
progressed,1925
progressive,1926
project,1927
prolly,1928
promise,1929
promised,1930
promising,1931
promoallday,1932
prone,1933
propaganda,1934
properly,1935
props,1936
protect,1937
protection,1938
provided,1939
ps,1940
psfk,1941
psn,1942
public,1943
publicly,1944
puck,1945
pujyvparsedonedigitcparseddigits,1946
pull,1947
pulling,1948
pulls,1949
purchase,1950
purchased,1951
purchasing,1952
push,1953
putting,1954
pytparsedonedigitvkrp,1955
qbgxxjmm,1956
qlparsedonedigitzmppo,1957
qmwjtvnk,1958
qparsedonedigitkecparsedonedigit,1959
qparsedonedigitqleokz,1960
qrcode,1961
quality,1962
question,1963
questions,1964
quick,1965
quickly,1966
quite,1967
qvparsedonedigitmparseddigitsunparsedonedigit,1968
racketeering,1969
rad_software,1970
radlerc,1971
radparsedonedigitwdsw,1972
rafts,1973
raise,1974
randomly,1975
rape,1976
rapidly,1977
rauerrtf,1978
razr,1979
rcve,1980
reaaly,1981
reaching,1982
reaction,1983
read,1984
readable,1985
reader,1986
readinglists,1987
ready,1988
real,1989
realestate,1990
realise,1991
really,1992
reason,1993
reasons,1994
reboot,1995
rebuild,1996
receipt,1997
received,1998
recently,1999
recognition,2000
recover,2001
recovered,2002
recruit,2003
red,2004
reddeersteph,2005
redeemed,2006
redmond,2007
referring,2008
refurbed,2009
refurbished,2010
regent,2011
region,2012
register,2013
registration,2014
regular,2015
relaxing,2016
release,2017
released,2018
releases,2019
relevance,2020
reliable,2021
remember,2022
remembering,2023
remind,2024
reminder,2025
removable,2026
rename,2027
renatmin,2028
render,2029
rep,2030
repair,2031
reparsedonedigitnlzgi,2032
replace,2033
replaced,2034
replaceit,2035
replacement,2036
replacing,2037
replied,2038
replies,2039
report,2040
reported,2041
reporting,2042
reports,2043
represent,2044
reprisk,2045
request,2046
required,2047
research,2048
resellars,2049
reservation,2050
reserve,2051
resolution,2052
resolve,2053
resources,2054
respect,2055
respectmaswagg,2056
response,2057
responsive,2058
rest,2059
restore,2060
restored,2061
restoring,2062
restrictions,2063
results,2064
retail,2065
retire,2066
retrieve,2067
return,2068
retweet,2069
retweeted,2070
retweets,2071
revenue,2072
review,2073
rgbhhuqp,2074
rice,2075
rich,2076
richer,2077
rickysinghpt,2078
ridic,2079
right,2080
rihanna,2081
rim,2082
rimm,2083
ring,2084
rip,2085
ripstevejobs,2086
rise,2087
riskiest,2088
rkparsedonedigitkphss,2089
rly,2090
robert_terpstra,2091
roboto,2092
rogerweir,2093
roll,2094
ronakkataria,2095
room,2096
rooting,2097
rossmistry,2098
rot,2099
round,2100
row,2101
roycind,2102
rparsedonedigithnettu,2103
rparsedonedigitjujsbr,2104
rparsedonedigitrndnparsedonedigity,2105
rparsedtwodigits,2106
rt,2107
rts,2108
ruining,2109
run,2110
running,2111
runtime,2112
rva,2113
rww,2114
rxwdparsedonedigitsnparsedonedigit,2115
ryanbaldwin,2116
rygurl,2117
safari,2118
safe,2119
safety,2120
sage,2121
said,2122
sake,2123
sale,2124
sales,2125
salesforce,2126
samay,2127
samsung,2128
samsunggalaxynexus,2129
samsungmobileca,2130
samsungnexus,2131
sandwich,2132
santorum,2133
sap,2134
sarahhhhhparsedthreedigits,2135
save,2136
saved,2137
saw,2138
sawyerhartman,2139
say,2140
saying,2141
says,2142
sbs,2143
sbsparsedfourdigits,2144
scares,2145
schaumburg,2146
schedule,2147
schestowitz,2148
school,2149
science,2150
scientist,2151
scores,2152
scottdugas,2153
scottydparsedfivedigits,2154
scream,2155
screen,2156
screened,2157
screenshot,2158
screenshots,2159
screw,2160
screwed,2161
screwing,2162
scroll,2163
scrolling,2164
sd,2165
sdk,2166
seamlessly,2167
sean,2168
search,2169
searches,2170
searching,2171
sebascoulombe,2172
second,2173
section,2174
secure,2175
seeks,2176
seemingly,2177
seen,2178
select,2179
sell,2180
selling,2181
sells,2182
semilshah,2183
send,2184
sending,2185
sense,2186
sent,2187
sentences,2188
seo,2189
september,2190
sequence,2191
seriously,2192
served,2193
server,2194
servers,2195
service,2196
services,2197
sesamestreet,2198
session,2199
set,2200
sgn,2201
shagged,2202
shagorikah,2203
share,2204
sharepoint,2205
sharing,2206
shaydiddy,2207
shhhh,2208
shifted,2209
ship,2210
shipping,2211
shit,2212
shitty,2213
shlft,2214
shore,2215
shoukd,2216
showed,2217
showin,2218
showing,2219
shows,2220
shuffle,2221
shutter,2222
sick,2223
sigh,2224
sign,2225
signal,2226
signs,2227
signups,2228
similar,2229
simple,2230
simply,2231
sinanaral,2232
singaporean,2233
singing,2234
siri,2235
siriwho,2236
sister,2237
sit,2238
site,2239
sith,2240
sitting,2241
skandalasgp,2242
skills,2243
skin,2244
skype,2245
slashgear,2246
sledgehammer,2247
sleek,2248
sleep,2249
slegit,2250
slick,2251
slide,2252
slightly,2253
slow,2254
slower,2255
slowly,2256
slows,2257
sm,2258
smalfunctioningagain,2259
small,2260
smallvictory,2261
smart,2262
smartest,2263
smartkeitai,2264
smartphone,2265
smashed,2266
smau,2267
smm,2268
smooth,2269
sms,2270
snatched,2271
snippy,2272
snlparsedtwodigitsemparsedonedigit,2273
snow,2274
socia,2275
social,2276
socialmedia,2277
software,2278
solution,2279
solutions,2280
solve,2281
someparsedonedigit,2282
song,2283
songs,2284
sony,2285
soon,2286
sooo,2287
soooo,2288
soparsedonedigitwparseddigitsspn,2289
sorri,2290
sorry,2291
sorude,2292
sought,2293
sound,2294
soundmore,2295
sounds,2296
source,2297
space,2298
spacecanard,2299
spaces,2300
spam,2301
spanish,2302
speakers,2303
speaking,2304
speech,2305
speed,2306
spell,2307
spend,2308
spending,2309
spiral,2310
spoiled,2311
spoke,2312
spongebob,2313
spontaneously,2314
sports,2315
spparsedfourdigits,2316
sprint,2317
spying,2318
sql,2319
sqlserver,2320
sqneparsedonedigitilb,2321
srbmparsedonedigitvparseddigitsk,2322
st,2323
stable,2324
stacks,2325
staff,2326
stalkerismo,2327
stand,2328
standards,2329
start,2330
started,2331
states,2332
steeloparsedthreedigits,2333
steffen,2334
step,2335
steps,2336
steve,2337
steveballmer,2338
steveballmet,2339
stevejobs,2340
stewart,2341
stick,2342
stickies,2343
sticking,2344
sticky,2345
stolen,2346
stop,2347
storage,2348
store,2349
stores,2350
stories,2351
story,2352
straight,2353
strangest,2354
stream,2355
stressed,2356
stuck,2357
students,2358
study,2359
studying,2360
stuff,2361
stumped,2362
stupid,2363
stylus,2364
submitted,2365
subscriptions,2366
subtweeting,2367
suburbs,2368
succesfully,2369
success,2370
sucha,2371
suck,2372
sucking,2373
sucks,2374
sudden,2375
suddenly,2376
suffering,2377
sugar,2378
suggested,2379
suing,2380
summer,2381
sums,2382
sun,2383
sunday,2384
super,2385
superb,2386
superior,2387
superphone,2388
support,2389
sure,2390
surely,2391
surface,2392
surprised,2393
surprises,2394
survey,2395
surviving,2396
susanfelicity,2397
sux,2398
swaag,2399
swallow,2400
sware,2401
swear,2402
sweatshops,2403
sweet,2404
switch,2405
switching,2406
swpats,2407
swype,2408
sydney,2409
sym,2410
sync,2411
synching,2412
syncing,2413
syncronize,2414
syncs,2415
systems,2416
tablet,2417
tablets,2418
tah_med,2419
taken,2420
takes,2421
taking,2422
talk,2423
talking,2424
target,2425
tasparsedfivedigits,2426
taste,2427
taught,2428
tbnyxparsedonedigitpparseddigits,2429
tcn,2430
tcot,2431
team,2432
teamed,2433
teamfollowback,2434
teamo,2435
teams,2436
teasing,2437
tech,2438
techfest,2439
techflash,2440
techie,2441
techietroubles,2442
technical,2443
technological,2444
technologies,2445
technology,2446
techsupport,2447
techy,2448
teehee,2449
telegraph,2450
tell,2451
telling,2452
tellme,2453
tells,2454
terminal,2455
terms,2456
terrible,2457
test,2458
testing,2459
text,2460
texts,2461
tha,2462
thank,2463
thankful,2464
thankfully,2465
thanks,2466
thanksfornothing,2467
thankyou,2468
thats,2469
theft,2470
thegadgetshow,2471
thelittleappkid,2472
themarketaire,2473
theme,2474
thenonsensepersists,2475
theresamarosy,2476
thievingbastards,2477
thing,2478
things,2479
thingsweallhate,2480
thingswealllove,2481
think,2482
thinking,2483
thinks,2484
thnx,2485
thomas,2486
thorn,2487
thorough,2488
thought,2489
thoughtful,2490
thoughts,2491
threat,2492
threaten,2493
throw,2494
throws,2495
thumbs,2496
thursday,2497
thx,2498
thxx,2499
tiger,2500
til,2501
time,2502
timeline,2503
times,2504
timewarnercable,2505
timing,2506
tint,2507
tipped,2508
tired,2509
titanic,2510
tl,2511
tmdfqreparsedonedigit,2512
tmw,2513
today,2514
told,2515
toledo,2516
tomcolontonio,2517
tommylee,2518
tomorrow,2519
tonight,2520
tonite,2521
tons,2522
took,2523
tool,2524
tools,2525
toparsedonedigitne,2526
tossing,2527
total,2528
totally,2529
touch,2530
touchscreen,2531
tour,2532
toy,2533
toys,2534
tragic,2535
training,2536
transferred,2537
trash,2538
treyhobparsedtwodigits,2539
tri,2540
trial,2541
tribute,2542
tried,2543
tries,2544
trip,2545
triple,2546
triplingo,2547
trisha_ps,2548
trivia,2549
trojan,2550
tron,2551
tronman,2552
trouble,2553
truly,2554
try,2555
trying,2556
tsql,2557
tt,2558
turn,2559
turned,2560
turning,2561
turns,2562
tv,2563
twaeudbp,2564
twalve,2565
tweet,2566
tweeted,2567
tweeter,2568
tweeting,2569
tweets,2570
twitter,2571
twitterapp,2572
twitterer,2573
twitterless,2574
twitternation,2575
twitters,2576
twitterswag,2577
tx,2578
txts,2579
ty,2580
type,2581
typing,2582
uaqrxtnk,2583
uber,2584
uch,2585
ufparsedonedigittakparsedonedigitf,2586
ugh,2587
ughh,2588
ugly,2589
uh,2590
ui,2591
uiparsedonedigitadparsedonedigitfj,2592
uiparsedonedigitloezx,2593
ukwokbgd,2594
um,2595
umber,2596
umd,2597
umparsedthreedigitsjfh,2598
unable,2599
unbelievable,2600
unborn,2601
undergo,2602
underrated,2603
understand,2604
underwhelming,2605
undo,2606
unfair,2607
unhappy,2608
unified,2609
units,2610
university,2611
unless,2612
unlike,2613
unlock,2614
unlocking,2615
unmindful,2616
unproductive,2617
unquality,2618
unveil,2619
unveiled,2620
unwanted,2621
upcoming,2622
update,2623
updated,2624
updates,2625
updating,2626
upgrade,2627
upgraded,2628
upgrades,2629
upgrading,2630
uphill,2631
upload,2632
ups,2633
upset,2634
ur,2635
urxjixce,2636
usage,2637
use,2638
used,2639
useful,2640
useless,2641
user,2642
users,2643
uses,2644
using,2645
usual,2646
utilities,2647
utterly,2648
uweyalkb,2649
ux,2650
validated,2651
values,2652
vancouver,2653
vanillalatte_xd,2654
vattam,2655
ve,2656
vegas,2657
venturebeat,2658
verizon,2659
verizonwireless,2660
version,2661
vertical,2662
vibrate,2663
victim,2664
victims,2665
video,2666
videos,2667
views,2668
vinodrad,2669
violated,2670
virtual,2671
visigoth,2672
visit,2673
vista,2674
visual,2675
vjrssfyn,2676
vkvparsedonedigittbcj,2677
vmware,2678
voice,2679
voicecontrol,2680
volume,2681
voparsedthreedigitsmrz,2682
vs,2683
vslive,2684
vsphereparsedonedigit,2685
vtybqiparsedtwodigits,2686
vuwgyxparsedonedigitn,2687
vvparsedonedigitltkyp,2688
vwciovparsedonedigitf,2689
wack,2690
wait,2691
waited,2692
waiting,2693
walk,2694
walled,2695
wallet,2696
wallpaper,2697
wanna,2698
want,2699
wanted,2700
wanting,2701
wants,2702
war,2703
warm,2704
warning,2705
warranty,2706
wash,2707
wasn,2708
wasted,2709
wasting,2710
watch,2711
watchdog,2712
watched,2713
watching,2714
water,2715
way,2716
web,2717
webcamps,2718
webgl,2719
webos,2720
webpage,2721
webpronews,2722
website,2723
week,2724
weekend,2725
welcome,2726
welcomeskype,2727
wellisparsedtwodigits,2728
went,2729
west,2730
whaddupwitdat,2731
whale,2732
whatchu,2733
whhyy,2734
whoops,2735
whore,2736
whores,2737
whoring,2738
widget,2739
widgets,2740
wife,2741
wifi,2742
wififofum,2743
wilth,2744
win,2745
windows,2746
windowsparsedonedigit,2747
windowsparsedonedigitmobile,2748
windowsphone,2749
winning,2750
winparsedonedigit,2751
winrt,2752
wiped,2753
wireless,2754
wisconsin_mommy,2755
wise,2756
wish,2757
wit,2758
witchcraft,2759
wmp,2760
wo,2761
won,2762
wonder,2763
wondering,2764
wonky,2765
wont,2766
wooden,2767
woods,2768
word,2769
words,2770
work,2771
workers,2772
workflow,2773
workflows,2774
working,2775
works,2776
workshop,2777
workstation,2778
world,2779
worldwide,2780
worried,2781
worries,2782
worse,2783
worst,2784
worstupdateever,2785
worth,2786
wouldn,2787
wounded,2788
wow,2789
wpdesignteam,2790
wpparsedonedigit,2791
wristpad,2792
write,2793
writing,2794
wrong,2795
wtf,2796
wth,2797
wtjparsedonedigitogdo,2798
wuhu,2799
wuparsedonedigitbfiparsedonedigith,2800
wuppy,2801
wvzprbci,2802
wxbcparsedonedigituuw,2803
xbl,2804
xbox,2805
xboxlive,2806
xcuntnuggetx,2807
xero,2808
xliparsedonedigitbrparsedtwodigits,2809
xparsedonedigitywfnsv,2810
xsjgifop,2811
xvparsedonedigitqparseddigitsgfi,2812
xx,2813
ya,2814
yahoo,2815
yapping,2816
yashasjoshi,2817
yea,2818
yeah,2819
yeahh,2820
year,2821
years,2822
yeh,2823
yellow,2824
yellowgate,2825
yep,2826
yes,2827
yessss,2828
yesterday,2829
ykchtuparsedonedigith,2830
ykqipparsedonedigitnk,2831
yo,2832
yootfktm,2833
youtube,2834
yparsedonedigit,2835
yr,2836
yrckqeis,2837
yrs,2838
yummy,2839
yumyumyum,2840
yup,2841
yyparsedonedigithnrbq,2842
yzhcdgfp,2843
zacksiezmagraff,2844
zbltzparsedonedigitmw,2845
zero,2846
zgbkparsedonedigitxnk,2847
zixfaparsedtwodigitsn,2848
zknparsedonedigitbuparsedonedigitr,2849
zndpparsedonedigitvrparsedonedigit,2850
zombiebomber,2851
zoom,2852
zparsedonedigitbbjparsedonedigitxu,2853
zparsedonedigitidoniparsedonedigit,2854
zparsedonedigitjwlqvu,2855
zrqoewxi,2856
zune,2857
zxparsedonedigitpwparsedonedigitgt,2858
zzcparsedonedigitbeparsedonedigitw,2859
你好,2860
透過,2861
