_yoyo,0
absolut,1
addict,2
admit,3
ago,4
ah,5
ahem,6
ahism,7
aid,8
air,9
airport,10
ako,11
alicia,12
alizegel,13
alon,14
alreadi,15
also,16
alway,17
amaz,18
amen,19
america,20
amieyacula,21
amo,22
ampel,23
amwrit,24
amypook,25
andrea,26
angri,27
anoth,28
answer,29
antwun,30
anya,31
anymor,32
anyth,33
aparsedthreedigitsr,34
app,35
argh,36
around,37
arrghh,38
arriv,39
asham,40
ashbashparsedfourdigit,41
asher_ashi,42
ask,43
asleep,44
assum,45
atlant,46
atlanticgolf,47
att,48
aubreyoday,49
august,50
avaaz,51
away,52
awesom,53
awesomee,54
aww,55
awww,56
awwwww,57
babi,58
back,59
bad,60
badmood,61
bahahaha,62
balconi,63
ban,64
band,65
bank,66
baq,67
bar,68
basebal,69
bastard,70
bat,71
batteri,72
bbparsedtwodigit,73
bbq,74
bbygirl_wi,75
bcaus,76
bcceq,77
beach,78
bear,79
beatric,80
beauti,81
beautiful,82
bebo,83
bed,84
bedtim,85
begin,86
benar,87
best,88
better,89
betti,90
bf,91
bffffff,92
big,93
bike,94
billi,95
birthday,96
bit,97
blender,98
blog,99
blogspot,100
blue,101
bluetre,102
blueturnsr,103
boa,104
board,105
bobby_doreparsedtwodigit,106
bom,107
book,108
booti,109
born,110
bought,111
bout,112
bowt,113
boyfriend,114
bpp,115
bracelet,116
bras,117
brazil,118
break,119
breath,120
bree,121
bringsdogtowork,122
british,123
britney,124
bro,125
brookeadamstbgparsedonedigit,126
brooklyn,127
brother,128
bt,129
budget,130
bull,131
bum,132
bus,133
busi,134
butt,135
butter,136
buttercupd,137
bwahahaha,138
cake,139
calevan,140
call,141
cancel,142
cancun,143
cannot,144
cant,145
car,146
card,147
carolinamnz,148
carolyn,149
caroon,150
case,151
cast,152
caus,153
cedar,154
celeb,155
celebr,156
cell,157
ceremoni,158
ceruleandepth,159
ch,160
chadwickhjon,161
chair,162
chanc,163
chang,164
channel,165
chariberri,166
charm,167
chase,168
cheesecak,169
chest,170
chicken,171
child,172
children,173
chill,174
chloe,175
chocol,176
chosen,177
christma,178
chubbi,179
chug,180
church,181
cinderella,182
cinemar,183
citi,184
ckparsedonedigitei,185
class,186
classi,187
clean,188
clear,189
clone,190
close,191
closet,192
co,193
cockpit,194
code,195
coercion,196
coffe,197
color,198
com,199
come,200
comment,201
common,202
communic,203
communiti,204
commut,205
compar,206
concentr,207
confess,208
congrat,209
connect,210
consecut,211
conserv,212
consid,213
consist,214
contain,215
cook,216
cool,217
cooool,218
corgreen,219
cos,220
costum,221
could,222
courtneyparsedthreedigit,223
cparsedonedigitjparsedtwodigit,224
cpjparsedonedigit,225
cptac,226
crazi,227
cream,228
creativ,229
creepi,230
cri,231
crisp,232
cross,233
crowd,234
crystalroseparsedtwodigit,235
cuddl,236
current,237
custodi,238
cuwarrior,239
cycl,240
da,241
daaay,242
dad,243
damn,244
danheparsedtwodigit,245
daniel,246
daparsedtwodigit,247
dark,248
darker,249
day,250
dc,251
ddlovato,252
death,253
debbi,254
debbiefletch,255
deefamouss,256
deep,257
deepndist,258
definit,259
dem,260
den,261
dentist,262
departur,263
desert,264
detail,265
dey,266
dia,267
diamondlarri,268
didnt,269
die,270
diet,271
dilemma,272
dinner,273
dirtinmyi,274
dis,275
disord,276
display,277
dnt,278
done,279
dongwayn,280
dont,281
door,282
dorri,283
drairrick,284
draw,285
dreaamara,286
dream,287
drewfromtv,288
drink,289
drive,290
driver,291
drop,292
dropbox,293
drown,294
drunk,295
dude,296
dunno,297
dwarf,298
dyee,299
eagl,300
earlier,301
earparsedtwodigit,302
eat,303
edit,304
either,305
els,306
email,307
emmalbishop,308
emot,309
end,310
endless,311
energi,312
enjoy,313
enough,314
enter,315
erm,316
erynmichael,317
escola,318
esp,319
essteeyou,320
etc,321
eu,322
evacue,323
even,324
ever,325
everybodi,326
everyon,327
everyth,328
excel,329
excit,330
exhibit,331
expect,332
experienc,333
expert,334
extrem,335
eye,336
eyepatch,337
eyeranprotestr,338
facebook,339
facepl,340
facil,341
fact,342
fair,343
fam,344
fama,345
famili,346
famous,347
fan,348
fank,349
fantast,350
fanyjjang,351
far,352
faraday,353
fast,354
fav,355
favorit,356
favorr,357
februari,358
feel,359
felt,360
film,361
final,362
financi,363
find,364
fine,365
finger,366
finish,367
first,368
fishi,369
five,370
fiveparsedtwodigitsdesign,371
fix,372
flickr,373
flu,374
fml,375
folder,376
follow,377
followfriday,378
food,379
foreign,380
forget,381
forth,382
forward,383
found,384
fparsedonedigitaparseddigitsyh,385
fr,386
freez,387
frekin,388
fresh,389
fri,390
friday,391
friend,392
fuck,393
fucker,394
fuckyeahhappi,395
full,396
fun,397
funi,398
funkyheff,399
funni,400
gabor,401
game,402
gargl,403
gay,404
ge,405
gem,406
gemstar,407
germani,408
get,409
gett,410
gift,411
giparsedonedigitin,412
girl,413
giv,414
glad,415
glee,416
go,417
goal,418
god,419
goe,420
golf,421
gon,422
gone,423
gonna,424
good,425
goodnight,426
gop,427
gosh,428
gossip,429
got,430
gotta,431
grab,432
gramerci,433
grammar,434
grandma,435
great,436
greet,437
groupparsedonedigitcrew,438
grow,439
grr,440
grub,441
guess,442
guidoparsedtwodigit,443
guilti,444
guitar,445
guy,446
gve,447
ha,448
haha,449
hahah,450
hahaha,451
hain,452
hair,453
hairbrush,454
halloween,455
hamburg,456
hand,457
hang,458
hannah,459
happen,460
happi,461
happyhwif,462
happyprettyyou,463
hard,464
hardcorelom,465
harr,466
harri,467
hat,468
hate,469
havana,470
havocparsedfourdigit,471
haz,472
head,473
headach,474
hear,475
heard,476
heartbreak,477
heavi,478
heck,479
hehe,480
hello,481
help,482
helpless,483
hey,484
heycassade,485
hi,486
higgin,487
hmm,488
hmmm,489
hold,490
holiday,491
home,492
homecom,493
homework,494
honey,495
hook,496
hope,497
host,498
hot,499
hour,500
hous,501
howev,502
http,503
hub,504
hug,505
huge,506
huhuu,507
human,508
humbracht,509
hungri,510
hurt,511
iamthemob,512
ice,513
idk,514
ignor,515
il,516
ill,517
illscarlett,518
im,519
imagin,520
imisss,521
impress,522
incred,523
indoor,524
indraputra,525
inglori,526
instead,527
interest,528
invit,529
iowacodecamp,530
iphon,531
iranelect,532
iraq,533
isaiah,534
isotopp,535
issu,536
itsmebadgley,537
jackieloi,538
jackson,539
jagzparsedthreedigit,540
jake_diparsedthreedigit,541
jakieeeparsedtwodigit,542
janemcmurri,543
japanes,544
jaronmc,545
jasonmparsedthreedigit,546
jawshoouh,547
jaxsk,548
jeanined,549
jefftimmonsparsedtwodigit,550
jennihogan,551
jessybr,552
jesus,553
jkgirlalltheway,554
joejonasloverxo,555
johnni,556
johnnyparsedthreedigit,557
join,558
jordanknight,559
journey,560
jparsedonedigitzi,561
karinkydink,562
katecooperowen,563
kc,564
kebab,565
keema,566
keep,567
kentruff,568
keyboard,569
kinakabahan,570
kind,571
kinda,572
kindasleepi,573
knee,574
knew,575
know,576
knw,577
kokeshi_m,578
kuuipoparsedfourdigit,579
la,580
lack,581
ladi,582
lagi,583
lalasarah,584
laptop,585
last,586
lata,587
later,588
learn,589
leas,590
least,591
leav,592
leeconti,593
left,594
leg,595
lesliellyn,596
less,597
let,598
lexi,599
librivoxat,600
lie,601
life,602
lift,603
like,604
lil,605
lilgreenfing,606
lisa,607
list,608
listen,609
littl,610
littleliverbird,611
live,612
lloyddavi,613
lnk,614
lol,615
long,616
loo,617
look,618
lookyparsedonedigit,619
lorrain,620
lose,621
loss,622
lost,623
lot,624
love,625
loveu,626
loveya,627
lparsedonedigitr,628
lt,629
lub,630
luci,631
luk,632
lunch,633
lunchenda,634
luv,635
lxvrp,636
ly,637
lyphpcp,638
mad,639
made,640
maggagy,641
make,642
makemeupparsedtwodigit,643
man,644
mandyjiroux,645
mani,646
mar,647
march,648
marcoshaw,649
mari,650
marionett,651
market,652
markkayeshow,653
marleyterri,654
marvetbritto,655
massiv,656
mattchewcorpuz,657
matter,658
may,659
mayb,660
mbp,661
mean,662
meet,663
melsieparsedtwodigit,664
memori,665
men,666
mess,667
michael,668
michaelmag,669
michigan,670
midnight,671
might,672
millajovovich,673
million,674
mind,675
mine,676
minut,677
mircea_popescu,678
miss,679
missi,680
mister,681
mitchelmusso,682
mitchyparsedfourdigit,683
mmm,684
mobilem,685
moder,686
moegreeb,687
momma,688
money,689
month,690
monthsari,691
montreat,692
morn,693
morriscat,694
mother,695
motorcycl,696
mouth,697
movi,698
ms,699
much,700
mulat,701
multitask,702
muscl,703
music,704
musicgirlparsedthreedigit,705
mx,706
myloc,707
myprivatemus,708
myselfffffff,709
myspac,710
na,711
name,712
natali,713
natassiachlo,714
natta,715
nbc,716
nd,717
need,718
never,719
new,720
news,721
neww,722
next,723
nic_a_,724
nice,725
nieanadya,726
night,727
nise,728
nkotb,729
nl,730
nongl,731
note,732
noth,733
nothin,734
notic,735
nparsedtwodigitsmz,736
number,737
obama,738
occ,739
offer,740
offic,741
offici,742
oh,743
ok,744
okay,745
old,746
omegl,747
omg,748
one,749
onto,750
oowarai,751
ope,752
open,753
opinion,754
orang,755
order,756
orinoco,757
oritsuru,758
orphan,759
orphesteud,760
osang,761
osangmeist,762
oth,763
outfit,764
outlet,765
outsid,766
outta,767
owt,768
owwwiee,769
oz,770
pace,771
pack,772
page,773
pal,774
pant,775
paper,776
parallel,777
parent,778
parseddigit,779
parseddigitsth,780
parsedfivedigit,781
parsedfourdigit,782
parsedonedigit,783
parsedonedigitam,784
parsedonedigitap,785
parsedonedigitbparseddigitszm,786
parsedonedigitdparseddigitsoparsedtwodigit,787
parsedonedigitg,788
parsedonedigitgmicrocel,789
parsedonedigitgparseddigitshq,790
parsedonedigithgvt,791
parsedonedigitkkvli,792
parsedonedigitmorrow,793
parsedonedigitpm,794
parsedonedigitpopetorn,795
parsedonedigitwxparsedonedigitp,796
parsedthreedigit,797
parsedtim,798
parsedtwodigit,799
parsedtwodigitsbparsedthreedigit,800
parsedtwodigitscdnparsedonedigit,801
parsedtwodigitsmparseddigit,802
parsedtwodigitswparsedonedigitcparseddigit,803
parsedtwodigitswxcn,804
part,805
pass,806
past,807
peanut,808
peopl,809
perfect,810
periodd,811
person,812
perzon,813
pex,814
pfshhh,815
phd,816
phone,817
photo,818
photojazz,819
pic,820
pick,821
pictur,822
picture,823
piec,824
pigment,825
pink,826
pirat,827
pita,828
pizza,829
place,830
plan,831
play,832
pleas,833
plurk,834
podcast,835
poetryinsepia,836
point,837
popular,838
post,839
poster,840
potter,841
pr,842
pr_thing,843
present,844
pretti,845
pro,846
problem,847
process,848
professor,849
propos,850
proud,851
pshhh,852
psparsedonedigit,853
pumpkin,854
punch,855
pupp,856
purpl,857
pusuit,858
put,859
qoo,860
qtt,861
qual,862
queenmotherblog,863
quick,864
quit,865
quiz,866
radioblogg,867
rain,868
rajeshlalwani,869
raspberri,870
rawr,871
rdangelz,872
read,873
real,874
realbrookewhit,875
realiz,876
realli,877
recommend,878
record,879
redneck,880
reduct,881
refer,882
registr,883
reikiawaken,884
relat,885
relax,886
remind,887
report,888
republican,889
resolut,890
rest,891
restaur,892
restor,893
returnn,894
rid,895
ride,896
right,897
ring,898
rip,899
ririardana,900
risk,901
roar,902
roast,903
robertgirandola,904
rock,905
rt,906
rub,907
rubyurl,908
run,909
rush,910
s_lesley,911
sad,912
said,913
salesquot,914
sand,915
sarah,916
saramadison,917
say,918
sayin,919
scalp,920
scare,921
sceneri,922
school,923
score,924
sea,925
seat,926
second,927
see,928
seen,929
sell,930
serious,931
settl,932
shake,933
share,934
shinni,935
ship,936
shirt,937
shit,938
shitti,939
shitttt,940
shoot,941
shot,942
shoulder,943
show,944
shower,945
si,946
sick,947
side,948
sign,949
sim,950
simcard,951
sing,952
sink,953
sis,954
sister,955
sit,956
skill,957
skillet,958
skype,959
sleep,960
slept,961
slight,962
sm,963
smart,964
smell,965
smh,966
smile,967
smith,968
smojica,969
smoke,970
snap,971
snbz,972
sniffl,973
snsd,974
soak,975
soccer,976
social,977
sofa,978
solobasstev,979
solv,980
someday,981
someon,982
someth,983
somethin,984
somewher,985
song,986
soon,987
sooo,988
soooo,989
sooooo,990
sore,991
sorri,992
sort,993
sound,994
soundtrack,995
soup,996
space,997
spam,998
special,999
specialist,1000
spell,1001
spend,1002
spent,1003
spicee,1004
splinter,1005
sport,1006
stalker,1007
start,1008
state,1009
stay,1010
still,1011
stimul,1012
stop,1013
stori,1014
strawberri,1015
street,1016
stress,1017
stroke,1018
strong,1019
stuck,1020
student,1021
stuff,1022
stupidd,1023
stylish,1024
sua,1025
subject,1026
subway,1027
sumbodi,1028
summer,1029
sumwhr,1030
sunburn,1031
sunday,1032
sunni,1033
sunnysiid,1034
sunshin,1035
super,1036
superglrl,1037
support,1038
surpris,1039
surraound,1040
suuurrrrrreee,1041
sweet,1042
sweeten,1043
swim,1044
swine,1045
switch,1046
sync,1047
tackl,1048
tail,1049
taiwanflood,1050
take,1051
talent,1052
talk,1053
talkin,1054
tamsterparsedfourdigit,1055
tara,1056
tass,1057
taylor,1058
tcot,1059
te,1060
teacher,1061
team,1062
tech,1063
technolog,1064
tell,1065
tep,1066
terribl,1067
test,1068
text,1069
texttt,1070
thank,1071
thanksgiv,1072
thankss,1073
that,1074
thebeadgirl,1075
thee,1076
therezzza,1077
thesethreec,1078
thesnarkyon,1079
thing,1080
think,1081
third,1082
though,1083
thought,1084
throw,1085
thx,1086
til,1087
till,1088
time,1089
tinyurl,1090
tire,1091
today,1092
tofu,1093
togeth,1094
togo,1095
toh,1096
told,1097
tom,1098
tommcfli,1099
tomorrow,1100
tonight,1101
tooday,1102
took,1103
tooth,1104
top,1105
tough,1106
tour,1107
town,1108
tqjonesparsedtwodigit,1109
trainwreck,1110
transfer,1111
tri,1112
trigger,1113
trip,1114
true,1115
tuck,1116
tumblr,1117
tummi,1118
tuna,1119
turn,1120
tweamburk,1121
tweet,1122
twit,1123
twitgoo,1124
twitpic,1125
twitter,1126
two,1127
twurl,1128
ugh,1129
ughh,1130
uk,1131
unbeliev,1132
underpaid,1133
understand,1134
unfortun,1135
updat,1136
ur,1137
us,1138
usa,1139
use,1140
useless,1141
user,1142
usnoozin,1143
usual,1144
valu,1145
vbrissaparsedtwodigit,1146
veggi,1147
via,1148
vickiheyworth,1149
vid,1150
video,1151
vinilereu,1152
vino,1153
violetposi,1154
vitamin,1155
voic,1156
voorhout,1157
vt,1158
wah,1159
wait,1160
wak,1161
walkin,1162
wall,1163
wallpap,1164
wanna,1165
want,1166
war,1167
wark,1168
warn,1169
watch,1170
way,1171
wear,1172
wed,1173
week,1174
weekend,1175
weight,1176
weird,1177
well,1178
wen,1179
went,1180
westparsedtwodigit,1181
wet,1182
whee,1183
whenev,1184
white,1185
whitecoat,1186
whole,1187
whore,1188
whos,1189
whose,1190
whre,1191
wifi,1192
wig,1193
wil,1194
wild,1195
willsketchforcak,1196
win,1197
wind,1198
windmil,1199
window,1200
winnipeg,1201
wireless,1202
wisdom,1203
wish,1204
without,1205
woh,1206
woke,1207
woman,1208
wonder,1209
wood,1210
woooohhhoooo,1211
woooooooot,1212
woooot,1213
wore,1214
work,1215
workk,1216
world,1217
wors,1218
worth,1219
would,1220
wow,1221
wrap,1222
wtf,1223
wtff,1224
wuzzup,1225
www,1226
xkathyxtarax,1227
xoxo,1228
xpr,1229
xspparsedonedigitrhparsedtwodigitsd,1230
xueparsedonedigittntparsedonedigitq,1231
xxxx,1232
ya,1233
yarn,1234
yay,1235
yea,1236
yeah,1237
yeahh,1238
year,1239
yec,1240
yellowduckx,1241
yep,1242
yes,1243
yeshh,1244
yet,1245
ykoparsedonedigitdzg,1246
yoghurt,1247
yoo,1248
yu,1249
yum,1250
yup,1251
yuppp,1252
zbussey,1253
ze,1254
zen,1255
zgtdz,1256
zsa,1257
õddd,1258
