aargh,0
about,1
across,2
activist,3
after,4
against,5
ago,6
airline,7
all,8
als,9
alsicebucketchallenge,10
also,11
am,12
american,13
americans,14
amp,15
an,16
and,17
andi,18
android,19
angeles,20
another,21
app,22
apparently,23
are,24
arguably,25
arm,26
artist,27
as,28
ass,29
assâ,30
at,31
attack,32
attitude,33
away,34
back,35
bags,36
band,37
bangladesh,38
bcci,39
be,40
beautiful,41
because,42
becomes,43
been,44
beetles,45
begins,46
being,47
benjamin,48
best,49
better,50
bf,51
biggest,52
billion,53
black,54
blew,55
boo,56
borders,57
both,58
bowling,59
bradlee,60
bradley,61
bremaxwell,62
brilliance,63
british,64
broke,65
brownies,66
bucket,67
but,68
butchering,69
by,70
call,71
called,72
can,73
cano,74
certainly,75
cfarrisparsedtwodigits,76
challenge,77
charge,78
cheapest,79
cheer,80
cheers,81
cheney,82
childish,83
children,84
chinaâ,85
chit,86
chrisyoungmusic,87
clean,88
clear,89
co,90
coincidence,91
comes,92
commits,93
completely,94
condi,95
constantly,96
convergence,97
convert,98
cooper,99
core,100
country,101
cover,102
coz,103
crashed,104
critically,105
crow,106
curie,107
cut,108
cuz,109
david_cameron,110
davidjoachim,111
day,112
days,113
deeeeezyparsedtwodigits,114
dem,115
democracy,116
demolished,117
dentist,118
did,119
died,120
difficult,121
directions,122
dislike,123
do,124
donald,125
donation,126
donâ,127
door,128
down,129
drinking,130
dropbox,131
drowning,132
eastern,133
effectively,134
eid,135
election,136
ells,137
ellsbury,138
engvind,139
enjoy,140
epic,141
ethics,142
europeans,143
facebook,144
fans,145
fantastic,146
fascism,147
fascist,148
faster,149
few,150
field,151
fifa,152
flights,153
fo,154
folkâ,155
follow,156
for,157
forged,158
forgoes,159
forgot,160
forward,161
founder,162
four,163
from,164
fucking,165
funny,166
gauhar,167
gaza,168
gej,169
genocide,170
george,171
get,172
getright,173
ggreenwald,174
girl,175
give,176
giving,177
go,178
goes,179
going,180
good,181
gop,182
gorgeous,183
got,184
granitestudio,185
grants,186
greatestâ,187
guy,188
guys,189
had,190
hahahaha,191
harrison,192
has,193
hashtags,194
hate,195
hates,196
have,197
having,198
hayleighmarieox,199
he,200
health,201
heart,202
heat,203
her,204
highway,205
hilarious,206
him,207
his,208
hope,209
hot,210
how,211
htsjlparsedonedigittywe,212
http,213
https,214
ice,215
ichabod,216
if,217
illdrinktothat,218
illegalamnesty,219
immunity,220
in,221
independence,222
india,223
indian,224
infestation,225
infested,226
injured,227
insecure,228
instead,229
interested,230
internet,231
into,232
introduce,233
invade,234
invented,235
iparsedtwodigitsnews_en,236
irony,237
ironydeficiency,238
ironylevelparsedfourdigits,239
ironyunlimited,240
ironyunmistakable,241
is,242
israel,243
it,244
its,245
jaya,246
jesuischarlie,247
jesus,248
jfpparsedonedigiterbozx,249
job,250
journalism,251
judge,252
judged,253
just,254
kate,255
katomart,256
keepin,257
kenya,258
kerry,259
keurig,260
khan,261
kharkiv,262
khilafahparsedthreedigits,263
killed,264
kindle,265
kingobama,266
kparsedonedigitwparseddigitshmvjht,267
lately,268
laughing,269
leaflets,270
leaving,271
leftist,272
lesson,273
life,274
line,275
lives,276
ll,277
lobby,278
longer,279
looking,280
los,281
lost,282
louisck,283
loves,284
lupita,285
machine,286
make,287
malaysian,288
marie,289
marvins,290
mary,291
mate,292
may,293
maya,294
me,295
meanwhile,296
media,297
meetthepress,298
memorial,299
memory,300
mexico,301
might,302
missing,303
more,304
morning,305
most,306
mouths,307
move,308
mr,309
msy,310
mt,311
much,312
murdered,313
muslims,314
my,315
naijanerd,316
nation,317
new,318
next,319
nice,320
nigga,321
no,322
nocricket,323
not,324
nothing,325
now,326
nynnvwparsedtwodigitswy,327
nyong,328
obama,329
oblivion,330
odi,331
of,332
off,333
office,334
officially,335
okay,336
omeisy,337
on,338
one,339
ones,340
only,341
onparsedonedigitmeal,342
options,343
oswald,344
otbewggbtj,345
our,346
out,347
over,348
overload,349
paid,350
park,351
parseddigits,352
parsedfourdigits,353
parsedonedigit,354
parsedonedigitgntibiqei,355
parsedonedigitst,356
parsedonedigitwumfparsedonedigitpcll,357
parsedthreedigits,358
parsedtwodigits,359
parsedtwodigitsk,360
passed,361
people,362
performance,363
pine,364
plan,365
planted,366
point,367
politics,368
poor,369
poorest,370
posting,371
postponement,372
president,373
pretextâ,374
pro,375
probably,376
profession,377
program,378
proposition,379
public,380
puffing,381
qpparsedonedigitbsparsedonedigitehye,382
queen,383
quick,384
random,385
rascalflatts,386
rash,387
re,388
ready,389
real,390
really,391
rebuild,392
recently,393
regret,394
reliable,395
relies,396
religion,397
reopened,398
republican,399
response,400
return,401
rice,402
rich,403
richer,404
rifle,405
rob,406
robbed,407
roll,408
rooting,409
royals,410
rule,411
running,412
russia,413
ryanbleslie,414
sad,415
salon,416
sawston,417
say,418
says,419
search,420
see,421
seem,422
seen,423
sellout,424
sells,425
seriouslywhat,426
service,427
she,428
shots,429
shouting,430
shuts,431
sick,432
silently,433
simple,434
size,435
skin,436
sleepyhollow,437
smart,438
smile,439
so,440
some,441
something,442
sometimes,443
somewhere,444
spending,445
srisulgceo,446
stalking,447
stand,448
start,449
state,450
states,451
stay,452
sterling,453
straight,454
style,455
subtweeting,456
supplements,457
surely,458
take,459
talking,460
tanvirsalimparsedonedigit,461
tattooed,462
team,463
thailand,464
than,465
that,466
the,467
thebachelorette,468
thebeatles,469
their,470
themselves,471
they,472
thing,473
think,474
this,475
three,476
thugs,477
timing,478
tire,479
to,480
today,481
tomorrow,482
torture,483
torturereport,484
touch,485
tragic,486
transforms,487
traviscjohnsonparsedonedigit,488
tree,489
trumped,490
trying,491
tweet,492
twitter,493
typed,494
tâ,495
ukip,496
ukraine,497
under,498
unfortunate,499
universal,500
university,501
unlike,502
up,503
usa,504
use,505
using,506
value,507
ve,508
video,509
vital,510
voice,511
walked,512
wanting,513
was,514
watching,515
waze,516
wbjparsedonedigititmvhd,517
we,518
website,519
week,520
weekend,521
were,522
when,523
which,524
while,525
whilst,526
who,527
whose,528
wifi,529
will,530
with,531
women,532
wonder,533
work,534
would,535
wouldn,536
wounded,537
wow,538
wvraman,539
yankees,540
years,541
yes,542
yet,543
yoof,544
you,545
your,546
zaxjepteparsedtwodigits,547
zumrfyparsedonedigitdci,548
ðÿ,549
œforeignersâ,550
œgod,551
œon,552
œyou,553
