_yoyo,0
absolutely,1
account,2
addicted,3
admit,4
affected,5
ago,6
ah,7
ahem,8
aid,9
ain,10
air,11
airport,12
alexknight,13
alicia,14
alizegel,15
allowance,16
amazing,17
amen,18
amieyacula,19
amo,20
amwriting,21
amypookers,22
angry,23
answer,24
antwun,25
anya,26
anymore,27
aparsedthreedigitsr,28
apod,29
app,30
aren,31
argh,32
arrghh,33
arrivals,34
ashamed,35
ashbashparsedfourdigits,36
asher_ashy,37
ask,38
asleep,39
assumed,40
atlantic,41
atlanticgolf,42
att,43
avaaz,44
away,45
awesome,46
awesomeee,47
aww,48
awww,49
awwwww,50
babies,51
baby,52
bad,53
badmood,54
bahahaha,55
balcony,56
band,57
bank,58
banned,59
baq,60
bar,61
baseball,62
bass,63
bastards,64
bathroom,65
battery,66
bbparsedtwodigits,67
bbq,68
bbygirl_wy,69
bcause,70
bcceq,71
beach,72
bear,73
bearly,74
beatrice,75
beautiful,76
beautifull,77
bebo,78
bed,79
bedtime,80
begins,81
believe,82
benares,83
best,84
better,85
bf,86
bffffff,87
big,88
bigger,89
bike,90
biked,91
billy,92
birthday,93
bit,94
blender,95
bless,96
blogged,97
blogspot,98
blue,99
blueturnsred,100
board,101
bobby_doreparsedtwodigits,102
bom,103
book,104
booked,105
books,106
booty,107
born,108
bought,109
bout,110
bowt,111
boyfriend,112
bpp,113
bracelet,114
break,115
breath,116
bree,117
briefly,118
bringsdogtowork,119
britney,120
bro,121
brookeadamstbgparsedonedigit,122
brooklyn,123
brother,124
bt,125
buckley,126
budget,127
buffalo,128
bull,129
bums,130
bus,131
busy,132
butt,133
butter,134
buttercupd,135
cake,136
calevans,137
cancel,138
cancelled,139
cancun,140
car,141
card,142
carolinamnz,143
carolyn,144
caroons,145
cast,146
cat,147
cathrynmarie,148
cause,149
celeb,150
celebrate,151
cell,152
ceremony,153
ceruleandepths,154
ch,155
chadwickhjones,156
chair,157
change,158
channel,159
chariberri,160
chasing,161
cheesecake,162
chest,163
chicken,164
child,165
children,166
chilling,167
chloe,168
chocolate,169
chosen,170
christmas,171
chubby,172
chug,173
church,174
cinderella,175
cinemar,176
city,177
ckparsedonedigitei,178
class,179
classy,180
clean,181
clear,182
closed,183
closet,184
code,185
coercion,186
coffee,187
cold,188
color,189
com,190
come,191
comeback,192
comes,193
comfortably,194
coming,195
comment,196
common,197
communicate,198
community,199
commute,200
compared,201
concentrate,202
confessed,203
congrats,204
connected,205
consecutive,206
considering,207
consist,208
construction,209
contains,210
cook,211
cool,212
cools,213
cooool,214
corgreen,215
cos,216
costume,217
courtneyparsedthreedigits,218
cparsedonedigitjparsedtwodigits,219
cptac,220
cream,221
creative,222
creepy,223
crisp,224
crossed,225
crowd,226
crying,227
crystalroseparsedtwodigits,228
custody,229
cute,230
cuwarrior,231
cycle,232
cycling,233
da,234
daaay,235
dad,236
damn,237
danheparsedtwodigits,238
danny,239
daparsedtwodigits,240
dark,241
darker,242
dave_nicholson,243
daveellisparsedfourdigits,244
day,245
days,246
dc,247
deefamouss,248
deep,249
deepndistant,250
definitely,251
dem,252
den,253
dentist,254
departures,255
depressing,256
desert,257
detailing,258
dey,259
dia,260
diamondlarry,261
did,262
didn,263
died,264
dilemma,265
dinner,266
dirtinmyi,267
dis,268
disorder,269
display,270
dnt,271
does,272
doesn,273
doing,274
don,275
dongwayne,276
dont,277
door,278
dorry,279
dparsedfourdigits,280
drairrick,281
draw,282
dreams,283
drewfromtv,284
drinking,285
driver,286
driving,287
dropbox,288
dropped,289
drown,290
drunk,291
dt,292
dude,293
dunno,294
dwarf,295
dydiw,296
dying,297
eagles,298
earlier,299
earparsedtwodigits,300
eat,301
edits,302
emailed,303
emmalbishop,304
emotional,305
end,306
endless,307
energy,308
england,309
enjoy,310
enjoying,311
entered,312
erm,313
erynmichael,314
escola,315
esp,316
essteeyou,317
eu,318
evacuees,319
everybody,320
excel,321
excited,322
exhibit,323
expect,324
experienced,325
eye,326
eyepatch,327
eyeranprotestr,328
facebook,329
faceplants,330
facility,331
fact,332
fair,333
fam,334
fama,335
family,336
famous,337
fan,338
fank,339
fantastic,340
fanyjjang,341
far,342
favorite,343
favs,344
february,345
feel,346
feeling,347
felt,348
film,349
films,350
final,351
financial,352
fine,353
fingers,354
finished,355
fishies,356
fiveparsedtwodigitsdesign,357
fix,358
flickr,359
flickrs,360
flora,361
florateyu,362
flu,363
fml,364
folder,365
followers,366
followfriday,367
food,368
foreign,369
forget,370
forreal,371
forth,372
forward,373
fparsedonedigitaparseddigitsyh,374
fr,375
freezing,376
frekin,377
fresh,378
friday,379
fried,380
friends,381
friggin,382
ft,383
fuck,384
fuckers,385
fucking,386
fuckyeahhappy,387
fun,388
funkyheff,389
funny,390
funy,391
gabor,392
game,393
games,394
gargle,395
gay,396
ge,397
gems,398
gemstars,399
germany,400
gets,401
getting,402
gettting,403
gift,404
girl,405
giv,406
glad,407
glee,408
goal,409
god,410
goes,411
going,412
golf,413
gon,414
gone,415
gonna,416
good,417
goodnight,418
gosh,419
gossip,420
got,421
gotta,422
grab,423
gramercy,424
grammar,425
grandma,426
great,427
greetings,428
grr,429
grub,430
guess,431
guidoparsedtwodigits,432
guilty,433
guitar,434
guy,435
guys,436
gve,437
ha,438
haha,439
hahah,440
hahaha,441
hahahaha,442
hain,443
hair,444
hairbrush,445
halloween,446
hamburg,447
hands,448
hanging,449
hannah,450
happen,451
happy,452
happyslip,453
hard,454
hardcorelomeli,455
harry,456
hat,457
hate,458
hates,459
havana,460
haven,461
having,462
havocparsedfourdigits,463
haz,464
head,465
headache,466
hear,467
heard,468
heart,469
heartbreaking,470
heavy,471
heck,472
hehe,473
hello,474
help,475
hey,476
heycassadee,477
hi,478
higgins,479
hightlight,480
hmmm,481
holds,482
holidays,483
holly,484
hollymadisonparsedthreedigits,485
home,486
homecoming,487
homes,488
homework,489
honey,490
hook,491
hope,492
hoping,493
host,494
hot,495
hours,496
http,497
hub,498
hug,499
huge,500
huhuu,501
human,502
humbracht,503
hungry,504
hurting,505
hurts,506
iamthemob,507
ice,508
idea,509
idk,510
ignore,511
ignoring,512
il,513
ill,514
illscarlett,515
im,516
ima,517
imagine,518
imisss,519
impression,520
indoor,521
indraputra,522
inglorious,523
instead,524
interesting,525
invite,526
involved,527
iowacodecamp,528
iphone,529
iphones,530
iranelection,531
iraq,532
isaiah,533
isn,534
isotopp,535
issues,536
itsmebadgley,537
jackson,538
jagzparsedthreedigits,539
jakieeeparsedtwodigits,540
japanese,541
jaronmc,542
jasonmparsedthreedigits,543
jawshoouh,544
jaxsk,545
jefftimmonsparsedtwodigits,546
jennihogan,547
jesus,548
jkgirlalltheway,549
job,550
joe,551
joejonasloverxo,552
johnny,553
johnnyparsedthreedigits,554
johnthornhill,555
jordanknight,556
journey,557
jparsedonedigitzi,558
just,559
karinkydink,560
kat,561
katecooperowen,562
kc,563
kebab,564
keema,565
kentruff,566
keyboard,567
kieronrichardso,568
kind,569
kinda,570
kindasleepy,571
kinds,572
knees,573
knew,574
know,575
knows,576
knw,577
kokeshi_me,578
kuuipoparsedfourdigits,579
la,580
lack,581
lady,582
lagi,583
lalasarah,584
laptop,585
lata,586
later,587
learn,588
lease,589
leave,590
leeconti,591
left,592
leg,593
legs,594
lesliellyn,595
let,596
lets,597
lexy,598
librivoxateers,599
life,600
lifted,601
like,602
liked,603
lil,604
lilgreenfingers,605
lisa,606
list,607
listen,608
little,609
littleliverbird,610
live,611
lives,612
ll,613
lloyddavis,614
lmao,615
lnk,616
lol,617
lols,618
long,619
loo,620
look,621
looking,622
looks,623
lorraine,624
lose,625
loss,626
lost,627
lot,628
lots,629
love,630
loved,631
lovely,632
loves,633
loveu,634
loveya,635
lparsedonedigitr,636
lt,637
lucy,638
luk,639
lunchenda,640
lunches,641
luv,642
lxvrp,643
ly,644
lying,645
lyphpcp,646
ma,647
madd,648
maggagyal,649
make,650
makemeupparsedtwodigits,651
man,652
mandyjiroux,653
mango,654
march,655
marcoshaw,656
marionette,657
marketable,658
markkayeshow,659
marleyterrier,660
marly,661
marvetbritto,662
mary,663
massive,664
mattchewcorpuz,665
matter,666
maybe,667
mbp,668
mean,669
meaning,670
meet,671
melsieparsedtwodigits,672
memory,673
men,674
mess,675
mheadcase,676
michael,677
michigan,678
midnight,679
miles,680
millajovovich,681
million,682
mind,683
minute,684
minutes,685
mircea_popescu,686
miss,687
missing,688
missy,689
mister,690
mitchelmusso,691
mitchyparsedfourdigits,692
mmm,693
mobileme,694
moderator,695
moegreeb,696
money,697
months,698
monthsary,699
montreat,700
mood,701
mornin,702
morning,703
morriscat,704
mother,705
motorcycle,706
mouth,707
movies,708
ms,709
mulator,710
multitasking,711
muscle,712
music,713
mx,714
myloc,715
myprivatemuse,716
myselfffffff,717
myspace,718
na,719
named,720
natalie,721
natta,722
nbc,723
nd,724
need,725
nephews,726
new,727
news,728
nic_a_,729
nice,730
nicely,731
nieanadya,732
niece,733
night,734
nightly,735
nikon,736
nise,737
nkotb,738
nl,739
nongling,740
note,741
nothin,742
noticed,743
nparsedtwodigitsmz,744
number,745
obama,746
occ,747
offers,748
office,749
officially,750
oh,751
ok,752
okay,753
okokok,754
old,755
olds,756
omg,757
ones,758
online,759
oowarai,760
ope,761
open,762
opened,763
opinions,764
orange,765
ordered,766
orinoco,767
oritsuru,768
orphan,769
orphesteude,770
osang,771
osangmeister,772
oth,773
outfits,774
outlet,775
outside,776
outta,777
owt,778
owwwieee,779
oz,780
pace,781
packed,782
packing,783
page,784
pal,785
pants,786
paper,787
parallel,788
parents,789
parseddigits,790
parseddigitsth,791
parsedfivedigits,792
parsedfourdigits,793
parsedonedigit,794
parsedonedigitam,795
parsedonedigitap,796
parsedonedigitbparseddigitszm,797
parsedonedigitdparseddigitsoparsedtwodigits,798
parsedonedigitg,799
parsedonedigitgmicrocell,800
parsedonedigitgs,801
parsedonedigithgvt,802
parsedonedigitimggm,803
parsedonedigitkkvli,804
parsedonedigitpm,805
parsedonedigitpopetorn,806
parsedonedigitwxparsedonedigitp,807
parsedthreedigits,808
parsedtime,809
parsedtwodigits,810
parsedtwodigitscdnparsedonedigit,811
parsedtwodigitsmparseddigits,812
parsedtwodigitswaparsedonedigit,813
parsedtwodigitswparsedonedigitcparseddigits,814
parsedtwodigitswxcn,815
parts,816
passed,817
passes,818
past,819
peanut,820
people,821
perfect,822
person,823
perzonally,824
pex,825
phd,826
philippines,827
phone,828
photo,829
photojazz,830
photos,831
pic,832
picked,833
picking,834
pics,835
pictures,836
piece,837
pieces,838
pigments,839
pink,840
pita,841
pizza,842
place,843
plans,844
play,845
playing,846
plurk,847
podcast,848
poetryinsepia,849
point,850
popular,851
post,852
poster,853
potter,854
pr,855
pr_things,856
present,857
pretty,858
pro,859
problems,860
processing,861
professor,862
proposal,863
proud,864
pshhh,865
psparsedonedigit,866
pumpkin,867
punching,868
pupp,869
pusuit,870
puts,871
putting,872
qual,873
queenmotherblog,874
quick,875
quit,876
quiz,877
radioblogger,878
rain,879
rajeshlalwani,880
ran,881
raspberries,882
rawr,883
rdangelz,884
read,885
reading,886
ready,887
real,888
realbrookewhite,889
realized,890
really,891
recommend,892
record,893
red,894
rednecks,895
reduction,896
reference,897
registration,898
related,899
relaxing,900
reminded,901
reply,902
reported,903
resolution,904
rest,905
restore,906
rid,907
ridden,908
riding,909
right,910
rillz,911
rings,912
ririardana,913
risk,914
roars,915
roasted,916
robertgirandola,917
rock,918
rt,919
rubs,920
rubyurl,921
run,922
rush,923
s_lesley,924
sad,925
sadly,926
said,927
sand,928
saradawwgs_,929
sarah,930
saramadison,931
saw,932
say,933
sayin,934
says,935
sb,936
scalp,937
scenery,938
school,939
scores,940
sea,941
seat,942
second,943
seen,944
seriously,945
settled,946
shakey,947
shaking,948
shares,949
sharing,950
shed,951
shinny,952
ship,953
shit,954
shitttt,955
shitty,956
shoot,957
shoots,958
shot,959
shoulders,960
shouldn,961
shower,962
showing,963
shows,964
si,965
sick,966
signed,967
sim,968
simcards,969
sing,970
sinking,971
sis,972
sister,973
sit,974
sitting,975
skills,976
skype,977
sleep,978
sleeping,979
slept,980
slightly,981
slr,982
sm,983
smaller,984
smart,985
smelling,986
smh,987
smile,988
smiths,989
smojica,990
smoke,991
smoking,992
snapped,993
sniffling,994
snsd,995
soaking,996
soccer,997
social,998
sofa,999
solobassteve,1000
solved,1001
someday,1002
somethin,1003
songs,1004
soon,1005
sooo,1006
soooo,1007
sooooo,1008
sore,1009
sorry,1010
sort,1011
sounds,1012
soundtrack,1013
soup,1014
space,1015
spam,1016
spare,1017
special,1018
specialist,1019
spell,1020
spending,1021
spent,1022
spiceee,1023
splinter,1024
sports,1025
start,1026
started,1027
state,1028
stay,1029
steamy,1030
stimulates,1031
stop,1032
story,1033
strawberries,1034
stress,1035
strokes,1036
stuck,1037
student,1038
stuff,1039
stylish,1040
sua,1041
subject,1042
subway,1043
sumbody,1044
summer,1045
sumwhr,1046
sunburned,1047
sunday,1048
sunny,1049
sunnysiide,1050
sunshine,1051
super,1052
superglrl,1053
supports,1054
surprisingly,1055
surraoundings,1056
suuurrrrrreeee,1057
sweet,1058
sweetener,1059
swimming,1060
swine,1061
switched,1062
syncs,1063
tackle,1064
tail,1065
taiwanfloods,1066
taking,1067
talk,1068
talking,1069
tamsterparsedfourdigits,1070
tara,1071
tattoo,1072
taylor,1073
tcot,1074
te,1075
teacher,1076
team,1077
tear,1078
technology,1079
techs,1080
telling,1081
tep,1082
terrible,1083
test,1084
tested,1085
testing,1086
text,1087
texttt,1088
thank,1089
thanks,1090
thanksgiving,1091
thats,1092
thee,1093
therezzza,1094
thesethreecities,1095
thesnarkyone,1096
things,1097
think,1098
thinks,1099
thompson,1100
thought,1101
throwing,1102
thx,1103
til,1104
till,1105
tim,1106
time,1107
times,1108
tinyurl,1109
tired,1110
today,1111
toddlers,1112
tofu,1113
togo,1114
toh,1115
tommcfly,1116
tomorrow,1117
tonight,1118
tooday,1119
took,1120
tooth,1121
tough,1122
town,1123
trail,1124
trainwreck,1125
transferred,1126
transformers,1127
trelljj,1128
tried,1129
triggered,1130
trip,1131
trips,1132
true,1133
try,1134
tuck,1135
tumblr,1136
tummy,1137
tuna,1138
turn,1139
turns,1140
tweamburke,1141
tweet,1142
twit,1143
twitgoo,1144
twitpic,1145
twitter,1146
twurl,1147
typhoon,1148
ugh,1149
uhm,1150
uk,1151
unbelievable,1152
underpaid,1153
understand,1154
update,1155
updating,1156
ur,1157
usa,1158
use,1159
used,1160
uselessly,1161
users,1162
using,1163
usnoozin,1164
usually,1165
values,1166
vbrissaparsedtwodigits,1167
ve,1168
veggies,1169
vickiheyworth,1170
video,1171
vino,1172
vitamin,1173
vnparsedonedigitni,1174
voice,1175
voorhout,1176
vt,1177
wait,1178
waiting,1179
wak,1180
walkin,1181
walking,1182
wallpaper,1183
walls,1184
wanna,1185
want,1186
wanted,1187
war,1188
wark,1189
warning,1190
wasn,1191
watch,1192
watching,1193
way,1194
wearing,1195
wedding,1196
weddings,1197
week,1198
weekend,1199
weekends,1200
weeks,1201
weight,1202
weird,1203
wen,1204
went,1205
weren,1206
westparsedtwodigits,1207
wet,1208
whee,1209
white,1210
whitecoat,1211
whore,1212
whos,1213
whre,1214
wifi,1215
wig,1216
wil,1217
wild,1218
willsketchforcake,1219
win,1220
windmill,1221
window,1222
wings,1223
winnipeg,1224
wireless,1225
wisdom,1226
wish,1227
wishing,1228
woh,1229
woke,1230
wolowitz,1231
woman,1232
won,1233
wonderful,1234
wood,1235
woooohhhoooo,1236
woooooooot,1237
woooot,1238
wore,1239
work,1240
working,1241
world,1242
worse,1243
wow,1244
wtf,1245
wtff,1246
wuzzup,1247
www,1248
xkathyxtarax,1249
xo,1250
xoxo,1251
xpr,1252
xspparsedonedigitrhparsedtwodigitsd,1253
xueparsedonedigittntparsedonedigitq,1254
xxxx,1255
ya,1256
yams,1257
yarn,1258
yay,1259
yea,1260
yeah,1261
yeahh,1262
year,1263
years,1264
yellowduckx,1265
yes,1266
yhfparsedonedigittjs,1267
ykoparsedonedigitdzg,1268
yo,1269
yoghurt,1270
yoo,1271
yu,1272
yum,1273
yup,1274
yuppp,1275
zbussey,1276
ze,1277
zen,1278
zgtdz,1279
zsa,1280
õddd,1281
