__,0
___,1
____,2
______________,3
_ibertaddigital,4
_xmas_carroll,5
aaargh,6
abandoned,7
able,8
about,9
aboutthatlife,10
above,11
absolutely,12
abt,13
acceptable,14
access,15
accessibility,16
accessing,17
accompanying,18
according,19
account,20
accounts,21
acct,22
accused,23
acting,24
action,25
activating,26
acts,27
actually,28
ad,29
add,30
addict,31
addicted,32
adding,33
address,34
addthis,35
adiman_,36
admirably,37
admit,38
adobe,39
adobemax,40
adopted,41
adopterness,42
advanced,43
advertisements,44
advertising,45
adwords,46
affair,47
affects,48
afmparsedonedigitvsmm,49
after,50
again,51
against,52
agency,53
aggregates,54
aggressive,55
agree,56
agvparsedtwodigitsznj,57
ah,58
ahead,59
ahhfuckitsguss,60
aijysfho,61
ailing,62
ain,63
aint,64
ainteeentrippin,65
air,66
aka,67
ala,68
alamo,69
alarm,70
alarms,71
albatross,72
albertmalparsedtwodigits,73
album,74
albums,75
alead,76
alexlindsay,77
alexmufferi,78
alive,79
all,80
alleged,81
allow,82
allowing,83
almost,84
alone,85
alongside,86
already,87
alright,88
also,89
always,90
am,91
amandbrar,92
amarsanghera,93
amazed,94
amazing,95
amazon,96
ammmylewis,97
amongst,98
amount,99
amused,100
an,101
analytics,102
anas_monaffal,103
and,104
android,105
androidbeam,106
androidicecreamsandwich,107
androidparsedonedigit,108
andshuttingdownru,109
andshuttingdownrunningprograms,110
angrybirds,111
angst,112
announcement,113
annoyed,114
annoying,115
another,116
anothericloudfail,117
answer,118
answers,119
anti,120
antitrust,121
anup_pillai,122
any,123
anymore,124
anyone,125
anything,126
aparsedonedigitonparsedonedigitiaa,127
aparsedthreedigitstgparsedonedigitl,128
aparsedtwodigitsy,129
apologize,130
apology,131
app,132
apparently,133
appear,134
apperature,135
apple,136
applecanada,137
appledomination,138
apples,139
appletv,140
appleupdates,141
apply,142
appointment,143
appreciated,144
appropriately,145
apps,146
appsense,147
appstore,148
apptment,149
ar,150
arc,151
architecture,152
are,153
aren,154
argument,155
ari,156
around,157
arrived,158
arrives,159
arrogance,160
arrogant,161
art,162
article,163
articles,164
artist,165
as,166
asap,167
ashercfo,168
aside,169
asimrang,170
ask,171
asked,172
ass,173
asses,174
assessment,175
asus,176
at,177
ate,178
athen,179
att,180
attempts,181
attending,182
attributed,183
audio,184
australia,185
authorise,186
authorization,187
authorize,188
auto,189
automatically,190
autosavesucks,191
av,192
available,193
avoided,194
avslparsedonedigitygu,195
avtar,196
awaited,197
away,198
awesome,199
awesomeness,200
awful,201
awkward,202
awsome,203
axlparsedonedigitkparseddigitsgs,204
ay,205
ayhokgoparsedonedigit,206
azeeparsedonedigitvparseddigits,207
azrael,208
azure,209
baby,210
babygeeks,211
back,212
background,213
backside,214
backup,215
bad,216
baffles,217
bag,218
bahhh,219
ballmer,220
ban,221
bar,222
bars,223
base,224
based,225
bastards,226
batteries,227
battery,228
batting,229
battle,230
bbm,231
bc,232
be,233
beam,234
beat,235
beautiful,236
became,237
because,238
becuz,239
bed,240
been,241
before,242
begin,243
beginning,244
behatreen,245
being,246
believe,247
bell,248
bellevue,249
beneficial,250
benrubery,251
berry,252
best,253
bestbuy,254
bestpantsten,255
beta,256
betaparsedonedigit,257
better,258
between,259
betweensundays,260
beyond,261
bff,262
bg,263
bgkimgjf,264
bgotzjparsedonedigitk,265
bgr,266
bi,267
bigbrother,268
bigdealdawson,269
biggest,270
bigmama,271
bigtrouble,272
bill,273
billgates,274
billion,275
billions,276
biltmore,277
bind,278
bing,279
bird,280
bisquiat,281
bit,282
bitch,283
bitching,284
bite,285
biz,286
bkadparsedfourdigits,287
black,288
blackberry,289
blame,290
blameitontheiphone,291
blames,292
blaparsedonedigitze,293
blaring,294
blast,295
blatant,296
blaze,297
blend,298
bless,299
blessed,300
blew,301
blhhgopo,302
blocked,303
blog,304
bloody,305
bloomberg,306
bloombergnews,307
blowing,308
blown,309
blue,310
blues,311
bmann,312
bode,313
body,314
bofh,315
bonkoif,316
bonobo,317
boo,318
book,319
bookcase,320
booked,321
bookmarks,322
books,323
boost,324
boot,325
booted,326
borders,327
bored,328
boring,329
both,330
bottlenecks,331
bottom,332
bought,333
bound,334
bout,335
box,336
boy,337
boycotting,338
bparsedonedigit,339
bpfkydparsedonedigito,340
bppjwncp,341
bqmuhxkk,342
braille,343
brain,344
brand,345
brandonminiman,346
brands,347
bravo,348
break,349
breaking,350
briancrockerjr,351
brianmincey,352
brick,353
bricked,354
brightness,355
briliant,356
brilliance,357
brilliant,358
bring,359
bringing,360
bro,361
broke,362
broken,363
brother,364
browse,365
browsers,366
browserwars,367
bs,368
bsd,369
bud,370
buffalo,371
bug,372
build,373
building,374
buildingwindowsparsedonedigit,375
builds,376
buildwindowsparsedonedigit,377
built,378
builtin,379
bulletproof,380
bullshit,381
bullying,382
bummer,383
bump,384
burn,385
business,386
businesses,387
businessuplift,388
busy,389
but,390
butler,391
buttery,392
button,393
buttons,394
buy,395
buying,396
by,397
bye,398
bznyparsedtwodigitsnn,399
cable,400
calendar,401
call,402
called,403
calling,404
calls,405
came,406
camera,407
camper,408
campus,409
can,410
canada,411
canadait,412
cancer,413
cannot,414
canon,415
cans,416
cant,417
cap,418
capabilities,419
capacity,420
car,421
caracteres,422
card,423
cards,424
care,425
careers,426
carltonparsedthreedigits,427
carrier,428
carriers,429
carrying,430
carsonfratus,431
cartoon,432
case,433
catastrophe,434
catastrophically,435
catchy,436
cause,437
causes,438
cbm,439
cc,440
centre,441
ceo,442
ceremoniously,443
certain,444
cesspit,445
chadleaman,446
champ,447
chance,448
change,449
changed,450
changer,451
changes,452
chaos,453
characters,454
charge,455
charger,456
charging,457
charity,458
charlesarthur,459
chascouponmom,460
cheap,461
check,462
checkboxes,463
chief,464
china,465
chipsets,466
choice,467
chosen,468
chris,469
chrome,470
chu,471
chucktodd,472
circustk,473
cisco,474
citizenship,475
cjjparsedtwodigitsvparsedonedigiti,476
cjonncvk,477
cjwallaceparsedtwodigits,478
clarence,479
class,480
claws,481
clean,482
cleaned,483
clear,484
cli,485
click,486
clicking,487
clocks,488
close,489
closed,490
closely,491
closer,492
closing,493
cloud,494
clouds,495
club,496
clue,497
cnet,498
cnt,499
co,500
coach,501
coast,502
coated,503
code,504
codename,505
coldplay,506
collaborated,507
colleague,508
collects,509
colour,510
combination,511
combine,512
combo,513
come,514
coming,515
comments,516
commercial,517
committed,518
communications,519
community,520
comp,521
compact,522
companies,523
company,524
compares,525
comparing,526
compatible,527
compelling,528
competitive,529
compilation,530
complain,531
complaints,532
complete,533
completes,534
compliments,535
compose,536
composite,537
computer,538
concept,539
concerned,540
concluded,541
conditions,542
conference,543
configure,544
confused,545
confusin,546
confusing,547
congratulations,548
connect,549
connected,550
connecting,551
connection,552
considering,553
console,554
consolidation,555
consultingware,556
consumer,557
cont,558
contact,559
contacts,560
contender,561
content,562
continued,563
continuing,564
continuously,565
contracts,566
control,567
convenient,568
conversation,569
conversations,570
converting,571
cool,572
coollike,573
copy,574
coqclbparsedonedigitr,575
cord,576
corporate,577
correction,578
cost,579
could,580
couldn,581
counter,582
couple,583
courtesy,584
covent,585
covers,586
coworker,587
cparsedonedigittuparsedonedigitdzk,588
cparsedtwodigitssnizt,589
crack,590
cracked,591
crankywithnophone,592
crap,593
crappy,594
crash,595
crashes,596
crashing,597
craving,598
crazy,599
cream,600
create,601
creating,602
credit,603
creepy,604
critical,605
cropping,606
crowd,607
crparsedonedigitaparseddigitskparsedonedigitu,608
crushed,609
cs,610
csaefrhc,611
ctp,612
curate,613
curious,614
current,615
currently,616
curse,617
customer,618
customers,619
custserv,620
cute,621
cuz,622
cvfwmvmo,623
cxovkparsedonedigitww,624
cyanogenmod,625
da,626
dad,627
dailydealchat,628
dalmaer,629
dam,630
damage,631
damaged,632
dammit,633
damn,634
dancemoms,635
danielpink,636
dariuszporowski,637
dark,638
darkness,639
data,640
dates,641
daughter,642
davidegori,643
day,644
dayparsedthreedigits,645
days,646
db,647
dbbwsdpx,648
dead,649
deal,650
dealing,651
dear,652
death,653
deb_lavoy,654
debt,655
debut,656
decades,657
decent,658
decide,659
decides,660
decision,661
decline,662
declining,663
definitely,664
delegates,665
delete,666
deleted,667
delicious,668
deliver,669
delivered,670
delivering,671
dell,672
demo,673
demonstration,674
dennisritchie,675
dependent,676
deploying,677
depreciate,678
derryxowners,679
design,680
designed,681
designs,682
desire,683
desired,684
desktop,685
desperatehousewives,686
destroying,687
detailed,688
details,689
dev,690
developer,691
developers,692
device,693
devices,694
dezz,695
deár,696
dff,697
dffkvnsj,698
dhilipsiva,699
dick,700
dicks,701
dictation,702
did,703
didn,704
die,705
died,706
difference,707
difficult,708
difficulties,709
digging,710
digit,711
digital,712
dilation,713
dine,714
direct,715
directions,716
directly,717
dis,718
disabling,719
disappear,720
disappointed,721
disappointing,722
disappointment,723
disaster,724
discu,725
discussion,726
dishing,727
disruptions,728
dissent,729
distributing,730
distrust,731
ditch,732
djspparsedonedigitgparseddigitsb,733
dlparsedonedigitcrczy,734
dm,735
do,736
docs,737
document,738
dodgy,739
does,740
doesn,741
doesnt,742
dohdenmg,743
doing,744
dollars,745
domain,746
don,747
done,748
dont,749
dontbemadatmebecause,750
door,751
doorstep,752
dose,753
dosent,754
dostupan,755
dotnet,756
double,757
doubt,758
douchebags,759
down,760
downgrade,761
download,762
downloads,763
dparsedonedigit,764
dparsedonedigiteejhbt,765
dparsedonedigitvjlparsedonedigitsi,766
drain,767
drakes,768
drawlin,769
dream,770
dreams,771
drewbezanson,772
drink,773
driving,774
droid,775
drop,776
dropbox,777
dropped,778
drying,779
dst,780
dubbe,781
due,782
duet,783
duff,784
dumb,785
dump,786
duped,787
duplicates,788
duplicating,789
durable,790
during,791
dvroegop,792
dxxklubp,793
dying,794
dynamics,795
ea_jorge,796
each,797
ear,798
earbuds,799
early,800
ears,801
earth,802
easier,803
easter,804
easy,805
eating,806
ebook,807
eboyee,808
eclipsed,809
economics,810
ectparsedonedigitfyia,811
ed,812
edbott,813
edchat,814
edge,815
editing,816
editor,817
edswoxoc,818
education,819
effect,820
efffing,821
efficient,822
eggs,823
either,824
ejunkie,825
elcheicon,826
electability,827
electric,828
elegance,829
elop,830
else,831
em,832
email,833
emails,834
emphasis,835
employability,836
employee,837
employees,838
empty,839
emptythreats,840
enabled,841
encourage,842
end,843
endless,844
enemies,845
engadget,846
engages,847
engaging,848
engine,849
engt,850
enhance,851
enjoy,852
enjoying,853
enough,854
enrages,855
entering,856
enterprise,857
entertaining,858
entrepreneurs,859
eorosstx,860
eparsedonedigituhkaparsedonedigitf,861
eparsedonedigitumrmro,862
epicfail,863
epub,864
equipment,865
equivalent,866
ericgreenspan,867
erp,868
errors,869
especially,870
essential,871
esxiparsedonedigit,872
eta,873
etc,874
ethiopian,875
europeansp,876
evangelist,877
even,878
event,879
events,880
ever,881
everettcoldwell,882
every,883
everybody,884
everyone,885
everything,886
everytime,887
evil,888
evo,889
exam,890
excel,891
excellent,892
except,893
exception,894
exchange,895
exchg,896
excited,897
exciting,898
exclusive,899
excuse,900
executive,901
exercise,902
exhibit,903
exorcist,904
expanded,905
expected,906
expensive,907
expensivepaperweight,908
experience,909
explain,910
explaining,911
explains,912
explorer,913
express,914
extend,915
extent,916
extreme,917
extremists,918
eye,919
eyelash,920
ezjczltparsedonedigit,921
face,922
facebook,923
facetime,924
facial,925
facialunlock,926
fact,927
faculty,928
fade,929
fail,930
failed,931
failing,932
fails,933
fair,934
fall,935
fallen,936
falling,937
false,938
family,939
fan,940
fancy,941
fantastic,942
fantasy,943
far,944
fast,945
faster,946
fat,947
fatfuckingchance,948
fault,949
favorite,950
fawkin,951
fb,952
fcucks,953
feature,954
featured,955
features,956
fed,957
federal,958
feeding,959
feel,960
feeling,961
fellows,962
few,963
fiction,964
figure,965
figured,966
figures,967
file,968
files,969
finally,970
finance,971
financial,972
find,973
fine,974
finest,975
fingers,976
fingerscrossed,977
finish,978
firefox,979
first,980
fishmama,981
fitiparsedonedigitzia,982
five,983
fix,984
fixation,985
fixed,986
fixes,987
fixing,988
fixit,989
flash,990
flashcard,991
flat,992
flawless,993
fm,994
fml,995
fmzfwgyv,996
focus,997
fold,998
folder,999
folders,1000
folks,1001
follow,1002
followers,1003
followlimitisgay,1004
followme,1005
font,1006
football,1007
for,1008
forbes,1009
force,1010
forced,1011
forces,1012
ford,1013
forever,1014
forget,1015
forgettin,1016
format,1017
former,1018
forstall,1019
forsure,1020
forth,1021
forward,1022
fotografia,1023
foundation,1024
four,1025
fparsedonedigitaztiad,1026
fparsedonedigithwanparsedonedigitq,1027
frame,1028
framework,1029
fran_mac_,1030
freaking,1031
free,1032
freedom,1033
freeze,1034
freezes,1035
french,1036
fresh,1037
friends,1038
friendship,1039
friggin,1040
from,1041
froze,1042
frozen,1043
fruits,1044
frustrated,1045
frustration,1046
fsf,1047
ftw,1048
fu,1049
fuck,1050
fucked,1051
fuckin,1052
fucking,1053
fuckingpissed,1054
fuckingshinez,1055
fucknwithfatty,1056
fucks,1057
fuh,1058
full,1059
fun,1060
function,1061
functions,1062
funds,1063
funny,1064
funnyyyyyyy,1065
future,1066
futuristic,1067
fuzzball,1068
fwm,1069
fxck,1070
fxhomehitfilm,1071
fytcyegparsedonedigit,1072
gah,1073
galaxy,1074
galaxynexus,1075
gallery,1076
game,1077
gamerchikparsedtwodigits,1078
gamers,1079
games,1080
gaming,1081
ganna,1082
garbage,1083
garden,1084
garmin,1085
garr_williams,1086
gates,1087
gatos,1088
gave,1089
gay,1090
gazmaz,1091
gb,1092
gcicpexparsedonedigit,1093
gcyparsedonedigitiphn,1094
gdcurry,1095
gear,1096
geek,1097
gem,1098
gen,1099
generator,1100
genius,1101
geniusbar,1102
german,1103
get,1104
getglue,1105
gets,1106
gettin,1107
getting,1108
gf,1109
ghost,1110
giant,1111
giants,1112
gigs,1113
girlfriend,1114
girlies,1115
give,1116
gives,1117
givin,1118
giving,1119
gjiuparsedonedigitzzparsedonedigit,1120
gklxmuiparsedonedigit,1121
gkparsedonedigityjtfy,1122
glad,1123
global,1124
globe,1125
gm,1126
gmail,1127
gmsgxcqparsedonedigit,1128
gnu,1129
gnyparsedonedigitgparsedtwodigitsb,1130
go,1131
god,1132
goes,1133
going,1134
gone,1135
gonna,1136
good,1137
goodbye,1138
goodriddance,1139
goof,1140
googland,1141
google,1142
googleapps,1143
googlemusic,1144
googleplus,1145
googleresearch,1146
googles,1147
got,1148
gotta,1149
gotten,1150
gov,1151
gpo,1152
gr,1153
grab,1154
graphic,1155
grass,1156
gratis,1157
greader,1158
great,1159
greatly,1160
greatsuccess,1161
greedy,1162
greener,1163
greenwich,1164
gregulatorparsedonedigit,1165
gretcheneclark,1166
ground,1167
grrrr,1168
gruber,1169
gt,1170
gtqdvfxo,1171
guardian,1172
guardiantech,1173
guess,1174
guide,1175
guy,1176
guys,1177
gwokoceg,1178
ha,1179
hack,1180
hacked,1181
had,1182
hah,1183
haha,1184
hahaha,1185
hailfireparsedthreedigits,1186
hairline,1187
half,1188
hand,1189
handle,1190
handled,1191
handsets,1192
handy,1193
hangouts,1194
happen,1195
happened,1196
happening,1197
happens,1198
happier,1199
happy,1200
happyplace,1201
hard,1202
harder,1203
hardware,1204
has,1205
hashtags,1206
hasn,1207
hate,1208
hater,1209
have,1210
haven,1211
havin,1212
having,1213
hay,1214
hbogo,1215
hd,1216
hdmi,1217
hdv,1218
he,1219
headed,1220
headings,1221
headphones,1222
health,1223
hear,1224
heard,1225
heck,1226
hell,1227
hella,1228
hello,1229
help,1230
helped,1231
helps,1232
her,1233
herahussain,1234
here,1235
hero,1236
hey,1237
hfwpbmyparsedonedigit,1238
hide,1239
highlight,1240
highscoolmemories,1241
hilarious,1242
him,1243
hindi,1244
hire,1245
his,1246
hiss,1247
history,1248
hit,1249
hk,1250
hmmm,1251
hmmmm,1252
hobparsedtwodigitshbo,1253
hockey,1254
hold,1255
holodeck,1256
holodesk,1257
home,1258
honeka,1259
honest,1260
hong,1261
honored,1262
hookup,1263
hope,1264
hopefully,1265
hoping,1266
horizontal,1267
horrible,1268
hosting,1269
hot,1270
hotspots,1271
hour,1272
hourly,1273
hours,1274
houston,1275
how,1276
however,1277
hp,1278
hrs,1279
ht,1280
htc,1281
htmlparsedonedigit,1282
http,1283
https,1284
hubby,1285
huh,1286
humor,1287
humpt,1288
hungry,1289
hurry,1290
hurting,1291
hurts,1292
hut,1293
hypo,1294
hypocritical,1295
håper,1296
iamdkt,1297
iancollinsuk,1298
ibm,1299
ibooks,1300
ical,1301
ice,1302
icecream,1303
icecreamsandwich,1304
icecreamsandwichfail,1305
icloud,1306
icon,1307
ics,1308
id,1309
idea,1310
ideas,1311
idisk,1312
idk,1313
idontunderstand,1314
idtheftprotect,1315
ie,1316
ieparsedonedigit,1317
if,1318
ifollowback,1319
igiveup,1320
ihateyourightnow,1321
ijparsedonedigitxydpparsedonedigit,1322
ijustine,1323
iknparsedthreedigitsze,1324
ill,1325
illustrating,1326
iloveyou,1327
im,1328
imac,1329
image,1330
images,1331
imamac,1332
imessage,1333
imightbewrong,1334
imitation,1335
immad_immad,1336
imo,1337
impact,1338
importance,1339
impossible,1340
impressed,1341
impressions,1342
impressive,1343
improve,1344
improvements,1345
in,1346
inbox,1347
inbuilt,1348
incapable,1349
include,1350
included,1351
includes,1352
incompatible,1353
inconvenienced,1354
incredible,1355
india,1356
indians,1357
individual,1358
ineedthosepictures,1359
ineedtoupdate,1360
inept,1361
inferno,1362
infinite,1363
infinitywebinar,1364
info,1365
infofail,1366
inform,1367
information,1368
informationweek,1369
injunction,1370
inline,1371
innovation,1372
innovations,1373
innovators,1374
inparsedonedigit,1375
input,1376
insane,1377
insanely,1378
inside,1379
inspired,1380
instagram,1381
install,1382
installed,1383
installing,1384
instant,1385
instantly,1386
instead,1387
insurance,1388
integrate,1389
integrated,1390
intel,1391
intensifies,1392
interest,1393
interested,1394
interesting,1395
interests,1396
interface,1397
internet,1398
interrupting,1399
intervals,1400
into,1401
introduce,1402
introduced,1403
introduces,1404
introducing,1405
introduction,1406
intuitive,1407
invented,1408
invention,1409
inventor,1410
invested,1411
investigate,1412
investments,1413
io,1414
ioparsedonedigit,1415
ios,1416
iosparsedonedigit,1417
iosparsedonedigitatemydingo,1418
iosparsedonedigitdowngrade,1419
ip,1420
ipad,1421
ipadparsedonedigit,1422
ipads,1423
iparsedonedigits,1424
iparsedonedigitsparseddigits,1425
ipas,1426
iphone,1427
iphoneparsedonedigit,1428
iphoneparsedonedigits,1429
iphones,1430
iphoto,1431
ipod,1432
ipodparsedonedigits,1433
irvysan,1434
is,1435
isb,1436
iscream,1437
iscsi,1438
ishit,1439
isn,1440
isnt,1441
isorry,1442
issue,1443
issues,1444
it,1445
italianjoya,1446
itdklrry,1447
item,1448
items,1449
itjustworks,1450
itnews_au,1451
itouch,1452
itouchparsedonedigit,1453
its,1454
itstolate,1455
itunes,1456
itunesmatch,1457
itunesmusic,1458
iuyparsedonedigitdfparsedonedigits,1459
iyoparsedtwodigitsgvj,1460
izhparsedonedigitkaiu,1461
izoparsedonedigitwunt,1462
jackasses,1463
jacked,1464
jailbroke,1465
jailbroken,1466
jaime_rivera,1467
jajajajajajaj,1468
jamaicanidler,1469
james,1470
janeparsedtwodigits,1471
japan,1472
jaroslovsky,1473
jatfvfpm,1474
jcawwrzq,1475
jean,1476
jessecablek,1477
jewelzparsedfourdigits,1478
jhdtykcv,1479
jilive,1480
jimmcniel,1481
jimmlparsedonedigitrc,1482
jizz,1483
jkotcrmb,1484
jkotcrmbstephen,1485
jldavid,1486
job,1487
jobs,1488
joebelfiore,1489
joelburns,1490
joelplane,1491
john,1492
join,1493
jolieesharmeda,1494
jolly,1495
jonparsedonedigitlakers,1496
jonsibley,1497
jparsedonedigitftieng,1498
jparsedthreedigitszfpo,1499
jsqparsedtwodigitsnuq,1500
jumpin,1501
junk,1502
jure,1503
jus,1504
just,1505
justsaying,1506
jzmvbdnm,1507
karljuhlke,1508
katebetts,1509
kathrynyee,1510
kdtdparsedonedigitzre,1511
keep,1512
keeping,1513
keeps,1514
keepthedesktop,1515
kenyaopendoor,1516
kevin,1517
key,1518
keyboard,1519
keyboards,1520
keys,1521
kgnrbvgp,1522
kick,1523
kicked,1524
kidding,1525
kids,1526
kill,1527
killed,1528
killing,1529
kimaris,1530
kind,1531
kindahow,1532
kinect,1533
king,1534
kjkzparsedtwodigitszy,1535
kjparsedonedigitpjvkh,1536
klmgkhparsedonedigitv,1537
knew,1538
knizparsedthreedigitss,1539
know,1540
known,1541
knows,1542
kong,1543
kostatsetsekas,1544
krause,1545
kudos,1546
kvjsercj,1547
kxboqskj,1548
kymbersanden,1549
la,1550
lack,1551
lacks,1552
lag,1553
lager,1554
laggin,1555
laid,1556
lame,1557
land,1558
laptop,1559
laser,1560
last,1561
lasted,1562
late,1563
later,1564
latest,1565
launch,1566
launches,1567
launchfail,1568
launching,1569
laundering,1570
law,1571
laws,1572
laying,1573
layout,1574
lcmediahouse,1575
lcxaparsedonedigitqparseddigitsp,1576
lead,1577
leader,1578
leading,1579
lean,1580
leap,1581
learn,1582
learned,1583
learning,1584
least,1585
leave,1586
leaves,1587
leaving,1588
lecture,1589
left,1590
leiboaz,1591
leopard,1592
less,1593
lesson,1594
let,1595
letdown,1596
letme,1597
lets,1598
letter,1599
letting,1600
lfparsedtwodigitszkuz,1601
lgfw,1602
licensing,1603
liciaparsedfourdigits,1604
lie,1605
lies,1606
life,1607
light,1608
lightning,1609
like,1610
likes,1611
liking,1612
lil,1613
limit,1614
line,1615
link,1616
linkedin,1617
linux,1618
lion,1619
lisa,1620
lisa_marieparsedfourdigits,1621
list,1622
listed,1623
listening,1624
listing,1625
literally,1626
little,1627
live,1628
lives,1629
living,1630
ljpgvzjt,1631
lk,1632
ll,1633
llslrxfm,1634
lmao,1635
lmfao,1636
load,1637
loathe,1638
lobby,1639
local,1640
locate,1641
located,1642
location,1643
lock,1644
logged,1645
logicparsedfourdigits,1646
login,1647
lol,1648
lolol,1649
lonely,1650
long,1651
longer,1652
look,1653
looking,1654
looks,1655
loop,1656
loose,1657
lord,1658
lords,1659
los,1660
lose,1661
losing,1662
loss,1663
lost,1664
lot,1665
lots,1666
love,1667
loved,1668
loveguru_b,1669
loves,1670
lovin,1671
loving,1672
low,1673
loyalty,1674
lparsedtwodigitsowqre,1675
lt,1676
luck,1677
lucky_parsedonedigit_have,1678
lunch,1679
lvffdcel,1680
lwjpparsedonedigitgiu,1681
lwtpxejo,1682
ly,1683
lync,1684
ma,1685
mac,1686
macbook,1687
machine,1688
mack,1689
macosc,1690
macworld,1691
mad,1692
made,1693
madness,1694
magazine,1695
magic,1696
magical,1697
magically,1698
mail,1699
mainey_maine,1700
maintenance,1701
major,1702
make,1703
makemeproud,1704
makes,1705
making,1706
mall,1707
man,1708
managed,1709
management,1710
manager,1711
mandarin,1712
manelfmartinez,1713
mango,1714
manually,1715
many,1716
maoqaplh,1717
march,1718
marcoarment,1719
mariospr,1720
market,1721
marketing,1722
marks,1723
markstuver,1724
mashable,1725
match,1726
matthewgphy,1727
mattmarcheski,1728
mattyriesz,1729
may,1730
mayati,1731
maybe,1732
mb,1733
mbl,1734
mcwparsedtwodigitsvtg,1735
mczparsedonedigitrsdf,1736
mdqhbparsedonedigitxparseddigits,1737
me,1738
mean,1739
means,1740
meant,1741
media,1742
medical,1743
meego,1744
meet,1745
mega,1746
meghankel,1747
melaleucathewellnesscompany,1748
melts,1749
member,1750
mentions,1751
mentor,1752
merchandising,1753
message,1754
messages,1755
messed,1756
messy,1757
metro,1758
microsof,1759
microsoft,1760
microsoftstores,1761
middle,1762
midnight,1763
might,1764
mightily,1765
migrating,1766
mikeferri,1767
miley,1768
mileycyrus,1769
millenia,1770
million,1771
millions,1772
mimecastsa,1773
min,1774
mind,1775
mine,1776
mins,1777
minute,1778
minutes,1779
miss,1780
missed,1781
missing,1782
mission,1783
mixedchikparsedtwodigits,1784
mixer,1785
mmm,1786
mmmm,1787
mnparsedonedigitnova,1788
mnparsedtwodigitsrparsedonedigitvc,1789
mobile,1790
mobileburn,1791
mobileme,1792
mode,1793
model,1794
modify,1795
mohamedg,1796
mole,1797
mom,1798
moment,1799
monday,1800
monkeys,1801
monopolistic,1802
monopoly,1803
month,1804
months,1805
mood,1806
more,1807
morning,1808
moron,1809
most,1810
mothafuckin,1811
motorola,1812
mountainview,1813
mouse,1814
move,1815
movies,1816
moving,1817
mp,1818
mr,1819
mr_lister,1820
mrgareth,1821
mrtonysays,1822
ms,1823
msft,1824
msftresearch,1825
msg,1826
msparsedtwodigits,1827
mspegypt,1828
mstapoutbarbie,1829
mswxparsedonedigiteoparsedonedigit,1830
mtsparsedtwodigits,1831
mtuparsedonedigittgxparsedonedigit,1832
much,1833
muchhh,1834
muh,1835
mulling,1836
multiple,1837
music,1838
must,1839
mute,1840
mv,1841
my,1842
myself,1843
nagoulparsedonedigit,1844
nam,1845
name,1846
names,1847
nansen,1848
nationalgeographic,1849
native,1850
nauseous,1851
nav,1852
navigation,1853
naw,1854
nbparsedonedigitdhlsg,1855
ndk,1856
nearly,1857
neat,1858
neck,1859
need,1860
needed,1861
neednewipadguide,1862
needparsedonedigits,1863
needs,1864
needsomethingtoread,1865
negative,1866
nejbye,1867
nerdiness,1868
net,1869
netscape,1870
network,1871
networkin,1872
never,1873
new,1874
newest,1875
newfeature,1876
news,1877
newsstand,1878
newstand,1879
newton,1880
next,1881
nexus,1882
nexusprime,1883
nfl,1884
nice,1885
nicholiparsedtwodigits,1886
nicki,1887
nicolebanyots,1888
night,1889
nightmares,1890
nirvana,1891
no,1892
nobueno,1893
nohelp,1894
nokia,1895
non,1896
none,1897
nonstop,1898
noowwwwww,1899
nopatience,1900
nor,1901
not,1902
notbook,1903
notcool,1904
note,1905
notes,1906
nothing,1907
notifications,1908
notified,1909
notifies,1910
notjustaboutthephone,1911
notresponding,1912
nov,1913
novatyler,1914
novell,1915
november,1916
now,1917
nowicanspendevenmoretimeonmyphone,1918
nparsedonedigit,1919
nparsedonedigitcpuparsedonedigitvj,1920
nsaisrip,1921
nshlfiux,1922
number,1923
numbering,1924
numbers,1925
nuther,1926
nuts,1927
ny,1928
nytimes,1929
nz,1930
obituaries,1931
obnoxious,1932
obsessions,1933
obviously,1934
occur,1935
oeurmtlx,1936
oezkparsedonedigitivparsedonedigit,1937
of,1938
off,1939
offer,1940
offering,1941
offers,1942
office,1943
official,1944
officially,1945
offing,1946
offline,1947
ofhparsedonedigitptag,1948
often,1949
oh,1950
ohnonotagain,1951
ok,1952
okay,1953
old,1954
older,1955
omfg,1956
omg,1957
omnitouch,1958
omnomnomnom,1959
on,1960
once,1961
ondxwper,1962
one,1963
ones,1964
online,1965
only,1966
onto,1967
oparsedonedigit,1968
open,1969
opening,1970
opens,1971
opensource,1972
operating,1973
operation,1974
opinions,1975
opportunity,1976
opposite,1977
option,1978
or,1979
oranges,1980
orbital,1981
order,1982
ordered,1983
ordering,1984
organic,1985
orging,1986
original,1987
os,1988
osx,1989
other,1990
others,1991
ouch,1992
ouparsedonedigitkparsedtwodigitsge,1993
our,1994
ours,1995
out,1996
outdated,1997
outlaws,1998
outlook,1999
outside,2000
over,2001
overbearing,2002
overcapacity,2003
own,2004
owner,2005
owns,2006
oyszmjvi,2007
pad,2008
page,2009
pages,2010
paging_dr_a,2011
paid,2012
pain,2013
painful,2014
painfully,2015
palmface,2016
panasonic,2017
panorama,2018
panoramas,2019
panoramic,2020
pants,2021
parents,2022
parivar,2023
parseddigits,2024
parseddigitsk,2025
parseddigitsnd,2026
parseddigitsst,2027
parseddigitsyrs,2028
parsedfivedigits,2029
parsedfourdigits,2030
parsedfourdigitsp,2031
parsedonedigit,2032
parsedonedigitaja,2033
parsedonedigitb,2034
parsedonedigitbn,2035
parsedonedigitbwtparsedonedigitwparseddigitsz,2036
parsedonedigitbwxjadg,2037
parsedonedigitchan,2038
parsedonedigitd,2039
parsedonedigitdays,2040
parsedonedigitexbnqjy,2041
parsedonedigitfmjxtmm,2042
parsedonedigitg,2043
parsedonedigitgjqvewn,2044
parsedonedigitgs,2045
parsedonedigithr,2046
parsedonedigithvbcparsedonedigitbm,2047
parsedonedigitibobnrh,2048
parsedonedigitijkparsedonedigitvbparsedonedigit,2049
parsedonedigitlike,2050
parsedonedigitnd,2051
parsedonedigitnhuyfeh,2052
parsedonedigitoensvgparsedonedigit,2053
parsedonedigitokparsedonedigitxcow,2054
parsedonedigitphhparsedonedigitjbparsedonedigit,2055
parsedonedigitpkparsedonedigitetparsedonedigitr,2056
parsedonedigitqmgparsedonedigitira,2057
parsedonedigitqnlwftparsedonedigit,2058
parsedonedigitquyparsedonedigituou,2059
parsedonedigitrkochzr,2060
parsedonedigits,2061
parsedonedigitsesvwwm,2062
parsedonedigitsjnparsedonedigitbzz,2063
parsedonedigitss,2064
parsedonedigitst,2065
parsedonedigitsunni,2066
parsedonedigitth,2067
parsedonedigituhparsedonedigitaparseddigitsvt,2068
parsedonedigituxawkwf,2069
parsedonedigitvsaszyt,2070
parsedonedigitwhhmakparsedonedigit,2071
parsedonedigitwvparsedtwodigitsoparsedonedigitv,2072
parsedonedigitx,2073
parsedonedigitxddxnparsedonedigitw,2074
parsedonedigityparseddigitsasparsedonedigitzz,2075
parsedonedigityvjmhnq,2076
parsedonedigitywvbeparsedonedigitz,2077
parsedonedigitzcqparsedtwodigitssf,2078
parsedthreedigits,2079
parsedthreedigitsdaysofgratefulness,2080
parsedthreedigitsklkfh,2081
parsedtwodigits,2082
parsedtwodigitsbit,2083
parsedtwodigitsdyonxz,2084
parsedtwodigitsgb,2085
parsedtwodigitshrs,2086
parsedtwodigitsighgic,2087
parsedtwodigitsjwparsedonedigitzparseddigitsc,2088
parsedtwodigitsk,2089
parsedtwodigitsmb,2090
parsedtwodigitsohflyparsedonedigit,2091
parsedtwodigitstwitterpeopleiwouldliketomeet,2092
parsedtwodigitswkioxc,2093
parsedtwodigitsyrparsedtwodigitswl,2094
part,2095
particularly,2096
parts,2097
party,2098
password,2099
past,2100
patent,2101
pavilions,2102
pay,2103
paying,2104
paypal,2105
pc,2106
pcam,2107
pcmjon,2108
pdbfparsedonedigithparseddigitsf,2109
pdf,2110
pdfs,2111
people,2112
per,2113
perfect,2114
perfectly,2115
perform,2116
performance,2117
perhaps,2118
perils,2119
perpetual,2120
person,2121
personal,2122
personalization,2123
petty,2124
ph,2125
philanthropy,2126
philipgrey,2127
philliprowntree,2128
philosophy,2129
phoenixswinger,2130
phone,2131
phonedog_aaron,2132
phones,2133
photo,2134
photograherseye,2135
photography,2136
photos,2137
photosharing,2138
phxguyparsedtwodigits,2139
pick,2140
picking,2141
picture,2142
pictures,2143
piece,2144
pile,2145
pinch,2146
pink,2147
piracy,2148
pissed,2149
pissing,2150
place,2151
plan,2152
planet,2153
planned,2154
plans,2155
plate,2156
platform,2157
platforms,2158
play,2159
playbooks,2160
played,2161
players,2162
playful,2163
playing,2164
playlist,2165
playlists,2166
please,2167
pleased,2168
pleasure,2169
plot,2170
plparsedonedigitzeevh,2171
pls,2172
pltitgei,2173
plus,2174
plusone,2175
plz,2176
pmphillips,2177
pocketlint,2178
podcast,2179
point,2180
points,2181
poised,2182
policies,2183
policy,2184
polish,2185
politely,2186
politicians,2187
pondering,2188
poole,2189
poor,2190
pop,2191
popular,2192
ported,2193
portland,2194
positive,2195
positives,2196
post,2197
power,2198
powered,2199
powerpivot,2200
powerpoint,2201
pparsedonedigithwoparsedtwodigitsx,2202
pparsedonedigitj,2203
pparsedonedigitmparseddigitsxvaz,2204
pparsedtwodigitsehduq,2205
ppl,2206
pqparsedtwodigitsgrra,2207
practices,2208
praying,2209
prctices,2210
pre,2211
preaching,2212
predictions,2213
premise,2214
preorder,2215
preordered,2216
present,2217
presentation,2218
presentations,2219
presents,2220
press,2221
prettier,2222
pretty,2223
prettynesz,2224
preventing,2225
preview,2226
previous,2227
price,2228
priceless,2229
prime,2230
princessofchina,2231
printed,2232
prjusto,2233
pro,2234
probably,2235
problem,2236
problems,2237
process,2238
processor,2239
procrastination,2240
produce,2241
produck,2242
product,2243
productive,2244
productivity,2245
products,2246
profile,2247
profiles,2248
profitering,2249
programs,2250
progressed,2251
progressive,2252
project,2253
prolly,2254
promise,2255
promised,2256
promoallday,2257
prone,2258
propaganda,2259
proper,2260
properly,2261
props,2262
protect,2263
protection,2264
proves,2265
provided,2266
providing,2267
proving,2268
psfk,2269
psn,2270
psujgparsedonedigitpn,2271
public,2272
publicly,2273
puck,2274
pujyvparsedonedigitcparseddigits,2275
pull,2276
pulling,2277
pulls,2278
purchase,2279
purchased,2280
purchasing,2281
purpose,2282
push,2283
put,2284
putting,2285
pytparsedonedigitvkrp,2286
qa,2287
qamjparsedonedigitmer,2288
qlparsedonedigitzmppo,2289
qmwjtvnk,2290
qparsedonedigitkecparsedonedigit,2291
qparsedonedigitqleokz,2292
qpgxle,2293
qrcode,2294
quality,2295
question,2296
questions,2297
quick,2298
quickly,2299
quickresponse,2300
quite,2301
qvparsedonedigitmparseddigitsunparsedonedigit,2302
racketeering,2303
rad_software,2304
radlerc,2305
radparsedonedigitwdsw,2306
rafts,2307
raining,2308
raise,2309
ralphbin,2310
ram,2311
ranch,2312
randomly,2313
rape,2314
rapidly,2315
rauerrtf,2316
razr,2317
re,2318
reaaly,2319
reaching,2320
reaction,2321
read,2322
readable,2323
reader,2324
readinglists,2325
ready,2326
real,2327
realise,2328
realized,2329
really,2330
reappeared,2331
reason,2332
reasons,2333
reboot,2334
rebuild,2335
receipt,2336
received,2337
recently,2338
recognition,2339
recovered,2340
red,2341
reddeersteph,2342
redeemed,2343
redesigned,2344
redmond,2345
referring,2346
regent,2347
region,2348
register,2349
registered,2350
registration,2351
regular,2352
release,2353
released,2354
releasepartyguide,2355
releases,2356
relevance,2357
reliable,2358
remember,2359
remembering,2360
remind,2361
reminder,2362
reminders,2363
removable,2364
removing,2365
remparsedonedigit,2366
rename,2367
renatmin,2368
render,2369
rep,2370
repair,2371
reparsedonedigitnlzgi,2372
replace,2373
replaced,2374
replaceit,2375
replacement,2376
replacing,2377
replied,2378
replies,2379
report,2380
reported,2381
reporting,2382
reports,2383
represent,2384
reprisk,2385
required,2386
requires,2387
research,2388
resellars,2389
reservation,2390
reserve,2391
resolve,2392
resources,2393
respect,2394
response,2395
responsive,2396
restore,2397
restored,2398
restoring,2399
restrictions,2400
retail,2401
retarded,2402
retire,2403
retrieve,2404
return,2405
returning,2406
retweet,2407
retweeted,2408
retweets,2409
revealed,2410
revenue,2411
reverting,2412
review,2413
revolution,2414
rgbhhuqp,2415
rice,2416
rich,2417
richer,2418
rickysinghpt,2419
ridic,2420
right,2421
rihanna,2422
rim,2423
rimm,2424
ring,2425
ringing,2426
rip,2427
ripstevejobs,2428
rise,2429
riskiest,2430
rite,2431
ritenow,2432
rmiparsedonedigitosmi,2433
roboto,2434
rogerweir,2435
roll,2436
ronakkataria,2437
roolz,2438
room,2439
rooting,2440
rossmistry,2441
round,2442
row,2443
roycind,2444
rparsedonedigithnettu,2445
rparsedonedigitjujsbr,2446
rparsedonedigitrndnparsedonedigity,2447
rparsedtwodigits,2448
rt,2449
rtdzjqparsedonedigitu,2450
rts,2451
ruining,2452
rule,2453
run,2454
running,2455
runtime,2456
rva,2457
rww,2458
rxwdparsedonedigitsnparsedonedigit,2459
ryanbaldwin,2460
rygurl,2461
rzucfejc,2462
sad,2463
sadmac,2464
safari,2465
safe,2466
safety,2467
sage,2468
said,2469
sake,2470
sale,2471
sales,2472
salesforce,2473
salmonella,2474
samay,2475
same,2476
samsumg,2477
samsung,2478
samsunggalaxynexus,2479
samsungmobileca,2480
samsungnexus,2481
sander_koers,2482
sandwich,2483
santa,2484
santorum,2485
sap,2486
saptha,2487
sarahhhhhparsedthreedigits,2488
save,2489
saved,2490
saw,2491
sawyerhartman,2492
say,2493
saying,2494
says,2495
sbs,2496
sbsparsedfourdigits,2497
scalability,2498
scares,2499
schaumburg,2500
schedule,2501
schestowitz,2502
school,2503
science,2504
science_alex,2505
scientist,2506
scores,2507
scottdugas,2508
scottydparsedfivedigits,2509
scream,2510
screen,2511
screened,2512
screenshot,2513
screenshots,2514
screw,2515
screwed,2516
screwing,2517
scroll,2518
scrolling,2519
sd,2520
sdk,2521
sdparsedtwodigits,2522
seamlessly,2523
search,2524
searches,2525
searching,2526
sebascoulombe,2527
second,2528
section,2529
secure,2530
see,2531
seeing,2532
seeks,2533
seem,2534
seemed,2535
seemingly,2536
seems,2537
seen,2538
select,2539
self,2540
sell,2541
selling,2542
sells,2543
selop,2544
semilshah,2545
send,2546
sending,2547
sense,2548
sent,2549
sentences,2550
sequence,2551
seriously,2552
served,2553
server,2554
servers,2555
serves,2556
service,2557
services,2558
sesamestreet,2559
session,2560
set,2561
setting,2562
settings,2563
sgn,2564
shagged,2565
shagorikah,2566
share,2567
sharepoint,2568
sharing,2569
shaydiddy,2570
she,2571
shhhh,2572
shifted,2573
ship,2574
shipping,2575
shit,2576
shitt,2577
shitty,2578
shlft,2579
shoot,2580
shore,2581
shoukd,2582
should,2583
show,2584
showed,2585
showin,2586
showing,2587
shows,2588
shuffle,2589
shutter,2590
sick,2591
side,2592
sigh,2593
sign,2594
signal,2595
signs,2596
signups,2597
silly,2598
silverlight,2599
similar,2600
simple,2601
simplifies,2602
simply,2603
sinanaral,2604
since,2605
singaporean,2606
singing,2607
siri,2608
siriwho,2609
sister,2610
sit,2611
site,2612
sites,2613
sith,2614
sitting,2615
six,2616
skandalasgp,2617
skills,2618
skin,2619
skype,2620
slacking,2621
slashgear,2622
sledgehammer,2623
sleek,2624
sleep,2625
slegit,2626
slick,2627
slide,2628
slightly,2629
slipping,2630
sloppy,2631
slow,2632
slower,2633
slowly,2634
slows,2635
sm,2636
small,2637
smallvictory,2638
smart,2639
smarterphone,2640
smartest,2641
smartkeitai,2642
smartphone,2643
smashed,2644
smau,2645
smooth,2646
sms,2647
snatched,2648
snippy,2649
snlparsedtwodigitsemparsedonedigit,2650
snow,2651
so,2652
socia,2653
social,2654
socialmedia,2655
software,2656
solution,2657
solutions,2658
solve,2659
some,2660
somehow,2661
someone,2662
someparsedonedigit,2663
something,2664
sometimes,2665
song,2666
songs,2667
sony,2668
soon,2669
sooo,2670
soooo,2671
soparsedonedigitwparseddigitsspn,2672
sorri,2673
sorry,2674
sorude,2675
sought,2676
sound,2677
soundmore,2678
sounds,2679
source,2680
sources,2681
space,2682
spacecanard,2683
spaces,2684
spam,2685
spanish,2686
sparsedonedigit,2687
speakers,2688
speaking,2689
speed,2690
spell,2691
spend,2692
spending,2693
spiral,2694
spoiled,2695
spoke,2696
spongebob,2697
sponsors,2698
spontaneously,2699
sports,2700
spparsedfourdigits,2701
sprint,2702
spying,2703
sql,2704
srbmparsedonedigitvparseddigitsk,2705
st,2706
stable,2707
stacks,2708
staff,2709
stage,2710
stalkerismo,2711
stalking,2712
stand,2713
standards,2714
star,2715
start,2716
started,2717
starting,2718
starts,2719
station,2720
steffen,2721
step,2722
steps,2723
steve,2724
steveballmer,2725
steveballmet,2726
stevejobs,2727
stewart,2728
stick,2729
stickies,2730
sticking,2731
sticky,2732
still,2733
stink,2734
stolen,2735
stop,2736
storage,2737
store,2738
stores,2739
stories,2740
story,2741
straight,2742
strangest,2743
strategy,2744
stream,2745
street,2746
stressed,2747
stuck,2748
students,2749
studies,2750
study,2751
studying,2752
studyingwhilstmotivated,2753
stuff,2754
stumped,2755
stupid,2756
style,2757
stylus,2758
submitted,2759
subtweeting,2760
succeed,2761
succesfully,2762
success,2763
such,2764
sucha,2765
suck,2766
suckers,2767
sucking,2768
sucks,2769
sudden,2770
suddenly,2771
sugar,2772
suggested,2773
suing,2774
summer,2775
sums,2776
sun,2777
sunday,2778
super,2779
superb,2780
superphone,2781
support,2782
supports,2783
sure,2784
surely,2785
surface,2786
surprised,2787
survey,2788
surviving,2789
susanfelicity,2790
suspecting,2791
sux,2792
swallow,2793
sware,2794
swear,2795
sweatshops,2796
sweet,2797
switch,2798
switched,2799
switching,2800
swpats,2801
swype,2802
sydney,2803
sym,2804
sync,2805
syncing,2806
syncronize,2807
syncs,2808
sysadmin,2809
system,2810
systems,2811
tablet,2812
tablets,2813
tah_med,2814
take,2815
taken,2816
takes,2817
taking,2818
talk,2819
talking,2820
target,2821
tasparsedfivedigits,2822
taste,2823
taught,2824
tbnyxparsedonedigitpparseddigits,2825
tcn,2826
team,2827
teamed,2828
teamfollowback,2829
teams,2830
tear,2831
teasing,2832
tech,2833
techedafrica,2834
techfest,2835
techflash,2836
techie,2837
techietroubles,2838
technical,2839
technological,2840
technologies,2841
technology,2842
techsupport,2843
teehee,2844
telegraph,2845
tell,2846
telling,2847
tells,2848
terms,2849
terrible,2850
test,2851
testing,2852
tests,2853
text,2854
texts,2855
tha,2856
than,2857
thank,2858
thankful,2859
thankfully,2860
thanks,2861
thanksfornothing,2862
that,2863
thats,2864
thattechguyparsedtwodigits,2865
the,2866
theft,2867
thegadgetshow,2868
their,2869
thelittleappkid,2870
them,2871
theme,2872
themes,2873
then,2874
thenonsensepersists,2875
there,2876
theresamarosy,2877
these,2878
they,2879
thievingbastards,2880
thing,2881
things,2882
thingsweallhate,2883
think,2884
thinking,2885
thinks,2886
third,2887
this,2888
thnx,2889
tho,2890
thomas,2891
thorn,2892
thorough,2893
those,2894
though,2895
thought,2896
thoughtful,2897
thoughts,2898
threat,2899
three,2900
throat,2901
through,2902
throw,2903
thumbs,2904
thunderbird,2905
thunderbolt,2906
thursday,2907
thx,2908
tiger,2909
til,2910
time,2911
timed,2912
times,2913
timewarnercable,2914
timing,2915
tint,2916
tired,2917
tita_ramos,2918
titanic,2919
tl,2920
tmdfqreparsedonedigit,2921
tmw,2922
to,2923
today,2924
together,2925
told,2926
toledo,2927
tomcolontonio,2928
tomkeene,2929
tommylee,2930
tomorrow,2931
tone,2932
tones,2933
tonight,2934
tonite,2935
tons,2936
too,2937
took,2938
tool,2939
tools,2940
top,2941
toparsedonedigitne,2942
tossing,2943
total,2944
totally,2945
touch,2946
touchscreen,2947
toys,2948
tragic,2949
training,2950
transferred,2951
trash,2952
treyhobparsedtwodigits,2953
tri,2954
trial,2955
tribute,2956
tried,2957
tries,2958
trip,2959
triple,2960
triplingo,2961
trivia,2962
trojan,2963
tron,2964
tronman,2965
trouble,2966
truly,2967
try,2968
trying,2969
tt,2970
tuesday,2971
tunes,2972
turn,2973
turned,2974
turning,2975
turns,2976
tv,2977
twaeudbp,2978
twalve,2979
tweet,2980
tweeted,2981
tweeter,2982
tweeting,2983
tweets,2984
twitter,2985
twitterapp,2986
twitterer,2987
twitterless,2988
twitternation,2989
twitterswag,2990
two,2991
tx,2992
ty,2993
type,2994
uaqrxtnk,2995
uber,2996
uch,2997
ufparsedonedigittakparsedonedigitf,2998
ugh,2999
ughh,3000
uh,3001
ui,3002
uiparsedonedigitadparsedonedigitfj,3003
uiparsedonedigitloezx,3004
ultimate,3005
um,3006
umber,3007
umd,3008
umparsedthreedigitsjfh,3009
unable,3010
unbelievable,3011
under,3012
undergo,3013
underrated,3014
understand,3015
underwhelming,3016
undo,3017
unexpected,3018
unfair,3019
unhappy,3020
unified,3021
units,3022
university,3023
unless,3024
unlike,3025
unlock,3026
unlocking,3027
unmindful,3028
unproductive,3029
unreal,3030
until,3031
unveil,3032
unveiled,3033
up,3034
upcoming,3035
update,3036
updated,3037
updater,3038
updates,3039
updating,3040
upgrade,3041
upgraded,3042
upgrades,3043
upgrading,3044
upload,3045
ups,3046
upset,3047
ur,3048
url,3049
us,3050
usage,3051
use,3052
used,3053
useful,3054
useless,3055
user,3056
users,3057
uses,3058
using,3059
usual,3060
utilities,3061
utter,3062
utterly,3063
uweyalkb,3064
validated,3065
values,3066
vancouver,3067
vanillalatte_xd,3068
vattam,3069
ve,3070
vegas,3071
venturebeat,3072
verizon,3073
verizonwireless,3074
vers,3075
version,3076
vertical,3077
very,3078
via,3079
vibrate,3080
victim,3081
victims,3082
video,3083
videos,3084
views,3085
vinodrad,3086
violated,3087
viparsedonedigithtjrr,3088
virtual,3089
visigoth,3090
visit,3091
vista,3092
visual,3093
vjparsedonedigitjpktm,3094
vkvparsedonedigittbcj,3095
vmware,3096
voice,3097
voices,3098
volume,3099
vpqoyxwa,3100
vs,3101
vslive,3102
vsphereparsedonedigit,3103
vtybqiparsedtwodigits,3104
vulnerability,3105
vuwgyxparsedonedigitn,3106
vvparsedonedigitltkyp,3107
vwciovparsedonedigitf,3108
waaaaay,3109
wack,3110
waddya,3111
wait,3112
waited,3113
waiting,3114
walk,3115
walled,3116
wallet,3117
wallpaper,3118
wanna,3119
want,3120
wanted,3121
wanting,3122
wants,3123
war,3124
warm,3125
warning,3126
warranty,3127
wars,3128
was,3129
wash,3130
wasn,3131
wasted,3132
wasting,3133
watch,3134
watchdog,3135
watched,3136
watching,3137
water,3138
wave,3139
way,3140
waynp,3141
we,3142
web,3143
webcamps,3144
webgl,3145
webos,3146
webpage,3147
webpronews,3148
website,3149
wedpbcpx,3150
week,3151
weekend,3152
weirdhttp,3153
weirdo,3154
welcome,3155
welcomeskype,3156
well,3157
wellisparsedtwodigits,3158
went,3159
were,3160
west,3161
wfrzkysn,3162
whaddupwitdat,3163
whale,3164
what,3165
whatchu,3166
when,3167
whenever,3168
where,3169
whhyy,3170
which,3171
while,3172
white,3173
who,3174
whoever,3175
whoops,3176
whore,3177
whores,3178
whoring,3179
why,3180
widget,3181
widgets,3182
wife,3183
wifi,3184
wififofum,3185
will,3186
william,3187
wilth,3188
win,3189
windows,3190
windowsparsedonedigit,3191
windowsphone,3192
windowsphoneparsedonedigit,3193
winning,3194
winrt,3195
wiped,3196
wireless,3197
wisconsin_mommy,3198
wise,3199
wish,3200
wit,3201
witchcraft,3202
with,3203
within,3204
without,3205
wmp,3206
wo,3207
won,3208
wonder,3209
wondering,3210
wonky,3211
wont,3212
wooden,3213
woods,3214
word,3215
words,3216
work,3217
worked,3218
workers,3219
workflow,3220
workflows,3221
working,3222
works,3223
workshop,3224
workstation,3225
world,3226
worldwide,3227
worried,3228
worse,3229
worst,3230
worstupdateever,3231
worth,3232
would,3233
wouldn,3234
wounded,3235
wow,3236
wowww,3237
wparsedonedigitocrbpm,3238
wparsedthreedigitsbfsparsedonedigit,3239
wpdesignteam,3240
wpparsedonedigit,3241
wps,3242
wpt,3243
wristpad,3244
write,3245
writing,3246
wrong,3247
wtf,3248
wth,3249
wtjparsedonedigitogdo,3250
wuhu,3251
wuppy,3252
wxbcparsedonedigituuw,3253
xbl,3254
xbox,3255
xboxlive,3256
xcuntnuggetx,3257
xero,3258
xghoevparsedonedigitk,3259
xliparsedonedigitbrparsedtwodigits,3260
xolrauey,3261
xparsedonedigitqzexparsedonedigitf,3262
xparsedonedigitywfnsv,3263
xsjgifop,3264
xtzmpsmt,3265
xvparsedonedigitqparseddigitsgfi,3266
xx,3267
ya,3268
yahoo,3269
yapping,3270
yashasjoshi,3271
yeah,3272
year,3273
years,3274
yeh,3275
yellow,3276
yellowgate,3277
yep,3278
yes,3279
yessss,3280
yesterday,3281
yet,3282
ykchtuparsedonedigith,3283
ykqipparsedonedigitnk,3284
yo,3285
yootfktm,3286
you,3287
your,3288
yourdaysarenumbered,3289
yours,3290
yourself,3291
youtube,3292
youuuuuuuuuuuu,3293
yparsedonedigit,3294
yr,3295
yrckqeis,3296
yrs,3297
yummy,3298
yumyumyum,3299
yup,3300
yuvalz,3301
yyparsedonedigithnrbq,3302
yzhcdgfp,3303
zacksiezmagraff,3304
zappos,3305
zbltzparsedonedigitmw,3306
zero,3307
zgbkparsedonedigitxnk,3308
zixfaparsedtwodigitsn,3309
zknparsedonedigitbuparsedonedigitr,3310
zndpparsedonedigitvrparsedonedigit,3311
zombiebomber,3312
zoom,3313
zparsedonedigitbbjparsedonedigitxu,3314
zparsedonedigitidoniparsedonedigit,3315
zparsedonedigitjwlqvu,3316
zune,3317
zxparsedonedigitpwparsedonedigitgt,3318
zzcparsedonedigitbeparsedonedigitw,3319
zzkparsedonedigitftii,3320
你好,3321
透過,3322
